Linux 4.17.2 (bench) 	08/03/2018 	_x86_64_	(4 CPU)

avg-cpu:  %user   %nice %system %iowait  %steal   %idle
          10.26    0.02    4.16    2.70    0.00   82.87

Device:         rrqm/s   wrqm/s     r/s     w/s    rkB/s    wkB/s avgrq-sz avgqu-sz   await r_await w_await  svctm  %util
sda              52.36     4.20 1713.68  101.39 21302.95  3102.42    26.89     1.05    0.58    0.26    5.92   0.06  10.98
sdb              52.16     4.16 1713.68  101.53 21292.44  3099.12    26.87     1.05    0.58    0.26    5.85   0.06  10.86
sdc              90.01     4.22 1673.73  101.08 21284.62  3101.55    27.48     1.47    0.83    0.45    7.12   0.08  14.35
sdd              83.52     4.19 1679.41  101.15 21269.62  3097.79    27.37     1.47    0.83    0.44    7.33   0.08  14.45
sde              85.52     4.23 1684.49  101.25 21329.06  3101.99    27.36     1.49    0.84    0.44    7.44   0.08  14.47
sdf              82.66     4.20 1686.61  101.19 21310.48  3098.89    27.31     1.54    0.86    0.44    7.90   0.08  14.50
sdg               0.00     3.17   26.73   73.28   325.71   392.06    14.35     0.44    4.40    0.20    5.93   0.08   0.78
sdh               0.00     0.13    0.02    0.23     2.19     5.01    56.82     0.00    1.15    0.65    1.19   0.21   0.01
md0               0.00     0.00 10605.24  475.06 146022.67 21235.65    30.19     0.00    0.00    0.00    0.00   0.00   0.00

avg-cpu:  %user   %nice %system %iowait  %steal   %idle
           0.12    0.01   11.20    0.03    0.00   88.64

Device:         rrqm/s   wrqm/s     r/s     w/s    rkB/s    wkB/s avgrq-sz avgqu-sz   await r_await w_await  svctm  %util
sda               0.05     0.00 17366.75    0.00 69467.20     0.00     8.00     3.71    0.21    0.21    0.00   0.05  80.81
sdb               0.00     0.00 17291.90    0.00 69167.60     0.00     8.00     3.71    0.21    0.21    0.00   0.05  81.07
sdc               0.00     0.00 17386.20    0.00 69544.80     0.00     8.00     3.75    0.22    0.22    0.00   0.05  82.97
sdd               0.00     0.00 17308.80    0.00 69235.20     0.00     8.00     3.78    0.22    0.22    0.00   0.05  83.33
sde               0.05     0.00 17321.15    0.00 69284.80     0.00     8.00     3.83    0.22    0.22    0.00   0.05  84.22
sdf               0.10     0.00 17330.85    0.00 69323.80     0.00     8.00     3.88    0.22    0.22    0.00   0.05  84.85
sdg               0.00     0.05   96.75    0.45   436.60     8.80     9.16     0.01    0.13    0.13    0.44   0.12   1.16
sdh               0.00     0.00    0.00    0.00     0.00     0.00     0.00     0.00    0.00    0.00    0.00   0.00   0.00
md0               0.00     0.00 104007.60    0.00 416030.40     0.00     8.00     0.00    0.00    0.00    0.00   0.00   0.00

