Linux 4.17.2 (bench) 	08/03/2018 	_x86_64_	(4 CPU)

avg-cpu:  %user   %nice %system %iowait  %steal   %idle
          10.28    0.02    4.08    2.60    0.00   83.03

Device:         rrqm/s   wrqm/s     r/s     w/s    rkB/s    wkB/s avgrq-sz avgqu-sz   await r_await w_await  svctm  %util
sda              47.08     4.23 1666.96  102.30 20994.02  3130.23    27.27     1.04    0.59    0.26    5.92   0.06  10.78
sdb              46.93     4.19 1666.91  102.44 20983.45  3126.90    27.25     1.03    0.58    0.26    5.85   0.06  10.66
sdc              84.84     4.25 1626.90  101.99 20975.53  3129.36    27.88     1.45    0.84    0.45    7.12   0.08  14.12
sdd              78.28     4.22 1632.64  102.06 20960.50  3125.57    27.77     1.46    0.84    0.44    7.33   0.08  14.21
sde              80.30     4.27 1637.71  102.16 21020.20  3129.81    27.76     1.48    0.85    0.44    7.44   0.08  14.24
sdf              77.42     4.24 1639.86  102.10 21001.47  3126.67    27.70     1.53    0.88    0.44    7.90   0.08  14.27
sdg               0.00     3.17   26.36   73.31   324.20   392.03    14.37     0.44    4.41    0.20    5.93   0.08   0.78
sdh               0.00     0.13    0.02    0.23     2.21     5.05    56.82     0.00    1.15    0.65    1.19   0.21   0.01
md0               0.00     0.00 10292.63  479.32 143779.08 21426.04    30.67     0.00    0.00    0.00    0.00   0.00   0.00

avg-cpu:  %user   %nice %system %iowait  %steal   %idle
           0.26    0.00    3.32    7.40    0.00   89.03

Device:         rrqm/s   wrqm/s     r/s     w/s    rkB/s    wkB/s avgrq-sz avgqu-sz   await r_await w_await  svctm  %util
sda               9.00     0.00 1977.00    0.00 49576.00     0.00    50.15     1.34    0.68    0.68    0.00   0.11  22.40
sdb              11.00     0.00 1942.00    0.00 48352.00     0.00    49.80     1.44    0.74    0.74    0.00   0.11  22.00
sdc               8.00     0.00 2106.00    0.00 49036.00     0.00    46.57     2.58    1.23    1.23    0.00   0.15  31.90
sdd               4.00     0.00 2024.00    0.00 49492.00     0.00    48.91     2.84    1.40    1.40    0.00   0.16  32.10
sde              10.00     0.00 2085.00    0.00 50428.00     0.00    48.37     2.84    1.36    1.36    0.00   0.15  32.30
sdf               8.00     0.00 2036.00    0.00 49788.00     0.00    48.91     2.65    1.30    1.30    0.00   0.16  31.90
sdg               0.00     0.00    3.00    0.00   100.00     0.00    66.67     0.00    0.33    0.33    0.00   0.33   0.10
sdh               0.00     0.00    0.00    0.00     0.00     0.00     0.00     0.00    0.00    0.00    0.00   0.00   0.00
md0               0.00     0.00 12222.00    0.00 322048.00     0.00    52.70     0.00    0.00    0.00    0.00   0.00   0.00

avg-cpu:  %user   %nice %system %iowait  %steal   %idle
           0.25    0.00    3.52   20.85    0.00   75.38

Device:         rrqm/s   wrqm/s     r/s     w/s    rkB/s    wkB/s avgrq-sz avgqu-sz   await r_await w_await  svctm  %util
sda              33.00     0.00 1054.00    0.00 27604.00     0.00    52.38     0.20    0.19    0.19    0.00   0.17  17.50
sdb              33.00     0.00 1019.00    0.00 26240.00     0.00    51.50     0.19    0.19    0.19    0.00   0.16  16.00
sdc              28.00     0.00 1064.00    0.00 26944.00     0.00    50.65     0.28    0.27    0.27    0.00   0.21  22.30
sdd              29.00     0.00 1075.00    0.00 25100.00     0.00    46.70     0.26    0.24    0.24    0.00   0.20  21.90
sde              27.00     0.00 1106.00    0.00 26604.00     0.00    48.11     0.26    0.23    0.23    0.00   0.20  21.70
sdf              28.00     0.00 1123.00    0.00 26856.00     0.00    47.83     0.28    0.25    0.25    0.00   0.21  23.10
sdg               0.00     0.00    0.00    0.00     0.00     0.00     0.00     0.00    0.00    0.00    0.00   0.00   0.00
sdh               0.00     0.00    0.00    0.00     0.00     0.00     0.00     0.00    0.00    0.00    0.00   0.00   0.00
md0               0.00     0.00 6619.00    0.00 229328.00     0.00    69.29     0.00    0.00    0.00    0.00   0.00   0.00

avg-cpu:  %user   %nice %system %iowait  %steal   %idle
           0.50    0.00    3.27   20.85    0.00   75.38

Device:         rrqm/s   wrqm/s     r/s     w/s    rkB/s    wkB/s avgrq-sz avgqu-sz   await r_await w_await  svctm  %util
sda              34.00     0.00 1080.00    0.00 28500.00     0.00    52.78     0.22    0.20    0.20    0.00   0.17  18.10
sdb              37.00     0.00 1045.00    0.00 29212.00     0.00    55.91     0.20    0.20    0.20    0.00   0.16  16.90
sdc              39.00     0.00 1084.00    0.00 28252.00     0.00    52.13     0.31    0.29    0.29    0.00   0.22  24.10
sdd              36.00     0.00 1018.00    0.00 28212.00     0.00    55.43     0.29    0.29    0.29    0.00   0.22  22.00
sde              37.00     0.00 1087.00    0.00 28532.00     0.00    52.50     0.32    0.29    0.29    0.00   0.22  24.00
sdf              36.00     0.00 1094.00    0.00 28036.00     0.00    51.25     0.29    0.27    0.27    0.00   0.21  22.70
sdg               0.00     0.00    0.00    0.00     0.00     0.00     0.00     0.00    0.00    0.00    0.00   0.00   0.00
sdh               0.00     0.00    0.00    0.00     0.00     0.00     0.00     0.00    0.00    0.00    0.00   0.00   0.00
md0               0.00     0.00 6626.00    0.00 235796.00     0.00    71.17     0.00    0.00    0.00    0.00   0.00   0.00

avg-cpu:  %user   %nice %system %iowait  %steal   %idle
           0.25    0.00    2.79    4.06    0.00   92.89

Device:         rrqm/s   wrqm/s     r/s     w/s    rkB/s    wkB/s avgrq-sz avgqu-sz   await r_await w_await  svctm  %util
sda              25.00     0.00 1129.00    0.00 21816.00     0.00    38.65     0.19    0.17    0.17    0.00   0.15  16.60
sdb              26.00     0.00 1106.00    0.00 22296.00     0.00    40.32     0.20    0.18    0.18    0.00   0.15  17.10
sdc              24.00     0.00 1142.00    0.00 20972.00     0.00    36.73     0.26    0.23    0.23    0.00   0.17  19.90
sdd              24.00     0.00 1131.00    0.00 21660.00     0.00    38.30     0.27    0.24    0.24    0.00   0.18  20.80
sde              24.00     0.00 1164.00    0.00 22192.00     0.00    38.13     0.27    0.23    0.23    0.00   0.18  20.80
sdf              23.00     0.00 1117.00    0.00 22548.00     0.00    40.37     0.27    0.24    0.24    0.00   0.19  21.10
sdg               0.00     0.00   16.00    0.00   296.00     0.00    37.00     0.00    0.19    0.19    0.00   0.19   0.30
sdh               0.00     0.00    0.00    0.00     0.00     0.00     0.00     0.00    0.00    0.00    0.00   0.00   0.00
md0               0.00     0.00 6936.00    0.00 180240.00     0.00    51.97     0.00    0.00    0.00    0.00   0.00   0.00

avg-cpu:  %user   %nice %system %iowait  %steal   %idle
           0.00    0.00    2.79    1.27    0.00   95.94

Device:         rrqm/s   wrqm/s     r/s     w/s    rkB/s    wkB/s avgrq-sz avgqu-sz   await r_await w_await  svctm  %util
sda              26.00     0.00 1064.00    0.00 22792.00     0.00    42.84     0.18    0.17    0.17    0.00   0.15  16.10
sdb              23.00     0.00 1089.00    0.00 22524.00     0.00    41.37     0.19    0.18    0.18    0.00   0.16  17.20
sdc              25.00     0.00 1088.00    0.00 22196.00     0.00    40.80     0.22    0.20    0.20    0.00   0.18  19.10
sdd              26.00     0.00 1163.00    0.00 23156.00     0.00    39.82     0.23    0.20    0.20    0.00   0.18  20.50
sde              24.00     0.00 1091.00    0.00 22440.00     0.00    41.14     0.24    0.22    0.22    0.00   0.19  20.70
sdf              25.00     0.00 1075.00    0.00 22048.00     0.00    41.02     0.23    0.22    0.22    0.00   0.19  20.60
sdg               0.00     0.00    0.00    0.00     0.00     0.00     0.00     0.00    0.00    0.00    0.00   0.00   0.00
sdh               0.00     0.00    0.00    0.00     0.00     0.00     0.00     0.00    0.00    0.00    0.00   0.00   0.00
md0               0.00     0.00 6718.00    0.00 167728.00     0.00    49.93     0.00    0.00    0.00    0.00   0.00   0.00

avg-cpu:  %user   %nice %system %iowait  %steal   %idle
           0.25    0.00    2.78    1.26    0.00   95.71

Device:         rrqm/s   wrqm/s     r/s     w/s    rkB/s    wkB/s avgrq-sz avgqu-sz   await r_await w_await  svctm  %util
sda              20.00     0.00 1103.00    0.00 20084.00     0.00    36.42     0.17    0.15    0.15    0.00   0.14  15.60
sdb              23.00     0.00 1080.00    0.00 21896.00     0.00    40.55     0.17    0.15    0.15    0.00   0.14  15.40
sdc              23.00     0.00 1078.00    0.00 21664.00     0.00    40.19     0.21    0.19    0.19    0.00   0.18  19.70
sdd              19.00     0.00 1029.00    0.00 20440.00     0.00    39.73     0.19    0.19    0.19    0.00   0.18  18.50
sde              18.00     0.00 1189.00    0.00 18048.00     0.00    30.36     0.19    0.16    0.16    0.00   0.16  18.90
sdf              18.00     0.00 1121.00    0.00 19532.00     0.00    34.85     0.19    0.17    0.17    0.00   0.16  18.00
sdg               0.00     0.00    0.00    0.00     0.00     0.00     0.00     0.00    0.00    0.00    0.00   0.00   0.00
sdh               0.00     0.00    0.00    0.00     0.00     0.00     0.00     0.00    0.00    0.00    0.00   0.00   0.00
md0               0.00     0.00 6721.00    0.00 152648.00     0.00    45.42     0.00    0.00    0.00    0.00   0.00   0.00

avg-cpu:  %user   %nice %system %iowait  %steal   %idle
           0.25    0.00    2.28    9.39    0.00   88.07

Device:         rrqm/s   wrqm/s     r/s     w/s    rkB/s    wkB/s avgrq-sz avgqu-sz   await r_await w_await  svctm  %util
sda              15.00     0.00 1161.00    0.00 19844.00     0.00    34.18     0.17    0.15    0.15    0.00   0.14  15.80
sdb              20.00     0.00 1088.00    0.00 20348.00     0.00    37.40     0.17    0.15    0.15    0.00   0.15  15.80
sdc              20.00     0.00 1107.00    0.00 20344.00     0.00    36.76     0.21    0.19    0.19    0.00   0.18  19.50
sdd              22.00     0.00 1079.00    0.00 20064.00     0.00    37.19     0.20    0.19    0.19    0.00   0.18  19.10
sde              20.00     0.00 1177.00    0.00 19524.00     0.00    33.18     0.21    0.18    0.18    0.00   0.16  19.40
sdf              18.00     0.00 1138.00    0.00 18512.00     0.00    32.53     0.22    0.19    0.19    0.00   0.17  19.90
sdg               0.00     0.00    0.00    0.00     0.00     0.00     0.00     0.00    0.00    0.00    0.00   0.00   0.00
sdh               0.00     0.00    0.00    0.00     0.00     0.00     0.00     0.00    0.00    0.00    0.00   0.00   0.00
md0               0.00     0.00 6866.00    0.00 150608.00     0.00    43.87     0.00    0.00    0.00    0.00   0.00   0.00

avg-cpu:  %user   %nice %system %iowait  %steal   %idle
           0.25    0.00    2.54    1.27    0.00   95.94

Device:         rrqm/s   wrqm/s     r/s     w/s    rkB/s    wkB/s avgrq-sz avgqu-sz   await r_await w_await  svctm  %util
sda              11.00     0.00 1133.00    0.00 17900.00     0.00    31.60     0.15    0.14    0.14    0.00   0.13  15.00
sdb              11.00     0.00 1143.00    0.00 16516.00     0.00    28.90     0.15    0.14    0.14    0.00   0.13  15.30
sdc              16.00     0.00 1072.00    0.00 17172.00     0.00    32.04     0.18    0.17    0.17    0.00   0.17  18.10
sdd              14.00     0.00 1205.00    0.00 15968.00     0.00    26.50     0.20    0.16    0.16    0.00   0.16  18.70
sde              12.00     0.00 1149.00    0.00 15848.00     0.00    27.59     0.18    0.16    0.16    0.00   0.15  17.50
sdf              13.00     0.00 1122.00    0.00 16112.00     0.00    28.72     0.20    0.17    0.17    0.00   0.17  18.60
sdg               0.00     0.00    0.00    0.00     0.00     0.00     0.00     0.00    0.00    0.00    0.00   0.00   0.00
sdh               0.00     0.00    0.00    0.00     0.00     0.00     0.00     0.00    0.00    0.00    0.00   0.00   0.00
md0               0.00     0.00 6902.00    0.00 123700.00     0.00    35.84     0.00    0.00    0.00    0.00   0.00   0.00

avg-cpu:  %user   %nice %system %iowait  %steal   %idle
           0.25    0.00    2.53    1.27    0.00   95.95

Device:         rrqm/s   wrqm/s     r/s     w/s    rkB/s    wkB/s avgrq-sz avgqu-sz   await r_await w_await  svctm  %util
sda              20.00     0.00 1065.00    0.00 20432.00     0.00    38.37     0.18    0.17    0.17    0.00   0.15  16.40
sdb              20.00     0.00 1114.00    0.00 19620.00     0.00    35.22     0.17    0.15    0.15    0.00   0.14  15.50
sdc              20.00     0.00 1088.00    0.00 20280.00     0.00    37.28     0.21    0.19    0.19    0.00   0.17  18.80
sdd              19.00     0.00 1141.00    0.00 19736.00     0.00    34.59     0.23    0.20    0.20    0.00   0.18  20.20
sde              19.00     0.00 1167.00    0.00 19160.00     0.00    32.84     0.22    0.19    0.19    0.00   0.16  19.10
sdf              20.00     0.00 1104.00    0.00 23028.00     0.00    41.72     0.23    0.21    0.21    0.00   0.18  20.00
sdg               0.00     0.00    0.00    0.00     0.00     0.00     0.00     0.00    0.00    0.00    0.00   0.00   0.00
sdh               0.00     0.00    0.00    0.00     0.00     0.00     0.00     0.00    0.00    0.00    0.00   0.00   0.00
md0               0.00     0.00 6795.00    0.00 159700.00     0.00    47.01     0.00    0.00    0.00    0.00   0.00   0.00

avg-cpu:  %user   %nice %system %iowait  %steal   %idle
           0.25    0.25    3.05   10.41    0.00   86.04

Device:         rrqm/s   wrqm/s     r/s     w/s    rkB/s    wkB/s avgrq-sz avgqu-sz   await r_await w_await  svctm  %util
sda              34.00     0.00 1114.00    0.00 26656.00     0.00    47.86     0.21    0.19    0.19    0.00   0.16  17.40
sdb              34.00     0.00 1124.00    0.00 27288.00     0.00    48.56     0.21    0.19    0.19    0.00   0.16  17.70
sdc              33.00     0.00 1104.00    0.00 28804.00     0.00    52.18     0.28    0.26    0.26    0.00   0.20  22.60
sdd              34.00     0.00 1127.00    0.00 27124.00     0.00    48.13     0.27    0.24    0.24    0.00   0.20  22.00
sde              36.00     0.00 1065.00    0.00 28684.00     0.00    53.87     0.28    0.27    0.27    0.00   0.22  23.00
sdf              34.00     0.00 1088.00    0.00 25712.00     0.00    47.26     0.29    0.27    0.27    0.00   0.20  22.20
sdg               0.00     2.00 1336.00    3.00  5344.00    44.00     8.05     0.16    0.12    0.12    0.67   0.12  16.30
sdh               0.00     0.00    0.00    0.00     0.00     0.00     0.00     0.00    0.00    0.00    0.00   0.00   0.00
md0               0.00     0.00 6827.00    0.00 208964.00     0.00    61.22     0.00    0.00    0.00    0.00   0.00   0.00

avg-cpu:  %user   %nice %system %iowait  %steal   %idle
           0.25    0.00    3.28   20.96    0.00   75.51

Device:         rrqm/s   wrqm/s     r/s     w/s    rkB/s    wkB/s avgrq-sz avgqu-sz   await r_await w_await  svctm  %util
sda               7.00     0.00 1148.00    0.00 15956.00     0.00    27.80     0.15    0.14    0.14    0.00   0.13  15.10
sdb               6.00     0.00 1155.00    0.00 13252.00     0.00    22.95     0.15    0.13    0.13    0.00   0.13  15.20
sdc              10.00     0.00 1140.00    0.00 14848.00     0.00    26.05     0.17    0.15    0.15    0.00   0.15  16.80
sdd               8.00     0.00 1166.00    0.00 14592.00     0.00    25.03     0.19    0.16    0.16    0.00   0.16  18.10
sde               7.00     0.00 1154.00    0.00 14064.00     0.00    24.37     0.18    0.15    0.15    0.00   0.15  17.00
sdf               9.00     0.00 1139.00    0.00 14312.00     0.00    25.13     0.18    0.16    0.16    0.00   0.15  17.60
sdg               0.00     0.00    0.00    0.00     0.00     0.00     0.00     0.00    0.00    0.00    0.00   0.00   0.00
sdh               0.00     0.00    0.00    0.00     0.00     0.00     0.00     0.00    0.00    0.00    0.00   0.00   0.00
md0               0.00     0.00 6949.00    0.00 108296.00     0.00    31.17     0.00    0.00    0.00    0.00   0.00   0.00

avg-cpu:  %user   %nice %system %iowait  %steal   %idle
           0.00    0.00    2.79   21.07    0.00   76.14

Device:         rrqm/s   wrqm/s     r/s     w/s    rkB/s    wkB/s avgrq-sz avgqu-sz   await r_await w_await  svctm  %util
sda              24.00     0.00 1068.00    0.00 23484.00     0.00    43.98     0.19    0.18    0.18    0.00   0.16  16.70
sdb              25.00     0.00 1076.00    0.00 21420.00     0.00    39.81     0.19    0.18    0.18    0.00   0.16  16.70
sdc              25.00     0.00 1109.00    0.00 23536.00     0.00    42.45     0.25    0.23    0.23    0.00   0.19  21.30
sdd              26.00     0.00 1071.00    0.00 22764.00     0.00    42.51     0.25    0.24    0.24    0.00   0.19  20.80
sde              28.00     0.00 1124.00    0.00 23388.00     0.00    41.62     0.27    0.24    0.24    0.00   0.19  21.10
sdf              25.00     0.00 1172.00    0.00 22152.00     0.00    37.80     0.27    0.23    0.23    0.00   0.18  21.40
sdg               0.00     0.00    0.00    4.00     0.00   128.00    64.00     0.00    0.75    0.00    0.75   0.25   0.10
sdh               0.00     0.00    0.00    0.00     0.00     0.00     0.00     0.00    0.00    0.00    0.00   0.00   0.00
md0               0.00     0.00 6774.00    0.00 194428.00     0.00    57.40     0.00    0.00    0.00    0.00   0.00   0.00

avg-cpu:  %user   %nice %system %iowait  %steal   %idle
           0.50    0.00    3.27   11.56    0.00   84.67

Device:         rrqm/s   wrqm/s     r/s     w/s    rkB/s    wkB/s avgrq-sz avgqu-sz   await r_await w_await  svctm  %util
sda              20.00     0.00 1123.00    0.00 22032.00     0.00    39.24     0.17    0.15    0.15    0.00   0.14  15.50
sdb              24.00     0.00 1071.00    0.00 21824.00     0.00    40.75     0.18    0.17    0.17    0.00   0.15  16.50
sdc              23.00     0.00 1070.00    0.00 20404.00     0.00    38.14     0.22    0.21    0.21    0.00   0.17  18.30
sdd              18.00     0.00 1185.00    0.00 19504.00     0.00    32.92     0.24    0.21    0.21    0.00   0.17  20.60
sde              18.00     0.00 1148.00    0.00 20860.00     0.00    36.34     0.23    0.20    0.20    0.00   0.18  20.10
sdf              21.00     0.00 1087.00    0.00 21216.00     0.00    39.04     0.22    0.20    0.20    0.00   0.18  19.30
sdg               0.00     0.00    0.00    0.00     0.00     0.00     0.00     0.00    0.00    0.00    0.00   0.00   0.00
sdh               0.00     0.00    0.00    0.00     0.00     0.00     0.00     0.00    0.00    0.00    0.00   0.00   0.00
md0               0.00     0.00 6807.00    0.00 171688.00     0.00    50.44     0.00    0.00    0.00    0.00   0.00   0.00

avg-cpu:  %user   %nice %system %iowait  %steal   %idle
           0.25    0.00    2.53    9.11    0.00   88.10

Device:         rrqm/s   wrqm/s     r/s     w/s    rkB/s    wkB/s avgrq-sz avgqu-sz   await r_await w_await  svctm  %util
sda              18.00     0.00 1063.00    0.00 20656.00     0.00    38.86     0.15    0.15    0.15    0.00   0.14  15.20
sdb              19.00     0.00 1139.00    0.00 19724.00     0.00    34.63     0.17    0.15    0.15    0.00   0.14  16.40
sdc              19.00     0.00 1132.00    0.00 20040.00     0.00    35.41     0.21    0.19    0.19    0.00   0.17  19.50
sdd              18.00     0.00 1121.00    0.00 18056.00     0.00    32.21     0.21    0.19    0.19    0.00   0.17  19.60
sde              14.00     0.00 1120.00    0.00 18988.00     0.00    33.91     0.20    0.17    0.17    0.00   0.17  18.50
sdf              13.00     0.00 1147.00    0.00 19004.00     0.00    33.14     0.21    0.18    0.18    0.00   0.18  20.20
sdg               0.00     0.00    0.00    0.00     0.00     0.00     0.00     0.00    0.00    0.00    0.00   0.00   0.00
sdh               0.00     0.00    0.00    0.00     0.00     0.00     0.00     0.00    0.00    0.00    0.00   0.00   0.00
md0               0.00     0.00 6825.00    0.00 155708.00     0.00    45.63     0.00    0.00    0.00    0.00   0.00   0.00

avg-cpu:  %user   %nice %system %iowait  %steal   %idle
           0.25    0.00    3.54   21.01    0.00   75.19

Device:         rrqm/s   wrqm/s     r/s     w/s    rkB/s    wkB/s avgrq-sz avgqu-sz   await r_await w_await  svctm  %util
sda              32.00     0.00 1042.00    0.00 24364.00     0.00    46.76     0.18    0.17    0.17    0.00   0.15  15.80
sdb              28.00     0.00 1039.00    0.00 23208.00     0.00    44.67     0.19    0.17    0.17    0.00   0.16  16.50
sdc              25.00     0.00 1120.00    0.00 21196.00     0.00    37.85     0.24    0.21    0.21    0.00   0.18  20.30
sdd              23.00     0.00 1147.00    0.00 20012.00     0.00    34.89     0.23    0.19    0.19    0.00   0.17  19.30
sde              22.00     0.00 1086.00    0.00 21600.00     0.00    39.78     0.24    0.21    0.21    0.00   0.19  21.00
sdf              29.00     0.00 1092.00    0.00 23800.00     0.00    43.59     0.24    0.21    0.21    0.00   0.20  21.30
sdg               0.00    71.00    0.00 2434.00     0.00 12096.00     9.94    14.72    6.05    0.00    6.05   0.04  10.70
sdh               0.00     0.00    0.00    0.00     0.00     0.00     0.00     0.00    0.00    0.00    0.00   0.00   0.00
md0               0.00     0.00 6700.00    0.00 191400.00     0.00    57.13     0.00    0.00    0.00    0.00   0.00   0.00

avg-cpu:  %user   %nice %system %iowait  %steal   %idle
           0.25    0.00    3.27   20.91    0.00   75.57

Device:         rrqm/s   wrqm/s     r/s     w/s    rkB/s    wkB/s avgrq-sz avgqu-sz   await r_await w_await  svctm  %util
sda              30.00     0.00 1013.00    0.00 27936.00     0.00    55.15     0.20    0.20    0.20    0.00   0.17  16.90
sdb              33.00     0.00 1079.00    0.00 27556.00     0.00    51.08     0.22    0.21    0.21    0.00   0.17  18.30
sdc              31.00     0.00 1098.00    0.00 26000.00     0.00    47.36     0.29    0.27    0.27    0.00   0.20  22.00
sdd              27.00     0.00 1082.00    0.00 25976.00     0.00    48.01     0.29    0.28    0.28    0.00   0.20  22.10
sde              27.00     0.00 1172.00    0.00 25908.00     0.00    44.21     0.30    0.27    0.27    0.00   0.19  22.40
sdf              30.00     0.00 1117.00    0.00 26300.00     0.00    47.09     0.31    0.28    0.28    0.00   0.21  23.00
sdg               0.00     0.00    0.00    0.00     0.00     0.00     0.00     0.00    0.00    0.00    0.00   0.00   0.00
sdh               0.00     0.00    0.00    0.00     0.00     0.00     0.00     0.00    0.00    0.00    0.00   0.00   0.00
md0               0.00     0.00 6723.00    0.00 189384.00     0.00    56.34     0.00    0.00    0.00    0.00   0.00   0.00

avg-cpu:  %user   %nice %system %iowait  %steal   %idle
           0.25    0.00    3.02   10.08    0.00   86.65

Device:         rrqm/s   wrqm/s     r/s     w/s    rkB/s    wkB/s avgrq-sz avgqu-sz   await r_await w_await  svctm  %util
sda              28.00     0.00 1103.00    0.00 23728.00     0.00    43.02     0.20    0.18    0.18    0.00   0.15  17.00
sdb              28.00     0.00 1069.00    0.00 26320.00     0.00    49.24     0.20    0.19    0.19    0.00   0.15  16.20
sdc              32.00     0.00 1039.00    0.00 25256.00     0.00    48.62     0.29    0.28    0.28    0.00   0.20  21.20
sdd              30.00     0.00 1093.00    0.00 24424.00     0.00    44.69     0.28    0.26    0.26    0.00   0.19  21.00
sde              28.00     0.00 1124.00    0.00 23296.00     0.00    41.45     0.28    0.25    0.25    0.00   0.19  21.20
sdf              29.00     0.00 1105.00    0.00 25232.00     0.00    45.67     0.28    0.26    0.26    0.00   0.20  22.40
sdg               0.00     0.00    0.00    0.00     0.00     0.00     0.00     0.00    0.00    0.00    0.00   0.00   0.00
sdh               0.00     0.00    0.00    0.00     0.00     0.00     0.00     0.00    0.00    0.00    0.00   0.00   0.00
md0               0.00     0.00 6707.00    0.00 192164.00     0.00    57.30     0.00    0.00    0.00    0.00   0.00   0.00

avg-cpu:  %user   %nice %system %iowait  %steal   %idle
           0.00    0.00    2.30    1.02    0.00   96.68

Device:         rrqm/s   wrqm/s     r/s     w/s    rkB/s    wkB/s avgrq-sz avgqu-sz   await r_await w_await  svctm  %util
sda              30.00     0.00 1039.00    0.00 26712.00     0.00    51.42     0.20    0.20    0.20    0.00   0.16  17.10
sdb              29.00     0.00 1103.00    0.00 24124.00     0.00    43.74     0.20    0.18    0.18    0.00   0.16  17.60
sdc              28.00     0.00 1079.00    0.00 24104.00     0.00    44.68     0.24    0.22    0.22    0.00   0.19  20.10
sdd              28.00     0.00 1097.00    0.00 25160.00     0.00    45.87     0.26    0.23    0.23    0.00   0.20  22.00
sde              32.00     0.00 1040.00    0.00 24976.00     0.00    48.03     0.25    0.24    0.24    0.00   0.20  21.10
sdf              33.00     0.00 1086.00    0.00 25764.00     0.00    47.45     0.26    0.24    0.24    0.00   0.19  20.70
sdg               0.00     0.00    0.00    0.00     0.00     0.00     0.00     0.00    0.00    0.00    0.00   0.00   0.00
sdh               0.00     0.00    0.00    0.00     0.00     0.00     0.00     0.00    0.00    0.00    0.00   0.00   0.00
md0               0.00     0.00 6625.00    0.00 188896.00     0.00    57.03     0.00    0.00    0.00    0.00   0.00   0.00

avg-cpu:  %user   %nice %system %iowait  %steal   %idle
           0.51    0.00    2.53    1.26    0.00   95.71

Device:         rrqm/s   wrqm/s     r/s     w/s    rkB/s    wkB/s avgrq-sz avgqu-sz   await r_await w_await  svctm  %util
sda              28.00     0.00 1088.00    0.00 23888.00     0.00    43.91     0.19    0.18    0.18    0.00   0.16  17.00
sdb              29.00     0.00 1066.00    0.00 25384.00     0.00    47.62     0.20    0.19    0.19    0.00   0.16  17.40
sdc              29.00     0.00 1031.00    0.00 24840.00     0.00    48.19     0.25    0.25    0.25    0.00   0.20  20.70
sdd              30.00     0.00 1101.00    0.00 24644.00     0.00    44.77     0.26    0.24    0.24    0.00   0.19  21.20
sde              27.00     0.00 1150.00    0.00 24860.00     0.00    43.23     0.27    0.24    0.24    0.00   0.19  22.30
sdf              25.00     0.00 1124.00    0.00 22468.00     0.00    39.98     0.25    0.23    0.23    0.00   0.19  20.90
sdg               0.00     0.00    0.00    0.00     0.00     0.00     0.00     0.00    0.00    0.00    0.00   0.00   0.00
sdh               0.00     0.00    0.00    0.00     0.00     0.00     0.00     0.00    0.00    0.00    0.00   0.00   0.00
md0               0.00     0.00 6728.00    0.00 201692.00     0.00    59.96     0.00    0.00    0.00    0.00   0.00   0.00

avg-cpu:  %user   %nice %system %iowait  %steal   %idle
           0.00    0.00    2.81   12.24    0.00   84.95

Device:         rrqm/s   wrqm/s     r/s     w/s    rkB/s    wkB/s avgrq-sz avgqu-sz   await r_await w_await  svctm  %util
sda              23.00     0.00 1110.00    0.00 20364.00     0.00    36.69     0.18    0.16    0.16    0.00   0.15  16.40
sdb              22.00     0.00 1117.00    0.00 20572.00     0.00    36.83     0.18    0.16    0.16    0.00   0.15  16.50
sdc              21.00     0.00 1192.00    0.00 17988.00     0.00    30.18     0.22    0.18    0.18    0.00   0.16  19.50
sdd              19.00     0.00 1169.00    0.00 18244.00     0.00    31.21     0.22    0.18    0.18    0.00   0.17  19.60
sde              18.00     0.00 1107.00    0.00 18664.00     0.00    33.72     0.22    0.19    0.19    0.00   0.17  19.30
sdf              21.00     0.00 1179.00    0.00 18280.00     0.00    31.01     0.22    0.18    0.18    0.00   0.16  19.30
sdg               0.00    10.00   11.00  118.00    44.00   640.00    10.60     0.24    1.84    0.91    1.92   0.07   0.90
sdh               0.00     0.00    0.00    0.00     0.00     0.00     0.00     0.00    0.00    0.00    0.00   0.00   0.00
md0               0.00     0.00 7009.00    0.00 164028.00     0.00    46.80     0.00    0.00    0.00    0.00   0.00   0.00

