Linux 4.17.2 (bench) 	08/03/2018 	_x86_64_	(4 CPU)

avg-cpu:  %user   %nice %system %iowait  %steal   %idle
          10.27    0.02    4.09    2.60    0.00   83.02

Device:         rrqm/s   wrqm/s     r/s     w/s    rkB/s    wkB/s avgrq-sz avgqu-sz   await r_await w_await  svctm  %util
sda              47.07     4.23 1667.36  102.27 20996.89  3129.17    27.27     1.04    0.59    0.26    5.92   0.06  10.79
sdb              46.92     4.19 1667.31  102.40 20986.34  3125.84    27.25     1.03    0.58    0.26    5.85   0.06  10.67
sdc              84.82     4.25 1627.32  101.96 20978.44  3128.30    27.88     1.45    0.84    0.45    7.12   0.08  14.13
sdd              78.26     4.22 1633.05  102.03 20963.39  3124.50    27.77     1.46    0.84    0.44    7.33   0.08  14.22
sde              80.28     4.27 1638.12  102.12 21023.07  3128.74    27.76     1.48    0.85    0.44    7.44   0.08  14.24
sdf              77.40     4.24 1640.27  102.07 21004.35  3125.61    27.70     1.53    0.88    0.44    7.90   0.08  14.27
sdg               0.00     3.17   26.37   73.30   324.21   392.01    14.37     0.44    4.41    0.20    5.93   0.08   0.78
sdh               0.00     0.13    0.02    0.23     2.20     5.05    56.82     0.00    1.15    0.65    1.19   0.21   0.01
md0               0.00     0.00 10294.99  479.15 143806.30 21418.74    30.67     0.00    0.00    0.00    0.00   0.00   0.00

avg-cpu:  %user   %nice %system %iowait  %steal   %idle
           0.21    0.01    3.25    5.32    0.00   91.21

Device:         rrqm/s   wrqm/s     r/s     w/s    rkB/s    wkB/s avgrq-sz avgqu-sz   await r_await w_await  svctm  %util
sda             119.95     0.00  480.35    0.00 72974.00     0.00   303.84     0.31    0.64    0.64    0.00   0.51  24.38
sdb             119.60     0.00  468.40    0.00 73766.60     0.00   314.97     0.31    0.67    0.67    0.00   0.53  24.71
sdc             122.60     0.00  466.60    0.00 73965.80     0.00   317.04     0.49    1.04    1.04    0.00   0.79  36.96
sdd             120.15     0.00  471.75    0.00 72876.80     0.00   308.96     0.48    1.02    1.02    0.00   0.77  36.52
sde             118.15     0.00  469.40    0.00 72746.00     0.00   309.95     0.50    1.06    1.06    0.00   0.81  38.08
sdf             116.95     0.00  475.30    0.00 73117.20     0.00   307.67     0.48    1.01    1.01    0.00   0.77  36.59
sdg               0.00     0.10    1.55   71.10    13.60   377.80    10.77     0.43    5.86    0.16    5.99   0.05   0.35
sdh               0.00     0.00    0.00    0.00     0.00     0.00     0.00     0.00    0.00    0.00    0.00   0.00   0.00
md0               0.00     0.00 3550.15    0.00 618264.00     0.00   348.30     0.00    0.00    0.00    0.00   0.00   0.00

