Linux 4.17.2 (bench) 	08/03/2018 	_x86_64_	(4 CPU)

avg-cpu:  %user   %nice %system %iowait  %steal   %idle
          10.27    0.02    4.08    2.60    0.00   83.03

Device:         rrqm/s   wrqm/s     r/s     w/s    rkB/s    wkB/s avgrq-sz avgqu-sz   await r_await w_await  svctm  %util
sda              47.07     4.23 1666.91  102.29 20994.70  3129.96    27.27     1.04    0.59    0.26    5.92   0.06  10.78
sdb              46.93     4.19 1666.87  102.43 20984.12  3126.63    27.25     1.03    0.58    0.26    5.85   0.06  10.66
sdc              84.83     4.25 1626.86  101.98 20976.21  3129.09    27.89     1.45    0.84    0.45    7.12   0.08  14.12
sdd              78.27     4.22 1632.59  102.05 20961.18  3125.29    27.77     1.46    0.84    0.44    7.33   0.08  14.22
sde              80.30     4.27 1637.66  102.15 21020.88  3129.53    27.76     1.48    0.85    0.44    7.44   0.08  14.24
sdf              77.42     4.24 1639.81  102.09 21002.15  3126.40    27.70     1.53    0.88    0.44    7.90   0.08  14.27
sdg               0.00     3.17   26.37   73.30   324.20   392.02    14.37     0.44    4.41    0.20    5.93   0.08   0.78
sdh               0.00     0.13    0.02    0.23     2.21     5.05    56.82     0.00    1.15    0.65    1.19   0.21   0.01
md0               0.00     0.00 10292.33  479.27 143787.05 21424.16    30.68     0.00    0.00    0.00    0.00   0.00   0.00

avg-cpu:  %user   %nice %system %iowait  %steal   %idle
           3.75    0.00   13.50    7.75    0.00   75.00

Device:         rrqm/s   wrqm/s     r/s     w/s    rkB/s    wkB/s avgrq-sz avgqu-sz   await r_await w_await  svctm  %util
sda             169.00     0.00  226.00    0.00 90272.00     0.00   798.87     0.50    2.18    2.18    0.00   1.14  25.70
sdb             173.00     0.00  214.00    0.00 90128.00     0.00   842.32     0.52    2.39    2.39    0.00   1.22  26.20
sdc             167.00     0.00  237.00    0.00 89384.00     0.00   754.30     1.06    4.45    4.45    0.00   1.82  43.10
sdd             171.00     0.00  234.00    0.00 90348.00     0.00   772.21     1.07    4.55    4.55    0.00   1.84  43.00
sde             171.00     0.00  233.00    0.00 90560.00     0.00   777.34     1.07    4.55    4.55    0.00   1.86  43.30
sdf             170.00     0.00  221.00    0.00 89928.00     0.00   813.83     1.05    4.74    4.74    0.00   1.95  43.20
sdg               0.00     0.00    3.00    0.00   100.00     0.00    66.67     0.00    0.00    0.00    0.00   0.00   0.00
sdh               0.00     0.00    0.00    0.00     0.00     0.00     0.00     0.00    0.00    0.00    0.00   0.00   0.00
md0               0.00     0.00 2403.00    0.00 843088.00     0.00   701.70     0.00    0.00    0.00    0.00   0.00   0.00

avg-cpu:  %user   %nice %system %iowait  %steal   %idle
           1.01    0.00    7.79   15.83    0.00   75.38

Device:         rrqm/s   wrqm/s     r/s     w/s    rkB/s    wkB/s avgrq-sz avgqu-sz   await r_await w_await  svctm  %util
sda             323.00     0.00  394.00    0.00 173664.00     0.00   881.54     0.88    2.25    2.25    0.00   1.24  48.70
sdb             322.00     0.00  398.00    0.00 174196.00     0.00   875.36     0.89    2.27    2.27    0.00   1.24  49.20
sdc             328.00     0.00  376.00    0.00 173844.00     0.00   924.70     1.93    5.13    5.13    0.00   2.16  81.40
sdd             327.00     0.00  384.00    0.00 172688.00     0.00   899.42     1.92    4.99    4.99    0.00   2.12  81.40
sde             324.00     0.00  401.00    0.00 172748.00     0.00   861.59     1.92    4.79    4.79    0.00   2.04  81.80
sdf             328.00     0.00  390.00    0.00 173032.00     0.00   887.34     1.96    5.01    5.01    0.00   2.10  82.00
sdg               0.00     0.00    0.00    0.00     0.00     0.00     0.00     0.00    0.00    0.00    0.00   0.00   0.00
sdh               0.00     0.00    0.00    0.00     0.00     0.00     0.00     0.00    0.00    0.00    0.00   0.00   0.00
md0               0.00     0.00 4298.00    0.00 1650876.00     0.00   768.21     0.00    0.00    0.00    0.00   0.00   0.00

avg-cpu:  %user   %nice %system %iowait  %steal   %idle
           1.50    0.00    7.27   16.04    0.00   75.19

Device:         rrqm/s   wrqm/s     r/s     w/s    rkB/s    wkB/s avgrq-sz avgqu-sz   await r_await w_await  svctm  %util
sda             317.00     0.00  389.00    0.00 169884.00     0.00   873.44     0.93    2.39    2.39    0.00   1.24  48.10
sdb             316.00     0.00  377.00    0.00 169864.00     0.00   901.14     0.93    2.47    2.47    0.00   1.29  48.80
sdc             318.00     0.00  389.00    0.00 169464.00     0.00   871.28     1.93    4.96    4.96    0.00   2.07  80.60
sdd             315.00     0.00  393.00    0.00 169836.00     0.00   864.31     1.96    4.98    4.98    0.00   2.05  80.50
sde             316.00     0.00  398.00    0.00 169800.00     0.00   853.27     1.95    4.91    4.91    0.00   2.05  81.40
sdf             317.00     0.00  389.00    0.00 169912.00     0.00   873.58     1.98    5.09    5.09    0.00   2.10  81.80
sdg               0.00     0.00    0.00    0.00     0.00     0.00     0.00     0.00    0.00    0.00    0.00   0.00   0.00
sdh               0.00     0.00    0.00    0.00     0.00     0.00     0.00     0.00    0.00    0.00    0.00   0.00   0.00
md0               0.00     0.00 4222.00    0.00 1599784.00     0.00   757.83     0.00    0.00    0.00    0.00   0.00   0.00

avg-cpu:  %user   %nice %system %iowait  %steal   %idle
           1.26    0.25    7.58   15.66    0.00   75.25

Device:         rrqm/s   wrqm/s     r/s     w/s    rkB/s    wkB/s avgrq-sz avgqu-sz   await r_await w_await  svctm  %util
sda             320.00     0.00  397.00    0.00 172468.00     0.00   868.86     0.88    2.21    2.21    0.00   1.20  47.50
sdb             327.00     0.00  386.00    0.00 172724.00     0.00   894.94     0.91    2.34    2.34    0.00   1.27  49.20
sdc             321.00     0.00  402.00    0.00 173284.00     0.00   862.11     1.93    4.83    4.83    0.00   2.03  81.60
sdd             322.00     0.00  396.00    0.00 173372.00     0.00   875.62     1.98    5.03    5.03    0.00   2.07  81.80
sde             324.00     0.00  378.00    0.00 173024.00     0.00   915.47     1.91    5.08    5.08    0.00   2.15  81.30
sdf             324.00     0.00  392.00    0.00 173020.00     0.00   882.76     1.96    5.02    5.02    0.00   2.09  81.80
sdg               0.00     0.00   42.00    0.00   480.00     0.00    22.86     0.01    0.17    0.17    0.00   0.14   0.60
sdh               0.00     0.00    0.00    0.00     0.00     0.00     0.00     0.00    0.00    0.00    0.00   0.00   0.00
md0               0.00     0.00 4288.00    0.00 1571392.00     0.00   732.93     0.00    0.00    0.00    0.00   0.00   0.00

avg-cpu:  %user   %nice %system %iowait  %steal   %idle
           1.51    0.00    7.05   15.87    0.00   75.57

Device:         rrqm/s   wrqm/s     r/s     w/s    rkB/s    wkB/s avgrq-sz avgqu-sz   await r_await w_await  svctm  %util
sda             300.00     0.00  369.00    0.00 170184.00     0.00   922.41     0.83    2.26    2.26    0.00   1.27  46.70
sdb             296.00     0.00  383.00    0.00 170328.00     0.00   889.44     0.89    2.32    2.32    0.00   1.26  48.40
sdc             298.00     0.00  375.00    0.00 170088.00     0.00   907.14     1.80    4.79    4.79    0.00   2.11  79.30
sdd             299.00     0.00  372.00    0.00 170192.00     0.00   915.01     1.79    4.78    4.78    0.00   2.15  80.00
sde             297.00     0.00  380.00    0.00 171112.00     0.00   900.59     1.79    4.73    4.73    0.00   2.11  80.10
sdf             301.00     0.00  369.00    0.00 170352.00     0.00   923.32     1.76    4.76    4.76    0.00   2.18  80.60
sdg               0.00     0.00    0.00    0.00     0.00     0.00     0.00     0.00    0.00    0.00    0.00   0.00   0.00
sdh               0.00     0.00    0.00    0.00     0.00     0.00     0.00     0.00    0.00    0.00    0.00   0.00   0.00
md0               0.00     0.00 4035.00    0.00 1507064.00     0.00   747.00     0.00    0.00    0.00    0.00   0.00   0.00

avg-cpu:  %user   %nice %system %iowait  %steal   %idle
           1.27    0.00    7.34   15.70    0.00   75.70

Device:         rrqm/s   wrqm/s     r/s     w/s    rkB/s    wkB/s avgrq-sz avgqu-sz   await r_await w_await  svctm  %util
sda             325.00     0.00  396.00    0.00 174368.00     0.00   880.65     0.91    2.31    2.31    0.00   1.22  48.30
sdb             327.00     0.00  389.00    0.00 174512.00     0.00   897.23     0.92    2.37    2.37    0.00   1.28  49.90
sdc             330.00     0.00  400.00    0.00 175056.00     0.00   875.28     1.99    4.99    4.99    0.00   2.05  82.10
sdd             327.00     0.00  382.00    0.00 175112.00     0.00   916.82     1.97    5.19    5.19    0.00   2.15  82.00
sde             328.00     0.00  394.00    0.00 174556.00     0.00   886.07     1.97    4.99    4.99    0.00   2.09  82.20
sdf             327.00     0.00  391.00    0.00 175108.00     0.00   895.69     1.95    5.01    5.01    0.00   2.11  82.40
sdg               0.00     0.00    0.00    0.00     0.00     0.00     0.00     0.00    0.00    0.00    0.00   0.00   0.00
sdh               0.00     0.00    0.00    0.00     0.00     0.00     0.00     0.00    0.00    0.00    0.00   0.00   0.00
md0               0.00     0.00 4313.00    0.00 1519504.00     0.00   704.62     0.00    0.00    0.00    0.00   0.00   0.00

avg-cpu:  %user   %nice %system %iowait  %steal   %idle
           1.27    0.00    9.62   15.95    0.00   73.16

Device:         rrqm/s   wrqm/s     r/s     w/s    rkB/s    wkB/s avgrq-sz avgqu-sz   await r_await w_await  svctm  %util
sda             312.00     0.00  371.00    0.00 168032.00     0.00   905.83     0.86    2.33    2.33    0.00   1.29  47.70
sdb             309.00     0.00  395.00    0.00 167584.00     0.00   848.53     0.92    2.33    2.33    0.00   1.24  49.00
sdc             310.00     0.00  406.00    0.00 166824.00     0.00   821.79     1.90    4.66    4.66    0.00   1.97  79.90
sdd             312.00     0.00  397.00    0.00 166636.00     0.00   839.48     1.88    4.72    4.72    0.00   2.00  79.40
sde             312.00     0.00  395.00    0.00 166924.00     0.00   845.18     1.85    4.67    4.67    0.00   2.01  79.50
sdf             313.00     0.00  368.00    0.00 166784.00     0.00   906.43     1.90    5.15    5.15    0.00   2.16  79.60
sdg               0.00   130.00    8.00 2569.00    32.00 12748.00     9.92    15.96    6.19    1.25    6.21   0.05  11.70
sdh               0.00     0.00    0.00    0.00     0.00     0.00     0.00     0.00    0.00    0.00    0.00   0.00   0.00
md0               0.00     0.00 4208.00    0.00 1500028.00     0.00   712.94     0.00    0.00    0.00    0.00   0.00   0.00

avg-cpu:  %user   %nice %system %iowait  %steal   %idle
           1.26    0.00    9.55   15.33    0.00   73.87

Device:         rrqm/s   wrqm/s     r/s     w/s    rkB/s    wkB/s avgrq-sz avgqu-sz   await r_await w_await  svctm  %util
sda             328.00     0.00  387.00    0.00 175216.00     0.00   905.51     0.96    2.49    2.49    0.00   1.27  49.30
sdb             328.00     0.00  374.00    0.00 174544.00     0.00   933.39     0.97    2.60    2.60    0.00   1.33  49.70
sdc             327.00     0.00  375.00    0.00 174872.00     0.00   932.65     1.96    5.22    5.22    0.00   2.20  82.60
sdd             331.00     0.00  374.00    0.00 174936.00     0.00   935.49     1.98    5.27    5.27    0.00   2.24  83.60
sde             329.00     0.00  383.00    0.00 174744.00     0.00   912.50     2.01    5.23    5.23    0.00   2.18  83.60
sdf             329.00     0.00  382.00    0.00 174688.00     0.00   914.60     1.96    5.12    5.12    0.00   2.18  83.40
sdg               0.00     0.00    0.00    0.00     0.00     0.00     0.00     0.00    0.00    0.00    0.00   0.00   0.00
sdh               0.00     0.00    0.00    0.00     0.00     0.00     0.00     0.00    0.00    0.00    0.00   0.00   0.00
md0               0.00     0.00 4258.00    0.00 1537888.00     0.00   722.35     0.00    0.00    0.00    0.00   0.00   0.00

avg-cpu:  %user   %nice %system %iowait  %steal   %idle
           1.52    0.00    8.86   15.44    0.00   74.18

Device:         rrqm/s   wrqm/s     r/s     w/s    rkB/s    wkB/s avgrq-sz avgqu-sz   await r_await w_await  svctm  %util
sda             334.00     0.00  412.00    0.00 178920.00     0.00   868.54     0.96    2.33    2.33    0.00   1.22  50.40
sdb             338.00     0.00  390.00    0.00 179100.00     0.00   918.46     0.99    2.54    2.54    0.00   1.35  52.70
sdc             341.00     0.00  373.00    0.00 179164.00     0.00   960.66     2.04    5.46    5.46    0.00   2.28  85.00
sdd             337.00     0.00  388.00    0.00 179356.00     0.00   924.52     2.11    5.45    5.45    0.00   2.22  86.00
sde             339.00     0.00  381.00    0.00 179316.00     0.00   941.29     2.05    5.38    5.38    0.00   2.25  85.80
sdf             342.00     0.00  383.00    0.00 179248.00     0.00   936.02     2.12    5.53    5.53    0.00   2.25  86.10
sdg               0.00     0.00    0.00    0.00     0.00     0.00     0.00     0.00    0.00    0.00    0.00   0.00   0.00
sdh               0.00     0.00    0.00    0.00     0.00     0.00     0.00     0.00    0.00    0.00    0.00   0.00   0.00
md0               0.00     0.00 4354.00    0.00 1581632.00     0.00   726.52     0.00    0.00    0.00    0.00   0.00   0.00

avg-cpu:  %user   %nice %system %iowait  %steal   %idle
           1.52    0.00    8.59   15.66    0.00   74.24

Device:         rrqm/s   wrqm/s     r/s     w/s    rkB/s    wkB/s avgrq-sz avgqu-sz   await r_await w_await  svctm  %util
sda             323.00     0.00  383.00    0.00 172640.00     0.00   901.51     0.92    2.40    2.40    0.00   1.27  48.50
sdb             322.00     0.00  386.00    0.00 172848.00     0.00   895.59     0.94    2.45    2.45    0.00   1.30  50.10
sdc             321.00     0.00  393.00    0.00 173552.00     0.00   883.22     1.93    4.93    4.93    0.00   2.12  83.20
sdd             329.00     0.00  357.00    0.00 173004.00     0.00   969.21     1.93    5.41    5.41    0.00   2.31  82.30
sde             323.00     0.00  394.00    0.00 173548.00     0.00   880.95     1.98    5.03    5.03    0.00   2.11  83.00
sdf             321.00     0.00  401.00    0.00 173236.00     0.00   864.02     1.97    4.93    4.93    0.00   2.07  82.90
sdg               0.00     0.00    0.00    0.00     0.00     0.00     0.00     0.00    0.00    0.00    0.00   0.00   0.00
sdh               0.00     0.00    0.00    0.00     0.00     0.00     0.00     0.00    0.00    0.00    0.00   0.00   0.00
md0               0.00     0.00 4243.00    0.00 1397264.00     0.00   658.62     0.00    0.00    0.00    0.00   0.00   0.00

avg-cpu:  %user   %nice %system %iowait  %steal   %idle
           1.01    0.00   10.05   15.33    0.00   73.62

Device:         rrqm/s   wrqm/s     r/s     w/s    rkB/s    wkB/s avgrq-sz avgqu-sz   await r_await w_await  svctm  %util
sda             323.00     0.00  388.00    0.00 172508.00     0.00   889.22     0.88    2.26    2.26    0.00   1.23  47.60
sdb             323.00     0.00  395.00    0.00 172388.00     0.00   872.85     0.93    2.35    2.35    0.00   1.25  49.30
sdc             325.00     0.00  383.00    0.00 172268.00     0.00   899.57     1.91    4.96    4.96    0.00   2.11  80.80
sdd             322.00     0.00  386.00    0.00 173080.00     0.00   896.79     1.90    4.90    4.90    0.00   2.11  81.50
sde             324.00     0.00  387.00    0.00 171704.00     0.00   887.36     1.84    4.73    4.73    0.00   2.10  81.20
sdf             323.00     0.00  395.00    0.00 171852.00     0.00   870.14     1.84    4.65    4.65    0.00   2.08  82.00
sdg               0.00     0.00    0.00    0.00     0.00     0.00     0.00     0.00    0.00    0.00    0.00   0.00   0.00
sdh               0.00     0.00    0.00    0.00     0.00     0.00     0.00     0.00    0.00    0.00    0.00   0.00   0.00
md0               0.00     0.00 4277.00    0.00 1467100.00     0.00   686.04     0.00    0.00    0.00    0.00   0.00   0.00

avg-cpu:  %user   %nice %system %iowait  %steal   %idle
           1.50    0.00    9.27   15.54    0.00   73.68

Device:         rrqm/s   wrqm/s     r/s     w/s    rkB/s    wkB/s avgrq-sz avgqu-sz   await r_await w_await  svctm  %util
sda             310.00     0.00  411.00    0.00 168296.00     0.00   818.96     0.89    2.17    2.17    0.00   1.16  47.70
sdb             312.00     0.00  375.00    0.00 168772.00     0.00   900.12     0.88    2.35    2.35    0.00   1.29  48.30
sdc             316.00     0.00  378.00    0.00 169552.00     0.00   897.10     1.80    4.78    4.78    0.00   2.12  80.30
sdd             310.00     0.00  388.00    0.00 168416.00     0.00   868.12     1.83    4.71    4.71    0.00   2.05  79.50
sde             312.00     0.00  390.00    0.00 168904.00     0.00   866.17     1.81    4.66    4.66    0.00   2.04  79.60
sdf             313.00     0.00  374.00    0.00 168860.00     0.00   902.99     1.86    4.98    4.98    0.00   2.14  80.00
sdg               0.00     0.00    0.00    0.00     0.00     0.00     0.00     0.00    0.00    0.00    0.00   0.00   0.00
sdh               0.00     0.00    0.00    0.00     0.00     0.00     0.00     0.00    0.00    0.00    0.00   0.00   0.00
md0               0.00     0.00 4186.00    0.00 1483860.00     0.00   708.96     0.00    0.00    0.00    0.00   0.00   0.00

avg-cpu:  %user   %nice %system %iowait  %steal   %idle
           1.01    0.00   10.10   14.90    0.00   73.99

Device:         rrqm/s   wrqm/s     r/s     w/s    rkB/s    wkB/s avgrq-sz avgqu-sz   await r_await w_await  svctm  %util
sda             329.00     0.00  392.00    0.00 175540.00     0.00   895.61     0.93    2.37    2.37    0.00   1.23  48.30
sdb             330.00     0.00  394.00    0.00 175440.00     0.00   890.56     0.96    2.44    2.44    0.00   1.26  49.80
sdc             334.00     0.00  382.00    0.00 175276.00     0.00   917.68     1.97    5.17    5.17    0.00   2.15  82.20
sdd             333.00     0.00  386.00    0.00 175680.00     0.00   910.26     1.98    5.15    5.15    0.00   2.12  81.90
sde             333.00     0.00  387.00    0.00 175732.00     0.00   908.18     1.98    5.13    5.13    0.00   2.14  82.70
sdf             334.00     0.00  396.00    0.00 175704.00     0.00   887.39     2.04    5.14    5.14    0.00   2.09  82.60
sdg               0.00     0.00    0.00    0.00     0.00     0.00     0.00     0.00    0.00    0.00    0.00   0.00   0.00
sdh               0.00     0.00    0.00    0.00     0.00     0.00     0.00     0.00    0.00    0.00    0.00   0.00   0.00
md0               0.00     0.00 4333.00    0.00 1591912.00     0.00   734.79     0.00    0.00    0.00    0.00   0.00   0.00

avg-cpu:  %user   %nice %system %iowait  %steal   %idle
           1.52    0.00    9.62   20.76    0.00   68.10

Device:         rrqm/s   wrqm/s     r/s     w/s    rkB/s    wkB/s avgrq-sz avgqu-sz   await r_await w_await  svctm  %util
sda             302.00     0.00  408.00    0.00 165864.00     0.00   813.06     0.86    2.11    2.11    0.00   1.16  47.30
sdb             308.00     0.00  375.00    0.00 167192.00     0.00   891.69     0.88    2.35    2.35    0.00   1.26  47.40
sdc             311.00     0.00  367.00    0.00 167120.00     0.00   910.74     1.80    4.91    4.91    0.00   2.14  78.60
sdd             302.00     0.00  430.00    0.00 166280.00     0.00   773.40     1.85    4.31    4.31    0.00   1.85  79.50
sde             309.00     0.00  387.00    0.00 166836.00     0.00   862.20     1.76    4.57    4.57    0.00   2.04  79.00
sdf             312.00     0.00  376.00    0.00 166836.00     0.00   887.43     1.77    4.72    4.72    0.00   2.08  78.20
sdg               0.00     0.00 1831.00    0.00  7324.00     0.00     8.00     0.23    0.13    0.13    0.00   0.13  23.20
sdh               0.00     0.00    0.00    0.00     0.00     0.00     0.00     0.00    0.00    0.00    0.00   0.00   0.00
md0               0.00     0.00 4189.00    0.00 1584496.00     0.00   756.50     0.00    0.00    0.00    0.00   0.00   0.00

avg-cpu:  %user   %nice %system %iowait  %steal   %idle
           1.26    0.00    9.30   15.58    0.00   73.87

Device:         rrqm/s   wrqm/s     r/s     w/s    rkB/s    wkB/s avgrq-sz avgqu-sz   await r_await w_await  svctm  %util
sda             320.00     0.00  385.00    0.00 169988.00     0.00   883.05     0.88    2.29    2.29    0.00   1.24  47.70
sdb             318.00     0.00  382.00    0.00 170036.00     0.00   890.24     0.90    2.36    2.36    0.00   1.28  48.80
sdc             323.00     0.00  379.00    0.00 170448.00     0.00   899.46     1.85    4.89    4.89    0.00   2.13  80.60
sdd             315.00     0.00  409.00    0.00 170084.00     0.00   831.71     1.95    4.77    4.77    0.00   1.99  81.30
sde             315.00     0.00  398.00    0.00 169744.00     0.00   852.98     1.87    4.71    4.71    0.00   2.05  81.40
sdf             319.00     0.00  382.00    0.00 169996.00     0.00   890.03     1.85    4.85    4.85    0.00   2.10  80.30
sdg               0.00     0.00    0.00    0.00     0.00     0.00     0.00     0.00    0.00    0.00    0.00   0.00   0.00
sdh               0.00     0.00    0.00    0.00     0.00     0.00     0.00     0.00    0.00    0.00    0.00   0.00   0.00
md0               0.00     0.00 4235.00    0.00 1509132.00     0.00   712.70     0.00    0.00    0.00    0.00   0.00   0.00

avg-cpu:  %user   %nice %system %iowait  %steal   %idle
           1.26    0.00    9.32   15.62    0.00   73.80

Device:         rrqm/s   wrqm/s     r/s     w/s    rkB/s    wkB/s avgrq-sz avgqu-sz   await r_await w_await  svctm  %util
sda             322.00     0.00  391.00    0.00 172536.00     0.00   882.54     0.88    2.25    2.25    0.00   1.25  49.00
sdb             324.00     0.00  382.00    0.00 172048.00     0.00   900.77     0.91    2.37    2.37    0.00   1.28  49.00
sdc             323.00     0.00  402.00    0.00 171556.00     0.00   853.51     1.98    4.92    4.92    0.00   2.03  81.80
sdd             320.00     0.00  390.00    0.00 172096.00     0.00   882.54     1.95    4.99    4.99    0.00   2.09  81.60
sde             328.00     0.00  377.00    0.00 173252.00     0.00   919.11     1.98    5.24    5.24    0.00   2.19  82.50
sdf             323.00     0.00  393.00    0.00 172420.00     0.00   877.46     1.99    5.05    5.05    0.00   2.09  82.20
sdg               0.00     0.00    0.00    0.00     0.00     0.00     0.00     0.00    0.00    0.00    0.00   0.00   0.00
sdh               0.00     0.00    0.00    0.00     0.00     0.00     0.00     0.00    0.00    0.00    0.00   0.00   0.00
md0               0.00     0.00 4276.00    0.00 1625904.00     0.00   760.48     0.00    0.00    0.00    0.00   0.00   0.00

avg-cpu:  %user   %nice %system %iowait  %steal   %idle
           1.51    0.00    9.05   15.58    0.00   73.87

Device:         rrqm/s   wrqm/s     r/s     w/s    rkB/s    wkB/s avgrq-sz avgqu-sz   await r_await w_await  svctm  %util
sda             320.00     0.00  406.00    0.00 171476.00     0.00   844.71     0.88    2.15    2.15    0.00   1.17  47.70
sdb             327.00     0.00  374.00    0.00 172300.00     0.00   921.39     0.90    2.41    2.41    0.00   1.34  50.10
sdc             322.00     0.00  363.00    0.00 172080.00     0.00   948.10     1.93    5.32    5.32    0.00   2.25  81.60
sdd             319.00     0.00  399.00    0.00 171640.00     0.00   860.35     1.93    4.83    4.83    0.00   2.06  82.10
sde             322.00     0.00  394.00    0.00 172024.00     0.00   873.22     1.87    4.74    4.74    0.00   2.08  82.00
sdf             328.00     0.00  384.00    0.00 172320.00     0.00   897.50     1.90    4.96    4.96    0.00   2.13  81.80
sdg               0.00     0.00    0.00    0.00     0.00     0.00     0.00     0.00    0.00    0.00    0.00   0.00   0.00
sdh               0.00     0.00    0.00    0.00     0.00     0.00     0.00     0.00    0.00    0.00    0.00   0.00   0.00
md0               0.00     0.00 4262.00    0.00 1569800.00     0.00   736.65     0.00    0.00    0.00    0.00   0.00   0.00

avg-cpu:  %user   %nice %system %iowait  %steal   %idle
           1.26    0.00    9.09   15.66    0.00   73.99

Device:         rrqm/s   wrqm/s     r/s     w/s    rkB/s    wkB/s avgrq-sz avgqu-sz   await r_await w_await  svctm  %util
sda             311.00     0.00  383.00    0.00 167320.00     0.00   873.73     0.90    2.35    2.35    0.00   1.21  46.30
sdb             313.00     0.00  368.00    0.00 167584.00     0.00   910.78     0.93    2.52    2.52    0.00   1.30  47.70
sdc             309.00     0.00  397.00    0.00 166800.00     0.00   840.30     1.83    4.59    4.59    0.00   1.99  78.90
sdd             312.00     0.00  389.00    0.00 166156.00     0.00   854.27     1.84    4.70    4.70    0.00   2.03  78.80
sde             312.00     0.00  384.00    0.00 165620.00     0.00   862.60     1.78    4.60    4.60    0.00   2.05  78.90
sdf             310.00     0.00  388.00    0.00 165528.00     0.00   853.24     1.79    4.59    4.59    0.00   2.02  78.50
sdg               0.00     0.00   20.00    0.00   540.00     0.00    54.00     0.01    0.25    0.25    0.00   0.25   0.50
sdh               0.00     0.00    0.00    0.00     0.00     0.00     0.00     0.00    0.00    0.00    0.00   0.00   0.00
md0               0.00     0.00 4191.00    0.00 1480080.00     0.00   706.31     0.00    0.00    0.00    0.00   0.00   0.00

avg-cpu:  %user   %nice %system %iowait  %steal   %idle
           1.51    0.00    9.82    2.77    0.00   85.89

Device:         rrqm/s   wrqm/s     r/s     w/s    rkB/s    wkB/s avgrq-sz avgqu-sz   await r_await w_await  svctm  %util
sda             350.00     0.00  367.00    0.00 182764.00     0.00   995.99     0.96    2.64    2.64    0.00   1.38  50.50
sdb             350.00     0.00  367.00    0.00 182712.00     0.00   995.71     1.01    2.75    2.75    0.00   1.42  52.20
sdc             343.00     0.00  398.00    0.00 182252.00     0.00   915.84     2.16    5.44    5.44    0.00   2.16  86.00
sdd             348.00     0.00  381.00    0.00 182500.00     0.00   958.01     2.15    5.65    5.65    0.00   2.27  86.50
sde             351.00     0.00  372.00    0.00 182556.00     0.00   981.48     2.10    5.67    5.67    0.00   2.33  86.50
sdf             346.00     0.00  397.00    0.00 182384.00     0.00   918.81     2.13    5.37    5.37    0.00   2.18  86.50
sdg               0.00     0.00    0.00    0.00     0.00     0.00     0.00     0.00    0.00    0.00    0.00   0.00   0.00
sdh               0.00     0.00    0.00    0.00     0.00     0.00     0.00     0.00    0.00    0.00    0.00   0.00   0.00
md0               0.00     0.00 4358.00    0.00 1666720.00     0.00   764.90     0.00    0.00    0.00    0.00   0.00   0.00

avg-cpu:  %user   %nice %system %iowait  %steal   %idle
           1.00    0.00   10.78   10.53    0.00   77.69

Device:         rrqm/s   wrqm/s     r/s     w/s    rkB/s    wkB/s avgrq-sz avgqu-sz   await r_await w_await  svctm  %util
sda             334.00     0.00  372.00    0.00 177828.00     0.00   956.06     0.89    2.38    2.38    0.00   1.31  48.60
sdb             340.00     0.00  382.00    0.00 177952.00     0.00   931.69     0.94    2.45    2.45    0.00   1.34  51.00
sdc             333.00     0.00  400.00    0.00 177332.00     0.00   886.66     2.06    5.13    5.13    0.00   2.10  84.00
sdd             336.00     0.00  392.00    0.00 177732.00     0.00   906.80     2.04    5.21    5.21    0.00   2.15  84.20
sde             333.00     0.00  392.00    0.00 177892.00     0.00   907.61     2.04    5.19    5.19    0.00   2.14  84.00
sdf             337.00     0.00  385.00    0.00 177624.00     0.00   922.72     1.99    5.16    5.16    0.00   2.18  83.90
sdg               0.00     0.00    1.00    0.00     4.00     0.00     8.00     0.00    1.00    1.00    0.00   1.00   0.10
sdh               0.00     0.00    0.00    0.00     0.00     0.00     0.00     0.00    0.00    0.00    0.00   0.00   0.00
md0               0.00     0.00 4336.00    0.00 1602920.00     0.00   739.35     0.00    0.00    0.00    0.00   0.00   0.00

