Linux 4.17.2 (bench) 	08/03/2018 	_x86_64_	(4 CPU)

avg-cpu:  %user   %nice %system %iowait  %steal   %idle
          10.27    0.02    4.08    2.58    0.00   83.05

Device:         rrqm/s   wrqm/s     r/s     w/s    rkB/s    wkB/s avgrq-sz avgqu-sz   await r_await w_await  svctm  %util
sda              46.11     4.24 1659.94  102.42 20976.12  3133.87    27.36     1.04    0.59    0.26    5.92   0.06  10.75
sdb              45.96     4.20 1659.89  102.56 20965.52  3130.53    27.34     1.03    0.59    0.26    5.85   0.06  10.63
sdc              83.92     4.26 1619.84  102.11 20957.62  3132.99    27.98     1.45    0.84    0.45    7.12   0.08  14.09
sdd              77.35     4.23 1625.57  102.18 20942.55  3129.19    27.86     1.46    0.85    0.44    7.33   0.08  14.19
sde              79.38     4.27 1630.64  102.27 21002.30  3133.44    27.86     1.48    0.85    0.44    7.44   0.08  14.21
sdf              76.50     4.24 1632.80  102.22 20983.57  3130.30    27.80     1.53    0.88    0.44    7.90   0.08  14.24
sdg               0.00     3.17   26.34   73.32   324.11   392.06    14.37     0.44    4.42    0.20    5.93   0.08   0.78
sdh               0.00     0.13    0.02    0.23     2.21     5.06    56.82     0.00    1.15    0.65    1.19   0.21   0.01
md0               0.00     0.00 10244.70  479.87 143687.08 21450.90    30.80     0.00    0.00    0.00    0.00   0.00   0.00

avg-cpu:  %user   %nice %system %iowait  %steal   %idle
           0.00    0.00   19.35    0.00    0.00   80.65

Device:         rrqm/s   wrqm/s     r/s     w/s    rkB/s    wkB/s avgrq-sz avgqu-sz   await r_await w_await  svctm  %util
sda               0.00     0.00 25477.23    0.00 101908.91     0.00     8.00    11.35    0.45    0.45    0.00   0.03  86.83
sdb               0.00     0.00 25305.94    0.00 101223.76     0.00     8.00    11.56    0.46    0.46    0.00   0.03  88.22
sdc               0.00     0.00 25183.17    0.00 100732.67     0.00     8.00    11.04    0.44    0.44    0.00   0.04  88.61
sdd               0.00     0.00 25422.77    0.00 101691.09     0.00     8.00    11.65    0.46    0.46    0.00   0.04  90.40
sde               0.00     0.00 25650.50    0.00 102601.98     0.00     8.00    11.80    0.46    0.46    0.00   0.04  91.39
sdf               0.00     0.00 25452.48    0.00 101809.90     0.00     8.00    11.92    0.47    0.47    0.00   0.04  91.98
sdg               0.00    17.82   20.79   64.36   289.11  1235.64    35.81     0.19    2.21    0.43    2.78   0.12   0.99
sdh               0.00     0.00    0.00    0.00     0.00     0.00     0.00     0.00    0.00    0.00    0.00   0.00   0.00
md0               0.00     0.00 152609.90    0.00 610439.60     0.00     8.00     0.00    0.00    0.00    0.00   0.00   0.00

avg-cpu:  %user   %nice %system %iowait  %steal   %idle
           0.30    0.00   17.07    0.00    0.00   82.63

Device:         rrqm/s   wrqm/s     r/s     w/s    rkB/s    wkB/s avgrq-sz avgqu-sz   await r_await w_await  svctm  %util
sda               0.00     0.00 27051.00    0.00 108204.00     0.00     8.00    12.52    0.46    0.46    0.00   0.03  88.40
sdb               0.00     0.00 26979.00    0.00 107916.00     0.00     8.00    12.62    0.47    0.47    0.00   0.03  88.50
sdc               0.00     0.00 26863.00    0.00 107452.00     0.00     8.00    12.52    0.47    0.47    0.00   0.03  90.00
sdd               0.00     0.00 26817.00    0.00 107268.00     0.00     8.00    12.91    0.48    0.48    0.00   0.03  91.20
sde               0.00     0.00 26976.00    0.00 107904.00     0.00     8.00    13.16    0.49    0.49    0.00   0.03  92.10
sdf               0.00     0.00 27097.00    0.00 108388.00     0.00     8.00    13.41    0.50    0.50    0.00   0.03  93.90
sdg               0.00     0.00    0.00    0.00     0.00     0.00     0.00     0.00    0.00    0.00    0.00   0.00   0.00
sdh               0.00     0.00    0.00    0.00     0.00     0.00     0.00     0.00    0.00    0.00    0.00   0.00   0.00
md0               0.00     0.00 161781.00    0.00 647124.00     0.00     8.00     0.00    0.00    0.00    0.00   0.00   0.00

avg-cpu:  %user   %nice %system %iowait  %steal   %idle
           0.00    0.00   17.42    0.00    0.00   82.58

Device:         rrqm/s   wrqm/s     r/s     w/s    rkB/s    wkB/s avgrq-sz avgqu-sz   await r_await w_await  svctm  %util
sda               0.00     0.00 26894.00    0.00 107576.00     0.00     8.00    12.44    0.46    0.46    0.00   0.03  88.90
sdb               0.00     0.00 27027.00    0.00 108108.00     0.00     8.00    12.60    0.47    0.47    0.00   0.03  89.90
sdc               0.00     0.00 26748.00    0.00 106992.00     0.00     8.00    12.36    0.46    0.46    0.00   0.03  91.60
sdd               0.00     0.00 27228.00    0.00 108912.00     0.00     8.00    12.90    0.47    0.47    0.00   0.03  91.40
sde               0.00     0.00 26723.00    0.00 106892.00     0.00     8.00    13.13    0.49    0.49    0.00   0.03  93.00
sdf               0.00     0.00 26916.00    0.00 107664.00     0.00     8.00    13.30    0.49    0.49    0.00   0.03  93.70
sdg               0.00     0.00    0.00    0.00     0.00     0.00     0.00     0.00    0.00    0.00    0.00   0.00   0.00
sdh               0.00     0.00    0.00    0.00     0.00     0.00     0.00     0.00    0.00    0.00    0.00   0.00   0.00
md0               0.00     0.00 161523.00    0.00 646092.00     0.00     8.00     0.00    0.00    0.00    0.00   0.00   0.00

avg-cpu:  %user   %nice %system %iowait  %steal   %idle
           0.29    0.29   18.82    0.00    0.00   80.59

Device:         rrqm/s   wrqm/s     r/s     w/s    rkB/s    wkB/s avgrq-sz avgqu-sz   await r_await w_await  svctm  %util
sda               0.00     0.00 26738.00    0.00 106952.00     0.00     8.00    12.22    0.46    0.46    0.00   0.03  88.60
sdb               0.00     0.00 27057.00    0.00 108228.00     0.00     8.00    12.69    0.47    0.47    0.00   0.03  89.70
sdc               0.00     0.00 26993.00    0.00 107972.00     0.00     8.00    12.44    0.46    0.46    0.00   0.03  92.10
sdd               0.00     0.00 26559.00    0.00 106236.00     0.00     8.00    12.68    0.48    0.48    0.00   0.03  91.60
sde               0.00     0.00 27081.00    0.00 108324.00     0.00     8.00    13.00    0.48    0.48    0.00   0.03  93.10
sdf               0.00     0.00 26720.00    0.00 106880.00     0.00     8.00    13.08    0.49    0.49    0.00   0.03  93.00
sdg               0.00     0.00   24.00    0.00   132.00     0.00    11.00     0.00    0.12    0.12    0.00   0.08   0.20
sdh               0.00     0.00    0.00    0.00     0.00     0.00     0.00     0.00    0.00    0.00    0.00   0.00   0.00
md0               0.00     0.00 161099.00    0.00 644396.00     0.00     8.00     0.00    0.00    0.00    0.00   0.00   0.00

avg-cpu:  %user   %nice %system %iowait  %steal   %idle
           0.00    0.00   17.91    0.00    0.00   82.09

Device:         rrqm/s   wrqm/s     r/s     w/s    rkB/s    wkB/s avgrq-sz avgqu-sz   await r_await w_await  svctm  %util
sda               1.00     0.00 26996.00    0.00 107988.00     0.00     8.00    12.27    0.45    0.45    0.00   0.03  87.70
sdb               0.00     0.00 26839.00    0.00 107356.00     0.00     8.00    12.40    0.46    0.46    0.00   0.03  88.60
sdc               0.00     0.00 26886.00    0.00 107544.00     0.00     8.00    12.21    0.46    0.46    0.00   0.03  90.10
sdd               0.00     0.00 27029.00    0.00 108116.00     0.00     8.00    12.65    0.47    0.47    0.00   0.03  91.70
sde               0.00     0.00 27145.00    0.00 108580.00     0.00     8.00    13.01    0.48    0.48    0.00   0.03  92.30
sdf               0.00     0.00 26644.00    0.00 106576.00     0.00     8.00    12.91    0.48    0.48    0.00   0.03  92.90
sdg               0.00     0.00    3.00   19.00    48.00   224.00    24.73     0.02    0.77    0.33    0.84   0.09   0.20
sdh               0.00     0.00    0.00    0.00     0.00     0.00     0.00     0.00    0.00    0.00    0.00   0.00   0.00
md0               0.00     0.00 161613.00    0.00 646452.00     0.00     8.00     0.00    0.00    0.00    0.00   0.00   0.00

avg-cpu:  %user   %nice %system %iowait  %steal   %idle
           0.00    0.00   17.37    0.00    0.00   82.63

Device:         rrqm/s   wrqm/s     r/s     w/s    rkB/s    wkB/s avgrq-sz avgqu-sz   await r_await w_await  svctm  %util
sda               0.00     0.00 27007.00    0.00 108028.00     0.00     8.00    12.49    0.46    0.46    0.00   0.03  89.40
sdb               0.00     0.00 26896.00    0.00 107584.00     0.00     8.00    12.67    0.47    0.47    0.00   0.03  89.80
sdc               0.00     0.00 27088.00    0.00 108352.00     0.00     8.00    12.58    0.46    0.46    0.00   0.03  91.20
sdd               0.00     0.00 26498.00    0.00 105992.00     0.00     8.00    12.62    0.48    0.48    0.00   0.03  91.10
sde               0.00     0.00 26727.00    0.00 106908.00     0.00     8.00    13.06    0.49    0.49    0.00   0.03  93.10
sdf               0.00     0.00 26808.00    0.00 107232.00     0.00     8.00    13.29    0.50    0.50    0.00   0.03  93.50
sdg               0.00     0.00    0.00    0.00     0.00     0.00     0.00     0.00    0.00    0.00    0.00   0.00   0.00
sdh               0.00     0.00    0.00    0.00     0.00     0.00     0.00     0.00    0.00    0.00    0.00   0.00   0.00
md0               0.00     0.00 160974.00    0.00 643896.00     0.00     8.00     0.00    0.00    0.00    0.00   0.00   0.00

avg-cpu:  %user   %nice %system %iowait  %steal   %idle
           0.00    0.00   17.42    0.00    0.00   82.58

Device:         rrqm/s   wrqm/s     r/s     w/s    rkB/s    wkB/s avgrq-sz avgqu-sz   await r_await w_await  svctm  %util
sda               0.00     0.00 26707.00    0.00 106828.00     0.00     8.00    12.23    0.46    0.46    0.00   0.03  89.70
sdb               0.00     0.00 26728.00    0.00 106912.00     0.00     8.00    12.53    0.47    0.47    0.00   0.03  89.20
sdc               0.00     0.00 26719.00    0.00 106876.00     0.00     8.00    12.38    0.46    0.46    0.00   0.03  90.40
sdd               0.00     0.00 26909.00    0.00 107636.00     0.00     8.00    12.81    0.48    0.48    0.00   0.03  91.80
sde               0.00     0.00 26626.00    0.00 106504.00     0.00     8.00    12.87    0.48    0.48    0.00   0.03  92.70
sdf               0.00     0.00 26439.00    0.00 105756.00     0.00     8.00    13.17    0.50    0.50    0.00   0.04  93.30
sdg               0.00     0.00    0.00    0.00     0.00     0.00     0.00     0.00    0.00    0.00    0.00   0.00   0.00
sdh               0.00     0.00    0.00    0.00     0.00     0.00     0.00     0.00    0.00    0.00    0.00   0.00   0.00
md0               0.00     0.00 160183.00    0.00 640732.00     0.00     8.00     0.00    0.00    0.00    0.00   0.00   0.00

avg-cpu:  %user   %nice %system %iowait  %steal   %idle
           0.30    0.00   17.51    0.00    0.00   82.20

Device:         rrqm/s   wrqm/s     r/s     w/s    rkB/s    wkB/s avgrq-sz avgqu-sz   await r_await w_await  svctm  %util
sda               0.00     0.00 26450.00    0.00 105800.00     0.00     8.00    12.11    0.46    0.46    0.00   0.03  88.30
sdb               0.00     0.00 26555.00    0.00 106220.00     0.00     8.00    12.31    0.46    0.46    0.00   0.03  87.90
sdc               0.00     0.00 26551.00    0.00 106204.00     0.00     8.00    12.04    0.45    0.45    0.00   0.03  89.20
sdd               0.00     0.00 26455.00    0.00 105820.00     0.00     8.00    12.54    0.47    0.47    0.00   0.03  90.20
sde               0.00     0.00 26738.00    0.00 106952.00     0.00     8.00    12.79    0.48    0.48    0.00   0.03  91.60
sdf               1.00     0.00 26610.00    0.00 106444.00     0.00     8.00    13.06    0.49    0.49    0.00   0.03  92.60
sdg               0.00     0.00    0.00    0.00     0.00     0.00     0.00     0.00    0.00    0.00    0.00   0.00   0.00
sdh               0.00     0.00    0.00    0.00     0.00     0.00     0.00     0.00    0.00    0.00    0.00   0.00   0.00
md0               0.00     0.00 159327.00    0.00 637308.00     0.00     8.00     0.00    0.00    0.00    0.00   0.00   0.00

avg-cpu:  %user   %nice %system %iowait  %steal   %idle
           0.00    0.00   17.07    0.00    0.00   82.93

Device:         rrqm/s   wrqm/s     r/s     w/s    rkB/s    wkB/s avgrq-sz avgqu-sz   await r_await w_await  svctm  %util
sda               0.00     0.00 26459.00    0.00 105836.00     0.00     8.00    12.29    0.46    0.46    0.00   0.03  88.60
sdb               0.00     0.00 26493.00    0.00 105972.00     0.00     8.00    12.57    0.47    0.47    0.00   0.03  88.40
sdc               0.00     0.00 26244.00    0.00 104976.00     0.00     8.00    12.13    0.46    0.46    0.00   0.03  90.00
sdd               0.00     0.00 26412.00    0.00 105648.00     0.00     8.00    12.70    0.48    0.48    0.00   0.03  91.00
sde               0.00     0.00 26805.00    0.00 107220.00     0.00     8.00    13.13    0.49    0.49    0.00   0.03  92.50
sdf               0.00     0.00 26691.00    0.00 106764.00     0.00     8.00    13.30    0.50    0.50    0.00   0.03  92.50
sdg               0.00     0.00    0.00    0.00     0.00     0.00     0.00     0.00    0.00    0.00    0.00   0.00   0.00
sdh               0.00     0.00    0.00    0.00     0.00     0.00     0.00     0.00    0.00    0.00    0.00   0.00   0.00
md0               0.00     0.00 159073.00    0.00 636292.00     0.00     8.00     0.00    0.00    0.00    0.00   0.00   0.00

avg-cpu:  %user   %nice %system %iowait  %steal   %idle
           0.30    0.00   17.26    0.00    0.00   82.44

Device:         rrqm/s   wrqm/s     r/s     w/s    rkB/s    wkB/s avgrq-sz avgqu-sz   await r_await w_await  svctm  %util
sda               0.00     0.00 26566.00    0.00 106264.00     0.00     8.00    12.45    0.47    0.47    0.00   0.03  89.70
sdb               0.00     0.00 26113.00    0.00 104452.00     0.00     8.00    12.34    0.47    0.47    0.00   0.03  89.10
sdc               0.00     0.00 26403.00    0.00 105612.00     0.00     8.00    12.32    0.47    0.47    0.00   0.03  91.40
sdd               0.00     0.00 26440.00    0.00 105760.00     0.00     8.00    12.60    0.48    0.48    0.00   0.03  90.80
sde               0.00     0.00 26451.00    0.00 105804.00     0.00     8.00    13.08    0.49    0.49    0.00   0.03  92.00
sdf               0.00     0.00 26746.00    0.00 106984.00     0.00     8.00    13.44    0.50    0.50    0.00   0.03  93.00
sdg               0.00     0.00    0.00    0.00     0.00     0.00     0.00     0.00    0.00    0.00    0.00   0.00   0.00
sdh               0.00     0.00    0.00    0.00     0.00     0.00     0.00     0.00    0.00    0.00    0.00   0.00   0.00
md0               0.00     0.00 158708.00    0.00 634832.00     0.00     8.00     0.00    0.00    0.00    0.00   0.00   0.00

avg-cpu:  %user   %nice %system %iowait  %steal   %idle
           0.00    0.00   17.22    0.00    0.00   82.78

Device:         rrqm/s   wrqm/s     r/s     w/s    rkB/s    wkB/s avgrq-sz avgqu-sz   await r_await w_await  svctm  %util
sda               0.00     0.00 26474.00    0.00 105896.00     0.00     8.00    11.95    0.45    0.45    0.00   0.03  87.70
sdb               0.00     0.00 26713.00    0.00 106852.00     0.00     8.00    12.35    0.46    0.46    0.00   0.03  88.50
sdc               0.00     0.00 26971.00    0.00 107884.00     0.00     8.00    12.28    0.46    0.46    0.00   0.03  90.20
sdd               0.00     0.00 26840.00    0.00 107360.00     0.00     8.00    12.52    0.47    0.47    0.00   0.03  91.60
sde               0.00     0.00 26812.00    0.00 107248.00     0.00     8.00    12.73    0.48    0.48    0.00   0.03  91.60
sdf               0.00     0.00 26809.00    0.00 107236.00     0.00     8.00    13.06    0.49    0.49    0.00   0.03  91.90
sdg               0.00     0.00    0.00    0.00     0.00     0.00     0.00     0.00    0.00    0.00    0.00   0.00   0.00
sdh               0.00     0.00    0.00    0.00     0.00     0.00     0.00     0.00    0.00    0.00    0.00   0.00   0.00
md0               0.00     0.00 160656.00    0.00 642624.00     0.00     8.00     0.00    0.00    0.00    0.00   0.00   0.00

avg-cpu:  %user   %nice %system %iowait  %steal   %idle
           0.30    0.00   17.56    0.00    0.00   82.14

Device:         rrqm/s   wrqm/s     r/s     w/s    rkB/s    wkB/s avgrq-sz avgqu-sz   await r_await w_await  svctm  %util
sda               0.00     0.00 26625.00    0.00 106500.00     0.00     8.00    12.48    0.47    0.47    0.00   0.03  90.00
sdb               0.00     0.00 26419.00    0.00 105676.00     0.00     8.00    12.50    0.47    0.47    0.00   0.03  90.00
sdc               0.00     0.00 26744.00    0.00 106976.00     0.00     8.00    12.55    0.47    0.47    0.00   0.03  90.60
sdd               0.00     0.00 26446.00    0.00 105784.00     0.00     8.00    12.73    0.48    0.48    0.00   0.03  91.90
sde               0.00     0.00 26484.00    0.00 105936.00     0.00     8.00    13.11    0.50    0.50    0.00   0.03  92.50
sdf               0.00     0.00 26536.00    0.00 106144.00     0.00     8.00    13.31    0.50    0.50    0.00   0.04  93.70
sdg               0.00     0.00    0.00    0.00     0.00     0.00     0.00     0.00    0.00    0.00    0.00   0.00   0.00
sdh               0.00     0.00    0.00    0.00     0.00     0.00     0.00     0.00    0.00    0.00    0.00   0.00   0.00
md0               0.00     0.00 159251.00    0.00 637004.00     0.00     8.00     0.00    0.00    0.00    0.00   0.00   0.00

avg-cpu:  %user   %nice %system %iowait  %steal   %idle
           0.00    0.00   17.91    0.00    0.00   82.09

Device:         rrqm/s   wrqm/s     r/s     w/s    rkB/s    wkB/s avgrq-sz avgqu-sz   await r_await w_await  svctm  %util
sda               0.00     0.00 26657.00    0.00 106628.00     0.00     8.00    12.45    0.47    0.47    0.00   0.03  90.00
sdb               0.00     0.00 26696.00    0.00 106784.00     0.00     8.00    12.50    0.47    0.47    0.00   0.03  90.00
sdc               0.00     0.00 26863.00    0.00 107452.00     0.00     8.00    12.53    0.47    0.47    0.00   0.03  92.10
sdd               0.00     0.00 26378.00    0.00 105512.00     0.00     8.00    12.51    0.47    0.47    0.00   0.03  91.20
sde               0.00     0.00 26582.00    0.00 106328.00     0.00     8.00    12.96    0.49    0.49    0.00   0.04  93.50
sdf               0.00     0.00 26696.00    0.00 106784.00     0.00     8.00    13.14    0.49    0.49    0.00   0.04  93.80
sdg               0.00     0.00    0.00    0.00     0.00     0.00     0.00     0.00    0.00    0.00    0.00   0.00   0.00
sdh               0.00     0.00    0.00    0.00     0.00     0.00     0.00     0.00    0.00    0.00    0.00   0.00   0.00
md0               0.00     0.00 159863.00    0.00 639452.00     0.00     8.00     0.00    0.00    0.00    0.00   0.00   0.00

avg-cpu:  %user   %nice %system %iowait  %steal   %idle
           0.26    0.00   20.63    0.00    0.00   79.10

Device:         rrqm/s   wrqm/s     r/s     w/s    rkB/s    wkB/s avgrq-sz avgqu-sz   await r_await w_await  svctm  %util
sda               0.00     0.00 25150.00    0.00 100600.00     0.00     8.00    11.06    0.44    0.44    0.00   0.04  89.70
sdb               0.00     0.00 25100.00    0.00 100400.00     0.00     8.00    11.11    0.44    0.44    0.00   0.04  89.20
sdc               0.00     0.00 24573.00    0.00 98292.00     0.00     8.00    10.53    0.43    0.43    0.00   0.04  90.60
sdd               0.00     0.00 24857.00    0.00 99428.00     0.00     8.00    11.04    0.44    0.44    0.00   0.04  90.60
sde               0.00     0.00 24462.00    0.00 97848.00     0.00     8.00    11.02    0.45    0.45    0.00   0.04  91.00
sdf               0.00     0.00 25106.00    0.00 100424.00     0.00     8.00    11.54    0.46    0.46    0.00   0.04  91.20
sdg               0.00     0.00   10.00    0.00    40.00     0.00     8.00     0.00    0.20    0.20    0.00   0.20   0.20
sdh               0.00     0.00    0.00    0.00     0.00     0.00     0.00     0.00    0.00    0.00    0.00   0.00   0.00
md0               0.00     0.00 149264.00    0.00 597056.00     0.00     8.00     0.00    0.00    0.00    0.00   0.00   0.00

avg-cpu:  %user   %nice %system %iowait  %steal   %idle
           0.26    0.00   20.93    0.00    0.00   78.81

Device:         rrqm/s   wrqm/s     r/s     w/s    rkB/s    wkB/s avgrq-sz avgqu-sz   await r_await w_await  svctm  %util
sda               0.00     0.00 24395.00    0.00 97580.00     0.00     8.00    10.50    0.43    0.43    0.00   0.04  90.90
sdb               0.00     0.00 24194.00    0.00 96776.00     0.00     8.00    10.62    0.44    0.44    0.00   0.04  91.10
sdc               0.00     0.00 24435.00    0.00 97740.00     0.00     8.00    10.46    0.43    0.43    0.00   0.04  91.60
sdd               0.00     0.00 24503.00    0.00 98012.00     0.00     8.00    10.92    0.45    0.45    0.00   0.04  92.50
sde               0.00     0.00 24590.00    0.00 98360.00     0.00     8.00    10.98    0.45    0.45    0.00   0.04  92.90
sdf               0.00     0.00 24575.00    0.00 98300.00     0.00     8.00    11.15    0.45    0.45    0.00   0.04  92.20
sdg               0.00     0.00    2.00  694.00     8.00  3480.00    10.02     3.54    5.09    0.00    5.11   0.04   2.80
sdh               0.00     0.00    0.00    0.00     0.00     0.00     0.00     0.00    0.00    0.00    0.00   0.00   0.00
md0               0.00     0.00 146717.00    0.00 586868.00     0.00     8.00     0.00    0.00    0.00    0.00   0.00   0.00

avg-cpu:  %user   %nice %system %iowait  %steal   %idle
           0.00    0.00   17.42    0.00    0.00   82.58

Device:         rrqm/s   wrqm/s     r/s     w/s    rkB/s    wkB/s avgrq-sz avgqu-sz   await r_await w_await  svctm  %util
sda               0.00     0.00 26509.00    0.00 106036.00     0.00     8.00    11.86    0.45    0.45    0.00   0.03  87.90
sdb               0.00     0.00 26791.00    0.00 107164.00     0.00     8.00    12.37    0.46    0.46    0.00   0.03  89.20
sdc               0.00     0.00 26726.00    0.00 106904.00     0.00     8.00    12.05    0.45    0.45    0.00   0.03  90.20
sdd               0.00     0.00 26651.00    0.00 106604.00     0.00     8.00    12.43    0.47    0.47    0.00   0.03  91.70
sde               0.00     0.00 26634.00    0.00 106536.00     0.00     8.00    12.59    0.47    0.47    0.00   0.03  91.90
sdf               0.00     0.00 26729.00    0.00 106916.00     0.00     8.00    12.75    0.48    0.48    0.00   0.03  93.50
sdg               0.00     0.00    0.00    0.00     0.00     0.00     0.00     0.00    0.00    0.00    0.00   0.00   0.00
sdh               0.00     0.00    0.00    0.00     0.00     0.00     0.00     0.00    0.00    0.00    0.00   0.00   0.00
md0               0.00     0.00 160000.00    0.00 640000.00     0.00     8.00     0.00    0.00    0.00    0.00   0.00   0.00

avg-cpu:  %user   %nice %system %iowait  %steal   %idle
           0.00    0.00   17.72    0.00    0.00   82.28

Device:         rrqm/s   wrqm/s     r/s     w/s    rkB/s    wkB/s avgrq-sz avgqu-sz   await r_await w_await  svctm  %util
sda               0.00     0.00 26812.00    0.00 107248.00     0.00     8.00    12.06    0.45    0.45    0.00   0.03  88.90
sdb               0.00     0.00 26655.00    0.00 106620.00     0.00     8.00    12.42    0.47    0.47    0.00   0.03  89.10
sdc               0.00     0.00 27136.00    0.00 108544.00     0.00     8.00    12.45    0.46    0.46    0.00   0.03  91.10
sdd               0.00     0.00 26502.00    0.00 106008.00     0.00     8.00    12.32    0.46    0.46    0.00   0.03  91.40
sde               0.00     0.00 26738.00    0.00 106956.00     0.00     8.00    12.77    0.48    0.48    0.00   0.04  94.10
sdf               0.00     0.00 26626.00    0.00 106504.00     0.00     8.00    13.06    0.49    0.49    0.00   0.04  94.00
sdg               0.00     0.00    0.00    0.00     0.00     0.00     0.00     0.00    0.00    0.00    0.00   0.00   0.00
sdh               0.00     0.00    0.00    0.00     0.00     0.00     0.00     0.00    0.00    0.00    0.00   0.00   0.00
md0               0.00     0.00 160512.00    0.00 642048.00     0.00     8.00     0.00    0.00    0.00    0.00   0.00   0.00

avg-cpu:  %user   %nice %system %iowait  %steal   %idle
           0.00    0.00   17.72    0.00    0.00   82.28

Device:         rrqm/s   wrqm/s     r/s     w/s    rkB/s    wkB/s avgrq-sz avgqu-sz   await r_await w_await  svctm  %util
sda               0.00     0.00 26744.00    0.00 106976.00     0.00     8.00    12.32    0.46    0.46    0.00   0.03  89.00
sdb               0.00     0.00 26418.00    0.00 105672.00     0.00     8.00    12.32    0.47    0.47    0.00   0.03  90.10
sdc               0.00     0.00 26552.00    0.00 106208.00     0.00     8.00    12.13    0.46    0.46    0.00   0.03  91.20
sdd               0.00     0.00 26699.00    0.00 106796.00     0.00     8.00    12.69    0.48    0.48    0.00   0.03  92.50
sde               0.00     0.00 26937.00    0.00 107744.00     0.00     8.00    13.16    0.49    0.49    0.00   0.03  93.10
sdf               0.00     0.00 26797.00    0.00 107188.00     0.00     8.00    13.50    0.50    0.50    0.00   0.03  93.00
sdg               0.00     0.00    0.00    0.00     0.00     0.00     0.00     0.00    0.00    0.00    0.00   0.00   0.00
sdh               0.00     0.00    0.00    0.00     0.00     0.00     0.00     0.00    0.00    0.00    0.00   0.00   0.00
md0               0.00     0.00 160128.00    0.00 640512.00     0.00     8.00     0.00    0.00    0.00    0.00   0.00   0.00

avg-cpu:  %user   %nice %system %iowait  %steal   %idle
           0.27    0.00   19.40    0.00    0.00   80.33

Device:         rrqm/s   wrqm/s     r/s     w/s    rkB/s    wkB/s avgrq-sz avgqu-sz   await r_await w_await  svctm  %util
sda               0.00     0.00 25066.00    0.00 100264.00     0.00     8.00    11.05    0.44    0.44    0.00   0.04  88.60
sdb               0.00     0.00 25495.00    0.00 101980.00     0.00     8.00    11.35    0.45    0.45    0.00   0.04  89.50
sdc               0.00     0.00 25263.00    0.00 101052.00     0.00     8.00    10.92    0.43    0.43    0.00   0.04  91.10
sdd               0.00     0.00 25337.00    0.00 101348.00     0.00     8.00    11.33    0.45    0.45    0.00   0.04  90.90
sde               0.00     0.00 25359.00    0.00 101436.00     0.00     8.00    11.53    0.46    0.46    0.00   0.04  91.30
sdf               0.00     0.00 25524.00    0.00 102096.00     0.00     8.00    11.75    0.46    0.46    0.00   0.04  92.60
sdg               0.00     0.00    0.00    0.00     0.00     0.00     0.00     0.00    0.00    0.00    0.00   0.00   0.00
sdh               0.00     0.00    0.00    0.00     0.00     0.00     0.00     0.00    0.00    0.00    0.00   0.00   0.00
md0               0.00     0.00 152049.00    0.00 608196.00     0.00     8.00     0.00    0.00    0.00    0.00   0.00   0.00

avg-cpu:  %user   %nice %system %iowait  %steal   %idle
           0.00    0.00   20.52    0.00    0.00   79.48

Device:         rrqm/s   wrqm/s     r/s     w/s    rkB/s    wkB/s avgrq-sz avgqu-sz   await r_await w_await  svctm  %util
sda               0.00     0.00 24589.00    0.00 98356.00     0.00     8.00    10.52    0.43    0.43    0.00   0.04  88.20
sdb               0.00     0.00 24359.00    0.00 97436.00     0.00     8.00    10.49    0.43    0.43    0.00   0.04  88.10
sdc               0.00     0.00 24452.00    0.00 97808.00     0.00     8.00    10.48    0.43    0.43    0.00   0.04  90.00
sdd               0.00     0.00 24173.00    0.00 96692.00     0.00     8.00    10.38    0.43    0.43    0.00   0.04  90.10
sde               0.00     0.00 24377.00    0.00 97508.00     0.00     8.00    10.72    0.44    0.44    0.00   0.04  91.10
sdf               0.00     0.00 24609.00    0.00 98436.00     0.00     8.00    11.16    0.45    0.45    0.00   0.04  92.40
sdg               0.00     1.00    9.00    1.00    36.00    20.00    11.20     0.00    0.10    0.11    0.00   0.10   0.10
sdh               0.00     0.00    0.00    0.00     0.00     0.00     0.00     0.00    0.00    0.00    0.00   0.00   0.00
md0               0.00     0.00 146449.00    0.00 585796.00     0.00     8.00     0.00    0.00    0.00    0.00   0.00   0.00

