Linux 4.17.2 (bench) 	08/03/2018 	_x86_64_	(4 CPU)

avg-cpu:  %user   %nice %system %iowait  %steal   %idle
          10.27    0.02    4.07    2.57    0.00   83.07

Device:         rrqm/s   wrqm/s     r/s     w/s    rkB/s    wkB/s avgrq-sz avgqu-sz   await r_await w_await  svctm  %util
sda              45.95     4.24 1658.37  102.46 20975.20  3135.19    27.39     1.04    0.59    0.26    5.92   0.06  10.75
sdb              45.80     4.20 1658.32  102.60 20964.57  3131.85    27.37     1.03    0.59    0.26    5.85   0.06  10.63
sdc              83.77     4.26 1618.25  102.15 20956.67  3134.31    28.01     1.45    0.84    0.45    7.12   0.08  14.09
sdd              77.20     4.23 1623.99  102.22 20941.59  3130.51    27.89     1.46    0.85    0.44    7.33   0.08  14.18
sde              79.23     4.27 1629.06  102.32 21001.37  3134.76    27.88     1.48    0.86    0.44    7.44   0.08  14.20
sdf              76.35     4.25 1631.22  102.26 20982.64  3131.62    27.82     1.53    0.88    0.44    7.90   0.08  14.23
sdg               0.00     3.17   26.33   73.32   324.08   392.08    14.37     0.44    4.42    0.20    5.93   0.08   0.78
sdh               0.00     0.13    0.02    0.23     2.21     5.06    56.82     0.00    1.15    0.65    1.19   0.21   0.01
md0               0.00     0.00 10234.34  480.07 143689.00 21459.95    30.83     0.00    0.00    0.00    0.00   0.00   0.00

avg-cpu:  %user   %nice %system %iowait  %steal   %idle
           2.42    0.01    8.88    0.30    0.00   88.39

Device:         rrqm/s   wrqm/s     r/s     w/s    rkB/s    wkB/s avgrq-sz avgqu-sz   await r_await w_await  svctm  %util
sda             270.95     0.00 14404.55    0.00 58702.00     0.00     8.15     3.07    0.21    0.21    0.00   0.05  69.81
sdb             269.40     0.00 14454.45    0.00 58895.40     0.00     8.15     3.12    0.22    0.22    0.00   0.05  70.41
sdc             269.40     0.00 14420.35    0.00 58758.60     0.00     8.15     3.11    0.22    0.22    0.00   0.05  71.28
sdd             260.65     0.00 14428.55    0.00 58756.80     0.00     8.14     3.18    0.22    0.22    0.00   0.05  71.95
sde             275.80     0.00 14478.35    0.00 59016.60     0.00     8.15     3.22    0.22    0.22    0.00   0.05  72.62
sdf             267.15     0.00 14481.75    0.00 58995.60     0.00     8.15     3.26    0.23    0.23    0.00   0.05  72.97
sdg               0.00     5.15   71.25  135.30   336.20   706.60    10.10     0.82    3.97    0.13    5.99   0.07   1.50
sdh               0.00     0.00    0.00    0.00     0.00     0.00     0.00     0.00    0.00    0.00    0.00   0.00   0.00
md0               0.00     0.00 88282.80    0.00 353131.20     0.00     8.00     0.00    0.00    0.00    0.00   0.00   0.00

