Linux 4.17.2 (bench) 	08/03/2018 	_x86_64_	(4 CPU)

avg-cpu:  %user   %nice %system %iowait  %steal   %idle
          10.26    0.02    4.15    2.69    0.00   82.88

Device:         rrqm/s   wrqm/s     r/s     w/s    rkB/s    wkB/s avgrq-sz avgqu-sz   await r_await w_await  svctm  %util
sda              51.27     4.20 1710.19  101.47 21275.91  3104.92    26.92     1.05    0.58    0.26    5.92   0.06  10.97
sdb              51.10     4.16 1710.16  101.61 21265.38  3101.61    26.90     1.04    0.58    0.26    5.85   0.06  10.85
sdc              88.90     4.22 1670.27  101.17 21257.59  3104.05    27.51     1.46    0.83    0.45    7.12   0.08  14.34
sdd              82.40     4.19 1675.95  101.23 21242.61  3100.29    27.39     1.47    0.83    0.44    7.33   0.08  14.43
sde              84.41     4.23 1681.03  101.33 21302.06  3104.49    27.39     1.49    0.84    0.44    7.44   0.08  14.45
sdf              81.55     4.20 1683.14  101.28 21283.44  3101.39    27.33     1.54    0.86    0.44    7.90   0.08  14.48
sdg               0.00     3.17   26.69   73.28   325.53   392.04    14.36     0.44    4.40    0.20    5.93   0.08   0.78
sdh               0.00     0.13    0.02    0.23     2.19     5.01    56.82     0.00    1.15    0.65    1.19   0.21   0.01
md0               0.00     0.00 10577.69  475.44 145827.53 21252.75    30.23     0.00    0.00    0.00    0.00   0.00   0.00

avg-cpu:  %user   %nice %system %iowait  %steal   %idle
           0.08    0.03    2.68    8.04    0.00   89.18

Device:         rrqm/s   wrqm/s     r/s     w/s    rkB/s    wkB/s avgrq-sz avgqu-sz   await r_await w_await  svctm  %util
sda              21.60     0.00 1172.90    0.00 21983.60     0.00    37.49     0.25    0.21    0.21    0.00   0.14  16.70
sdb              22.10     0.00 1179.50    0.00 22078.40     0.00    37.44     0.25    0.22    0.22    0.00   0.14  16.80
sdc              21.20     0.00 1173.40    0.00 21816.00     0.00    37.18     0.35    0.30    0.30    0.00   0.17  20.30
sdd              21.25     0.00 1184.95    0.00 21785.40     0.00    36.77     0.34    0.29    0.29    0.00   0.17  20.44
sde              21.60     0.00 1176.30    0.00 22019.20     0.00    37.44     0.35    0.30    0.30    0.00   0.18  20.62
sdf              21.10     0.00 1191.15    0.00 22028.40     0.00    36.99     0.37    0.31    0.31    0.00   0.17  20.58
sdg               0.00     0.05   68.30    0.40   293.60     7.80     8.77     0.01    0.12    0.12    0.38   0.12   0.81
sdh               0.00     0.00    0.00    0.00     0.00     0.00     0.00     0.00    0.00    0.00    0.00   0.00   0.00
md0               0.00     0.00 7207.10    0.00 166802.80     0.00    46.29     0.00    0.00    0.00    0.00   0.00   0.00

