Linux 4.17.2 (bench) 	08/03/2018 	_x86_64_	(4 CPU)

avg-cpu:  %user   %nice %system %iowait  %steal   %idle
          10.26    0.02    4.17    2.72    0.00   82.83

Device:         rrqm/s   wrqm/s     r/s     w/s    rkB/s    wkB/s avgrq-sz avgqu-sz   await r_await w_await  svctm  %util
sda              53.46     4.19 1722.52  101.24 21320.68  3097.62    26.78     1.05    0.57    0.26    5.92   0.06  11.02
sdb              53.27     4.15 1722.52  101.37 21310.22  3094.32    26.76     1.05    0.57    0.26    5.85   0.06  10.90
sdc              91.05     4.21 1682.63  100.93 21302.39  3096.75    27.36     1.47    0.82    0.44    7.12   0.08  14.39
sdd              84.57     4.18 1688.29  101.00 21287.39  3093.00    27.25     1.47    0.82    0.43    7.33   0.08  14.48
sde              86.57     4.22 1693.38  101.09 21346.79  3097.19    27.24     1.50    0.83    0.44    7.44   0.08  14.51
sdf              83.72     4.19 1695.49  101.04 21328.22  3094.10    27.19     1.54    0.86    0.44    7.90   0.08  14.54
sdg               0.00     3.17   26.77   73.26   325.84   392.01    14.35     0.44    4.40    0.20    5.93   0.08   0.78
sdh               0.00     0.13    0.02    0.23     2.18     5.00    56.82     0.00    1.15    0.65    1.19   0.21   0.01
md0               0.00     0.00 10664.87  474.32 146101.01 21202.78    30.04     0.00    0.00    0.00    0.00   0.00   0.00

avg-cpu:  %user   %nice %system %iowait  %steal   %idle
           0.48    0.01    3.01   11.58    0.00   84.91

Device:         rrqm/s   wrqm/s     r/s     w/s    rkB/s    wkB/s avgrq-sz avgqu-sz   await r_await w_await  svctm  %util
sda               4.05     0.00 1133.15    0.00 19638.00     0.00    34.66     0.17    0.15    0.15    0.00   0.14  15.92
sdb               4.55     0.00 1140.70    0.00 19836.80     0.00    34.78     0.17    0.15    0.15    0.00   0.14  15.63
sdc               4.45     0.00 1138.00    0.00 19615.80     0.00    34.47     0.21    0.18    0.18    0.00   0.16  18.55
sdd               4.15     0.00 1150.50    0.00 20094.80     0.00    34.93     0.22    0.19    0.19    0.00   0.17  19.26
sde               4.60     0.00 1143.60    0.00 20091.00     0.00    35.14     0.21    0.19    0.19    0.00   0.17  19.05
sdf               3.90     0.00 1118.90    0.00 19380.00     0.00    34.64     0.21    0.19    0.19    0.00   0.17  18.59
sdg               0.00     0.10   95.85    0.15   421.60     2.20     8.83     0.01    0.12    0.12    0.00   0.12   1.16
sdh               0.00     0.00    0.00    0.00     0.00     0.00     0.00     0.00    0.00    0.00    0.00   0.00   0.00
md0               0.00     0.00 6850.65    0.00 134416.60     0.00    39.24     0.00    0.00    0.00    0.00   0.00   0.00

