Linux 4.17.2 (bench) 	08/03/2018 	_x86_64_	(4 CPU)

avg-cpu:  %user   %nice %system %iowait  %steal   %idle
          10.27    0.02    4.13    2.66    0.00   82.93

Device:         rrqm/s   wrqm/s     r/s     w/s    rkB/s    wkB/s avgrq-sz avgqu-sz   await r_await w_await  svctm  %util
sda              50.30     4.21 1694.96  101.77 21158.62  3114.11    27.02     1.04    0.58    0.26    5.92   0.06  10.90
sdb              50.13     4.17 1694.93  101.91 21148.10  3110.80    27.00     1.04    0.58    0.26    5.85   0.06  10.78
sdc              87.97     4.23 1655.00  101.47 21140.24  3113.25    27.62     1.46    0.83    0.45    7.12   0.08  14.25
sdd              81.45     4.20 1660.69  101.53 21125.17  3109.47    27.50     1.47    0.83    0.44    7.33   0.08  14.35
sde              83.46     4.25 1665.77  101.63 21184.72  3113.69    27.50     1.49    0.84    0.44    7.44   0.08  14.37
sdf              80.59     4.22 1667.89  101.58 21166.09  3110.57    27.44     1.53    0.87    0.44    7.90   0.08  14.40
sdg               0.00     3.17   26.56   73.29   324.97   392.02    14.36     0.44    4.41    0.20    5.93   0.08   0.78
sdh               0.00     0.13    0.02    0.23     2.19     5.03    56.82     0.00    1.15    0.65    1.19   0.21   0.01
md0               0.00     0.00 10480.25  476.85 144947.96 21315.70    30.35     0.00    0.00    0.00    0.00   0.00   0.00

avg-cpu:  %user   %nice %system %iowait  %steal   %idle
           0.51    0.00    2.29    4.58    0.00   92.62

Device:         rrqm/s   wrqm/s     r/s     w/s    rkB/s    wkB/s avgrq-sz avgqu-sz   await r_await w_await  svctm  %util
sda               0.00     0.00 1407.00    0.00  6184.00     0.00     8.79     0.14    0.10    0.10    0.00   0.10  14.10
sdb               0.00     0.00 1462.00    0.00  6400.00     0.00     8.76     0.16    0.11    0.11    0.00   0.11  15.60
sdc               0.00     0.00 1354.00    0.00  5708.00     0.00     8.43     0.17    0.12    0.12    0.00   0.12  16.40
sdd               0.00     0.00 1389.00    0.00  6184.00     0.00     8.90     0.16    0.12    0.12    0.00   0.11  15.90
sde               0.00     0.00 1405.00    0.00  6380.00     0.00     9.08     0.15    0.11    0.11    0.00   0.11  14.80
sdf               0.00     0.00 1361.00    0.00  6024.00     0.00     8.85     0.14    0.10    0.10    0.00   0.10  13.70
sdg               0.00     0.00    4.00    0.00   104.00     0.00    52.00     0.00    0.25    0.25    0.00   0.25   0.10
sdh               0.00     0.00    0.00    0.00     0.00     0.00     0.00     0.00    0.00    0.00    0.00   0.00   0.00
md0               0.00     0.00 8380.00    0.00 36928.00     0.00     8.81     0.00    0.00    0.00    0.00   0.00   0.00

avg-cpu:  %user   %nice %system %iowait  %steal   %idle
           0.51    0.00    2.78   16.92    0.00   79.80

Device:         rrqm/s   wrqm/s     r/s     w/s    rkB/s    wkB/s avgrq-sz avgqu-sz   await r_await w_await  svctm  %util
sda               0.00     0.00 1407.00    0.00  5980.00     0.00     8.50     0.13    0.09    0.09    0.00   0.09  13.00
sdb               0.00     0.00 1366.00    0.00  6432.00     0.00     9.42     0.13    0.09    0.09    0.00   0.09  12.90
sdc               0.00     0.00 1519.00    0.00  6860.00     0.00     9.03     0.18    0.12    0.12    0.00   0.12  17.80
sdd               0.00     0.00 1391.00    0.00  6128.00     0.00     8.81     0.15    0.11    0.11    0.00   0.11  15.40
sde               0.00     0.00 1412.00    0.00  6028.00     0.00     8.54     0.17    0.12    0.12    0.00   0.12  16.80
sdf               0.00     0.00 1414.00    0.00  6296.00     0.00     8.91     0.15    0.11    0.11    0.00   0.11  15.20
sdg               0.00     0.00    0.00    0.00     0.00     0.00     0.00     0.00    0.00    0.00    0.00   0.00   0.00
sdh               0.00     0.00    0.00    0.00     0.00     0.00     0.00     0.00    0.00    0.00    0.00   0.00   0.00
md0               0.00     0.00 8510.00    0.00 37952.00     0.00     8.92     0.00    0.00    0.00    0.00   0.00   0.00

avg-cpu:  %user   %nice %system %iowait  %steal   %idle
           0.76    0.00    2.28    3.05    0.00   93.91

Device:         rrqm/s   wrqm/s     r/s     w/s    rkB/s    wkB/s avgrq-sz avgqu-sz   await r_await w_await  svctm  %util
sda               0.00     0.00 1411.00    0.00  6236.00     0.00     8.84     0.14    0.10    0.10    0.00   0.10  14.10
sdb               0.00     0.00 1360.00    0.00  5812.00     0.00     8.55     0.14    0.11    0.11    0.00   0.11  14.40
sdc               0.00     0.00 1327.00    0.00  5524.00     0.00     8.33     0.14    0.10    0.10    0.00   0.10  13.70
sdd               0.00     0.00 1480.00    0.00  6568.00     0.00     8.88     0.16    0.11    0.11    0.00   0.11  16.20
sde               0.00     0.00 1304.00    0.00  5584.00     0.00     8.56     0.16    0.12    0.12    0.00   0.12  15.90
sdf               0.00     0.00 1426.00    0.00  6512.00     0.00     9.13     0.17    0.12    0.12    0.00   0.12  16.50
sdg               0.00     0.00    1.00    6.00    16.00   144.00    45.71     0.01    0.71    0.00    0.83   0.14   0.10
sdh               0.00     0.00    0.00    0.00     0.00     0.00     0.00     0.00    0.00    0.00    0.00   0.00   0.00
md0               0.00     0.00 8307.00    0.00 36580.00     0.00     8.81     0.00    0.00    0.00    0.00   0.00   0.00

avg-cpu:  %user   %nice %system %iowait  %steal   %idle
           0.51    0.00    2.28    1.02    0.00   96.19

Device:         rrqm/s   wrqm/s     r/s     w/s    rkB/s    wkB/s avgrq-sz avgqu-sz   await r_await w_await  svctm  %util
sda               0.00     0.00 1357.00    0.00  6176.00     0.00     9.10     0.12    0.09    0.09    0.00   0.09  12.30
sdb               0.00     0.00 1362.00    0.00  5988.00     0.00     8.79     0.15    0.11    0.11    0.00   0.11  14.70
sdc               0.00     0.00 1392.00    0.00  6116.00     0.00     8.79     0.15    0.11    0.11    0.00   0.11  14.70
sdd               1.00     0.00 1374.00    0.00  6388.00     0.00     9.30     0.18    0.13    0.13    0.00   0.13  18.20
sde               1.00     0.00 1360.00    0.00  6476.00     0.00     9.52     0.16    0.12    0.12    0.00   0.11  15.60
sdf               0.00     0.00 1408.00    0.00  6548.00     0.00     9.30     0.15    0.11    0.11    0.00   0.11  15.10
sdg               0.00     0.00    0.00    0.00     0.00     0.00     0.00     0.00    0.00    0.00    0.00   0.00   0.00
sdh               0.00     0.00    0.00    0.00     0.00     0.00     0.00     0.00    0.00    0.00    0.00   0.00   0.00
md0               0.00     0.00 8255.00    0.00 39052.00     0.00     9.46     0.00    0.00    0.00    0.00   0.00   0.00

avg-cpu:  %user   %nice %system %iowait  %steal   %idle
           0.51    0.00    2.29    6.11    0.00   91.09

Device:         rrqm/s   wrqm/s     r/s     w/s    rkB/s    wkB/s avgrq-sz avgqu-sz   await r_await w_await  svctm  %util
sda               0.00     0.00 1389.00    0.00  6088.00     0.00     8.77     0.15    0.11    0.11    0.00   0.11  15.10
sdb               0.00     0.00 1386.00    0.00  6216.00     0.00     8.97     0.15    0.11    0.11    0.00   0.11  15.10
sdc               0.00     0.00 1364.00    0.00  5844.00     0.00     8.57     0.15    0.11    0.11    0.00   0.11  15.10
sdd               0.00     0.00 1354.00    0.00  5812.00     0.00     8.58     0.15    0.11    0.11    0.00   0.11  15.10
sde               0.00     0.00 1449.00    0.00  6676.00     0.00     9.21     0.15    0.11    0.11    0.00   0.11  15.40
sdf               0.00     0.00 1392.00    0.00  6156.00     0.00     8.84     0.15    0.11    0.11    0.00   0.11  15.40
sdg               0.00     0.00    0.00    0.00     0.00     0.00     0.00     0.00    0.00    0.00    0.00   0.00   0.00
sdh               0.00     0.00    0.00    0.00     0.00     0.00     0.00     0.00    0.00    0.00    0.00   0.00   0.00
md0               0.00     0.00 8334.00    0.00 37196.00     0.00     8.93     0.00    0.00    0.00    0.00   0.00   0.00

avg-cpu:  %user   %nice %system %iowait  %steal   %idle
           0.50    0.00    3.27   20.65    0.00   75.57

Device:         rrqm/s   wrqm/s     r/s     w/s    rkB/s    wkB/s avgrq-sz avgqu-sz   await r_await w_await  svctm  %util
sda               0.00     0.00 1468.00    0.00  6572.00     0.00     8.95     0.16    0.11    0.11    0.00   0.11  16.10
sdb               0.00     0.00 1417.00    0.00  5884.00     0.00     8.30     0.14    0.10    0.10    0.00   0.10  13.60
sdc               0.00     0.00 1439.00    0.00  6540.00     0.00     9.09     0.16    0.11    0.11    0.00   0.11  16.00
sdd               0.00     0.00 1392.00    0.00  5956.00     0.00     8.56     0.14    0.10    0.10    0.00   0.10  14.00
sde               0.00     0.00 1446.00    0.00  6280.00     0.00     8.69     0.16    0.11    0.11    0.00   0.11  16.20
sdf               0.00     0.00 1394.00    0.00  5908.00     0.00     8.48     0.16    0.11    0.11    0.00   0.11  15.90
sdg               0.00     0.00    0.00    0.00     0.00     0.00     0.00     0.00    0.00    0.00    0.00   0.00   0.00
sdh               0.00     0.00    0.00    0.00     0.00     0.00     0.00     0.00    0.00    0.00    0.00   0.00   0.00
md0               0.00     0.00 8555.00    0.00 37232.00     0.00     8.70     0.00    0.00    0.00    0.00   0.00   0.00

avg-cpu:  %user   %nice %system %iowait  %steal   %idle
           0.25    0.00    2.54    9.14    0.00   88.07

Device:         rrqm/s   wrqm/s     r/s     w/s    rkB/s    wkB/s avgrq-sz avgqu-sz   await r_await w_await  svctm  %util
sda               0.00     0.00 1379.00    0.00  5812.00     0.00     8.43     0.14    0.10    0.10    0.00   0.10  14.10
sdb               0.00     0.00 1324.00    0.00  5740.00     0.00     8.67     0.13    0.10    0.10    0.00   0.10  13.10
sdc               0.00     0.00 1405.00    0.00  5984.00     0.00     8.52     0.18    0.13    0.13    0.00   0.13  17.60
sdd               0.00     0.00 1351.00    0.00  6056.00     0.00     8.97     0.16    0.12    0.12    0.00   0.12  15.90
sde               0.00     0.00 1379.00    0.00  6288.00     0.00     9.12     0.14    0.10    0.10    0.00   0.10  13.90
sdf               0.00     0.00 1416.00    0.00  6344.00     0.00     8.96     0.16    0.12    0.12    0.00   0.12  16.40
sdg               0.00     0.00    0.00    0.00     0.00     0.00     0.00     0.00    0.00    0.00    0.00   0.00   0.00
sdh               0.00     0.00    0.00    0.00     0.00     0.00     0.00     0.00    0.00    0.00    0.00   0.00   0.00
md0               0.00     0.00 8255.00    0.00 36728.00     0.00     8.90     0.00    0.00    0.00    0.00   0.00   0.00

avg-cpu:  %user   %nice %system %iowait  %steal   %idle
           0.51    0.00    2.54    0.76    0.00   96.18

Device:         rrqm/s   wrqm/s     r/s     w/s    rkB/s    wkB/s avgrq-sz avgqu-sz   await r_await w_await  svctm  %util
sda               0.00     0.00 1358.00    0.00  5908.00     0.00     8.70     0.15    0.11    0.11    0.00   0.11  15.30
sdb               0.00     0.00 1351.00    0.00  5868.00     0.00     8.69     0.14    0.11    0.11    0.00   0.11  14.30
sdc               0.00     0.00 1386.00    0.00  5876.00     0.00     8.48     0.15    0.11    0.11    0.00   0.10  14.50
sdd               0.00     0.00 1377.00    0.00  6100.00     0.00     8.86     0.15    0.11    0.11    0.00   0.11  14.60
sde               0.00     0.00 1407.00    0.00  5988.00     0.00     8.51     0.17    0.12    0.12    0.00   0.12  16.70
sdf               0.00     0.00 1379.00    0.00  5852.00     0.00     8.49     0.15    0.11    0.11    0.00   0.11  14.80
sdg               0.00     1.00    2.00    4.00     8.00    44.00    17.33     0.00    0.00    0.00    0.00   0.00   0.00
sdh               0.00     0.00    0.00    0.00     0.00     0.00     0.00     0.00    0.00    0.00    0.00   0.00   0.00
md0               0.00     0.00 8258.00    0.00 35688.00     0.00     8.64     0.00    0.00    0.00    0.00   0.00   0.00

avg-cpu:  %user   %nice %system %iowait  %steal   %idle
           0.51    0.00    2.53    1.01    0.00   95.95

Device:         rrqm/s   wrqm/s     r/s     w/s    rkB/s    wkB/s avgrq-sz avgqu-sz   await r_await w_await  svctm  %util
sda               0.00     0.00 1378.00    0.00  5988.00     0.00     8.69     0.14    0.10    0.10    0.00   0.10  13.60
sdb               0.00     0.00 1383.00    0.00  6144.00     0.00     8.89     0.14    0.10    0.10    0.00   0.10  13.90
sdc               0.00     0.00 1368.00    0.00  6088.00     0.00     8.90     0.15    0.11    0.11    0.00   0.11  15.00
sdd               0.00     0.00 1397.00    0.00  5904.00     0.00     8.45     0.14    0.10    0.10    0.00   0.10  14.20
sde               0.00     0.00 1451.00    0.00  6308.00     0.00     8.69     0.15    0.10    0.10    0.00   0.10  15.20
sdf               0.00     0.00 1348.00    0.00  5676.00     0.00     8.42     0.17    0.12    0.12    0.00   0.12  16.50
sdg               0.00     0.00    0.00    0.00     0.00     0.00     0.00     0.00    0.00    0.00    0.00   0.00   0.00
sdh               0.00     0.00    0.00    0.00     0.00     0.00     0.00     0.00    0.00    0.00    0.00   0.00   0.00
md0               0.00     0.00 8325.00    0.00 36304.00     0.00     8.72     0.00    0.00    0.00    0.00   0.00   0.00

avg-cpu:  %user   %nice %system %iowait  %steal   %idle
           0.76    0.25    2.78    1.01    0.00   95.19

Device:         rrqm/s   wrqm/s     r/s     w/s    rkB/s    wkB/s avgrq-sz avgqu-sz   await r_await w_await  svctm  %util
sda               0.00     0.00 1375.00    0.00  5824.00     0.00     8.47     0.13    0.09    0.09    0.00   0.09  12.60
sdb               0.00     0.00 1364.00    0.00  6092.00     0.00     8.93     0.12    0.09    0.09    0.00   0.09  12.50
sdc               0.00     0.00 1358.00    0.00  5720.00     0.00     8.42     0.15    0.11    0.11    0.00   0.11  14.60
sdd               0.00     0.00 1371.00    0.00  5856.00     0.00     8.54     0.14    0.10    0.10    0.00   0.10  13.80
sde               0.00     0.00 1427.00    0.00  6492.00     0.00     9.10     0.17    0.12    0.12    0.00   0.12  16.70
sdf               0.00     0.00 1364.00    0.00  5940.00     0.00     8.71     0.19    0.14    0.14    0.00   0.14  18.90
sdg               0.00     0.00    7.00    0.00    28.00     0.00     8.00     0.00    0.14    0.14    0.00   0.14   0.10
sdh               0.00     0.00    0.00    0.00     0.00     0.00     0.00     0.00    0.00    0.00    0.00   0.00   0.00
md0               0.00     0.00 8258.00    0.00 35956.00     0.00     8.71     0.00    0.00    0.00    0.00   0.00   0.00

avg-cpu:  %user   %nice %system %iowait  %steal   %idle
           0.51    0.00    1.79    1.02    0.00   96.68

Device:         rrqm/s   wrqm/s     r/s     w/s    rkB/s    wkB/s avgrq-sz avgqu-sz   await r_await w_await  svctm  %util
sda               0.00     0.00 1385.00    0.00  5952.00     0.00     8.59     0.14    0.10    0.10    0.00   0.10  14.10
sdb               0.00     0.00 1359.00    0.00  5956.00     0.00     8.77     0.14    0.10    0.10    0.00   0.10  13.90
sdc               0.00     0.00 1316.00    0.00  5856.00     0.00     8.90     0.13    0.10    0.10    0.00   0.10  13.40
sdd               0.00     0.00 1417.00    0.00  6200.00     0.00     8.75     0.16    0.11    0.11    0.00   0.11  16.20
sde               0.00     0.00 1376.00    0.00  6228.00     0.00     9.05     0.14    0.11    0.11    0.00   0.11  14.50
sdf               0.00     0.00 1406.00    0.00  6012.00     0.00     8.55     0.18    0.13    0.13    0.00   0.13  18.20
sdg               0.00     0.00    0.00    0.00     0.00     0.00     0.00     0.00    0.00    0.00    0.00   0.00   0.00
sdh               0.00     0.00    0.00    0.00     0.00     0.00     0.00     0.00    0.00    0.00    0.00   0.00   0.00
md0               0.00     0.00 8260.00    0.00 36696.00     0.00     8.89     0.00    0.00    0.00    0.00   0.00   0.00

avg-cpu:  %user   %nice %system %iowait  %steal   %idle
           0.51    0.00    2.54    1.02    0.00   95.94

Device:         rrqm/s   wrqm/s     r/s     w/s    rkB/s    wkB/s avgrq-sz avgqu-sz   await r_await w_await  svctm  %util
sda               0.00     0.00 1359.00    0.00  5760.00     0.00     8.48     0.14    0.10    0.10    0.00   0.10  13.90
sdb               0.00     0.00 1323.00    0.00  5512.00     0.00     8.33     0.15    0.12    0.12    0.00   0.12  15.50
sdc               0.00     0.00 1317.00    0.00  5664.00     0.00     8.60     0.16    0.12    0.12    0.00   0.12  15.60
sdd               0.00     0.00 1386.00    0.00  5972.00     0.00     8.62     0.17    0.12    0.12    0.00   0.12  16.70
sde               0.00     0.00 1414.00    0.00  6424.00     0.00     9.09     0.15    0.10    0.10    0.00   0.10  14.80
sdf               0.00     0.00 1429.00    0.00  6364.00     0.00     8.91     0.14    0.10    0.10    0.00   0.10  14.00
sdg               0.00     0.00    0.00    0.00     0.00     0.00     0.00     0.00    0.00    0.00    0.00   0.00   0.00
sdh               0.00     0.00    0.00    0.00     0.00     0.00     0.00     0.00    0.00    0.00    0.00   0.00   0.00
md0               0.00     0.00 8228.00    0.00 35720.00     0.00     8.68     0.00    0.00    0.00    0.00   0.00   0.00

avg-cpu:  %user   %nice %system %iowait  %steal   %idle
           0.51    0.00    2.54   16.24    0.00   80.71

Device:         rrqm/s   wrqm/s     r/s     w/s    rkB/s    wkB/s avgrq-sz avgqu-sz   await r_await w_await  svctm  %util
sda               0.00     0.00 1436.00    0.00  6216.00     0.00     8.66     0.14    0.10    0.10    0.00   0.10  14.30
sdb               0.00     0.00 1458.00    0.00  6320.00     0.00     8.67     0.15    0.10    0.10    0.00   0.10  14.90
sdc               0.00     0.00 1360.00    0.00  6200.00     0.00     9.12     0.15    0.11    0.11    0.00   0.11  15.10
sdd               0.00     0.00 1381.00    0.00  6000.00     0.00     8.69     0.16    0.12    0.12    0.00   0.12  16.00
sde               0.00     0.00 1399.00    0.00  5944.00     0.00     8.50     0.16    0.11    0.11    0.00   0.11  15.80
sdf               0.00     0.00 1434.00    0.00  6496.00     0.00     9.06     0.17    0.12    0.12    0.00   0.12  16.70
sdg               0.00     3.00    0.00   17.00     0.00    84.00     9.88     0.00    0.00    0.00    0.00   0.00   0.00
sdh               0.00     0.00    0.00    0.00     0.00     0.00     0.00     0.00    0.00    0.00    0.00   0.00   0.00
md0               0.00     0.00 8468.00    0.00 37440.00     0.00     8.84     0.00    0.00    0.00    0.00   0.00   0.00

avg-cpu:  %user   %nice %system %iowait  %steal   %idle
           0.26    0.00    2.31    3.34    0.00   94.09

Device:         rrqm/s   wrqm/s     r/s     w/s    rkB/s    wkB/s avgrq-sz avgqu-sz   await r_await w_await  svctm  %util
sda               0.00     0.00 1352.00    0.00  5684.00     0.00     8.41     0.14    0.11    0.11    0.00   0.11  14.50
sdb               0.00     0.00 1422.00    0.00  7208.00     0.00    10.14     0.17    0.12    0.12    0.00   0.12  16.70
sdc               1.00     0.00 1452.00    0.00  7256.00     0.00     9.99     0.16    0.11    0.11    0.00   0.11  15.80
sdd               1.00     0.00 1345.00    0.00  6456.00     0.00     9.60     0.13    0.09    0.09    0.00   0.09  12.60
sde               0.00     0.00 1335.00    0.00  5932.00     0.00     8.89     0.16    0.12    0.12    0.00   0.12  15.80
sdf               0.00     0.00 1407.00    0.00  6096.00     0.00     8.67     0.16    0.12    0.12    0.00   0.12  16.40
sdg               0.00    66.00    0.00 2535.00     0.00 12612.00     9.95    15.66    6.18    0.00    6.18   0.04  11.40
sdh               0.00     0.00    0.00    0.00     0.00     0.00     0.00     0.00    0.00    0.00    0.00   0.00   0.00
md0               0.00     0.00 8315.00    0.00 39180.00     0.00     9.42     0.00    0.00    0.00    0.00   0.00   0.00

avg-cpu:  %user   %nice %system %iowait  %steal   %idle
           0.51    0.00    2.29    1.02    0.00   96.18

Device:         rrqm/s   wrqm/s     r/s     w/s    rkB/s    wkB/s avgrq-sz avgqu-sz   await r_await w_await  svctm  %util
sda               0.00     0.00 1397.00    0.00  6364.00     0.00     9.11     0.15    0.11    0.11    0.00   0.10  14.60
sdb               0.00     0.00 1358.00    0.00  5860.00     0.00     8.63     0.14    0.10    0.10    0.00   0.10  14.10
sdc               0.00     0.00 1357.00    0.00  5784.00     0.00     8.52     0.17    0.12    0.12    0.00   0.12  16.60
sdd               0.00     0.00 1337.00    0.00  5996.00     0.00     8.97     0.14    0.11    0.11    0.00   0.10  14.00
sde               0.00     0.00 1423.00    0.00  6004.00     0.00     8.44     0.14    0.10    0.10    0.00   0.10  14.50
sdf               0.00     0.00 1404.00    0.00  6256.00     0.00     8.91     0.17    0.12    0.12    0.00   0.12  16.60
sdg               0.00     0.00    0.00    0.00     0.00     0.00     0.00     0.00    0.00    0.00    0.00   0.00   0.00
sdh               0.00     0.00    0.00    0.00     0.00     0.00     0.00     0.00    0.00    0.00    0.00   0.00   0.00
md0               0.00     0.00 8276.00    0.00 36284.00     0.00     8.77     0.00    0.00    0.00    0.00   0.00   0.00

avg-cpu:  %user   %nice %system %iowait  %steal   %idle
           0.51    0.00    2.04    1.02    0.00   96.44

Device:         rrqm/s   wrqm/s     r/s     w/s    rkB/s    wkB/s avgrq-sz avgqu-sz   await r_await w_await  svctm  %util
sda               0.00     0.00 1408.00    0.00  5920.00     0.00     8.41     0.16    0.11    0.11    0.00   0.11  15.60
sdb               0.00     0.00 1388.00    0.00  6332.00     0.00     9.12     0.15    0.11    0.11    0.00   0.11  15.20
sdc               0.00     0.00 1317.00    0.00  5692.00     0.00     8.64     0.15    0.11    0.11    0.00   0.11  14.70
sdd               0.00     0.00 1401.00    0.00  5952.00     0.00     8.50     0.14    0.10    0.10    0.00   0.10  14.00
sde               0.00     0.00 1327.00    0.00  5716.00     0.00     8.61     0.15    0.11    0.11    0.00   0.11  15.20
sdf               0.00     0.00 1433.00    0.00  6092.00     0.00     8.50     0.17    0.12    0.12    0.00   0.12  16.60
sdg               0.00     0.00    0.00    0.00     0.00     0.00     0.00     0.00    0.00    0.00    0.00   0.00   0.00
sdh               0.00     0.00    0.00    0.00     0.00     0.00     0.00     0.00    0.00    0.00    0.00   0.00   0.00
md0               0.00     0.00 8274.00    0.00 35784.00     0.00     8.65     0.00    0.00    0.00    0.00   0.00   0.00

avg-cpu:  %user   %nice %system %iowait  %steal   %idle
           0.51    0.00    2.54    1.02    0.00   95.94

Device:         rrqm/s   wrqm/s     r/s     w/s    rkB/s    wkB/s avgrq-sz avgqu-sz   await r_await w_await  svctm  %util
sda               0.00     0.00 1406.00    0.00  6704.00     0.00     9.54     0.14    0.10    0.10    0.00   0.10  13.90
sdb               0.00     0.00 1381.00    0.00  5944.00     0.00     8.61     0.13    0.10    0.10    0.00   0.10  13.30
sdc               0.00     0.00 1346.00    0.00  5744.00     0.00     8.53     0.15    0.11    0.11    0.00   0.11  14.90
sdd               0.00     0.00 1364.00    0.00  5824.00     0.00     8.54     0.16    0.12    0.12    0.00   0.12  16.20
sde               0.00     0.00 1426.00    0.00  6116.00     0.00     8.58     0.15    0.11    0.11    0.00   0.11  15.40
sdf               0.00     0.00 1387.00    0.00  6208.00     0.00     8.95     0.15    0.11    0.11    0.00   0.11  14.80
sdg               0.00     0.00    0.00    0.00     0.00     0.00     0.00     0.00    0.00    0.00    0.00   0.00   0.00
sdh               0.00     0.00    0.00    0.00     0.00     0.00     0.00     0.00    0.00    0.00    0.00   0.00   0.00
md0               0.00     0.00 8311.00    0.00 37108.00     0.00     8.93     0.00    0.00    0.00    0.00   0.00   0.00

avg-cpu:  %user   %nice %system %iowait  %steal   %idle
           0.51    0.00    2.28    1.02    0.00   96.19

Device:         rrqm/s   wrqm/s     r/s     w/s    rkB/s    wkB/s avgrq-sz avgqu-sz   await r_await w_await  svctm  %util
sda               0.00     0.00 1353.00    0.00  6016.00     0.00     8.89     0.15    0.11    0.11    0.00   0.11  14.60
sdb               0.00     0.00 1355.00    0.00  5884.00     0.00     8.68     0.12    0.09    0.09    0.00   0.09  12.20
sdc               0.00     0.00 1394.00    0.00  6184.00     0.00     8.87     0.17    0.12    0.12    0.00   0.12  16.70
sdd               0.00     0.00 1409.00    0.00  6152.00     0.00     8.73     0.16    0.11    0.11    0.00   0.11  15.60
sde               0.00     0.00 1373.00    0.00  5904.00     0.00     8.60     0.14    0.10    0.10    0.00   0.10  14.10
sdf               0.00     0.00 1379.00    0.00  5944.00     0.00     8.62     0.16    0.12    0.12    0.00   0.12  16.40
sdg               0.00     0.00    0.00    0.00     0.00     0.00     0.00     0.00    0.00    0.00    0.00   0.00   0.00
sdh               0.00     0.00    0.00    0.00     0.00     0.00     0.00     0.00    0.00    0.00    0.00   0.00   0.00
md0               0.00     0.00 8261.00    0.00 36228.00     0.00     8.77     0.00    0.00    0.00    0.00   0.00   0.00

avg-cpu:  %user   %nice %system %iowait  %steal   %idle
           0.51    0.00    2.29    1.02    0.00   96.18

Device:         rrqm/s   wrqm/s     r/s     w/s    rkB/s    wkB/s avgrq-sz avgqu-sz   await r_await w_await  svctm  %util
sda               0.00     0.00 1395.00    0.00  6196.00     0.00     8.88     0.15    0.11    0.11    0.00   0.11  15.00
sdb               0.00     0.00 1371.00    0.00  6008.00     0.00     8.76     0.15    0.11    0.11    0.00   0.11  14.80
sdc               0.00     0.00 1360.00    0.00  6128.00     0.00     9.01     0.16    0.12    0.12    0.00   0.12  16.40
sdd               0.00     0.00 1326.00    0.00  5628.00     0.00     8.49     0.14    0.11    0.11    0.00   0.11  14.10
sde               0.00     0.00 1381.00    0.00  5836.00     0.00     8.45     0.15    0.11    0.11    0.00   0.11  15.20
sdf               0.00     0.00 1428.00    0.00  6028.00     0.00     8.44     0.15    0.11    0.11    0.00   0.11  15.40
sdg               0.00     0.00    0.00    0.00     0.00     0.00     0.00     0.00    0.00    0.00    0.00   0.00   0.00
sdh               0.00     0.00    0.00    0.00     0.00     0.00     0.00     0.00    0.00    0.00    0.00   0.00   0.00
md0               0.00     0.00 8261.00    0.00 36140.00     0.00     8.75     0.00    0.00    0.00    0.00   0.00   0.00

avg-cpu:  %user   %nice %system %iowait  %steal   %idle
           0.76    0.25    2.78    1.01    0.00   95.20

Device:         rrqm/s   wrqm/s     r/s     w/s    rkB/s    wkB/s avgrq-sz avgqu-sz   await r_await w_await  svctm  %util
sda               0.00     0.00 1337.00    0.00  6140.00     0.00     9.18     0.15    0.11    0.11    0.00   0.11  14.60
sdb               0.00     0.00 1380.00    0.00  5984.00     0.00     8.67     0.14    0.10    0.10    0.00   0.10  14.30
sdc               0.00     0.00 1398.00    0.00  6004.00     0.00     8.59     0.13    0.09    0.09    0.00   0.09  13.00
sdd               0.00     0.00 1378.00    0.00  5936.00     0.00     8.62     0.16    0.12    0.12    0.00   0.12  16.20
sde               0.00     0.00 1378.00    0.00  5936.00     0.00     8.62     0.16    0.11    0.11    0.00   0.11  15.60
sdf               0.00     0.00 1394.00    0.00  6752.00     0.00     9.69     0.15    0.11    0.11    0.00   0.11  14.90
sdg               0.00     0.00    2.00    0.00     8.00     0.00     8.00     0.00    0.00    0.00    0.00   0.00   0.00
sdh               0.00     0.00    0.00    0.00     0.00     0.00     0.00     0.00    0.00    0.00    0.00   0.00   0.00
md0               0.00     0.00 8266.00    0.00 36992.00     0.00     8.95     0.00    0.00    0.00    0.00   0.00   0.00

