Linux 4.17.2 (bench) 	08/03/2018 	_x86_64_	(4 CPU)

avg-cpu:  %user   %nice %system %iowait  %steal   %idle
          10.26    0.02    4.13    2.67    0.00   82.91

Device:         rrqm/s   wrqm/s     r/s     w/s    rkB/s    wkB/s avgrq-sz avgqu-sz   await r_await w_await  svctm  %util
sda              50.30     4.21 1699.28  101.61 21204.46  3109.12    27.00     1.04    0.58    0.26    5.92   0.06  10.93
sdb              50.13     4.17 1699.25  101.75 21193.98  3105.81    26.98     1.04    0.58    0.26    5.85   0.06  10.81
sdc              87.90     4.23 1659.38  101.30 21186.11  3108.25    27.60     1.46    0.83    0.45    7.12   0.08  14.29
sdd              81.40     4.19 1665.06  101.37 21171.11  3104.48    27.49     1.47    0.83    0.43    7.33   0.08  14.38
sde              83.41     4.24 1670.14  101.47 21230.57  3108.69    27.48     1.49    0.84    0.44    7.44   0.08  14.40
sdf              80.54     4.21 1672.26  101.41 21211.92  3105.58    27.42     1.53    0.86    0.44    7.90   0.08  14.44
sdg               0.00     3.17   26.62   73.28   325.20   392.02    14.36     0.44    4.40    0.20    5.93   0.08   0.78
sdh               0.00     0.13    0.02    0.23     2.19     5.02    56.82     0.00    1.15    0.65    1.19   0.21   0.01
md0               0.00     0.00 10506.18  476.08 145326.40 21281.52    30.34     0.00    0.00    0.00    0.00   0.00   0.00

avg-cpu:  %user   %nice %system %iowait  %steal   %idle
           0.00    0.00    1.54    1.03    0.00   97.43

Device:         rrqm/s   wrqm/s     r/s     w/s    rkB/s    wkB/s avgrq-sz avgqu-sz   await r_await w_await  svctm  %util
sda               0.00     0.00 1419.00    0.00  5676.00     0.00     8.00     0.15    0.10    0.10    0.00   0.11  14.90
sdb               0.00     0.00 1479.00    0.00  5916.00     0.00     8.00     0.14    0.10    0.10    0.00   0.10  14.50
sdc               0.00     0.00 1411.00    0.00  5644.00     0.00     8.00     0.16    0.11    0.11    0.00   0.11  16.00
sdd               0.00     0.00 1456.00    0.00  5824.00     0.00     8.00     0.20    0.14    0.14    0.00   0.14  19.70
sde               0.00     0.00 1395.00    0.00  5580.00     0.00     8.00     0.14    0.10    0.10    0.00   0.10  14.20
sdf               0.00     0.00 1439.00    0.00  5756.00     0.00     8.00     0.16    0.11    0.11    0.00   0.11  15.60
sdg               0.00     0.00    2.00    0.00    84.00     0.00    84.00     0.00    0.00    0.00    0.00   0.00   0.00
sdh               0.00     0.00    0.00    0.00     0.00     0.00     0.00     0.00    0.00    0.00    0.00   0.00   0.00
md0               0.00     0.00 8601.00    0.00 34404.00     0.00     8.00     0.00    0.00    0.00    0.00   0.00   0.00

avg-cpu:  %user   %nice %system %iowait  %steal   %idle
           0.00    0.25    3.05   16.50    0.00   80.20

Device:         rrqm/s   wrqm/s     r/s     w/s    rkB/s    wkB/s avgrq-sz avgqu-sz   await r_await w_await  svctm  %util
sda               0.00     0.00 1418.00    0.00  5672.00     0.00     8.00     0.15    0.11    0.11    0.00   0.11  14.90
sdb               0.00     0.00 1485.00    0.00  5940.00     0.00     8.00     0.15    0.10    0.10    0.00   0.10  14.80
sdc               0.00     0.00 1448.00    0.00  5792.00     0.00     8.00     0.15    0.10    0.10    0.00   0.10  15.00
sdd               0.00     0.00 1423.00    0.00  5692.00     0.00     8.00     0.17    0.12    0.12    0.00   0.12  16.90
sde               0.00     0.00 1488.00    0.00  5952.00     0.00     8.00     0.15    0.10    0.10    0.00   0.10  14.90
sdf               0.00     0.00 1491.00    0.00  5964.00     0.00     8.00     0.18    0.12    0.12    0.00   0.12  18.40
sdg               0.00     0.00 1901.00    0.00  8204.00     0.00     8.63     0.24    0.12    0.12    0.00   0.12  22.00
sdh               0.00     0.00    0.00    0.00     0.00     0.00     0.00     0.00    0.00    0.00    0.00   0.00   0.00
md0               0.00     0.00 8752.00    0.00 35008.00     0.00     8.00     0.00    0.00    0.00    0.00   0.00   0.00

avg-cpu:  %user   %nice %system %iowait  %steal   %idle
           0.00    0.00    2.78   21.27    0.00   75.95

Device:         rrqm/s   wrqm/s     r/s     w/s    rkB/s    wkB/s avgrq-sz avgqu-sz   await r_await w_await  svctm  %util
sda               0.00     0.00 1427.00    0.00  5708.00     0.00     8.00     0.14    0.10    0.10    0.00   0.10  14.40
sdb               0.00     0.00 1432.00    0.00  5728.00     0.00     8.00     0.16    0.11    0.11    0.00   0.11  15.60
sdc               0.00     0.00 1355.00    0.00  5420.00     0.00     8.00     0.15    0.11    0.11    0.00   0.11  14.90
sdd               0.00     0.00 1516.00    0.00  6064.00     0.00     8.00     0.19    0.12    0.12    0.00   0.12  18.60
sde               0.00     0.00 1453.00    0.00  5812.00     0.00     8.00     0.16    0.11    0.11    0.00   0.11  16.20
sdf               0.00     0.00 1391.00    0.00  5564.00     0.00     8.00     0.15    0.11    0.11    0.00   0.11  15.30
sdg               0.00     0.00    0.00    0.00     0.00     0.00     0.00     0.00    0.00    0.00    0.00   0.00   0.00
sdh               0.00     0.00    0.00    0.00     0.00     0.00     0.00     0.00    0.00    0.00    0.00   0.00   0.00
md0               0.00     0.00 8574.00    0.00 34296.00     0.00     8.00     0.00    0.00    0.00    0.00   0.00   0.00

avg-cpu:  %user   %nice %system %iowait  %steal   %idle
           0.00    0.00    2.78   21.46    0.00   75.76

Device:         rrqm/s   wrqm/s     r/s     w/s    rkB/s    wkB/s avgrq-sz avgqu-sz   await r_await w_await  svctm  %util
sda               0.00     0.00 1376.00    0.00  5504.00     0.00     8.00     0.14    0.11    0.11    0.00   0.11  14.50
sdb               0.00     0.00 1277.00    0.00  5108.00     0.00     8.00     0.12    0.10    0.10    0.00   0.09  12.10
sdc               0.00     0.00 1434.00    0.00  5736.00     0.00     8.00     0.17    0.12    0.12    0.00   0.12  17.00
sdd               0.00     0.00 1374.00    0.00  5496.00     0.00     8.00     0.19    0.14    0.14    0.00   0.14  19.00
sde               0.00     0.00 1374.00    0.00  5496.00     0.00     8.00     0.14    0.10    0.10    0.00   0.10  14.00
sdf               0.00     0.00 1387.00    0.00  5548.00     0.00     8.00     0.16    0.12    0.12    0.00   0.12  16.40
sdg               0.00     0.00    0.00    0.00     0.00     0.00     0.00     0.00    0.00    0.00    0.00   0.00   0.00
sdh               0.00     0.00    0.00    0.00     0.00     0.00     0.00     0.00    0.00    0.00    0.00   0.00   0.00
md0               0.00     0.00 8222.00    0.00 32888.00     0.00     8.00     0.00    0.00    0.00    0.00   0.00   0.00

avg-cpu:  %user   %nice %system %iowait  %steal   %idle
           0.00    0.00    3.27   21.16    0.00   75.57

Device:         rrqm/s   wrqm/s     r/s     w/s    rkB/s    wkB/s avgrq-sz avgqu-sz   await r_await w_await  svctm  %util
sda               0.00     0.00 1429.00    0.00  5716.00     0.00     8.00     0.16    0.11    0.11    0.00   0.11  15.90
sdb               0.00     0.00 1389.00    0.00  5556.00     0.00     8.00     0.15    0.11    0.11    0.00   0.11  15.20
sdc               0.00     0.00 1330.00    0.00  5320.00     0.00     8.00     0.14    0.10    0.10    0.00   0.10  13.90
sdd               0.00     0.00 1350.00    0.00  5400.00     0.00     8.00     0.18    0.13    0.13    0.00   0.13  17.80
sde               0.00     0.00 1362.00    0.00  5448.00     0.00     8.00     0.17    0.12    0.12    0.00   0.12  16.90
sdf               0.00     0.00 1316.00    0.00  5264.00     0.00     8.00     0.13    0.10    0.10    0.00   0.10  12.70
sdg               0.00     0.00    0.00    0.00     0.00     0.00     0.00     0.00    0.00    0.00    0.00   0.00   0.00
sdh               0.00     0.00    0.00    0.00     0.00     0.00     0.00     0.00    0.00    0.00    0.00   0.00   0.00
md0               0.00     0.00 8177.00    0.00 32708.00     0.00     8.00     0.00    0.00    0.00    0.00   0.00   0.00

avg-cpu:  %user   %nice %system %iowait  %steal   %idle
           0.25    0.00    1.78    6.36    0.00   91.60

Device:         rrqm/s   wrqm/s     r/s     w/s    rkB/s    wkB/s avgrq-sz avgqu-sz   await r_await w_await  svctm  %util
sda               0.00     0.00 1371.00    0.00  5484.00     0.00     8.00     0.14    0.10    0.10    0.00   0.10  14.20
sdb               0.00     0.00 1377.00    0.00  5508.00     0.00     8.00     0.13    0.10    0.10    0.00   0.10  13.40
sdc               0.00     0.00 1397.00    0.00  5588.00     0.00     8.00     0.16    0.12    0.12    0.00   0.12  16.40
sdd               0.00     0.00 1365.00    0.00  5460.00     0.00     8.00     0.17    0.13    0.13    0.00   0.13  17.50
sde               0.00     0.00 1329.00    0.00  5316.00     0.00     8.00     0.16    0.12    0.12    0.00   0.12  16.20
sdf               0.00     0.00 1379.00    0.00  5516.00     0.00     8.00     0.15    0.11    0.11    0.00   0.11  15.40
sdg               0.00     0.00    0.00    0.00     0.00     0.00     0.00     0.00    0.00    0.00    0.00   0.00   0.00
sdh               0.00     0.00    0.00    0.00     0.00     0.00     0.00     0.00    0.00    0.00    0.00   0.00   0.00
md0               0.00     0.00 8218.00    0.00 32872.00     0.00     8.00     0.00    0.00    0.00    0.00   0.00   0.00

avg-cpu:  %user   %nice %system %iowait  %steal   %idle
           0.00    0.00    2.54   16.75    0.00   80.71

Device:         rrqm/s   wrqm/s     r/s     w/s    rkB/s    wkB/s avgrq-sz avgqu-sz   await r_await w_await  svctm  %util
sda               0.00     0.00 1476.00    0.00  5904.00     0.00     8.00     0.13    0.09    0.09    0.00   0.09  13.30
sdb               0.00     0.00 1422.00    0.00  5688.00     0.00     8.00     0.15    0.10    0.10    0.00   0.10  14.90
sdc               0.00     0.00 1475.00    0.00  5900.00     0.00     8.00     0.18    0.12    0.12    0.00   0.12  18.10
sdd               0.00     0.00 1441.00    0.00  5764.00     0.00     8.00     0.17    0.12    0.12    0.00   0.12  16.90
sde               0.00     0.00 1481.00    0.00  5924.00     0.00     8.00     0.15    0.10    0.10    0.00   0.10  15.10
sdf               0.00     0.00 1452.00    0.00  5808.00     0.00     8.00     0.16    0.11    0.11    0.00   0.11  16.30
sdg               0.00     0.00    0.00    0.00     0.00     0.00     0.00     0.00    0.00    0.00    0.00   0.00   0.00
sdh               0.00     0.00    0.00    0.00     0.00     0.00     0.00     0.00    0.00    0.00    0.00   0.00   0.00
md0               0.00     0.00 8747.00    0.00 34988.00     0.00     8.00     0.00    0.00    0.00    0.00   0.00   0.00

avg-cpu:  %user   %nice %system %iowait  %steal   %idle
           0.00    0.00    2.30    1.02    0.00   96.68

Device:         rrqm/s   wrqm/s     r/s     w/s    rkB/s    wkB/s avgrq-sz avgqu-sz   await r_await w_await  svctm  %util
sda               0.00     0.00 1415.00    0.00  5660.00     0.00     8.00     0.15    0.11    0.11    0.00   0.11  15.00
sdb               0.00     0.00 1444.00    0.00  5776.00     0.00     8.00     0.15    0.10    0.10    0.00   0.10  14.60
sdc               0.00     0.00 1404.00    0.00  5616.00     0.00     8.00     0.17    0.12    0.12    0.00   0.12  16.80
sdd               0.00     0.00 1415.00    0.00  5660.00     0.00     8.00     0.15    0.11    0.11    0.00   0.11  15.00
sde               0.00     0.00 1363.00    0.00  5452.00     0.00     8.00     0.16    0.12    0.12    0.00   0.12  16.20
sdf               0.00     0.00 1401.00    0.00  5604.00     0.00     8.00     0.17    0.12    0.12    0.00   0.12  16.60
sdg               0.00     1.00   16.00    7.00    64.00    52.00    10.09     0.00    0.13    0.12    0.14   0.09   0.20
sdh               0.00     0.00    0.00    0.00     0.00     0.00     0.00     0.00    0.00    0.00    0.00   0.00   0.00
md0               0.00     0.00 8442.00    0.00 33768.00     0.00     8.00     0.00    0.00    0.00    0.00   0.00   0.00

avg-cpu:  %user   %nice %system %iowait  %steal   %idle
           0.00    0.00    1.79    1.28    0.00   96.93

Device:         rrqm/s   wrqm/s     r/s     w/s    rkB/s    wkB/s avgrq-sz avgqu-sz   await r_await w_await  svctm  %util
sda               0.00     0.00 1428.00    0.00  5712.00     0.00     8.00     0.18    0.12    0.12    0.00   0.12  17.70
sdb               0.00     0.00 1462.00    0.00  5848.00     0.00     8.00     0.15    0.10    0.10    0.00   0.10  14.70
sdc               0.00     0.00 1331.00    0.00  5324.00     0.00     8.00     0.13    0.10    0.10    0.00   0.10  13.30
sdd               0.00     0.00 1440.00    0.00  5760.00     0.00     8.00     0.16    0.11    0.11    0.00   0.11  16.30
sde               0.00     0.00 1381.00    0.00  5524.00     0.00     8.00     0.17    0.12    0.12    0.00   0.12  16.70
sdf               0.00     0.00 1382.00    0.00  5528.00     0.00     8.00     0.15    0.11    0.11    0.00   0.11  15.00
sdg               0.00     0.00    0.00    0.00     0.00     0.00     0.00     0.00    0.00    0.00    0.00   0.00   0.00
sdh               0.00     0.00    0.00    0.00     0.00     0.00     0.00     0.00    0.00    0.00    0.00   0.00   0.00
md0               0.00     0.00 8424.00    0.00 33696.00     0.00     8.00     0.00    0.00    0.00    0.00   0.00   0.00

avg-cpu:  %user   %nice %system %iowait  %steal   %idle
           0.00    0.00    1.54    1.03    0.00   97.43

Device:         rrqm/s   wrqm/s     r/s     w/s    rkB/s    wkB/s avgrq-sz avgqu-sz   await r_await w_await  svctm  %util
sda               0.00     0.00 1478.00    0.00  5912.00     0.00     8.00     0.16    0.11    0.11    0.00   0.11  15.60
sdb               0.00     0.00 1473.00    0.00  5892.00     0.00     8.00     0.14    0.10    0.10    0.00   0.10  14.40
sdc               0.00     0.00 1457.00    0.00  5828.00     0.00     8.00     0.17    0.11    0.11    0.00   0.11  16.50
sdd               0.00     0.00 1487.00    0.00  5948.00     0.00     8.00     0.16    0.11    0.11    0.00   0.11  16.30
sde               0.00     0.00 1424.00    0.00  5696.00     0.00     8.00     0.16    0.11    0.11    0.00   0.11  15.70
sdf               0.00     0.00 1480.00    0.00  5920.00     0.00     8.00     0.17    0.11    0.11    0.00   0.11  17.00
sdg               0.00     0.00    0.00    0.00     0.00     0.00     0.00     0.00    0.00    0.00    0.00   0.00   0.00
sdh               0.00     0.00    0.00    0.00     0.00     0.00     0.00     0.00    0.00    0.00    0.00   0.00   0.00
md0               0.00     0.00 8798.00    0.00 35192.00     0.00     8.00     0.00    0.00    0.00    0.00   0.00   0.00

avg-cpu:  %user   %nice %system %iowait  %steal   %idle
           0.00    0.00    1.54    1.28    0.00   97.18

Device:         rrqm/s   wrqm/s     r/s     w/s    rkB/s    wkB/s avgrq-sz avgqu-sz   await r_await w_await  svctm  %util
sda               0.00     0.00 1448.00    0.00  5792.00     0.00     8.00     0.13    0.09    0.09    0.00   0.09  13.00
sdb               0.00     0.00 1520.00    0.00  6080.00     0.00     8.00     0.15    0.10    0.10    0.00   0.10  15.40
sdc               0.00     0.00 1438.00    0.00  5752.00     0.00     8.00     0.17    0.12    0.12    0.00   0.12  17.20
sdd               0.00     0.00 1432.00    0.00  5728.00     0.00     8.00     0.14    0.10    0.10    0.00   0.10  14.50
sde               0.00     0.00 1494.00    0.00  5976.00     0.00     8.00     0.18    0.12    0.12    0.00   0.12  17.70
sdf               0.00     0.00 1475.00    0.00  5900.00     0.00     8.00     0.16    0.11    0.11    0.00   0.11  16.10
sdg               0.00     0.00    0.00    0.00     0.00     0.00     0.00     0.00    0.00    0.00    0.00   0.00   0.00
sdh               0.00     0.00    0.00    0.00     0.00     0.00     0.00     0.00    0.00    0.00    0.00   0.00   0.00
md0               0.00     0.00 8808.00    0.00 35232.00     0.00     8.00     0.00    0.00    0.00    0.00   0.00   0.00

avg-cpu:  %user   %nice %system %iowait  %steal   %idle
           0.00    0.00    3.04   15.70    0.00   81.27

Device:         rrqm/s   wrqm/s     r/s     w/s    rkB/s    wkB/s avgrq-sz avgqu-sz   await r_await w_await  svctm  %util
sda               0.00     0.00 1456.00    0.00  5824.00     0.00     8.00     0.18    0.12    0.12    0.00   0.12  17.60
sdb               0.00     0.00 1455.00    0.00  5820.00     0.00     8.00     0.14    0.09    0.09    0.00   0.09  13.60
sdc               0.00     0.00 1485.00    0.00  5940.00     0.00     8.00     0.15    0.10    0.10    0.00   0.10  15.10
sdd               0.00     0.00 1441.00    0.00  5764.00     0.00     8.00     0.17    0.12    0.12    0.00   0.12  17.10
sde               0.00     0.00 1489.00    0.00  5956.00     0.00     8.00     0.15    0.10    0.10    0.00   0.10  15.40
sdf               0.00     0.00 1513.00    0.00  6052.00     0.00     8.00     0.16    0.11    0.11    0.00   0.11  15.90
sdg               0.00     0.00    0.00    0.00     0.00     0.00     0.00     0.00    0.00    0.00    0.00   0.00   0.00
sdh               0.00     0.00    0.00    0.00     0.00     0.00     0.00     0.00    0.00    0.00    0.00   0.00   0.00
md0               0.00     0.00 8839.00    0.00 35356.00     0.00     8.00     0.00    0.00    0.00    0.00   0.00   0.00

avg-cpu:  %user   %nice %system %iowait  %steal   %idle
           0.00    0.00    2.05    9.97    0.00   87.98

Device:         rrqm/s   wrqm/s     r/s     w/s    rkB/s    wkB/s avgrq-sz avgqu-sz   await r_await w_await  svctm  %util
sda               0.00     0.00 1341.00    0.00  5364.00     0.00     8.00     0.15    0.12    0.12    0.00   0.12  15.50
sdb               0.00     0.00 1497.00    0.00  5988.00     0.00     8.00     0.14    0.09    0.09    0.00   0.09  14.10
sdc               0.00     0.00 1457.00    0.00  5828.00     0.00     8.00     0.15    0.11    0.11    0.00   0.11  15.50
sdd               0.00     0.00 1424.00    0.00  5696.00     0.00     8.00     0.17    0.12    0.12    0.00   0.12  17.50
sde               0.00     0.00 1429.00    0.00  5716.00     0.00     8.00     0.15    0.11    0.11    0.00   0.11  15.40
sdf               0.00     0.00 1434.00    0.00  5736.00     0.00     8.00     0.17    0.12    0.12    0.00   0.12  16.50
sdg               0.00     1.00    0.00    2.00     0.00    36.00    36.00     0.00    0.00    0.00    0.00   0.00   0.00
sdh               0.00     0.00    0.00    0.00     0.00     0.00     0.00     0.00    0.00    0.00    0.00   0.00   0.00
md0               0.00     0.00 8582.00    0.00 34328.00     0.00     8.00     0.00    0.00    0.00    0.00   0.00   0.00

avg-cpu:  %user   %nice %system %iowait  %steal   %idle
           0.00    0.00    1.54    1.03    0.00   97.44

Device:         rrqm/s   wrqm/s     r/s     w/s    rkB/s    wkB/s avgrq-sz avgqu-sz   await r_await w_await  svctm  %util
sda               0.00     0.00 1386.00    0.00  5544.00     0.00     8.00     0.15    0.11    0.11    0.00   0.11  15.30
sdb               0.00     0.00 1374.00    0.00  5496.00     0.00     8.00     0.15    0.11    0.11    0.00   0.11  15.30
sdc               0.00     0.00 1371.00    0.00  5484.00     0.00     8.00     0.15    0.11    0.11    0.00   0.11  15.20
sdd               0.00     0.00 1432.00    0.00  5728.00     0.00     8.00     0.18    0.12    0.12    0.00   0.12  17.80
sde               0.00     0.00 1392.00    0.00  5568.00     0.00     8.00     0.15    0.11    0.11    0.00   0.11  14.90
sdf               0.00     0.00 1465.00    0.00  5860.00     0.00     8.00     0.16    0.11    0.11    0.00   0.11  15.80
sdg               0.00     0.00    0.00    4.00     0.00   128.00    64.00     0.00    0.75    0.00    0.75   0.25   0.10
sdh               0.00     0.00    0.00    0.00     0.00     0.00     0.00     0.00    0.00    0.00    0.00   0.00   0.00
md0               0.00     0.00 8420.00    0.00 33680.00     0.00     8.00     0.00    0.00    0.00    0.00   0.00   0.00

avg-cpu:  %user   %nice %system %iowait  %steal   %idle
           0.26    0.00    1.79    6.39    0.00   91.56

Device:         rrqm/s   wrqm/s     r/s     w/s    rkB/s    wkB/s avgrq-sz avgqu-sz   await r_await w_await  svctm  %util
sda               0.00     0.00 1405.00    0.00  5620.00     0.00     8.00     0.11    0.08    0.08    0.00   0.08  11.00
sdb               0.00     0.00 1387.00    0.00  5548.00     0.00     8.00     0.16    0.12    0.12    0.00   0.12  16.30
sdc               0.00     0.00 1382.00    0.00  5528.00     0.00     8.00     0.14    0.10    0.10    0.00   0.10  14.00
sdd               0.00     0.00 1462.00    0.00  5848.00     0.00     8.00     0.17    0.12    0.12    0.00   0.12  17.40
sde               0.00     0.00 1427.00    0.00  5708.00     0.00     8.00     0.17    0.12    0.12    0.00   0.12  17.40
sdf               0.00     0.00 1436.00    0.00  5744.00     0.00     8.00     0.18    0.13    0.13    0.00   0.13  18.00
sdg               0.00     0.00    0.00    0.00     0.00     0.00     0.00     0.00    0.00    0.00    0.00   0.00   0.00
sdh               0.00     0.00    0.00    0.00     0.00     0.00     0.00     0.00    0.00    0.00    0.00   0.00   0.00
md0               0.00     0.00 8499.00    0.00 33996.00     0.00     8.00     0.00    0.00    0.00    0.00   0.00   0.00

avg-cpu:  %user   %nice %system %iowait  %steal   %idle
           0.00    0.00    1.79    1.28    0.00   96.93

Device:         rrqm/s   wrqm/s     r/s     w/s    rkB/s    wkB/s avgrq-sz avgqu-sz   await r_await w_await  svctm  %util
sda               0.00     0.00 1364.00    0.00  5456.00     0.00     8.00     0.16    0.12    0.12    0.00   0.12  16.40
sdb               0.00     0.00 1392.00    0.00  5568.00     0.00     8.00     0.15    0.11    0.11    0.00   0.11  15.10
sdc               0.00     0.00 1413.00    0.00  5652.00     0.00     8.00     0.14    0.10    0.10    0.00   0.10  14.10
sdd               0.00     0.00 1381.00    0.00  5524.00     0.00     8.00     0.16    0.12    0.12    0.00   0.12  16.20
sde               0.00     0.00 1383.00    0.00  5532.00     0.00     8.00     0.16    0.12    0.12    0.00   0.12  16.30
sdf               0.00     0.00 1428.00    0.00  5712.00     0.00     8.00     0.17    0.12    0.12    0.00   0.12  17.00
sdg               0.00     0.00    0.00    0.00     0.00     0.00     0.00     0.00    0.00    0.00    0.00   0.00   0.00
sdh               0.00     0.00    0.00    0.00     0.00     0.00     0.00     0.00    0.00    0.00    0.00   0.00   0.00
md0               0.00     0.00 8361.00    0.00 33444.00     0.00     8.00     0.00    0.00    0.00    0.00   0.00   0.00

avg-cpu:  %user   %nice %system %iowait  %steal   %idle
           0.00    0.00    1.54    1.03    0.00   97.43

Device:         rrqm/s   wrqm/s     r/s     w/s    rkB/s    wkB/s avgrq-sz avgqu-sz   await r_await w_await  svctm  %util
sda               0.00     0.00 1437.00    0.00  5748.00     0.00     8.00     0.14    0.10    0.10    0.00   0.10  14.20
sdb               0.00     0.00 1420.00    0.00  5680.00     0.00     8.00     0.14    0.10    0.10    0.00   0.10  13.90
sdc               0.00     0.00 1414.00    0.00  5656.00     0.00     8.00     0.17    0.12    0.12    0.00   0.12  16.70
sdd               0.00     0.00 1393.00    0.00  5572.00     0.00     8.00     0.17    0.12    0.12    0.00   0.12  16.90
sde               0.00     0.00 1342.00    0.00  5368.00     0.00     8.00     0.18    0.13    0.13    0.00   0.13  18.10
sdf               0.00     0.00 1399.00    0.00  5596.00     0.00     8.00     0.15    0.11    0.11    0.00   0.11  14.80
sdg               0.00     0.00    0.00    0.00     0.00     0.00     0.00     0.00    0.00    0.00    0.00   0.00   0.00
sdh               0.00     0.00    0.00    0.00     0.00     0.00     0.00     0.00    0.00    0.00    0.00   0.00   0.00
md0               0.00     0.00 8404.00    0.00 33616.00     0.00     8.00     0.00    0.00    0.00    0.00   0.00   0.00

avg-cpu:  %user   %nice %system %iowait  %steal   %idle
           0.00    0.00    1.54    1.28    0.00   97.18

Device:         rrqm/s   wrqm/s     r/s     w/s    rkB/s    wkB/s avgrq-sz avgqu-sz   await r_await w_await  svctm  %util
sda               0.00     0.00 1420.00    0.00  5680.00     0.00     8.00     0.17    0.12    0.12    0.00   0.12  16.60
sdb               0.00     0.00 1437.00    0.00  5748.00     0.00     8.00     0.16    0.11    0.11    0.00   0.11  15.70
sdc               0.00     0.00 1380.00    0.00  5520.00     0.00     8.00     0.15    0.11    0.11    0.00   0.11  15.10
sdd               0.00     0.00 1413.00    0.00  5652.00     0.00     8.00     0.18    0.13    0.13    0.00   0.13  18.20
sde               0.00     0.00 1335.00    0.00  5340.00     0.00     8.00     0.15    0.11    0.11    0.00   0.11  14.60
sdf               0.00     0.00 1388.00    0.00  5552.00     0.00     8.00     0.14    0.11    0.11    0.00   0.10  14.50
sdg               0.00     0.00    0.00    0.00     0.00     0.00     0.00     0.00    0.00    0.00    0.00   0.00   0.00
sdh               0.00     0.00    0.00    0.00     0.00     0.00     0.00     0.00    0.00    0.00    0.00   0.00   0.00
md0               0.00     0.00 8374.00    0.00 33496.00     0.00     8.00     0.00    0.00    0.00    0.00   0.00   0.00

avg-cpu:  %user   %nice %system %iowait  %steal   %idle
           0.00    0.00    1.54    1.28    0.00   97.18

Device:         rrqm/s   wrqm/s     r/s     w/s    rkB/s    wkB/s avgrq-sz avgqu-sz   await r_await w_await  svctm  %util
sda               0.00     0.00 1403.00    0.00  5612.00     0.00     8.00     0.15    0.11    0.11    0.00   0.11  15.20
sdb               0.00     0.00 1420.00    0.00  5680.00     0.00     8.00     0.16    0.11    0.11    0.00   0.11  16.10
sdc               0.00     0.00 1405.00    0.00  5620.00     0.00     8.00     0.16    0.11    0.11    0.00   0.11  15.80
sdd               0.00     0.00 1403.00    0.00  5612.00     0.00     8.00     0.15    0.11    0.11    0.00   0.11  15.30
sde               0.00     0.00 1386.00    0.00  5544.00     0.00     8.00     0.17    0.12    0.12    0.00   0.12  16.50
sdf               0.00     0.00 1431.00    0.00  5724.00     0.00     8.00     0.16    0.11    0.11    0.00   0.11  15.60
sdg               0.00     0.00    0.00    0.00     0.00     0.00     0.00     0.00    0.00    0.00    0.00   0.00   0.00
sdh               0.00     0.00    0.00    0.00     0.00     0.00     0.00     0.00    0.00    0.00    0.00   0.00   0.00
md0               0.00     0.00 8448.00    0.00 33792.00     0.00     8.00     0.00    0.00    0.00    0.00   0.00   0.00

avg-cpu:  %user   %nice %system %iowait  %steal   %idle
           0.00    0.00    2.05    1.02    0.00   96.93

Device:         rrqm/s   wrqm/s     r/s     w/s    rkB/s    wkB/s avgrq-sz avgqu-sz   await r_await w_await  svctm  %util
sda               0.00     0.00 1497.00    0.00  5988.00     0.00     8.00     0.17    0.11    0.11    0.00   0.11  16.70
sdb               0.00     0.00 1495.00    0.00  5980.00     0.00     8.00     0.16    0.11    0.11    0.00   0.11  16.30
sdc               0.00     0.00 1455.00    0.00  5820.00     0.00     8.00     0.18    0.12    0.12    0.00   0.12  17.70
sdd               0.00     0.00 1424.00    0.00  5696.00     0.00     8.00     0.15    0.11    0.11    0.00   0.11  15.40
sde               0.00     0.00 1367.00    0.00  5468.00     0.00     8.00     0.13    0.09    0.09    0.00   0.09  12.70
sdf               0.00     0.00 1422.00    0.00  5688.00     0.00     8.00     0.15    0.10    0.10    0.00   0.10  14.70
sdg               0.00     0.00    0.00    0.00     0.00     0.00     0.00     0.00    0.00    0.00    0.00   0.00   0.00
sdh               0.00     0.00    0.00    0.00     0.00     0.00     0.00     0.00    0.00    0.00    0.00   0.00   0.00
md0               0.00     0.00 8660.00    0.00 34640.00     0.00     8.00     0.00    0.00    0.00    0.00   0.00   0.00

