Linux 4.17.2 (bench) 	08/03/2018 	_x86_64_	(4 CPU)

avg-cpu:  %user   %nice %system %iowait  %steal   %idle
          10.27    0.02    4.07    2.56    0.00   83.07

Device:         rrqm/s   wrqm/s     r/s     w/s    rkB/s    wkB/s avgrq-sz avgqu-sz   await r_await w_await  svctm  %util
sda              45.88     4.24 1657.53  102.50 20976.79  3136.34    27.40     1.04    0.59    0.26    5.92   0.06  10.74
sdb              45.74     4.20 1657.48  102.64 20966.16  3133.00    27.38     1.03    0.59    0.26    5.85   0.06  10.62
sdc              83.72     4.26 1617.40  102.19 20958.24  3135.47    28.02     1.45    0.85    0.45    7.12   0.08  14.08
sdd              77.15     4.23 1623.14  102.26 20943.16  3131.66    27.91     1.46    0.85    0.44    7.33   0.08  14.18
sde              79.18     4.28 1628.21  102.36 21002.95  3135.91    27.90     1.48    0.86    0.44    7.44   0.08  14.20
sdf              76.29     4.25 1630.37  102.30 20984.21  3132.77    27.84     1.53    0.88    0.44    7.90   0.08  14.23
sdg               0.00     3.17   26.32   73.33   324.06   392.10    14.37     0.44    4.42    0.20    5.93   0.08   0.78
sdh               0.00     0.13    0.02    0.23     2.21     5.06    56.82     0.00    1.15    0.65    1.19   0.21   0.01
md0               0.00     0.00 10228.90  480.25 143705.02 21467.84    30.85     0.00    0.00    0.00    0.00   0.00   0.00

avg-cpu:  %user   %nice %system %iowait  %steal   %idle
           0.26    0.00    1.80    0.00    0.00   97.94

Device:         rrqm/s   wrqm/s     r/s     w/s    rkB/s    wkB/s avgrq-sz avgqu-sz   await r_await w_await  svctm  %util
sda               0.00     0.00 2026.00    0.00  8104.00     0.00     8.00     0.13    0.06    0.06    0.00   0.06  12.80
sdb               0.00     0.00 2101.00    0.00  8404.00     0.00     8.00     0.15    0.07    0.07    0.00   0.07  15.00
sdc               0.00     0.00 2276.00    0.00  9104.00     0.00     8.00     0.15    0.07    0.07    0.00   0.07  15.20
sdd               0.00     0.00 2199.00    0.00  8796.00     0.00     8.00     0.16    0.07    0.07    0.00   0.07  15.80
sde               0.00     0.00 2178.00    0.00  8712.00     0.00     8.00     0.17    0.08    0.08    0.00   0.07  15.20
sdf               0.00     0.00 2295.00    0.00  9180.00     0.00     8.00     0.16    0.07    0.07    0.00   0.07  15.90
sdg               0.00     0.00    4.00    0.00    80.00     0.00    40.00     0.00    0.25    0.25    0.00   0.25   0.10
sdh               0.00     0.00    0.00    0.00     0.00     0.00     0.00     0.00    0.00    0.00    0.00   0.00   0.00
md0               0.00     0.00 13076.00    0.00 52304.00     0.00     8.00     0.00    0.00    0.00    0.00   0.00   0.00

avg-cpu:  %user   %nice %system %iowait  %steal   %idle
           0.26    0.00    2.81    0.00    0.00   96.94

Device:         rrqm/s   wrqm/s     r/s     w/s    rkB/s    wkB/s avgrq-sz avgqu-sz   await r_await w_await  svctm  %util
sda               0.00     0.00 2274.00    0.00  9096.00     0.00     8.00     0.14    0.06    0.06    0.00   0.06  14.50
sdb               0.00     0.00 2230.00    0.00  8920.00     0.00     8.00     0.15    0.07    0.07    0.00   0.07  14.60
sdc               0.00     0.00 2249.00    0.00  8996.00     0.00     8.00     0.16    0.07    0.07    0.00   0.07  15.70
sdd               0.00     0.00 2141.00    0.00  8564.00     0.00     8.00     0.15    0.07    0.07    0.00   0.07  15.10
sde               0.00     0.00 2166.00    0.00  8664.00     0.00     8.00     0.15    0.07    0.07    0.00   0.07  14.80
sdf               0.00     0.00 2326.00    0.00  9304.00     0.00     8.00     0.16    0.07    0.07    0.00   0.07  15.70
sdg               0.00     0.00    0.00    0.00     0.00     0.00     0.00     0.00    0.00    0.00    0.00   0.00   0.00
sdh               0.00     0.00    0.00    0.00     0.00     0.00     0.00     0.00    0.00    0.00    0.00   0.00   0.00
md0               0.00     0.00 13387.00    0.00 53548.00     0.00     8.00     0.00    0.00    0.00    0.00   0.00   0.00

avg-cpu:  %user   %nice %system %iowait  %steal   %idle
           0.00    0.00    2.56    0.00    0.00   97.44

Device:         rrqm/s   wrqm/s     r/s     w/s    rkB/s    wkB/s avgrq-sz avgqu-sz   await r_await w_await  svctm  %util
sda               0.00     0.00 2008.00    0.00  8032.00     0.00     8.00     0.13    0.07    0.07    0.00   0.07  13.10
sdb               0.00     0.00 2218.00    0.00  8872.00     0.00     8.00     0.14    0.07    0.07    0.00   0.07  14.50
sdc               0.00     0.00 2290.00    0.00  9160.00     0.00     8.00     0.16    0.07    0.07    0.00   0.07  15.60
sdd               0.00     0.00 2123.00    0.00  8492.00     0.00     8.00     0.15    0.07    0.07    0.00   0.07  15.40
sde               0.00     0.00 2261.00    0.00  9044.00     0.00     8.00     0.15    0.07    0.07    0.00   0.07  15.40
sdf               0.00     0.00 2277.00    0.00  9108.00     0.00     8.00     0.16    0.07    0.07    0.00   0.07  15.70
sdg               0.00     0.00    0.00    0.00     0.00     0.00     0.00     0.00    0.00    0.00    0.00   0.00   0.00
sdh               0.00     0.00    0.00    0.00     0.00     0.00     0.00     0.00    0.00    0.00    0.00   0.00   0.00
md0               0.00     0.00 13179.00    0.00 52716.00     0.00     8.00     0.00    0.00    0.00    0.00   0.00   0.00

avg-cpu:  %user   %nice %system %iowait  %steal   %idle
           0.51    0.26    2.31    0.00    0.00   96.92

Device:         rrqm/s   wrqm/s     r/s     w/s    rkB/s    wkB/s avgrq-sz avgqu-sz   await r_await w_await  svctm  %util
sda               0.00     0.00 2130.00    0.00  8520.00     0.00     8.00     0.14    0.07    0.07    0.00   0.07  14.30
sdb               0.00     0.00 2157.00    0.00  8628.00     0.00     8.00     0.14    0.07    0.07    0.00   0.07  14.40
sdc               0.00     0.00 2323.00    0.00  9292.00     0.00     8.00     0.16    0.07    0.07    0.00   0.07  15.70
sdd               0.00     0.00 2246.00    0.00  8984.00     0.00     8.00     0.15    0.07    0.07    0.00   0.07  15.40
sde               0.00     0.00 2373.00    0.00  9492.00     0.00     8.00     0.15    0.06    0.06    0.00   0.06  15.10
sdf               0.00     0.00 2188.00    0.00  8752.00     0.00     8.00     0.15    0.07    0.07    0.00   0.07  14.90
sdg               0.00     0.00   41.00    0.00   476.00     0.00    23.22     0.01    0.15    0.15    0.00   0.10   0.40
sdh               0.00     0.00    0.00    0.00     0.00     0.00     0.00     0.00    0.00    0.00    0.00   0.00   0.00
md0               0.00     0.00 13415.00    0.00 53660.00     0.00     8.00     0.00    0.00    0.00    0.00   0.00   0.00

avg-cpu:  %user   %nice %system %iowait  %steal   %idle
           0.25    0.00    3.54    0.00    0.00   96.20

Device:         rrqm/s   wrqm/s     r/s     w/s    rkB/s    wkB/s avgrq-sz avgqu-sz   await r_await w_await  svctm  %util
sda               0.00     0.00 2174.00    0.00  8696.00     0.00     8.00     0.14    0.06    0.06    0.00   0.06  14.00
sdb               0.00     0.00 2288.00    0.00  9152.00     0.00     8.00     0.14    0.06    0.06    0.00   0.06  14.30
sdc               0.00     0.00 2221.00    0.00  8884.00     0.00     8.00     0.15    0.07    0.07    0.00   0.07  14.60
sdd               0.00     0.00 2034.00    0.00  8136.00     0.00     8.00     0.15    0.07    0.07    0.00   0.07  15.00
sde               0.00     0.00 2329.00    0.00  9316.00     0.00     8.00     0.16    0.07    0.07    0.00   0.07  16.10
sdf               0.00     0.00 2152.00    0.00  8608.00     0.00     8.00     0.15    0.07    0.07    0.00   0.07  15.40
sdg               0.00     0.00    0.00    0.00     0.00     0.00     0.00     0.00    0.00    0.00    0.00   0.00   0.00
sdh               0.00     0.00    0.00    0.00     0.00     0.00     0.00     0.00    0.00    0.00    0.00   0.00   0.00
md0               0.00     0.00 13198.00    0.00 52792.00     0.00     8.00     0.00    0.00    0.00    0.00   0.00   0.00

avg-cpu:  %user   %nice %system %iowait  %steal   %idle
           0.25    0.00    3.05    0.00    0.00   96.69

Device:         rrqm/s   wrqm/s     r/s     w/s    rkB/s    wkB/s avgrq-sz avgqu-sz   await r_await w_await  svctm  %util
sda               0.00     0.00 2381.00    0.00  9524.00     0.00     8.00     0.15    0.06    0.06    0.00   0.06  15.40
sdb               0.00     0.00 2264.00    0.00  9056.00     0.00     8.00     0.14    0.06    0.06    0.00   0.06  14.00
sdc               0.00     0.00 2187.00    0.00  8748.00     0.00     8.00     0.15    0.07    0.07    0.00   0.07  14.80
sdd               0.00     0.00 2219.00    0.00  8876.00     0.00     8.00     0.15    0.07    0.07    0.00   0.07  15.30
sde               0.00     0.00 2193.00    0.00  8772.00     0.00     8.00     0.16    0.07    0.07    0.00   0.07  15.80
sdf               0.00     0.00 2237.00    0.00  8948.00     0.00     8.00     0.16    0.07    0.07    0.00   0.07  16.20
sdg               0.00     0.00    0.00    0.00     0.00     0.00     0.00     0.00    0.00    0.00    0.00   0.00   0.00
sdh               0.00     0.00    0.00    0.00     0.00     0.00     0.00     0.00    0.00    0.00    0.00   0.00   0.00
md0               0.00     0.00 13483.00    0.00 53932.00     0.00     8.00     0.00    0.00    0.00    0.00   0.00   0.00

avg-cpu:  %user   %nice %system %iowait  %steal   %idle
           0.00    0.00    2.82    0.00    0.00   97.18

Device:         rrqm/s   wrqm/s     r/s     w/s    rkB/s    wkB/s avgrq-sz avgqu-sz   await r_await w_await  svctm  %util
sda               0.00     0.00 2301.00    0.00  9204.00     0.00     8.00     0.15    0.06    0.06    0.00   0.06  14.70
sdb               0.00     0.00 2201.00    0.00  8804.00     0.00     8.00     0.15    0.07    0.07    0.00   0.07  14.70
sdc               0.00     0.00 2176.00    0.00  8704.00     0.00     8.00     0.16    0.07    0.07    0.00   0.07  15.70
sdd               0.00     0.00 2444.00    0.00  9776.00     0.00     8.00     0.16    0.07    0.07    0.00   0.07  16.30
sde               0.00     0.00 2237.00    0.00  8948.00     0.00     8.00     0.16    0.07    0.07    0.00   0.07  15.60
sdf               0.00     0.00 2130.00    0.00  8520.00     0.00     8.00     0.14    0.07    0.07    0.00   0.07  14.30
sdg               0.00     0.00    0.00    0.00     0.00     0.00     0.00     0.00    0.00    0.00    0.00   0.00   0.00
sdh               0.00     0.00    0.00    0.00     0.00     0.00     0.00     0.00    0.00    0.00    0.00   0.00   0.00
md0               0.00     0.00 13488.00    0.00 53952.00     0.00     8.00     0.00    0.00    0.00    0.00   0.00   0.00

avg-cpu:  %user   %nice %system %iowait  %steal   %idle
           0.26    0.00    2.31    0.00    0.00   97.44

Device:         rrqm/s   wrqm/s     r/s     w/s    rkB/s    wkB/s avgrq-sz avgqu-sz   await r_await w_await  svctm  %util
sda               0.00     0.00 2318.00    0.00  9272.00     0.00     8.00     0.15    0.07    0.07    0.00   0.07  15.30
sdb               0.00     0.00 2152.00    0.00  8608.00     0.00     8.00     0.13    0.06    0.06    0.00   0.06  13.40
sdc               0.00     0.00 2268.00    0.00  9072.00     0.00     8.00     0.16    0.07    0.07    0.00   0.07  15.60
sdd               0.00     0.00 1967.00    0.00  7868.00     0.00     8.00     0.13    0.07    0.07    0.00   0.07  13.40
sde               0.00     0.00 2175.00    0.00  8700.00     0.00     8.00     0.15    0.07    0.07    0.00   0.07  15.00
sdf               0.00     0.00 2265.00    0.00  9060.00     0.00     8.00     0.17    0.08    0.08    0.00   0.08  17.20
sdg               0.00     1.00    9.00    1.00    36.00    20.00    11.20     0.00    0.10    0.11    0.00   0.10   0.10
sdh               0.00     0.00    0.00    0.00     0.00     0.00     0.00     0.00    0.00    0.00    0.00   0.00   0.00
md0               0.00     0.00 13144.00    0.00 52576.00     0.00     8.00     0.00    0.00    0.00    0.00   0.00   0.00

avg-cpu:  %user   %nice %system %iowait  %steal   %idle
           0.26    0.00    3.06    0.00    0.00   96.68

Device:         rrqm/s   wrqm/s     r/s     w/s    rkB/s    wkB/s avgrq-sz avgqu-sz   await r_await w_await  svctm  %util
sda               0.00     0.00 2148.00    0.00  8592.00     0.00     8.00     0.15    0.07    0.07    0.00   0.07  14.60
sdb               0.00     0.00 2154.00    0.00  8616.00     0.00     8.00     0.13    0.06    0.06    0.00   0.06  13.00
sdc               0.00     0.00 2236.00    0.00  8944.00     0.00     8.00     0.15    0.07    0.07    0.00   0.07  15.30
sdd               0.00     0.00 2359.00    0.00  9436.00     0.00     8.00     0.16    0.07    0.07    0.00   0.07  15.70
sde               0.00     0.00 2206.00    0.00  8824.00     0.00     8.00     0.15    0.07    0.07    0.00   0.07  15.30
sdf               0.00     0.00 2204.00    0.00  8816.00     0.00     8.00     0.15    0.07    0.07    0.00   0.07  15.00
sdg               0.00     0.00    0.00    0.00     0.00     0.00     0.00     0.00    0.00    0.00    0.00   0.00   0.00
sdh               0.00     0.00    0.00    0.00     0.00     0.00     0.00     0.00    0.00    0.00    0.00   0.00   0.00
md0               0.00     0.00 13307.00    0.00 53228.00     0.00     8.00     0.00    0.00    0.00    0.00   0.00   0.00

avg-cpu:  %user   %nice %system %iowait  %steal   %idle
           0.25    0.00    3.54    0.00    0.00   96.20

Device:         rrqm/s   wrqm/s     r/s     w/s    rkB/s    wkB/s avgrq-sz avgqu-sz   await r_await w_await  svctm  %util
sda               0.00     0.00 2177.00    0.00  8708.00     0.00     8.00     0.13    0.06    0.06    0.00   0.06  13.40
sdb               0.00     0.00 2169.00    0.00  8676.00     0.00     8.00     0.14    0.07    0.07    0.00   0.07  14.20
sdc               0.00     0.00 2179.00    0.00  8716.00     0.00     8.00     0.15    0.07    0.07    0.00   0.07  15.30
sdd               0.00     0.00 1977.00    0.00  7908.00     0.00     8.00     0.14    0.07    0.07    0.00   0.07  14.10
sde               0.00     0.00 2197.00    0.00  8788.00     0.00     8.00     0.16    0.07    0.07    0.00   0.07  16.20
sdf               0.00     0.00 2387.00    0.00  9548.00     0.00     8.00     0.16    0.07    0.07    0.00   0.07  15.90
sdg               0.00     0.00    0.00    0.00     0.00     0.00     0.00     0.00    0.00    0.00    0.00   0.00   0.00
sdh               0.00     0.00    0.00    0.00     0.00     0.00     0.00     0.00    0.00    0.00    0.00   0.00   0.00
md0               0.00     0.00 13086.00    0.00 52344.00     0.00     8.00     0.00    0.00    0.00    0.00   0.00   0.00

avg-cpu:  %user   %nice %system %iowait  %steal   %idle
           0.26    0.00    2.81    0.00    0.00   96.94

Device:         rrqm/s   wrqm/s     r/s     w/s    rkB/s    wkB/s avgrq-sz avgqu-sz   await r_await w_await  svctm  %util
sda               0.00     0.00 2078.00    0.00  8312.00     0.00     8.00     0.14    0.07    0.07    0.00   0.07  14.30
sdb               0.00     0.00 2214.00    0.00  8856.00     0.00     8.00     0.15    0.07    0.07    0.00   0.07  14.80
sdc               0.00     0.00 2231.00    0.00  8924.00     0.00     8.00     0.15    0.07    0.07    0.00   0.07  14.70
sdd               0.00     0.00 2265.00    0.00  9060.00     0.00     8.00     0.15    0.07    0.07    0.00   0.07  15.50
sde               0.00     0.00 2238.00    0.00  8952.00     0.00     8.00     0.16    0.07    0.07    0.00   0.07  16.00
sdf               0.00     0.00 2189.00    0.00  8756.00     0.00     8.00     0.15    0.07    0.07    0.00   0.07  15.40
sdg               0.00     2.00    1.00   10.00    16.00   180.00    35.64     0.00    0.27    0.00    0.30   0.09   0.10
sdh               0.00     0.00    0.00    0.00     0.00     0.00     0.00     0.00    0.00    0.00    0.00   0.00   0.00
md0               0.00     0.00 13215.00    0.00 52860.00     0.00     8.00     0.00    0.00    0.00    0.00   0.00   0.00

avg-cpu:  %user   %nice %system %iowait  %steal   %idle
           0.00    0.00    2.32    0.00    0.00   97.68

Device:         rrqm/s   wrqm/s     r/s     w/s    rkB/s    wkB/s avgrq-sz avgqu-sz   await r_await w_await  svctm  %util
sda               0.00     0.00 2396.00    0.00  9584.00     0.00     8.00     0.16    0.07    0.07    0.00   0.07  15.80
sdb               0.00     0.00 2265.00    0.00  9060.00     0.00     8.00     0.14    0.06    0.06    0.00   0.06  14.40
sdc               0.00     0.00 2145.00    0.00  8580.00     0.00     8.00     0.14    0.07    0.07    0.00   0.07  14.20
sdd               0.00     0.00 2168.00    0.00  8672.00     0.00     8.00     0.16    0.07    0.07    0.00   0.07  15.80
sde               0.00     0.00 2306.00    0.00  9224.00     0.00     8.00     0.16    0.07    0.07    0.00   0.07  16.30
sdf               0.00     0.00 2123.00    0.00  8492.00     0.00     8.00     0.15    0.07    0.07    0.00   0.07  15.20
sdg               0.00     0.00    0.00    0.00     0.00     0.00     0.00     0.00    0.00    0.00    0.00   0.00   0.00
sdh               0.00     0.00    0.00    0.00     0.00     0.00     0.00     0.00    0.00    0.00    0.00   0.00   0.00
md0               0.00     0.00 13403.00    0.00 53612.00     0.00     8.00     0.00    0.00    0.00    0.00   0.00   0.00

avg-cpu:  %user   %nice %system %iowait  %steal   %idle
           0.00    0.00    2.56    0.00    0.00   97.44

Device:         rrqm/s   wrqm/s     r/s     w/s    rkB/s    wkB/s avgrq-sz avgqu-sz   await r_await w_await  svctm  %util
sda               0.00     0.00 2225.00    0.00  8900.00     0.00     8.00     0.14    0.06    0.06    0.00   0.06  13.90
sdb               0.00     0.00 2235.00    0.00  8940.00     0.00     8.00     0.15    0.07    0.07    0.00   0.07  15.30
sdc               0.00     0.00 1988.00    0.00  7952.00     0.00     8.00     0.14    0.07    0.07    0.00   0.07  13.90
sdd               0.00     0.00 2116.00    0.00  8464.00     0.00     8.00     0.15    0.07    0.07    0.00   0.07  15.00
sde               0.00     0.00 2245.00    0.00  8980.00     0.00     8.00     0.16    0.07    0.07    0.00   0.07  15.90
sdf               0.00     0.00 2326.00    0.00  9304.00     0.00     8.00     0.17    0.07    0.07    0.00   0.07  17.30
sdg               0.00     0.00    0.00    0.00     0.00     0.00     0.00     0.00    0.00    0.00    0.00   0.00   0.00
sdh               0.00     0.00    0.00    0.00     0.00     0.00     0.00     0.00    0.00    0.00    0.00   0.00   0.00
md0               0.00     0.00 13136.00    0.00 52544.00     0.00     8.00     0.00    0.00    0.00    0.00   0.00   0.00

avg-cpu:  %user   %nice %system %iowait  %steal   %idle
           0.25    0.00    3.56    0.00    0.00   96.18

Device:         rrqm/s   wrqm/s     r/s     w/s    rkB/s    wkB/s avgrq-sz avgqu-sz   await r_await w_await  svctm  %util
sda               0.00     0.00 2150.00    0.00  8600.00     0.00     8.00     0.14    0.06    0.06    0.00   0.06  13.60
sdb               0.00     0.00 2168.00    0.00  8672.00     0.00     8.00     0.15    0.07    0.07    0.00   0.07  15.10
sdc               0.00     0.00 2041.00    0.00  8164.00     0.00     8.00     0.15    0.07    0.07    0.00   0.07  15.10
sdd               0.00     0.00 2282.00    0.00  9128.00     0.00     8.00     0.17    0.07    0.07    0.00   0.07  16.60
sde               0.00     0.00 2261.00    0.00  9044.00     0.00     8.00     0.16    0.07    0.07    0.00   0.07  15.80
sdf               0.00     0.00 2257.00    0.00  9028.00     0.00     8.00     0.14    0.06    0.06    0.00   0.06  14.40
sdg               0.00     1.00   11.00    2.00    44.00    36.00    12.31     0.00    0.15    0.09    0.50   0.08   0.10
sdh               0.00     0.00    0.00    0.00     0.00     0.00     0.00     0.00    0.00    0.00    0.00   0.00   0.00
md0               0.00     0.00 13158.00    0.00 52632.00     0.00     8.00     0.00    0.00    0.00    0.00   0.00   0.00

avg-cpu:  %user   %nice %system %iowait  %steal   %idle
           0.51    0.00    2.30    0.00    0.00   97.19

Device:         rrqm/s   wrqm/s     r/s     w/s    rkB/s    wkB/s avgrq-sz avgqu-sz   await r_await w_await  svctm  %util
sda               0.00     0.00 2280.00    0.00  9120.00     0.00     8.00     0.15    0.07    0.07    0.00   0.07  14.90
sdb               0.00     0.00 2170.00    0.00  8680.00     0.00     8.00     0.14    0.07    0.07    0.00   0.07  14.50
sdc               0.00     0.00 2205.00    0.00  8820.00     0.00     8.00     0.15    0.07    0.07    0.00   0.07  15.40
sdd               0.00     0.00 2100.00    0.00  8400.00     0.00     8.00     0.15    0.07    0.07    0.00   0.07  15.00
sde               0.00     0.00 2286.00    0.00  9144.00     0.00     8.00     0.16    0.07    0.07    0.00   0.07  16.20
sdf               0.00     0.00 2006.00    0.00  8024.00     0.00     8.00     0.14    0.07    0.07    0.00   0.07  14.20
sdg               0.00     0.00    0.00    0.00     0.00     0.00     0.00     0.00    0.00    0.00    0.00   0.00   0.00
sdh               0.00     0.00    0.00    0.00     0.00     0.00     0.00     0.00    0.00    0.00    0.00   0.00   0.00
md0               0.00     0.00 13047.00    0.00 52188.00     0.00     8.00     0.00    0.00    0.00    0.00   0.00   0.00

avg-cpu:  %user   %nice %system %iowait  %steal   %idle
           0.00    0.00    3.06    0.00    0.00   96.94

Device:         rrqm/s   wrqm/s     r/s     w/s    rkB/s    wkB/s avgrq-sz avgqu-sz   await r_await w_await  svctm  %util
sda               0.00     0.00 2131.00    0.00  8524.00     0.00     8.00     0.15    0.07    0.07    0.00   0.07  14.60
sdb               0.00     0.00 2225.00    0.00  8900.00     0.00     8.00     0.14    0.07    0.07    0.00   0.07  14.50
sdc               0.00     0.00 2142.00    0.00  8568.00     0.00     8.00     0.14    0.07    0.07    0.00   0.07  14.10
sdd               0.00     0.00 2456.00    0.00  9824.00     0.00     8.00     0.17    0.07    0.07    0.00   0.07  16.90
sde               0.00     0.00 2097.00    0.00  8388.00     0.00     8.00     0.16    0.08    0.08    0.00   0.08  16.00
sdf               0.00     0.00 1917.00    0.00  7668.00     0.00     8.00     0.14    0.07    0.07    0.00   0.07  14.20
sdg               0.00     0.00    0.00    0.00     0.00     0.00     0.00     0.00    0.00    0.00    0.00   0.00   0.00
sdh               0.00     0.00    0.00    0.00     0.00     0.00     0.00     0.00    0.00    0.00    0.00   0.00   0.00
md0               0.00     0.00 12967.00    0.00 51868.00     0.00     8.00     0.00    0.00    0.00    0.00   0.00   0.00

avg-cpu:  %user   %nice %system %iowait  %steal   %idle
           0.26    0.00    2.56    0.00    0.00   97.19

Device:         rrqm/s   wrqm/s     r/s     w/s    rkB/s    wkB/s avgrq-sz avgqu-sz   await r_await w_await  svctm  %util
sda               0.00     0.00 2175.00    0.00  8700.00     0.00     8.00     0.16    0.07    0.07    0.00   0.07  16.10
sdb               0.00     0.00 2181.00    0.00  8724.00     0.00     8.00     0.15    0.07    0.07    0.00   0.07  14.60
sdc               0.00     0.00 2109.00    0.00  8436.00     0.00     8.00     0.15    0.07    0.07    0.00   0.07  15.40
sdd               0.00     0.00 2135.00    0.00  8540.00     0.00     8.00     0.16    0.07    0.07    0.00   0.07  15.80
sde               0.00     0.00 2249.00    0.00  8996.00     0.00     8.00     0.16    0.07    0.07    0.00   0.07  15.80
sdf               0.00     0.00 1992.00    0.00  7968.00     0.00     8.00     0.14    0.07    0.07    0.00   0.07  14.20
sdg               0.00     0.00    0.00    0.00     0.00     0.00     0.00     0.00    0.00    0.00    0.00   0.00   0.00
sdh               0.00     0.00    0.00    0.00     0.00     0.00     0.00     0.00    0.00    0.00    0.00   0.00   0.00
md0               0.00     0.00 12842.00    0.00 51368.00     0.00     8.00     0.00    0.00    0.00    0.00   0.00   0.00

avg-cpu:  %user   %nice %system %iowait  %steal   %idle
           0.26    0.00    2.06    0.00    0.00   97.68

Device:         rrqm/s   wrqm/s     r/s     w/s    rkB/s    wkB/s avgrq-sz avgqu-sz   await r_await w_await  svctm  %util
sda               0.00     0.00 2130.00    0.00  8520.00     0.00     8.00     0.14    0.06    0.06    0.00   0.06  13.70
sdb               0.00     0.00 2341.00    0.00  9364.00     0.00     8.00     0.14    0.06    0.06    0.00   0.06  14.50
sdc               0.00     0.00 2264.00    0.00  9056.00     0.00     8.00     0.16    0.07    0.07    0.00   0.07  16.30
sdd               0.00     0.00 2171.00    0.00  8684.00     0.00     8.00     0.15    0.07    0.07    0.00   0.07  14.80
sde               0.00     0.00 2230.00    0.00  8920.00     0.00     8.00     0.16    0.07    0.07    0.00   0.07  15.80
sdf               0.00     0.00 2301.00    0.00  9204.00     0.00     8.00     0.16    0.07    0.07    0.00   0.07  15.60
sdg               0.00     0.00    0.00    0.00     0.00     0.00     0.00     0.00    0.00    0.00    0.00   0.00   0.00
sdh               0.00     0.00    0.00    0.00     0.00     0.00     0.00     0.00    0.00    0.00    0.00   0.00   0.00
md0               0.00     0.00 13440.00    0.00 53760.00     0.00     8.00     0.00    0.00    0.00    0.00   0.00   0.00

avg-cpu:  %user   %nice %system %iowait  %steal   %idle
           0.26    0.00    2.06    0.00    0.00   97.69

Device:         rrqm/s   wrqm/s     r/s     w/s    rkB/s    wkB/s avgrq-sz avgqu-sz   await r_await w_await  svctm  %util
sda               0.00     0.00 2120.00    0.00  8480.00     0.00     8.00     0.14    0.07    0.07    0.00   0.07  13.80
sdb               0.00     0.00 2396.00    0.00  9584.00     0.00     8.00     0.15    0.06    0.06    0.00   0.06  15.20
sdc               0.00     0.00 2148.00    0.00  8592.00     0.00     8.00     0.15    0.07    0.07    0.00   0.07  14.80
sdd               0.00     0.00 2221.00    0.00  8884.00     0.00     8.00     0.16    0.07    0.07    0.00   0.07  15.80
sde               0.00     0.00 2306.00    0.00  9224.00     0.00     8.00     0.16    0.07    0.07    0.00   0.07  15.70
sdf               0.00     0.00 2284.00    0.00  9136.00     0.00     8.00     0.15    0.07    0.07    0.00   0.07  15.50
sdg               0.00     0.00    0.00    0.00     0.00     0.00     0.00     0.00    0.00    0.00    0.00   0.00   0.00
sdh               0.00     0.00    0.00    0.00     0.00     0.00     0.00     0.00    0.00    0.00    0.00   0.00   0.00
md0               0.00     0.00 13471.00    0.00 53884.00     0.00     8.00     0.00    0.00    0.00    0.00   0.00   0.00

avg-cpu:  %user   %nice %system %iowait  %steal   %idle
           0.26    0.00    2.81    0.00    0.00   96.94

Device:         rrqm/s   wrqm/s     r/s     w/s    rkB/s    wkB/s avgrq-sz avgqu-sz   await r_await w_await  svctm  %util
sda               0.00     0.00 2096.00    0.00  8384.00     0.00     8.00     0.14    0.07    0.07    0.00   0.07  14.20
sdb               0.00     0.00 2264.00    0.00  9056.00     0.00     8.00     0.14    0.06    0.06    0.00   0.06  14.10
sdc               0.00     0.00 2328.00    0.00  9312.00     0.00     8.00     0.16    0.07    0.07    0.00   0.07  15.90
sdd               0.00     0.00 2387.00    0.00  9548.00     0.00     8.00     0.18    0.07    0.07    0.00   0.07  17.80
sde               0.00     0.00 2044.00    0.00  8176.00     0.00     8.00     0.14    0.07    0.07    0.00   0.07  13.80
sdf               0.00     0.00 2302.00    0.00  9208.00     0.00     8.00     0.15    0.06    0.06    0.00   0.06  14.70
sdg               0.00     0.00    0.00    0.00     0.00     0.00     0.00     0.00    0.00    0.00    0.00   0.00   0.00
sdh               0.00     0.00    0.00    0.00     0.00     0.00     0.00     0.00    0.00    0.00    0.00   0.00   0.00
md0               0.00     0.00 13422.00    0.00 53688.00     0.00     8.00     0.00    0.00    0.00    0.00   0.00   0.00

