Linux 4.17.2 (bench) 	08/03/2018 	_x86_64_	(4 CPU)

avg-cpu:  %user   %nice %system %iowait  %steal   %idle
          10.26    0.02    4.14    2.68    0.00   82.90

Device:         rrqm/s   wrqm/s     r/s     w/s    rkB/s    wkB/s avgrq-sz avgqu-sz   await r_await w_await  svctm  %util
sda              50.34     4.20 1705.38  101.54 21237.20  3106.83    26.95     1.04    0.58    0.26    5.92   0.06  10.95
sdb              50.17     4.16 1705.35  101.67 21226.76  3103.53    26.93     1.04    0.58    0.26    5.85   0.06  10.83
sdc              87.92     4.22 1665.50  101.23 21218.91  3105.97    27.54     1.46    0.83    0.44    7.12   0.08  14.31
sdd              81.42     4.19 1671.19  101.30 21203.94  3102.20    27.43     1.47    0.83    0.43    7.33   0.08  14.41
sde              83.43     4.24 1676.26  101.39 21263.40  3106.41    27.42     1.49    0.84    0.44    7.44   0.08  14.43
sdf              80.57     4.21 1678.38  101.34 21244.73  3103.30    27.36     1.53    0.86    0.44    7.90   0.08  14.46
sdg               0.00     3.17   26.65   73.28   325.36   392.02    14.36     0.44    4.40    0.20    5.93   0.08   0.78
sdh               0.00     0.13    0.02    0.23     2.19     5.01    56.82     0.00    1.15    0.65    1.19   0.21   0.01
md0               0.00     0.00 10543.06  475.73 145548.18 21265.86    30.28     0.00    0.00    0.00    0.00   0.00   0.00

avg-cpu:  %user   %nice %system %iowait  %steal   %idle
           0.50    0.00    6.77    0.50    0.00   92.23

Device:         rrqm/s   wrqm/s     r/s     w/s    rkB/s    wkB/s avgrq-sz avgqu-sz   await r_await w_await  svctm  %util
sda             320.00     0.00  353.00    0.00 166364.00     0.00   942.57     0.88    2.49    2.49    0.00   1.36  48.00
sdb             321.00     0.00  360.00    0.00 166132.00     0.00   922.96     0.89    2.47    2.47    0.00   1.35  48.60
sdc             325.00     0.00  396.00    0.00 166564.00     0.00   841.23     1.92    4.85    4.85    0.00   2.04  80.70
sdd             317.00     0.00  362.00    0.00 166556.00     0.00   920.20     1.82    5.04    5.04    0.00   2.22  80.20
sde             322.00     0.00  368.00    0.00 167196.00     0.00   908.67     1.86    5.06    5.06    0.00   2.17  80.00
sdf             320.00     0.00  377.00    0.00 167128.00     0.00   886.62     1.90    5.04    5.04    0.00   2.13  80.20
sdg               0.00    18.00   37.00   82.00   592.00  1320.00    32.13     0.23    1.89    0.19    2.66   0.11   1.30
sdh               0.00     0.00    0.00    0.00     0.00     0.00     0.00     0.00    0.00    0.00    0.00   0.00   0.00
md0               0.00     0.00 4128.00    0.00 1467560.00     0.00   711.03     0.00    0.00    0.00    0.00   0.00   0.00

avg-cpu:  %user   %nice %system %iowait  %steal   %idle
           0.50    0.00    6.30    0.25    0.00   92.95

Device:         rrqm/s   wrqm/s     r/s     w/s    rkB/s    wkB/s avgrq-sz avgqu-sz   await r_await w_await  svctm  %util
sda             309.00     0.00  392.00    0.00 159108.00     0.00   811.78     0.86    2.18    2.18    0.00   1.17  45.80
sdb             305.00     0.00  358.00    0.00 159892.00     0.00   893.25     0.86    2.41    2.41    0.00   1.31  47.00
sdc             304.00     0.00  368.00    0.00 160172.00     0.00   870.50     1.74    4.73    4.73    0.00   2.06  75.80
sdd             300.00     0.00  396.00    0.00 160028.00     0.00   808.22     1.78    4.50    4.50    0.00   1.92  76.10
sde             311.00     0.00  337.00    0.00 160876.00     0.00   954.75     1.75    5.19    5.19    0.00   2.26  76.30
sdf             311.00     0.00  354.00    0.00 160092.00     0.00   904.47     1.74    4.91    4.91    0.00   2.15  76.20
sdg               0.00     0.00    0.00    0.00     0.00     0.00     0.00     0.00    0.00    0.00    0.00   0.00   0.00
sdh               0.00     0.00    0.00    0.00     0.00     0.00     0.00     0.00    0.00    0.00    0.00   0.00   0.00
md0               0.00     0.00 4049.00    0.00 1353256.00     0.00   668.44     0.00    0.00    0.00    0.00   0.00   0.00

