Linux 4.17.2 (bench) 	08/03/2018 	_x86_64_	(4 CPU)

avg-cpu:  %user   %nice %system %iowait  %steal   %idle
          10.27    0.02    4.12    2.65    0.00   82.95

Device:         rrqm/s   wrqm/s     r/s     w/s    rkB/s    wkB/s avgrq-sz avgqu-sz   await r_await w_await  svctm  %util
sda              49.37     4.22 1689.46  101.86 21144.44  3116.65    27.09     1.04    0.58    0.26    5.92   0.06  10.88
sdb              49.21     4.18 1689.42  101.99 21133.93  3113.34    27.07     1.04    0.58    0.26    5.85   0.06  10.76
sdc              87.08     4.24 1649.46  101.55 21126.05  3115.78    27.69     1.46    0.83    0.45    7.12   0.08  14.23
sdd              80.55     4.20 1655.15  101.62 21110.97  3112.00    27.58     1.47    0.84    0.44    7.33   0.08  14.33
sde              82.57     4.25 1660.24  101.71 21170.57  3116.22    27.57     1.49    0.84    0.44    7.44   0.08  14.35
sdf              79.69     4.22 1662.36  101.66 21151.92  3113.11    27.51     1.53    0.87    0.44    7.90   0.08  14.38
sdg               0.00     3.17   26.54   73.29   324.90   392.04    14.36     0.44    4.41    0.20    5.93   0.08   0.78
sdh               0.00     0.13    0.02    0.23     2.20     5.03    56.82     0.00    1.15    0.65    1.19   0.21   0.01
md0               0.00     0.00 10441.67  477.24 144877.58 21333.07    30.44     0.00    0.00    0.00    0.00   0.00   0.00

avg-cpu:  %user   %nice %system %iowait  %steal   %idle
           0.46    0.01    6.69    0.01    0.00   92.83

Device:         rrqm/s   wrqm/s     r/s     w/s    rkB/s    wkB/s avgrq-sz avgqu-sz   await r_await w_await  svctm  %util
sda           16950.45     0.00 4247.40    0.00 84784.00     0.00    39.92     1.80    0.42    0.42    0.00   0.11  46.91
sdb           16658.10     0.00 4218.15    0.00 83503.00     0.00    39.59     1.82    0.43    0.43    0.00   0.11  46.99
sdc           16867.85     0.00 4231.40    0.00 84391.20     0.00    39.89     2.19    0.52    0.52    0.00   0.13  56.74
sdd           16770.05     0.00 4223.00    0.00 83972.20     0.00    39.77     2.18    0.52    0.52    0.00   0.14  57.26
sde           16847.90     0.00 4279.10    0.00 84508.00     0.00    39.50     2.23    0.52    0.52    0.00   0.13  57.56
sdf           16948.20     0.00 4267.50    0.00 84859.40     0.00    39.77     2.24    0.52    0.52    0.00   0.13  57.52
sdg               0.00     0.75   89.25    7.55   380.60    39.60     8.68     0.03    0.27    0.12    2.05   0.11   1.04
sdh               0.00     0.00    0.00    0.00     0.00     0.00     0.00     0.00    0.00    0.00    0.00   0.00   0.00
md0               0.00     0.00 126510.00    0.00 506040.00     0.00     8.00     0.00    0.00    0.00    0.00   0.00   0.00

