Linux 4.17.2 (bench) 	08/03/2018 	_x86_64_	(4 CPU)

avg-cpu:  %user   %nice %system %iowait  %steal   %idle
          10.28    0.02    4.08    2.58    0.00   83.05

Device:         rrqm/s   wrqm/s     r/s     w/s    rkB/s    wkB/s avgrq-sz avgqu-sz   await r_await w_await  svctm  %util
sda              46.15     4.24 1661.43  102.40 20979.26  3133.20    27.34     1.04    0.59    0.26    5.92   0.06  10.76
sdb              46.00     4.20 1661.38  102.54 20968.66  3129.87    27.32     1.03    0.59    0.26    5.85   0.06  10.64
sdc              83.95     4.26 1621.34  102.09 20960.76  3132.33    27.96     1.45    0.84    0.45    7.12   0.08  14.10
sdd              77.38     4.23 1627.07  102.16 20945.69  3128.53    27.84     1.46    0.84    0.44    7.33   0.08  14.19
sde              79.41     4.27 1632.14  102.25 21005.43  3132.77    27.83     1.48    0.85    0.44    7.44   0.08  14.21
sdf              76.53     4.24 1634.30  102.20 20986.70  3129.64    27.78     1.53    0.88    0.44    7.90   0.08  14.24
sdg               0.00     3.17   26.34   73.31   324.12   392.05    14.37     0.44    4.42    0.20    5.93   0.08   0.78
sdh               0.00     0.13    0.02    0.23     2.21     5.06    56.82     0.00    1.15    0.65    1.19   0.21   0.01
md0               0.00     0.00 10253.89  479.77 143702.13 21446.36    30.77     0.00    0.00    0.00    0.00   0.00   0.00

avg-cpu:  %user   %nice %system %iowait  %steal   %idle
           0.48    0.01    6.99    0.01    0.00   92.50

Device:         rrqm/s   wrqm/s     r/s     w/s    rkB/s    wkB/s avgrq-sz avgqu-sz   await r_await w_await  svctm  %util
sda           16625.70     0.00 4173.00    0.00 83194.80     0.00    39.87     1.80    0.43    0.43    0.00   0.11  47.05
sdb           16738.10     0.00 4214.25    0.00 83809.40     0.00    39.77     1.84    0.44    0.44    0.00   0.11  47.82
sdc           16734.75     0.00 4192.10    0.00 83707.40     0.00    39.94     2.19    0.52    0.52    0.00   0.14  56.92
sdd           16819.60     0.00 4234.30    0.00 84215.60     0.00    39.78     2.22    0.52    0.52    0.00   0.14  57.74
sde           16836.60     0.00 4239.75    0.00 84305.40     0.00    39.77     2.25    0.53    0.53    0.00   0.14  57.58
sdf           16539.15     0.00 4202.70    0.00 82967.40     0.00    39.48     2.21    0.52    0.52    0.00   0.14  57.16
sdg               0.00     0.95    2.60   94.05    20.80   471.80    10.19     0.55    5.67    0.13    5.83   0.05   0.45
sdh               0.00     0.00    0.00    0.00     0.00     0.00     0.00     0.00    0.00    0.00    0.00   0.00   0.00
md0               0.00     0.00 125551.50    0.00 502206.00     0.00     8.00     0.00    0.00    0.00    0.00   0.00   0.00

