Linux 4.17.2 (bench) 	08/03/2018 	_x86_64_	(4 CPU)

avg-cpu:  %user   %nice %system %iowait  %steal   %idle
          10.26    0.02    4.17    2.73    0.00   82.83

Device:         rrqm/s   wrqm/s     r/s     w/s    rkB/s    wkB/s avgrq-sz avgqu-sz   await r_await w_await  svctm  %util
sda              53.46     4.19 1722.40  101.21 21324.39  3096.92    26.78     1.05    0.57    0.26    5.92   0.06  11.02
sdb              53.26     4.15 1722.40  101.35 21313.93  3093.63    26.77     1.05    0.57    0.26    5.85   0.06  10.90
sdc              91.04     4.21 1682.52  100.90 21306.09  3096.06    27.37     1.47    0.82    0.44    7.12   0.08  14.39
sdd              84.56     4.18 1688.18  100.97 21291.09  3092.30    27.26     1.47    0.82    0.43    7.33   0.08  14.49
sde              86.56     4.22 1693.27  101.07 21350.50  3096.50    27.25     1.50    0.83    0.44    7.44   0.08  14.51
sdf              83.71     4.19 1695.37  101.02 21331.94  3093.40    27.19     1.54    0.86    0.44    7.90   0.08  14.54
sdg               0.00     3.17   26.78   73.26   325.85   392.00    14.35     0.44    4.40    0.20    5.93   0.08   0.78
sdh               0.00     0.13    0.02    0.23     2.18     5.00    56.82     0.00    1.15    0.65    1.19   0.21   0.01
md0               0.00     0.00 10664.14  474.21 146138.51 21198.03    30.05     0.00    0.00    0.00    0.00   0.00   0.00

avg-cpu:  %user   %nice %system %iowait  %steal   %idle
           0.53    0.00    6.65    0.53    0.00   92.29

Device:         rrqm/s   wrqm/s     r/s     w/s    rkB/s    wkB/s avgrq-sz avgqu-sz   await r_await w_await  svctm  %util
sda               0.00     0.00 8137.00    0.00 32548.00     0.00     8.00     0.89    0.11    0.11    0.00   0.07  54.90
sdb               0.00     0.00 8038.00    0.00 32152.00     0.00     8.00     0.80    0.10    0.10    0.00   0.06  52.20
sdc               0.00     0.00 7866.00    0.00 31464.00     0.00     8.00     0.90    0.12    0.12    0.00   0.07  57.00
sdd               0.00     0.00 7952.00    0.00 31808.00     0.00     8.00     0.96    0.12    0.12    0.00   0.07  58.30
sde               0.00     0.00 8178.00    0.00 32712.00     0.00     8.00     0.89    0.11    0.11    0.00   0.07  55.80
sdf               0.00     0.00 7926.00    0.00 31704.00     0.00     8.00     0.93    0.12    0.12    0.00   0.07  58.20
sdg               0.00     0.00    2.00    0.00    84.00     0.00    84.00     0.00    0.50    0.50    0.00   0.50   0.10
sdh               0.00     0.00    0.00    0.00     0.00     0.00     0.00     0.00    0.00    0.00    0.00   0.00   0.00
md0               0.00     0.00 48107.00    0.00 192428.00     0.00     8.00     0.00    0.00    0.00    0.00   0.00   0.00

avg-cpu:  %user   %nice %system %iowait  %steal   %idle
           0.27    0.00    6.90    0.53    0.00   92.31

Device:         rrqm/s   wrqm/s     r/s     w/s    rkB/s    wkB/s avgrq-sz avgqu-sz   await r_await w_await  svctm  %util
sda               0.00     0.00 8248.00    0.00 32992.00     0.00     8.00     0.88    0.11    0.11    0.00   0.07  54.50
sdb               0.00     0.00 8225.00    0.00 32900.00     0.00     8.00     0.83    0.10    0.10    0.00   0.06  52.30
sdc               0.00     0.00 8344.00    0.00 33376.00     0.00     8.00     0.94    0.11    0.11    0.00   0.07  58.10
sdd               0.00     0.00 8222.00    0.00 32888.00     0.00     8.00     0.90    0.11    0.11    0.00   0.07  57.90
sde               0.00     0.00 8187.00    0.00 32748.00     0.00     8.00     0.89    0.11    0.11    0.00   0.07  56.60
sdf               0.00     0.00 8227.00    0.00 32908.00     0.00     8.00     0.92    0.11    0.11    0.00   0.07  57.20
sdg               0.00     0.00    0.00    0.00     0.00     0.00     0.00     0.00    0.00    0.00    0.00   0.00   0.00
sdh               0.00     0.00    0.00    0.00     0.00     0.00     0.00     0.00    0.00    0.00    0.00   0.00   0.00
md0               0.00     0.00 49454.00    0.00 197816.00     0.00     8.00     0.00    0.00    0.00    0.00   0.00   0.00

avg-cpu:  %user   %nice %system %iowait  %steal   %idle
           0.53    0.00    7.12    0.53    0.00   91.82

Device:         rrqm/s   wrqm/s     r/s     w/s    rkB/s    wkB/s avgrq-sz avgqu-sz   await r_await w_await  svctm  %util
sda               0.00     0.00 8299.00    0.00 33196.00     0.00     8.00     0.84    0.10    0.10    0.00   0.07  54.00
sdb               0.00     0.00 8163.00    0.00 32652.00     0.00     8.00     0.88    0.11    0.11    0.00   0.07  53.70
sdc               0.00     0.00 8252.00    0.00 33008.00     0.00     8.00     0.91    0.11    0.11    0.00   0.07  57.50
sdd               0.00     0.00 8207.00    0.00 32828.00     0.00     8.00     0.90    0.11    0.11    0.00   0.07  59.50
sde               0.00     0.00 8330.00    0.00 33320.00     0.00     8.00     0.94    0.11    0.11    0.00   0.07  57.90
sdf               0.00     0.00 8341.00    0.00 33364.00     0.00     8.00     0.94    0.11    0.11    0.00   0.07  59.40
sdg               0.00     0.00    0.00    0.00     0.00     0.00     0.00     0.00    0.00    0.00    0.00   0.00   0.00
sdh               0.00     0.00    0.00    0.00     0.00     0.00     0.00     0.00    0.00    0.00    0.00   0.00   0.00
md0               0.00     0.00 49590.00    0.00 198360.00     0.00     8.00     0.00    0.00    0.00    0.00   0.00   0.00

avg-cpu:  %user   %nice %system %iowait  %steal   %idle
           0.53    0.00    6.88    0.53    0.00   92.06

Device:         rrqm/s   wrqm/s     r/s     w/s    rkB/s    wkB/s avgrq-sz avgqu-sz   await r_await w_await  svctm  %util
sda               0.00     0.00 8215.00    0.00 32860.00     0.00     8.00     0.89    0.11    0.11    0.00   0.07  56.10
sdb               0.00     0.00 8061.00    0.00 32244.00     0.00     8.00     0.82    0.10    0.10    0.00   0.07  52.50
sdc               0.00     0.00 8255.00    0.00 33020.00     0.00     8.00     0.94    0.11    0.11    0.00   0.07  58.90
sdd               0.00     0.00 8021.00    0.00 32084.00     0.00     8.00     0.95    0.12    0.12    0.00   0.08  60.30
sde               0.00     0.00 8428.00    0.00 33712.00     0.00     8.00     0.93    0.11    0.11    0.00   0.07  58.60
sdf               0.00     0.00 8380.00    0.00 33520.00     0.00     8.00     0.99    0.12    0.12    0.00   0.07  61.80
sdg               0.00     0.00    0.00    0.00     0.00     0.00     0.00     0.00    0.00    0.00    0.00   0.00   0.00
sdh               0.00     0.00    0.00    0.00     0.00     0.00     0.00     0.00    0.00    0.00    0.00   0.00   0.00
md0               0.00     0.00 49363.00    0.00 197452.00     0.00     8.00     0.00    0.00    0.00    0.00   0.00   0.00

avg-cpu:  %user   %nice %system %iowait  %steal   %idle
           0.52    0.00    9.02    6.96    0.00   83.51

Device:         rrqm/s   wrqm/s     r/s     w/s    rkB/s    wkB/s avgrq-sz avgqu-sz   await r_await w_await  svctm  %util
sda               0.00     0.00 8218.00    0.00 32872.00     0.00     8.00     0.81    0.10    0.10    0.00   0.06  52.50
sdb               0.00     0.00 8075.00    0.00 32300.00     0.00     8.00     0.81    0.10    0.10    0.00   0.06  51.40
sdc               0.00     0.00 8226.00    0.00 32904.00     0.00     8.00     0.88    0.11    0.11    0.00   0.07  54.70
sdd               0.00     0.00 8213.00    0.00 32852.00     0.00     8.00     0.90    0.11    0.11    0.00   0.07  56.60
sde               0.00     0.00 8270.00    0.00 33080.00     0.00     8.00     0.88    0.11    0.11    0.00   0.07  56.40
sdf               0.00     0.00 8251.00    0.00 33004.00     0.00     8.00     0.89    0.11    0.11    0.00   0.07  55.00
sdg               0.00     0.00    0.00    0.00     0.00     0.00     0.00     0.00    0.00    0.00    0.00   0.00   0.00
sdh               0.00     0.00    0.00    0.00     0.00     0.00     0.00     0.00    0.00    0.00    0.00   0.00   0.00
md0               0.00     0.00 49254.00    0.00 197016.00     0.00     8.00     0.00    0.00    0.00    0.00   0.00   0.00

avg-cpu:  %user   %nice %system %iowait  %steal   %idle
           0.53    0.00    7.16    1.86    0.00   90.45

Device:         rrqm/s   wrqm/s     r/s     w/s    rkB/s    wkB/s avgrq-sz avgqu-sz   await r_await w_await  svctm  %util
sda               0.00     0.00 7632.00    0.00 30528.00     0.00     8.00     0.80    0.10    0.10    0.00   0.07  51.90
sdb               0.00     0.00 7738.00    0.00 30952.00     0.00     8.00     0.81    0.10    0.10    0.00   0.07  52.40
sdc               0.00     0.00 7607.00    0.00 30428.00     0.00     8.00     0.89    0.12    0.12    0.00   0.07  54.80
sdd               0.00     0.00 7514.00    0.00 30056.00     0.00     8.00     0.91    0.12    0.12    0.00   0.08  58.00
sde               0.00     0.00 7603.00    0.00 30412.00     0.00     8.00     0.91    0.12    0.12    0.00   0.07  57.00
sdf               0.00     0.00 7479.00    0.00 29916.00     0.00     8.00     0.94    0.13    0.13    0.00   0.08  57.00
sdg               0.00     0.00    0.00    0.00     0.00     0.00     0.00     0.00    0.00    0.00    0.00   0.00   0.00
sdh               0.00     0.00    0.00    0.00     0.00     0.00     0.00     0.00    0.00    0.00    0.00   0.00   0.00
md0               0.00     0.00 45568.00    0.00 182272.00     0.00     8.00     0.00    0.00    0.00    0.00   0.00   0.00

avg-cpu:  %user   %nice %system %iowait  %steal   %idle
           0.26    0.00    9.51    7.20    0.00   83.03

Device:         rrqm/s   wrqm/s     r/s     w/s    rkB/s    wkB/s avgrq-sz avgqu-sz   await r_await w_await  svctm  %util
sda               0.00     0.00 7988.00    0.00 31956.00     0.00     8.00     0.82    0.10    0.10    0.00   0.06  50.40
sdb               0.00     0.00 7972.00    0.00 31888.00     0.00     8.00     0.78    0.10    0.10    0.00   0.06  50.40
sdc               0.00     0.00 7849.00    0.00 31396.00     0.00     8.00     0.90    0.11    0.11    0.00   0.07  57.10
sdd               0.00     0.00 7948.00    0.00 31792.00     0.00     8.00     0.89    0.11    0.11    0.00   0.07  56.70
sde               0.00     0.00 7888.00    0.00 31552.00     0.00     8.00     0.90    0.11    0.11    0.00   0.07  56.30
sdf               0.00     0.00 7748.00    0.00 30992.00     0.00     8.00     0.84    0.11    0.11    0.00   0.07  54.10
sdg               0.00     0.00    0.00    0.00     0.00     0.00     0.00     0.00    0.00    0.00    0.00   0.00   0.00
sdh               0.00     0.00    0.00    0.00     0.00     0.00     0.00     0.00    0.00    0.00    0.00   0.00   0.00
md0               0.00     0.00 47397.00    0.00 189588.00     0.00     8.00     0.00    0.00    0.00    0.00   0.00   0.00

avg-cpu:  %user   %nice %system %iowait  %steal   %idle
           0.52    0.00    9.33    7.51    0.00   82.64

Device:         rrqm/s   wrqm/s     r/s     w/s    rkB/s    wkB/s avgrq-sz avgqu-sz   await r_await w_await  svctm  %util
sda               0.00     0.00 8183.00    0.00 32728.00     0.00     8.00     0.81    0.10    0.10    0.00   0.06  50.50
sdb               0.00     0.00 8149.00    0.00 32596.00     0.00     8.00     0.83    0.10    0.10    0.00   0.07  53.10
sdc               0.00     0.00 7983.00    0.00 31932.00     0.00     8.00     0.92    0.12    0.12    0.00   0.07  57.00
sdd               0.00     0.00 8278.00    0.00 33112.00     0.00     8.00     0.94    0.11    0.11    0.00   0.07  60.50
sde               0.00     0.00 8143.00    0.00 32572.00     0.00     8.00     0.94    0.12    0.12    0.00   0.07  55.80
sdf               0.00     0.00 8296.00    0.00 33184.00     0.00     8.00     0.98    0.12    0.12    0.00   0.07  60.90
sdg               0.00     0.00   51.00    1.00   872.00     4.00    33.69     0.01    0.25    0.25    0.00   0.25   1.30
sdh               0.00     0.00    0.00    0.00     0.00     0.00     0.00     0.00    0.00    0.00    0.00   0.00   0.00
md0               0.00     0.00 49031.00    0.00 196124.00     0.00     8.00     0.00    0.00    0.00    0.00   0.00   0.00

avg-cpu:  %user   %nice %system %iowait  %steal   %idle
           0.52    0.00    8.59    3.65    0.00   87.24

Device:         rrqm/s   wrqm/s     r/s     w/s    rkB/s    wkB/s avgrq-sz avgqu-sz   await r_await w_await  svctm  %util
sda               0.00     0.00 7778.00    0.00 31112.00     0.00     8.00     0.83    0.11    0.11    0.00   0.07  53.20
sdb               0.00     0.00 7600.00    0.00 30400.00     0.00     8.00     0.78    0.10    0.10    0.00   0.07  53.40
sdc               0.00     0.00 7702.00    0.00 30808.00     0.00     8.00     0.87    0.11    0.11    0.00   0.07  56.80
sdd               0.00     0.00 7845.00    0.00 31380.00     0.00     8.00     0.89    0.11    0.11    0.00   0.07  57.10
sde               0.00     0.00 7782.00    0.00 31128.00     0.00     8.00     0.90    0.12    0.12    0.00   0.07  56.20
sdf               0.00     0.00 7631.00    0.00 30524.00     0.00     8.00     0.85    0.11    0.11    0.00   0.07  52.90
sdg               0.00     0.00    0.00    0.00     0.00     0.00     0.00     0.00    0.00    0.00    0.00   0.00   0.00
sdh               0.00     0.00    0.00    0.00     0.00     0.00     0.00     0.00    0.00    0.00    0.00   0.00   0.00
md0               0.00     0.00 46335.00    0.00 185340.00     0.00     8.00     0.00    0.00    0.00    0.00   0.00   0.00

avg-cpu:  %user   %nice %system %iowait  %steal   %idle
           0.26    0.00    8.16    2.11    0.00   89.47

Device:         rrqm/s   wrqm/s     r/s     w/s    rkB/s    wkB/s avgrq-sz avgqu-sz   await r_await w_await  svctm  %util
sda               0.00     0.00 7841.00    0.00 31364.00     0.00     8.00     0.83    0.11    0.11    0.00   0.07  51.70
sdb               0.00     0.00 8012.00    0.00 32048.00     0.00     8.00     0.79    0.10    0.10    0.00   0.06  50.20
sdc               0.00     0.00 7934.00    0.00 31736.00     0.00     8.00     0.87    0.11    0.11    0.00   0.07  54.80
sdd               0.00     0.00 7727.00    0.00 30908.00     0.00     8.00     0.83    0.11    0.11    0.00   0.07  54.00
sde               0.00     0.00 7925.00    0.00 31700.00     0.00     8.00     0.86    0.11    0.11    0.00   0.07  55.10
sdf               0.00     0.00 8015.00    0.00 32060.00     0.00     8.00     0.89    0.11    0.11    0.00   0.07  56.30
sdg               0.00     0.00    3.00    0.00    12.00     0.00     8.00     0.00    0.00    0.00    0.00   0.00   0.00
sdh               0.00     0.00    0.00    0.00     0.00     0.00     0.00     0.00    0.00    0.00    0.00   0.00   0.00
md0               0.00     0.00 47454.00    0.00 189816.00     0.00     8.00     0.00    0.00    0.00    0.00   0.00   0.00

avg-cpu:  %user   %nice %system %iowait  %steal   %idle
           0.51    0.00   10.03    6.94    0.00   82.52

Device:         rrqm/s   wrqm/s     r/s     w/s    rkB/s    wkB/s avgrq-sz avgqu-sz   await r_await w_await  svctm  %util
sda               0.00     0.00 8155.00    0.00 32620.00     0.00     8.00     0.77    0.09    0.09    0.00   0.06  49.50
sdb               0.00     0.00 8062.00    0.00 32248.00     0.00     8.00     0.79    0.10    0.10    0.00   0.06  51.50
sdc               0.00     0.00 7977.00    0.00 31908.00     0.00     8.00     0.87    0.11    0.11    0.00   0.07  55.20
sdd               0.00     0.00 8049.00    0.00 32196.00     0.00     8.00     0.92    0.11    0.11    0.00   0.07  56.30
sde               0.00     0.00 8177.00    0.00 32708.00     0.00     8.00     0.92    0.11    0.11    0.00   0.07  57.10
sdf               0.00     0.00 8173.00    0.00 32692.00     0.00     8.00     0.89    0.11    0.11    0.00   0.07  55.80
sdg               0.00     2.00    2.00 1337.00     8.00  7024.00    10.50     7.99    5.97    0.00    5.98   0.04   5.90
sdh               0.00     0.00    0.00    0.00     0.00     0.00     0.00     0.00    0.00    0.00    0.00   0.00   0.00
md0               0.00     0.00 48593.00    0.00 194372.00     0.00     8.00     0.00    0.00    0.00    0.00   0.00   0.00

avg-cpu:  %user   %nice %system %iowait  %steal   %idle
           0.51    0.00   10.86   12.12    0.00   76.52

Device:         rrqm/s   wrqm/s     r/s     w/s    rkB/s    wkB/s avgrq-sz avgqu-sz   await r_await w_await  svctm  %util
sda               0.00     0.00 8260.00    0.00 33040.00     0.00     8.00     0.84    0.10    0.10    0.00   0.07  54.60
sdb               0.00     0.00 8077.00    0.00 32308.00     0.00     8.00     0.87    0.11    0.11    0.00   0.07  53.90
sdc               0.00     0.00 8042.00    0.00 32168.00     0.00     8.00     0.90    0.11    0.11    0.00   0.07  56.60
sdd               0.00     0.00 7946.00    0.00 31784.00     0.00     8.00     0.90    0.11    0.11    0.00   0.07  58.40
sde               0.00     0.00 8110.00    0.00 32440.00     0.00     8.00     0.92    0.11    0.11    0.00   0.07  58.30
sdf               0.00     0.00 8044.00    0.00 32176.00     0.00     8.00     0.94    0.12    0.12    0.00   0.07  56.50
sdg               0.00     0.00    0.00    0.00     0.00     0.00     0.00     0.00    0.00    0.00    0.00   0.00   0.00
sdh               0.00     0.00    0.00    0.00     0.00     0.00     0.00     0.00    0.00    0.00    0.00   0.00   0.00
md0               0.00     0.00 48484.00    0.00 193936.00     0.00     8.00     0.00    0.00    0.00    0.00   0.00   0.00

avg-cpu:  %user   %nice %system %iowait  %steal   %idle
           0.50    0.00   11.53   12.78    0.00   75.19

Device:         rrqm/s   wrqm/s     r/s     w/s    rkB/s    wkB/s avgrq-sz avgqu-sz   await r_await w_await  svctm  %util
sda               0.00     0.00 8154.00    0.00 32616.00     0.00     8.00     0.78    0.10    0.10    0.00   0.06  51.10
sdb               0.00     0.00 8126.00    0.00 32504.00     0.00     8.00     0.81    0.10    0.10    0.00   0.06  50.50
sdc               0.00     0.00 7974.00    0.00 31896.00     0.00     8.00     0.88    0.11    0.11    0.00   0.07  55.70
sdd               0.00     0.00 8006.00    0.00 32024.00     0.00     8.00     0.86    0.11    0.11    0.00   0.07  55.80
sde               0.00     0.00 8079.00    0.00 32316.00     0.00     8.00     0.91    0.11    0.11    0.00   0.07  57.70
sdf               0.00     0.00 8374.00    0.00 33496.00     0.00     8.00     0.88    0.11    0.11    0.00   0.07  56.60
sdg               0.00     0.00    1.00    6.00    16.00   152.00    48.00     0.01    0.71    0.00    0.83   0.14   0.10
sdh               0.00     0.00    0.00    0.00     0.00     0.00     0.00     0.00    0.00    0.00    0.00   0.00   0.00
md0               0.00     0.00 48707.00    0.00 194828.00     0.00     8.00     0.00    0.00    0.00    0.00   0.00   0.00

avg-cpu:  %user   %nice %system %iowait  %steal   %idle
           0.25    0.00   10.69   11.45    0.00   77.61

Device:         rrqm/s   wrqm/s     r/s     w/s    rkB/s    wkB/s avgrq-sz avgqu-sz   await r_await w_await  svctm  %util
sda               0.00     0.00 8193.00    0.00 32772.00     0.00     8.00     0.83    0.10    0.10    0.00   0.06  52.70
sdb               0.00     0.00 7991.00    0.00 31964.00     0.00     8.00     0.83    0.10    0.10    0.00   0.07  54.10
sdc               0.00     0.00 8125.00    0.00 32500.00     0.00     8.00     0.86    0.11    0.11    0.00   0.07  54.20
sdd               0.00     0.00 7949.00    0.00 31796.00     0.00     8.00     0.86    0.11    0.11    0.00   0.07  54.20
sde               0.00     0.00 8005.00    0.00 32020.00     0.00     8.00     0.88    0.11    0.11    0.00   0.07  54.60
sdf               0.00     0.00 8226.00    0.00 32904.00     0.00     8.00     0.90    0.11    0.11    0.00   0.07  56.60
sdg               0.00     0.00    0.00    0.00     0.00     0.00     0.00     0.00    0.00    0.00    0.00   0.00   0.00
sdh               0.00     0.00    0.00    0.00     0.00     0.00     0.00     0.00    0.00    0.00    0.00   0.00   0.00
md0               0.00     0.00 48491.00    0.00 193964.00     0.00     8.00     0.00    0.00    0.00    0.00   0.00   0.00

avg-cpu:  %user   %nice %system %iowait  %steal   %idle
           0.53    0.00    7.11    3.68    0.00   88.68

Device:         rrqm/s   wrqm/s     r/s     w/s    rkB/s    wkB/s avgrq-sz avgqu-sz   await r_await w_await  svctm  %util
sda               0.00     0.00 8010.00    0.00 32040.00     0.00     8.00     0.82    0.10    0.10    0.00   0.06  51.60
sdb               0.00     0.00 8081.00    0.00 32324.00     0.00     8.00     0.82    0.10    0.10    0.00   0.06  52.40
sdc               0.00     0.00 8165.00    0.00 32660.00     0.00     8.00     0.92    0.11    0.11    0.00   0.07  58.40
sdd               0.00     0.00 8000.00    0.00 32000.00     0.00     8.00     0.89    0.11    0.11    0.00   0.07  56.60
sde               0.00     0.00 8140.00    0.00 32560.00     0.00     8.00     0.91    0.11    0.11    0.00   0.07  55.80
sdf               0.00     0.00 8030.00    0.00 32120.00     0.00     8.00     0.89    0.11    0.11    0.00   0.07  55.40
sdg               0.00     0.00    0.00    0.00     0.00     0.00     0.00     0.00    0.00    0.00    0.00   0.00   0.00
sdh               0.00     0.00    0.00    0.00     0.00     0.00     0.00     0.00    0.00    0.00    0.00   0.00   0.00
md0               0.00     0.00 48426.00    0.00 193704.00     0.00     8.00     0.00    0.00    0.00    0.00   0.00   0.00

avg-cpu:  %user   %nice %system %iowait  %steal   %idle
           0.26    0.00    9.56    8.53    0.00   81.65

Device:         rrqm/s   wrqm/s     r/s     w/s    rkB/s    wkB/s avgrq-sz avgqu-sz   await r_await w_await  svctm  %util
sda               0.00     0.00 7824.00    0.00 31296.00     0.00     8.00     0.78    0.10    0.10    0.00   0.07  51.20
sdb               0.00     0.00 7829.00    0.00 31316.00     0.00     8.00     0.78    0.10    0.10    0.00   0.07  52.60
sdc               0.00     0.00 7842.00    0.00 31368.00     0.00     8.00     0.90    0.11    0.11    0.00   0.07  57.50
sdd               0.00     0.00 7919.00    0.00 31676.00     0.00     8.00     0.89    0.11    0.11    0.00   0.07  55.50
sde               0.00     0.00 7943.00    0.00 31772.00     0.00     8.00     0.88    0.11    0.11    0.00   0.07  56.60
sdf               0.00     0.00 7925.00    0.00 31700.00     0.00     8.00     0.90    0.11    0.11    0.00   0.07  58.30
sdg               0.00     0.00    0.00   30.00     0.00   144.00     9.60     0.01    0.43    0.00    0.43   0.03   0.10
sdh               0.00     0.00    0.00    0.00     0.00     0.00     0.00     0.00    0.00    0.00    0.00   0.00   0.00
md0               0.00     0.00 47281.00    0.00 189124.00     0.00     8.00     0.00    0.00    0.00    0.00   0.00   0.00

avg-cpu:  %user   %nice %system %iowait  %steal   %idle
           0.51    0.00   10.86   12.88    0.00   75.76

Device:         rrqm/s   wrqm/s     r/s     w/s    rkB/s    wkB/s avgrq-sz avgqu-sz   await r_await w_await  svctm  %util
sda               0.00     0.00 8009.00    0.00 32036.00     0.00     8.00     0.86    0.11    0.11    0.00   0.07  53.30
sdb               0.00     0.00 8138.00    0.00 32552.00     0.00     8.00     0.86    0.11    0.11    0.00   0.07  53.50
sdc               0.00     0.00 8154.00    0.00 32616.00     0.00     8.00     0.95    0.12    0.12    0.00   0.07  58.20
sdd               0.00     0.00 8004.00    0.00 32016.00     0.00     8.00     0.88    0.11    0.11    0.00   0.07  58.30
sde               0.00     0.00 8125.00    0.00 32500.00     0.00     8.00     0.89    0.11    0.11    0.00   0.07  58.30
sdf               0.00     0.00 8069.00    0.00 32276.00     0.00     8.00     0.91    0.11    0.11    0.00   0.07  58.70
sdg               0.00     0.00    0.00    0.00     0.00     0.00     0.00     0.00    0.00    0.00    0.00   0.00   0.00
sdh               0.00     0.00    0.00    0.00     0.00     0.00     0.00     0.00    0.00    0.00    0.00   0.00   0.00
md0               0.00     0.00 48504.00    0.00 194016.00     0.00     8.00     0.00    0.00    0.00    0.00   0.00   0.00

avg-cpu:  %user   %nice %system %iowait  %steal   %idle
           0.26    0.00    9.51    7.20    0.00   83.03

Device:         rrqm/s   wrqm/s     r/s     w/s    rkB/s    wkB/s avgrq-sz avgqu-sz   await r_await w_await  svctm  %util
sda               0.00     0.00 8034.00    0.00 32136.00     0.00     8.00     0.83    0.10    0.10    0.00   0.07  53.10
sdb               0.00     0.00 8053.00    0.00 32212.00     0.00     8.00     0.77    0.10    0.10    0.00   0.06  50.20
sdc               0.00     0.00 8012.00    0.00 32048.00     0.00     8.00     0.81    0.10    0.10    0.00   0.07  52.50
sdd               0.00     0.00 7977.00    0.00 31908.00     0.00     8.00     0.84    0.11    0.11    0.00   0.07  55.20
sde               0.00     0.00 8214.00    0.00 32856.00     0.00     8.00     0.92    0.11    0.11    0.00   0.07  57.50
sdf               0.00     0.00 7970.00    0.00 31880.00     0.00     8.00     0.88    0.11    0.11    0.00   0.07  57.30
sdg               0.00     0.00    0.00    0.00     0.00     0.00     0.00     0.00    0.00    0.00    0.00   0.00   0.00
sdh               0.00     0.00    0.00    0.00     0.00     0.00     0.00     0.00    0.00    0.00    0.00   0.00   0.00
md0               0.00     0.00 48255.00    0.00 193020.00     0.00     8.00     0.00    0.00    0.00    0.00   0.00   0.00

avg-cpu:  %user   %nice %system %iowait  %steal   %idle
           0.52    0.00    8.57    4.16    0.00   86.75

Device:         rrqm/s   wrqm/s     r/s     w/s    rkB/s    wkB/s avgrq-sz avgqu-sz   await r_await w_await  svctm  %util
sda               0.00     0.00 8020.00    0.00 32080.00     0.00     8.00     0.82    0.10    0.10    0.00   0.06  51.30
sdb               0.00     0.00 7950.00    0.00 31800.00     0.00     8.00     0.84    0.11    0.11    0.00   0.07  52.10
sdc               0.00     0.00 8048.00    0.00 32192.00     0.00     8.00     0.91    0.11    0.11    0.00   0.07  58.00
sdd               0.00     0.00 7890.00    0.00 31560.00     0.00     8.00     0.88    0.11    0.11    0.00   0.07  56.30
sde               0.00     0.00 7795.00    0.00 31180.00     0.00     8.00     0.88    0.11    0.11    0.00   0.07  55.90
sdf               0.00     0.00 8091.00    0.00 32364.00     0.00     8.00     0.91    0.11    0.11    0.00   0.07  57.20
sdg               0.00     0.00    0.00    0.00     0.00     0.00     0.00     0.00    0.00    0.00    0.00   0.00   0.00
sdh               0.00     0.00    0.00    0.00     0.00     0.00     0.00     0.00    0.00    0.00    0.00   0.00   0.00
md0               0.00     0.00 47799.00    0.00 191196.00     0.00     8.00     0.00    0.00    0.00    0.00   0.00   0.00

avg-cpu:  %user   %nice %system %iowait  %steal   %idle
           0.53    0.26    7.14    0.53    0.00   91.53

Device:         rrqm/s   wrqm/s     r/s     w/s    rkB/s    wkB/s avgrq-sz avgqu-sz   await r_await w_await  svctm  %util
sda               0.00     0.00 8115.00    0.00 32460.00     0.00     8.00     0.83    0.10    0.10    0.00   0.06  51.90
sdb               0.00     0.00 7862.00    0.00 31448.00     0.00     8.00     0.79    0.10    0.10    0.00   0.06  50.50
sdc               0.00     0.00 7976.00    0.00 31904.00     0.00     8.00     0.86    0.11    0.11    0.00   0.07  57.00
sdd               0.00     0.00 7906.00    0.00 31624.00     0.00     8.00     0.90    0.11    0.11    0.00   0.07  57.00
sde               0.00     0.00 8002.00    0.00 32008.00     0.00     8.00     0.95    0.12    0.12    0.00   0.07  58.70
sdf               0.00     0.00 8043.00    0.00 32172.00     0.00     8.00     0.90    0.11    0.11    0.00   0.07  56.00
sdg               0.00     0.00    2.00    0.00     8.00     0.00     8.00     0.00    0.00    0.00    0.00   0.00   0.00
sdh               0.00     0.00    0.00    0.00     0.00     0.00     0.00     0.00    0.00    0.00    0.00   0.00   0.00
md0               0.00     0.00 47899.00    0.00 191596.00     0.00     8.00     0.00    0.00    0.00    0.00   0.00   0.00

