Linux 4.17.2 (bench) 	08/03/2018 	_x86_64_	(4 CPU)

avg-cpu:  %user   %nice %system %iowait  %steal   %idle
          10.27    0.02    4.13    2.66    0.00   82.93

Device:         rrqm/s   wrqm/s     r/s     w/s    rkB/s    wkB/s avgrq-sz avgqu-sz   await r_await w_await  svctm  %util
sda              50.29     4.21 1695.04  101.74 21161.87  3113.06    27.02     1.04    0.58    0.26    5.92   0.06  10.90
sdb              50.12     4.17 1695.00  101.88 21151.38  3109.75    27.00     1.04    0.58    0.26    5.85   0.06  10.78
sdc              87.95     4.23 1655.08  101.43 21143.49  3112.20    27.62     1.46    0.83    0.45    7.12   0.08  14.26
sdd              81.43     4.20 1660.77  101.50 21128.43  3108.42    27.51     1.47    0.83    0.44    7.33   0.08  14.35
sde              83.45     4.24 1665.86  101.60 21187.95  3112.64    27.50     1.49    0.84    0.44    7.44   0.08  14.37
sdf              80.58     4.22 1667.98  101.54 21169.32  3109.52    27.44     1.53    0.87    0.44    7.90   0.08  14.41
sdg               0.00     3.17   26.57   73.28   325.01   392.02    14.36     0.44    4.41    0.20    5.93   0.08   0.78
sdh               0.00     0.13    0.02    0.23     2.19     5.02    56.82     0.00    1.15    0.65    1.19   0.21   0.01
md0               0.00     0.00 10480.65  476.69 144981.61 21308.51    30.35     0.00    0.00    0.00    0.00   0.00   0.00

avg-cpu:  %user   %nice %system %iowait  %steal   %idle
           1.72    0.01    5.87    2.74    0.00   89.66

Device:         rrqm/s   wrqm/s     r/s     w/s    rkB/s    wkB/s avgrq-sz avgqu-sz   await r_await w_await  svctm  %util
sda               0.00     0.00 6977.10    0.00 27908.40     0.00     8.00     0.75    0.11    0.11    0.00   0.07  45.36
sdb               0.00     0.00 6980.55    0.00 27922.20     0.00     8.00     0.74    0.11    0.11    0.00   0.06  44.85
sdc               0.00     0.00 6911.90    0.00 27647.60     0.00     8.00     0.82    0.12    0.12    0.00   0.07  49.16
sdd               0.00     0.00 6953.95    0.00 27815.80     0.00     8.00     0.80    0.12    0.12    0.00   0.07  49.15
sde               0.00     0.00 6944.05    0.00 27776.20     0.00     8.00     0.82    0.12    0.12    0.00   0.07  49.57
sdf               0.00     0.00 7000.15    0.00 28000.60     0.00     8.00     0.82    0.12    0.12    0.00   0.07  49.30
sdg               0.00     9.60   68.45   71.90   292.20   377.20     9.54     0.46    3.30    0.13    6.32   0.08   1.16
sdh               0.00     0.00    0.00    0.00     0.00     0.00     0.00     0.00    0.00    0.00    0.00   0.00   0.00
md0               0.00     0.00 41768.20    0.00 167072.80     0.00     8.00     0.00    0.00    0.00    0.00   0.00   0.00

