Linux 4.17.2 (bench) 	08/03/2018 	_x86_64_	(4 CPU)

avg-cpu:  %user   %nice %system %iowait  %steal   %idle
          10.26    0.02    4.13    2.67    0.00   82.92

Device:         rrqm/s   wrqm/s     r/s     w/s    rkB/s    wkB/s avgrq-sz avgqu-sz   await r_await w_await  svctm  %util
sda              50.29     4.21 1695.55  101.70 21172.79  3111.76    27.02     1.04    0.58    0.26    5.92   0.06  10.91
sdb              50.13     4.17 1695.52  101.83 21162.32  3108.45    27.01     1.04    0.58    0.26    5.85   0.06  10.79
sdc              87.94     4.23 1655.61  101.39 21154.42  3110.89    27.62     1.46    0.83    0.45    7.12   0.08  14.27
sdd              81.42     4.20 1661.30  101.46 21139.37  3107.12    27.51     1.47    0.83    0.44    7.33   0.08  14.36
sde              83.43     4.24 1666.38  101.55 21198.86  3111.33    27.50     1.49    0.84    0.44    7.44   0.08  14.38
sdf              80.57     4.21 1668.50  101.50 21180.23  3108.22    27.44     1.53    0.87    0.44    7.90   0.08  14.41
sdg               0.00     3.17   26.59   73.28   325.06   392.01    14.36     0.44    4.40    0.20    5.93   0.08   0.78
sdh               0.00     0.13    0.02    0.23     2.19     5.02    56.82     0.00    1.15    0.65    1.19   0.21   0.01
md0               0.00     0.00 10483.76  476.49 145078.21 21299.58    30.36     0.00    0.00    0.00    0.00   0.00   0.00

avg-cpu:  %user   %nice %system %iowait  %steal   %idle
           0.81    0.27   17.89    2.98    0.00   78.05

Device:         rrqm/s   wrqm/s     r/s     w/s    rkB/s    wkB/s avgrq-sz avgqu-sz   await r_await w_await  svctm  %util
sda               0.00     0.00 17454.00    0.00 69816.00     0.00     8.00     1.99    0.11    0.11    0.00   0.04  67.40
sdb               0.00     0.00 17095.00    0.00 68380.00     0.00     8.00     1.89    0.11    0.11    0.00   0.04  66.10
sdc               0.00     0.00 17374.00    0.00 69496.00     0.00     8.00     2.12    0.12    0.12    0.00   0.04  72.60
sdd               0.00     0.00 17456.00    0.00 69824.00     0.00     8.00     2.26    0.13    0.13    0.00   0.04  75.30
sde               0.00     0.00 17200.00    0.00 68800.00     0.00     8.00     2.23    0.13    0.13    0.00   0.04  74.30
sdf               0.00     0.00 17222.00    0.00 68888.00     0.00     8.00     2.21    0.13    0.13    0.00   0.04  74.10
sdg               0.00     0.00 1835.00   97.00  8076.00   496.00     8.87     0.39    0.20    0.13    1.61   0.11  22.10
sdh               0.00     0.00    0.00    0.00     0.00     0.00     0.00     0.00    0.00    0.00    0.00   0.00   0.00
md0               0.00     0.00 103832.00    0.00 415328.00     0.00     8.00     0.00    0.00    0.00    0.00   0.00   0.00

avg-cpu:  %user   %nice %system %iowait  %steal   %idle
           0.83    0.00   14.68    0.28    0.00   84.21

Device:         rrqm/s   wrqm/s     r/s     w/s    rkB/s    wkB/s avgrq-sz avgqu-sz   await r_await w_await  svctm  %util
sda               0.00     0.00 17252.00    0.00 69008.00     0.00     8.00     1.92    0.11    0.11    0.00   0.04  66.30
sdb               0.00     0.00 17136.00    0.00 68544.00     0.00     8.00     1.86    0.11    0.11    0.00   0.04  64.30
sdc               0.00     0.00 16988.00    0.00 67952.00     0.00     8.00     2.13    0.13    0.13    0.00   0.04  73.00
sdd               0.00     0.00 17279.00    0.00 69116.00     0.00     8.00     2.19    0.13    0.13    0.00   0.04  75.40
sde               0.00     0.00 17330.00    0.00 69320.00     0.00     8.00     2.11    0.12    0.12    0.00   0.04  72.90
sdf               0.00     0.00 17308.00    0.00 69232.00     0.00     8.00     2.25    0.13    0.13    0.00   0.04  74.30
sdg               0.00     0.00    0.00    0.00     0.00     0.00     0.00     0.00    0.00    0.00    0.00   0.00   0.00
sdh               0.00     0.00    0.00    0.00     0.00     0.00     0.00     0.00    0.00    0.00    0.00   0.00   0.00
md0               0.00     0.00 103284.00    0.00 413136.00     0.00     8.00     0.00    0.00    0.00    0.00   0.00   0.00

avg-cpu:  %user   %nice %system %iowait  %steal   %idle
           0.56    0.00   14.76    0.28    0.00   84.40

Device:         rrqm/s   wrqm/s     r/s     w/s    rkB/s    wkB/s avgrq-sz avgqu-sz   await r_await w_await  svctm  %util
sda               0.00     0.00 17288.00    0.00 69152.00     0.00     8.00     1.98    0.11    0.11    0.00   0.04  67.30
sdb               0.00     0.00 17273.00    0.00 69092.00     0.00     8.00     1.95    0.11    0.11    0.00   0.04  69.10
sdc               0.00     0.00 17033.00    0.00 68132.00     0.00     8.00     2.17    0.13    0.13    0.00   0.04  70.60
sdd               0.00     0.00 17204.00    0.00 68816.00     0.00     8.00     2.17    0.13    0.13    0.00   0.04  74.80
sde               0.00     0.00 16975.00    0.00 67900.00     0.00     8.00     2.18    0.13    0.13    0.00   0.04  74.80
sdf               0.00     0.00 17089.00    0.00 68356.00     0.00     8.00     2.21    0.13    0.13    0.00   0.04  76.00
sdg               0.00     0.00    0.00    0.00     0.00     0.00     0.00     0.00    0.00    0.00    0.00   0.00   0.00
sdh               0.00     0.00    0.00    0.00     0.00     0.00     0.00     0.00    0.00    0.00    0.00   0.00   0.00
md0               0.00     0.00 102874.00    0.00 411496.00     0.00     8.00     0.00    0.00    0.00    0.00   0.00   0.00

avg-cpu:  %user   %nice %system %iowait  %steal   %idle
           0.82    0.00   15.62    0.27    0.00   83.29

Device:         rrqm/s   wrqm/s     r/s     w/s    rkB/s    wkB/s avgrq-sz avgqu-sz   await r_await w_await  svctm  %util
sda               0.00     0.00 17021.00    0.00 68084.00     0.00     8.00     1.94    0.11    0.11    0.00   0.04  66.40
sdb               0.00     0.00 17118.00    0.00 68472.00     0.00     8.00     1.90    0.11    0.11    0.00   0.04  66.20
sdc               0.00     0.00 17025.00    0.00 68100.00     0.00     8.00     2.09    0.12    0.12    0.00   0.04  73.80
sdd               0.00     0.00 17192.00    0.00 68768.00     0.00     8.00     2.19    0.13    0.13    0.00   0.04  73.40
sde               0.00     0.00 17080.00    0.00 68320.00     0.00     8.00     2.17    0.13    0.13    0.00   0.04  71.60
sdf               0.00     0.00 17248.00    0.00 68992.00     0.00     8.00     2.29    0.13    0.13    0.00   0.04  76.30
sdg               0.00     0.00    0.00    0.00     0.00     0.00     0.00     0.00    0.00    0.00    0.00   0.00   0.00
sdh               0.00     0.00    0.00    0.00     0.00     0.00     0.00     0.00    0.00    0.00    0.00   0.00   0.00
md0               0.00     0.00 102670.00    0.00 410680.00     0.00     8.00     0.00    0.00    0.00    0.00   0.00   0.00

avg-cpu:  %user   %nice %system %iowait  %steal   %idle
           1.10    0.00   15.15    0.28    0.00   83.47

Device:         rrqm/s   wrqm/s     r/s     w/s    rkB/s    wkB/s avgrq-sz avgqu-sz   await r_await w_await  svctm  %util
sda               0.00     0.00 17130.00    0.00 68520.00     0.00     8.00     1.92    0.11    0.11    0.00   0.04  70.10
sdb               0.00     0.00 16901.00    0.00 67604.00     0.00     8.00     1.89    0.11    0.11    0.00   0.04  69.20
sdc               0.00     0.00 16989.00    0.00 67956.00     0.00     8.00     2.23    0.13    0.13    0.00   0.04  74.20
sdd               0.00     0.00 17097.00    0.00 68388.00     0.00     8.00     2.26    0.13    0.13    0.00   0.04  74.90
sde               0.00     0.00 17254.00    0.00 69016.00     0.00     8.00     2.15    0.12    0.12    0.00   0.04  74.00
sdf               0.00     0.00 16870.00    0.00 67480.00     0.00     8.00     2.21    0.13    0.13    0.00   0.04  75.40
sdg               0.00     0.00    0.00    0.00     0.00     0.00     0.00     0.00    0.00    0.00    0.00   0.00   0.00
sdh               0.00     0.00    0.00    0.00     0.00     0.00     0.00     0.00    0.00    0.00    0.00   0.00   0.00
md0               0.00     0.00 102253.00    0.00 409012.00     0.00     8.00     0.00    0.00    0.00    0.00   0.00   0.00

avg-cpu:  %user   %nice %system %iowait  %steal   %idle
           0.55    0.00   15.47    0.28    0.00   83.70

Device:         rrqm/s   wrqm/s     r/s     w/s    rkB/s    wkB/s avgrq-sz avgqu-sz   await r_await w_await  svctm  %util
sda               0.00     0.00 17013.00    0.00 68052.00     0.00     8.00     1.96    0.12    0.12    0.00   0.04  69.60
sdb               0.00     0.00 16824.00    0.00 67296.00     0.00     8.00     1.94    0.12    0.12    0.00   0.04  68.90
sdc               0.00     0.00 16917.00    0.00 67668.00     0.00     8.00     2.16    0.13    0.13    0.00   0.04  75.30
sdd               0.00     0.00 16976.00    0.00 67904.00     0.00     8.00     2.15    0.13    0.13    0.00   0.04  74.60
sde               0.00     0.00 17086.00    0.00 68344.00     0.00     8.00     2.22    0.13    0.13    0.00   0.04  74.80
sdf               0.00     0.00 16997.00    0.00 67988.00     0.00     8.00     2.26    0.13    0.13    0.00   0.04  76.20
sdg               0.00     0.00    0.00    0.00     0.00     0.00     0.00     0.00    0.00    0.00    0.00   0.00   0.00
sdh               0.00     0.00    0.00    0.00     0.00     0.00     0.00     0.00    0.00    0.00    0.00   0.00   0.00
md0               0.00     0.00 101810.00    0.00 407240.00     0.00     8.00     0.00    0.00    0.00    0.00   0.00   0.00

avg-cpu:  %user   %nice %system %iowait  %steal   %idle
           0.55    0.00   15.47    0.28    0.00   83.70

Device:         rrqm/s   wrqm/s     r/s     w/s    rkB/s    wkB/s avgrq-sz avgqu-sz   await r_await w_await  svctm  %util
sda               0.00     0.00 16930.00    0.00 67720.00     0.00     8.00     1.91    0.11    0.11    0.00   0.04  69.00
sdb               0.00     0.00 16948.00    0.00 67792.00     0.00     8.00     1.99    0.12    0.12    0.00   0.04  69.60
sdc               0.00     0.00 17309.00    0.00 69236.00     0.00     8.00     2.29    0.13    0.13    0.00   0.04  75.40
sdd               0.00     0.00 16850.00    0.00 67400.00     0.00     8.00     2.16    0.13    0.13    0.00   0.05  76.40
sde               0.00     0.00 16959.00    0.00 67836.00     0.00     8.00     2.22    0.13    0.13    0.00   0.04  74.60
sdf               0.00     0.00 16863.00    0.00 67452.00     0.00     8.00     2.17    0.13    0.13    0.00   0.04  72.80
sdg               0.00     0.00    0.00    4.00     0.00   128.00    64.00     0.00    0.75    0.00    0.75   0.25   0.10
sdh               0.00     0.00    0.00    0.00     0.00     0.00     0.00     0.00    0.00    0.00    0.00   0.00   0.00
md0               0.00     0.00 101852.00    0.00 407408.00     0.00     8.00     0.00    0.00    0.00    0.00   0.00   0.00

avg-cpu:  %user   %nice %system %iowait  %steal   %idle
           0.83    0.00   15.15    0.28    0.00   83.75

Device:         rrqm/s   wrqm/s     r/s     w/s    rkB/s    wkB/s avgrq-sz avgqu-sz   await r_await w_await  svctm  %util
sda               0.00     0.00 16713.00    0.00 66852.00     0.00     8.00     1.90    0.11    0.11    0.00   0.04  68.60
sdb               0.00     0.00 17025.00    0.00 68100.00     0.00     8.00     1.88    0.11    0.11    0.00   0.04  66.90
sdc               0.00     0.00 17027.00    0.00 68108.00     0.00     8.00     2.23    0.13    0.13    0.00   0.04  75.90
sdd               0.00     0.00 17032.00    0.00 68128.00     0.00     8.00     2.21    0.13    0.13    0.00   0.04  76.30
sde               0.00     0.00 16854.00    0.00 67416.00     0.00     8.00     2.33    0.14    0.14    0.00   0.04  75.00
sdf               0.00     0.00 16868.00    0.00 67472.00     0.00     8.00     2.25    0.13    0.13    0.00   0.04  75.10
sdg               0.00     0.00    0.00    0.00     0.00     0.00     0.00     0.00    0.00    0.00    0.00   0.00   0.00
sdh               0.00     0.00    0.00    0.00     0.00     0.00     0.00     0.00    0.00    0.00    0.00   0.00   0.00
md0               0.00     0.00 101527.00    0.00 406108.00     0.00     8.00     0.00    0.00    0.00    0.00   0.00   0.00

avg-cpu:  %user   %nice %system %iowait  %steal   %idle
           0.55    0.00   15.47    0.28    0.00   83.70

Device:         rrqm/s   wrqm/s     r/s     w/s    rkB/s    wkB/s avgrq-sz avgqu-sz   await r_await w_await  svctm  %util
sda               0.00     0.00 17038.00    0.00 68152.00     0.00     8.00     1.92    0.11    0.11    0.00   0.04  67.50
sdb               0.00     0.00 17181.00    0.00 68724.00     0.00     8.00     1.83    0.11    0.11    0.00   0.04  64.40
sdc               0.00     0.00 16986.00    0.00 67944.00     0.00     8.00     2.10    0.12    0.12    0.00   0.04  73.00
sdd               0.00     0.00 16693.00    0.00 66772.00     0.00     8.00     2.06    0.12    0.12    0.00   0.04  72.10
sde               0.00     0.00 16980.00    0.00 67920.00     0.00     8.00     2.07    0.12    0.12    0.00   0.04  71.90
sdf               0.00     0.00 17047.00    0.00 68188.00     0.00     8.00     2.15    0.13    0.13    0.00   0.04  74.00
sdg               0.00     0.00    0.00    0.00     0.00     0.00     0.00     0.00    0.00    0.00    0.00   0.00   0.00
sdh               0.00     0.00    0.00    0.00     0.00     0.00     0.00     0.00    0.00    0.00    0.00   0.00   0.00
md0               0.00     0.00 101918.00    0.00 407672.00     0.00     8.00     0.00    0.00    0.00    0.00   0.00   0.00

avg-cpu:  %user   %nice %system %iowait  %steal   %idle
           0.83    0.00   15.43    0.28    0.00   83.47

Device:         rrqm/s   wrqm/s     r/s     w/s    rkB/s    wkB/s avgrq-sz avgqu-sz   await r_await w_await  svctm  %util
sda               0.00     0.00 16945.00    0.00 67780.00     0.00     8.00     1.93    0.11    0.11    0.00   0.04  69.50
sdb               0.00     0.00 16689.00    0.00 66756.00     0.00     8.00     1.90    0.11    0.11    0.00   0.04  67.40
sdc               0.00     0.00 16935.00    0.00 67740.00     0.00     8.00     2.14    0.13    0.13    0.00   0.04  75.40
sdd               0.00     0.00 16880.00    0.00 67520.00     0.00     8.00     2.12    0.13    0.13    0.00   0.04  72.60
sde               0.00     0.00 16860.00    0.00 67440.00     0.00     8.00     2.17    0.13    0.13    0.00   0.04  73.90
sdf               0.00     0.00 16719.00    0.00 66876.00     0.00     8.00     2.12    0.13    0.13    0.00   0.04  73.50
sdg               0.00     0.00    0.00    0.00     0.00     0.00     0.00     0.00    0.00    0.00    0.00   0.00   0.00
sdh               0.00     0.00    0.00    0.00     0.00     0.00     0.00     0.00    0.00    0.00    0.00   0.00   0.00
md0               0.00     0.00 101032.00    0.00 404128.00     0.00     8.00     0.00    0.00    0.00    0.00   0.00   0.00

avg-cpu:  %user   %nice %system %iowait  %steal   %idle
           0.55    0.00   16.94    0.27    0.00   82.24

Device:         rrqm/s   wrqm/s     r/s     w/s    rkB/s    wkB/s avgrq-sz avgqu-sz   await r_await w_await  svctm  %util
sda               0.00     0.00 16971.00    0.00 67884.00     0.00     8.00     1.81    0.11    0.11    0.00   0.04  67.00
sdb               0.00     0.00 16756.00    0.00 67024.00     0.00     8.00     1.80    0.11    0.11    0.00   0.04  64.70
sdc               0.00     0.00 16939.00    0.00 67756.00     0.00     8.00     2.23    0.13    0.13    0.00   0.04  76.10
sdd               0.00     0.00 16940.00    0.00 67760.00     0.00     8.00     2.07    0.12    0.12    0.00   0.04  72.30
sde               0.00     0.00 16876.00    0.00 67504.00     0.00     8.00     2.21    0.13    0.13    0.00   0.04  75.80
sdf               0.00     0.00 16872.00    0.00 67488.00     0.00     8.00     2.10    0.12    0.12    0.00   0.04  73.20
sdg               0.00     0.00    2.00    0.00     8.00     0.00     8.00     0.00    0.50    0.50    0.00   0.50   0.10
sdh               0.00     0.00    0.00    0.00     0.00     0.00     0.00     0.00    0.00    0.00    0.00   0.00   0.00
md0               0.00     0.00 101348.00    0.00 405392.00     0.00     8.00     0.00    0.00    0.00    0.00   0.00   0.00

avg-cpu:  %user   %nice %system %iowait  %steal   %idle
           0.83    0.00   15.70    0.00    0.00   83.47

Device:         rrqm/s   wrqm/s     r/s     w/s    rkB/s    wkB/s avgrq-sz avgqu-sz   await r_await w_await  svctm  %util
sda               0.00     0.00 16602.00    0.00 66408.00     0.00     8.00     1.86    0.11    0.11    0.00   0.04  68.90
sdb               0.00     0.00 16624.00    0.00 66496.00     0.00     8.00     1.87    0.11    0.11    0.00   0.04  66.10
sdc               0.00     0.00 17175.00    0.00 68700.00     0.00     8.00     2.12    0.12    0.12    0.00   0.04  75.60
sdd               0.00     0.00 16879.00    0.00 67516.00     0.00     8.00     2.17    0.13    0.13    0.00   0.04  73.30
sde               0.00     0.00 16821.00    0.00 67284.00     0.00     8.00     2.12    0.13    0.13    0.00   0.04  72.90
sdf               0.00     0.00 16665.00    0.00 66660.00     0.00     8.00     2.14    0.13    0.13    0.00   0.04  73.20
sdg               0.00     0.00    0.00    0.00     0.00     0.00     0.00     0.00    0.00    0.00    0.00   0.00   0.00
sdh               0.00     0.00    0.00    0.00     0.00     0.00     0.00     0.00    0.00    0.00    0.00   0.00   0.00
md0               0.00     0.00 100776.00    0.00 403104.00     0.00     8.00     0.00    0.00    0.00    0.00   0.00   0.00

avg-cpu:  %user   %nice %system %iowait  %steal   %idle
           0.82    0.00   15.38    0.27    0.00   83.52

Device:         rrqm/s   wrqm/s     r/s     w/s    rkB/s    wkB/s avgrq-sz avgqu-sz   await r_await w_await  svctm  %util
sda               0.00     0.00 16491.00    0.00 65964.00     0.00     8.00     1.81    0.11    0.11    0.00   0.04  66.20
sdb               0.00     0.00 16600.00    0.00 66400.00     0.00     8.00     1.86    0.11    0.11    0.00   0.04  67.70
sdc               0.00     0.00 16638.00    0.00 66552.00     0.00     8.00     2.13    0.13    0.13    0.00   0.05  75.30
sdd               0.00     0.00 16703.00    0.00 66812.00     0.00     8.00     2.14    0.13    0.13    0.00   0.05  76.00
sde               0.00     0.00 16722.00    0.00 66888.00     0.00     8.00     2.10    0.13    0.13    0.00   0.05  75.30
sdf               0.00     0.00 16733.00    0.00 66932.00     0.00     8.00     2.10    0.13    0.13    0.00   0.04  75.00
sdg               0.00     0.00    0.00    0.00     0.00     0.00     0.00     0.00    0.00    0.00    0.00   0.00   0.00
sdh               0.00     0.00    0.00    0.00     0.00     0.00     0.00     0.00    0.00    0.00    0.00   0.00   0.00
md0               0.00     0.00 99879.00    0.00 399516.00     0.00     8.00     0.00    0.00    0.00    0.00   0.00   0.00

avg-cpu:  %user   %nice %system %iowait  %steal   %idle
           0.83    0.00   15.43    0.28    0.00   83.47

Device:         rrqm/s   wrqm/s     r/s     w/s    rkB/s    wkB/s avgrq-sz avgqu-sz   await r_await w_await  svctm  %util
sda               0.00     0.00 16605.00    0.00 66420.00     0.00     8.00     1.84    0.11    0.11    0.00   0.04  67.00
sdb               0.00     0.00 16876.00    0.00 67504.00     0.00     8.00     1.83    0.11    0.11    0.00   0.04  67.70
sdc               0.00     0.00 16582.00    0.00 66328.00     0.00     8.00     2.02    0.12    0.12    0.00   0.04  73.60
sdd               0.00     0.00 16648.00    0.00 66592.00     0.00     8.00     2.08    0.12    0.12    0.00   0.04  73.10
sde               0.00     0.00 16854.00    0.00 67416.00     0.00     8.00     2.16    0.13    0.13    0.00   0.04  74.10
sdf               0.00     0.00 16495.00    0.00 65980.00     0.00     8.00     2.10    0.13    0.13    0.00   0.04  73.20
sdg               0.00     0.00    0.00    0.00     0.00     0.00     0.00     0.00    0.00    0.00    0.00   0.00   0.00
sdh               0.00     0.00    0.00    0.00     0.00     0.00     0.00     0.00    0.00    0.00    0.00   0.00   0.00
md0               0.00     0.00 100064.00    0.00 400256.00     0.00     8.00     0.00    0.00    0.00    0.00   0.00   0.00

avg-cpu:  %user   %nice %system %iowait  %steal   %idle
           0.54    0.00   16.62    0.27    0.00   82.56

Device:         rrqm/s   wrqm/s     r/s     w/s    rkB/s    wkB/s avgrq-sz avgqu-sz   await r_await w_await  svctm  %util
sda               0.00     0.00 16503.00    0.00 66012.00     0.00     8.00     1.86    0.11    0.11    0.00   0.04  69.60
sdb               0.00     0.00 16477.00    0.00 65908.00     0.00     8.00     1.80    0.11    0.11    0.00   0.04  66.50
sdc               0.00     0.00 16657.00    0.00 66628.00     0.00     8.00     2.09    0.13    0.13    0.00   0.05  75.00
sdd               0.00     0.00 16548.00    0.00 66192.00     0.00     8.00     1.98    0.12    0.12    0.00   0.04  73.10
sde               0.00     0.00 16763.00    0.00 67052.00     0.00     8.00     2.06    0.12    0.12    0.00   0.04  73.40
sdf               0.00     0.00 16644.00    0.00 66576.00     0.00     8.00     2.14    0.13    0.13    0.00   0.04  73.70
sdg               0.00     0.00   15.00    0.00   292.00     0.00    38.93     0.01    0.33    0.33    0.00   0.33   0.50
sdh               0.00     0.00    0.00    0.00     0.00     0.00     0.00     0.00    0.00    0.00    0.00   0.00   0.00
md0               0.00     0.00 99575.00    0.00 398300.00     0.00     8.00     0.00    0.00    0.00    0.00   0.00   0.00

avg-cpu:  %user   %nice %system %iowait  %steal   %idle
           0.55    0.00   15.70    0.28    0.00   83.47

Device:         rrqm/s   wrqm/s     r/s     w/s    rkB/s    wkB/s avgrq-sz avgqu-sz   await r_await w_await  svctm  %util
sda               0.00     0.00 16741.00    0.00 66964.00     0.00     8.00     1.87    0.11    0.11    0.00   0.04  67.50
sdb               0.00     0.00 16703.00    0.00 66812.00     0.00     8.00     1.95    0.12    0.12    0.00   0.04  69.30
sdc               0.00     0.00 16559.00    0.00 66236.00     0.00     8.00     2.12    0.13    0.13    0.00   0.04  74.40
sdd               0.00     0.00 16656.00    0.00 66624.00     0.00     8.00     2.12    0.13    0.13    0.00   0.05  75.90
sde               0.00     0.00 16563.00    0.00 66252.00     0.00     8.00     2.15    0.13    0.13    0.00   0.05  77.50
sdf               0.00     0.00 16585.00    0.00 66340.00     0.00     8.00     2.11    0.13    0.13    0.00   0.04  73.20
sdg               0.00     0.00    0.00    0.00     0.00     0.00     0.00     0.00    0.00    0.00    0.00   0.00   0.00
sdh               0.00     0.00    0.00    0.00     0.00     0.00     0.00     0.00    0.00    0.00    0.00   0.00   0.00
md0               0.00     0.00 99825.00    0.00 399300.00     0.00     8.00     0.00    0.00    0.00    0.00   0.00   0.00

avg-cpu:  %user   %nice %system %iowait  %steal   %idle
           0.82    0.00   17.66    0.27    0.00   81.25

Device:         rrqm/s   wrqm/s     r/s     w/s    rkB/s    wkB/s avgrq-sz avgqu-sz   await r_await w_await  svctm  %util
sda               0.00     0.00 16486.00    0.00 65944.00     0.00     8.00     1.93    0.12    0.12    0.00   0.04  68.70
sdb               0.00     0.00 16689.00    0.00 66756.00     0.00     8.00     1.85    0.11    0.11    0.00   0.04  66.00
sdc               0.00     0.00 16668.00    0.00 66672.00     0.00     8.00     2.14    0.13    0.13    0.00   0.05  75.70
sdd               0.00     0.00 16439.00    0.00 65756.00     0.00     8.00     2.11    0.13    0.13    0.00   0.04  73.20
sde               0.00     0.00 16541.00    0.00 66164.00     0.00     8.00     2.12    0.13    0.13    0.00   0.05  74.60
sdf               0.00     0.00 16676.00    0.00 66704.00     0.00     8.00     2.10    0.13    0.13    0.00   0.05  76.00
sdg               0.00     0.00    0.00    0.00     0.00     0.00     0.00     0.00    0.00    0.00    0.00   0.00   0.00
sdh               0.00     0.00    0.00    0.00     0.00     0.00     0.00     0.00    0.00    0.00    0.00   0.00   0.00
md0               0.00     0.00 99489.00    0.00 397956.00     0.00     8.00     0.00    0.00    0.00    0.00   0.00   0.00

avg-cpu:  %user   %nice %system %iowait  %steal   %idle
           0.55    0.00   17.31    0.27    0.00   81.87

Device:         rrqm/s   wrqm/s     r/s     w/s    rkB/s    wkB/s avgrq-sz avgqu-sz   await r_await w_await  svctm  %util
sda               0.00     0.00 16456.00    0.00 65824.00     0.00     8.00     1.92    0.12    0.12    0.00   0.04  69.80
sdb               0.00     0.00 16373.00    0.00 65492.00     0.00     8.00     1.80    0.11    0.11    0.00   0.04  69.00
sdc               0.00     0.00 16605.00    0.00 66420.00     0.00     8.00     2.08    0.13    0.13    0.00   0.05  74.80
sdd               0.00     0.00 16459.00    0.00 65836.00     0.00     8.00     2.07    0.13    0.13    0.00   0.04  73.50
sde               0.00     0.00 16637.00    0.00 66548.00     0.00     8.00     2.12    0.13    0.13    0.00   0.04  74.20
sdf               0.00     0.00 16488.00    0.00 65952.00     0.00     8.00     2.06    0.12    0.12    0.00   0.04  73.40
sdg               0.00     0.00    0.00    0.00     0.00     0.00     0.00     0.00    0.00    0.00    0.00   0.00   0.00
sdh               0.00     0.00    0.00    0.00     0.00     0.00     0.00     0.00    0.00    0.00    0.00   0.00   0.00
md0               0.00     0.00 99029.00    0.00 396116.00     0.00     8.00     0.00    0.00    0.00    0.00   0.00   0.00

avg-cpu:  %user   %nice %system %iowait  %steal   %idle
           0.55    0.00   17.08    0.28    0.00   82.09

Device:         rrqm/s   wrqm/s     r/s     w/s    rkB/s    wkB/s avgrq-sz avgqu-sz   await r_await w_await  svctm  %util
sda               0.00     0.00 16686.00    0.00 66744.00     0.00     8.00     1.82    0.11    0.11    0.00   0.04  67.00
sdb               0.00     0.00 16346.00    0.00 65384.00     0.00     8.00     1.83    0.11    0.11    0.00   0.04  67.40
sdc               0.00     0.00 16489.00    0.00 65956.00     0.00     8.00     2.13    0.13    0.13    0.00   0.04  73.90
sdd               0.00     0.00 16326.00    0.00 65304.00     0.00     8.00     2.10    0.13    0.13    0.00   0.05  75.60
sde               0.00     0.00 16454.00    0.00 65816.00     0.00     8.00     2.13    0.13    0.13    0.00   0.04  74.00
sdf               0.00     0.00 16501.00    0.00 66004.00     0.00     8.00     1.99    0.12    0.12    0.00   0.04  72.30
sdg               0.00     0.00    0.00    0.00     0.00     0.00     0.00     0.00    0.00    0.00    0.00   0.00   0.00
sdh               0.00     0.00    0.00    0.00     0.00     0.00     0.00     0.00    0.00    0.00    0.00   0.00   0.00
md0               0.00     0.00 98807.00    0.00 395228.00     0.00     8.00     0.00    0.00    0.00    0.00   0.00   0.00

avg-cpu:  %user   %nice %system %iowait  %steal   %idle
           0.83    0.00   16.62    0.28    0.00   82.27

Device:         rrqm/s   wrqm/s     r/s     w/s    rkB/s    wkB/s avgrq-sz avgqu-sz   await r_await w_await  svctm  %util
sda               0.00     0.00 16445.00    0.00 65780.00     0.00     8.00     1.83    0.11    0.11    0.00   0.04  68.50
sdb               0.00     0.00 16669.00    0.00 66676.00     0.00     8.00     1.83    0.11    0.11    0.00   0.04  68.30
sdc               0.00     0.00 16651.00    0.00 66604.00     0.00     8.00     2.07    0.12    0.12    0.00   0.04  72.40
sdd               0.00     0.00 16668.00    0.00 66672.00     0.00     8.00     2.09    0.13    0.13    0.00   0.04  74.60
sde               0.00     0.00 16494.00    0.00 65976.00     0.00     8.00     2.10    0.13    0.13    0.00   0.04  73.40
sdf               0.00     0.00 16373.00    0.00 65492.00     0.00     8.00     2.06    0.13    0.13    0.00   0.04  72.60
sdg               0.00     0.00    0.00    0.00     0.00     0.00     0.00     0.00    0.00    0.00    0.00   0.00   0.00
sdh               0.00     0.00    0.00    0.00     0.00     0.00     0.00     0.00    0.00    0.00    0.00   0.00   0.00
md0               0.00     0.00 99289.00    0.00 397156.00     0.00     8.00     0.00    0.00    0.00    0.00   0.00   0.00

