Linux 4.17.2 (bench) 	08/03/2018 	_x86_64_	(4 CPU)

avg-cpu:  %user   %nice %system %iowait  %steal   %idle
          10.28    0.02    4.08    2.60    0.00   83.03

Device:         rrqm/s   wrqm/s     r/s     w/s    rkB/s    wkB/s avgrq-sz avgqu-sz   await r_await w_await  svctm  %util
sda              47.08     4.24 1667.01  102.31 20993.60  3130.62    27.27     1.04    0.59    0.26    5.92   0.06  10.78
sdb              46.93     4.20 1666.96  102.45 20983.01  3127.29    27.25     1.03    0.58    0.26    5.85   0.06  10.66
sdc              84.85     4.26 1626.94  102.00 20975.09  3129.74    27.88     1.45    0.84    0.45    7.12   0.08  14.12
sdd              78.29     4.22 1632.68  102.07 20960.07  3125.95    27.77     1.46    0.84    0.44    7.33   0.08  14.21
sde              80.31     4.27 1637.75  102.17 21019.78  3130.19    27.76     1.48    0.85    0.44    7.44   0.08  14.23
sdf              77.43     4.24 1639.90  102.11 21001.05  3127.06    27.70     1.53    0.88    0.44    7.90   0.08  14.27
sdg               0.00     3.17   26.36   73.31   324.19   392.03    14.37     0.44    4.41    0.20    5.93   0.08   0.78
sdh               0.00     0.13    0.02    0.23     2.21     5.05    56.82     0.00    1.15    0.65    1.19   0.21   0.01
md0               0.00     0.00 10292.92  479.37 143773.48 21428.65    30.67     0.00    0.00    0.00    0.00   0.00   0.00

avg-cpu:  %user   %nice %system %iowait  %steal   %idle
           0.51    0.00    1.53    4.08    0.00   93.88

Device:         rrqm/s   wrqm/s     r/s     w/s    rkB/s    wkB/s avgrq-sz avgqu-sz   await r_await w_await  svctm  %util
sda               0.00     0.00 1491.00    0.00  5964.00     0.00     8.00     0.15    0.10    0.10    0.00   0.10  15.20
sdb               0.00     0.00 1403.00    0.00  5612.00     0.00     8.00     0.15    0.11    0.11    0.00   0.11  15.20
sdc               0.00     0.00 1384.00    0.00  5536.00     0.00     8.00     0.15    0.11    0.11    0.00   0.11  15.40
sdd               0.00     0.00 1425.00    0.00  5700.00     0.00     8.00     0.16    0.11    0.11    0.00   0.11  16.30
sde               0.00     0.00 1500.00    0.00  6000.00     0.00     8.00     0.16    0.11    0.11    0.00   0.11  16.00
sdf               0.00     0.00 1476.00    0.00  5904.00     0.00     8.00     0.15    0.11    0.11    0.00   0.11  15.50
sdg               0.00     2.00    0.00   13.00     0.00   168.00    25.85     0.00    0.00    0.00    0.00   0.00   0.00
sdh               0.00     0.00    0.00    0.00     0.00     0.00     0.00     0.00    0.00    0.00    0.00   0.00   0.00
md0               0.00     0.00 8676.00    0.00 34704.00     0.00     8.00     0.00    0.00    0.00    0.00   0.00   0.00

