Linux 4.17.2 (bench) 	08/03/2018 	_x86_64_	(4 CPU)

avg-cpu:  %user   %nice %system %iowait  %steal   %idle
          10.27    0.02    4.09    2.60    0.00   83.02

Device:         rrqm/s   wrqm/s     r/s     w/s    rkB/s    wkB/s avgrq-sz avgqu-sz   await r_await w_await  svctm  %util
sda              47.07     4.23 1667.52  102.25 21000.30  3128.70    27.27     1.04    0.59    0.26    5.92   0.06  10.79
sdb              46.92     4.19 1667.47  102.39 20989.76  3125.37    27.25     1.03    0.58    0.26    5.85   0.06  10.67
sdc              84.81     4.25 1627.48  101.94 20981.87  3127.83    27.88     1.45    0.84    0.45    7.12   0.08  14.13
sdd              78.26     4.22 1633.21  102.01 20966.81  3124.04    27.77     1.46    0.84    0.44    7.33   0.08  14.22
sde              80.28     4.26 1638.28  102.11 21026.49  3128.27    27.76     1.48    0.85    0.44    7.44   0.08  14.24
sdf              77.40     4.24 1640.43  102.05 21007.77  3125.15    27.70     1.53    0.88    0.44    7.90   0.08  14.27
sdg               0.00     3.17   26.38   73.30   324.23   392.00    14.37     0.44    4.41    0.20    5.93   0.08   0.78
sdh               0.00     0.13    0.02    0.23     2.20     5.05    56.82     0.00    1.15    0.65    1.19   0.21   0.01
md0               0.00     0.00 10295.93  479.08 143836.06 21415.56    30.67     0.00    0.00    0.00    0.00   0.00   0.00

avg-cpu:  %user   %nice %system %iowait  %steal   %idle
           0.43    0.03    4.29    2.80    0.00   92.46

Device:         rrqm/s   wrqm/s     r/s     w/s    rkB/s    wkB/s avgrq-sz avgqu-sz   await r_await w_await  svctm  %util
sda               0.00     0.00 5225.70    0.00 20902.80     0.00     8.00     0.59    0.11    0.11    0.00   0.03  16.66
sdb               0.00     0.00 5187.60    0.00 20750.40     0.00     8.00     0.61    0.12    0.12    0.00   0.03  17.23
sdc               0.00     0.00 5235.50    0.00 20942.00     0.00     8.00     0.69    0.13    0.13    0.00   0.04  19.23
sdd               0.00     0.00 5178.40    0.00 20713.60     0.00     8.00     0.69    0.13    0.13    0.00   0.04  19.39
sde               0.00     0.00 5210.40    0.00 20841.60     0.00     8.00     0.69    0.13    0.13    0.00   0.04  19.01
sdf               0.00     0.00 5211.40    0.00 20845.60     0.00     8.00     0.70    0.13    0.13    0.00   0.04  19.59
sdg               0.00     0.05   67.50  128.15   286.00   645.00     9.52     0.81    4.16    0.13    6.28   0.07   1.44
sdh               0.00     0.00    0.00    0.00     0.00     0.00     0.00     0.00    0.00    0.00    0.00   0.00   0.00
md0               0.00     0.00 31249.25    0.00 124997.00     0.00     8.00     0.00    0.00    0.00    0.00   0.00   0.00

