Linux 4.17.2 (bench) 	08/03/2018 	_x86_64_	(4 CPU)

avg-cpu:  %user   %nice %system %iowait  %steal   %idle
          10.27    0.02    4.11    2.63    0.00   82.97

Device:         rrqm/s   wrqm/s     r/s     w/s    rkB/s    wkB/s avgrq-sz avgqu-sz   await r_await w_await  svctm  %util
sda              48.35     4.22 1685.06  101.98 21129.84  3120.55    27.14     1.04    0.58    0.26    5.92   0.06  10.86
sdb              48.20     4.18 1685.01  102.12 21119.34  3117.23    27.12     1.04    0.58    0.26    5.85   0.06  10.74
sdc              86.07     4.24 1645.04  101.67 21111.43  3119.68    27.74     1.46    0.84    0.45    7.12   0.08  14.21
sdd              79.53     4.21 1650.75  101.74 21096.35  3115.90    27.63     1.47    0.84    0.44    7.33   0.08  14.31
sde              81.55     4.25 1655.83  101.84 21155.95  3120.12    27.62     1.49    0.85    0.44    7.44   0.08  14.33
sdf              78.68     4.23 1657.96  101.79 21137.32  3117.00    27.57     1.53    0.87    0.44    7.90   0.08  14.36
sdg               0.00     3.17   26.51   73.30   324.79   392.06    14.36     0.44    4.41    0.20    5.93   0.08   0.78
sdh               0.00     0.13    0.02    0.23     2.20     5.04    56.82     0.00    1.15    0.65    1.19   0.21   0.01
md0               0.00     0.00 10409.09  477.83 144782.89 21359.75    30.52     0.00    0.00    0.00    0.00   0.00   0.00

avg-cpu:  %user   %nice %system %iowait  %steal   %idle
           1.50    0.00   23.56    0.00    0.00   74.94

Device:         rrqm/s   wrqm/s     r/s     w/s    rkB/s    wkB/s avgrq-sz avgqu-sz   await r_await w_await  svctm  %util
sda            1169.00     0.00 18807.00    0.00 79904.00     0.00     8.50     4.17    0.22    0.22    0.00   0.02  31.40
sdb            1051.00     0.00 18821.00    0.00 79488.00     0.00     8.45     4.44    0.24    0.24    0.00   0.02  31.40
sdc            1567.00     0.00 18060.00    0.00 78508.00     0.00     8.69     6.02    0.33    0.33    0.00   0.03  45.40
sdd            1913.00     0.00 18337.00    0.00 81000.00     0.00     8.83     6.53    0.36    0.36    0.00   0.03  45.90
sde            1803.00     0.00 18864.00    0.00 82588.00     0.00     8.76     6.50    0.34    0.34    0.00   0.02  44.70
sdf            1254.00     0.00 18975.00    0.00 80916.00     0.00     8.53     6.38    0.34    0.34    0.00   0.02  45.70
sdg               0.00     0.00    3.00    0.00    88.00     0.00    58.67     0.00    0.00    0.00    0.00   0.00   0.00
sdh               0.00     0.00    0.00    0.00     0.00     0.00     0.00     0.00    0.00    0.00    0.00   0.00   0.00
md0               0.00     0.00 120624.00    0.00 482496.00     0.00     8.00     0.00    0.00    0.00    0.00   0.00   0.00

avg-cpu:  %user   %nice %system %iowait  %steal   %idle
           1.50    0.00   23.50    0.00    0.00   75.00

Device:         rrqm/s   wrqm/s     r/s     w/s    rkB/s    wkB/s avgrq-sz avgqu-sz   await r_await w_await  svctm  %util
sda            2464.00     0.00 19065.00    0.00 86116.00     0.00     9.03     4.81    0.25    0.25    0.00   0.02  32.90
sdb            1795.00     0.00 19096.00    0.00 83564.00     0.00     8.75     4.74    0.25    0.25    0.00   0.02  32.80
sdc            3349.00     0.00 18458.00    0.00 87228.00     0.00     9.45     6.58    0.36    0.36    0.00   0.03  46.80
sdd            3491.00     0.00 18247.00    0.00 86952.00     0.00     9.53     6.88    0.38    0.38    0.00   0.03  46.50
sde            2791.00     0.00 18804.00    0.00 86460.00     0.00     9.20     7.15    0.38    0.38    0.00   0.03  47.60
sdf            2699.00     0.00 18804.00    0.00 86012.00     0.00     9.15     6.47    0.34    0.34    0.00   0.03  47.70
sdg               0.00     0.00    0.00    0.00     0.00     0.00     0.00     0.00    0.00    0.00    0.00   0.00   0.00
sdh               0.00     0.00    0.00    0.00     0.00     0.00     0.00     0.00    0.00    0.00    0.00   0.00   0.00
md0               0.00     0.00 129093.00    0.00 516372.00     0.00     8.00     0.00    0.00    0.00    0.00   0.00   0.00

avg-cpu:  %user   %nice %system %iowait  %steal   %idle
           1.00    0.00   23.75    0.25    0.00   75.00

Device:         rrqm/s   wrqm/s     r/s     w/s    rkB/s    wkB/s avgrq-sz avgqu-sz   await r_await w_await  svctm  %util
sda            7322.00     0.00 19242.00    0.00 106256.00     0.00    11.04     5.91    0.31    0.31    0.00   0.02  34.70
sdb            5430.00     0.00 20923.00    0.00 105412.00     0.00    10.08     6.80    0.33    0.33    0.00   0.02  39.10
sdc            9142.00     0.00 17544.00    0.00 106684.00     0.00    12.16     7.65    0.44    0.44    0.00   0.03  51.90
sdd            9189.00     0.00 17332.00    0.00 106036.00     0.00    12.24     7.73    0.45    0.45    0.00   0.03  50.50
sde            8431.00     0.00 18538.00    0.00 107852.00     0.00    11.64     9.07    0.49    0.49    0.00   0.03  54.40
sdf            8271.00     0.00 18596.00    0.00 107460.00     0.00    11.56     8.46    0.45    0.45    0.00   0.03  55.00
sdg               0.00     0.00    0.00    0.00     0.00     0.00     0.00     0.00    0.00    0.00    0.00   0.00   0.00
sdh               0.00     0.00    0.00    0.00     0.00     0.00     0.00     0.00    0.00    0.00    0.00   0.00   0.00
md0               0.00     0.00 159984.00    0.00 639936.00     0.00     8.00     0.00    0.00    0.00    0.00   0.00   0.00

avg-cpu:  %user   %nice %system %iowait  %steal   %idle
           1.00    0.00   23.56    0.25    0.00   75.19

Device:         rrqm/s   wrqm/s     r/s     w/s    rkB/s    wkB/s avgrq-sz avgqu-sz   await r_await w_await  svctm  %util
sda            7526.00     0.00 19272.00    0.00 107192.00     0.00    11.12     6.28    0.33    0.33    0.00   0.02  35.80
sdb            5192.00     0.00 20741.00    0.00 103732.00     0.00    10.00     5.72    0.28    0.28    0.00   0.02  35.70
sdc            8921.00     0.00 17615.00    0.00 106204.00     0.00    12.06     8.70    0.49    0.49    0.00   0.03  53.10
sdd            9375.00     0.00 17377.00    0.00 107012.00     0.00    12.32     8.05    0.46    0.46    0.00   0.03  53.20
sde            8745.00     0.00 18372.00    0.00 108392.00     0.00    11.80     7.92    0.43    0.43    0.00   0.03  52.40
sdf            7715.00     0.00 18654.00    0.00 105484.00     0.00    11.31     9.09    0.49    0.49    0.00   0.03  54.70
sdg               0.00     0.00    0.00    0.00     0.00     0.00     0.00     0.00    0.00    0.00    0.00   0.00   0.00
sdh               0.00     0.00    0.00    0.00     0.00     0.00     0.00     0.00    0.00    0.00    0.00   0.00   0.00
md0               0.00     0.00 159511.00    0.00 638044.00     0.00     8.00     0.00    0.00    0.00    0.00   0.00   0.00

avg-cpu:  %user   %nice %system %iowait  %steal   %idle
           1.00    0.00   23.88    0.50    0.00   74.63

Device:         rrqm/s   wrqm/s     r/s     w/s    rkB/s    wkB/s avgrq-sz avgqu-sz   await r_await w_await  svctm  %util
sda            7393.00     0.00 18921.00    0.00 105256.00     0.00    11.13     6.00    0.32    0.32    0.00   0.02  36.10
sdb            5917.00     0.00 21163.00    0.00 108320.00     0.00    10.24     6.23    0.29    0.29    0.00   0.02  38.00
sdc            8409.00     0.00 17577.00    0.00 103944.00     0.00    11.83     8.53    0.49    0.49    0.00   0.03  53.30
sdd            9013.00     0.00 17097.00    0.00 104372.00     0.00    12.21     7.49    0.44    0.44    0.00   0.03  51.60
sde            8136.00     0.00 18136.00    0.00 105188.00     0.00    11.60     7.92    0.44    0.44    0.00   0.03  51.70
sdf            7997.00     0.00 18897.00    0.00 107576.00     0.00    11.39     9.30    0.49    0.49    0.00   0.03  55.50
sdg               0.00     0.00    0.00    0.00     0.00     0.00     0.00     0.00    0.00    0.00    0.00   0.00   0.00
sdh               0.00     0.00    0.00    0.00     0.00     0.00     0.00     0.00    0.00    0.00    0.00   0.00   0.00
md0               0.00     0.00 158671.00    0.00 634684.00     0.00     8.00     0.00    0.00    0.00    0.00   0.00   0.00

avg-cpu:  %user   %nice %system %iowait  %steal   %idle
           1.25    0.00   23.50    0.25    0.00   75.00

Device:         rrqm/s   wrqm/s     r/s     w/s    rkB/s    wkB/s avgrq-sz avgqu-sz   await r_await w_await  svctm  %util
sda            6536.00     0.00 19364.00    0.00 103600.00     0.00    10.70     6.17    0.32    0.32    0.00   0.02  34.80
sdb            5993.00     0.00 20435.00    0.00 105712.00     0.00    10.35     6.02    0.29    0.29    0.00   0.02  37.70
sdc            9057.00     0.00 17760.00    0.00 107168.00     0.00    12.07     8.86    0.50    0.50    0.00   0.03  55.90
sdd            9108.00     0.00 17224.00    0.00 105352.00     0.00    12.23     7.56    0.44    0.44    0.00   0.03  52.90
sde            7609.00     0.00 18331.00    0.00 103760.00     0.00    11.32     8.09    0.44    0.44    0.00   0.03  51.30
sdf            7949.00     0.00 18225.00    0.00 104620.00     0.00    11.48     9.09    0.50    0.50    0.00   0.03  53.10
sdg               0.00     0.00    0.00    0.00     0.00     0.00     0.00     0.00    0.00    0.00    0.00   0.00   0.00
sdh               0.00     0.00    0.00    0.00     0.00     0.00     0.00     0.00    0.00    0.00    0.00   0.00   0.00
md0               0.00     0.00 157573.00    0.00 630292.00     0.00     8.00     0.00    0.00    0.00    0.00   0.00   0.00

avg-cpu:  %user   %nice %system %iowait  %steal   %idle
           1.00    0.00   23.56    0.25    0.00   75.19

Device:         rrqm/s   wrqm/s     r/s     w/s    rkB/s    wkB/s avgrq-sz avgqu-sz   await r_await w_await  svctm  %util
sda            6975.00     0.00 19018.00    0.00 103972.00     0.00    10.93     6.03    0.32    0.32    0.00   0.02  37.20
sdb            5322.00     0.00 20781.00    0.00 104376.00     0.00    10.05     6.26    0.30    0.30    0.00   0.02  37.80
sdc            8655.00     0.00 17489.00    0.00 104676.00     0.00    11.97     7.78    0.45    0.45    0.00   0.03  51.50
sdd            9234.00     0.00 17224.00    0.00 105920.00     0.00    12.30     7.70    0.45    0.45    0.00   0.03  52.30
sde            7855.00     0.00 17908.00    0.00 103052.00     0.00    11.51     8.44    0.47    0.47    0.00   0.03  51.70
sdf            7335.00     0.00 18412.00    0.00 103064.00     0.00    11.20     8.44    0.46    0.46    0.00   0.03  52.70
sdg               0.00     0.00    0.00    0.00     0.00     0.00     0.00     0.00    0.00    0.00    0.00   0.00   0.00
sdh               0.00     0.00    0.00    0.00     0.00     0.00     0.00     0.00    0.00    0.00    0.00   0.00   0.00
md0               0.00     0.00 156151.00    0.00 624604.00     0.00     8.00     0.00    0.00    0.00    0.00   0.00   0.00

avg-cpu:  %user   %nice %system %iowait  %steal   %idle
           1.06    0.26   23.22    0.26    0.00   75.20

Device:         rrqm/s   wrqm/s     r/s     w/s    rkB/s    wkB/s avgrq-sz avgqu-sz   await r_await w_await  svctm  %util
sda           10589.00     0.00 19802.00    0.00 121516.00     0.00    12.27     7.15    0.36    0.36    0.00   0.02  41.90
sdb           10153.00     0.00 20716.00    0.00 123512.00     0.00    11.92     7.53    0.36    0.36    0.00   0.02  44.20
sdc           12400.00     0.00 18531.00    0.00 123724.00     0.00    13.35    10.21    0.55    0.55    0.00   0.03  62.20
sdd           12728.00     0.00 18286.00    0.00 124056.00     0.00    13.57    10.57    0.58    0.58    0.00   0.03  62.20
sde           12618.00     0.00 18602.00    0.00 124880.00     0.00    13.43    10.93    0.59    0.59    0.00   0.03  63.30
sdf           11632.00     0.00 19148.00    0.00 123120.00     0.00    12.86    10.23    0.53    0.53    0.00   0.03  61.60
sdg               0.00     0.00   40.00    0.00   472.00     0.00    23.60     0.00    0.07    0.07    0.00   0.07   0.30
sdh               0.00     0.00    0.00    0.00     0.00     0.00     0.00     0.00    0.00    0.00    0.00   0.00   0.00
md0               0.00     0.00 185273.00    0.00 741092.00     0.00     8.00     0.00    0.00    0.00    0.00   0.00   0.00

avg-cpu:  %user   %nice %system %iowait  %steal   %idle
           1.25    0.00   23.75    0.25    0.00   74.75

Device:         rrqm/s   wrqm/s     r/s     w/s    rkB/s    wkB/s avgrq-sz avgqu-sz   await r_await w_await  svctm  %util
sda            6848.00     0.00 18847.00    0.00 102828.00     0.00    10.91     6.11    0.32    0.32    0.00   0.02  35.00
sdb            5199.00     0.00 20606.00    0.00 103220.00     0.00    10.02     6.45    0.31    0.31    0.00   0.02  37.70
sdc            8404.00     0.00 17746.00    0.00 104520.00     0.00    11.78     8.04    0.45    0.45    0.00   0.03  52.90
sdd            8736.00     0.00 16917.00    0.00 102532.00     0.00    12.12     7.76    0.46    0.46    0.00   0.03  51.40
sde            7446.00     0.00 18293.00    0.00 102956.00     0.00    11.26     8.47    0.46    0.46    0.00   0.03  51.30
sdf            8233.00     0.00 18795.00    0.00 108112.00     0.00    11.50     8.86    0.47    0.47    0.00   0.03  54.20
sdg               0.00     0.00    0.00    0.00     0.00     0.00     0.00     0.00    0.00    0.00    0.00   0.00   0.00
sdh               0.00     0.00    0.00    0.00     0.00     0.00     0.00     0.00    0.00    0.00    0.00   0.00   0.00
md0               0.00     0.00 156074.00    0.00 624296.00     0.00     8.00     0.00    0.00    0.00    0.00   0.00   0.00

avg-cpu:  %user   %nice %system %iowait  %steal   %idle
           1.26    0.00   24.12    0.25    0.00   74.37

Device:         rrqm/s   wrqm/s     r/s     w/s    rkB/s    wkB/s avgrq-sz avgqu-sz   await r_await w_await  svctm  %util
sda            6806.00     0.00 19430.00    0.00 104944.00     0.00    10.80     6.34    0.33    0.33    0.00   0.02  35.60
sdb            5811.00     0.00 20522.00    0.00 105332.00     0.00    10.27     6.59    0.32    0.32    0.00   0.02  38.00
sdc            8372.00     0.00 17353.00    0.00 102912.00     0.00    11.86     8.00    0.46    0.46    0.00   0.03  50.40
sdd            8896.00     0.00 17072.00    0.00 103952.00     0.00    12.18     7.82    0.46    0.46    0.00   0.03  51.90
sde            7685.00     0.00 17965.00    0.00 102600.00     0.00    11.42     8.27    0.46    0.46    0.00   0.03  51.40
sdf            8066.00     0.00 18132.00    0.00 104792.00     0.00    11.56     8.59    0.47    0.47    0.00   0.03  52.90
sdg               0.00    78.00   13.00 2578.00    52.00 12784.00     9.91    15.73    6.07    0.54    6.10   0.05  11.90
sdh               0.00     0.00    0.00    0.00     0.00     0.00     0.00     0.00    0.00    0.00    0.00   0.00   0.00
md0               0.00     0.00 156104.00    0.00 624416.00     0.00     8.00     0.00    0.00    0.00    0.00   0.00   0.00

avg-cpu:  %user   %nice %system %iowait  %steal   %idle
           0.75    0.00   25.19    0.25    0.00   73.82

Device:         rrqm/s   wrqm/s     r/s     w/s    rkB/s    wkB/s avgrq-sz avgqu-sz   await r_await w_await  svctm  %util
sda            7037.00     0.00 19351.00    0.00 105552.00     0.00    10.91     6.16    0.32    0.32    0.00   0.02  37.10
sdb            5342.00     0.00 20426.00    0.00 103072.00     0.00    10.09     6.00    0.29    0.29    0.00   0.02  35.20
sdc            8325.00     0.00 17405.00    0.00 102988.00     0.00    11.83     8.11    0.47    0.47    0.00   0.03  50.60
sdd            8621.00     0.00 16853.00    0.00 101872.00     0.00    12.09     7.63    0.45    0.45    0.00   0.03  50.50
sde            7690.00     0.00 17919.00    0.00 102356.00     0.00    11.42     8.16    0.46    0.46    0.00   0.03  51.10
sdf            7662.00     0.00 18181.00    0.00 103256.00     0.00    11.36     8.64    0.47    0.47    0.00   0.03  52.00
sdg               0.00     0.00    0.00    0.00     0.00     0.00     0.00     0.00    0.00    0.00    0.00   0.00   0.00
sdh               0.00     0.00    0.00    0.00     0.00     0.00     0.00     0.00    0.00    0.00    0.00   0.00   0.00
md0               0.00     0.00 154775.00    0.00 619100.00     0.00     8.00     0.00    0.00    0.00    0.00   0.00   0.00

avg-cpu:  %user   %nice %system %iowait  %steal   %idle
           1.25    0.00   24.25    0.50    0.00   74.00

Device:         rrqm/s   wrqm/s     r/s     w/s    rkB/s    wkB/s avgrq-sz avgqu-sz   await r_await w_await  svctm  %util
sda            6630.00     0.00 19329.00    0.00 103836.00     0.00    10.74     6.36    0.33    0.33    0.00   0.02  35.60
sdb            6199.00     0.00 20653.00    0.00 107408.00     0.00    10.40     6.33    0.31    0.31    0.00   0.02  38.10
sdc            8167.00     0.00 17252.00    0.00 101588.00     0.00    11.78     8.23    0.48    0.48    0.00   0.03  51.20
sdd            8886.00     0.00 17016.00    0.00 103476.00     0.00    12.16     7.60    0.45    0.45    0.00   0.03  51.30
sde            8475.00     0.00 17949.00    0.00 105636.00     0.00    11.77     8.19    0.46    0.46    0.00   0.03  52.70
sdf            7557.00     0.00 17919.00    0.00 102020.00     0.00    11.39     8.46    0.47    0.47    0.00   0.03  50.90
sdg               0.00     0.00    0.00    0.00     0.00     0.00     0.00     0.00    0.00    0.00    0.00   0.00   0.00
sdh               0.00     0.00    0.00    0.00     0.00     0.00     0.00     0.00    0.00    0.00    0.00   0.00   0.00
md0               0.00     0.00 156066.00    0.00 624264.00     0.00     8.00     0.00    0.00    0.00    0.00   0.00   0.00

avg-cpu:  %user   %nice %system %iowait  %steal   %idle
           1.00    0.00   25.00    0.00    0.00   74.00

Device:         rrqm/s   wrqm/s     r/s     w/s    rkB/s    wkB/s avgrq-sz avgqu-sz   await r_await w_await  svctm  %util
sda            7324.00     0.00 19123.00    0.00 105788.00     0.00    11.06     6.74    0.35    0.35    0.00   0.02  38.80
sdb            5465.00     0.00 20705.00    0.00 104668.00     0.00    10.11     6.18    0.30    0.30    0.00   0.02  37.40
sdc            8795.00     0.00 17420.00    0.00 104744.00     0.00    12.03     8.20    0.47    0.47    0.00   0.03  52.30
sdd            9267.00     0.00 17066.00    0.00 105412.00     0.00    12.35     8.42    0.49    0.49    0.00   0.03  53.20
sde            7981.00     0.00 18130.00    0.00 104564.00     0.00    11.53     8.50    0.47    0.47    0.00   0.03  52.90
sdf            8058.00     0.00 18373.00    0.00 105724.00     0.00    11.51     8.40    0.46    0.46    0.00   0.03  53.50
sdg               0.00     0.00    0.00    0.00     0.00     0.00     0.00     0.00    0.00    0.00    0.00   0.00   0.00
sdh               0.00     0.00    0.00    0.00     0.00     0.00     0.00     0.00    0.00    0.00    0.00   0.00   0.00
md0               0.00     0.00 157739.00    0.00 630956.00     0.00     8.00     0.00    0.00    0.00    0.00   0.00   0.00

avg-cpu:  %user   %nice %system %iowait  %steal   %idle
           1.69    0.00   23.31    0.28    0.00   74.72

Device:         rrqm/s   wrqm/s     r/s     w/s    rkB/s    wkB/s avgrq-sz avgqu-sz   await r_await w_await  svctm  %util
sda           16071.00     0.00 20691.00    0.00 147048.00     0.00    14.21     8.21    0.40    0.40    0.00   0.02  50.60
sdb           16316.00     0.00 20902.00    0.00 148884.00     0.00    14.25     8.28    0.40    0.40    0.00   0.02  51.30
sdc           16766.00     0.00 19762.00    0.00 146316.00     0.00    14.81    12.25    0.62    0.62    0.00   0.04  72.90
sdd           17238.00     0.00 19692.00    0.00 147696.00     0.00    15.00    12.99    0.66    0.66    0.00   0.04  73.90
sde           16196.00     0.00 19780.00    0.00 143892.00     0.00    14.55    13.64    0.69    0.69    0.00   0.04  72.90
sdf           16323.00     0.00 20086.00    0.00 145636.00     0.00    14.50    13.50    0.67    0.67    0.00   0.04  73.50
sdg               0.00     0.00    0.00    0.00     0.00     0.00     0.00     0.00    0.00    0.00    0.00   0.00   0.00
sdh               0.00     0.00    0.00    0.00     0.00     0.00     0.00     0.00    0.00    0.00    0.00   0.00   0.00
md0               0.00     0.00 219811.00    0.00 879244.00     0.00     8.00     0.00    0.00    0.00    0.00   0.00   0.00

avg-cpu:  %user   %nice %system %iowait  %steal   %idle
           1.68    0.00   23.53    0.28    0.00   74.51

Device:         rrqm/s   wrqm/s     r/s     w/s    rkB/s    wkB/s avgrq-sz avgqu-sz   await r_await w_await  svctm  %util
sda           15710.00     0.00 20330.00    0.00 144132.00     0.00    14.18     8.60    0.42    0.42    0.00   0.03  51.20
sdb           15638.00     0.00 20675.00    0.00 145252.00     0.00    14.05     9.19    0.44    0.44    0.00   0.03  52.10
sdc           17222.00     0.00 19816.00    0.00 147996.00     0.00    14.94    13.57    0.68    0.68    0.00   0.04  74.00
sdd           16811.00     0.00 19563.00    0.00 145432.00     0.00    14.87    12.37    0.63    0.63    0.00   0.04  74.00
sde           17341.00     0.00 19759.00    0.00 148288.00     0.00    15.01    12.52    0.63    0.63    0.00   0.04  73.60
sdf           17697.00     0.00 19839.00    0.00 149884.00     0.00    15.11    13.32    0.67    0.67    0.00   0.04  73.80
sdg               0.00     0.00    0.00    0.00     0.00     0.00     0.00     0.00    0.00    0.00    0.00   0.00   0.00
sdh               0.00     0.00    0.00    0.00     0.00     0.00     0.00     0.00    0.00    0.00    0.00   0.00   0.00
md0               0.00     0.00 220482.00    0.00 881928.00     0.00     8.00     0.00    0.00    0.00    0.00   0.00   0.00

avg-cpu:  %user   %nice %system %iowait  %steal   %idle
           1.95    0.00   23.96    0.28    0.00   73.82

Device:         rrqm/s   wrqm/s     r/s     w/s    rkB/s    wkB/s avgrq-sz avgqu-sz   await r_await w_await  svctm  %util
sda           16492.00     0.00 21048.00    0.00 150188.00     0.00    14.27     8.82    0.42    0.42    0.00   0.02  50.30
sdb           16382.00     0.00 21196.00    0.00 150312.00     0.00    14.18     8.97    0.42    0.42    0.00   0.03  53.30
sdc           16630.00     0.00 20285.00    0.00 147708.00     0.00    14.56    12.64    0.62    0.62    0.00   0.04  75.20
sdd           17131.00     0.00 20080.00    0.00 149008.00     0.00    14.84    13.04    0.65    0.65    0.00   0.04  74.70
sde           16902.00     0.00 20428.00    0.00 149464.00     0.00    14.63    13.25    0.65    0.65    0.00   0.04  74.90
sdf           15909.00     0.00 20215.00    0.00 144648.00     0.00    14.31    12.93    0.64    0.64    0.00   0.04  73.10
sdg               0.00     0.00    0.00    0.00     0.00     0.00     0.00     0.00    0.00    0.00    0.00   0.00   0.00
sdh               0.00     0.00    0.00    0.00     0.00     0.00     0.00     0.00    0.00    0.00    0.00   0.00   0.00
md0               0.00     0.00 222543.00    0.00 890172.00     0.00     8.00     0.00    0.00    0.00    0.00   0.00   0.00

avg-cpu:  %user   %nice %system %iowait  %steal   %idle
           1.96    0.00   23.25    0.28    0.00   74.51

Device:         rrqm/s   wrqm/s     r/s     w/s    rkB/s    wkB/s avgrq-sz avgqu-sz   await r_await w_await  svctm  %util
sda           16027.00     0.00 20836.00    0.00 147280.00     0.00    14.14     7.86    0.38    0.38    0.00   0.02  49.60
sdb           15330.00     0.00 20608.00    0.00 143736.00     0.00    13.95     8.31    0.40    0.40    0.00   0.02  50.50
sdc           16239.00     0.00 19866.00    0.00 144516.00     0.00    14.55    13.21    0.67    0.67    0.00   0.04  73.60
sdd           16574.00     0.00 19991.00    0.00 146260.00     0.00    14.63    13.30    0.67    0.67    0.00   0.04  73.50
sde           17068.00     0.00 19991.00    0.00 148076.00     0.00    14.81    13.24    0.66    0.66    0.00   0.04  74.20
sdf           16706.00     0.00 19988.00    0.00 146748.00     0.00    14.68    13.35    0.67    0.67    0.00   0.04  74.30
sdg               0.00     0.00    0.00    0.00     0.00     0.00     0.00     0.00    0.00    0.00    0.00   0.00   0.00
sdh               0.00     0.00    0.00    0.00     0.00     0.00     0.00     0.00    0.00    0.00    0.00   0.00   0.00
md0               0.00     0.00 219379.00    0.00 877516.00     0.00     8.00     0.00    0.00    0.00    0.00   0.00   0.00

avg-cpu:  %user   %nice %system %iowait  %steal   %idle
           1.93    0.55   24.52    0.28    0.00   72.73

Device:         rrqm/s   wrqm/s     r/s     w/s    rkB/s    wkB/s avgrq-sz avgqu-sz   await r_await w_await  svctm  %util
sda           16375.00     0.00 20797.00    0.00 148860.00     0.00    14.32     8.90    0.43    0.43    0.00   0.02  51.30
sdb           15717.00     0.00 21016.00    0.00 146948.00     0.00    13.98     8.09    0.39    0.39    0.00   0.02  51.50
sdc           16429.00     0.00 19986.00    0.00 145672.00     0.00    14.58    12.42    0.62    0.62    0.00   0.04  72.80
sdd           16857.00     0.00 19911.00    0.00 147072.00     0.00    14.77    13.10    0.66    0.66    0.00   0.04  73.70
sde           16528.00     0.00 20325.00    0.00 147572.00     0.00    14.52    13.26    0.65    0.65    0.00   0.04  74.80
sdf           16698.00     0.00 20130.00    0.00 147448.00     0.00    14.65    13.29    0.66    0.66    0.00   0.04  74.20
sdg               0.00     0.00    5.00    0.00    20.00     0.00     8.00     0.00    0.20    0.20    0.00   0.20   0.10
sdh               0.00     0.00    0.00    0.00     0.00     0.00     0.00     0.00    0.00    0.00    0.00   0.00   0.00
md0               0.00     0.00 220669.00    0.00 882676.00     0.00     8.00     0.00    0.00    0.00    0.00   0.00   0.00

avg-cpu:  %user   %nice %system %iowait  %steal   %idle
           1.89    0.00   26.22    0.27    0.00   71.62

Device:         rrqm/s   wrqm/s     r/s     w/s    rkB/s    wkB/s avgrq-sz avgqu-sz   await r_await w_await  svctm  %util
sda           16101.00     0.00 20636.00    0.00 146768.00     0.00    14.22     8.39    0.41    0.41    0.00   0.02  49.90
sdb           15613.00     0.00 20785.00    0.00 145576.00     0.00    14.01     8.23    0.40    0.40    0.00   0.02  50.00
sdc           17435.00     0.00 19781.00    0.00 148804.00     0.00    15.05    12.50    0.63    0.63    0.00   0.04  72.90
sdd           16891.00     0.00 19593.00    0.00 145936.00     0.00    14.90    12.53    0.64    0.64    0.00   0.04  72.60
sde           16162.00     0.00 20023.00    0.00 144740.00     0.00    14.46    13.26    0.66    0.66    0.00   0.04  72.70
sdf           17389.00     0.00 19873.00    0.00 148988.00     0.00    14.99    13.81    0.70    0.70    0.00   0.04  75.50
sdg               0.00     0.00    0.00    0.00     0.00     0.00     0.00     0.00    0.00    0.00    0.00   0.00   0.00
sdh               0.00     0.00    0.00    0.00     0.00     0.00     0.00     0.00    0.00    0.00    0.00   0.00   0.00
md0               0.00     0.00 220340.00    0.00 881360.00     0.00     8.00     0.00    0.00    0.00    0.00   0.00   0.00

avg-cpu:  %user   %nice %system %iowait  %steal   %idle
           1.09    0.00   26.36    0.54    0.00   72.01

Device:         rrqm/s   wrqm/s     r/s     w/s    rkB/s    wkB/s avgrq-sz avgqu-sz   await r_await w_await  svctm  %util
sda           15838.00     0.00 20974.00    0.00 147428.00     0.00    14.06     7.99    0.38    0.38    0.00   0.02  49.60
sdb           15899.00     0.00 20910.00    0.00 147252.00     0.00    14.08     7.82    0.37    0.37    0.00   0.02  50.20
sdc           17560.00     0.00 19575.00    0.00 148440.00     0.00    15.17    12.98    0.66    0.66    0.00   0.04  73.30
sdd           16465.00     0.00 19822.00    0.00 144984.00     0.00    14.63    13.25    0.67    0.67    0.00   0.04  72.80
sde           16945.00     0.00 19969.00    0.00 147620.00     0.00    14.78    13.69    0.69    0.69    0.00   0.04  75.70
sdf           16411.00     0.00 19814.00    0.00 144960.00     0.00    14.63    13.45    0.68    0.68    0.00   0.04  73.90
sdg               0.00     0.00    1.00    0.00     4.00     0.00     8.00     0.00    0.00    0.00    0.00   0.00   0.00
sdh               0.00     0.00    0.00    0.00     0.00     0.00     0.00     0.00    0.00    0.00    0.00   0.00   0.00
md0               0.00     0.00 220084.00    0.00 880336.00     0.00     8.00     0.00    0.00    0.00    0.00   0.00   0.00

