Linux 4.17.2 (bench) 	08/03/2018 	_x86_64_	(4 CPU)

avg-cpu:  %user   %nice %system %iowait  %steal   %idle
          10.26    0.02    4.13    2.67    0.00   82.91

Device:         rrqm/s   wrqm/s     r/s     w/s    rkB/s    wkB/s avgrq-sz avgqu-sz   await r_await w_await  svctm  %util
sda              50.28     4.21 1699.10  101.62 21194.16  3109.47    26.99     1.04    0.58    0.26    5.92   0.06  10.93
sdb              50.11     4.17 1699.07  101.76 21183.68  3106.17    26.98     1.04    0.58    0.26    5.85   0.06  10.80
sdc              87.89     4.23 1659.19  101.31 21175.81  3108.61    27.59     1.46    0.83    0.45    7.12   0.08  14.28
sdd              81.39     4.19 1664.87  101.38 21160.80  3104.84    27.48     1.47    0.83    0.43    7.33   0.08  14.38
sde              83.40     4.24 1669.95  101.48 21220.26  3109.05    27.47     1.49    0.84    0.44    7.44   0.08  14.40
sdf              80.53     4.21 1672.07  101.42 21201.61  3105.94    27.41     1.53    0.86    0.44    7.90   0.08  14.43
sdg               0.00     3.17   26.61   73.28   325.15   392.00    14.36     0.44    4.40    0.20    5.93   0.08   0.78
sdh               0.00     0.13    0.02    0.23     2.19     5.02    56.82     0.00    1.15    0.65    1.19   0.21   0.01
md0               0.00     0.00 10504.97  476.14 145233.97 21283.94    30.33     0.00    0.00    0.00    0.00   0.00   0.00

avg-cpu:  %user   %nice %system %iowait  %steal   %idle
           0.43    0.01    6.79    2.96    0.00   89.80

Device:         rrqm/s   wrqm/s     r/s     w/s    rkB/s    wkB/s avgrq-sz avgqu-sz   await r_await w_await  svctm  %util
sda               0.00     0.00 8478.00    0.00 33912.00     0.00     8.00     2.02    0.24    0.24    0.00   0.02  14.53
sdb               0.00     0.00 8587.50    0.00 34350.00     0.00     8.00     1.96    0.23    0.23    0.00   0.02  14.57
sdc               0.00     0.00 8544.95    0.00 34179.80     0.00     8.00     2.80    0.33    0.33    0.00   0.02  20.57
sdd               0.00     0.00 8606.45    0.00 34425.80     0.00     8.00     2.83    0.33    0.33    0.00   0.02  20.68
sde               0.00     0.00 8583.35    0.00 34333.40     0.00     8.00     2.85    0.33    0.33    0.00   0.02  20.98
sdf               0.00     0.00 8547.15    0.00 34188.60     0.00     8.00     2.79    0.33    0.33    0.00   0.02  20.92
sdg               0.00     9.25    1.95   72.95    17.60   374.00    10.46     0.44    5.91    0.23    6.06   0.05   0.35
sdh               0.00     0.00    0.00    0.00     0.00     0.00     0.00     0.00    0.00    0.00    0.00   0.00   0.00
md0               0.00     0.00 51348.70    0.00 205394.80     0.00     8.00     0.00    0.00    0.00    0.00   0.00   0.00

