Linux 4.17.2 (bench) 	08/03/2018 	_x86_64_	(4 CPU)

avg-cpu:  %user   %nice %system %iowait  %steal   %idle
          10.27    0.02    4.10    2.62    0.00   83.00

Device:         rrqm/s   wrqm/s     r/s     w/s    rkB/s    wkB/s avgrq-sz avgqu-sz   await r_await w_await  svctm  %util
sda              47.13     4.23 1675.49  102.10 21060.81  3124.03    27.21     1.04    0.58    0.26    5.92   0.06  10.82
sdb              46.98     4.19 1675.45  102.24 21050.32  3120.71    27.19     1.03    0.58    0.26    5.85   0.06  10.70
sdc              84.82     4.25 1635.51  101.79 21042.43  3123.16    27.82     1.45    0.84    0.45    7.12   0.08  14.17
sdd              78.28     4.21 1641.24  101.86 21027.33  3119.38    27.71     1.46    0.84    0.44    7.33   0.08  14.26
sde              80.29     4.26 1646.31  101.95 21087.00  3123.61    27.70     1.48    0.85    0.44    7.44   0.08  14.29
sdf              77.42     4.23 1648.45  101.90 21068.30  3120.48    27.64     1.53    0.87    0.44    7.90   0.08  14.32
sdg               0.00     3.17   26.44   73.30   324.50   392.02    14.37     0.44    4.41    0.20    5.93   0.08   0.78
sdh               0.00     0.13    0.02    0.23     2.20     5.04    56.82     0.00    1.15    0.65    1.19   0.21   0.01
md0               0.00     0.00 10344.23  478.37 144296.88 21383.60    30.62     0.00    0.00    0.00    0.00   0.00   0.00

avg-cpu:  %user   %nice %system %iowait  %steal   %idle
           1.52    0.00   23.04    1.27    0.00   74.18

Device:         rrqm/s   wrqm/s     r/s     w/s    rkB/s    wkB/s avgrq-sz avgqu-sz   await r_await w_await  svctm  %util
sda               0.00     0.00 21395.00    0.00 85580.00     0.00     8.00     3.38    0.16    0.16    0.00   0.02  45.40
sdb               0.00     0.00 21108.00    0.00 84432.00     0.00     8.00     3.31    0.16    0.16    0.00   0.02  45.10
sdc               0.00     0.00 21227.00    0.00 84908.00     0.00     8.00     4.25    0.20    0.20    0.00   0.03  57.60
sdd               0.00     0.00 21269.00    0.00 85076.00     0.00     8.00     4.25    0.20    0.20    0.00   0.03  57.70
sde               0.00     0.00 21196.00    0.00 84784.00     0.00     8.00     4.40    0.21    0.21    0.00   0.03  55.40
sdf               0.00     0.00 21392.00    0.00 85568.00     0.00     8.00     4.47    0.21    0.21    0.00   0.03  56.50
sdg               0.00     0.00    0.00    1.00     0.00    12.00    24.00     0.00    0.00    0.00    0.00   0.00   0.00
sdh               0.00     0.00    0.00    0.00     0.00     0.00     0.00     0.00    0.00    0.00    0.00   0.00   0.00
md0               0.00     0.00 127454.00    0.00 509816.00     0.00     8.00     0.00    0.00    0.00    0.00   0.00   0.00

