Linux 4.17.2 (bench) 	08/03/2018 	_x86_64_	(4 CPU)

avg-cpu:  %user   %nice %system %iowait  %steal   %idle
          10.27    0.02    4.13    2.66    0.00   82.93

Device:         rrqm/s   wrqm/s     r/s     w/s    rkB/s    wkB/s avgrq-sz avgqu-sz   await r_await w_await  svctm  %util
sda              50.29     4.21 1694.89  101.76 21159.03  3113.55    27.02     1.04    0.58    0.26    5.92   0.06  10.90
sdb              50.12     4.17 1694.85  101.89 21148.54  3110.24    27.00     1.04    0.58    0.26    5.85   0.06  10.78
sdc              87.96     4.23 1654.93  101.45 21140.65  3112.68    27.62     1.46    0.83    0.45    7.12   0.08  14.26
sdd              81.44     4.20 1660.62  101.52 21125.58  3108.91    27.51     1.47    0.83    0.44    7.33   0.08  14.35
sde              83.45     4.24 1665.70  101.61 21185.12  3113.13    27.50     1.49    0.84    0.44    7.44   0.08  14.37
sdf              80.58     4.22 1667.82  101.56 21166.48  3110.01    27.44     1.53    0.87    0.44    7.90   0.08  14.40
sdg               0.00     3.17   26.56   73.29   324.99   392.02    14.36     0.44    4.41    0.20    5.93   0.08   0.78
sdh               0.00     0.13    0.02    0.23     2.19     5.02    56.82     0.00    1.15    0.65    1.19   0.21   0.01
md0               0.00     0.00 10479.74  476.76 144954.53 21311.86    30.35     0.00    0.00    0.00    0.00   0.00   0.00

avg-cpu:  %user   %nice %system %iowait  %steal   %idle
           0.25    0.00    2.04    1.02    0.00   96.69

Device:         rrqm/s   wrqm/s     r/s     w/s    rkB/s    wkB/s avgrq-sz avgqu-sz   await r_await w_await  svctm  %util
sda               0.00     0.00 1457.00    0.00  5828.00     0.00     8.00     0.14    0.10    0.10    0.00   0.10  14.30
sdb               0.00     0.00 1470.00    0.00  5880.00     0.00     8.00     0.15    0.10    0.10    0.00   0.10  14.80
sdc               0.00     0.00 1429.00    0.00  5716.00     0.00     8.00     0.17    0.12    0.12    0.00   0.12  16.90
sdd               0.00     0.00 1392.00    0.00  5568.00     0.00     8.00     0.14    0.10    0.10    0.00   0.10  14.20
sde               0.00     0.00 1419.00    0.00  5676.00     0.00     8.00     0.15    0.10    0.10    0.00   0.10  14.60
sdf               0.00     0.00 1427.00    0.00  5708.00     0.00     8.00     0.15    0.11    0.11    0.00   0.11  15.50
sdg               0.00     0.00    0.00    0.00     0.00     0.00     0.00     0.00    0.00    0.00    0.00   0.00   0.00
sdh               0.00     0.00    0.00    0.00     0.00     0.00     0.00     0.00    0.00    0.00    0.00   0.00   0.00
md0               0.00     0.00 8589.00    0.00 34356.00     0.00     8.00     0.00    0.00    0.00    0.00   0.00   0.00

