Linux 4.17.2 (bench) 	08/03/2018 	_x86_64_	(4 CPU)

avg-cpu:  %user   %nice %system %iowait  %steal   %idle
          10.28    0.02    4.08    2.60    0.00   83.03

Device:         rrqm/s   wrqm/s     r/s     w/s    rkB/s    wkB/s avgrq-sz avgqu-sz   await r_await w_await  svctm  %util
sda              47.08     4.24 1667.01  102.31 20993.59  3130.61    27.27     1.04    0.59    0.26    5.92   0.06  10.78
sdb              46.93     4.20 1666.96  102.45 20983.00  3127.28    27.25     1.03    0.58    0.26    5.85   0.06  10.66
sdc              84.85     4.26 1626.94  102.00 20975.08  3129.74    27.88     1.45    0.84    0.45    7.12   0.08  14.12
sdd              78.29     4.22 1632.68  102.07 20960.06  3125.94    27.77     1.46    0.84    0.44    7.33   0.08  14.21
sde              80.31     4.27 1637.75  102.17 21019.77  3130.18    27.76     1.48    0.85    0.44    7.44   0.08  14.23
sdf              77.43     4.24 1639.90  102.11 21001.03  3127.05    27.70     1.53    0.88    0.44    7.90   0.08  14.27
sdg               0.00     3.17   26.36   73.31   324.19   392.03    14.37     0.44    4.41    0.20    5.93   0.08   0.78
sdh               0.00     0.13    0.02    0.23     2.21     5.05    56.82     0.00    1.15    0.65    1.19   0.21   0.01
md0               0.00     0.00 10292.92  479.37 143773.39 21428.63    30.67     0.00    0.00    0.00    0.00   0.00   0.00

avg-cpu:  %user   %nice %system %iowait  %steal   %idle
           0.26    0.26    1.29    1.03    0.00   97.17

Device:         rrqm/s   wrqm/s     r/s     w/s    rkB/s    wkB/s avgrq-sz avgqu-sz   await r_await w_await  svctm  %util
sda               0.00     0.00 1409.00    0.00  5636.00     0.00     8.00     0.15    0.11    0.11    0.00   0.11  14.90
sdb               0.00     0.00 1434.00    0.00  5736.00     0.00     8.00     0.18    0.12    0.12    0.00   0.12  17.80
sdc               0.00     0.00 1498.00    0.00  5992.00     0.00     8.00     0.15    0.10    0.10    0.00   0.10  15.50
sdd               0.00     0.00 1427.00    0.00  5708.00     0.00     8.00     0.16    0.11    0.11    0.00   0.11  15.70
sde               0.00     0.00 1448.00    0.00  5792.00     0.00     8.00     0.16    0.11    0.11    0.00   0.11  15.60
sdf               0.00     0.00 1451.00    0.00  5804.00     0.00     8.00     0.15    0.10    0.10    0.00   0.10  15.00
sdg               0.00     0.00   45.00    0.00   580.00     0.00    25.78     0.01    0.22    0.22    0.00   0.18   0.80
sdh               0.00     0.00    0.00    0.00     0.00     0.00     0.00     0.00    0.00    0.00    0.00   0.00   0.00
md0               0.00     0.00 8668.00    0.00 34672.00     0.00     8.00     0.00    0.00    0.00    0.00   0.00   0.00

avg-cpu:  %user   %nice %system %iowait  %steal   %idle
           0.51    0.00    1.03    1.28    0.00   97.18

Device:         rrqm/s   wrqm/s     r/s     w/s    rkB/s    wkB/s avgrq-sz avgqu-sz   await r_await w_await  svctm  %util
sda               0.00     0.00 1451.00    0.00  5804.00     0.00     8.00     0.14    0.10    0.10    0.00   0.10  14.20
sdb               0.00     0.00 1403.00    0.00  5612.00     0.00     8.00     0.14    0.10    0.10    0.00   0.10  14.20
sdc               0.00     0.00 1462.00    0.00  5848.00     0.00     8.00     0.15    0.10    0.10    0.00   0.10  14.70
sdd               0.00     0.00 1458.00    0.00  5832.00     0.00     8.00     0.17    0.11    0.11    0.00   0.11  16.50
sde               0.00     0.00 1444.00    0.00  5776.00     0.00     8.00     0.17    0.12    0.12    0.00   0.12  16.90
sdf               0.00     0.00 1498.00    0.00  5992.00     0.00     8.00     0.18    0.12    0.12    0.00   0.12  17.70
sdg               0.00     0.00    0.00    0.00     0.00     0.00     0.00     0.00    0.00    0.00    0.00   0.00   0.00
sdh               0.00     0.00    0.00    0.00     0.00     0.00     0.00     0.00    0.00    0.00    0.00   0.00   0.00
md0               0.00     0.00 8716.00    0.00 34864.00     0.00     8.00     0.00    0.00    0.00    0.00   0.00   0.00

avg-cpu:  %user   %nice %system %iowait  %steal   %idle
           0.76    0.00    1.78    1.02    0.00   96.44

Device:         rrqm/s   wrqm/s     r/s     w/s    rkB/s    wkB/s avgrq-sz avgqu-sz   await r_await w_await  svctm  %util
sda               0.00     0.00 1481.00    0.00  5924.00     0.00     8.00     0.14    0.10    0.10    0.00   0.10  14.40
sdb               0.00     0.00 1445.00    0.00  5780.00     0.00     8.00     0.16    0.11    0.11    0.00   0.11  16.10
sdc               0.00     0.00 1460.00    0.00  5840.00     0.00     8.00     0.15    0.10    0.10    0.00   0.10  15.30
sdd               0.00     0.00 1543.00    0.00  6172.00     0.00     8.00     0.16    0.11    0.11    0.00   0.11  16.30
sde               0.00     0.00 1542.00    0.00  6168.00     0.00     8.00     0.16    0.11    0.11    0.00   0.11  16.20
sdf               0.00     0.00 1477.00    0.00  5908.00     0.00     8.00     0.15    0.11    0.11    0.00   0.10  15.40
sdg               0.00     0.00    0.00    0.00     0.00     0.00     0.00     0.00    0.00    0.00    0.00   0.00   0.00
sdh               0.00     0.00    0.00    0.00     0.00     0.00     0.00     0.00    0.00    0.00    0.00   0.00   0.00
md0               0.00     0.00 8950.00    0.00 35800.00     0.00     8.00     0.00    0.00    0.00    0.00   0.00   0.00

avg-cpu:  %user   %nice %system %iowait  %steal   %idle
           0.26    0.00    1.03    1.29    0.00   97.43

Device:         rrqm/s   wrqm/s     r/s     w/s    rkB/s    wkB/s avgrq-sz avgqu-sz   await r_await w_await  svctm  %util
sda               0.00     0.00 1528.00    0.00  6112.00     0.00     8.00     0.15    0.10    0.10    0.00   0.10  15.30
sdb               0.00     0.00 1534.00    0.00  6136.00     0.00     8.00     0.14    0.09    0.09    0.00   0.09  13.50
sdc               0.00     0.00 1516.00    0.00  6064.00     0.00     8.00     0.16    0.10    0.10    0.00   0.10  15.70
sdd               0.00     0.00 1457.00    0.00  5828.00     0.00     8.00     0.16    0.11    0.11    0.00   0.11  16.20
sde               0.00     0.00 1468.00    0.00  5872.00     0.00     8.00     0.15    0.10    0.10    0.00   0.10  15.20
sdf               0.00     0.00 1467.00    0.00  5868.00     0.00     8.00     0.19    0.13    0.13    0.00   0.13  19.20
sdg               0.00     0.00    0.00    0.00     0.00     0.00     0.00     0.00    0.00    0.00    0.00   0.00   0.00
sdh               0.00     0.00    0.00    0.00     0.00     0.00     0.00     0.00    0.00    0.00    0.00   0.00   0.00
md0               0.00     0.00 8968.00    0.00 35872.00     0.00     8.00     0.00    0.00    0.00    0.00   0.00   0.00

avg-cpu:  %user   %nice %system %iowait  %steal   %idle
           0.26    0.00    1.29    1.03    0.00   97.43

Device:         rrqm/s   wrqm/s     r/s     w/s    rkB/s    wkB/s avgrq-sz avgqu-sz   await r_await w_await  svctm  %util
sda               0.00     0.00 1467.00    0.00  5868.00     0.00     8.00     0.16    0.11    0.11    0.00   0.11  16.10
sdb               0.00     0.00 1518.00    0.00  6072.00     0.00     8.00     0.15    0.10    0.10    0.00   0.10  15.50
sdc               0.00     0.00 1477.00    0.00  5908.00     0.00     8.00     0.17    0.11    0.11    0.00   0.11  16.50
sdd               0.00     0.00 1481.00    0.00  5924.00     0.00     8.00     0.15    0.10    0.10    0.00   0.10  15.00
sde               0.00     0.00 1434.00    0.00  5736.00     0.00     8.00     0.15    0.11    0.11    0.00   0.11  15.50
sdf               0.00     0.00 1430.00    0.00  5720.00     0.00     8.00     0.15    0.11    0.11    0.00   0.11  15.30
sdg               0.00     0.00    0.00    0.00     0.00     0.00     0.00     0.00    0.00    0.00    0.00   0.00   0.00
sdh               0.00     0.00    0.00    0.00     0.00     0.00     0.00     0.00    0.00    0.00    0.00   0.00   0.00
md0               0.00     0.00 8808.00    0.00 35232.00     0.00     8.00     0.00    0.00    0.00    0.00   0.00   0.00

avg-cpu:  %user   %nice %system %iowait  %steal   %idle
           0.51    0.00    1.53    1.02    0.00   96.94

Device:         rrqm/s   wrqm/s     r/s     w/s    rkB/s    wkB/s avgrq-sz avgqu-sz   await r_await w_await  svctm  %util
sda               0.00     0.00 1492.00    0.00  5968.00     0.00     8.00     0.13    0.09    0.09    0.00   0.09  13.40
sdb               0.00     0.00 1500.00    0.00  6000.00     0.00     8.00     0.16    0.11    0.11    0.00   0.11  16.00
sdc               0.00     0.00 1471.00    0.00  5884.00     0.00     8.00     0.18    0.12    0.12    0.00   0.12  17.90
sdd               0.00     0.00 1505.00    0.00  6020.00     0.00     8.00     0.16    0.11    0.11    0.00   0.11  16.40
sde               0.00     0.00 1513.00    0.00  6052.00     0.00     8.00     0.15    0.10    0.10    0.00   0.10  14.60
sdf               0.00     0.00 1481.00    0.00  5924.00     0.00     8.00     0.15    0.10    0.10    0.00   0.10  15.40
sdg               0.00     0.00    0.00    0.00     0.00     0.00     0.00     0.00    0.00    0.00    0.00   0.00   0.00
sdh               0.00     0.00    0.00    0.00     0.00     0.00     0.00     0.00    0.00    0.00    0.00   0.00   0.00
md0               0.00     0.00 8961.00    0.00 35844.00     0.00     8.00     0.00    0.00    0.00    0.00   0.00   0.00

avg-cpu:  %user   %nice %system %iowait  %steal   %idle
           0.26    0.00    1.03    1.03    0.00   97.68

Device:         rrqm/s   wrqm/s     r/s     w/s    rkB/s    wkB/s avgrq-sz avgqu-sz   await r_await w_await  svctm  %util
sda               0.00     0.00 1500.00    0.00  6000.00     0.00     8.00     0.15    0.10    0.10    0.00   0.10  14.80
sdb               0.00     0.00 1558.00    0.00  6232.00     0.00     8.00     0.15    0.10    0.10    0.00   0.10  15.40
sdc               0.00     0.00 1484.00    0.00  5936.00     0.00     8.00     0.16    0.11    0.11    0.00   0.11  16.20
sdd               0.00     0.00 1489.00    0.00  5956.00     0.00     8.00     0.16    0.11    0.11    0.00   0.11  16.00
sde               0.00     0.00 1516.00    0.00  6064.00     0.00     8.00     0.17    0.11    0.11    0.00   0.11  17.10
sdf               0.00     0.00 1405.00    0.00  5620.00     0.00     8.00     0.17    0.12    0.12    0.00   0.12  16.70
sdg               0.00     0.00    0.00    0.00     0.00     0.00     0.00     0.00    0.00    0.00    0.00   0.00   0.00
sdh               0.00     0.00    0.00    0.00     0.00     0.00     0.00     0.00    0.00    0.00    0.00   0.00   0.00
md0               0.00     0.00 8954.00    0.00 35816.00     0.00     8.00     0.00    0.00    0.00    0.00   0.00   0.00

avg-cpu:  %user   %nice %system %iowait  %steal   %idle
           0.26    0.00    1.54    1.03    0.00   97.18

Device:         rrqm/s   wrqm/s     r/s     w/s    rkB/s    wkB/s avgrq-sz avgqu-sz   await r_await w_await  svctm  %util
sda               0.00     0.00 1489.00    0.00  5956.00     0.00     8.00     0.17    0.11    0.11    0.00   0.11  16.80
sdb               0.00     0.00 1476.00    0.00  5904.00     0.00     8.00     0.13    0.09    0.09    0.00   0.09  13.00
sdc               0.00     0.00 1562.00    0.00  6248.00     0.00     8.00     0.14    0.09    0.09    0.00   0.09  14.40
sdd               0.00     0.00 1488.00    0.00  5952.00     0.00     8.00     0.16    0.11    0.11    0.00   0.11  15.80
sde               0.00     0.00 1436.00    0.00  5744.00     0.00     8.00     0.15    0.10    0.10    0.00   0.10  14.60
sdf               0.00     0.00 1515.00    0.00  6060.00     0.00     8.00     0.20    0.13    0.13    0.00   0.13  20.00
sdg               0.00     0.00    0.00    0.00     0.00     0.00     0.00     0.00    0.00    0.00    0.00   0.00   0.00
sdh               0.00     0.00    0.00    0.00     0.00     0.00     0.00     0.00    0.00    0.00    0.00   0.00   0.00
md0               0.00     0.00 8965.00    0.00 35860.00     0.00     8.00     0.00    0.00    0.00    0.00   0.00   0.00

avg-cpu:  %user   %nice %system %iowait  %steal   %idle
           0.51    0.00    1.03    1.28    0.00   97.18

Device:         rrqm/s   wrqm/s     r/s     w/s    rkB/s    wkB/s avgrq-sz avgqu-sz   await r_await w_await  svctm  %util
sda               0.00     0.00 1485.00    0.00  5940.00     0.00     8.00     0.15    0.10    0.10    0.00   0.10  15.40
sdb               0.00     0.00 1476.00    0.00  5904.00     0.00     8.00     0.15    0.10    0.10    0.00   0.10  14.70
sdc               0.00     0.00 1447.00    0.00  5788.00     0.00     8.00     0.14    0.10    0.10    0.00   0.10  13.90
sdd               0.00     0.00 1495.00    0.00  5980.00     0.00     8.00     0.15    0.10    0.10    0.00   0.10  14.70
sde               0.00     0.00 1540.00    0.00  6160.00     0.00     8.00     0.17    0.11    0.11    0.00   0.11  17.40
sdf               0.00     0.00 1499.00    0.00  5996.00     0.00     8.00     0.19    0.13    0.13    0.00   0.13  18.90
sdg               0.00     2.00    5.00    6.00    20.00    60.00    14.55     0.01    0.45    0.40    0.50   0.18   0.20
sdh               0.00     0.00    0.00    0.00     0.00     0.00     0.00     0.00    0.00    0.00    0.00   0.00   0.00
md0               0.00     0.00 8941.00    0.00 35764.00     0.00     8.00     0.00    0.00    0.00    0.00   0.00   0.00

avg-cpu:  %user   %nice %system %iowait  %steal   %idle
           0.26    0.00    1.53    1.02    0.00   97.19

Device:         rrqm/s   wrqm/s     r/s     w/s    rkB/s    wkB/s avgrq-sz avgqu-sz   await r_await w_await  svctm  %util
sda               0.00     0.00 1484.00    0.00  5936.00     0.00     8.00     0.16    0.11    0.11    0.00   0.11  15.90
sdb               0.00     0.00 1459.00    0.00  5836.00     0.00     8.00     0.14    0.10    0.10    0.00   0.10  14.20
sdc               0.00     0.00 1476.00    0.00  5904.00     0.00     8.00     0.15    0.11    0.11    0.00   0.11  15.50
sdd               0.00     0.00 1499.00    0.00  5996.00     0.00     8.00     0.17    0.11    0.11    0.00   0.11  16.50
sde               0.00     0.00 1523.00    0.00  6092.00     0.00     8.00     0.16    0.10    0.10    0.00   0.10  15.70
sdf               0.00     0.00 1486.00    0.00  5944.00     0.00     8.00     0.16    0.11    0.11    0.00   0.11  15.90
sdg               0.00     0.00    0.00    0.00     0.00     0.00     0.00     0.00    0.00    0.00    0.00   0.00   0.00
sdh               0.00     0.00    0.00    0.00     0.00     0.00     0.00     0.00    0.00    0.00    0.00   0.00   0.00
md0               0.00     0.00 8928.00    0.00 35712.00     0.00     8.00     0.00    0.00    0.00    0.00   0.00   0.00

avg-cpu:  %user   %nice %system %iowait  %steal   %idle
           0.26    0.26    1.54    4.10    0.00   93.85

Device:         rrqm/s   wrqm/s     r/s     w/s    rkB/s    wkB/s avgrq-sz avgqu-sz   await r_await w_await  svctm  %util
sda               0.00     0.00 1542.00    0.00  6168.00     0.00     8.00     0.16    0.11    0.11    0.00   0.11  16.20
sdb               0.00     0.00 1536.00    0.00  6144.00     0.00     8.00     0.15    0.10    0.10    0.00   0.10  15.20
sdc               0.00     0.00 1529.00    0.00  6116.00     0.00     8.00     0.16    0.11    0.11    0.00   0.11  16.40
sdd               0.00     0.00 1449.00    0.00  5796.00     0.00     8.00     0.15    0.10    0.10    0.00   0.10  14.90
sde               0.00     0.00 1433.00    0.00  5732.00     0.00     8.00     0.17    0.12    0.12    0.00   0.12  16.50
sdf               0.00     0.00 1484.00    0.00  5936.00     0.00     8.00     0.16    0.11    0.11    0.00   0.11  16.30
sdg               0.00     0.00    2.00    0.00     8.00     0.00     8.00     0.00    0.00    0.00    0.00   0.00   0.00
sdh               0.00     0.00    0.00    0.00     0.00     0.00     0.00     0.00    0.00    0.00    0.00   0.00   0.00
md0               0.00     0.00 8973.00    0.00 35892.00     0.00     8.00     0.00    0.00    0.00    0.00   0.00   0.00

avg-cpu:  %user   %nice %system %iowait  %steal   %idle
           0.51    0.00    2.03   21.32    0.00   76.14

Device:         rrqm/s   wrqm/s     r/s     w/s    rkB/s    wkB/s avgrq-sz avgqu-sz   await r_await w_await  svctm  %util
sda               0.00     0.00 1495.00    0.00  5980.00     0.00     8.00     0.15    0.10    0.10    0.00   0.10  15.20
sdb               0.00     0.00 1493.00    0.00  5972.00     0.00     8.00     0.17    0.12    0.12    0.00   0.12  17.30
sdc               0.00     0.00 1441.00    0.00  5764.00     0.00     8.00     0.14    0.09    0.09    0.00   0.09  13.50
sdd               0.00     0.00 1566.00    0.00  6264.00     0.00     8.00     0.17    0.11    0.11    0.00   0.11  17.20
sde               0.00     0.00 1452.00    0.00  5808.00     0.00     8.00     0.16    0.11    0.11    0.00   0.11  15.80
sdf               0.00     0.00 1508.00    0.00  6032.00     0.00     8.00     0.16    0.10    0.10    0.00   0.10  15.80
sdg               0.00     0.00    0.00    0.00     0.00     0.00     0.00     0.00    0.00    0.00    0.00   0.00   0.00
sdh               0.00     0.00    0.00    0.00     0.00     0.00     0.00     0.00    0.00    0.00    0.00   0.00   0.00
md0               0.00     0.00 8956.00    0.00 35824.00     0.00     8.00     0.00    0.00    0.00    0.00   0.00   0.00

avg-cpu:  %user   %nice %system %iowait  %steal   %idle
           0.26    0.00    2.04    5.36    0.00   92.35

Device:         rrqm/s   wrqm/s     r/s     w/s    rkB/s    wkB/s avgrq-sz avgqu-sz   await r_await w_await  svctm  %util
sda               0.00     0.00 1518.00    0.00  6072.00     0.00     8.00     0.17    0.11    0.11    0.00   0.11  16.60
sdb               0.00     0.00 1465.00    0.00  5860.00     0.00     8.00     0.15    0.10    0.10    0.00   0.10  15.00
sdc               0.00     0.00 1480.00    0.00  5920.00     0.00     8.00     0.15    0.10    0.10    0.00   0.10  14.80
sdd               0.00     0.00 1456.00    0.00  5824.00     0.00     8.00     0.14    0.10    0.10    0.00   0.10  14.50
sde               0.00     0.00 1437.00    0.00  5748.00     0.00     8.00     0.16    0.11    0.11    0.00   0.11  16.20
sdf               0.00     0.00 1446.00    0.00  5784.00     0.00     8.00     0.15    0.10    0.10    0.00   0.10  14.60
sdg               0.00     0.00    0.00    0.00     0.00     0.00     0.00     0.00    0.00    0.00    0.00   0.00   0.00
sdh               0.00     0.00    0.00    0.00     0.00     0.00     0.00     0.00    0.00    0.00    0.00   0.00   0.00
md0               0.00     0.00 8801.00    0.00 35204.00     0.00     8.00     0.00    0.00    0.00    0.00   0.00   0.00

avg-cpu:  %user   %nice %system %iowait  %steal   %idle
           0.51    0.00    1.78    1.02    0.00   96.69

Device:         rrqm/s   wrqm/s     r/s     w/s    rkB/s    wkB/s avgrq-sz avgqu-sz   await r_await w_await  svctm  %util
sda               0.00     0.00 1494.00    0.00  5976.00     0.00     8.00     0.14    0.10    0.10    0.00   0.10  14.30
sdb               0.00     0.00 1452.00    0.00  5808.00     0.00     8.00     0.14    0.10    0.10    0.00   0.10  14.10
sdc               0.00     0.00 1505.00    0.00  6020.00     0.00     8.00     0.17    0.11    0.11    0.00   0.11  16.50
sdd               0.00     0.00 1502.00    0.00  6008.00     0.00     8.00     0.16    0.10    0.10    0.00   0.10  15.60
sde               0.00     0.00 1547.00    0.00  6188.00     0.00     8.00     0.15    0.10    0.10    0.00   0.10  15.50
sdf               0.00     0.00 1469.00    0.00  5876.00     0.00     8.00     0.17    0.12    0.12    0.00   0.12  17.10
sdg               0.00     0.00    0.00    0.00     0.00     0.00     0.00     0.00    0.00    0.00    0.00   0.00   0.00
sdh               0.00     0.00    0.00    0.00     0.00     0.00     0.00     0.00    0.00    0.00    0.00   0.00   0.00
md0               0.00     0.00 8969.00    0.00 35876.00     0.00     8.00     0.00    0.00    0.00    0.00   0.00   0.00

avg-cpu:  %user   %nice %system %iowait  %steal   %idle
           0.51    0.00    1.54    1.03    0.00   96.92

Device:         rrqm/s   wrqm/s     r/s     w/s    rkB/s    wkB/s avgrq-sz avgqu-sz   await r_await w_await  svctm  %util
sda               0.00     0.00 1508.00    0.00  6032.00     0.00     8.00     0.15    0.10    0.10    0.00   0.10  15.20
sdb               0.00     0.00 1452.00    0.00  5808.00     0.00     8.00     0.14    0.09    0.09    0.00   0.09  13.50
sdc               0.00     0.00 1436.00    0.00  5744.00     0.00     8.00     0.17    0.12    0.12    0.00   0.12  16.90
sdd               0.00     0.00 1462.00    0.00  5848.00     0.00     8.00     0.16    0.11    0.11    0.00   0.11  15.60
sde               0.00     0.00 1549.00    0.00  6196.00     0.00     8.00     0.15    0.10    0.10    0.00   0.10  14.80
sdf               0.00     0.00 1555.00    0.00  6220.00     0.00     8.00     0.17    0.11    0.11    0.00   0.11  16.80
sdg               0.00     0.00   15.00    0.00   292.00     0.00    38.93     0.01    0.33    0.33    0.00   0.33   0.50
sdh               0.00     0.00    0.00    0.00     0.00     0.00     0.00     0.00    0.00    0.00    0.00   0.00   0.00
md0               0.00     0.00 8963.00    0.00 35852.00     0.00     8.00     0.00    0.00    0.00    0.00   0.00   0.00

avg-cpu:  %user   %nice %system %iowait  %steal   %idle
           0.51    0.00    1.53    1.02    0.00   96.94

Device:         rrqm/s   wrqm/s     r/s     w/s    rkB/s    wkB/s avgrq-sz avgqu-sz   await r_await w_await  svctm  %util
sda               0.00     0.00 1511.00    0.00  6044.00     0.00     8.00     0.14    0.09    0.09    0.00   0.09  13.80
sdb               0.00     0.00 1478.00    0.00  5912.00     0.00     8.00     0.12    0.08    0.08    0.00   0.08  12.30
sdc               0.00     0.00 1519.00    0.00  6076.00     0.00     8.00     0.15    0.10    0.10    0.00   0.10  15.50
sdd               0.00     0.00 1496.00    0.00  5984.00     0.00     8.00     0.18    0.12    0.12    0.00   0.12  17.70
sde               0.00     0.00 1447.00    0.00  5788.00     0.00     8.00     0.17    0.12    0.12    0.00   0.12  17.30
sdf               0.00     0.00 1499.00    0.00  5996.00     0.00     8.00     0.16    0.11    0.11    0.00   0.11  16.00
sdg               0.00     0.00    0.00    0.00     0.00     0.00     0.00     0.00    0.00    0.00    0.00   0.00   0.00
sdh               0.00     0.00    0.00    0.00     0.00     0.00     0.00     0.00    0.00    0.00    0.00   0.00   0.00
md0               0.00     0.00 8949.00    0.00 35796.00     0.00     8.00     0.00    0.00    0.00    0.00   0.00   0.00

avg-cpu:  %user   %nice %system %iowait  %steal   %idle
           0.51    0.00    2.03    1.02    0.00   96.45

Device:         rrqm/s   wrqm/s     r/s     w/s    rkB/s    wkB/s avgrq-sz avgqu-sz   await r_await w_await  svctm  %util
sda               0.00     0.00 1501.00    0.00  6004.00     0.00     8.00     0.14    0.09    0.09    0.00   0.09  14.00
sdb               0.00     0.00 1494.00    0.00  5976.00     0.00     8.00     0.15    0.10    0.10    0.00   0.10  14.60
sdc               0.00     0.00 1502.00    0.00  6008.00     0.00     8.00     0.16    0.11    0.11    0.00   0.11  16.20
sdd               0.00     0.00 1506.00    0.00  6024.00     0.00     8.00     0.16    0.11    0.11    0.00   0.11  16.20
sde               0.00     0.00 1528.00    0.00  6112.00     0.00     8.00     0.16    0.11    0.11    0.00   0.10  16.00
sdf               0.00     0.00 1432.00    0.00  5728.00     0.00     8.00     0.15    0.11    0.11    0.00   0.11  15.30
sdg               0.00     0.00    0.00    0.00     0.00     0.00     0.00     0.00    0.00    0.00    0.00   0.00   0.00
sdh               0.00     0.00    0.00    0.00     0.00     0.00     0.00     0.00    0.00    0.00    0.00   0.00   0.00
md0               0.00     0.00 8963.00    0.00 35852.00     0.00     8.00     0.00    0.00    0.00    0.00   0.00   0.00

avg-cpu:  %user   %nice %system %iowait  %steal   %idle
           0.51    0.00    1.53    1.02    0.00   96.93

Device:         rrqm/s   wrqm/s     r/s     w/s    rkB/s    wkB/s avgrq-sz avgqu-sz   await r_await w_await  svctm  %util
sda               0.00     0.00 1431.00    0.00  5724.00     0.00     8.00     0.14    0.10    0.10    0.00   0.10  14.50
sdb               0.00     0.00 1448.00    0.00  5792.00     0.00     8.00     0.15    0.10    0.10    0.00   0.10  15.00
sdc               0.00     0.00 1510.00    0.00  6040.00     0.00     8.00     0.16    0.11    0.11    0.00   0.11  16.10
sdd               0.00     0.00 1561.00    0.00  6244.00     0.00     8.00     0.17    0.11    0.11    0.00   0.11  17.30
sde               0.00     0.00 1518.00    0.00  6072.00     0.00     8.00     0.16    0.11    0.11    0.00   0.11  16.00
sdf               0.00     0.00 1459.00    0.00  5836.00     0.00     8.00     0.14    0.10    0.10    0.00   0.10  13.90
sdg               0.00     0.00    0.00    0.00     0.00     0.00     0.00     0.00    0.00    0.00    0.00   0.00   0.00
sdh               0.00     0.00    0.00    0.00     0.00     0.00     0.00     0.00    0.00    0.00    0.00   0.00   0.00
md0               0.00     0.00 8927.00    0.00 35708.00     0.00     8.00     0.00    0.00    0.00    0.00   0.00   0.00

avg-cpu:  %user   %nice %system %iowait  %steal   %idle
           0.26    0.00    1.28    1.03    0.00   97.44

Device:         rrqm/s   wrqm/s     r/s     w/s    rkB/s    wkB/s avgrq-sz avgqu-sz   await r_await w_await  svctm  %util
sda               0.00     0.00 1476.00    0.00  5904.00     0.00     8.00     0.15    0.10    0.10    0.00   0.10  14.70
sdb               0.00     0.00 1545.00    0.00  6180.00     0.00     8.00     0.15    0.10    0.10    0.00   0.10  15.00
sdc               0.00     0.00 1506.00    0.00  6024.00     0.00     8.00     0.17    0.11    0.11    0.00   0.11  16.70
sdd               0.00     0.00 1491.00    0.00  5964.00     0.00     8.00     0.16    0.11    0.11    0.00   0.11  15.90
sde               0.00     0.00 1490.00    0.00  5960.00     0.00     8.00     0.15    0.10    0.10    0.00   0.10  15.30
sdf               0.00     0.00 1480.00    0.00  5920.00     0.00     8.00     0.16    0.11    0.11    0.00   0.11  15.60
sdg               0.00     0.00    0.00    0.00     0.00     0.00     0.00     0.00    0.00    0.00    0.00   0.00   0.00
sdh               0.00     0.00    0.00    0.00     0.00     0.00     0.00     0.00    0.00    0.00    0.00   0.00   0.00
md0               0.00     0.00 8987.00    0.00 35948.00     0.00     8.00     0.00    0.00    0.00    0.00   0.00   0.00

avg-cpu:  %user   %nice %system %iowait  %steal   %idle
           0.51    0.00    1.28    1.03    0.00   97.18

Device:         rrqm/s   wrqm/s     r/s     w/s    rkB/s    wkB/s avgrq-sz avgqu-sz   await r_await w_await  svctm  %util
sda               0.00     0.00 1501.00    0.00  6004.00     0.00     8.00     0.16    0.11    0.11    0.00   0.11  16.20
sdb               0.00     0.00 1565.00    0.00  6260.00     0.00     8.00     0.17    0.11    0.11    0.00   0.11  17.50
sdc               0.00     0.00 1420.00    0.00  5680.00     0.00     8.00     0.14    0.10    0.10    0.00   0.10  13.70
sdd               0.00     0.00 1434.00    0.00  5736.00     0.00     8.00     0.13    0.09    0.09    0.00   0.09  13.20
sde               0.00     0.00 1470.00    0.00  5880.00     0.00     8.00     0.15    0.10    0.10    0.00   0.10  15.40
sdf               0.00     0.00 1529.00    0.00  6116.00     0.00     8.00     0.18    0.12    0.12    0.00   0.12  17.80
sdg               0.00     0.00    0.00    0.00     0.00     0.00     0.00     0.00    0.00    0.00    0.00   0.00   0.00
sdh               0.00     0.00    0.00    0.00     0.00     0.00     0.00     0.00    0.00    0.00    0.00   0.00   0.00
md0               0.00     0.00 8919.00    0.00 35676.00     0.00     8.00     0.00    0.00    0.00    0.00   0.00   0.00

