Linux 4.17.2 (bench) 	08/03/2018 	_x86_64_	(4 CPU)

avg-cpu:  %user   %nice %system %iowait  %steal   %idle
          10.25    0.02    4.18    2.75    0.00   82.80

Device:         rrqm/s   wrqm/s     r/s     w/s    rkB/s    wkB/s avgrq-sz avgqu-sz   await r_await w_await  svctm  %util
sda              53.50     4.18 1732.78  101.00 21400.19  3090.51    26.71     1.05    0.57    0.26    5.92   0.06  11.07
sdb              53.30     4.14 1732.79  101.14 21389.72  3087.22    26.69     1.05    0.57    0.26    5.85   0.06  10.94
sdc              91.00     4.20 1692.98  100.70 21381.94  3089.65    27.29     1.47    0.82    0.44    7.12   0.08  14.45
sdd              84.54     4.17 1698.63  100.76 21367.03  3085.90    27.18     1.47    0.82    0.43    7.33   0.08  14.54
sde              86.54     4.21 1703.72  100.86 21426.35  3090.09    27.17     1.50    0.83    0.44    7.44   0.08  14.56
sdf              83.69     4.18 1705.82  100.81 21407.83  3087.00    27.12     1.54    0.85    0.43    7.90   0.08  14.60
sdg               0.00     3.17   26.87   73.25   326.22   392.01    14.35     0.44    4.39    0.20    5.93   0.08   0.79
sdh               0.00     0.13    0.02    0.23     2.18     4.99    56.82     0.00    1.15    0.65    1.19   0.21   0.01
md0               0.00     0.00 10726.76  473.23 146711.02 21154.14    29.98     0.00    0.00    0.00    0.00   0.00   0.00

avg-cpu:  %user   %nice %system %iowait  %steal   %idle
           0.80    0.00    8.29    1.07    0.00   89.84

Device:         rrqm/s   wrqm/s     r/s     w/s    rkB/s    wkB/s avgrq-sz avgqu-sz   await r_await w_await  svctm  %util
sda            4754.00     0.00 10338.00    0.00 60296.00     0.00    11.66     3.33    0.32    0.32    0.00   0.02  20.80
sdb            4491.00     0.00 10458.00    0.00 59780.00     0.00    11.43     3.57    0.34    0.34    0.00   0.02  22.00
sdc            4712.00     0.00 10559.00    0.00 61368.00     0.00    11.62     4.90    0.46    0.46    0.00   0.03  31.20
sdd            4799.00     0.00 10512.00    0.00 61244.00     0.00    11.65     4.46    0.42    0.42    0.00   0.03  32.30
sde            4790.00     0.00 10293.00    0.00 60332.00     0.00    11.72     4.37    0.42    0.42    0.00   0.03  30.60
sdf            4894.00     0.00 10611.00    0.00 62020.00     0.00    11.69     4.61    0.43    0.43    0.00   0.03  31.90
sdg               0.00     2.00    0.00   12.00     0.00   168.00    28.00     0.00    0.25    0.00    0.25   0.08   0.10
sdh               0.00     0.00    0.00    0.00     0.00     0.00     0.00     0.00    0.00    0.00    0.00   0.00   0.00
md0               0.00     0.00 91217.00    0.00 364868.00     0.00     8.00     0.00    0.00    0.00    0.00   0.00   0.00

avg-cpu:  %user   %nice %system %iowait  %steal   %idle
           1.06    0.00    8.51    1.06    0.00   89.36

Device:         rrqm/s   wrqm/s     r/s     w/s    rkB/s    wkB/s avgrq-sz avgqu-sz   await r_await w_await  svctm  %util
sda            4580.00     0.00 10281.00    0.00 59516.00     0.00    11.58     3.37    0.33    0.33    0.00   0.02  22.30
sdb            4926.00     0.00 10183.00    0.00 60452.00     0.00    11.87     2.92    0.29    0.29    0.00   0.02