Linux 4.17.2 (bench) 	08/03/2018 	_x86_64_	(4 CPU)

avg-cpu:  %user   %nice %system %iowait  %steal   %idle
          10.26    0.02    4.14    2.68    0.00   82.90

Device:         rrqm/s   wrqm/s     r/s     w/s    rkB/s    wkB/s avgrq-sz avgqu-sz   await r_await w_await  svctm  %util
sda              50.34     4.20 1704.52  101.55 21229.93  3107.19    26.95     1.04    0.58    0.26    5.92   0.06  10.95
sdb              50.17     4.16 1704.50  101.68 21219.48  3103.88    26.93     1.04    0.58    0.26    5.85   0.06  10.82
sdc              87.92     4.22 1664.64  101.24 21211.63  3106.32    27.54     1.46    0.83    0.44    7.12   0.08  14.31
sdd              81.42     4.19 1670.33  101.31 21196.66  3102.55    27.43     1.47    0.83    0.43    7.33   0.08  14.40
sde              83.43     4.24 1675.40  101.40 21256.12  3106.76    27.42     1.49    0.84    0.44    7.44   0.08  14.43
sdf              80.57     4.21 1677.52  101.35 21237.43  3103.65    27.37     1.53    0.86    0.44    7.90   0.08  14.46
sdg               0.00     3.17   26.65   73.28   325.33   392.02    14.36     0.44    4.40    0.20    5.93   0.08   0.78
sdh               0.00     0.13    0.02    0.23     2.19     5.01    56.82     0.00    1.15    0.65    1.19   0.21   0.01
md0               0.00     0.00 10537.91  475.79 145495.03 21268.27    30.28     0.00    0.00    0.00    0.00   0.00   0.00

avg-cpu:  %user   %nice %system %iowait  %steal   %idle
           1.39    0.00   16.11    1.39    0.00   81.11

Device:         rrqm/s   wrqm/s     r/s     w/s    rkB/s    wkB/s avgrq-sz avgqu-sz   await r_await w_await  svctm  %util
sda               3.00     0.00 20210.00    0.00 80852.00     0.00     8.00     3.92    0.19    0.19    0.00   0.02  40.10
sdb               2.00     0.00 19771.00    0.00 79092.00     0.00     8.00     3.84    0.19    0.19    0.00   0.02  38.30
sdc               2.00     0.00 19801.00    0.00 79212.00     0.00     8.00     4.69    0.24    0.24    0.00   0.03  50.70
sdd               1.00     0.00 20148.00    0.00 80596.00     0.00     8.00     4.62    0.23    0.23    0.00   0.03  50.70
sde               3.00     0.00 20239.00    0.00 80968.00     0.00     8.00     5.16    0.25    0.25    0.00   0.03  51.60
sdf               1.00     0.00 20284.00    0.00 81140.00     0.00     8.00     4.97    0.25    0.25    0.00   0.03  52.10
sdg               0.00     0.00    3.00 1446.00    88.00  7428.00    10.37     8.41    5.80    0.33    5.81   0.04   6.40
sdh               0.00     0.00    0.00    0.00     0.00     0.00     0.00     0.00    0.00    0.00    0.00   0.00   0.00
md0               0.00     0.00 120508.00    0.00 482032.00     0.00     8.00     0.00    0.00    0.00    0.00   0.00   0.00

avg-cpu:  %user   %nice %system %iowait  %steal   %idle
           1.26    0.00   21.97    1.52    0.00   75.25

Device:         rrqm/s   wrqm/s     r/s     w/s    rkB/s    wkB/s avgrq-sz avgqu-sz   await r_await w_await  svctm  %util
sda              16.00     0.00 19895.00    0.00 79644.00     0.00     8.01     3.81    0.19    0.19    0.00   0.02  38.80
sdb               6.00     0.00 19808.00    0.00 79256.00     0.00     8.00     3.81    0.19    0.19    0.00   0.02  39.30
sdc              16.00     0.00 20039.00    0.00 80220.00     0.00     8.01     4.91    0.25    0.25    0.00   0.03  51.90
sdd               9.00     0.00 19430.00    0.00 77756.00     0.00     8.00     4.74    0.24    0.24    0.00   0.03  50.60
sde               5.00     0.00 19812.00    0.00 79268.00     0.00     8.00     4.98    0.25    0.25    0.00   0.02  48.70
sdf               9.00     0.00 19912.00    0.00 79684.00     0.00     8.00     4.75    0.24    0.24    0.00   0.02  47.80
sdg               0.00     0.00    0.00    0.00     0.00     0.00     0.00     0.00    0.00    0.00    0.00   0.00   0.00
sdh               0.00     0.00    0.00    0.00     0.00     0.00     0.00     0.00    0.00    0.00    0.00   0.00   0.00
md0               0.00     0.00 118963.00    0.00 475852.00     0.00     8.00     0.00    0.00    0.00    0.00   0.00   0.00

avg-cpu:  %user   %nice %system %iowait  %steal   %idle
           1.56    0.00   21.35    0.26    0.00   76.82

Device:         rrqm/s   wrqm/s     r/s     w/s    rkB/s    wkB/s avgrq-sz avgqu-sz   await r_await w_await  svctm  %util
sda              27.00     0.00 21154.00    0.00 84724.00     0.00     8.01     4.83    0.23    0.23    0.00   0.02  40.90
sdb              17.00     0.00 21328.00    0.00 85380.00     0.00     8.01     4.39    0.21    0.21    0.00   0.02  38.60
sdc               3.00     0.00 20718.00    0.00 82884.00     0.00     8.00     5.20    0.25    0.25    0.00   0.02  48.40
sdd              28.00     0.00 20907.00    0.00 83740.00     0.00     8.01     5.09    0.24    0.24    0.00   0.02  49.10
sde              19.00     0.00 21090.00    0.00 84436.00     0.00     8.01     5.34    0.25    0.25    0.00   0.02  52.30
sdf              27.00     0.00 21152.00    0.00 84716.00     0.00     8.01     6.27    0.30    0.30    0.00   0.02  52.70
sdg               0.00     0.00    6.00    0.00   104.00     0.00    34.67     0.00    0.00    0.00    0.00   0.00   0.00
sdh               0.00     0.00    0.00    0.00     0.00     0.00     0.00     0.00    0.00    0.00    0.00   0.00   0.00
md0               0.00     0.00 126432.00    0.00 505728.00     0.00     8.00     0.00    0.00    0.00    0.00   0.00   0.00

avg-cpu:  %user   %nice %system %iowait  %steal   %idle
           1.30    0.00   21.76    0.52    0.00   76.42

Device:         rrqm/s   wrqm/s     r/s     w/s    rkB/s    wkB/s avgrq-sz avgqu-sz   await r_await w_await  svctm  %util
sda              14.00     0.00 20978.00    0.00 83968.00     0.00     8.01     4.40    0.21    0.21    0.00   0.02  39.70
sdb              24.00     0.00 21210.00    0.00 84936.00     0.00     8.01     4.49    0.21    0.21    0.00   0.02  39.70
sdc               8.00     0.00 20673.00    0.00 82724.00     0.00     8.00     5.69    0.28    0.28    0.00   0.03  53.00
sdd              26.00     0.00 21003.00    0.00 84116.00     0.00     8.01     5.70    0.27    0.27    0.00   0.03  55.20
sde              17.00     0.00 21127.00    0.00 84576.00     0.00     8.01     5.75    0.27    0.27    0.00   0.03  54.00
sdf              23.00     0.00 20951.00    0.00 83896.00     0.00     8.01     5.72    0.27    0.27    0.00   0.03  53.30
sdg               0.00     0.00    0.00    0.00     0.00     0.00     0.00     0.00    0.00    0.00    0.00   0.00   0.00
sdh               0.00     0.00    0.00    0.00     0.00     0.00     0.00     0.00    0.00    0.00    0.00   0.00   0.00
md0               0.00     0.00 126045.00    0.00 504180.00     0.00     8.00     0.00    0.00    0.00    0.00   0.00   0.00

avg-cpu:  %user   %nice %system %iowait  %steal   %idle
           1.32    0.00   20.79    0.26    0.00   77.63

Device:         rrqm/s   wrqm/s     r/s     w/s    rkB/s    wkB/s avgrq-sz avgqu-sz   await r_await w_await  svctm  %util
sda              19.00     0.00 20832.00    0.00 83404.00     0.00     8.01     4.37    0.21    0.21    0.00   0.02  40.10
sdb              14.00     0.00 20942.00    0.00 83824.00     0.00     8.01     4.36    0.21    0.21    0.00   0.02  38.20
sdc              30.00     0.00 20656.00    0.00 82744.00     0.00     8.01     5.55    0.27    0.27    0.00   0.03  52.30
sdd              15.00     0.00 20655.00    0.00 82680.00     0.00     8.01     5.51    0.27    0.27    0.00   0.03  52.60
sde              36.00     0.00 20805.00    0.00 83364.00     0.00     8.01     5.58    0.27    0.27    0.00   0.02  51.30
sdf              23.00     0.00 20882.00    0.00 83620.00     0.00     8.01     5.77    0.28    0.28    0.00   0.03  53.40
sdg               0.00     0.00    0.00    0.00     0.00     0.00     0.00     0.00    0.00    0.00    0.00   0.00   0.00
sdh               0.00     0.00    0.00    0.00     0.00     0.00     0.00     0.00    0.00    0.00    0.00   0.00   0.00
md0               0.00     0.00 124933.00    0.00 499732.00     0.00     8.00     0.00    0.00    0.00    0.00   0.00   0.00

avg-cpu:  %user   %nice %system %iowait  %steal   %idle
           1.03    0.00   22.56    0.51    0.00   75.90

Device:         rrqm/s   wrqm/s     r/s     w/s    rkB/s    wkB/s avgrq-sz avgqu-sz   await r_await w_await  svctm  %util
sda              14.00     0.00 21005.00    0.00 84076.00     0.00     8.01     4.54    0.22    0.22    0.00   0.02  38.40
sdb              13.00     0.00 20885.00    0.00 83592.00     0.00     8.00     4.77    0.23    0.23    0.00   0.02  40.30
sdc              17.00     0.00 20875.00    0.00 83568.00     0.00     8.01     5.61    0.27    0.27    0.00   0.03  53.10
sdd               6.00     0.00 20902.00    0.00 83632.00     0.00     8.00     5.23    0.25    0.25    0.00   0.02  51.30
sde              14.00     0.00 21190.00    0.00 84812.00     0.00     8.00     5.62    0.27    0.27    0.00   0.02  51.90
sdf              21.00     0.00 20801.00    0.00 83288.00     0.00     8.01     5.62    0.27    0.27    0.00   0.02  51.50
sdg               0.00     0.00    0.00    0.00     0.00     0.00     0.00     0.00    0.00    0.00    0.00   0.00   0.00
sdh               0.00     0.00    0.00    0.00     0.00     0.00     0.00     0.00    0.00    0.00    0.00   0.00   0.00
md0               0.00     0.00 125795.00    0.00 503180.00     0.00     8.00     0.00    0.00    0.00    0.00   0.00   0.00

avg-cpu:  %user   %nice %system %iowait  %steal   %idle
           1.81    0.00   22.48    0.26    0.00   75.45

Device:         rrqm/s   wrqm/s     r/s     w/s    rkB/s    wkB/s avgrq-sz avgqu-sz   await r_await w_await  svctm  %util
sda              15.00     0.00 20753.00    0.00 83072.00     0.00     8.01     4.15    0.20    0.20    0.00   0.02  37.40
sdb               6.00     0.00 20990.00    0.00 83984.00     0.00     8.00     4.28    0.20    0.20    0.00   0.02  38.60
sdc              16.00     0.00 20902.00    0.00 83672.00     0.00     8.01     5.91    0.28    0.28    0.00   0.03  54.20
sdd              24.00     0.00 20734.00    0.00 83032.00     0.00     8.01     5.55    0.27    0.27    0.00   0.03  52.30
sde              24.00     0.00 20663.00    0.00 82752.00     0.00     8.01     5.60    0.27    0.27    0.00   0.02  51.10
sdf              12.00     0.00 21091.00    0.00 84412.00     0.00     8.00     5.53    0.26    0.26    0.00   0.02  50.10
sdg               0.00     0.00   23.00    6.00   140.00    24.00    11.31     0.00    0.07    0.09    0.00   0.07   0.20
sdh               0.00     0.00    0.00    0.00     0.00     0.00     0.00     0.00    0.00    0.00    0.00   0.00   0.00
md0               0.00     0.00 125213.00    0.00 500852.00     0.00     8.00     0.00    0.00    0.00    0.00   0.00   0.00

avg-cpu:  %user   %nice %system %iowait  %steal   %idle
           1.04    0.00   22.02    0.52    0.00   76.42

Device:         rrqm/s   wrqm/s     r/s     w/s    rkB/s    wkB/s avgrq-sz avgqu-sz   await r_await w_await  svctm  %util
sda              30.00     0.00 20737.00    0.00 83068.00     0.00     8.01     4.22    0.20    0.20    0.00   0.02  39.10
sdb              19.00     0.00 21172.00    0.00 84764.00     0.00     8.01     4.18    0.20    0.20    0.00   0.02  38.50
sdc              16.00     0.00 21068.00    0.00 84336.00     0.00     8.01     5.76    0.27    0.27    0.00   0.03  52.90
sdd               9.00     0.00 20685.00    0.00 82776.00     0.00     8.00     5.48    0.26    0.26    0.00   0.03  54.30
sde              16.00     0.00 20681.00    0.00 82788.00     0.00     8.01     5.69    0.28    0.28    0.00   0.03  54.40
sdf              17.00     0.00 20920.00    0.00 83748.00     0.00     8.01     5.80    0.28    0.28    0.00   0.03  53.00
sdg               0.00     0.00    0.00    0.00     0.00     0.00     0.00     0.00    0.00    0.00    0.00   0.00   0.00
sdh               0.00     0.00    0.00    0.00     0.00     0.00     0.00     0.00    0.00    0.00    0.00   0.00   0.00
md0               0.00     0.00 125337.00    0.00 501348.00     0.00     8.00     0.00    0.00    0.00    0.00   0.00   0.00

avg-cpu:  %user   %nice %system %iowait  %steal   %idle
           1.55    0.00   21.96    0.52    0.00   75.97

Device:         rrqm/s   wrqm/s     r/s     w/s    rkB/s    wkB/s avgrq-sz avgqu-sz   await r_await w_await  svctm  %util
sda              19.00     0.00 20927.00    0.00 83784.00     0.00     8.01     4.23    0.20    0.20    0.00   0.02  39.60
sdb               2.00     0.00 20729.00    0.00 82924.00     0.00     8.00     3.96    0.19    0.19    0.00   0.02  37.30
sdc               6.00     0.00 21066.00    0.00 84288.00     0.00     8.00     5.46    0.26    0.26    0.00   0.02  51.70
sdd               1.00     0.00 20719.00    0.00 82880.00     0.00     8.00     5.19    0.25    0.25    0.00   0.02  51.40
sde              15.00     0.00 21200.00    0.00 84860.00     0.00     8.01     6.17    0.29    0.29    0.00   0.03  55.10
sdf              13.00     0.00 21023.00    0.00 84144.00     0.00     8.00     5.85    0.28    0.28    0.00   0.03  54.00
sdg               0.00     0.00    0.00    0.00     0.00     0.00     0.00     0.00    0.00    0.00    0.00   0.00   0.00
sdh               0.00     0.00    0.00    0.00     0.00     0.00     0.00     0.00    0.00    0.00    0.00   0.00   0.00
md0               0.00     0.00 125696.00    0.00 502784.00     0.00     8.00     0.00    0.00    0.00    0.00   0.00   0.00

avg-cpu:  %user   %nice %system %iowait  %steal   %idle
           0.78    0.00   22.54    0.52    0.00   76.17

Device:         rrqm/s   wrqm/s     r/s     w/s    rkB/s    wkB/s avgrq-sz avgqu-sz   await r_await w_await  svctm  %util
sda               5.00     0.00 20941.00    0.00 83784.00     0.00     8.00     4.30    0.21    0.21    0.00   0.02  38.10
sdb               9.00     0.00 20733.00    0.00 82968.00     0.00     8.00     4.17    0.20    0.20    0.00   0.02  38.80
sdc              21.00     0.00 20715.00    0.00 82944.00     0.00     8.01     5.31    0.26    0.26    0.00   0.03  53.50
sdd              34.00     0.00 21129.00    0.00 84652.00     0.00     8.01     5.51    0.26    0.26    0.00   0.02  52.50
sde              22.00     0.00 20936.00    0.00 83832.00     0.00     8.01     5.63    0.27    0.27    0.00   0.02  52.20
sdf              12.00     0.00 21079.00    0.00 84364.00     0.00     8.00     5.90    0.28    0.28    0.00   0.03  53.90
sdg               0.00     0.00    0.00    0.00     0.00     0.00     0.00     0.00    0.00    0.00    0.00   0.00   0.00
sdh               0.00     0.00    0.00    0.00     0.00     0.00     0.00     0.00    0.00    0.00    0.00   0.00   0.00
md0               0.00     0.00 125654.00    0.00 502616.00     0.00     8.00     0.00    0.00    0.00    0.00   0.00   0.00

avg-cpu:  %user   %nice %system %iowait  %steal   %idle
           1.59    0.00   20.37    0.26    0.00   77.78

Device:         rrqm/s   wrqm/s     r/s     w/s    rkB/s    wkB/s avgrq-sz avgqu-sz   await r_await w_await  svctm  %util
sda              17.00     0.00 20790.00    0.00 83228.00     0.00     8.01     4.33    0.21    0.21    0.00   0.02  39.00
sdb               6.00     0.00 20715.00    0.00 82884.00     0.00     8.00     4.17    0.20    0.20    0.00   0.02  39.40
sdc               8.00     0.00 20808.00    0.00 83264.00     0.00     8.00     5.51    0.26    0.26    0.00   0.02  49.30
sdd              15.00     0.00 20884.00    0.00 83596.00     0.00     8.01     5.57    0.27    0.27    0.00   0.03  52.30
sde              11.00     0.00 20974.00    0.00 83940.00     0.00     8.00     5.52    0.26    0.26    0.00   0.02  50.30
sdf              15.00     0.00 20894.00    0.00 83636.00     0.00     8.01     5.54    0.26    0.26    0.00   0.02  50.80
sdg               0.00     0.00    0.00    0.00     0.00     0.00     0.00     0.00    0.00    0.00    0.00   0.00   0.00
sdh               0.00     0.00    0.00    0.00     0.00     0.00     0.00     0.00    0.00    0.00    0.00   0.00   0.00
md0               0.00     0.00 125118.00    0.00 500472.00     0.00     8.00     0.00    0.00    0.00    0.00   0.00   0.00

avg-cpu:  %user   %nice %system %iowait  %steal   %idle
           1.26    0.00   23.74    0.51    0.00   74.49

Device:         rrqm/s   wrqm/s     r/s     w/s    rkB/s    wkB/s avgrq-sz avgqu-sz   await r_await w_await  svctm  %util
sda              22.00     0.00 20960.00    0.00 83928.00     0.00     8.01     4.32    0.21    0.21    0.00   0.02  38.70
sdb              29.00     0.00 20841.00    0.00 83480.00     0.00     8.01     4.57    0.22    0.22    0.00   0.02  40.60
sdc              14.00     0.00 20975.00    0.00 83956.00     0.00     8.01     5.51    0.26    0.26    0.00   0.02  51.30
sdd              12.00     0.00 20765.00    0.00 83108.00     0.00     8.00     5.40    0.26    0.26    0.00   0.03  52.00
sde              14.00     0.00 21066.00    0.00 84320.00     0.00     8.01     5.38    0.26    0.26    0.00   0.03  53.20
sdf              18.00     0.00 20967.00    0.00 83940.00     0.00     8.01     5.46    0.26    0.26    0.00   0.02  50.20
sdg               0.00     1.00    0.00    2.00     0.00    36.00    36.00     0.00    0.00    0.00    0.00   0.00   0.00
sdh               0.00     0.00    0.00    0.00     0.00     0.00     0.00     0.00    0.00    0.00    0.00   0.00   0.00
md0               0.00     0.00 125688.00    0.00 502752.00     0.00     8.00     0.00    0.00    0.00    0.00   0.00   0.00

avg-cpu:  %user   %nice %system %iowait  %steal   %idle
           1.27    0.00   23.66    0.25    0.00   74.81

Device:         rrqm/s   wrqm/s     r/s     w/s    rkB/s    wkB/s avgrq-sz avgqu-sz   await r_await w_await  svctm  %util
sda              22.00     0.00 20801.00    0.00 83292.00     0.00     8.01     4.56    0.22    0.22    0.00   0.02  40.60
sdb              11.00     0.00 20934.00    0.00 83780.00     0.00     8.00     4.78    0.23    0.23    0.00   0.02  41.50
sdc              10.00     0.00 21096.00    0.00 84424.00     0.00     8.00     5.51    0.26    0.26    0.00   0.02  51.30
sdd               2.00     0.00 21060.00    0.00 84248.00     0.00     8.00     5.45    0.26    0.26    0.00   0.03  52.90
sde               7.00     0.00 20882.00    0.00 83556.00     0.00     8.00     5.57    0.27    0.27    0.00   0.03  53.40
sdf               9.00     0.00 20967.00    0.00 83904.00     0.00     8.00     5.90    0.28    0.28    0.00   0.03  55.60
sdg               0.00     0.00    0.00    0.00     0.00     0.00     0.00     0.00    0.00    0.00    0.00   0.00   0.00
sdh               0.00     0.00    0.00    0.00     0.00     0.00     0.00     0.00    0.00    0.00    0.00   0.00   0.00
md0               0.00     0.00 125844.00    0.00 503376.00     0.00     8.00     0.00    0.00    0.00    0.00   0.00   0.00

avg-cpu:  %user   %nice %system %iowait  %steal   %idle
           1.25    0.00   25.94    1.25    0.00   71.57

Device:         rrqm/s   wrqm/s     r/s     w/s    rkB/s    wkB/s avgrq-sz avgqu-sz   await r_await w_await  svctm  %util
sda              30.00     0.00 20859.00    0.00 83556.00     0.00     8.01     3.96    0.19    0.19    0.00   0.02  38.80
sdb              18.00     0.00 20679.00    0.00 82788.00     0.00     8.01     4.41    0.21    0.21    0.00   0.02  39.40
sdc              24.00     0.00 20479.00    0.00 82012.00     0.00     8.01     5.73    0.28    0.28    0.00   0.03  51.60
sdd              38.00     0.00 21194.00    0.00 84928.00     0.00     8.01     5.90    0.28    0.28    0.00   0.03  55.40
sde              12.00     0.00 20968.00    0.00 83920.00     0.00     8.00     5.52    0.26    0.26    0.00   0.02  51.50
sdf               1.00     0.00 20887.00    0.00 83552.00     0.00     8.00     5.29    0.25    0.25    0.00   0.02  49.30
sdg               0.00    71.00   10.00 1451.00    40.00  7456.00    10.26     9.56    6.55    0.10    6.59   0.05   7.30
sdh               0.00     0.00    0.00    0.00     0.00     0.00     0.00     0.00    0.00    0.00    0.00   0.00   0.00
md0               0.00     0.00 125210.00    0.00 500840.00     0.00     8.00     0.00    0.00    0.00    0.00   0.00   0.00

avg-cpu:  %user   %nice %system %iowait  %steal   %idle
           1.57    0.00   22.19    0.26    0.00   75.98

Device:         rrqm/s   wrqm/s     r/s     w/s    rkB/s    wkB/s avgrq-sz avgqu-sz   await r_await w_await  svctm  %util
sda              22.00     0.00 20698.00    0.00 82880.00     0.00     8.01     4.27    0.21    0.21    0.00   0.02  36.40
sdb              22.00     0.00 20474.00    0.00 81984.00     0.00     8.01     4.03    0.20    0.20    0.00   0.02  34.70
sdc              16.00     0.00 20783.00    0.00 83196.00     0.00     8.01     5.28    0.25    0.25    0.00   0.02  51.90
sdd               4.00     0.00 20877.00    0.00 83524.00     0.00     8.00     5.78    0.28    0.28    0.00   0.02  51.30
sde              39.00     0.00 20953.00    0.00 83968.00     0.00     8.01     5.87    0.28    0.28    0.00   0.03  53.30
sdf              16.00     0.00 20529.00    0.00 82180.00     0.00     8.01     5.48    0.27    0.27    0.00   0.02  51.10
sdg               0.00     0.00    0.00    0.00     0.00     0.00     0.00     0.00    0.00    0.00    0.00   0.00   0.00
sdh               0.00     0.00    0.00    0.00     0.00     0.00     0.00     0.00    0.00    0.00    0.00   0.00   0.00
md0               0.00     0.00 124454.00    0.00 497816.00     0.00     8.00     0.00    0.00    0.00    0.00   0.00   0.00

avg-cpu:  %user   %nice %system %iowait  %steal   %idle
           1.28    0.00   23.85    0.51    0.00   74.36

Device:         rrqm/s   wrqm/s     r/s     w/s    rkB/s    wkB/s avgrq-sz avgqu-sz   await r_await w_await  svctm  %util
sda              25.00     0.00 20945.00    0.00 83880.00     0.00     8.01     4.46    0.21    0.21    0.00   0.02  40.10
sdb              28.00     0.00 21174.00    0.00 84808.00     0.00     8.01     4.45    0.21    0.21    0.00   0.02  39.30
sdc              10.00     0.00 20798.00    0.00 83232.00     0.00     8.00     5.36    0.26    0.26    0.00   0.02  49.60
sdd              19.00     0.00 20807.00    0.00 83304.00     0.00     8.01     5.31    0.26    0.26    0.00   0.02  50.50
sde              15.00     0.00 20691.00    0.00 82824.00     0.00     8.01     5.30    0.26    0.26    0.00   0.03  52.10
sdf              23.00     0.00 20922.00    0.00 83780.00     0.00     8.01     5.78    0.28    0.28    0.00   0.03  53.80
sdg               0.00     0.00    0.00    0.00     0.00     0.00     0.00     0.00    0.00    0.00    0.00   0.00   0.00
sdh               0.00     0.00    0.00    0.00     0.00     0.00     0.00     0.00    0.00    0.00    0.00   0.00   0.00
md0               0.00     0.00 125400.00    0.00 501600.00     0.00     8.00     0.00    0.00    0.00    0.00   0.00   0.00

avg-cpu:  %user   %nice %system %iowait  %steal   %idle
           1.27    0.25   25.06    0.51    0.00   72.91

Device:         rrqm/s   wrqm/s     r/s     w/s    rkB/s    wkB/s avgrq-sz avgqu-sz   await r_await w_await  svctm  %util
sda              29.00     0.00 20679.00    0.00 82832.00     0.00     8.01     4.11    0.20    0.20    0.00   0.02  36.80
sdb              12.00     0.00 21134.00    0.00 84584.00     0.00     8.00     4.05    0.19    0.19    0.00   0.02  37.90
sdc               6.00     0.00 20613.00    0.00 82476.00     0.00     8.00     5.44    0.26    0.26    0.00   0.02  50.60
sdd              14.00     0.00 20935.00    0.00 83796.00     0.00     8.01     5.92    0.28    0.28    0.00   0.03  55.20
sde              16.00     0.00 20552.00    0.00 82272.00     0.00     8.01     6.03    0.29    0.29    0.00   0.03  53.30
sdf               9.00     0.00 20661.00    0.00 82680.00     0.00     8.00     5.55    0.27    0.27    0.00   0.02  50.80
sdg               0.00     0.00  432.00    0.00  1728.00     0.00     8.00     0.05    0.12    0.12    0.00   0.12   5.30
sdh               0.00     0.00    0.00    0.00     0.00     0.00     0.00     0.00    0.00    0.00    0.00   0.00   0.00
md0               0.00     0.00 124649.00    0.00 498596.00     0.00     8.00     0.00    0.00    0.00    0.00   0.00   0.00

avg-cpu:  %user   %nice %system %iowait  %steal   %idle
           1.29    0.00   22.42    3.61    0.00   72.68

Device:         rrqm/s   wrqm/s     r/s     w/s    rkB/s    wkB/s avgrq-sz avgqu-sz   await r_await w_await  svctm  %util
sda               1.00     0.00 19159.00    0.00 76640.00     0.00     8.00     3.53    0.18    0.18    0.00   0.02  35.60
sdb               2.00     0.00 18771.00    0.00 75092.00     0.00     8.00     3.43    0.18    0.18    0.00   0.02  35.00
sdc              12.00     0.00 19336.00    0.00 77392.00     0.00     8.00     4.80    0.25    0.25    0.00   0.03  48.70
sdd               5.00     0.00 18805.00    0.00 75240.00     0.00     8.00     4.54    0.24    0.24    0.00   0.02  46.50
sde              20.00     0.00 19011.00    0.00 76124.00     0.00     8.01     4.69    0.25    0.25    0.00   0.02  44.70
sdf               6.00     0.00 19097.00    0.00 76412.00     0.00     8.00     4.88    0.26    0.26    0.00   0.03  48.20
sdg               0.00     0.00 2735.00    0.00 10940.00     0.00     8.00     0.40    0.15    0.15    0.00   0.15  40.00
sdh               0.00     0.00    0.00    0.00     0.00     0.00     0.00     0.00    0.00    0.00    0.00   0.00   0.00
md0               0.00     0.00 114291.00    0.00 457164.00     0.00     8.00     0.00    0.00    0.00    0.00   0.00   0.00

avg-cpu:  %user   %nice %system %iowait  %steal   %idle
           1.66    0.00   17.68    0.28    0.00   80.39

Device:         rrqm/s   wrqm/s     r/s     w/s    rkB/s    wkB/s avgrq-sz avgqu-sz   await r_await w_await  svctm  %util
sda              16.00     0.00 20826.00    0.00 83368.00     0.00     8.01     3.80    0.18    0.18    0.00   0.02  36.40
sdb              17.00     0.00 20438.00    0.00 81820.00     0.00     8.01     4.45    0.22    0.22    0.00   0.02  36.90
sdc              15.00     0.00 20644.00    0.00 82636.00     0.00     8.01     6.04    0.29    0.29    0.00   0.03  53.20
sdd               3.00     0.00 20649.00    0.00 82608.00     0.00     8.00     5.65    0.27    0.27    0.00   0.03  53.50
sde              49.00     0.00 20815.00    0.00 83456.00     0.00     8.02     5.46    0.26    0.26    0.00   0.03  52.50
sdf              13.00     0.00 20476.00    0.00 81956.00     0.00     8.01     5.22    0.25    0.25    0.00   0.02  49.00
sdg               0.00     0.00    0.00    0.00     0.00     0.00     0.00     0.00    0.00    0.00    0.00   0.00   0.00
sdh               0.00     0.00    0.00    0.00     0.00     0.00     0.00     0.00    0.00    0.00    0.00   0.00   0.00
md0               0.00     0.00 123903.00    0.00 495612.00     0.00     8.00     0.00    0.00    0.00    0.00   0.00   0.00

avg-cpu:  %user   %nice %system %iowait  %steal   %idle
           1.95    0.00   16.71    0.28    0.00   81.06

Device:         rrqm/s   wrqm/s     r/s     w/s    rkB/s    wkB/s avgrq-sz avgqu-sz   await r_await w_await  svctm  %util
sda              18.00     0.00 20340.00    0.00 81432.00     0.00     8.01     4.24    0.21    0.21    0.00   0.02  36.40
sdb              28.00     0.00 20652.00    0.00 82720.00     0.00     8.01     4.36    0.21    0.21    0.00   0.02  35.90
sdc              10.00     0.00 20510.00    0.00 82080.00     0.00     8.00     5.26    0.26    0.26    0.00   0.02  50.30
sdd               9.00     0.00 20685.00    0.00 82776.00     0.00     8.00     5.23    0.25    0.25    0.00   0.02  50.70
sde              21.00     0.00 20325.00    0.00 81384.00     0.00     8.01     5.06    0.25    0.25    0.00   0.02  50.70
sdf              20.00     0.00 20881.00    0.00 83604.00     0.00     8.01     5.38    0.26    0.26    0.00   0.02  49.40
sdg               0.00     0.00    1.00    0.00     4.00     0.00     8.00     0.00    0.00    0.00    0.00   0.00   0.00
sdh               0.00     0.00    0.00    0.00     0.00     0.00     0.00     0.00    0.00    0.00    0.00   0.00   0.00
md0               0.00     0.00 123468.00    0.00 493872.00     0.00     8.00     0.00    0.00    0.00    0.00   0.00   0.00

