Linux 4.17.2 (bench) 	08/03/2018 	_x86_64_	(4 CPU)

avg-cpu:  %user   %nice %system %iowait  %steal   %idle
          10.25    0.02    4.18    2.74    0.00   82.81

Device:         rrqm/s   wrqm/s     r/s     w/s    rkB/s    wkB/s avgrq-sz avgqu-sz   await r_await w_await  svctm  %util
sda              53.44     4.18 1730.14  101.04 21377.68  3091.64    26.73     1.05    0.57    0.26    5.92   0.06  11.06
sdb              53.24     4.14 1730.15  101.18 21367.22  3088.36    26.71     1.05    0.57    0.26    5.85   0.06  10.94
sdc              90.96     4.20 1690.34  100.73 21359.45  3090.78    27.30     1.47    0.82    0.44    7.12   0.08  14.43
sdd              84.49     4.17 1695.99  100.80 21344.51  3087.03    27.19     1.47    0.82    0.43    7.33   0.08  14.53
sde              86.49     4.21 1701.07  100.90 21403.82  3091.22    27.19     1.49    0.83    0.44    7.44   0.08  14.55
sdf              83.64     4.19 1703.17  100.84 21385.31  3088.13    27.13     1.54    0.85    0.44    7.90   0.08  14.58
sdg               0.00     3.17   26.85   73.25   326.13   391.99    14.35     0.44    4.39    0.20    5.93   0.08   0.79
sdh               0.00     0.13    0.02    0.23     2.18     4.99    56.82     0.00    1.15    0.65    1.19   0.21   0.01
md0               0.00     0.00 10710.52  473.41 146543.71 21161.90    29.99     0.00    0.00    0.00    0.00   0.00   0.00

avg-cpu:  %user   %nice %system %iowait  %steal   %idle
           1.25    0.00   18.75    5.00    0.00   75.00

Device:         rrqm/s   wrqm/s     r/s     w/s    rkB/s    wkB/s avgrq-sz avgqu-sz   await r_await w_await  svctm  %util
sda             705.00     0.00 17163.00    0.00 71472.00     0.00     8.33     3.57    0.21    0.21    0.00   0.02  34.40
sdb             466.00     0.00 16449.00    0.00 67660.00     0.00     8.23     2.97    0.18    0.18    0.00   0.02  32.90
sdc             849.00     0.00 17604.00    0.00 73812.00     0.00     8.39     4.49    0.26    0.26    0.00   0.03  45.70
sdd             802.00     0.00 16588.00    0.00 69560.00     0.00     8.39     4.68    0.28    0.28    0.00   0.03  44.90
sde             853.00     0.00 16796.00    0.00 70596.00     0.00     8.41     4.67    0.28    0.28    0.00   0.03  45.00
sdf             641.00     0.00 17368.00    0.00 72036.00     0.00     8.30     5.03    0.29    0.29    0.00   0.03  44.80
sdg               0.00     0.00    2.00    0.00    84.00     0.00    84.00     0.00    0.50    0.50    0.00   0.50   0.10
sdh               0.00     0.00    0.00    0.00     0.00     0.00     0.00     0.00    0.00    0.00    0.00   0.00   0.00
md0               0.00     0.00 106329.00    0.00 425316.00     0.00     8.00     0.00    0.00    0.00    0.00   0.00   0.00

avg-cpu:  %user   %nice %system %iowait  %steal   %idle
           1.84    0.00   17.37    4.21    0.00   76.58

Device:         rrqm/s   wrqm/s     r/s     w/s    rkB/s    wkB/s avgrq-sz avgqu-sz   await r_await w_await  svctm  %util
sda             740.00     0.00 17832.00    0.00 74288.00     0.00     8.33     3.83    0.22    0.22    0.00   0.02  34.50
sdb            1093.00     0.00 17469.00    0.00 74248.00     0.00     8.50     3.56    0.20    0.20    0.00   0.02  34.20
sdc            1213.00     0.00 17247.00    0.00 73840.00     0.00     8.56     5.00    0.29    0.29    0.00   0.03  45.90
sdd            1111.00     0.00 17236.00    0.00 73388.00     0.00     8.52     5.19    0.30    0.30    0.00   0.03  45.70
sde             763.00     0.00 16771.00    0.00 70136.00     0.00     8.36     4.85    0.29    0.29    0.00   0.03  45.60
sdf            1204.00     0.00 17949.00    0.00 76612.00     0.00     8.54     5.33    0.30    0.30    0.00   0.03  48.70
sdg               0.00    89.00   98.00 2576.00  6244.00 12712.00    14.18    15.73    5.89    0.73    6.08   0.05  14.60
sdh               0.00     0.00    0.00    0.00     0.00     0.00     0.00     0.00    0.00    0.00    0.00   0.00   0.00
md0               0.00     0.00 110647.00    0.00 442588.00     0.00     8.00     0.00    0.00    0.00    0.00   0.00   0.00

avg-cpu:  %user   %nice %system %iowait  %steal   %idle
           1.37    0.00   13.97    1.10    0.00   83.56

Device:         rrqm/s   wrqm/s     r/s     w/s    rkB/s    wkB/s avgrq-sz avgqu-sz   await r_await w_await  svctm  %util
sda            1202.00     0.00 17591.00    0.00 75172.00     0.00     8.55     4.06    0.23    0.23    0.00   0.02  35.70
sdb            1199.00     0.00 18695.00    0.00 79576.00     0.00     8.51     4.69    0.25    0.25    0.00   0.02  38.70
sdc            1260.00     0.00 18214.00    0.00 77896.00     0.00     8.55     5.77    0.32    0.32    0.00   0.03  50.60
sdd            1515.00     0.00 18197.00    0.00 78848.00     0.00     8.67     5.99    0.33    0.33    0.00   0.03  49.30
sde            1128.00     0.00 18120.00    0.00 76992.00     0.00     8.50     5.93    0.33    0.33    0.00   0.03  51.50
sdf            1191.00     0.00 17527.00    0.00 74872.00     0.00     8.54     5.69    0.32    0.32    0.00   0.03  48.10
sdg               0.00     0.00    0.00    0.00     0.00     0.00     0.00     0.00    0.00    0.00    0.00   0.00   0.00
sdh               0.00     0.00    0.00    0.00     0.00     0.00     0.00     0.00    0.00    0.00    0.00   0.00   0.00
md0               0.00     0.00 115805.00    0.00 463220.00     0.00     8.00     0.00    0.00    0.00    0.00   0.00   0.00

avg-cpu:  %user   %nice %system %iowait  %steal   %idle
           1.26    0.00   19.10    4.27    0.00   75.38

Device:         rrqm/s   wrqm/s     r/s     w/s    rkB/s    wkB/s avgrq-sz avgqu-sz   await r_await w_await  svctm  %util
sda             835.00     0.00 17719.00    0.00 74216.00     0.00     8.38     4.08    0.23    0.23    0.00   0.02  38.30
sdb             611.00     0.00 17991.00    0.00 74408.00     0.00     8.27     3.46    0.19    0.19    0.00   0.02  35.10
sdc             729.00     0.00 17003.00    0.00 70928.00     0.00     8.34     4.72    0.28    0.28    0.00   0.03  44.70
sdd             811.00     0.00 16741.00    0.00 70208.00     0.00     8.39     4.70    0.28    0.28    0.00   0.03  43.20
sde             552.00     0.00 17186.00    0.00 70952.00     0.00     8.26     4.49    0.26    0.26    0.00   0.03  43.80
sdf             744.00     0.00 16796.00    0.00 70160.00     0.00     8.35     5.04    0.30    0.30    0.00   0.03  44.80
sdg               0.00     0.00    0.00    0.00     0.00     0.00     0.00     0.00    0.00    0.00    0.00   0.00   0.00
sdh               0.00     0.00    0.00    0.00     0.00     0.00     0.00     0.00    0.00    0.00    0.00   0.00   0.00
md0               0.00     0.00 107763.00    0.00 431052.00     0.00     8.00     0.00    0.00    0.00    0.00   0.00   0.00

avg-cpu:  %user   %nice %system %iowait  %steal   %idle
           1.04    0.00   17.19    2.86    0.00   78.91

Device:         rrqm/s   wrqm/s     r/s     w/s    rkB/s    wkB/s avgrq-sz avgqu-sz   await r_await w_await  svctm  %util
sda            1002.00     0.00 17437.00    0.00 73756.00     0.00     8.46     3.77    0.22    0.22    0.00   0.02  36.80
sdb             904.00     0.00 18070.00    0.00 75896.00     0.00     8.40     3.71    0.21    0.21    0.00   0.02  36.00
sdc            1002.00     0.00 17008.00    0.00 72040.00     0.00     8.47     5.13    0.30    0.30    0.00   0.03  45.20
sdd             904.00     0.00 16625.00    0.00 70116.00     0.00     8.44     4.79    0.29    0.29    0.00   0.03  44.80
sde            1214.00     0.00 17978.00    0.00 76768.00     0.00     8.54     5.41    0.30    0.30    0.00   0.03  47.90
sdf             952.00     0.00 16939.00    0.00 71564.00     0.00     8.45     5.16    0.30    0.30    0.00   0.03  45.40
sdg               0.00     0.00    0.00    0.00     0.00     0.00     0.00     0.00    0.00    0.00    0.00   0.00   0.00
sdh               0.00     0.00    0.00    0.00     0.00     0.00     0.00     0.00    0.00    0.00    0.00   0.00   0.00
md0               0.00     0.00 109993.00    0.00 439972.00     0.00     8.00     0.00    0.00    0.00    0.00   0.00   0.00

avg-cpu:  %user   %nice %system %iowait  %steal   %idle
           0.75    0.00   19.75    4.50    0.00   75.00

Device:         rrqm/s   wrqm/s     r/s     w/s    rkB/s    wkB/s avgrq-sz avgqu-sz   await r_await w_await  svctm  %util
sda             679.00     0.00 16715.00    0.00 69576.00     0.00     8.32     3.31    0.20    0.20    0.00   0.02  35.10
sdb             687.00     0.00 17754.00    0.00 73764.00     0.00     8.31     3.54    0.20    0.20    0.00   0.02  35.20
sdc             666.00     0.00 17336.00    0.00 72008.00     0.00     8.31     4.97    0.29    0.29    0.00   0.03  46.90
sdd             756.00     0.00 16667.00    0.00 69692.00     0.00     8.36     4.93    0.30    0.30    0.00   0.03  45.50
sde             763.00     0.00 17398.00    0.00 72644.00     0.00     8.35     4.93    0.28    0.28    0.00   0.03  46.00
sdf             779.00     0.00 17006.00    0.00 71140.00     0.00     8.37     4.61    0.27    0.27    0.00   0.03  45.60
sdg               0.00     0.00    0.00    0.00     0.00     0.00     0.00     0.00    0.00    0.00    0.00   0.00   0.00
sdh               0.00     0.00    0.00    0.00     0.00     0.00     0.00     0.00    0.00    0.00    0.00   0.00   0.00
md0               0.00     0.00 107208.00    0.00 428832.00     0.00     8.00     0.00    0.00    0.00    0.00   0.00   0.00

avg-cpu:  %user   %nice %system %iowait  %steal   %idle
           1.10    0.00   14.25    1.37    0.00   83.29

Device:         rrqm/s   wrqm/s     r/s     w/s    rkB/s    wkB/s avgrq-sz avgqu-sz   await r_await w_await  svctm  %util
sda            1363.00     0.00 18437.00    0.00 79200.00     0.00     8.59     4.27    0.23    0.23    0.00   0.02  37.80
sdb             914.00     0.00 18301.00    0.00 76860.00     0.00     8.40     4.08    0.22    0.22    0.00   0.02  35.80
sdc            1372.00     0.00 17917.00    0.00 77156.00     0.00     8.61     5.99    0.33    0.33    0.00   0.03  48.50
sdd            1142.00     0.00 17232.00    0.00 73496.00     0.00     8.53     5.92    0.34    0.34    0.00   0.03  47.80
sde            1101.00     0.00 17497.00    0.00 74392.00     0.00     8.50     5.68    0.32    0.32    0.00   0.03  49.60
sdf            1412.00     0.00 17455.00    0.00 75468.00     0.00     8.65     5.39    0.31    0.31    0.00   0.03  48.90
sdg               0.00     1.00   25.00    6.00   148.00    32.00    11.61     0.01    0.16    0.16    0.17   0.13   0.40
sdh               0.00     0.00    0.00    0.00     0.00     0.00     0.00     0.00    0.00    0.00    0.00   0.00   0.00
md0               0.00     0.00 114151.00    0.00 456604.00     0.00     8.00     0.00    0.00    0.00    0.00   0.00   0.00

avg-cpu:  %user   %nice %system %iowait  %steal   %idle
           1.38    0.00   12.98    0.55    0.00   85.08

Device:         rrqm/s   wrqm/s     r/s     w/s    rkB/s    wkB/s avgrq-sz avgqu-sz   await r_await w_await  svctm  %util
sda            1135.00     0.00 17250.00    0.00 73540.00     0.00     8.53     4.24    0.25    0.25    0.00   0.02  37.90
sdb            1437.00     0.00 17312.00    0.00 74996.00     0.00     8.66     4.54    0.26    0.26    0.00   0.02  36.70
sdc            1403.00     0.00 17353.00    0.00 75024.00     0.00     8.65     5.85    0.34    0.34    0.00   0.03  50.20
sdd            1581.00     0.00 18367.00    0.00 79792.00     0.00     8.69     6.50    0.35    0.35    0.00   0.03  51.40
sde            1405.00     0.00 17193.00    0.00 74392.00     0.00     8.65     6.10    0.35    0.35    0.00   0.03  48.30
sdf            1564.00     0.00 17696.00    0.00 77040.00     0.00     8.71     6.09    0.34    0.34    0.00   0.03  50.50
sdg               0.00     0.00    0.00    0.00     0.00     0.00     0.00     0.00    0.00    0.00    0.00   0.00   0.00
sdh               0.00     0.00    0.00    0.00     0.00     0.00     0.00     0.00    0.00    0.00    0.00   0.00   0.00
md0               0.00     0.00 113695.00    0.00 454780.00     0.00     8.00     0.00    0.00    0.00    0.00   0.00   0.00

avg-cpu:  %user   %nice %system %iowait  %steal   %idle
           1.34    0.00   15.01    1.88    0.00   81.77

Device:         rrqm/s   wrqm/s     r/s     w/s    rkB/s    wkB/s avgrq-sz avgqu-sz   await r_await w_await  svctm  %util
sda            1042.00     0.00 17769.00    0.00 75244.00     0.00     8.47     4.22    0.24    0.24    0.00   0.02  36.40
sdb             939.00     0.00 17699.00    0.00 74552.00     0.00     8.42     4.15    0.23    0.23    0.00   0.02  37.10
sdc            1144.00     0.00 17635.00    0.00 75112.00     0.00     8.52     5.53    0.31    0.31    0.00   0.03  47.10
sdd            1157.00     0.00 17584.00    0.00 74964.00     0.00     8.53     5.62    0.32    0.32    0.00   0.03  49.20
sde            1174.00     0.00 17847.00    0.00 76084.00     0.00     8.53     5.51    0.31    0.31    0.00   0.03  48.30
sdf            1212.00     0.00 17882.00    0.00 76376.00     0.00     8.54     5.66    0.32    0.32    0.00   0.03  49.30
sdg               0.00     0.00    0.00    0.00     0.00     0.00     0.00     0.00    0.00    0.00    0.00   0.00   0.00
sdh               0.00     0.00    0.00    0.00     0.00     0.00     0.00     0.00    0.00    0.00    0.00   0.00   0.00
md0               0.00     0.00 113054.00    0.00 452216.00     0.00     8.00     0.00    0.00    0.00    0.00   0.00   0.00

avg-cpu:  %user   %nice %system %iowait  %steal   %idle
           1.11    0.00   13.09    0.56    0.00   85.24

Device:         rrqm/s   wrqm/s     r/s     w/s    rkB/s    wkB/s avgrq-sz avgqu-sz   await r_await w_await  svctm  %util
sda            1013.00     0.00 17665.00    0.00 74712.00     0.00     8.46     4.62    0.26    0.26    0.00   0.02  38.30
sdb            1210.00     0.00 17999.00    0.00 76788.00     0.00     8.53     4.77    0.26    0.26    0.00   0.02  38.60
sdc            1407.00     0.00 17847.00    0.00 77020.00     0.00     8.63     5.83    0.33    0.33    0.00   0.03  48.60
sdd            1403.00     0.00 17574.00    0.00 75908.00     0.00     8.64     5.67    0.32    0.32    0.00   0.03  47.70
sde            1502.00     0.00 17863.00    0.00 77460.00     0.00     8.67     6.17    0.34    0.34    0.00   0.03  48.90
sdf            1382.00     0.00 17655.00    0.00 76148.00     0.00     8.63     5.88    0.33    0.33    0.00   0.03  49.10
sdg               0.00     0.00    0.00    5.00     0.00   132.00    52.80     0.00    0.80    0.00    0.80   0.20   0.10
sdh               0.00     0.00    0.00    0.00     0.00     0.00     0.00     0.00    0.00    0.00    0.00   0.00   0.00
md0               0.00     0.00 114526.00    0.00 458104.00     0.00     8.00     0.00    0.00    0.00    0.00   0.00   0.00

avg-cpu:  %user   %nice %system %iowait  %steal   %idle
           1.12    0.00   12.57    0.56    0.00   85.75

Device:         rrqm/s   wrqm/s     r/s     w/s    rkB/s    wkB/s avgrq-sz avgqu-sz   await r_await w_await  svctm  %util
sda            1089.00     0.00 17278.00    0.00 73468.00     0.00     8.50     4.28    0.25    0.25    0.00   0.02  36.80
sdb            1400.00     0.00 17536.00    0.00 75792.00     0.00     8.64     4.64    0.26    0.26    0.00   0.02  39.20
sdc            1490.00     0.00 17787.00    0.00 77108.00     0.00     8.67     6.21    0.35    0.35    0.00   0.03  50.60
sdd            1196.00     0.00 18496.00    0.00 78768.00     0.00     8.52     6.42    0.35    0.35    0.00   0.03  52.20
sde            1444.00     0.00 17562.00    0.00 76024.00     0.00     8.66     6.36    0.36    0.36    0.00   0.03  50.40
sdf            1442.00     0.00 18040.00    0.00 77928.00     0.00     8.64     6.40    0.35    0.35    0.00   0.03  50.50
sdg               0.00     0.00    0.00    0.00     0.00     0.00     0.00     0.00    0.00    0.00    0.00   0.00   0.00
sdh               0.00     0.00    0.00    0.00     0.00     0.00     0.00     0.00    0.00    0.00    0.00   0.00   0.00
md0               0.00     0.00 114847.00    0.00 459388.00     0.00     8.00     0.00    0.00    0.00    0.00   0.00   0.00

avg-cpu:  %user   %nice %system %iowait  %steal   %idle
           1.13    0.00   12.11    0.56    0.00   86.20

Device:         rrqm/s   wrqm/s     r/s     w/s    rkB/s    wkB/s avgrq-sz avgqu-sz   await r_await w_await  svctm  %util
sda            1196.00     0.00 18033.00    0.00 76916.00     0.00     8.53     4.79    0.27    0.27    0.00   0.02  38.50
sdb            1382.00     0.00 18648.00    0.00 80120.00     0.00     8.59     4.70    0.25    0.25    0.00   0.02  37.70
sdc            1453.00     0.00 18151.00    0.00 78416.00     0.00     8.64     6.18    0.34    0.34    0.00   0.03  49.80
sdd            1414.00     0.00 16940.00    0.00 73416.00     0.00     8.67     6.13    0.36    0.36    0.00   0.03  49.20
sde            1257.00     0.00 17725.00    0.00 75928.00     0.00     8.57     5.95    0.34    0.34    0.00   0.03  50.60
sdf            1427.00     0.00 17477.00    0.00 75616.00     0.00     8.65     5.89    0.34    0.34    0.00   0.03  49.90
sdg               0.00     0.00    0.00    0.00     0.00     0.00     0.00     0.00    0.00    0.00    0.00   0.00   0.00
sdh               0.00     0.00    0.00    0.00     0.00     0.00     0.00     0.00    0.00    0.00    0.00   0.00   0.00
md0               0.00     0.00 115020.00    0.00 460080.00     0.00     8.00     0.00    0.00    0.00    0.00   0.00   0.00

avg-cpu:  %user   %nice %system %iowait  %steal   %idle
           1.11    0.00   13.30    0.55    0.00   85.04

Device:         rrqm/s   wrqm/s     r/s     w/s    rkB/s    wkB/s avgrq-sz avgqu-sz   await r_await w_await  svctm  %util
sda            1533.00     0.00 18671.00    0.00 80816.00     0.00     8.66     4.80    0.26    0.26    0.00   0.02  38.80
sdb            1174.00     0.00 16646.00    0.00 71280.00     0.00     8.56     3.98    0.24    0.24    0.00   0.02  35.70
sdc            1311.00     0.00 17454.00    0.00 75060.00     0.00     8.60     5.95    0.34    0.34    0.00   0.03  50.20
sdd            1532.00     0.00 17842.00    0.00 77496.00     0.00     8.69     6.38    0.36    0.36    0.00   0.03  51.50
sde            1391.00     0.00 17993.00    0.00 77536.00     0.00     8.62     6.39    0.36    0.36    0.00   0.03  49.80
sdf            1343.00     0.00 17524.00    0.00 75424.00     0.00     8.61     6.20    0.35    0.35    0.00   0.03  50.80
sdg               0.00     1.00    0.00    2.00     0.00    36.00    36.00     0.00    0.00    0.00    0.00   0.00   0.00
sdh               0.00     0.00    0.00    0.00     0.00     0.00     0.00     0.00    0.00    0.00    0.00   0.00   0.00
md0               0.00     0.00 114402.00    0.00 457608.00     0.00     8.00     0.00    0.00    0.00    0.00   0.00   0.00

avg-cpu:  %user   %nice %system %iowait  %steal   %idle
           1.11    0.00   13.09    0.56    0.00   85.24

Device:         rrqm/s   wrqm/s     r/s     w/s    rkB/s    wkB/s avgrq-sz avgqu-sz   await r_await w_await  svctm  %util
sda            1211.00     0.00 17967.00    0.00 76712.00     0.00     8.54     4.17    0.23    0.23    0.00   0.02  38.30
sdb             993.00     0.00 18019.00    0.00 76048.00     0.00     8.44     4.53    0.25    0.25    0.00   0.02  36.80
sdc            1233.00     0.00 17264.00    0.00 73988.00     0.00     8.57     5.53    0.32    0.32    0.00   0.03  46.90
sdd            1552.00     0.00 18497.00    0.00 80196.00     0.00     8.67     6.05    0.33    0.33    0.00   0.03  51.00
sde            1387.00     0.00 17887.00    0.00 77096.00     0.00     8.62     5.47    0.31    0.31    0.00   0.03  46.70
sdf            1353.00     0.00 17557.00    0.00 75636.00     0.00     8.62     5.83    0.33    0.33    0.00   0.03  49.20
sdg               0.00     0.00    0.00    0.00     0.00     0.00     0.00     0.00    0.00    0.00    0.00   0.00   0.00
sdh               0.00     0.00    0.00    0.00     0.00     0.00     0.00     0.00    0.00    0.00    0.00   0.00   0.00
md0               0.00     0.00 114911.00    0.00 459644.00     0.00     8.00     0.00    0.00    0.00    0.00   0.00   0.00

avg-cpu:  %user   %nice %system %iowait  %steal   %idle
           0.84    0.00   12.81    0.56    0.00   85.79

Device:         rrqm/s   wrqm/s     r/s     w/s    rkB/s    wkB/s avgrq-sz avgqu-sz   await r_await w_await  svctm  %util
sda            1250.00     0.00 17496.00    0.00 74984.00     0.00     8.57     4.32    0.25    0.25    0.00   0.02  38.60
sdb            1198.00     0.00 17578.00    0.00 75104.00     0.00     8.55     4.52    0.26    0.26    0.00   0.02  38.80
sdc            1609.00     0.00 18379.00    0.00 79952.00     0.00     8.70     6.13    0.33    0.33    0.00   0.03  52.10
sdd            1439.00     0.00 17138.00    0.00 74308.00     0.00     8.67     5.59    0.33    0.33    0.00   0.03  49.30
sde            1344.00     0.00 17490.00    0.00 75336.00     0.00     8.61     5.99    0.34    0.34    0.00   0.03  52.00
sdf            1391.00     0.00 17741.00    0.00 76576.00     0.00     8.63     6.14    0.35    0.35    0.00   0.03  49.30
sdg               0.00     0.00    0.00    0.00     0.00     0.00     0.00     0.00    0.00    0.00    0.00   0.00   0.00
sdh               0.00     0.00    0.00    0.00     0.00     0.00     0.00     0.00    0.00    0.00    0.00   0.00   0.00
md0               0.00     0.00 114076.00    0.00 456304.00     0.00     8.00     0.00    0.00    0.00    0.00   0.00   0.00

avg-cpu:  %user   %nice %system %iowait  %steal   %idle
           1.34    0.00   17.11    0.53    0.00   81.02

Device:         rrqm/s   wrqm/s     r/s     w/s    rkB/s    wkB/s avgrq-sz avgqu-sz   await r_await w_await  svctm  %util
sda            1314.00     0.00 17878.00    0.00 76768.00     0.00     8.59     4.83    0.27    0.27    0.00   0.02  39.60
sdb            1186.00     0.00 17372.00    0.00 74232.00     0.00     8.55     4.32    0.25    0.25    0.00   0.02  37.60
sdc            1425.00     0.00 17626.00    0.00 76204.00     0.00     8.65     5.80    0.33    0.33    0.00   0.03  49.30
sdd            1439.00     0.00 18171.00    0.00 78440.00     0.00     8.63     6.09    0.34    0.34    0.00   0.03  50.70
sde            1247.00     0.00 16658.00    0.00 71492.00     0.00     8.58     6.01    0.36    0.36    0.00   0.03  48.60
sdf            1393.00     0.00 18441.00    0.00 79336.00     0.00     8.60     6.51    0.35    0.35    0.00   0.03  52.60
sdg               0.00     0.00    0.00    0.00     0.00     0.00     0.00     0.00    0.00    0.00    0.00   0.00   0.00
sdh               0.00     0.00    0.00    0.00     0.00     0.00     0.00     0.00    0.00    0.00    0.00   0.00   0.00
md0               0.00     0.00 114129.00    0.00 456516.00     0.00     8.00     0.00    0.00    0.00    0.00   0.00   0.00

avg-cpu:  %user   %nice %system %iowait  %steal   %idle
           0.80    0.27   17.43    0.54    0.00   80.97

Device:         rrqm/s   wrqm/s     r/s     w/s    rkB/s    wkB/s avgrq-sz avgqu-sz   await r_await w_await  svctm  %util
sda            1387.00     0.00 17577.00    0.00 75856.00     0.00     8.63     4.64    0.26    0.26    0.00   0.02  39.80
sdb            1091.00     0.00 17409.00    0.00 74000.00     0.00     8.50     4.94    0.28    0.28    0.00   0.02  37.90
sdc            1670.00     0.00 18254.00    0.00 79696.00     0.00     8.73     6.54    0.36    0.36    0.00   0.03  51.50
sdd            1582.00     0.00 17658.00    0.00 76960.00     0.00     8.72     6.10    0.35    0.35    0.00   0.03  50.10
sde            1424.00     0.00 17809.00    0.00 77060.00     0.00     8.65     6.32    0.36    0.36    0.00   0.03  49.70
sdf            1407.00     0.00 17318.00    0.00 74796.00     0.00     8.64     5.90    0.34    0.34    0.00   0.03  48.10
sdg               0.00     0.00    2.00    0.00     8.00     0.00     8.00     0.00    0.50    0.50    0.00   0.50   0.10
sdh               0.00     0.00    0.00    0.00     0.00     0.00     0.00     0.00    0.00    0.00    0.00   0.00   0.00
md0               0.00     0.00 114584.00    0.00 458336.00     0.00     8.00     0.00    0.00    0.00    0.00   0.00   0.00

avg-cpu:  %user   %nice %system %iowait  %steal   %idle
           1.63    0.00   15.22    0.54    0.00   82.61

Device:         rrqm/s   wrqm/s     r/s     w/s    rkB/s    wkB/s avgrq-sz avgqu-sz   await r_await w_await  svctm  %util
sda            1249.00     0.00 17598.00    0.00 75388.00     0.00     8.57     3.86    0.22    0.22    0.00   0.02  32.10
sdb            1197.00     0.00 18105.00    0.00 77208.00     0.00     8.53     4.04    0.22    0.22    0.00   0.02  33.80
sdc            1542.00     0.00 17534.00    0.00 76304.00     0.00     8.70     5.27    0.30    0.30    0.00   0.03  44.80
sdd            1512.00     0.00 18432.00    0.00 79776.00     0.00     8.66     5.43    0.29    0.29    0.00   0.02  45.10
sde            1384.00     0.00 18249.00    0.00 78524.00     0.00     8.61     5.64    0.31    0.31    0.00   0.03  48.50
sdf            1294.00     0.00 17046.00    0.00 73464.00     0.00     8.62     5.26    0.31    0.31    0.00   0.03  46.00
sdg               0.00     0.00    0.00    0.00     0.00     0.00     0.00     0.00    0.00    0.00    0.00   0.00   0.00
sdh               0.00     0.00    0.00    0.00     0.00     0.00     0.00     0.00    0.00    0.00    0.00   0.00   0.00
md0               0.00     0.00 115206.00    0.00 460824.00     0.00     8.00     0.00    0.00    0.00    0.00   0.00   0.00

avg-cpu:  %user   %nice %system %iowait  %steal   %idle
           1.32    0.00   17.20    1.59    0.00   79.89

Device:         rrqm/s   wrqm/s     r/s     w/s    rkB/s    wkB/s avgrq-sz avgqu-sz   await r_await w_await  svctm  %util
sda            1043.00     0.00 17571.00    0.00 74456.00     0.00     8.47     4.19    0.24    0.24    0.00   0.02  35.00
sdb            1211.00     0.00 17782.00    0.00 75972.00     0.00     8.54     3.98    0.22    0.22    0.00   0.02  37.40
sdc            1473.00     0.00 17763.00    0.00 76944.00     0.00     8.66     5.32    0.30    0.30    0.00   0.03  46.70
sdd            1112.00     0.00 17604.00    0.00 74864.00     0.00     8.51     5.35    0.30    0.30    0.00   0.03  48.20
sde            1297.00     0.00 18204.00    0.00 78012.00     0.00     8.57     5.69    0.31    0.31    0.00   0.03  47.80
sdf            1221.00     0.00 17083.00    0.00 73216.00     0.00     8.57     5.37    0.31    0.31    0.00   0.03  46.50
sdg               0.00     0.00    0.00    0.00     0.00     0.00     0.00     0.00    0.00    0.00    0.00   0.00   0.00
sdh               0.00     0.00    0.00    0.00     0.00     0.00     0.00     0.00    0.00    0.00    0.00   0.00   0.00
md0               0.00     0.00 113335.00    0.00 453340.00     0.00     8.00     0.00    0.00    0.00    0.00   0.00   0.00

avg-cpu:  %user   %nice %system %iowait  %steal   %idle
           0.50    0.00   20.40    4.28    0.00   74.81

Device:         rrqm/s   wrqm/s     r/s     w/s    rkB/s    wkB/s avgrq-sz avgqu-sz   await r_await w_await  svctm  %util
sda             508.00     0.00 17067.00    0.00 70300.00     0.00     8.24     2.88    0.17    0.17    0.00   0.02  29.50
sdb             679.00     0.00 17205.00    0.00 71536.00     0.00     8.32     3.46    0.20    0.20    0.00   0.02  34.40
sdc             758.00     0.00 17204.00    0.00 71848.00     0.00     8.35     4.78    0.28    0.28    0.00   0.03  46.50
sdd             601.00     0.00 15975.00    0.00 66304.00     0.00     8.30     4.45    0.28    0.28    0.00   0.03  43.10
sde             809.00     0.00 17385.00    0.00 72776.00     0.00     8.37     5.04    0.29    0.29    0.00   0.03  46.60
sdf             726.00     0.00 16933.00    0.00 70636.00     0.00     8.34     4.67    0.28    0.28    0.00   0.03  45.20
sdg               0.00     0.00    0.00    0.00     0.00     0.00     0.00     0.00    0.00    0.00    0.00   0.00   0.00
sdh               0.00     0.00    0.00    0.00     0.00     0.00     0.00     0.00    0.00    0.00    0.00   0.00   0.00
md0               0.00     0.00 105823.00    0.00 423292.00     0.00     8.00     0.00    0.00    0.00    0.00   0.00   0.00

