Linux 4.17.2 (bench) 	08/03/2018 	_x86_64_	(4 CPU)

avg-cpu:  %user   %nice %system %iowait  %steal   %idle
          10.26    0.02    4.17    2.72    0.00   82.83

Device:         rrqm/s   wrqm/s     r/s     w/s    rkB/s    wkB/s avgrq-sz avgqu-sz   await r_await w_await  svctm  %util
sda              53.46     4.19 1722.51  101.23 21320.54  3097.57    26.78     1.05    0.57    0.26    5.92   0.06  11.02
sdb              53.27     4.15 1722.51  101.37 21310.08  3094.27    26.76     1.05    0.57    0.26    5.85   0.06  10.90
sdc              91.05     4.21 1682.63  100.93 21302.25  3096.70    27.36     1.47    0.82    0.44    7.12   0.08  14.39
sdd              84.57     4.18 1688.29  101.00 21287.25  3092.95    27.25     1.47    0.82    0.43    7.33   0.08  14.48
sde              86.57     4.22 1693.37  101.09 21346.65  3097.14    27.24     1.50    0.83    0.44    7.44   0.08  14.51
sdf              83.72     4.19 1695.48  101.04 21328.08  3094.04    27.19     1.54    0.86    0.44    7.90   0.08  14.54
sdg               0.00     3.17   26.77   73.26   325.84   392.00    14.35     0.44    4.40    0.20    5.93   0.08   0.78
sdh               0.00     0.13    0.02    0.23     2.18     5.00    56.82     0.00    1.15    0.65    1.19   0.21   0.01
md0               0.00     0.00 10664.82  474.31 146099.96 21202.44    30.04     0.00    0.00    0.00    0.00   0.00   0.00

avg-cpu:  %user   %nice %system %iowait  %steal   %idle
          23.81    0.00    6.27    8.77    0.00   61.15

Device:         rrqm/s   wrqm/s     r/s     w/s    rkB/s    wkB/s avgrq-sz avgqu-sz   await r_await w_await  svctm  %util
sda               4.00     0.00 1086.00    0.00 17820.00     0.00    32.82     0.16    0.14    0.14    0.00   0.14  14.70
sdb               6.00     0.00 1117.00    0.00 19508.00     0.00    34.93     0.15    0.13    0.13    0.00   0.13  14.20
sdc               7.00     0.00 1099.00    0.00 18652.00     0.00    33.94     0.19    0.17    0.17    0.00   0.16  17.40
sdd               6.00     0.00 1262.00    0.00 22344.00     0.00    35.41     0.22    0.18    0.18    0.00   0.16  20.50
sde               5.00     0.00 1108.00    0.00 19676.00     0.00    35.52     0.20    0.18    0.18    0.00   0.16  18.10
sdf               4.00     0.00 1151.00    0.00 19608.00     0.00    34.07     0.20    0.18    0.18    0.00   0.17  19.20
sdg               0.00     0.00    0.00    0.00     0.00     0.00     0.00     0.00    0.00    0.00    0.00   0.00   0.00
sdh               0.00     0.00    0.00    0.00     0.00     0.00     0.00     0.00    0.00    0.00    0.00   0.00   0.00
md0               0.00     0.00 6854.00    0.00 132452.00     0.00    38.65     0.00    0.00    0.00    0.00   0.00   0.00

