Linux 4.17.2 (bench) 	08/03/2018 	_x86_64_	(4 CPU)

avg-cpu:  %user   %nice %system %iowait  %steal   %idle
          10.27    0.02    4.12    2.65    0.00   82.95

Device:         rrqm/s   wrqm/s     r/s     w/s    rkB/s    wkB/s avgrq-sz avgqu-sz   await r_await w_await  svctm  %util
sda              49.57     4.22 1690.41  101.84 21146.93  3116.19    27.08     1.04    0.58    0.26    5.92   0.06  10.88
sdb              49.40     4.18 1690.37  101.98 21136.41  3112.88    27.06     1.04    0.58    0.26    5.85   0.06  10.76
sdc              87.27     4.24 1650.42  101.53 21128.56  3115.32    27.68     1.46    0.83    0.45    7.12   0.08  14.24
sdd              80.74     4.20 1656.11  101.60 21113.47  3111.54    27.56     1.47    0.83    0.44    7.33   0.08  14.33
sde              82.76     4.25 1661.20  101.70 21173.06  3115.76    27.56     1.49    0.84    0.44    7.44   0.08  14.35
sdf              79.89     4.22 1663.32  101.64 21154.41  3112.65    27.50     1.53    0.87    0.44    7.90   0.08  14.38
sdg               0.00     3.17   26.54   73.29   324.93   392.04    14.36     0.44    4.41    0.20    5.93   0.08   0.78
sdh               0.00     0.13    0.02    0.23     2.20     5.03    56.82     0.00    1.15    0.65    1.19   0.21   0.01
md0               0.00     0.00 10448.55  477.17 144889.87 21329.91    30.43     0.00    0.00    0.00    0.00   0.00   0.00

avg-cpu:  %user   %nice %system %iowait  %steal   %idle
          24.94    0.00    2.02   11.08    0.00   61.96

Device:         rrqm/s   wrqm/s     r/s     w/s    rkB/s    wkB/s avgrq-sz avgqu-sz   await r_await w_await  svctm  %util
sda               0.00     0.00 1430.00    0.00  5720.00     0.00     8.00     0.14    0.10    0.10    0.00   0.10  14.40
sdb               0.00     0.00 1587.00    0.00  6348.00     0.00     8.00     0.15    0.10    0.10    0.00   0.10  15.50
sdc               0.00     0.00 1556.00    0.00  6224.00     0.00     8.00     0.16    0.10    0.10    0.00   0.10  15.90
sdd               0.00     0.00 1649.00    0.00  6596.00     0.00     8.00     0.16    0.10    0.10    0.00   0.10  16.00
sde               0.00     0.00 1591.00    0.00  6364.00     0.00     8.00     0.17    0.10    0.10    0.00   0.10  16.70
sdf               0.00     0.00 1557.00    0.00  6228.00     0.00     8.00     0.16    0.10    0.10    0.00   0.10  16.00
sdg               0.00     0.00    1.00   65.00    28.00  1252.00    38.79     0.23    3.52    4.00    3.51   0.11   0.70
sdh               0.00     0.00    0.00    0.00     0.00     0.00     0.00     0.00    0.00    0.00    0.00   0.00   0.00
md0               0.00     0.00 9372.00    0.00 37488.00     0.00     8.00     0.00    0.00    0.00    0.00   0.00   0.00

avg-cpu:  %user   %nice %system %iowait  %steal   %idle
          24.94    0.00    1.53    0.76    0.00   72.77

Device:         rrqm/s   wrqm/s     r/s     w/s    rkB/s    wkB/s avgrq-sz avgqu-sz   await r_await w_await  svctm  %util
sda               0.00     0.00 1590.00    0.00  6360.00     0.00     8.00     0.15    0.10    0.10    0.00   0.10  15.30
sdb               0.00     0.00 1621.00    0.00  6484.00     0.00     8.00     0.16    0.10    0.10    0.00   0.10  15.90
sdc               0.00     0.00 1530.00    0.00  6120.00     0.00     8.00     0.16    0.10    0.10    0.00   0.10  15.60
sdd               0.00     0.00 1559.00    0.00  6236.00     0.00     8.00     0.15    0.10    0.10    0.00   0.10  15.40
sde               0.00     0.00 1600.00    0.00  6400.00     0.00     8.00     0.17    0.10    0.10    0.00   0.10  16.60
sdf               0.00     0.00 1543.00    0.00  6172.00     0.00     8.00     0.16    0.10    0.10    0.00   0.10  15.60
sdg               0.00     0.00    0.00    0.00     0.00     0.00     0.00     0.00    0.00    0.00    0.00   0.00   0.00
sdh               0.00     0.00    0.00    0.00     0.00     0.00     0.00     0.00    0.00    0.00    0.00   0.00   0.00
md0               0.00     0.00 9443.00    0.00 37772.00     0.00     8.00     0.00    0.00    0.00    0.00   0.00   0.00

avg-cpu:  %user   %nice %system %iowait  %steal   %idle
          24.87    0.00    1.52    1.02    0.00   72.59

Device:         rrqm/s   wrqm/s     r/s     w/s    rkB/s    wkB/s avgrq-sz avgqu-sz   await r_await w_await  svctm  %util
sda               0.00     0.00 1582.00    0.00  6328.00     0.00     8.00     0.15    0.10    0.10    0.00   0.10  15.10
sdb               0.00     0.00 1668.00    0.00  6672.00     0.00     8.00     0.16    0.09    0.09    0.00   0.09  15.70
sdc               0.00     0.00 1534.00    0.00  6136.00     0.00     8.00     0.17    0.11    0.11    0.00   0.11  16.50
sdd               0.00     0.00 1676.00    0.00  6704.00     0.00     8.00     0.16    0.10    0.10    0.00   0.10  16.40
sde               0.00     0.00 1571.00    0.00  6284.00     0.00     8.00     0.16    0.10    0.10    0.00   0.10  15.80
sdf               0.00     0.00 1461.00    0.00  5844.00     0.00     8.00     0.15    0.10    0.10    0.00   0.10  15.10
sdg               0.00     0.00    0.00    0.00     0.00     0.00     0.00     0.00    0.00    0.00    0.00   0.00   0.00
sdh               0.00     0.00    0.00    0.00     0.00     0.00     0.00     0.00    0.00    0.00    0.00   0.00   0.00
md0               0.00     0.00 9492.00    0.00 37968.00     0.00     8.00     0.00    0.00    0.00    0.00   0.00   0.00

avg-cpu:  %user   %nice %system %iowait  %steal   %idle
          25.25    0.25    1.52    1.01    0.00   71.97

Device:         rrqm/s   wrqm/s     r/s     w/s    rkB/s    wkB/s avgrq-sz avgqu-sz   await r_await w_await  svctm  %util
sda               0.00     0.00 1546.00    0.00  6184.00     0.00     8.00     0.15    0.10    0.10    0.00   0.10  15.10
sdb               0.00     0.00 1631.00    0.00  6524.00     0.00     8.00     0.15    0.09    0.09    0.00   0.09  15.20
sdc               0.00     0.00 1585.00    0.00  6340.00     0.00     8.00     0.16    0.10    0.10    0.00   0.10  16.00
sdd               0.00     0.00 1576.00    0.00  6304.00     0.00     8.00     0.16    0.10    0.10    0.00   0.10  16.40
sde               0.00     0.00 1625.00    0.00  6500.00     0.00     8.00     0.17    0.11    0.11    0.00   0.11  17.10
sdf               0.00     0.00 1465.00    0.00  5860.00     0.00     8.00     0.15    0.10    0.10    0.00   0.10  14.70
sdg               0.00     0.00   18.00    0.00   120.00     0.00    13.33     0.00    0.11    0.11    0.00   0.11   0.20
sdh               0.00     0.00    0.00    0.00     0.00     0.00     0.00     0.00    0.00    0.00    0.00   0.00   0.00
md0               0.00     0.00 9428.00    0.00 37712.00     0.00     8.00     0.00    0.00    0.00    0.00   0.00   0.00

avg-cpu:  %user   %nice %system %iowait  %steal   %idle
          25.00    0.00    1.77    1.01    0.00   72.22

Device:         rrqm/s   wrqm/s     r/s     w/s    rkB/s    wkB/s avgrq-sz avgqu-sz   await r_await w_await  svctm  %util
sda               0.00     0.00 1532.00    0.00  6128.00     0.00     8.00     0.15    0.10    0.10    0.00   0.10  14.80
sdb               0.00     0.00 1522.00    0.00  6088.00     0.00     8.00     0.15    0.10    0.10    0.00   0.10  14.60
sdc               0.00     0.00 1572.00    0.00  6288.00     0.00     8.00     0.16    0.10    0.10    0.00   0.10  15.90
sdd               0.00     0.00 1626.00    0.00  6504.00     0.00     8.00     0.17    0.10    0.10    0.00   0.10  16.80
sde               0.00     0.00 1612.00    0.00  6448.00     0.00     8.00     0.16    0.10    0.10    0.00   0.10  16.20
sdf               0.00     0.00 1589.00    0.00  6356.00     0.00     8.00     0.17    0.10    0.10    0.00   0.10  16.50
sdg               0.00     0.00    0.00    0.00     0.00     0.00     0.00     0.00    0.00    0.00    0.00   0.00   0.00
sdh               0.00     0.00    0.00    0.00     0.00     0.00     0.00     0.00    0.00    0.00    0.00   0.00   0.00
md0               0.00     0.00 9452.00    0.00 37808.00     0.00     8.00     0.00    0.00    0.00    0.00   0.00   0.00

avg-cpu:  %user   %nice %system %iowait  %steal   %idle
          25.06    0.00    1.52    1.01    0.00   72.41

Device:         rrqm/s   wrqm/s     r/s     w/s    rkB/s    wkB/s avgrq-sz avgqu-sz   await r_await w_await  svctm  %util
sda               0.00     0.00 1567.00    0.00  6268.00     0.00     8.00     0.15    0.10    0.10    0.00   0.10  14.90
sdb               0.00     0.00 1547.00    0.00  6188.00     0.00     8.00     0.15    0.10    0.10    0.00   0.10  15.30
sdc               0.00     0.00 1608.00    0.00  6432.00     0.00     8.00     0.16    0.10    0.10    0.00   0.10  16.20
sdd               0.00     0.00 1593.00    0.00  6372.00     0.00     8.00     0.16    0.10    0.10    0.00   0.10  16.20
sde               0.00     0.00 1583.00    0.00  6332.00     0.00     8.00     0.16    0.10    0.10    0.00   0.10  15.80
sdf               0.00     0.00 1611.00    0.00  6444.00     0.00     8.00     0.17    0.10    0.10    0.00   0.10  16.60
sdg               0.00     0.00    1.00   22.00    16.00   236.00    21.91     0.02    0.91    0.00    0.95   0.04   0.10
sdh               0.00     0.00    0.00    0.00     0.00     0.00     0.00     0.00    0.00    0.00    0.00   0.00   0.00
md0               0.00     0.00 9510.00    0.00 38040.00     0.00     8.00     0.00    0.00    0.00    0.00   0.00   0.00

avg-cpu:  %user   %nice %system %iowait  %steal   %idle
          25.00    0.00    1.52    5.30    0.00   68.18

Device:         rrqm/s   wrqm/s     r/s     w/s    rkB/s    wkB/s avgrq-sz avgqu-sz   await r_await w_await  svctm  %util
sda               0.00     0.00 1625.00    0.00  6500.00     0.00     8.00     0.15    0.09    0.09    0.00   0.09  15.40
sdb               0.00     0.00 1558.00    0.00  6232.00     0.00     8.00     0.16    0.10    0.10    0.00   0.10  15.70
sdc               0.00     0.00 1536.00    0.00  6144.00     0.00     8.00     0.15    0.10    0.10    0.00   0.10  15.10
sdd               0.00     0.00 1543.00    0.00  6172.00     0.00     8.00     0.16    0.11    0.11    0.00   0.11  16.40
sde               0.00     0.00 1613.00    0.00  6452.00     0.00     8.00     0.16    0.10    0.10    0.00   0.10  15.90
sdf               0.00     0.00 1577.00    0.00  6308.00     0.00     8.00     0.16    0.10    0.10    0.00   0.10  16.00
sdg               0.00     0.00    0.00    0.00     0.00     0.00     0.00     0.00    0.00    0.00    0.00   0.00   0.00
sdh               0.00     0.00    0.00    0.00     0.00     0.00     0.00     0.00    0.00    0.00    0.00   0.00   0.00
md0               0.00     0.00 9452.00    0.00 37808.00     0.00     8.00     0.00    0.00    0.00    0.00   0.00   0.00

avg-cpu:  %user   %nice %system %iowait  %steal   %idle
          24.87    0.00    1.52    1.02    0.00   72.59

Device:         rrqm/s   wrqm/s     r/s     w/s    rkB/s    wkB/s avgrq-sz avgqu-sz   await r_await w_await  svctm  %util
sda               0.00     0.00 1633.00    0.00  6532.00     0.00     8.00     0.16    0.10    0.10    0.00   0.10  15.90
sdb               0.00     0.00 1577.00    0.00  6308.00     0.00     8.00     0.15    0.10    0.10    0.00   0.10  15.30
sdc               0.00     0.00 1543.00    0.00  6172.00     0.00     8.00     0.16    0.10    0.10    0.00   0.10  15.90
sdd               0.00     0.00 1564.00    0.00  6256.00     0.00     8.00     0.16    0.10    0.10    0.00   0.10  16.30
sde               0.00     0.00 1487.00    0.00  5948.00     0.00     8.00     0.16    0.10    0.10    0.00   0.10  15.60
sdf               0.00     0.00 1606.00    0.00  6424.00     0.00     8.00     0.17    0.11    0.11    0.00   0.11  17.00
sdg               0.00     0.00    0.00    0.00     0.00     0.00     0.00     0.00    0.00    0.00    0.00   0.00   0.00
sdh               0.00     0.00    0.00    0.00     0.00     0.00     0.00     0.00    0.00    0.00    0.00   0.00   0.00
md0               0.00     0.00 9409.00    0.00 37636.00     0.00     8.00     0.00    0.00    0.00    0.00   0.00   0.00

avg-cpu:  %user   %nice %system %iowait  %steal   %idle
          24.81    0.00    1.77    1.01    0.00   72.41

Device:         rrqm/s   wrqm/s     r/s     w/s    rkB/s    wkB/s avgrq-sz avgqu-sz   await r_await w_await  svctm  %util
sda               0.00     0.00 1664.00    0.00  6656.00     0.00     8.00     0.16    0.09    0.09    0.00   0.09  15.80
sdb               0.00     0.00 1567.00    0.00  6268.00     0.00     8.00     0.15    0.10    0.10    0.00   0.10  15.10
sdc               0.00     0.00 1514.00    0.00  6056.00     0.00     8.00     0.15    0.10    0.10    0.00   0.10  15.10
sdd               0.00     0.00 1602.00    0.00  6408.00     0.00     8.00     0.16    0.10    0.10    0.00   0.10  16.00
sde               0.00     0.00 1551.00    0.00  6204.00     0.00     8.00     0.16    0.10    0.10    0.00   0.10  16.10
sdf               0.00     0.00 1545.00    0.00  6180.00     0.00     8.00     0.16    0.10    0.10    0.00   0.10  15.90
sdg               0.00     0.00    0.00    0.00     0.00     0.00     0.00     0.00    0.00    0.00    0.00   0.00   0.00
sdh               0.00     0.00    0.00    0.00     0.00     0.00     0.00     0.00    0.00    0.00    0.00   0.00   0.00
md0               0.00     0.00 9444.00    0.00 37776.00     0.00     8.00     0.00    0.00    0.00    0.00   0.00   0.00

avg-cpu:  %user   %nice %system %iowait  %steal   %idle
          24.94    0.00    1.27    2.54    0.00   71.25

Device:         rrqm/s   wrqm/s     r/s     w/s    rkB/s    wkB/s avgrq-sz avgqu-sz   await r_await w_await  svctm  %util
sda               0.00     0.00 1602.00    0.00  6408.00     0.00     8.00     0.16    0.10    0.10    0.00   0.10  15.60
sdb               0.00     0.00 1552.00    0.00  6208.00     0.00     8.00     0.15    0.09    0.09    0.00   0.09  14.60
sdc               0.00     0.00 1515.00    0.00  6060.00     0.00     8.00     0.16    0.10    0.10    0.00   0.10  15.90
sdd               0.00     0.00 1585.00    0.00  6340.00     0.00     8.00     0.17    0.11    0.11    0.00   0.11  16.80
sde               0.00     0.00 1589.00    0.00  6356.00     0.00     8.00     0.16    0.10    0.10    0.00   0.10  15.80
sdf               0.00     0.00 1588.00    0.00  6352.00     0.00     8.00     0.17    0.11    0.11    0.00   0.11  16.90
sdg               0.00     0.00    0.00    0.00     0.00     0.00     0.00     0.00    0.00    0.00    0.00   0.00   0.00
sdh               0.00     0.00    0.00    0.00     0.00     0.00     0.00     0.00    0.00    0.00    0.00   0.00   0.00
md0               0.00     0.00 9431.00    0.00 37724.00     0.00     8.00     0.00    0.00    0.00    0.00   0.00   0.00

avg-cpu:  %user   %nice %system %iowait  %steal   %idle
          25.13    0.00    1.27    1.02    0.00   72.59

Device:         rrqm/s   wrqm/s     r/s     w/s    rkB/s    wkB/s avgrq-sz avgqu-sz   await r_await w_await  svctm  %util
sda               0.00     0.00 1546.00    0.00  6184.00     0.00     8.00     0.14    0.09    0.09    0.00   0.09  14.20
sdb               0.00     0.00 1551.00    0.00  6204.00     0.00     8.00     0.15    0.09    0.09    0.00   0.09  14.60
sdc               0.00     0.00 1580.00    0.00  6320.00     0.00     8.00     0.16    0.10    0.10    0.00   0.10  16.10
sdd               0.00     0.00 1603.00    0.00  6412.00     0.00     8.00     0.17    0.11    0.11    0.00   0.11  17.00
sde               0.00     0.00 1632.00    0.00  6528.00     0.00     8.00     0.16    0.10    0.10    0.00   0.10  16.10
sdf               0.00     0.00 1541.00    0.00  6164.00     0.00     8.00     0.16    0.11    0.11    0.00   0.11  16.40
sdg               0.00     1.00   13.00    4.00    52.00    56.00    12.71     0.01    0.65    0.38    1.50   0.24   0.40
sdh               0.00     0.00    0.00    0.00     0.00     0.00     0.00     0.00    0.00    0.00    0.00   0.00   0.00
md0               0.00     0.00 9453.00    0.00 37812.00     0.00     8.00     0.00    0.00    0.00    0.00   0.00   0.00

avg-cpu:  %user   %nice %system %iowait  %steal   %idle
          24.75    0.00    2.02    1.01    0.00   72.22

Device:         rrqm/s   wrqm/s     r/s     w/s    rkB/s    wkB/s avgrq-sz avgqu-sz   await r_await w_await  svctm  %util
sda               0.00     0.00 1529.00    0.00  6116.00     0.00     8.00     0.15    0.10    0.10    0.00   0.10  14.90
sdb               0.00     0.00 1608.00    0.00  6432.00     0.00     8.00     0.15    0.10    0.10    0.00   0.10  15.30
sdc               0.00     0.00 1568.00    0.00  6272.00     0.00     8.00     0.15    0.10    0.10    0.00   0.10  15.40
sdd               0.00     0.00 1601.00    0.00  6404.00     0.00     8.00     0.17    0.10    0.10    0.00   0.10  16.60
sde               0.00     0.00 1539.00    0.00  6156.00     0.00     8.00     0.16    0.11    0.11    0.00   0.11  16.20
sdf               0.00     0.00 1618.00    0.00  6472.00     0.00     8.00     0.16    0.10    0.10    0.00   0.10  15.70
sdg               0.00     0.00    0.00    0.00     0.00     0.00     0.00     0.00    0.00    0.00    0.00   0.00   0.00
sdh               0.00     0.00    0.00    0.00     0.00     0.00     0.00     0.00    0.00    0.00    0.00   0.00   0.00
md0               0.00     0.00 9462.00    0.00 37848.00     0.00     8.00     0.00    0.00    0.00    0.00   0.00   0.00

avg-cpu:  %user   %nice %system %iowait  %steal   %idle
          24.75    0.00    1.77    1.01    0.00   72.47

Device:         rrqm/s   wrqm/s     r/s     w/s    rkB/s    wkB/s avgrq-sz avgqu-sz   await r_await w_await  svctm  %util
sda               0.00     0.00 1568.00    0.00  6272.00     0.00     8.00     0.15    0.09    0.09    0.00   0.09  14.70
sdb               0.00     0.00 1597.00    0.00  6388.00     0.00     8.00     0.16    0.10    0.10    0.00   0.10  15.60
sdc               0.00     0.00 1646.00    0.00  6584.00     0.00     8.00     0.17    0.10    0.10    0.00   0.10  16.90
sdd               0.00     0.00 1524.00    0.00  6096.00     0.00     8.00     0.16    0.10    0.10    0.00   0.10  15.80
sde               0.00     0.00 1548.00    0.00  6192.00     0.00     8.00     0.15    0.10    0.10    0.00   0.10  14.80
sdf               0.00     0.00 1597.00    0.00  6388.00     0.00     8.00     0.17    0.10    0.10    0.00   0.10  16.50
sdg               0.00     0.00    0.00    0.00     0.00     0.00     0.00     0.00    0.00    0.00    0.00   0.00   0.00
sdh               0.00     0.00    0.00    0.00     0.00     0.00     0.00     0.00    0.00    0.00    0.00   0.00   0.00
md0               0.00     0.00 9480.00    0.00 37920.00     0.00     8.00     0.00    0.00    0.00    0.00   0.00   0.00

avg-cpu:  %user   %nice %system %iowait  %steal   %idle
          25.32    0.25    1.52    2.53    0.00   70.38

Device:         rrqm/s   wrqm/s     r/s     w/s    rkB/s    wkB/s avgrq-sz avgqu-sz   await r_await w_await  svctm  %util
sda               0.00     0.00 1538.00    0.00  6152.00     0.00     8.00     0.15    0.10    0.10    0.00   0.10  15.20
sdb               0.00     0.00 1557.00    0.00  6228.00     0.00     8.00     0.15    0.10    0.10    0.00   0.10  15.00
sdc               0.00     0.00 1619.00    0.00  6476.00     0.00     8.00     0.17    0.10    0.10    0.00   0.10  16.60
sdd               0.00     0.00 1466.00    0.00  5864.00     0.00     8.00     0.15    0.10    0.10    0.00   0.10  14.60
sde               0.00     0.00 1677.00    0.00  6708.00     0.00     8.00     0.18    0.10    0.10    0.00   0.10  17.60
sdf               0.00     0.00 1549.00    0.00  6196.00     0.00     8.00     0.16    0.10    0.10    0.00   0.10  16.20
sdg               0.00     0.00    4.00    0.00    16.00     0.00     8.00     0.00    0.25    0.25    0.00   0.25   0.10
sdh               0.00     0.00    0.00    0.00     0.00     0.00     0.00     0.00    0.00    0.00    0.00   0.00   0.00
md0               0.00     0.00 9406.00    0.00 37624.00     0.00     8.00     0.00    0.00    0.00    0.00   0.00   0.00

avg-cpu:  %user   %nice %system %iowait  %steal   %idle
          25.06    0.00    1.52    1.01    0.00   72.41

Device:         rrqm/s   wrqm/s     r/s     w/s    rkB/s    wkB/s avgrq-sz avgqu-sz   await r_await w_await  svctm  %util
sda               0.00     0.00 1589.00    0.00  6356.00     0.00     8.00     0.15    0.10    0.10    0.00   0.10  15.40
sdb               0.00     0.00 1567.00    0.00  6268.00     0.00     8.00     0.15    0.10    0.10    0.00   0.10  15.50
sdc               0.00     0.00 1573.00    0.00  6292.00     0.00     8.00     0.16    0.10    0.10    0.00   0.10  16.40
sdd               0.00     0.00 1569.00    0.00  6276.00     0.00     8.00     0.16    0.10    0.10    0.00   0.10  16.00
sde               0.00     0.00 1510.00    0.00  6040.00     0.00     8.00     0.16    0.10    0.10    0.00   0.10  15.60
sdf               0.00     0.00 1599.00    0.00  6396.00     0.00     8.00     0.17    0.10    0.10    0.00   0.10  16.50
sdg               0.00     0.00    0.00    0.00     0.00     0.00     0.00     0.00    0.00    0.00    0.00   0.00   0.00
sdh               0.00     0.00    0.00    0.00     0.00     0.00     0.00     0.00    0.00    0.00    0.00   0.00   0.00
md0               0.00     0.00 9407.00    0.00 37628.00     0.00     8.00     0.00    0.00    0.00    0.00   0.00   0.00

avg-cpu:  %user   %nice %system %iowait  %steal   %idle
          25.06    0.00    1.52    1.01    0.00   72.41

Device:         rrqm/s   wrqm/s     r/s     w/s    rkB/s    wkB/s avgrq-sz avgqu-sz   await r_await w_await  svctm  %util
sda               0.00     0.00 1661.00    0.00  6644.00     0.00     8.00     0.16    0.09    0.09    0.00   0.09  15.70
sdb               0.00     0.00 1576.00    0.00  6304.00     0.00     8.00     0.16    0.10    0.10    0.00   0.10  15.80
sdc               0.00     0.00 1477.00    0.00  5908.00     0.00     8.00     0.15    0.10    0.10    0.00   0.10  15.30
sdd               0.00     0.00 1629.00    0.00  6516.00     0.00     8.00     0.17    0.10    0.10    0.00   0.10  16.70
sde               0.00     0.00 1526.00    0.00  6104.00     0.00     8.00     0.16    0.10    0.10    0.00   0.10  15.90
sdf               0.00     0.00 1596.00    0.00  6384.00     0.00     8.00     0.16    0.10    0.10    0.00   0.10  15.90
sdg               0.00     0.00    0.00    0.00     0.00     0.00     0.00     0.00    0.00    0.00    0.00   0.00   0.00
sdh               0.00     0.00    0.00    0.00     0.00     0.00     0.00     0.00    0.00    0.00    0.00   0.00   0.00
md0               0.00     0.00 9465.00    0.00 37860.00     0.00     8.00     0.00    0.00    0.00    0.00   0.00   0.00

avg-cpu:  %user   %nice %system %iowait  %steal   %idle
          24.81    0.00    2.03    2.28    0.00   70.89

Device:         rrqm/s   wrqm/s     r/s     w/s    rkB/s    wkB/s avgrq-sz avgqu-sz   await r_await w_await  svctm  %util
sda               0.00     0.00 1477.00    0.00  5908.00     0.00     8.00     0.14    0.09    0.09    0.00   0.09  13.80
sdb               0.00     0.00 1625.00    0.00  6500.00     0.00     8.00     0.15    0.09    0.09    0.00   0.09  15.10
sdc               0.00     0.00 1773.00    0.00  7092.00     0.00     8.00     0.18    0.10    0.10    0.00   0.10  17.90
sdd               0.00     0.00 1549.00    0.00  6196.00     0.00     8.00     0.15    0.10    0.10    0.00   0.10  15.20
sde               0.00     0.00 1510.00    0.00  6040.00     0.00     8.00     0.16    0.11    0.11    0.00   0.11  16.00
sdf               0.00     0.00 1535.00    0.00  6140.00     0.00     8.00     0.16    0.11    0.11    0.00   0.11  16.30
sdg               0.00     0.00    0.00 1415.00     0.00  7400.00    10.46     8.66    6.12    0.00    6.12   0.05   6.50
sdh               0.00     0.00    0.00    0.00     0.00     0.00     0.00     0.00    0.00    0.00    0.00   0.00   0.00
md0               0.00     0.00 9470.00    0.00 37880.00     0.00     8.00     0.00    0.00    0.00    0.00   0.00   0.00

avg-cpu:  %user   %nice %system %iowait  %steal   %idle
          24.81    0.00    1.77    1.01    0.00   72.41

Device:         rrqm/s   wrqm/s     r/s     w/s    rkB/s    wkB/s avgrq-sz avgqu-sz   await r_await w_await  svctm  %util
sda               0.00     0.00 1589.00    0.00  6356.00     0.00     8.00     0.16    0.10    0.10    0.00   0.10  15.70
sdb               0.00     0.00 1582.00    0.00  6328.00     0.00     8.00     0.14    0.09    0.09    0.00   0.09  14.50
sdc               0.00     0.00 1586.00    0.00  6344.00     0.00     8.00     0.17    0.10    0.10    0.00   0.10  16.50
sdd               0.00     0.00 1622.00    0.00  6488.00     0.00     8.00     0.17    0.10    0.10    0.00   0.10  16.60
sde               0.00     0.00 1504.00    0.00  6016.00     0.00     8.00     0.15    0.10    0.10    0.00   0.10  15.50
sdf               0.00     0.00 1550.00    0.00  6200.00     0.00     8.00     0.15    0.10    0.10    0.00   0.10  15.50
sdg               0.00     0.00    0.00    0.00     0.00     0.00     0.00     0.00    0.00    0.00    0.00   0.00   0.00
sdh               0.00     0.00    0.00    0.00     0.00     0.00     0.00     0.00    0.00    0.00    0.00   0.00   0.00
md0               0.00     0.00 9433.00    0.00 37732.00     0.00     8.00     0.00    0.00    0.00    0.00   0.00   0.00

avg-cpu:  %user   %nice %system %iowait  %steal   %idle
          24.94    0.00    2.02   11.84    0.00   61.21

Device:         rrqm/s   wrqm/s     r/s     w/s    rkB/s    wkB/s avgrq-sz avgqu-sz   await r_await w_await  svctm  %util
sda               0.00     0.00 1668.00    0.00  6672.00     0.00     8.00     0.16    0.09    0.09    0.00   0.09  15.70
sdb               0.00     0.00 1521.00    0.00  6084.00     0.00     8.00     0.15    0.10    0.10    0.00   0.10  14.70
sdc               0.00     0.00 1537.00    0.00  6148.00     0.00     8.00     0.16    0.10    0.10    0.00   0.10  15.60
sdd               0.00     0.00 1613.00    0.00  6452.00     0.00     8.00     0.17    0.10    0.10    0.00   0.10  16.60
sde               0.00     0.00 1566.00    0.00  6264.00     0.00     8.00     0.16    0.10    0.10    0.00   0.10  16.00
sdf               0.00     0.00 1536.00    0.00  6144.00     0.00     8.00     0.16    0.10    0.10    0.00   0.10  15.80
sdg               0.00     0.00    0.00    0.00     0.00     0.00     0.00     0.00    0.00    0.00    0.00   0.00   0.00
sdh               0.00     0.00    0.00    0.00     0.00     0.00     0.00     0.00    0.00    0.00    0.00   0.00   0.00
md0               0.00     0.00 9440.00    0.00 37760.00     0.00     8.00     0.00    0.00    0.00    0.00   0.00   0.00

avg-cpu:  %user   %nice %system %iowait  %steal   %idle
          24.87    0.00    2.26   18.34    0.00   54.52

Device:         rrqm/s   wrqm/s     r/s     w/s    rkB/s    wkB/s avgrq-sz avgqu-sz   await r_await w_await  svctm  %util
sda               0.00     0.00 1566.00    0.00  6264.00     0.00     8.00     0.15    0.09    0.09    0.00   0.09  14.80
sdb               0.00     0.00 1560.00    0.00  6240.00     0.00     8.00     0.15    0.10    0.10    0.00   0.10  14.90
sdc               0.00     0.00 1489.00    0.00  5956.00     0.00     8.00     0.15    0.10    0.10    0.00   0.10  15.10
sdd               0.00     0.00 1625.00    0.00  6500.00     0.00     8.00     0.17    0.10    0.10    0.00   0.10  16.90
sde               0.00     0.00 1546.00    0.00  6184.00     0.00     8.00     0.16    0.11    0.11    0.00   0.11  16.40
sdf               0.00     0.00 1521.00    0.00  6084.00     0.00     8.00     0.15    0.10    0.10    0.00   0.10  15.20
sdg               0.00     0.00    0.00    0.00     0.00     0.00     0.00     0.00    0.00    0.00    0.00   0.00   0.00
sdh               0.00     0.00    0.00    0.00     0.00     0.00     0.00     0.00    0.00    0.00    0.00   0.00   0.00
md0               0.00     0.00 9307.00    0.00 37228.00     0.00     8.00     0.00    0.00    0.00    0.00   0.00   0.00

