Linux 4.17.2 (bench) 	08/03/2018 	_x86_64_	(4 CPU)

avg-cpu:  %user   %nice %system %iowait  %steal   %idle
          10.26    0.02    4.14    2.68    0.00   82.90

Device:         rrqm/s   wrqm/s     r/s     w/s    rkB/s    wkB/s avgrq-sz avgqu-sz   await r_await w_await  svctm  %util
sda              50.28     4.20 1702.47  101.58 21214.11  3108.06    26.96     1.04    0.58    0.26    5.92   0.06  10.94
sdb              50.11     4.17 1702.44  101.71 21203.64  3104.75    26.95     1.04    0.58    0.26    5.85   0.06  10.82
sdc              87.88     4.22 1662.58  101.27 21195.78  3107.19    27.56     1.46    0.83    0.44    7.12   0.08  14.30
sdd              81.37     4.19 1668.27  101.34 21180.79  3103.42    27.45     1.47    0.83    0.43    7.33   0.08  14.39
sde              83.38     4.24 1673.34  101.43 21240.24  3107.63    27.44     1.49    0.84    0.44    7.44   0.08  14.42
sdf              80.52     4.21 1675.46  101.38 21221.59  3104.52    27.38     1.53    0.86    0.44    7.90   0.08  14.45
sdg               0.00     3.17   26.63   73.28   325.25   392.02    14.36     0.44    4.40    0.20    5.93   0.08   0.78
sdh               0.00     0.13    0.02    0.23     2.19     5.02    56.82     0.00    1.15    0.65    1.19   0.21   0.01
md0               0.00     0.00 10525.21  475.92 145379.79 21274.23    30.30     0.00    0.00    0.00    0.00   0.00   0.00

avg-cpu:  %user   %nice %system %iowait  %steal   %idle
          24.29    0.01    2.71    6.33    0.00   66.66

Device:         rrqm/s   wrqm/s     r/s     w/s    rkB/s    wkB/s avgrq-sz avgqu-sz   await r_await w_await  svctm  %util
sda               5.75     0.00 1247.90    0.00 22053.60     0.00    35.35     0.19    0.15    0.15    0.00   0.14  16.91
sdb               5.40     0.00 1230.30    0.00 21399.40     0.00    34.79     0.18    0.15    0.15    0.00   0.13  16.55
sdc               5.45     0.00 1242.80    0.00 21855.60     0.00    35.17     0.22    0.18    0.18    0.00   0.16  19.73
sdd               5.65     0.00 1219.95    0.00 21016.80     0.00    34.46     0.22    0.18    0.18    0.00   0.16  19.56
sde               5.50     0.00 1230.05    0.00 21411.00     0.00    34.81     0.22    0.18    0.18    0.00   0.16  19.63
sdf               5.50     0.00 1226.75    0.00 21020.20     0.00    34.27     0.22    0.18    0.18    0.00   0.16  19.55
sdg               0.00     4.25    1.30   71.95    12.60   374.60    10.57     0.43    5.83    0.31    5.93   0.05   0.34
sdh               0.00     0.00    0.00    0.00     0.00     0.00     0.00     0.00    0.00    0.00    0.00   0.00   0.00
md0               0.00     0.00 7431.05    0.00 148179.00     0.00    39.88     0.00    0.00    0.00    0.00   0.00   0.00

