Linux 4.17.2 (bench) 	08/03/2018 	_x86_64_	(4 CPU)

avg-cpu:  %user   %nice %system %iowait  %steal   %idle
          10.28    0.02    4.08    2.59    0.00   83.04

Device:         rrqm/s   wrqm/s     r/s     w/s    rkB/s    wkB/s avgrq-sz avgqu-sz   await r_await w_await  svctm  %util
sda              46.44     4.24 1662.76  102.38 20982.64  3132.52    27.32     1.04    0.59    0.26    5.92   0.06  10.77
sdb              46.30     4.20 1662.71  102.51 20972.05  3129.19    27.31     1.03    0.59    0.26    5.85   0.06  10.64
sdc              84.23     4.26 1622.67  102.06 20964.15  3131.64    27.94     1.45    0.84    0.45    7.12   0.08  14.10
sdd              77.67     4.23 1628.41  102.13 20949.08  3127.85    27.83     1.46    0.84    0.44    7.33   0.08  14.20
sde              79.69     4.27 1633.48  102.23 21008.83  3132.09    27.82     1.48    0.85    0.44    7.44   0.08  14.22
sdf              76.81     4.24 1635.63  102.18 20990.08  3128.96    27.76     1.53    0.88    0.44    7.90   0.08  14.25
sdg               0.00     3.17   26.34   73.31   324.13   392.05    14.37     0.44    4.42    0.20    5.93   0.08   0.78
sdh               0.00     0.13    0.02    0.23     2.21     5.06    56.82     0.00    1.15    0.65    1.19   0.21   0.01
md0               0.00     0.00 10263.62  479.67 143718.56 21441.67    30.75     0.00    0.00    0.00    0.00   0.00   0.00

avg-cpu:  %user   %nice %system %iowait  %steal   %idle
          24.66    0.01    3.55   13.41    0.00   58.36

Device:         rrqm/s   wrqm/s     r/s     w/s    rkB/s    wkB/s avgrq-sz avgqu-sz   await r_await w_await  svctm  %util
sda               0.00     0.00 2105.00    0.00  8420.00     0.00     8.00     0.15    0.07    0.07    0.00   0.07  15.04
sdb               0.00     0.00 2155.85    0.00  8623.40     0.00     8.00     0.16    0.07    0.07    0.00   0.07  15.97
sdc               0.00     0.00 2093.20    0.00  8372.80     0.00     8.00     0.15    0.07    0.07    0.00   0.07  14.77
sdd               0.00     0.00 2132.25    0.00  8529.00     0.00     8.00     0.15    0.07    0.07    0.00   0.07  14.76
sde               0.00     0.00 2129.60    0.00  8518.40     0.00     8.00     0.15    0.07    0.07    0.00   0.07  14.80
sdf               0.00     0.00 2145.95    0.00  8583.80     0.00     8.00     0.15    0.07    0.07    0.00   0.07  14.83
sdg               0.00     0.00   96.45    0.75   434.40     9.80     9.14     0.01    0.13    0.13    0.20   0.11   1.11
sdh               0.00     0.00    0.00    0.00     0.00     0.00     0.00     0.00    0.00    0.00    0.00   0.00   0.00
md0               0.00     0.00 12761.95    0.00 51047.80     0.00     8.00     0.00    0.00    0.00    0.00   0.00   0.00

