Linux 4.17.2 (bench) 	08/03/2018 	_x86_64_	(4 CPU)

avg-cpu:  %user   %nice %system %iowait  %steal   %idle
          10.27    0.02    4.11    2.62    0.00   82.99

Device:         rrqm/s   wrqm/s     r/s     w/s    rkB/s    wkB/s avgrq-sz avgqu-sz   await r_await w_await  svctm  %util
sda              47.32     4.22 1680.36  102.04 21093.30  3122.20    27.17     1.04    0.58    0.26    5.92   0.06  10.84
sdb              47.17     4.18 1680.31  102.18 21082.79  3118.88    27.15     1.04    0.58    0.26    5.85   0.06  10.72
sdc              84.99     4.24 1640.40  101.73 21074.92  3121.33    27.78     1.46    0.84    0.45    7.12   0.08  14.19
sdd              78.45     4.21 1646.12  101.80 21059.83  3117.55    27.66     1.46    0.84    0.44    7.33   0.08  14.29
sde              80.46     4.26 1651.19  101.89 21119.46  3121.78    27.66     1.48    0.85    0.44    7.44   0.08  14.31
sdf              77.59     4.23 1653.32  101.84 21100.80  3118.65    27.60     1.53    0.87    0.44    7.90   0.08  14.34
sdg               0.00     3.17   26.47   73.30   324.65   392.03    14.37     0.44    4.41    0.20    5.93   0.08   0.78
sdh               0.00     0.13    0.02    0.23     2.20     5.04    56.82     0.00    1.15    0.65    1.19   0.21   0.01
md0               0.00     0.00 10374.63  478.09 144534.32 21371.08    30.57     0.00    0.00    0.00    0.00   0.00   0.00

avg-cpu:  %user   %nice %system %iowait  %steal   %idle
          24.87    0.00    1.52    1.02    0.00   72.59

Device:         rrqm/s   wrqm/s     r/s     w/s    rkB/s    wkB/s avgrq-sz avgqu-sz   await r_await w_await  svctm  %util
sda               0.00     0.00 1498.00    0.00  6596.00     0.00     8.81     0.15    0.10    0.10    0.00   0.10  15.20
sdb               0.00     0.00 1483.00    0.00  6212.00     0.00     8.38     0.17    0.11    0.11    0.00   0.11  16.50
sdc               0.00     0.00 1532.00    0.00  6720.00     0.00     8.77     0.17    0.11    0.11    0.00   0.11  17.30
sdd               0.00     0.00 1457.00    0.00  6268.00     0.00     8.60     0.14    0.10    0.10    0.00   0.09  13.80
sde               0.00     0.00 1505.00    0.00  6524.00     0.00     8.67     0.16    0.11    0.11    0.00   0.11  15.90
sdf               0.00     0.00 1522.00    0.00  6480.00     0.00     8.52     0.15    0.10    0.10    0.00   0.10  15.40
sdg               0.00     0.00    3.00    0.00   100.00     0.00    66.67     0.00    0.33    0.33    0.00   0.33   0.10
sdh               0.00     0.00    0.00    0.00     0.00     0.00     0.00     0.00    0.00    0.00    0.00   0.00   0.00
md0               0.00     0.00 8999.00    0.00 38864.00     0.00     8.64     0.00    0.00    0.00    0.00   0.00   0.00

avg-cpu:  %user   %nice %system %iowait  %steal   %idle
          24.37    0.00    2.28    1.02    0.00   72.34

Device:         rrqm/s   wrqm/s     r/s     w/s    rkB/s    wkB/s avgrq-sz avgqu-sz   await r_await w_await  svctm  %util
sda               0.00     0.00 1536.00    0.00  6608.00     0.00     8.60     0.17    0.11    0.11    0.00   0.11  17.10
sdb               0.00     0.00 1543.00    0.00  6792.00     0.00     8.80     0.14    0.09    0.09    0.00   0.09  14.20
sdc               0.00     0.00 1473.00    0.00  6104.00     0.00     8.29     0.16    0.11    0.11    0.00   0.11  16.30
sdd               0.00     0.00 1542.00    0.00  6760.00     0.00     8.77     0.15    0.10    0.10    0.00   0.10  14.80
sde               0.00     0.00 1476.00    0.00  6364.00     0.00     8.62     0.14    0.10    0.10    0.00   0.10  14.30
sdf               0.00     0.00 1555.00    0.00  7384.00     0.00     9.50     0.15    0.10    0.10    0.00   0.10  15.30
sdg               0.00     0.00    0.00    0.00     0.00     0.00     0.00     0.00    0.00    0.00    0.00   0.00   0.00
sdh               0.00     0.00    0.00    0.00     0.00     0.00     0.00     0.00    0.00    0.00    0.00   0.00   0.00
md0               0.00     0.00 9125.00    0.00 40120.00     0.00     8.79     0.00    0.00    0.00    0.00   0.00   0.00

avg-cpu:  %user   %nice %system %iowait  %steal   %idle
          24.81    0.00    2.03    1.01    0.00   72.15

Device:         rrqm/s   wrqm/s     r/s     w/s    rkB/s    wkB/s avgrq-sz avgqu-sz   await r_await w_await  svctm  %util
sda               0.00     0.00 1530.00    0.00  6932.00     0.00     9.06     0.14    0.09    0.09    0.00   0.09  13.50
sdb               0.00     0.00 1494.00    0.00  6664.00     0.00     8.92     0.15    0.10    0.10    0.00   0.10  14.90
sdc               0.00     0.00 1460.00    0.00  6548.00     0.00     8.97     0.16    0.11    0.11    0.00   0.11  15.80
sdd               0.00     0.00 1536.00    0.00  6584.00     0.00     8.57     0.17    0.11    0.11    0.00   0.11  16.60
sde               0.00     0.00 1580.00    0.00  6884.00     0.00     8.71     0.18    0.11    0.11    0.00   0.11  17.60
sdf               0.00     0.00 1508.00    0.00  6576.00     0.00     8.72     0.15    0.10    0.10    0.00   0.10  15.40
sdg               0.00     0.00    0.00    0.00     0.00     0.00     0.00     0.00    0.00    0.00    0.00   0.00   0.00
sdh               0.00     0.00    0.00    0.00     0.00     0.00     0.00     0.00    0.00    0.00    0.00   0.00   0.00
md0               0.00     0.00 9107.00    0.00 40884.00     0.00     8.98     0.00    0.00    0.00    0.00   0.00   0.00

avg-cpu:  %user   %nice %system %iowait  %steal   %idle
          24.62    0.00    2.03    1.02    0.00   72.34

Device:         rrqm/s   wrqm/s     r/s     w/s    rkB/s    wkB/s avgrq-sz avgqu-sz   await r_await w_await  svctm  %util
sda               0.00     0.00 1567.00    0.00  6940.00     0.00     8.86     0.16    0.10    0.10    0.00   0.10  16.10
sdb               0.00     0.00 1465.00    0.00  6408.00     0.00     8.75     0.11    0.08    0.08    0.00   0.08  11.50
sdc               0.00     0.00 1536.00    0.00  6868.00     0.00     8.94     0.16    0.11    0.11    0.00   0.11  16.40
sdd               0.00     0.00 1501.00    0.00  6860.00     0.00     9.14     0.17    0.11    0.11    0.00   0.11  16.70
sde               0.00     0.00 1552.00    0.00  6828.00     0.00     8.80     0.16    0.11    0.11    0.00   0.10  16.20
sdf               0.00     0.00 1504.00    0.00  6464.00     0.00     8.60     0.16    0.10    0.10    0.00   0.10  15.70
sdg               0.00     0.00    1.00    2.00    16.00    28.00    29.33     0.00    0.00    0.00    0.00   0.00   0.00
sdh               0.00     0.00    0.00    0.00     0.00     0.00     0.00     0.00    0.00    0.00    0.00   0.00   0.00
md0               0.00     0.00 9126.00    0.00 40904.00     0.00     8.96     0.00    0.00    0.00    0.00   0.00   0.00

avg-cpu:  %user   %nice %system %iowait  %steal   %idle
          24.81    0.00    1.77    1.01    0.00   72.41

Device:         rrqm/s   wrqm/s     r/s     w/s    rkB/s    wkB/s avgrq-sz avgqu-sz   await r_await w_await  svctm  %util
sda               0.00     0.00 1512.00    0.00  6468.00     0.00     8.56     0.14    0.09    0.09    0.00   0.09  14.10
sdb               0.00     0.00 1481.00    0.00  6248.00     0.00     8.44     0.15    0.10    0.10    0.00   0.10  15.40
sdc               0.00     0.00 1583.00    0.00  6768.00     0.00     8.55     0.15    0.10    0.10    0.00   0.10  15.30
sdd               0.00     0.00 1529.00    0.00  6572.00     0.00     8.60     0.17    0.11    0.11    0.00   0.11  17.00
sde               0.00     0.00 1544.00    0.00  6804.00     0.00     8.81     0.17    0.11    0.11    0.00   0.11  17.00
sdf               0.00     0.00 1482.00    0.00  6196.00     0.00     8.36     0.16    0.11    0.11    0.00   0.11  15.80
sdg               0.00     0.00    0.00    2.00     0.00     8.00     8.00     0.00    0.00    0.00    0.00   0.00   0.00
sdh               0.00     0.00    0.00    0.00     0.00     0.00     0.00     0.00    0.00    0.00    0.00   0.00   0.00
md0               0.00     0.00 9131.00    0.00 39360.00     0.00     8.62     0.00    0.00    0.00    0.00   0.00   0.00

avg-cpu:  %user   %nice %system %iowait  %steal   %idle
          24.43    0.00    2.77   14.61    0.00   58.19

Device:         rrqm/s   wrqm/s     r/s     w/s    rkB/s    wkB/s avgrq-sz avgqu-sz   await r_await w_await  svctm  %util
sda               0.00     0.00 1544.00    0.00  6644.00     0.00     8.61     0.14    0.09    0.09    0.00   0.09  14.40
sdb               0.00     0.00 1493.00    0.00  6544.00     0.00     8.77     0.16    0.11    0.11    0.00   0.11  15.80
sdc               0.00     0.00 1472.00    0.00  6212.00     0.00     8.44     0.15    0.10    0.10    0.00   0.10  15.00
sdd               0.00     0.00 1509.00    0.00  6556.00     0.00     8.69     0.17    0.12    0.12    0.00   0.11  17.30
sde               0.00     0.00 1589.00    0.00  7128.00     0.00     8.97     0.15    0.09    0.09    0.00   0.09  14.80
sdf               0.00     0.00 1446.00    0.00  6044.00     0.00     8.36     0.14    0.10    0.10    0.00   0.10  13.80
sdg               0.00     0.00    0.00    0.00     0.00     0.00     0.00     0.00    0.00    0.00    0.00   0.00   0.00
sdh               0.00     0.00    0.00    0.00     0.00     0.00     0.00     0.00    0.00    0.00    0.00   0.00   0.00
md0               0.00     0.00 9053.00    0.00 39384.00     0.00     8.70     0.00    0.00    0.00    0.00   0.00   0.00

avg-cpu:  %user   %nice %system %iowait  %steal   %idle
          24.75    0.25    2.78   10.61    0.00   61.62

Device:         rrqm/s   wrqm/s     r/s     w/s    rkB/s    wkB/s avgrq-sz avgqu-sz   await r_await w_await  svctm  %util
sda               0.00     0.00 1521.00    0.00  6668.00     0.00     8.77     0.15    0.10    0.10    0.00   0.10  15.40
sdb               0.00     0.00 1509.00    0.00  6668.00     0.00     8.84     0.13    0.09    0.09    0.00   0.09  13.40
sdc               0.00     0.00 1510.00    0.00  6420.00     0.00     8.50     0.18    0.12    0.12    0.00   0.12  18.30
sdd               0.00     0.00 1511.00    0.00  6720.00     0.00     8.89     0.14    0.10    0.10    0.00   0.10  14.40
sde               0.00     0.00 1480.00    0.00  6296.00     0.00     8.51     0.16    0.11    0.11    0.00   0.11  15.90
sdf               0.00     0.00 1509.00    0.00  6428.00     0.00     8.52     0.15    0.10    0.10    0.00   0.10  15.40
sdg               0.00     0.00   17.00    0.00   116.00     0.00    13.65     0.00    0.00    0.00    0.00   0.00   0.00
sdh               0.00     0.00    0.00    0.00     0.00     0.00     0.00     0.00    0.00    0.00    0.00   0.00   0.00
md0               0.00     0.00 9040.00    0.00 39656.00     0.00     8.77     0.00    0.00    0.00    0.00   0.00   0.00

avg-cpu:  %user   %nice %system %iowait  %steal   %idle
          23.37    0.00    3.02    1.01    0.00   72.61

Device:         rrqm/s   wrqm/s     r/s     w/s    rkB/s    wkB/s avgrq-sz avgqu-sz   await r_await w_await  svctm  %util
sda               0.00     0.00 1539.00    0.00  6584.00     0.00     8.56     0.15    0.10    0.10    0.00   0.10  15.20
sdb               0.00     0.00 1486.00    0.00  6364.00     0.00     8.57     0.15    0.10    0.10    0.00   0.10  15.30
sdc               0.00     0.00 1501.00    0.00  6508.00     0.00     8.67     0.17    0.11    0.11    0.00   0.11  16.70
sdd               0.00     0.00 1558.00    0.00  6996.00     0.00     8.98     0.16    0.10    0.10    0.00   0.10  15.60
sde               0.00     0.00 1532.00    0.00  6680.00     0.00     8.72     0.16    0.10    0.10    0.00   0.10  15.70
sdf               0.00     0.00 1526.00    0.00  6460.00     0.00     8.47     0.15    0.10    0.10    0.00   0.10  14.80
sdg               0.00     0.00    0.00    0.00     0.00     0.00     0.00     0.00    0.00    0.00    0.00   0.00   0.00
sdh               0.00     0.00    0.00    0.00     0.00     0.00     0.00     0.00    0.00    0.00    0.00   0.00   0.00
md0               0.00     0.00 9143.00    0.00 39704.00     0.00     8.69     0.00    0.00    0.00    0.00   0.00   0.00

avg-cpu:  %user   %nice %system %iowait  %steal   %idle
          23.74    0.00    2.53    1.01    0.00   72.73

Device:         rrqm/s   wrqm/s     r/s     w/s    rkB/s    wkB/s avgrq-sz avgqu-sz   await r_await w_await  svctm  %util
sda               0.00     0.00 1523.00    0.00  6836.00     0.00     8.98     0.14    0.10    0.10    0.00   0.10  14.50
sdb               0.00     0.00 1476.00    0.00  6416.00     0.00     8.69     0.13    0.09    0.09    0.00   0.09  13.40
sdc               0.00     0.00 1555.00    0.00  6892.00     0.00     8.86     0.18    0.11    0.11    0.00   0.11  17.80
sdd               0.00     0.00 1489.00    0.00  6468.00     0.00     8.69     0.15    0.10    0.10    0.00   0.10  14.80
sde               0.00     0.00 1573.00    0.00  6840.00     0.00     8.70     0.19    0.12    0.12    0.00   0.12  18.90
sdf               0.00     0.00 1511.00    0.00  7072.00     0.00     9.36     0.15    0.10    0.10    0.00   0.10  14.80
sdg               0.00     0.00    0.00    0.00     0.00     0.00     0.00     0.00    0.00    0.00    0.00   0.00   0.00
sdh               0.00     0.00    0.00    0.00     0.00     0.00     0.00     0.00    0.00    0.00    0.00   0.00   0.00
md0               0.00     0.00 9127.00    0.00 41000.00     0.00     8.98     0.00    0.00    0.00    0.00   0.00   0.00

avg-cpu:  %user   %nice %system %iowait  %steal   %idle
          23.25    0.00    3.75    1.00    0.00   72.00

Device:         rrqm/s   wrqm/s     r/s     w/s    rkB/s    wkB/s avgrq-sz avgqu-sz   await r_await w_await  svctm  %util
sda               0.00     0.00 1488.00    0.00  7272.00     0.00     9.77     0.13    0.09    0.09    0.00   0.09  13.40
sdb               0.00     0.00 1523.00    0.00  6700.00     0.00     8.80     0.12    0.08    0.08    0.00   0.08  12.50
sdc               0.00     0.00 1516.00    0.00  6976.00     0.00     9.20     0.17    0.11    0.11    0.00   0.11  16.50
sdd               0.00     0.00 1502.00    0.00  6588.00     0.00     8.77     0.16    0.11    0.11    0.00   0.11  15.90
sde               0.00     0.00 1539.00    0.00  6844.00     0.00     8.89     0.16    0.10    0.10    0.00   0.10  15.90
sdf               0.00     0.00 1521.00    0.00  6480.00     0.00     8.52     0.17    0.11    0.11    0.00   0.11  16.70
sdg               0.00     1.00    8.00 1436.00    32.00  7492.00    10.42     8.69    6.02    0.12    6.05   0.05   6.50
sdh               0.00     0.00    0.00    0.00     0.00     0.00     0.00     0.00    0.00    0.00    0.00   0.00   0.00
md0               0.00     0.00 9087.00    0.00 41272.00     0.00     9.08     0.00    0.00    0.00    0.00   0.00   0.00

avg-cpu:  %user   %nice %system %iowait  %steal   %idle
          23.62    0.00    3.02    1.01    0.00   72.36

Device:         rrqm/s   wrqm/s     r/s     w/s    rkB/s    wkB/s avgrq-sz avgqu-sz   await r_await w_await  svctm  %util
sda               0.00     0.00 1566.00    0.00  6980.00     0.00     8.91     0.15    0.09    0.09    0.00   0.09  14.60
sdb               0.00     0.00 1528.00    0.00  6624.00     0.00     8.67     0.14    0.09    0.09    0.00   0.09  14.10
sdc               0.00     0.00 1521.00    0.00  6508.00     0.00     8.56     0.15    0.10    0.10    0.00   0.10  14.80
sdd               0.00     0.00 1570.00    0.00  6620.00     0.00     8.43     0.20    0.12    0.12    0.00   0.12  19.60
sde               0.00     0.00 1463.00    0.00  6196.00     0.00     8.47     0.16    0.11    0.11    0.00   0.11  15.90
sdf               0.00     0.00 1528.00    0.00  6428.00     0.00     8.41     0.15    0.10    0.10    0.00   0.10  14.80
sdg               0.00     0.00    0.00    0.00     0.00     0.00     0.00     0.00    0.00    0.00    0.00   0.00   0.00
sdh               0.00     0.00    0.00    0.00     0.00     0.00     0.00     0.00    0.00    0.00    0.00   0.00   0.00
md0               0.00     0.00 9177.00    0.00 39484.00     0.00     8.60     0.00    0.00    0.00    0.00   0.00   0.00

avg-cpu:  %user   %nice %system %iowait  %steal   %idle
          23.56    0.00    3.01    1.00    0.00   72.43

Device:         rrqm/s   wrqm/s     r/s     w/s    rkB/s    wkB/s avgrq-sz avgqu-sz   await r_await w_await  svctm  %util
sda               0.00     0.00 1541.00    0.00  6644.00     0.00     8.62     0.15    0.10    0.10    0.00   0.10  15.10
sdb               0.00     0.00 1498.00    0.00  6472.00     0.00     8.64     0.14    0.10    0.10    0.00   0.10  14.40
sdc               0.00     0.00 1518.00    0.00  6468.00     0.00     8.52     0.16    0.11    0.11    0.00   0.11  16.30
sdd               0.00     0.00 1513.00    0.00  6520.00     0.00     8.62     0.16    0.10    0.10    0.00   0.10  15.60
sde               0.00     0.00 1530.00    0.00  6476.00     0.00     8.47     0.15    0.10    0.10    0.00   0.10  15.10
sdf               0.00     0.00 1570.00    0.00  6892.00     0.00     8.78     0.16    0.10    0.10    0.00   0.10  15.90
sdg               0.00     0.00    0.00    0.00     0.00     0.00     0.00     0.00    0.00    0.00    0.00   0.00   0.00
sdh               0.00     0.00    0.00    0.00     0.00     0.00     0.00     0.00    0.00    0.00    0.00   0.00   0.00
md0               0.00     0.00 9170.00    0.00 39552.00     0.00     8.63     0.00    0.00    0.00    0.00   0.00   0.00

avg-cpu:  %user   %nice %system %iowait  %steal   %idle
          23.68    0.00    2.52    1.01    0.00   72.80

Device:         rrqm/s   wrqm/s     r/s     w/s    rkB/s    wkB/s avgrq-sz avgqu-sz   await r_await w_await  svctm  %util
sda               0.00     0.00 1532.00    0.00  6708.00     0.00     8.76     0.15    0.10    0.10    0.00   0.10  14.70
sdb               0.00     0.00 1528.00    0.00  6764.00     0.00     8.85     0.14    0.09    0.09    0.00   0.09  13.70
sdc               0.00     0.00 1466.00    0.00  6408.00     0.00     8.74     0.17    0.11    0.11    0.00   0.11  16.60
sdd               0.00     0.00 1574.00    0.00  6724.00     0.00     8.54     0.17    0.11    0.11    0.00   0.11  17.00
sde               0.00     0.00 1536.00    0.00  6704.00     0.00     8.73     0.16    0.10    0.10    0.00   0.10  15.90
sdf               0.00     0.00 1536.00    0.00  6492.00     0.00     8.45     0.16    0.10    0.10    0.00   0.10  15.90
sdg               0.00     0.00    0.00    0.00     0.00     0.00     0.00     0.00    0.00    0.00    0.00   0.00   0.00
sdh               0.00     0.00    0.00    0.00     0.00     0.00     0.00     0.00    0.00    0.00    0.00   0.00   0.00
md0               0.00     0.00 9172.00    0.00 40060.00     0.00     8.74     0.00    0.00    0.00    0.00   0.00   0.00

avg-cpu:  %user   %nice %system %iowait  %steal   %idle
          23.31    0.00    3.26    1.00    0.00   72.43

Device:         rrqm/s   wrqm/s     r/s     w/s    rkB/s    wkB/s avgrq-sz avgqu-sz   await r_await w_await  svctm  %util
sda               0.00     0.00 1538.00    0.00  6636.00     0.00     8.63     0.17    0.11    0.11    0.00   0.11  17.30
sdb               0.00     0.00 1538.00    0.00  6624.00     0.00     8.61     0.15    0.10    0.10    0.00   0.10  15.10
sdc               0.00     0.00 1487.00    0.00  6660.00     0.00     8.96     0.15    0.10    0.10    0.00   0.10  15.40
sdd               0.00     0.00 1508.00    0.00  6272.00     0.00     8.32     0.14    0.09    0.09    0.00   0.09  14.20
sde               0.00     0.00 1517.00    0.00  6420.00     0.00     8.46     0.15    0.10    0.10    0.00   0.10  14.80
sdf               0.00     0.00 1575.00    0.00  6952.00     0.00     8.83     0.16    0.10    0.10    0.00   0.10  15.90
sdg               0.00     0.00    0.00    0.00     0.00     0.00     0.00     0.00    0.00    0.00    0.00   0.00   0.00
sdh               0.00     0.00    0.00    0.00     0.00     0.00     0.00     0.00    0.00    0.00    0.00   0.00   0.00
md0               0.00     0.00 9163.00    0.00 39636.00     0.00     8.65     0.00    0.00    0.00    0.00   0.00   0.00

avg-cpu:  %user   %nice %system %iowait  %steal   %idle
          23.87    0.00    2.76    1.01    0.00   72.36

Device:         rrqm/s   wrqm/s     r/s     w/s    rkB/s    wkB/s avgrq-sz avgqu-sz   await r_await w_await  svctm  %util
sda               0.00     0.00 1528.00    0.00  6604.00     0.00     8.64     0.13    0.09    0.09    0.00   0.09  13.10
sdb               0.00     0.00 1512.00    0.00  6660.00     0.00     8.81     0.15    0.10    0.10    0.00   0.10  15.30
sdc               0.00     0.00 1603.00    0.00  7060.00     0.00     8.81     0.20    0.12    0.12    0.00   0.12  19.50
sdd               0.00     0.00 1530.00    0.00  6624.00     0.00     8.66     0.16    0.10    0.10    0.00   0.10  15.60
sde               0.00     0.00 1504.00    0.00  6400.00     0.00     8.51     0.14    0.09    0.09    0.00   0.09  14.10
sdf               0.00     0.00 1499.00    0.00  6484.00     0.00     8.65     0.18    0.12    0.12    0.00   0.12  17.60
sdg               0.00     1.00    9.00    1.00    36.00    20.00    11.20     0.00    0.10    0.11    0.00   0.10   0.10
sdh               0.00     0.00    0.00    0.00     0.00     0.00     0.00     0.00    0.00    0.00    0.00   0.00   0.00
md0               0.00     0.00 9175.00    0.00 39892.00     0.00     8.70     0.00    0.00    0.00    0.00   0.00   0.00

avg-cpu:  %user   %nice %system %iowait  %steal   %idle
          23.75    0.00    2.75    1.25    0.00   72.25

Device:         rrqm/s   wrqm/s     r/s     w/s    rkB/s    wkB/s avgrq-sz avgqu-sz   await r_await w_await  svctm  %util
sda               0.00     0.00 1461.00    0.00  6104.00     0.00     8.36     0.13    0.09    0.09    0.00   0.09  13.30
sdb               0.00     0.00 1581.00    0.00  6880.00     0.00     8.70     0.15    0.09    0.09    0.00   0.09  14.70
sdc               0.00     0.00 1528.00    0.00  6892.00     0.00     9.02     0.17    0.11    0.11    0.00   0.11  16.80
sdd               0.00     0.00 1545.00    0.00  6712.00     0.00     8.69     0.16    0.10    0.10    0.00   0.10  16.00
sde               0.00     0.00 1471.00    0.00  6396.00     0.00     8.70     0.16    0.11    0.11    0.00   0.11  16.00
sdf               0.00     0.00 1521.00    0.00  6444.00     0.00     8.47     0.17    0.11    0.11    0.00   0.11  16.80
sdg               0.00     0.00    0.00    0.00     0.00     0.00     0.00     0.00    0.00    0.00    0.00   0.00   0.00
sdh               0.00     0.00    0.00    0.00     0.00     0.00     0.00     0.00    0.00    0.00    0.00   0.00   0.00
md0               0.00     0.00 9107.00    0.00 39644.00     0.00     8.71     0.00    0.00    0.00    0.00   0.00   0.00

avg-cpu:  %user   %nice %system %iowait  %steal   %idle
          23.48    0.25    2.78    1.01    0.00   72.47

Device:         rrqm/s   wrqm/s     r/s     w/s    rkB/s    wkB/s avgrq-sz avgqu-sz   await r_await w_await  svctm  %util
sda               0.00     0.00 1514.00    0.00  6496.00     0.00     8.58     0.14    0.10    0.10    0.00   0.10  14.40
sdb               0.00     0.00 1561.00    0.00  6912.00     0.00     8.86     0.16    0.10    0.10    0.00   0.10  15.60
sdc               0.00     0.00 1536.00    0.00  6980.00     0.00     9.09     0.17    0.11    0.11    0.00   0.11  17.30
sdd               0.00     0.00 1465.00    0.00  6764.00     0.00     9.23     0.16    0.11    0.11    0.00   0.11  15.70
sde               0.00     0.00 1550.00    0.00  6984.00     0.00     9.01     0.15    0.10    0.10    0.00   0.10  15.50
sdf               0.00     0.00 1445.00    0.00  6172.00     0.00     8.54     0.16    0.11    0.11    0.00   0.11  16.40
sdg               0.00     0.00    6.00    0.00    24.00     0.00     8.00     0.00    0.17    0.17    0.00   0.17   0.10
sdh               0.00     0.00    0.00    0.00     0.00     0.00     0.00     0.00    0.00    0.00    0.00   0.00   0.00
md0               0.00     0.00 9072.00    0.00 40888.00     0.00     9.01     0.00    0.00    0.00    0.00   0.00   0.00

avg-cpu:  %user   %nice %system %iowait  %steal   %idle
          23.56    0.00    3.26    1.00    0.00   72.18

Device:         rrqm/s   wrqm/s     r/s     w/s    rkB/s    wkB/s avgrq-sz avgqu-sz   await r_await w_await  svctm  %util
sda               0.00     0.00 1549.00    0.00  6756.00     0.00     8.72     0.15    0.10    0.10    0.00   0.10  14.90
sdb               0.00     0.00 1573.00    0.00  6732.00     0.00     8.56     0.15    0.10    0.10    0.00   0.10  15.20
sdc               0.00     0.00 1419.00    0.00  5876.00     0.00     8.28     0.14    0.10    0.10    0.00   0.10  13.60
sdd               0.00     0.00 1517.00    0.00  6692.00     0.00     8.82     0.16    0.11    0.11    0.00   0.11  16.00
sde               0.00     0.00 1437.00    0.00  6308.00     0.00     8.78     0.16    0.11    0.11    0.00   0.11  16.20
sdf               0.00     0.00 1461.00    0.00  6660.00     0.00     9.12     0.16    0.11    0.11    0.00   0.11  16.30
sdg               0.00     0.00    0.00    0.00     0.00     0.00     0.00     0.00    0.00    0.00    0.00   0.00   0.00
sdh               0.00     0.00    0.00    0.00     0.00     0.00     0.00     0.00    0.00    0.00    0.00   0.00   0.00
md0               0.00     0.00 8955.00    0.00 39324.00     0.00     8.78     0.00    0.00    0.00    0.00   0.00   0.00

avg-cpu:  %user   %nice %system %iowait  %steal   %idle
          23.50    0.00    3.25    1.00    0.00   72.25

Device:         rrqm/s   wrqm/s     r/s     w/s    rkB/s    wkB/s avgrq-sz avgqu-sz   await r_await w_await  svctm  %util
sda               0.00     0.00 1529.00    0.00  6440.00     0.00     8.42     0.14    0.09    0.09    0.00   0.09  14.10
sdb               0.00     0.00 1481.00    0.00  6356.00     0.00     8.58     0.14    0.09    0.09    0.00   0.09  13.80
sdc               0.00     0.00 1496.00    0.00  6464.00     0.00     8.64     0.17    0.12    0.12    0.00   0.12  17.30
sdd               0.00     0.00 1531.00    0.00  6920.00     0.00     9.04     0.15    0.10    0.10    0.00   0.10  15.10
sde               0.00     0.00 1532.00    0.00  7064.00     0.00     9.22     0.14    0.09    0.09    0.00   0.09  13.90
sdf               0.00     0.00 1571.00    0.00  6680.00     0.00     8.50     0.18    0.11    0.11    0.00   0.11  17.70
sdg               0.00     0.00    0.00    0.00     0.00     0.00     0.00     0.00    0.00    0.00    0.00   0.00   0.00
sdh               0.00     0.00    0.00    0.00     0.00     0.00     0.00     0.00    0.00    0.00    0.00   0.00   0.00
md0               0.00     0.00 9140.00    0.00 40080.00     0.00     8.77     0.00    0.00    0.00    0.00   0.00   0.00

avg-cpu:  %user   %nice %system %iowait  %steal   %idle
          23.56    0.00    3.01    1.00    0.00   72.43

Device:         rrqm/s   wrqm/s     r/s     w/s    rkB/s    wkB/s avgrq-sz avgqu-sz   await r_await w_await  svctm  %util
sda               0.00     0.00 1524.00    0.00  6484.00     0.00     8.51     0.16    0.10    0.10    0.00   0.10  15.70
sdb               0.00     0.00 1523.00    0.00  6636.00     0.00     8.71     0.16    0.11    0.11    0.00   0.11  16.30
sdc               0.00     0.00 1508.00    0.00  6688.00     0.00     8.87     0.16    0.11    0.11    0.00   0.11  15.90
sdd               0.00     0.00 1547.00    0.00  6648.00     0.00     8.59     0.13    0.09    0.09    0.00   0.09  13.30
sde               0.00     0.00 1538.00    0.00  6580.00     0.00     8.56     0.17    0.11    0.11    0.00   0.11  16.60
sdf               0.00     0.00 1509.00    0.00  6484.00     0.00     8.59     0.15    0.10    0.10    0.00   0.10  15.10
sdg               0.00     0.00    0.00    0.00     0.00     0.00     0.00     0.00    0.00    0.00    0.00   0.00   0.00
sdh               0.00     0.00    0.00    0.00     0.00     0.00     0.00     0.00    0.00    0.00    0.00   0.00   0.00
md0               0.00     0.00 9150.00    0.00 39640.00     0.00     8.66     0.00    0.00    0.00    0.00   0.00   0.00

