Linux 4.17.2 (bench) 	08/03/2018 	_x86_64_	(4 CPU)

avg-cpu:  %user   %nice %system %iowait  %steal   %idle
          10.27    0.02    4.07    2.56    0.00   83.07

Device:         rrqm/s   wrqm/s     r/s     w/s    rkB/s    wkB/s avgrq-sz avgqu-sz   await r_await w_await  svctm  %util
sda              45.88     4.24 1657.54  102.50 20977.02  3136.39    27.40     1.04    0.59    0.26    5.92   0.06  10.74
sdb              45.74     4.20 1657.48  102.64 20966.39  3133.05    27.38     1.03    0.59    0.26    5.85   0.06  10.62
sdc              83.72     4.26 1617.40  102.19 20958.48  3135.52    28.02     1.45    0.85    0.45    7.12   0.08  14.08
sdd              77.15     4.23 1623.14  102.26 20943.39  3131.71    27.91     1.46    0.85    0.44    7.33   0.08  14.18
sde              79.18     4.28 1628.21  102.36 21003.18  3135.96    27.90     1.48    0.86    0.44    7.44   0.08  14.20
sdf              76.29     4.25 1630.37  102.30 20984.45  3132.82    27.84     1.53    0.88    0.44    7.90   0.08  14.23
sdg               0.00     3.17   26.32   73.33   324.06   392.10    14.37     0.44    4.42    0.20    5.93   0.08   0.78
sdh               0.00     0.13    0.02    0.23     2.21     5.06    56.82     0.00    1.15    0.65    1.19   0.21   0.01
md0               0.00     0.00 10228.92  480.26 143706.71 21468.18    30.85     0.00    0.00    0.00    0.00   0.00   0.00

avg-cpu:  %user   %nice %system %iowait  %steal   %idle
          24.83    0.01    2.25    2.04    0.00   70.86

Device:         rrqm/s   wrqm/s     r/s     w/s    rkB/s    wkB/s avgrq-sz avgqu-sz   await r_await w_await  svctm  %util
sda               0.00     0.00 1524.95    0.00  6099.80     0.00     8.00     0.15    0.10    0.10    0.00   0.10  14.52
sdb               0.00     0.00 1521.35    0.00  6085.40     0.00     8.00     0.15    0.10    0.10    0.00   0.10  14.72
sdc               0.00     0.00 1520.60    0.00  6082.40     0.00     8.00     0.15    0.10    0.10    0.00   0.10  15.34
sdd               0.00     0.00 1515.10    0.00  6060.40     0.00     8.00     0.15    0.10    0.10    0.00   0.10  15.34
sde               0.00     0.00 1521.55    0.00  6086.20     0.00     8.00     0.15    0.10    0.10    0.00   0.10  15.38
sdf               0.00     0.00 1487.15    0.00  5948.60     0.00     8.00     0.15    0.10    0.10    0.00   0.10  15.00
sdg               0.00     0.05    3.05    0.15    42.40     2.20    27.88     0.00    0.23    0.25    0.00   0.17   0.05
sdh               0.00     0.00    0.00    0.00     0.00     0.00     0.00     0.00    0.00    0.00    0.00   0.00   0.00
md0               0.00     0.00 9090.80    0.00 36363.20     0.00     8.00     0.00    0.00    0.00    0.00   0.00   0.00

