Linux 4.17.2 (bench) 	08/03/2018 	_x86_64_	(4 CPU)

avg-cpu:  %user   %nice %system %iowait  %steal   %idle
          10.27    0.02    4.11    2.62    0.00   82.99

Device:         rrqm/s   wrqm/s     r/s     w/s    rkB/s    wkB/s avgrq-sz avgqu-sz   await r_await w_await  svctm  %util
sda              47.31     4.22 1679.77  102.04 21091.59  3122.37    27.18     1.04    0.58    0.26    5.92   0.06  10.84
sdb              47.17     4.18 1679.72  102.18 21081.08  3119.05    27.16     1.04    0.58    0.26    5.85   0.06  10.72
sdc              84.99     4.24 1639.80  101.73 21073.20  3121.50    27.79     1.46    0.84    0.45    7.12   0.08  14.19
sdd              78.44     4.21 1645.52  101.80 21058.12  3117.72    27.67     1.46    0.84    0.44    7.33   0.08  14.28
sde              80.46     4.26 1650.60  101.90 21117.75  3121.94    27.66     1.48    0.85    0.44    7.44   0.08  14.30
sdf              77.59     4.23 1652.73  101.85 21099.08  3118.82    27.61     1.53    0.87    0.44    7.90   0.08  14.34
sdg               0.00     3.17   26.47   73.30   324.64   392.03    14.37     0.44    4.41    0.20    5.93   0.08   0.78
sdh               0.00     0.13    0.02    0.23     2.20     5.04    56.82     0.00    1.15    0.65    1.19   0.21   0.01
md0               0.00     0.00 10371.05  478.11 144524.97 21372.22    30.58     0.00    0.00    0.00    0.00   0.00   0.00

avg-cpu:  %user   %nice %system %iowait  %steal   %idle
          23.56    0.00    3.26    1.00    0.00   72.18

Device:         rrqm/s   wrqm/s     r/s     w/s    rkB/s    wkB/s avgrq-sz avgqu-sz   await r_await w_await  svctm  %util
sda               3.00     0.00 1480.00    0.00  8008.00     0.00    10.82     0.16    0.11    0.11    0.00   0.10  15.30
sdb               3.00     0.00 1483.00    0.00  8432.00     0.00    11.37     0.16    0.11    0.11    0.00   0.10  15.40
sdc               2.00     0.00 1477.00    0.00  7716.00     0.00    10.45     0.17    0.12    0.12    0.00   0.11  16.20
sdd               2.00     0.00 1376.00    0.00  7412.00     0.00    10.77     0.15    0.11    0.11    0.00   0.11  14.60
sde               3.00     0.00 1477.00    0.00  7924.00     0.00    10.73     0.17    0.11    0.11    0.00   0.11  16.30
sdf               4.00     0.00 1486.00    0.00  7768.00     0.00    10.45     0.17    0.11    0.11    0.00   0.11  16.30
sdg               0.00    18.00   21.00   66.00   336.00  1264.00    36.78     0.19    2.21    0.52    2.74   0.18   1.60
sdh               0.00     0.00    0.00    0.00     0.00     0.00     0.00     0.00    0.00    0.00    0.00   0.00   0.00
md0               0.00     0.00 8782.00    0.00 52136.00     0.00    11.87     0.00    0.00    0.00    0.00   0.00   0.00

avg-cpu:  %user   %nice %system %iowait  %steal   %idle
          23.56    0.00    2.76    1.25    0.00   72.43

Device:         rrqm/s   wrqm/s     r/s     w/s    rkB/s    wkB/s avgrq-sz avgqu-sz   await r_await w_await  svctm  %util
sda               0.00     0.00 1521.00    0.00  6356.00     0.00     8.36     0.13    0.08    0.08    0.00   0.08  12.70
sdb               0.00     0.00 1489.00    0.00  6460.00     0.00     8.68     0.15    0.10    0.10    0.00   0.10  15.10
sdc               0.00     0.00 1466.00    0.00  6236.00     0.00     8.51     0.16    0.11    0.11    0.00   0.11  16.40
sdd               0.00     0.00 1451.00    0.00  6244.00     0.00     8.61     0.15    0.10    0.10    0.00   0.10  14.90
sde               0.00     0.00 1499.00    0.00  6456.00     0.00     8.61     0.16    0.11    0.11    0.00   0.11  15.90
sdf               0.00     0.00 1443.00    0.00  6148.00     0.00     8.52     0.16    0.11    0.11    0.00   0.11  16.30
sdg               0.00     0.00    0.00    0.00     0.00     0.00     0.00     0.00    0.00    0.00    0.00   0.00   0.00
sdh               0.00     0.00    0.00    0.00     0.00     0.00     0.00     0.00    0.00    0.00    0.00   0.00   0.00
md0               0.00     0.00 8869.00    0.00 37960.00     0.00     8.56     0.00    0.00    0.00    0.00   0.00   0.00

