Linux 4.17.2 (bench) 	08/03/2018 	_x86_64_	(4 CPU)

avg-cpu:  %user   %nice %system %iowait  %steal   %idle
          10.26    0.02    4.17    2.72    0.00   82.83

Device:         rrqm/s   wrqm/s     r/s     w/s    rkB/s    wkB/s avgrq-sz avgqu-sz   await r_await w_await  svctm  %util
sda              53.47     4.19 1722.14  101.25 21321.07  3098.03    26.78     1.05    0.57    0.26    5.92   0.06  11.02
sdb              53.27     4.15 1722.14  101.38 21310.61  3094.73    26.77     1.05    0.57    0.26    5.85   0.06  10.90
sdc              91.06     4.21 1682.26  100.94 21302.79  3097.16    27.37     1.47    0.82    0.45    7.12   0.08  14.39
sdd              84.58     4.18 1687.91  101.01 21287.77  3093.41    27.26     1.47    0.82    0.43    7.33   0.08  14.48
sde              86.58     4.22 1693.00  101.11 21347.19  3097.60    27.25     1.50    0.83    0.44    7.44   0.08  14.50
sdf              83.73     4.19 1695.11  101.05 21328.62  3094.50    27.19     1.54    0.86    0.44    7.90   0.08  14.54
sdg               0.00     3.17   26.77   73.26   325.83   392.01    14.35     0.44    4.40    0.20    5.93   0.08   0.78
sdh               0.00     0.13    0.02    0.23     2.18     5.00    56.82     0.00    1.15    0.65    1.19   0.21   0.01
md0               0.00     0.00 10662.67  474.38 146105.74 21205.59    30.05     0.00    0.00    0.00    0.00   0.00   0.00

avg-cpu:  %user   %nice %system %iowait  %steal   %idle
          24.68    0.00    2.54    4.33    0.00   68.45

Device:         rrqm/s   wrqm/s     r/s     w/s    rkB/s    wkB/s avgrq-sz avgqu-sz   await r_await w_await  svctm  %util
sda               0.00     0.00 2186.00    0.00  8744.00     0.00     8.00     0.14    0.07    0.07    0.00   0.07  14.40
sdb               0.00     0.00 2332.00    0.00  9328.00     0.00     8.00     0.15    0.06    0.06    0.00   0.06  14.70
sdc               0.00     0.00 2136.00    0.00  8544.00     0.00     8.00     0.16    0.08    0.08    0.00   0.08  16.10
sdd               0.00     0.00 2056.00    0.00  8224.00     0.00     8.00     0.14    0.07    0.07    0.00   0.07  14.20
sde               0.00     0.00 2253.00    0.00  9012.00     0.00     8.00     0.17    0.07    0.07    0.00   0.07  16.60
sdf               0.00     0.00 2180.00    0.00  8720.00     0.00     8.00     0.14    0.07    0.07    0.00   0.06  14.00
sdg               0.00     0.00    1.00    1.00    28.00    12.00    40.00     0.00    0.50    1.00    0.00   0.50   0.10
sdh               0.00     0.00    0.00    0.00     0.00     0.00     0.00     0.00    0.00    0.00    0.00   0.00   0.00
md0               0.00     0.00 13145.00    0.00 52580.00     0.00     8.00     0.00    0.00    0.00    0.00   0.00   0.00

avg-cpu:  %user   %nice %system %iowait  %steal   %idle
          24.94    0.00    2.54    4.33    0.00   68.19

Device:         rrqm/s   wrqm/s     r/s     w/s    rkB/s    wkB/s avgrq-sz avgqu-sz   await r_await w_await  svctm  %util
sda               0.00     0.00 2361.00    0.00  9444.00     0.00     8.00     0.17    0.07    0.07    0.00   0.07  17.00
sdb               0.00     0.00 2053.00    0.00  8212.00     0.00     8.00     0.14    0.07    0.07    0.00   0.07  14.50
sdc               0.00     0.00 2080.00    0.00  8320.00     0.00     8.00     0.14    0.07    0.07    0.00   0.07  14.50
sdd               0.00     0.00 2060.00    0.00  8240.00     0.00     8.00     0.15    0.07    0.07    0.00   0.07  14.60
sde               0.00     0.00 2066.00    0.00  8264.00     0.00     8.00     0.15    0.07    0.07    0.00   0.07  14.60
sdf               0.00     0.00 2178.00    0.00  8712.00     0.00     8.00     0.15    0.07    0.07    0.00   0.07  15.50
sdg               0.00     0.00    0.00    0.00     0.00     0.00     0.00     0.00    0.00    0.00    0.00   0.00   0.00
sdh               0.00     0.00    0.00    0.00     0.00     0.00     0.00     0.00    0.00    0.00    0.00   0.00   0.00
md0               0.00     0.00 12798.00    0.00 51192.00     0.00     8.00     0.00    0.00    0.00    0.00   0.00   0.00

avg-cpu:  %user   %nice %system %iowait  %steal   %idle
          25.00    0.00    2.30    7.65    0.00   65.05

Device:         rrqm/s   wrqm/s     r/s     w/s    rkB/s    wkB/s avgrq-sz avgqu-sz   await r_await w_await  svctm  %util
sda               0.00     0.00 2157.00    0.00  8628.00     0.00     8.00     0.15    0.07    0.07    0.00   0.07  14.80
sdb               0.00     0.00 2060.00    0.00  8240.00     0.00     8.00     0.14    0.07    0.07    0.00   0.07  13.60
sdc               0.00     0.00 2146.00    0.00  8584.00     0.00     8.00     0.15    0.07    0.07    0.00   0.07  14.90
sdd               0.00     0.00 2148.00    0.00  8592.00     0.00     8.00     0.15    0.07    0.07    0.00   0.07  15.40
sde               0.00     0.00 2245.00    0.00  8980.00     0.00     8.00     0.16    0.07    0.07    0.00   0.07  15.70
sdf               0.00     0.00 2116.00    0.00  8464.00     0.00     8.00     0.15    0.07    0.07    0.00   0.07  15.50
sdg               0.00     0.00    0.00    0.00     0.00     0.00     0.00     0.00    0.00    0.00    0.00   0.00   0.00
sdh               0.00     0.00    0.00    0.00     0.00     0.00     0.00     0.00    0.00    0.00    0.00   0.00   0.00
md0               0.00     0.00 12871.00    0.00 51484.00     0.00     8.00     0.00    0.00    0.00    0.00   0.00   0.00

avg-cpu:  %user   %nice %system %iowait  %steal   %idle
          24.94    0.00    2.54    9.41    0.00   63.10

Device:         rrqm/s   wrqm/s     r/s     w/s    rkB/s    wkB/s avgrq-sz avgqu-sz   await r_await w_await  svctm  %util
sda               0.00     0.00 2224.00    0.00  8896.00     0.00     8.00     0.14    0.06    0.06    0.00   0.06  14.00
sdb               0.00     0.00 2355.00    0.00  9420.00     0.00     8.00     0.15    0.06    0.06    0.00   0.06  14.70
sdc               0.00     0.00 2181.00    0.00  8724.00     0.00     8.00     0.15    0.07    0.07    0.00   0.07  15.50
sdd               0.00     0.00 2165.00    0.00  8660.00     0.00     8.00     0.15    0.07    0.07    0.00   0.07  14.90
sde               0.00     0.00 2058.00    0.00  8232.00     0.00     8.00     0.14    0.07    0.07    0.00   0.07  14.20
sdf               0.00     0.00 2199.00    0.00  8796.00     0.00     8.00     0.17    0.08    0.08    0.00   0.08  16.50
sdg               0.00     0.00    0.00    0.00     0.00     0.00     0.00     0.00    0.00    0.00    0.00   0.00   0.00
sdh               0.00     0.00    0.00    0.00     0.00     0.00     0.00     0.00    0.00    0.00    0.00   0.00   0.00
md0               0.00     0.00 13185.00    0.00 52740.00     0.00     8.00     0.00    0.00    0.00    0.00   0.00   0.00

avg-cpu:  %user   %nice %system %iowait  %steal   %idle
          24.75    0.00    3.28    5.81    0.00   66.16

Device:         rrqm/s   wrqm/s     r/s     w/s    rkB/s    wkB/s avgrq-sz avgqu-sz   await r_await w_await  svctm  %util
sda               0.00     0.00 2279.00    0.00  9116.00     0.00     8.00     0.14    0.06    0.06    0.00   0.06  14.40
sdb               0.00     0.00 2065.00    0.00  8260.00     0.00     8.00     0.13    0.06    0.06    0.00   0.06  13.40
sdc               0.00     0.00 2201.00    0.00  8804.00     0.00     8.00     0.16    0.07    0.07    0.00   0.07  15.90
sdd               0.00     0.00 2208.00    0.00  8832.00     0.00     8.00     0.15    0.07    0.07    0.00   0.07  14.80
sde               0.00     0.00 2123.00    0.00  8492.00     0.00     8.00     0.15    0.07    0.07    0.00   0.07  14.60
sdf               0.00     0.00 2222.00    0.00  8888.00     0.00     8.00     0.15    0.07    0.07    0.00   0.07  15.50
sdg               0.00     0.00    2.00   19.00    32.00   124.00    14.86     0.01    0.43    0.00    0.47   0.05   0.10
sdh               0.00     0.00    0.00    0.00     0.00     0.00     0.00     0.00    0.00    0.00    0.00   0.00   0.00
md0               0.00     0.00 13096.00    0.00 52384.00     0.00     8.00     0.00    0.00    0.00    0.00   0.00   0.00

avg-cpu:  %user   %nice %system %iowait  %steal   %idle
          24.87    0.00    2.54    6.60    0.00   65.99

Device:         rrqm/s   wrqm/s     r/s     w/s    rkB/s    wkB/s avgrq-sz avgqu-sz   await r_await w_await  svctm  %util
sda               0.00     0.00 2124.00    0.00  8496.00     0.00     8.00     0.14    0.07    0.07    0.00   0.07  13.90
sdb               0.00     0.00 2239.00    0.00  8956.00     0.00     8.00     0.13    0.06    0.06    0.00   0.06  13.40
sdc               0.00     0.00 2102.00    0.00  8408.00     0.00     8.00     0.15    0.07    0.07    0.00   0.07  15.30
sdd               0.00     0.00 2143.00    0.00  8572.00     0.00     8.00     0.15    0.07    0.07    0.00   0.07  15.40
sde               0.00     0.00 2150.00    0.00  8600.00     0.00     8.00     0.15    0.07    0.07    0.00   0.07  14.70
sdf               0.00     0.00 2130.00    0.00  8520.00     0.00     8.00     0.16    0.08    0.08    0.00   0.08  16.00
sdg               0.00     0.00    0.00    0.00     0.00     0.00     0.00     0.00    0.00    0.00    0.00   0.00   0.00
sdh               0.00     0.00    0.00    0.00     0.00     0.00     0.00     0.00    0.00    0.00    0.00   0.00   0.00
md0               0.00     0.00 12887.00    0.00 51548.00     0.00     8.00     0.00    0.00    0.00    0.00   0.00   0.00

avg-cpu:  %user   %nice %system %iowait  %steal   %idle
          24.56    0.00    3.04    5.57    0.00   66.84

Device:         rrqm/s   wrqm/s     r/s     w/s    rkB/s    wkB/s avgrq-sz avgqu-sz   await r_await w_await  svctm  %util
sda               0.00     0.00 2206.00    0.00  8824.00     0.00     8.00     0.15    0.07    0.07    0.00   0.07  14.90
sdb               0.00     0.00 1998.00    0.00  7992.00     0.00     8.00     0.14    0.07    0.07    0.00   0.07  13.50
sdc               0.00     0.00 2202.00    0.00  8808.00     0.00     8.00     0.16    0.07    0.07    0.00   0.07  15.70
sdd               0.00     0.00 2197.00    0.00  8788.00     0.00     8.00     0.15    0.07    0.07    0.00   0.07  15.10
sde               0.00     0.00 2169.00    0.00  8676.00     0.00     8.00     0.14    0.07    0.07    0.00   0.07  14.50
sdf               0.00     0.00 2278.00    0.00  9112.00     0.00     8.00     0.16    0.07    0.07    0.00   0.07  16.20
sdg               0.00     0.00    0.00    0.00     0.00     0.00     0.00     0.00    0.00    0.00    0.00   0.00   0.00
sdh               0.00     0.00    0.00    0.00     0.00     0.00     0.00     0.00    0.00    0.00    0.00   0.00   0.00
md0               0.00     0.00 13050.00    0.00 52200.00     0.00     8.00     0.00    0.00    0.00    0.00   0.00   0.00

avg-cpu:  %user   %nice %system %iowait  %steal   %idle
          24.81    0.00    3.29    7.09    0.00   64.81

Device:         rrqm/s   wrqm/s     r/s     w/s    rkB/s    wkB/s avgrq-sz avgqu-sz   await r_await w_await  svctm  %util
sda               0.00     0.00 2194.00    0.00  8776.00     0.00     8.00     0.15    0.07    0.07    0.00   0.07  14.80
sdb               0.00     0.00 2085.00    0.00  8340.00     0.00     8.00     0.14    0.07    0.07    0.00   0.07  13.80
sdc               0.00     0.00 2284.00    0.00  9136.00     0.00     8.00     0.16    0.07    0.07    0.00   0.07  15.90
sdd               0.00     0.00 2116.00    0.00  8464.00     0.00     8.00     0.15    0.07    0.07    0.00   0.07  15.00
sde               0.00     0.00 2170.00    0.00  8680.00     0.00     8.00     0.15    0.07    0.07    0.00   0.07  14.80
sdf               0.00     0.00 2318.00    0.00  9272.00     0.00     8.00     0.15    0.06    0.06    0.00   0.06  14.70
sdg               0.00     0.00    0.00    0.00     0.00     0.00     0.00     0.00    0.00    0.00    0.00   0.00   0.00
sdh               0.00     0.00    0.00    0.00     0.00     0.00     0.00     0.00    0.00    0.00    0.00   0.00   0.00
md0               0.00     0.00 13167.00    0.00 52668.00     0.00     8.00     0.00    0.00    0.00    0.00   0.00   0.00

avg-cpu:  %user   %nice %system %iowait  %steal   %idle
          24.18    0.25    4.03    7.81    0.00   63.73

Device:         rrqm/s   wrqm/s     r/s     w/s    rkB/s    wkB/s avgrq-sz avgqu-sz   await r_await w_await  svctm  %util
sda               0.00     0.00 2187.00    0.00  8748.00     0.00     8.00     0.14    0.06    0.06    0.00   0.06  13.50
sdb               0.00     0.00 2029.00    0.00  8116.00     0.00     8.00     0.14    0.07    0.07    0.00   0.07  13.80
sdc               0.00     0.00 2049.00    0.00  8196.00     0.00     8.00     0.15    0.07    0.07    0.00   0.07  14.80
sdd               0.00     0.00 2172.00    0.00  8688.00     0.00     8.00     0.16    0.07    0.07    0.00   0.07  15.70
sde               0.00     0.00 2220.00    0.00  8880.00     0.00     8.00     0.16    0.07    0.07    0.00   0.07  15.80
sdf               0.00     0.00 2214.00    0.00  8856.00     0.00     8.00     0.14    0.07    0.07    0.00   0.07  14.40
sdg               0.00     0.00   17.00    0.00   116.00     0.00    13.65     0.00    0.24    0.24    0.00   0.24   0.40
sdh               0.00     0.00    0.00    0.00     0.00     0.00     0.00     0.00    0.00    0.00    0.00   0.00   0.00
md0               0.00     0.00 12873.00    0.00 51492.00     0.00     8.00     0.00    0.00    0.00    0.00   0.00   0.00

avg-cpu:  %user   %nice %system %iowait  %steal   %idle
          24.43    0.00    3.05    5.85    0.00   66.67

Device:         rrqm/s   wrqm/s     r/s     w/s    rkB/s    wkB/s avgrq-sz avgqu-sz   await r_await w_await  svctm  %util
sda               0.00     0.00 2212.00    0.00  8848.00     0.00     8.00     0.14    0.06    0.06    0.00   0.06  13.50
sdb               0.00     0.00 2124.00    0.00  8496.00     0.00     8.00     0.15    0.07    0.07    0.00   0.07  14.70
sdc               0.00     0.00 2149.00    0.00  8596.00     0.00     8.00     0.15    0.07    0.07    0.00   0.07  14.70
sdd               0.00     0.00 2246.00    0.00  8984.00     0.00     8.00     0.15    0.07    0.07    0.00   0.07  15.30
sde               0.00     0.00 2235.00    0.00  8940.00     0.00     8.00     0.16    0.07    0.07    0.00   0.07  15.90
sdf               0.00     0.00 2102.00    0.00  8408.00     0.00     8.00     0.15    0.07    0.07    0.00   0.07  15.10
sdg               0.00     0.00    0.00    0.00     0.00     0.00     0.00     0.00    0.00    0.00    0.00   0.00   0.00
sdh               0.00     0.00    0.00    0.00     0.00     0.00     0.00     0.00    0.00    0.00    0.00   0.00   0.00
md0               0.00     0.00 13066.00    0.00 52264.00     0.00     8.00     0.00    0.00    0.00    0.00   0.00   0.00

avg-cpu:  %user   %nice %system %iowait  %steal   %idle
          25.06    0.00    2.78    9.37    0.00   62.78

Device:         rrqm/s   wrqm/s     r/s     w/s    rkB/s    wkB/s avgrq-sz avgqu-sz   await r_await w_await  svctm  %util
sda               0.00     0.00 2085.00    0.00  8340.00     0.00     8.00     0.14    0.07    0.07    0.00   0.07  14.50
sdb               0.00     0.00 2228.00    0.00  8912.00     0.00     8.00     0.13    0.06    0.06    0.00   0.06  13.30
sdc               0.00     0.00 2071.00    0.00  8284.00     0.00     8.00     0.15    0.07    0.07    0.00   0.07  15.00
sdd               0.00     0.00 2316.00    0.00  9264.00     0.00     8.00     0.16    0.07    0.07    0.00   0.07  15.90
sde               0.00     0.00 2146.00    0.00  8584.00     0.00     8.00     0.15    0.07    0.07    0.00   0.07  15.20
sdf               0.00     0.00 2087.00    0.00  8348.00     0.00     8.00     0.15    0.07    0.07    0.00   0.07  14.80
sdg               0.00     0.00    2.00    3.00     8.00    36.00    17.60     0.00    0.00    0.00    0.00   0.00   0.00
sdh               0.00     0.00    0.00    0.00     0.00     0.00     0.00     0.00    0.00    0.00    0.00   0.00   0.00
md0               0.00     0.00 12934.00    0.00 51736.00     0.00     8.00     0.00    0.00    0.00    0.00   0.00   0.00

avg-cpu:  %user   %nice %system %iowait  %steal   %idle
          24.62    0.00    3.05    6.35    0.00   65.99

Device:         rrqm/s   wrqm/s     r/s     w/s    rkB/s    wkB/s avgrq-sz avgqu-sz   await r_await w_await  svctm  %util
sda               0.00     0.00 1972.00    0.00  7888.00     0.00     8.00     0.14    0.07    0.07    0.00   0.07  14.30
sdb               0.00     0.00 2103.00    0.00  8412.00     0.00     8.00     0.14    0.06    0.06    0.00   0.06  13.50
sdc               0.00     0.00 2151.00    0.00  8604.00     0.00     8.00     0.15    0.07    0.07    0.00   0.07  15.10
sdd               0.00     0.00 2018.00    0.00  8072.00     0.00     8.00     0.14    0.07    0.07    0.00   0.07  14.00
sde               0.00     0.00 2189.00    0.00  8756.00     0.00     8.00     0.16    0.07    0.07    0.00   0.07  15.60
sdf               0.00     0.00 2302.00    0.00  9208.00     0.00     8.00     0.17    0.07    0.07    0.00   0.07  16.90
sdg               0.00     0.00    0.00    0.00     0.00     0.00     0.00     0.00    0.00    0.00    0.00   0.00   0.00
sdh               0.00     0.00    0.00    0.00     0.00     0.00     0.00     0.00    0.00    0.00    0.00   0.00   0.00
md0               0.00     0.00 12735.00    0.00 50940.00     0.00     8.00     0.00    0.00    0.00    0.00   0.00   0.00

avg-cpu:  %user   %nice %system %iowait  %steal   %idle
          24.81    0.00    2.78    8.61    0.00   63.80

Device:         rrqm/s   wrqm/s     r/s     w/s    rkB/s    wkB/s avgrq-sz avgqu-sz   await r_await w_await  svctm  %util
sda               0.00     0.00 2054.00    0.00  8216.00     0.00     8.00     0.14    0.07    0.07    0.00   0.07  14.50
sdb               0.00     0.00 1969.00    0.00  7876.00     0.00     8.00     0.14    0.07    0.07    0.00   0.07  13.70
sdc               0.00     0.00 2191.00    0.00  8764.00     0.00     8.00     0.16    0.07    0.07    0.00   0.07  15.60
sdd               0.00     0.00 2254.00    0.00  9016.00     0.00     8.00     0.15    0.07    0.07    0.00   0.07  15.20
sde               0.00     0.00 2198.00    0.00  8792.00     0.00     8.00     0.15    0.07    0.07    0.00   0.07  15.50
sdf               0.00     0.00 2214.00    0.00  8856.00     0.00     8.00     0.16    0.07    0.07    0.00   0.07  15.70
sdg               0.00     0.00    0.00    0.00     0.00     0.00     0.00     0.00    0.00    0.00    0.00   0.00   0.00
sdh               0.00     0.00    0.00    0.00     0.00     0.00     0.00     0.00    0.00    0.00    0.00   0.00   0.00
md0               0.00     0.00 12880.00    0.00 51520.00     0.00     8.00     0.00    0.00    0.00    0.00   0.00   0.00

avg-cpu:  %user   %nice %system %iowait  %steal   %idle
          24.68    0.00    2.80    9.92    0.00   62.60

Device:         rrqm/s   wrqm/s     r/s     w/s    rkB/s    wkB/s avgrq-sz avgqu-sz   await r_await w_await  svctm  %util
sda               0.00     0.00 2194.00    0.00  8776.00     0.00     8.00     0.16    0.07    0.07    0.00   0.07  15.70
sdb               0.00     0.00 2202.00    0.00  8808.00     0.00     8.00     0.14    0.07    0.07    0.00   0.06  14.30
sdc               0.00     0.00 2272.00    0.00  9088.00     0.00     8.00     0.15    0.07    0.07    0.00   0.07  15.50
sdd               0.00     0.00 2073.00    0.00  8292.00     0.00     8.00     0.15    0.07    0.07    0.00   0.07  14.90
sde               0.00     0.00 2073.00    0.00  8292.00     0.00     8.00     0.14    0.07    0.07    0.00   0.07  14.50
sdf               0.00     0.00 2177.00    0.00  8708.00     0.00     8.00     0.14    0.07    0.07    0.00   0.07  14.30
sdg               0.00     0.00    0.00    0.00     0.00     0.00     0.00     0.00    0.00    0.00    0.00   0.00   0.00
sdh               0.00     0.00    0.00    0.00     0.00     0.00     0.00     0.00    0.00    0.00    0.00   0.00   0.00
md0               0.00     0.00 12990.00    0.00 51960.00     0.00     8.00     0.00    0.00    0.00    0.00   0.00   0.00

avg-cpu:  %user   %nice %system %iowait  %steal   %idle
          25.13    0.00    2.54   11.42    0.00   60.91

Device:         rrqm/s   wrqm/s     r/s     w/s    rkB/s    wkB/s avgrq-sz avgqu-sz   await r_await w_await  svctm  %util
sda               0.00     0.00 2088.00    0.00  8352.00     0.00     8.00     0.14    0.07    0.07    0.00   0.07  14.00
sdb               0.00     0.00 2168.00    0.00  8672.00     0.00     8.00     0.14    0.07    0.07    0.00   0.07  14.50
sdc               0.00     0.00 2039.00    0.00  8156.00     0.00     8.00     0.14    0.07    0.07    0.00   0.07  14.40
sdd               0.00     0.00 2257.00    0.00  9028.00     0.00     8.00     0.17    0.07    0.07    0.00   0.07  16.60
sde               0.00     0.00 2115.00    0.00  8460.00     0.00     8.00     0.15    0.07    0.07    0.00   0.07  15.10
sdf               0.00     0.00 2099.00    0.00  8396.00     0.00     8.00     0.15    0.07    0.07    0.00   0.07  15.50
sdg               0.00     0.00    0.00    0.00     0.00     0.00     0.00     0.00    0.00    0.00    0.00   0.00   0.00
sdh               0.00     0.00    0.00    0.00     0.00     0.00     0.00     0.00    0.00    0.00    0.00   0.00   0.00
md0               0.00     0.00 12766.00    0.00 51064.00     0.00     8.00     0.00    0.00    0.00    0.00   0.00   0.00

avg-cpu:  %user   %nice %system %iowait  %steal   %idle
          25.00    0.00    3.03    5.81    0.00   66.16

Device:         rrqm/s   wrqm/s     r/s     w/s    rkB/s    wkB/s avgrq-sz avgqu-sz   await r_await w_await  svctm  %util
sda               0.00     0.00 2291.00    0.00  9164.00     0.00     8.00     0.16    0.07    0.07    0.00   0.07  16.00
sdb               0.00     0.00 2305.00    0.00  9220.00     0.00     8.00     0.14    0.06    0.06    0.00   0.06  14.30
sdc               0.00     0.00 2069.00    0.00  8276.00     0.00     8.00     0.14    0.07    0.07    0.00   0.07  14.50
sdd               0.00     0.00 2017.00    0.00  8068.00     0.00     8.00     0.14    0.07    0.07    0.00   0.07  13.60
sde               0.00     0.00 2043.00    0.00  8172.00     0.00     8.00     0.14    0.07    0.07    0.00   0.07  13.80
sdf               0.00     0.00 2052.00    0.00  8208.00     0.00     8.00     0.16    0.08    0.08    0.00   0.08  15.90
sdg               0.00     0.00    0.00    0.00     0.00     0.00     0.00     0.00    0.00    0.00    0.00   0.00   0.00
sdh               0.00     0.00    0.00    0.00     0.00     0.00     0.00     0.00    0.00    0.00    0.00   0.00   0.00
md0               0.00     0.00 12780.00    0.00 51120.00     0.00     8.00     0.00    0.00    0.00    0.00   0.00   0.00

avg-cpu:  %user   %nice %system %iowait  %steal   %idle
          24.81    0.00    2.78    9.87    0.00   62.53

Device:         rrqm/s   wrqm/s     r/s     w/s    rkB/s    wkB/s avgrq-sz avgqu-sz   await r_await w_await  svctm  %util
sda               0.00     0.00 2176.00    0.00  8704.00     0.00     8.00     0.15    0.07    0.07    0.00   0.07  15.10
sdb               0.00     0.00 2207.00    0.00  8828.00     0.00     8.00     0.14    0.07    0.07    0.00   0.07  14.50
sdc               0.00     0.00 2103.00    0.00  8412.00     0.00     8.00     0.14    0.07    0.07    0.00   0.07  14.40
sdd               0.00     0.00 2170.00    0.00  8680.00     0.00     8.00     0.16    0.07    0.07    0.00   0.07  16.20
sde               0.00     0.00 1955.00    0.00  7820.00     0.00     8.00     0.14    0.07    0.07    0.00   0.07  13.80
sdf               0.00     0.00 2175.00    0.00  8700.00     0.00     8.00     0.16    0.07    0.07    0.00   0.07  15.80
sdg               0.00     0.00    0.00    0.00     0.00     0.00     0.00     0.00    0.00    0.00    0.00   0.00   0.00
sdh               0.00     0.00    0.00    0.00     0.00     0.00     0.00     0.00    0.00    0.00    0.00   0.00   0.00
md0               0.00     0.00 12783.00    0.00 51132.00     0.00     8.00     0.00    0.00    0.00    0.00   0.00   0.00

avg-cpu:  %user   %nice %system %iowait  %steal   %idle
          24.87    0.00    2.79    7.11    0.00   65.23

Device:         rrqm/s   wrqm/s     r/s     w/s    rkB/s    wkB/s avgrq-sz avgqu-sz   await r_await w_await  svctm  %util
sda               0.00     0.00 2104.00    0.00  8416.00     0.00     8.00     0.14    0.07    0.07    0.00   0.07  14.30
sdb               0.00     0.00 2009.00    0.00  8036.00     0.00     8.00     0.14    0.07    0.07    0.00   0.07  14.40
sdc               0.00     0.00 1931.00    0.00  7724.00     0.00     8.00     0.14    0.07    0.07    0.00   0.07  14.20
sdd               0.00     0.00 2066.00    0.00  8264.00     0.00     8.00     0.15    0.07    0.07    0.00   0.07  14.90
sde               0.00     0.00 2253.00    0.00  9012.00     0.00     8.00     0.16    0.07    0.07    0.00   0.07  16.00
sdf               0.00     0.00 2150.00    0.00  8600.00     0.00     8.00     0.15    0.07    0.07    0.00   0.07  14.90
sdg               0.00     0.00    0.00    0.00     0.00     0.00     0.00     0.00    0.00    0.00    0.00   0.00   0.00
sdh               0.00     0.00    0.00    0.00     0.00     0.00     0.00     0.00    0.00    0.00    0.00   0.00   0.00
md0               0.00     0.00 12513.00    0.00 50052.00     0.00     8.00     0.00    0.00    0.00    0.00   0.00   0.00

avg-cpu:  %user   %nice %system %iowait  %steal   %idle
          24.94    0.00    2.80    8.65    0.00   63.61

Device:         rrqm/s   wrqm/s     r/s     w/s    rkB/s    wkB/s avgrq-sz avgqu-sz   await r_await w_await  svctm  %util
sda               0.00     0.00 2283.00    0.00  9132.00     0.00     8.00     0.15    0.07    0.07    0.00   0.07  14.90
sdb               0.00     0.00 2268.00    0.00  9072.00     0.00     8.00     0.15    0.07    0.07    0.00   0.07  15.40
sdc               0.00     0.00 2092.00    0.00  8368.00     0.00     8.00     0.15    0.07    0.07    0.00   0.07  14.60
sdd               0.00     0.00 2147.00    0.00  8588.00     0.00     8.00     0.15    0.07    0.07    0.00   0.07  15.00
sde               0.00     0.00 2179.00    0.00  8716.00     0.00     8.00     0.15    0.07    0.07    0.00   0.07  15.30
sdf               0.00     0.00 2120.00    0.00  8480.00     0.00     8.00     0.14    0.07    0.07    0.00   0.07  14.50
sdg               0.00     0.00    5.00    0.00    20.00     0.00     8.00     0.00    0.20    0.20    0.00   0.20   0.10
sdh               0.00     0.00    0.00    0.00     0.00     0.00     0.00     0.00    0.00    0.00    0.00   0.00   0.00
md0               0.00     0.00 13092.00    0.00 52368.00     0.00     8.00     0.00    0.00    0.00    0.00   0.00   0.00

avg-cpu:  %user   %nice %system %iowait  %steal   %idle
          24.56    0.00    3.29    7.34    0.00   64.81

Device:         rrqm/s   wrqm/s     r/s     w/s    rkB/s    wkB/s avgrq-sz avgqu-sz   await r_await w_await  svctm  %util
sda               0.00     0.00 2186.00    0.00  8744.00     0.00     8.00     0.15    0.07    0.07    0.00   0.07  15.10
sdb               0.00     0.00 2070.00    0.00  8280.00     0.00     8.00     0.14    0.07    0.07    0.00   0.07  13.90
sdc               0.00     0.00 2127.00    0.00  8508.00     0.00     8.00     0.16    0.07    0.07    0.00   0.07  15.60
sdd               0.00     0.00 2241.00    0.00  8964.00     0.00     8.00     0.15    0.07    0.07    0.00   0.07  14.90
sde               0.00     0.00 2189.00    0.00  8756.00     0.00     8.00     0.15    0.07    0.07    0.00   0.07  15.50
sdf               0.00     0.00 2112.00    0.00  8448.00     0.00     8.00     0.15    0.07    0.07    0.00   0.07  14.90
sdg               0.00     0.00    0.00    0.00     0.00     0.00     0.00     0.00    0.00    0.00    0.00   0.00   0.00
sdh               0.00     0.00    0.00    0.00     0.00     0.00     0.00     0.00    0.00    0.00    0.00   0.00   0.00
md0               0.00     0.00 12923.00    0.00 51692.00     0.00     8.00     0.00    0.00    0.00    0.00   0.00   0.00

