Linux 4.17.2 (bench) 	08/03/2018 	_x86_64_	(4 CPU)

avg-cpu:  %user   %nice %system %iowait  %steal   %idle
          10.27    0.02    4.08    2.60    0.00   83.02

Device:         rrqm/s   wrqm/s     r/s     w/s    rkB/s    wkB/s avgrq-sz avgqu-sz   await r_await w_await  svctm  %util
sda              47.07     4.23 1667.13  102.28 20996.72  3129.55    27.27     1.04    0.59    0.26    5.92   0.06  10.79
sdb              46.92     4.19 1667.09  102.42 20986.14  3126.22    27.25     1.03    0.58    0.26    5.85   0.06  10.66
sdc              84.83     4.25 1627.08  101.97 20978.23  3128.68    27.88     1.45    0.84    0.45    7.12   0.08  14.12
sdd              78.27     4.22 1632.82  102.04 20963.20  3124.88    27.77     1.46    0.84    0.44    7.33   0.08  14.22
sde              80.29     4.27 1637.89  102.13 21022.90  3129.12    27.76     1.48    0.85    0.44    7.44   0.08  14.24
sdf              77.41     4.24 1640.04  102.08 21004.17  3125.99    27.70     1.53    0.88    0.44    7.90   0.08  14.27
sdg               0.00     3.17   26.37   73.30   324.20   392.02    14.37     0.44    4.41    0.20    5.93   0.08   0.78
sdh               0.00     0.13    0.02    0.23     2.21     5.05    56.82     0.00    1.15    0.65    1.19   0.21   0.01
md0               0.00     0.00 10293.65  479.21 143806.03 21421.35    30.67     0.00    0.00    0.00    0.00   0.00   0.00

avg-cpu:  %user   %nice %system %iowait  %steal   %idle
          24.78    0.03    2.11    3.30    0.00   69.78

Device:         rrqm/s   wrqm/s     r/s     w/s    rkB/s    wkB/s avgrq-sz avgqu-sz   await r_await w_await  svctm  %util
sda               0.10     0.00 1492.35    0.00  6521.60     0.00     8.74     0.15    0.10    0.10    0.00   0.10  15.12
sdb               0.00     0.00 1470.40    0.00  6455.40     0.00     8.78     0.16    0.11    0.11    0.00   0.11  15.68
sdc               0.05     0.00 1474.65    0.00  6500.60     0.00     8.82     0.16    0.11    0.11    0.00   0.11  16.03
sdd               0.10     0.00 1486.05    0.00  6461.00     0.00     8.70     0.16    0.10    0.10    0.00   0.10  15.55
sde               0.05     0.00 1497.10    0.00  6620.00     0.00     8.84     0.15    0.10    0.10    0.00   0.10  15.45
sdf               0.10     0.00 1475.45    0.00  6520.40     0.00     8.84     0.15    0.10    0.10    0.00   0.10  15.02
sdg               0.00     0.00   68.95    0.00   295.80     0.00     8.58     0.01    0.13    0.13    0.00   0.12   0.82
sdh               0.00     0.00    0.00    0.00     0.00     0.00     0.00     0.00    0.00    0.00    0.00   0.00   0.00
md0               0.00     0.00 8896.50    0.00 39356.00     0.00     8.85     0.00    0.00    0.00    0.00   0.00   0.00

