Linux 4.17.2 (bench) 	08/03/2018 	_x86_64_	(4 CPU)

avg-cpu:  %user   %nice %system %iowait  %steal   %idle
          10.27    0.02    4.09    2.60    0.00   83.02

Device:         rrqm/s   wrqm/s     r/s     w/s    rkB/s    wkB/s avgrq-sz avgqu-sz   await r_await w_await  svctm  %util
sda              47.07     4.23 1668.06  102.23 21008.80  3128.07    27.27     1.04    0.58    0.26    5.92   0.06  10.79
sdb              46.93     4.19 1668.02  102.37 20998.27  3124.74    27.25     1.03    0.58    0.26    5.85   0.06  10.67
sdc              84.81     4.25 1628.03  101.92 20990.38  3127.20    27.88     1.45    0.84    0.45    7.12   0.08  14.13
sdd              78.26     4.22 1633.77  101.99 20975.32  3123.40    27.77     1.46    0.84    0.44    7.33   0.08  14.23
sde              80.28     4.26 1638.84  102.09 21034.99  3127.64    27.76     1.48    0.85    0.44    7.44   0.08  14.25
sdf              77.40     4.24 1640.98  102.03 21016.27  3124.51    27.70     1.53    0.88    0.44    7.90   0.08  14.28
sdg               0.00     3.17   26.39   73.30   324.28   392.01    14.37     0.44    4.41    0.20    5.93   0.08   0.78
sdh               0.00     0.13    0.02    0.23     2.20     5.05    56.82     0.00    1.15    0.65    1.19   0.21   0.01
md0               0.00     0.00 10299.27  478.98 143909.92 21411.22    30.68     0.00    0.00    0.00    0.00   0.00   0.00

avg-cpu:  %user   %nice %system %iowait  %steal   %idle
          24.69    0.00    2.77    1.51    0.00   71.03

Device:         rrqm/s   wrqm/s     r/s     w/s    rkB/s    wkB/s avgrq-sz avgqu-sz   await r_await w_await  svctm  %util
sda               0.00     0.00 1472.00    0.00  5888.00     0.00     8.00     0.16    0.11    0.11    0.00   0.11  16.30
sdb               0.00     0.00 1412.00    0.00  5648.00     0.00     8.00     0.14    0.10    0.10    0.00   0.10  14.00
sdc               0.00     0.00 1501.00    0.00  6004.00     0.00     8.00     0.15    0.10    0.10    0.00   0.10  15.40
sdd               0.00     0.00 1492.00    0.00  5968.00     0.00     8.00     0.16    0.11    0.11    0.00   0.11  16.30
sde               0.00     0.00 1511.00    0.00  6044.00     0.00     8.00     0.16    0.11    0.11    0.00   0.11  16.40
sdf               0.00     0.00 1458.00    0.00  5832.00     0.00     8.00     0.15    0.10    0.10    0.00   0.10  14.90
sdg               0.00     0.00    3.00    0.00   100.00     0.00    66.67     0.00    0.33    0.33    0.00   0.33   0.10
sdh               0.00     0.00    0.00    0.00     0.00     0.00     0.00     0.00    0.00    0.00    0.00   0.00   0.00
md0               0.00     0.00 8848.00    0.00 35392.00     0.00     8.00     0.00    0.00    0.00    0.00   0.00   0.00

avg-cpu:  %user   %nice %system %iowait  %steal   %idle
          24.69    0.00    3.27    6.80    0.00   65.24

Device:         rrqm/s   wrqm/s     r/s     w/s    rkB/s    wkB/s avgrq-sz avgqu-sz   await r_await w_await  svctm  %util
sda               0.00     0.00 1526.00    0.00  6104.00     0.00     8.00     0.14    0.09    0.09    0.00   0.09  14.40
sdb               0.00     0.00 1480.00    0.00  5920.00     0.00     8.00     0.15    0.10    0.10    0.00   0.10  15.40
sdc               0.00     0.00 1471.00    0.00  5884.00     0.00     8.00     0.15    0.10    0.10    0.00   0.10  15.20
sdd               0.00     0.00 1460.00    0.00  5840.00     0.00     8.00     0.16    0.11    0.11    0.00   0.11  15.80
sde               0.00     0.00 1467.00    0.00  5868.00     0.00     8.00     0.14    0.10    0.10    0.00   0.10  14.40
sdf               0.00     0.00 1501.00    0.00  6004.00     0.00     8.00     0.17    0.11    0.11    0.00   0.11  17.00
sdg               0.00    83.00    0.00 2538.00     0.00 12680.00     9.99    15.68    6.18    0.00    6.18   0.04  11.30
sdh               0.00     0.00    0.00    0.00     0.00     0.00     0.00     0.00    0.00    0.00    0.00   0.00   0.00
md0               0.00     0.00 8905.00    0.00 35620.00     0.00     8.00     0.00    0.00    0.00    0.00   0.00   0.00

avg-cpu:  %user   %nice %system %iowait  %steal   %idle
          24.69    0.00    2.77    5.79    0.00   66.75

Device:         rrqm/s   wrqm/s     r/s     w/s    rkB/s    wkB/s avgrq-sz avgqu-sz   await r_await w_await  svctm  %util
sda               0.00     0.00 1505.00    0.00  6020.00     0.00     8.00     0.14    0.09    0.09    0.00   0.09  13.80
sdb               0.00     0.00 1518.00    0.00  6072.00     0.00     8.00     0.18    0.12    0.12    0.00   0.12  17.70
sdc               0.00     0.00 1466.00    0.00  5864.00     0.00     8.00     0.15    0.11    0.11    0.00   0.11  15.40
sdd               0.00     0.00 1511.00    0.00  6044.00     0.00     8.00     0.18    0.12    0.12    0.00   0.12  17.70
sde               0.00     0.00 1469.00    0.00  5876.00     0.00     8.00     0.15    0.10    0.10    0.00   0.10  14.80
sdf               0.00     0.00 1426.00    0.00  5704.00     0.00     8.00     0.14    0.10    0.10    0.00   0.10  14.50
sdg               0.00     0.00    0.00    0.00     0.00     0.00     0.00     0.00    0.00    0.00    0.00   0.00   0.00
sdh               0.00     0.00    0.00    0.00     0.00     0.00     0.00     0.00    0.00    0.00    0.00   0.00   0.00
md0               0.00     0.00 8895.00    0.00 35580.00     0.00     8.00     0.00    0.00    0.00    0.00   0.00   0.00

avg-cpu:  %user   %nice %system %iowait  %steal   %idle
          24.62    0.00    3.02    4.52    0.00   67.84

Device:         rrqm/s   wrqm/s     r/s     w/s    rkB/s    wkB/s avgrq-sz avgqu-sz   await r_await w_await  svctm  %util
sda               0.00     0.00 1521.00    0.00  6084.00     0.00     8.00     0.17    0.11    0.11    0.00   0.11  16.50
sdb               0.00     0.00 1536.00    0.00  6144.00     0.00     8.00     0.17    0.11    0.11    0.00   0.11  17.00
sdc               0.00     0.00 1409.00    0.00  5636.00     0.00     8.00     0.14    0.10    0.10    0.00   0.10  14.40
sdd               0.00     0.00 1466.00    0.00  5864.00     0.00     8.00     0.15    0.10    0.10    0.00   0.10  15.10
sde               0.00     0.00 1517.00    0.00  6068.00     0.00     8.00     0.14    0.09    0.09    0.00   0.09  14.30
sdf               0.00     0.00 1483.00    0.00  5932.00     0.00     8.00     0.15    0.10    0.10    0.00   0.10  14.80
sdg               0.00     0.00    0.00    0.00     0.00     0.00     0.00     0.00    0.00    0.00    0.00   0.00   0.00
sdh               0.00     0.00    0.00    0.00     0.00     0.00     0.00     0.00    0.00    0.00    0.00   0.00   0.00
md0               0.00     0.00 8932.00    0.00 35728.00     0.00     8.00     0.00    0.00    0.00    0.00   0.00   0.00

avg-cpu:  %user   %nice %system %iowait  %steal   %idle
          24.81    0.00    2.28    5.57    0.00   67.34

Device:         rrqm/s   wrqm/s     r/s     w/s    rkB/s    wkB/s avgrq-sz avgqu-sz   await r_await w_await  svctm  %util
sda               0.00     0.00 1460.00    0.00  5840.00     0.00     8.00     0.14    0.09    0.09    0.00   0.09  13.50
sdb               0.00     0.00 1534.00    0.00  6136.00     0.00     8.00     0.16    0.10    0.10    0.00   0.10  16.00
sdc               0.00     0.00 1477.00    0.00  5908.00     0.00     8.00     0.13    0.09    0.09    0.00   0.09  12.80
sdd               0.00     0.00 1487.00    0.00  5948.00     0.00     8.00     0.17    0.12    0.12    0.00   0.12  17.40
sde               0.00     0.00 1504.00    0.00  6016.00     0.00     8.00     0.16    0.11    0.11    0.00   0.11  15.90
sdf               0.00     0.00 1441.00    0.00  5764.00     0.00     8.00     0.17    0.12    0.12    0.00   0.12  17.10
sdg               0.00     0.00    0.00    0.00     0.00     0.00     0.00     0.00    0.00    0.00    0.00   0.00   0.00
sdh               0.00     0.00    0.00    0.00     0.00     0.00     0.00     0.00    0.00    0.00    0.00   0.00   0.00
md0               0.00     0.00 8903.00    0.00 35612.00     0.00     8.00     0.00    0.00    0.00    0.00   0.00   0.00

avg-cpu:  %user   %nice %system %iowait  %steal   %idle
          24.43    0.00    3.27    2.77    0.00   69.52

Device:         rrqm/s   wrqm/s     r/s     w/s    rkB/s    wkB/s avgrq-sz avgqu-sz   await r_await w_await  svctm  %util
sda               0.00     0.00 1507.00    0.00  6028.00     0.00     8.00     0.14    0.09    0.09    0.00   0.09  13.90
sdb               0.00     0.00 1507.00    0.00  6028.00     0.00     8.00     0.18    0.12    0.12    0.00   0.12  17.90
sdc               0.00     0.00 1488.00    0.00  5952.00     0.00     8.00     0.16    0.11    0.11    0.00   0.11  15.90
sdd               0.00     0.00 1436.00    0.00  5744.00     0.00     8.00     0.14    0.10    0.10    0.00   0.10  14.10
sde               0.00     0.00 1515.00    0.00  6060.00     0.00     8.00     0.15    0.10    0.10    0.00   0.10  14.80
sdf               0.00     0.00 1410.00    0.00  5640.00     0.00     8.00     0.15    0.11    0.11    0.00   0.11  15.50
sdg               0.00     0.00    0.00    0.00     0.00     0.00     0.00     0.00    0.00    0.00    0.00   0.00   0.00
sdh               0.00     0.00    0.00    0.00     0.00     0.00     0.00     0.00    0.00    0.00    0.00   0.00   0.00
md0               0.00     0.00 8863.00    0.00 35452.00     0.00     8.00     0.00    0.00    0.00    0.00   0.00   0.00

avg-cpu:  %user   %nice %system %iowait  %steal   %idle
          24.56    0.00    3.26    7.02    0.00   65.16

Device:         rrqm/s   wrqm/s     r/s     w/s    rkB/s    wkB/s avgrq-sz avgqu-sz   await r_await w_await  svctm  %util
sda               0.00     0.00 1491.00    0.00  5964.00     0.00     8.00     0.14    0.09    0.09    0.00   0.09  14.00
sdb               0.00     0.00 1426.00    0.00  5704.00     0.00     8.00     0.15    0.10    0.10    0.00   0.10  14.80
sdc               0.00     0.00 1528.00    0.00  6112.00     0.00     8.00     0.17    0.11    0.11    0.00   0.11  17.10
sdd               0.00     0.00 1454.00    0.00  5816.00     0.00     8.00     0.16    0.11    0.11    0.00   0.11  16.10
sde               0.00     0.00 1452.00    0.00  5808.00     0.00     8.00     0.17    0.12    0.12    0.00   0.12  17.20
sdf               0.00     0.00 1453.00    0.00  5812.00     0.00     8.00     0.13    0.09    0.09    0.00   0.09  13.30
sdg               0.00     2.00    8.00    5.00    32.00    56.00    13.54     0.00    0.08    0.12    0.00   0.08   0.10
sdh               0.00     0.00    0.00    0.00     0.00     0.00     0.00     0.00    0.00    0.00    0.00   0.00   0.00
md0               0.00     0.00 8804.00    0.00 35216.00     0.00     8.00     0.00    0.00    0.00    0.00   0.00   0.00

avg-cpu:  %user   %nice %system %iowait  %steal   %idle
          24.69    0.25    3.02    9.07    0.00   62.97

Device:         rrqm/s   wrqm/s     r/s     w/s    rkB/s    wkB/s avgrq-sz avgqu-sz   await r_await w_await  svctm  %util
sda               0.00     0.00 1499.00    0.00  5996.00     0.00     8.00     0.15    0.10    0.10    0.00   0.10  14.80
sdb               0.00     0.00 1445.00    0.00  5780.00     0.00     8.00     0.16    0.11    0.11    0.00   0.11  16.40
sdc               0.00     0.00 1433.00    0.00  5732.00     0.00     8.00     0.15    0.10    0.10    0.00   0.10  14.70
sdd               0.00     0.00 1468.00    0.00  5872.00     0.00     8.00     0.16    0.11    0.11    0.00   0.11  16.10
sde               0.00     0.00 1526.00    0.00  6104.00     0.00     8.00     0.15    0.10    0.10    0.00   0.10  15.40
sdf               0.00     0.00 1473.00    0.00  5892.00     0.00     8.00     0.14    0.09    0.09    0.00   0.09  13.50
sdg               0.00     0.00   15.00    0.00   108.00     0.00    14.40     0.00    0.20    0.20    0.00   0.20   0.30
sdh               0.00     0.00    0.00    0.00     0.00     0.00     0.00     0.00    0.00    0.00    0.00   0.00   0.00
md0               0.00     0.00 8845.00    0.00 35380.00     0.00     8.00     0.00    0.00    0.00    0.00   0.00   0.00

avg-cpu:  %user   %nice %system %iowait  %steal   %idle
          24.49    0.00    3.03    3.03    0.00   69.44

Device:         rrqm/s   wrqm/s     r/s     w/s    rkB/s    wkB/s avgrq-sz avgqu-sz   await r_await w_await  svctm  %util
sda               0.00     0.00 1505.00    0.00  6020.00     0.00     8.00     0.14    0.10    0.10    0.00   0.10  14.40
sdb               0.00     0.00 1456.00    0.00  5824.00     0.00     8.00     0.17    0.12    0.12    0.00   0.12  17.10
sdc               0.00     0.00 1433.00    0.00  5732.00     0.00     8.00     0.15    0.10    0.10    0.00   0.10  14.60
sdd               0.00     0.00 1450.00    0.00  5800.00     0.00     8.00     0.16    0.11    0.11    0.00   0.11  16.20
sde               0.00     0.00 1476.00    0.00  5904.00     0.00     8.00     0.15    0.10    0.10    0.00   0.10  15.40
sdf               0.00     0.00 1484.00    0.00  5936.00     0.00     8.00     0.15    0.10    0.10    0.00   0.10  14.60
sdg               0.00     0.00    0.00    0.00     0.00     0.00     0.00     0.00    0.00    0.00    0.00   0.00   0.00
sdh               0.00     0.00    0.00    0.00     0.00     0.00     0.00     0.00    0.00    0.00    0.00   0.00   0.00
md0               0.00     0.00 8803.00    0.00 35212.00     0.00     8.00     0.00    0.00    0.00    0.00   0.00   0.00

avg-cpu:  %user   %nice %system %iowait  %steal   %idle
          24.62    0.00    3.02   11.56    0.00   60.80

Device:         rrqm/s   wrqm/s     r/s     w/s    rkB/s    wkB/s avgrq-sz avgqu-sz   await r_await w_await  svctm  %util
sda               0.00     0.00 1458.00    0.00  5832.00     0.00     8.00     0.16    0.11    0.11    0.00   0.11  15.70
sdb               0.00     0.00 1480.00    0.00  5920.00     0.00     8.00     0.18    0.12    0.12    0.00   0.12  17.90
sdc               0.00     0.00 1481.00    0.00  5932.00     0.00     8.01     0.14    0.09    0.09    0.00   0.09  13.50
sdd               0.00     0.00 1458.00    0.00  5832.00     0.00     8.00     0.17    0.11    0.11    0.00   0.11  16.50
sde               0.00     0.00 1428.00    0.00  5712.00     0.00     8.00     0.13    0.09    0.09    0.00   0.09  13.40
sdf               0.00     0.00 1515.00    0.00  6060.00     0.00     8.00     0.16    0.11    0.11    0.00   0.11  16.00
sdg               0.00     0.00    0.00    0.00     0.00     0.00     0.00     0.00    0.00    0.00    0.00   0.00   0.00
sdh               0.00     0.00    0.00    0.00     0.00     0.00     0.00     0.00    0.00    0.00    0.00   0.00   0.00
md0               0.00     0.00 8820.00    0.00 35288.00     0.00     8.00     0.00    0.00    0.00    0.00   0.00   0.00

avg-cpu:  %user   %nice %system %iowait  %steal   %idle
          24.38    0.00    3.98   17.91    0.00   53.73

Device:         rrqm/s   wrqm/s     r/s     w/s    rkB/s    wkB/s avgrq-sz avgqu-sz   await r_await w_await  svctm  %util
sda               0.00     0.00 1498.00    0.00  5992.00     0.00     8.00     0.14    0.09    0.09    0.00   0.09  14.20
sdb               0.00     0.00 1434.00    0.00  5736.00     0.00     8.00     0.14    0.10    0.10    0.00   0.10  14.50
sdc               0.00     0.00 1473.00    0.00  5892.00     0.00     8.00     0.16    0.11    0.11    0.00   0.11  16.00
sdd               0.00     0.00 1512.00    0.00  6048.00     0.00     8.00     0.14    0.09    0.09    0.00   0.09  14.30
sde               0.00     0.00 1479.00    0.00  5916.00     0.00     8.00     0.16    0.11    0.11    0.00   0.11  15.80
sdf               0.00     0.00 1524.00    0.00  6096.00     0.00     8.00     0.16    0.11    0.11    0.00   0.11  16.20
sdg               0.00     0.00    1.00    6.00    16.00   152.00    48.00     0.01    0.71    0.00    0.83   0.14   0.10
sdh               0.00     0.00    0.00    0.00     0.00     0.00     0.00     0.00    0.00    0.00    0.00   0.00   0.00
md0               0.00     0.00 8919.00    0.00 35676.00     0.00     8.00     0.00    0.00    0.00    0.00   0.00   0.00

avg-cpu:  %user   %nice %system %iowait  %steal   %idle
          24.50    0.00    3.50   16.75    0.00   55.25

Device:         rrqm/s   wrqm/s     r/s     w/s    rkB/s    wkB/s avgrq-sz avgqu-sz   await r_await w_await  svctm  %util
sda               0.00     0.00 1504.00    0.00  6016.00     0.00     8.00     0.14    0.09    0.09    0.00   0.09  14.00
sdb               0.00     0.00 1442.00    0.00  5768.00     0.00     8.00     0.19    0.13    0.13    0.00   0.13  18.90
sdc               0.00     0.00 1507.00    0.00  6028.00     0.00     8.00     0.15    0.10    0.10    0.00   0.10  14.70
sdd               0.00     0.00 1435.00    0.00  5740.00     0.00     8.00     0.14    0.10    0.10    0.00   0.10  14.00
sde               0.00     0.00 1461.00    0.00  5844.00     0.00     8.00     0.15    0.10    0.10    0.00   0.10  14.70
sdf               0.00     0.00 1425.00    0.00  5700.00     0.00     8.00     0.16    0.11    0.11    0.00   0.11  15.90
sdg               0.00     0.00    0.00    0.00     0.00     0.00     0.00     0.00    0.00    0.00    0.00   0.00   0.00
sdh               0.00     0.00    0.00    0.00     0.00     0.00     0.00     0.00    0.00    0.00    0.00   0.00   0.00
md0               0.00     0.00 8774.00    0.00 35096.00     0.00     8.00     0.00    0.00    0.00    0.00   0.00   0.00

avg-cpu:  %user   %nice %system %iowait  %steal   %idle
          24.50    0.00    3.50   18.50    0.00   53.50

Device:         rrqm/s   wrqm/s     r/s     w/s    rkB/s    wkB/s avgrq-sz avgqu-sz   await r_await w_await  svctm  %util
sda               0.00     0.00 1362.00    0.00  5448.00     0.00     8.00     0.16    0.11    0.11    0.00   0.11  15.60
sdb               0.00     0.00 1447.00    0.00  5788.00     0.00     8.00     0.17    0.12    0.12    0.00   0.12  16.90
sdc               0.00     0.00 1445.00    0.00  5780.00     0.00     8.00     0.15    0.10    0.10    0.00   0.10  14.80
sdd               0.00     0.00 1481.00    0.00  5924.00     0.00     8.00     0.15    0.10    0.10    0.00   0.10  14.60
sde               0.00     0.00 1478.00    0.00  5912.00     0.00     8.00     0.15    0.11    0.11    0.00   0.10  15.50
sdf               0.00     0.00 1482.00    0.00  5936.00     0.00     8.01     0.13    0.09    0.09    0.00   0.09  13.40
sdg               0.00     0.00    0.00    0.00     0.00     0.00     0.00     0.00    0.00    0.00    0.00   0.00   0.00
sdh               0.00     0.00    0.00    0.00     0.00     0.00     0.00     0.00    0.00    0.00    0.00   0.00   0.00
md0               0.00     0.00 8696.00    0.00 34792.00     0.00     8.00     0.00    0.00    0.00    0.00   0.00   0.00

avg-cpu:  %user   %nice %system %iowait  %steal   %idle
          24.69    0.00    3.49   16.46    0.00   55.36

Device:         rrqm/s   wrqm/s     r/s     w/s    rkB/s    wkB/s avgrq-sz avgqu-sz   await r_await w_await  svctm  %util
sda               0.00     0.00 1506.00    0.00  6024.00     0.00     8.00     0.14    0.09    0.09    0.00   0.09  14.10
sdb               0.00     0.00 1498.00    0.00  5992.00     0.00     8.00     0.15    0.10    0.10    0.00   0.10  15.40
sdc               0.00     0.00 1502.00    0.00  6008.00     0.00     8.00     0.17    0.12    0.12    0.00   0.12  17.50
sdd               0.00     0.00 1429.00    0.00  5716.00     0.00     8.00     0.16    0.11    0.11    0.00   0.11  15.80
sde               0.00     0.00 1466.00    0.00  5864.00     0.00     8.00     0.15    0.10    0.10    0.00   0.10  15.30
sdf               0.00     0.00 1453.00    0.00  5812.00     0.00     8.00     0.15    0.11    0.11    0.00   0.11  15.40
sdg               0.00     0.00    0.00    0.00     0.00     0.00     0.00     0.00    0.00    0.00    0.00   0.00   0.00
sdh               0.00     0.00    0.00    0.00     0.00     0.00     0.00     0.00    0.00    0.00    0.00   0.00   0.00
md0               0.00     0.00 8854.00    0.00 35416.00     0.00     8.00     0.00    0.00    0.00    0.00   0.00   0.00

avg-cpu:  %user   %nice %system %iowait  %steal   %idle
          24.50    0.00    4.00   16.75    0.00   54.75

Device:         rrqm/s   wrqm/s     r/s     w/s    rkB/s    wkB/s avgrq-sz avgqu-sz   await r_await w_await  svctm  %util
sda               0.00     0.00 1568.00    0.00  6272.00     0.00     8.00     0.16    0.10    0.10    0.00   0.10  15.80
sdb               0.00     0.00 1533.00    0.00  6132.00     0.00     8.00     0.14    0.09    0.09    0.00   0.09  14.50
sdc               0.00     0.00 1455.00    0.00  5820.00     0.00     8.00     0.14    0.10    0.10    0.00   0.10  14.30
sdd               0.00     0.00 1532.00    0.00  6128.00     0.00     8.00     0.16    0.11    0.11    0.00   0.11  16.40
sde               0.00     0.00 1481.00    0.00  5924.00     0.00     8.00     0.14    0.09    0.09    0.00   0.09  13.60
sdf               0.00     0.00 1507.00    0.00  6028.00     0.00     8.00     0.16    0.11    0.11    0.00   0.11  16.40
sdg               0.00     0.00    0.00    0.00     0.00     0.00     0.00     0.00    0.00    0.00    0.00   0.00   0.00
sdh               0.00     0.00    0.00    0.00     0.00     0.00     0.00     0.00    0.00    0.00    0.00   0.00   0.00
md0               0.00     0.00 9076.00    0.00 36304.00     0.00     8.00     0.00    0.00    0.00    0.00   0.00   0.00

avg-cpu:  %user   %nice %system %iowait  %steal   %idle
          24.38    0.00    3.73   15.42    0.00   56.47

Device:         rrqm/s   wrqm/s     r/s     w/s    rkB/s    wkB/s avgrq-sz avgqu-sz   await r_await w_await  svctm  %util
sda               0.00     0.00 1494.00    0.00  5976.00     0.00     8.00     0.14    0.10    0.10    0.00   0.10  14.30
sdb               0.00     0.00 1441.00    0.00  5764.00     0.00     8.00     0.14    0.09    0.09    0.00   0.09  13.60
sdc               0.00     0.00 1483.00    0.00  5932.00     0.00     8.00     0.15    0.10    0.10    0.00   0.10  15.40
sdd               0.00     0.00 1544.00    0.00  6176.00     0.00     8.00     0.15    0.10    0.10    0.00   0.10  15.30
sde               0.00     0.00 1594.00    0.00  6376.00     0.00     8.00     0.17    0.10    0.10    0.00   0.10  16.50
sdf               0.00     0.00 1472.00    0.00  5888.00     0.00     8.00     0.16    0.11    0.11    0.00   0.11  15.80
sdg               0.00     0.00    0.00    0.00     0.00     0.00     0.00     0.00    0.00    0.00    0.00   0.00   0.00
sdh               0.00     0.00    0.00    0.00     0.00     0.00     0.00     0.00    0.00    0.00    0.00   0.00   0.00
md0               0.00     0.00 9028.00    0.00 36112.00     0.00     8.00     0.00    0.00    0.00    0.00   0.00   0.00

avg-cpu:  %user   %nice %system %iowait  %steal   %idle
          24.56    0.00    3.76   17.79    0.00   53.88

Device:         rrqm/s   wrqm/s     r/s     w/s    rkB/s    wkB/s avgrq-sz avgqu-sz   await r_await w_await  svctm  %util
sda               0.00     0.00 1578.00    0.00  6312.00     0.00     8.00     0.16    0.10    0.10    0.00   0.10  15.60
sdb               0.00     0.00 1499.00    0.00  5996.00     0.00     8.00     0.14    0.09    0.09    0.00   0.09  13.70
sdc               0.00     0.00 1451.00    0.00  5804.00     0.00     8.00     0.15    0.10    0.10    0.00   0.10  15.20
sdd               0.00     0.00 1510.00    0.00  6040.00     0.00     8.00     0.15    0.10    0.10    0.00   0.10  14.70
sde               0.00     0.00 1509.00    0.00  6036.00     0.00     8.00     0.15    0.10    0.10    0.00   0.10  14.90
sdf               0.00     0.00 1515.00    0.00  6060.00     0.00     8.00     0.17    0.11    0.11    0.00   0.11  16.60
sdg               0.00     0.00    0.00    0.00     0.00     0.00     0.00     0.00    0.00    0.00    0.00   0.00   0.00
sdh               0.00     0.00    0.00    0.00     0.00     0.00     0.00     0.00    0.00    0.00    0.00   0.00   0.00
md0               0.00     0.00 9062.00    0.00 36248.00     0.00     8.00     0.00    0.00    0.00    0.00   0.00   0.00

avg-cpu:  %user   %nice %system %iowait  %steal   %idle
          24.50    0.25    3.75   14.75    0.00   56.75

Device:         rrqm/s   wrqm/s     r/s     w/s    rkB/s    wkB/s avgrq-sz avgqu-sz   await r_await w_await  svctm  %util
sda               0.00     0.00 1465.00    0.00  5860.00     0.00     8.00     0.14    0.09    0.09    0.00   0.09  13.90
sdb               0.00     0.00 1460.00    0.00  5840.00     0.00     8.00     0.14    0.10    0.10    0.00   0.10  14.30
sdc               0.00     0.00 1491.00    0.00  5972.00     0.00     8.01     0.15    0.10    0.10    0.00   0.10  15.50
sdd               0.00     0.00 1562.00    0.00  6248.00     0.00     8.00     0.15    0.10    0.10    0.00   0.10  15.50
sde               0.00     0.00 1590.00    0.00  6360.00     0.00     8.00     0.17    0.11    0.11    0.00   0.11  17.00
sdf               0.00     0.00 1419.00    0.00  5676.00     0.00     8.00     0.15    0.11    0.11    0.00   0.11  14.90
sdg               0.00     0.00    5.00    0.00    20.00     0.00     8.00     0.00    0.20    0.20    0.00   0.20   0.10
sdh               0.00     0.00    0.00    0.00     0.00     0.00     0.00     0.00    0.00    0.00    0.00   0.00   0.00
md0               0.00     0.00 8987.00    0.00 35956.00     0.00     8.00     0.00    0.00    0.00    0.00   0.00   0.00

avg-cpu:  %user   %nice %system %iowait  %steal   %idle
          24.44    0.00    3.74   17.96    0.00   53.87

Device:         rrqm/s   wrqm/s     r/s     w/s    rkB/s    wkB/s avgrq-sz avgqu-sz   await r_await w_await  svctm  %util
sda               0.00     0.00 1506.00    0.00  6024.00     0.00     8.00     0.18    0.12    0.12    0.00   0.12  18.20
sdb               0.00     0.00 1492.00    0.00  5968.00     0.00     8.00     0.14    0.10    0.10    0.00   0.10  14.40
sdc               0.00     0.00 1465.00    0.00  5860.00     0.00     8.00     0.15    0.10    0.10    0.00   0.10  15.00
sdd               0.00     0.00 1435.00    0.00  5740.00     0.00     8.00     0.15    0.11    0.11    0.00   0.11  15.20
sde               0.00     0.00 1401.00    0.00  5604.00     0.00     8.00     0.13    0.09    0.09    0.00   0.09  12.90
sdf               0.00     0.00 1399.00    0.00  5596.00     0.00     8.00     0.16    0.11    0.11    0.00   0.11  15.60
sdg               0.00     0.00    0.00    0.00     0.00     0.00     0.00     0.00    0.00    0.00    0.00   0.00   0.00
sdh               0.00     0.00    0.00    0.00     0.00     0.00     0.00     0.00    0.00    0.00    0.00   0.00   0.00
md0               0.00     0.00 8698.00    0.00 34792.00     0.00     8.00     0.00    0.00    0.00    0.00   0.00   0.00

avg-cpu:  %user   %nice %system %iowait  %steal   %idle
          24.50    0.00    3.50   15.50    0.00   56.50

Device:         rrqm/s   wrqm/s     r/s     w/s    rkB/s    wkB/s avgrq-sz avgqu-sz   await r_await w_await  svctm  %util
sda               0.00     0.00 1430.00    0.00  5720.00     0.00     8.00     0.16    0.11    0.11    0.00   0.11  16.20
sdb               0.00     0.00 1509.00    0.00  6036.00     0.00     8.00     0.17    0.11    0.11    0.00   0.11  16.90
sdc               0.00     0.00 1436.00    0.00  5744.00     0.00     8.00     0.15    0.10    0.10    0.00   0.10  14.80
sdd               0.00     0.00 1475.00    0.00  5900.00     0.00     8.00     0.17    0.11    0.11    0.00   0.11  16.70
sde               0.00     0.00 1504.00    0.00  6016.00     0.00     8.00     0.13    0.08    0.08    0.00   0.08  12.70
sdf               0.00     0.00 1431.00    0.00  5724.00     0.00     8.00     0.15    0.11    0.11    0.00   0.11  15.20
sdg               0.00     0.00    0.00    0.00     0.00     0.00     0.00     0.00    0.00    0.00    0.00   0.00   0.00
sdh               0.00     0.00    0.00    0.00     0.00     0.00     0.00     0.00    0.00    0.00    0.00   0.00   0.00
md0               0.00     0.00 8784.00    0.00 35136.00     0.00     8.00     0.00    0.00    0.00    0.00   0.00   0.00

