Linux 4.17.2 (bench) 	08/03/2018 	_x86_64_	(4 CPU)

avg-cpu:  %user   %nice %system %iowait  %steal   %idle
          10.27    0.02    4.08    2.57    0.00   83.06

Device:         rrqm/s   wrqm/s     r/s     w/s    rkB/s    wkB/s avgrq-sz avgqu-sz   await r_await w_await  svctm  %util
sda              46.04     4.24 1659.05  102.45 20975.93  3134.67    27.38     1.04    0.59    0.26    5.92   0.06  10.75
sdb              45.89     4.20 1659.00  102.58 20965.31  3131.34    27.36     1.03    0.59    0.26    5.85   0.06  10.63
sdc              83.85     4.26 1618.94  102.13 20957.41  3133.80    28.00     1.45    0.84    0.45    7.12   0.08  14.09
sdd              77.28     4.23 1624.68  102.20 20942.34  3130.00    27.88     1.46    0.85    0.44    7.33   0.08  14.18
sde              79.31     4.27 1629.75  102.30 21002.10  3134.24    27.87     1.48    0.86    0.44    7.44   0.08  14.20
sdf              76.43     4.24 1631.90  102.25 20983.37  3131.11    27.81     1.53    0.88    0.44    7.90   0.08  14.24
sdg               0.00     3.17   26.33   73.32   324.09   392.07    14.37     0.44    4.42    0.20    5.93   0.08   0.78
sdh               0.00     0.13    0.02    0.23     2.21     5.06    56.82     0.00    1.15    0.65    1.19   0.21   0.01
md0               0.00     0.00 10238.93  480.00 143690.47 21456.43    30.81     0.00    0.00    0.00    0.00   0.00   0.00

avg-cpu:  %user   %nice %system %iowait  %steal   %idle
          23.43    0.00    3.27    1.01    0.00   72.29

Device:         rrqm/s   wrqm/s     r/s     w/s    rkB/s    wkB/s avgrq-sz avgqu-sz   await r_await w_await  svctm  %util
sda               0.00     0.00 2486.00    0.00  9944.00     0.00     8.00     0.16    0.06    0.06    0.00   0.06  15.90
sdb               0.00     0.00 2546.00    0.00 10184.00     0.00     8.00     0.16    0.07    0.07    0.00   0.06  16.40
sdc               0.00     0.00 1810.00    0.00  7240.00     0.00     8.00     0.13    0.07    0.07    0.00   0.07  13.00
sdd               0.00     0.00 2383.00    0.00  9532.00     0.00     8.00     0.17    0.07    0.07    0.00   0.07  17.00
sde               0.00     0.00 2128.00    0.00  8512.00     0.00     8.00     0.14    0.06    0.06    0.00   0.06  13.80
sdf               0.00     0.00 2485.00    0.00  9940.00     0.00     8.00     0.17    0.07    0.07    0.00   0.07  17.00
sdg               0.00     0.00    3.00    1.00    60.00     8.00    34.00     0.00    0.00    0.00    0.00   0.00   0.00
sdh               0.00     0.00    0.00    0.00     0.00     0.00     0.00     0.00    0.00    0.00    0.00   0.00   0.00
md0               0.00     0.00 13840.00    0.00 55360.00     0.00     8.00     0.00    0.00    0.00    0.00   0.00   0.00

avg-cpu:  %user   %nice %system %iowait  %steal   %idle
          23.43    0.00    3.27    0.76    0.00   72.54

Device:         rrqm/s   wrqm/s     r/s     w/s    rkB/s    wkB/s avgrq-sz avgqu-sz   await r_await w_await  svctm  %util
sda               0.00     0.00 2395.00    0.00  9580.00     0.00     8.00     0.14    0.06    0.06    0.00   0.06  14.40
sdb               0.00     0.00 2647.00    0.00 10588.00     0.00     8.00     0.16    0.06    0.06    0.00   0.06  16.20
sdc               0.00     0.00 2037.00    0.00  8148.00     0.00     8.00     0.15    0.07    0.07    0.00   0.07  14.70
sdd               0.00     0.00 2392.00    0.00  9568.00     0.00     8.00     0.17    0.07    0.07    0.00   0.07  16.50
sde               0.00     0.00 2125.00    0.00  8500.00     0.00     8.00     0.15    0.07    0.07    0.00   0.07  14.80
sdf               0.00     0.00 2166.00    0.00  8664.00     0.00     8.00     0.16    0.07    0.07    0.00   0.07  15.80
sdg               0.00     0.00    0.00    0.00     0.00     0.00     0.00     0.00    0.00    0.00    0.00   0.00   0.00
sdh               0.00     0.00    0.00    0.00     0.00     0.00     0.00     0.00    0.00    0.00    0.00   0.00   0.00
md0               0.00     0.00 13761.00    0.00 55044.00     0.00     8.00     0.00    0.00    0.00    0.00   0.00   0.00

avg-cpu:  %user   %nice %system %iowait  %steal   %idle
          23.06    0.00    4.01    1.00    0.00   71.93

Device:         rrqm/s   wrqm/s     r/s     w/s    rkB/s    wkB/s avgrq-sz avgqu-sz   await r_await w_await  svctm  %util
sda               0.00     0.00 2484.00    0.00  9936.00     0.00     8.00     0.14    0.06    0.06    0.00   0.06  14.10
sdb               0.00     0.00 2173.00    0.00  8692.00     0.00     8.00     0.13    0.06    0.06    0.00   0.06  13.30
sdc               0.00     0.00 2622.00    0.00 10488.00     0.00     8.00     0.18    0.07    0.07    0.00   0.07  18.10
sdd               0.00     0.00 2268.00    0.00  9072.00     0.00     8.00     0.15    0.07    0.07    0.00   0.07  14.90
sde               0.00     0.00 2182.00    0.00  8728.00     0.00     8.00     0.17    0.08    0.08    0.00   0.08  16.50
sdf               0.00     0.00 2134.00    0.00  8536.00     0.00     8.00     0.14    0.07    0.07    0.00   0.07  14.20
sdg               0.00     0.00    2.00   16.00    32.00   112.00    16.00     0.01    0.56    0.00    0.62   0.06   0.10
sdh               0.00     0.00    0.00    0.00     0.00     0.00     0.00     0.00    0.00    0.00    0.00   0.00   0.00
md0               0.00     0.00 13864.00    0.00 55456.00     0.00     8.00     0.00    0.00    0.00    0.00   0.00   0.00

avg-cpu:  %user   %nice %system %iowait  %steal   %idle
          23.12    0.00    3.77    0.75    0.00   72.36

Device:         rrqm/s   wrqm/s     r/s     w/s    rkB/s    wkB/s avgrq-sz avgqu-sz   await r_await w_await  svctm  %util
sda               0.00     0.00 2216.00    0.00  8864.00     0.00     8.00     0.14    0.06    0.06    0.00   0.06  14.30
sdb               0.00     0.00 2302.00    0.00  9208.00     0.00     8.00     0.15    0.06    0.06    0.00   0.06  14.60
sdc               0.00     0.00 2143.00    0.00  8572.00     0.00     8.00     0.15    0.07    0.07    0.00   0.07  15.40
sdd               0.00     0.00 2600.00    0.00 10400.00     0.00     8.00     0.18    0.07    0.07    0.00   0.07  18.00
sde               0.00     0.00 1953.00    0.00  7812.00     0.00     8.00     0.14    0.07    0.07    0.00   0.07  13.80
sdf               0.00     0.00 2464.00    0.00  9856.00     0.00     8.00     0.16    0.07    0.07    0.00   0.07  16.10
sdg               0.00     0.00    0.00    0.00     0.00     0.00     0.00     0.00    0.00    0.00    0.00   0.00   0.00
sdh               0.00     0.00    0.00    0.00     0.00     0.00     0.00     0.00    0.00    0.00    0.00   0.00   0.00
md0               0.00     0.00 13678.00    0.00 54712.00     0.00     8.00     0.00    0.00    0.00    0.00   0.00   0.00

avg-cpu:  %user   %nice %system %iowait  %steal   %idle
          23.00    0.00    4.00    0.75    0.00   72.25

Device:         rrqm/s   wrqm/s     r/s     w/s    rkB/s    wkB/s avgrq-sz avgqu-sz   await r_await w_await  svctm  %util
sda               0.00     0.00 2269.00    0.00  9076.00     0.00     8.00     0.15    0.06    0.06    0.00   0.06  14.70
sdb               0.00     0.00 2510.00    0.00 10040.00     0.00     8.00     0.15    0.06    0.06    0.00   0.06  15.40
sdc               0.00     0.00 2445.00    0.00  9780.00     0.00     8.00     0.17    0.07    0.07    0.00   0.07  17.30
sdd               0.00     0.00 2005.00    0.00  8020.00     0.00     8.00     0.14    0.07    0.07    0.00   0.07  13.70
sde               0.00     0.00 2242.00    0.00  8968.00     0.00     8.00     0.15    0.07    0.07    0.00   0.07  15.30
sdf               0.00     0.00 2339.00    0.00  9356.00     0.00     8.00     0.15    0.06    0.06    0.00   0.06  14.70
sdg               0.00     0.00    0.00    0.00     0.00     0.00     0.00     0.00    0.00    0.00    0.00   0.00   0.00
sdh               0.00     0.00    0.00    0.00     0.00     0.00     0.00     0.00    0.00    0.00    0.00   0.00   0.00
md0               0.00     0.00 13809.00    0.00 55236.00     0.00     8.00     0.00    0.00    0.00    0.00   0.00   0.00

avg-cpu:  %user   %nice %system %iowait  %steal   %idle
          23.17    0.00    3.78    0.76    0.00   72.29

Device:         rrqm/s   wrqm/s     r/s     w/s    rkB/s    wkB/s avgrq-sz avgqu-sz   await r_await w_await  svctm  %util
sda               0.00     0.00 2117.00    0.00  8468.00     0.00     8.00     0.14    0.06    0.06    0.00   0.06  13.50
sdb               0.00     0.00 2323.00    0.00  9292.00     0.00     8.00     0.16    0.07    0.07    0.00   0.07  15.70
sdc               0.00     0.00 2331.00    0.00  9324.00     0.00     8.00     0.15    0.07    0.07    0.00   0.07  15.50
sdd               0.00     0.00 2483.00    0.00  9932.00     0.00     8.00     0.16    0.06    0.06    0.00   0.06  16.00
sde               0.00     0.00 2295.00    0.00  9180.00     0.00     8.00     0.16    0.07    0.07    0.00   0.07  15.60
sdf               0.00     0.00 2373.00    0.00  9492.00     0.00     8.00     0.17    0.07    0.07    0.00   0.07  16.90
sdg               0.00     0.00    0.00    0.00     0.00     0.00     0.00     0.00    0.00    0.00    0.00   0.00   0.00
sdh               0.00     0.00    0.00    0.00     0.00     0.00     0.00     0.00    0.00    0.00    0.00   0.00   0.00
md0               0.00     0.00 13923.00    0.00 55692.00     0.00     8.00     0.00    0.00    0.00    0.00   0.00   0.00

avg-cpu:  %user   %nice %system %iowait  %steal   %idle
          23.17    0.00    4.53    2.02    0.00   70.28

Device:         rrqm/s   wrqm/s     r/s     w/s    rkB/s    wkB/s avgrq-sz avgqu-sz   await r_await w_await  svctm  %util
sda               0.00     0.00 2241.00    0.00  8964.00     0.00     8.00     0.14    0.06    0.06    0.00   0.06  14.20
sdb               0.00     0.00 2597.00    0.00 10388.00     0.00     8.00     0.17    0.07    0.07    0.00   0.07  17.10
sdc               0.00     0.00 2492.00    0.00  9968.00     0.00     8.00     0.16    0.07    0.07    0.00   0.07  16.30
sdd               0.00     0.00 2098.00    0.00  8392.00     0.00     8.00     0.15    0.07    0.07    0.00   0.07  15.30
sde               0.00     0.00 1855.00    0.00  7420.00     0.00     8.00     0.13    0.07    0.07    0.00   0.07  13.00
sdf               0.00     0.00 2286.00    0.00  9144.00     0.00     8.00     0.15    0.07    0.07    0.00   0.07  15.50
sdg               0.00     6.00  529.00 1031.00  2440.00  5420.00    10.08     6.30    4.04    0.13    6.04   0.07  11.00
sdh               0.00     0.00    0.00    0.00     0.00     0.00     0.00     0.00    0.00    0.00    0.00   0.00   0.00
md0               0.00     0.00 13568.00    0.00 54272.00     0.00     8.00     0.00    0.00    0.00    0.00   0.00   0.00

avg-cpu:  %user   %nice %system %iowait  %steal   %idle
          23.23    0.00    3.28    0.76    0.00   72.73

Device:         rrqm/s   wrqm/s     r/s     w/s    rkB/s    wkB/s avgrq-sz avgqu-sz   await r_await w_await  svctm  %util
sda               0.00     0.00 2041.00    0.00  8164.00     0.00     8.00     0.13    0.07    0.07    0.00   0.06  13.20
sdb               0.00     0.00 2132.00    0.00  8528.00     0.00     8.00     0.15    0.07    0.07    0.00   0.07  15.20
sdc               0.00     0.00 2232.00    0.00  8928.00     0.00     8.00     0.16    0.07    0.07    0.00   0.07  16.00
sdd               0.00     0.00 2499.00    0.00  9996.00     0.00     8.00     0.17    0.07    0.07    0.00   0.07  16.50
sde               0.00     0.00 2269.00    0.00  9076.00     0.00     8.00     0.15    0.07    0.07    0.00   0.07  15.00
sdf               0.00     0.00 2399.00    0.00  9596.00     0.00     8.00     0.17    0.07    0.07    0.00   0.07  16.50
sdg               0.00     0.00    0.00    0.00     0.00     0.00     0.00     0.00    0.00    0.00    0.00   0.00   0.00
sdh               0.00     0.00    0.00    0.00     0.00     0.00     0.00     0.00    0.00    0.00    0.00   0.00   0.00
md0               0.00     0.00 13572.00    0.00 54288.00     0.00     8.00     0.00    0.00    0.00    0.00   0.00   0.00

avg-cpu:  %user   %nice %system %iowait  %steal   %idle
          22.69    0.00    4.49    0.75    0.00   72.07

Device:         rrqm/s   wrqm/s     r/s     w/s    rkB/s    wkB/s avgrq-sz avgqu-sz   await r_await w_await  svctm  %util
sda               0.00     0.00 2284.00    0.00  9136.00     0.00     8.00     0.15    0.07    0.07    0.00   0.07  15.10
sdb               0.00     0.00 2504.00    0.00 10016.00     0.00     8.00     0.15    0.06    0.06    0.00   0.06  15.30
sdc               0.00     0.00 2008.00    0.00  8032.00     0.00     8.00     0.13    0.07    0.07    0.00   0.07  13.20
sdd               0.00     0.00 2249.00    0.00  8996.00     0.00     8.00     0.15    0.07    0.07    0.00   0.07  15.20
sde               0.00     0.00 2450.00    0.00  9800.00     0.00     8.00     0.16    0.07    0.07    0.00   0.07  16.00
sdf               0.00     0.00 2391.00    0.00  9564.00     0.00     8.00     0.16    0.07    0.07    0.00   0.07  16.10
sdg               0.00     0.00    0.00    0.00     0.00     0.00     0.00     0.00    0.00    0.00    0.00   0.00   0.00
sdh               0.00     0.00    0.00    0.00     0.00     0.00     0.00     0.00    0.00    0.00    0.00   0.00   0.00
md0               0.00     0.00 13886.00    0.00 55544.00     0.00     8.00     0.00    0.00    0.00    0.00   0.00   0.00

avg-cpu:  %user   %nice %system %iowait  %steal   %idle
          22.67    0.00    4.28    0.76    0.00   72.29

Device:         rrqm/s   wrqm/s     r/s     w/s    rkB/s    wkB/s avgrq-sz avgqu-sz   await r_await w_await  svctm  %util
sda               0.00     0.00 2449.00    0.00  9796.00     0.00     8.00     0.16    0.06    0.06    0.00   0.06  15.80
sdb               0.00     0.00 2264.00    0.00  9056.00     0.00     8.00     0.14    0.06    0.06    0.00   0.06  14.00
sdc               0.00     0.00 2609.00    0.00 10436.00     0.00     8.00     0.18    0.07    0.07    0.00   0.07  17.90
sdd               0.00     0.00 2015.00    0.00  8060.00     0.00     8.00     0.14    0.07    0.07    0.00   0.07  13.80
sde               0.00     0.00 2394.00    0.00  9576.00     0.00     8.00     0.15    0.06    0.06    0.00   0.06  15.30
sdf               0.00     0.00 2097.00    0.00  8388.00     0.00     8.00     0.15    0.07    0.07    0.00   0.07  14.90
sdg               0.00     0.00    0.00    0.00     0.00     0.00     0.00     0.00    0.00    0.00    0.00   0.00   0.00
sdh               0.00     0.00    0.00    0.00     0.00     0.00     0.00     0.00    0.00    0.00    0.00   0.00   0.00
md0               0.00     0.00 13829.00    0.00 55316.00     0.00     8.00     0.00    0.00    0.00    0.00   0.00   0.00

avg-cpu:  %user   %nice %system %iowait  %steal   %idle
          22.86    0.00    4.02    0.75    0.00   72.36

Device:         rrqm/s   wrqm/s     r/s     w/s    rkB/s    wkB/s avgrq-sz avgqu-sz   await r_await w_await  svctm  %util
sda               0.00     0.00 2766.00    0.00 11064.00     0.00     8.00     0.17    0.06    0.06    0.00   0.06  16.50
sdb               0.00     0.00 1996.00    0.00  7984.00     0.00     8.00     0.12    0.06    0.06    0.00   0.06  12.20
sdc               0.00     0.00 2098.00    0.00  8392.00     0.00     8.00     0.15    0.07    0.07    0.00   0.07  14.80
sdd               0.00     0.00 2533.00    0.00 10132.00     0.00     8.00     0.17    0.07    0.07    0.00   0.07  17.40
sde               0.00     0.00 2259.00    0.00  9036.00     0.00     8.00     0.15    0.07    0.07    0.00   0.07  15.00
sdf               0.00     0.00 2223.00    0.00  8892.00     0.00     8.00     0.16    0.07    0.07    0.00   0.07  15.80
sdg               0.00     0.00    0.00    0.00     0.00     0.00     0.00     0.00    0.00    0.00    0.00   0.00   0.00
sdh               0.00     0.00    0.00    0.00     0.00     0.00     0.00     0.00    0.00    0.00    0.00   0.00   0.00
md0               0.00     0.00 13875.00    0.00 55500.00     0.00     8.00     0.00    0.00    0.00    0.00   0.00   0.00

avg-cpu:  %user   %nice %system %iowait  %steal   %idle
          23.37    0.00    3.77    0.75    0.00   72.11

Device:         rrqm/s   wrqm/s     r/s     w/s    rkB/s    wkB/s avgrq-sz avgqu-sz   await r_await w_await  svctm  %util
sda               0.00     0.00 2094.00    0.00  8376.00     0.00     8.00     0.14    0.07    0.07    0.00   0.07  14.00
sdb               0.00     0.00 2334.00    0.00  9336.00     0.00     8.00     0.14    0.06    0.06    0.00   0.06  14.40
sdc               0.00     0.00 2520.00    0.00 10080.00     0.00     8.00     0.17    0.07    0.07    0.00   0.07  17.00
sdd               0.00     0.00 2547.00    0.00 10188.00     0.00     8.00     0.18    0.07    0.07    0.00   0.07  17.80
sde               0.00     0.00 2280.00    0.00  9120.00     0.00     8.00     0.16    0.07    0.07    0.00   0.07  16.20
sdf               0.00     0.00 2158.00    0.00  8632.00     0.00     8.00     0.12    0.06    0.06    0.00   0.06  11.90
sdg               0.00     0.00    0.00    0.00     0.00     0.00     0.00     0.00    0.00    0.00    0.00   0.00   0.00
sdh               0.00     0.00    0.00    0.00     0.00     0.00     0.00     0.00    0.00    0.00    0.00   0.00   0.00
md0               0.00     0.00 13933.00    0.00 55732.00     0.00     8.00     0.00    0.00    0.00    0.00   0.00   0.00

avg-cpu:  %user   %nice %system %iowait  %steal   %idle
          22.86    0.00    3.77    1.01    0.00   72.36

Device:         rrqm/s   wrqm/s     r/s     w/s    rkB/s    wkB/s avgrq-sz avgqu-sz   await r_await w_await  svctm  %util
sda               0.00     0.00 2406.00    0.00  9624.00     0.00     8.00     0.15    0.06    0.06    0.00   0.06  14.60
sdb               0.00     0.00 2714.00    0.00 10856.00     0.00     8.00     0.17    0.06    0.06    0.00   0.06  16.70
sdc               0.00     0.00 1903.00    0.00  7612.00     0.00     8.00     0.13    0.07    0.07    0.00   0.07  12.90
sdd               0.00     0.00 2085.00    0.00  8340.00     0.00     8.00     0.14    0.07    0.07    0.00   0.07  14.50
sde               0.00     0.00 2573.00    0.00 10292.00     0.00     8.00     0.18    0.07    0.07    0.00   0.07  18.20
sdf               0.00     0.00 2244.00    0.00  8976.00     0.00     8.00     0.16    0.07    0.07    0.00   0.07  15.60
sdg               0.00     1.00    8.00    5.00    32.00    48.00    12.31     0.00    0.15    0.12    0.20   0.08   0.10
sdh               0.00     0.00    0.00    0.00     0.00     0.00     0.00     0.00    0.00    0.00    0.00   0.00   0.00
md0               0.00     0.00 13924.00    0.00 55696.00     0.00     8.00     0.00    0.00    0.00    0.00   0.00   0.00

avg-cpu:  %user   %nice %system %iowait  %steal   %idle
          22.92    0.00    3.78    1.01    0.00   72.29

Device:         rrqm/s   wrqm/s     r/s     w/s    rkB/s    wkB/s avgrq-sz avgqu-sz   await r_await w_await  svctm  %util
sda               0.00     0.00 2227.00    0.00  8908.00     0.00     8.00     0.15    0.07    0.07    0.00   0.07  15.50
sdb               0.00     0.00 2216.00    0.00  8864.00     0.00     8.00     0.14    0.06    0.06    0.00   0.06  14.40
sdc               0.00     0.00 2202.00    0.00  8808.00     0.00     8.00     0.14    0.06    0.06    0.00   0.06  14.30
sdd               0.00     0.00 2334.00    0.00  9336.00     0.00     8.00     0.16    0.07    0.07    0.00   0.07  16.40
sde               0.00     0.00 2418.00    0.00  9672.00     0.00     8.00     0.16    0.07    0.07    0.00   0.07  16.00
sdf               0.00     0.00 2534.00    0.00 10136.00     0.00     8.00     0.17    0.07    0.07    0.00   0.07  16.60
sdg               0.00     0.00    0.00    0.00     0.00     0.00     0.00     0.00    0.00    0.00    0.00   0.00   0.00
sdh               0.00     0.00    0.00    0.00     0.00     0.00     0.00     0.00    0.00    0.00    0.00   0.00   0.00
md0               0.00     0.00 13932.00    0.00 55728.00     0.00     8.00     0.00    0.00    0.00    0.00   0.00   0.00

avg-cpu:  %user   %nice %system %iowait  %steal   %idle
          24.49    0.00    3.03    0.76    0.00   71.72

Device:         rrqm/s   wrqm/s     r/s     w/s    rkB/s    wkB/s avgrq-sz avgqu-sz   await r_await w_await  svctm  %util
sda               0.00     0.00 2192.00    0.00  8768.00     0.00     8.00     0.14    0.06    0.06    0.00   0.06  13.70
sdb               0.00     0.00 2452.00    0.00  9808.00     0.00     8.00     0.16    0.06    0.06    0.00   0.06  15.60
sdc               0.00     0.00 2433.00    0.00  9732.00     0.00     8.00     0.16    0.06    0.06    0.00   0.06  15.70
sdd               0.00     0.00 2189.00    0.00  8756.00     0.00     8.00     0.15    0.07    0.07    0.00   0.07  14.90
sde               0.00     0.00 2511.00    0.00 10044.00     0.00     8.00     0.17    0.07    0.07    0.00   0.07  17.10
sdf               0.00     0.00 2198.00    0.00  8796.00     0.00     8.00     0.16    0.07    0.07    0.00   0.07  16.10
sdg               0.00     0.00    0.00    0.00     0.00     0.00     0.00     0.00    0.00    0.00    0.00   0.00   0.00
sdh               0.00     0.00    0.00    0.00     0.00     0.00     0.00     0.00    0.00    0.00    0.00   0.00   0.00
md0               0.00     0.00 13975.00    0.00 55900.00     0.00     8.00     0.00    0.00    0.00    0.00   0.00   0.00

avg-cpu:  %user   %nice %system %iowait  %steal   %idle
          24.74    0.00    2.55    0.77    0.00   71.94

Device:         rrqm/s   wrqm/s     r/s     w/s    rkB/s    wkB/s avgrq-sz avgqu-sz   await r_await w_await  svctm  %util
sda               0.00     0.00 2143.00    0.00  8572.00     0.00     8.00     0.14    0.06    0.06    0.00   0.06  13.70
sdb               0.00     0.00 2659.00    0.00 10636.00     0.00     8.00     0.16    0.06    0.06    0.00   0.06  16.30
sdc               0.00     0.00 2343.00    0.00  9372.00     0.00     8.00     0.16    0.07    0.07    0.00   0.07  16.30
sdd               0.00     0.00 2415.00    0.00  9660.00     0.00     8.00     0.17    0.07    0.07    0.00   0.07  16.80
sde               0.00     0.00 1702.00    0.00  6808.00     0.00     8.00     0.12    0.07    0.07    0.00   0.07  12.10
sdf               0.00     0.00 2272.00    0.00  9084.00     0.00     8.00     0.16    0.07    0.07    0.00   0.07  15.80
sdg               0.00     0.00    0.00    0.00     0.00     0.00     0.00     0.00    0.00    0.00    0.00   0.00   0.00
sdh               0.00     0.00    0.00    0.00     0.00     0.00     0.00     0.00    0.00    0.00    0.00   0.00   0.00
md0               0.00     0.00 13534.00    0.00 54136.00     0.00     8.00     0.00    0.00    0.00    0.00   0.00   0.00

avg-cpu:  %user   %nice %system %iowait  %steal   %idle
          25.06    0.25    3.04   11.65    0.00   60.00

Device:         rrqm/s   wrqm/s     r/s     w/s    rkB/s    wkB/s avgrq-sz avgqu-sz   await r_await w_await  svctm  %util
sda               0.00     0.00 1910.00    0.00  7640.00     0.00     8.00     0.13    0.07    0.07    0.00   0.07  13.00
sdb               0.00     0.00 2378.00    0.00  9512.00     0.00     8.00     0.15    0.06    0.06    0.00   0.06  14.70
sdc               0.00     0.00 2418.00    0.00  9672.00     0.00     8.00     0.17    0.07    0.07    0.00   0.07  17.00
sdd               0.00     0.00 2334.00    0.00  9336.00     0.00     8.00     0.16    0.07    0.07    0.00   0.07  15.90
sde               0.00     0.00 2230.00    0.00  8920.00     0.00     8.00     0.16    0.07    0.07    0.00   0.07  15.70
sdf               0.00     0.00 2171.00    0.00  8684.00     0.00     8.00     0.16    0.08    0.08    0.00   0.08  16.30
sdg               0.00     0.00 1326.00    0.00  5304.00     0.00     8.00     0.15    0.12    0.12    0.00   0.12  15.40
sdh               0.00     0.00    0.00    0.00     0.00     0.00     0.00     0.00    0.00    0.00    0.00   0.00   0.00
md0               0.00     0.00 13441.00    0.00 53764.00     0.00     8.00     0.00    0.00    0.00    0.00   0.00   0.00

avg-cpu:  %user   %nice %system %iowait  %steal   %idle
          24.69    0.00    3.53   20.91    0.00   50.88

Device:         rrqm/s   wrqm/s     r/s     w/s    rkB/s    wkB/s avgrq-sz avgqu-sz   await r_await w_await  svctm  %util
sda               0.00     0.00 2203.00    0.00  8812.00     0.00     8.00     0.15    0.07    0.07    0.00   0.07  14.60
sdb               0.00     0.00 2136.00    0.00  8544.00     0.00     8.00     0.14    0.06    0.06    0.00   0.06  13.70
sdc               0.00     0.00 2184.00    0.00  8736.00     0.00     8.00     0.15    0.07    0.07    0.00   0.07  15.30
sdd               0.00     0.00 2355.00    0.00  9420.00     0.00     8.00     0.16    0.07    0.07    0.00   0.07  15.80
sde               0.00     0.00 2379.00    0.00  9516.00     0.00     8.00     0.16    0.07    0.07    0.00   0.07  15.90
sdf               0.00     0.00 2357.00    0.00  9428.00     0.00     8.00     0.15    0.06    0.06    0.00   0.06  14.90
sdg               0.00     0.00    0.00    0.00     0.00     0.00     0.00     0.00    0.00    0.00    0.00   0.00   0.00
sdh               0.00     0.00    0.00    0.00     0.00     0.00     0.00     0.00    0.00    0.00    0.00   0.00   0.00
md0               0.00     0.00 13614.00    0.00 54456.00     0.00     8.00     0.00    0.00    0.00    0.00   0.00   0.00

avg-cpu:  %user   %nice %system %iowait  %steal   %idle
          25.32    0.00    2.53   21.27    0.00   50.89

Device:         rrqm/s   wrqm/s     r/s     w/s    rkB/s    wkB/s avgrq-sz avgqu-sz   await r_await w_await  svctm  %util
sda               0.00     0.00 2746.00    0.00 10984.00     0.00     8.00     0.19    0.07    0.07    0.00   0.07  18.70
sdb               0.00     0.00 2145.00    0.00  8580.00     0.00     8.00     0.14    0.07    0.07    0.00   0.07  14.00
sdc               0.00     0.00 2349.00    0.00  9396.00     0.00     8.00     0.16    0.07    0.07    0.00   0.07  16.10
sdd               0.00     0.00 1985.00    0.00  7940.00     0.00     8.00     0.13    0.07    0.07    0.00   0.07  13.40
sde               0.00     0.00 1905.00    0.00  7620.00     0.00     8.00     0.14    0.08    0.08    0.00   0.08  14.50
sdf               0.00     0.00 2425.00    0.00  9700.00     0.00     8.00     0.16    0.07    0.07    0.00   0.07  16.40
sdg               0.00     0.00    0.00    0.00     0.00     0.00     0.00     0.00    0.00    0.00    0.00   0.00   0.00
sdh               0.00     0.00    0.00    0.00     0.00     0.00     0.00     0.00    0.00    0.00    0.00   0.00   0.00
md0               0.00     0.00 13555.00    0.00 54220.00     0.00     8.00     0.00    0.00    0.00    0.00   0.00   0.00

avg-cpu:  %user   %nice %system %iowait  %steal   %idle
          24.69    0.00    3.53   20.91    0.00   50.88

Device:         rrqm/s   wrqm/s     r/s     w/s    rkB/s    wkB/s avgrq-sz avgqu-sz   await r_await w_await  svctm  %util
sda               0.00     0.00 2289.00    0.00  9156.00     0.00     8.00     0.15    0.06    0.06    0.00   0.06  14.60
sdb               0.00     0.00 2107.00    0.00  8428.00     0.00     8.00     0.14    0.07    0.07    0.00   0.07  14.00
sdc               0.00     0.00 2266.00    0.00  9064.00     0.00     8.00     0.16    0.07    0.07    0.00   0.07  16.30
sdd               0.00     0.00 2209.00    0.00  8836.00     0.00     8.00     0.15    0.07    0.07    0.00   0.07  15.00
sde               0.00     0.00 2729.00    0.00 10916.00     0.00     8.00     0.17    0.06    0.06    0.00   0.06  17.40
sdf               0.00     0.00 2151.00    0.00  8604.00     0.00     8.00     0.15    0.07    0.07    0.00   0.07  14.80
sdg               0.00     0.00    0.00    0.00     0.00     0.00     0.00     0.00    0.00    0.00    0.00   0.00   0.00
sdh               0.00     0.00    0.00    0.00     0.00     0.00     0.00     0.00    0.00    0.00    0.00   0.00   0.00
md0               0.00     0.00 13751.00    0.00 55004.00     0.00     8.00     0.00    0.00    0.00    0.00   0.00   0.00

