Linux 4.17.2 (bench) 	08/03/2018 	_x86_64_	(4 CPU)

avg-cpu:  %user   %nice %system %iowait  %steal   %idle
          10.27    0.02    4.08    2.57    0.00   83.06

Device:         rrqm/s   wrqm/s     r/s     w/s    rkB/s    wkB/s avgrq-sz avgqu-sz   await r_await w_await  svctm  %util
sda              46.04     4.24 1659.33  102.44 20976.05  3134.45    27.37     1.04    0.59    0.26    5.92   0.06  10.75
sdb              45.90     4.20 1659.27  102.58 20965.45  3131.12    27.35     1.03    0.59    0.26    5.85   0.06  10.63
sdc              83.86     4.26 1619.22  102.13 20957.55  3133.58    27.99     1.45    0.84    0.45    7.12   0.08  14.09
sdd              77.28     4.23 1624.96  102.20 20942.47  3129.78    27.88     1.46    0.85    0.44    7.33   0.08  14.18
sde              79.31     4.27 1630.03  102.29 21002.24  3134.02    27.87     1.48    0.86    0.44    7.44   0.08  14.21
sdf              76.43     4.24 1632.18  102.24 20983.51  3130.89    27.81     1.53    0.88    0.44    7.90   0.08  14.24
sdg               0.00     3.17   26.33   73.32   324.10   392.07    14.37     0.44    4.42    0.20    5.93   0.08   0.78
sdh               0.00     0.13    0.02    0.23     2.21     5.06    56.82     0.00    1.15    0.65    1.19   0.21   0.01
md0               0.00     0.00 10240.62  479.96 143690.03 21454.92    30.81     0.00    0.00    0.00    0.00   0.00   0.00

avg-cpu:  %user   %nice %system %iowait  %steal   %idle
          24.00    0.00    3.00    2.25    0.00   70.75

Device:         rrqm/s   wrqm/s     r/s     w/s    rkB/s    wkB/s avgrq-sz avgqu-sz   await r_await w_await  svctm  %util
sda               0.00     0.00 1458.00    0.00  5832.00     0.00     8.00     0.14    0.10    0.10    0.00   0.10  14.40
sdb               0.00     0.00 1537.00    0.00  6148.00     0.00     8.00     0.15    0.10    0.10    0.00   0.10  14.90
sdc               0.00     0.00 1395.00    0.00  5580.00     0.00     8.00     0.14    0.10    0.10    0.00   0.10  13.70
sdd               0.00     0.00 1524.00    0.00  6096.00     0.00     8.00     0.16    0.11    0.11    0.00   0.11  16.40
sde               0.00     0.00 1560.00    0.00  6240.00     0.00     8.00     0.17    0.11    0.11    0.00   0.10  15.50
sdf               0.00     0.00 1545.00    0.00  6180.00     0.00     8.00     0.17    0.11    0.11    0.00   0.11  16.70
sdg               0.00     0.00    6.00    8.00    96.00    92.00    26.86     0.01    0.93    1.00    0.88   0.43   0.60
sdh               0.00     0.00    0.00    0.00     0.00     0.00     0.00     0.00    0.00    0.00    0.00   0.00   0.00
md0               0.00     0.00 9021.00    0.00 36084.00     0.00     8.00     0.00    0.00    0.00    0.00   0.00   0.00

avg-cpu:  %user   %nice %system %iowait  %steal   %idle
          24.14    0.00    4.68   11.58    0.00   59.61

Device:         rrqm/s   wrqm/s     r/s     w/s    rkB/s    wkB/s avgrq-sz avgqu-sz   await r_await w_await  svctm  %util
sda               0.00     0.00 1546.00    0.00  6184.00     0.00     8.00     0.15    0.10    0.10    0.00   0.10  14.90
sdb               0.00     0.00 1596.00    0.00  6384.00     0.00     8.00     0.15    0.10    0.10    0.00   0.10  15.30
sdc               0.00     0.00 1466.00    0.00  5864.00     0.00     8.00     0.15    0.10    0.10    0.00   0.10  14.80
sdd               0.00     0.00 1606.00    0.00  6424.00     0.00     8.00     0.16    0.10    0.10    0.00   0.10  16.00
sde               0.00     0.00 1499.00    0.00  5996.00     0.00     8.00     0.15    0.10    0.10    0.00   0.10  15.50
sdf               0.00     0.00 1523.00    0.00  6092.00     0.00     8.00     0.16    0.11    0.11    0.00   0.11  16.30
sdg               0.00     0.00    0.00    0.00     0.00     0.00     0.00     0.00    0.00    0.00    0.00   0.00   0.00
sdh               0.00     0.00    0.00    0.00     0.00     0.00     0.00     0.00    0.00    0.00    0.00   0.00   0.00
md0               0.00     0.00 9235.00    0.00 36940.00     0.00     8.00     0.00    0.00    0.00    0.00   0.00   0.00

avg-cpu:  %user   %nice %system %iowait  %steal   %idle
          24.87    0.00    2.76    4.27    0.00   68.09

Device:         rrqm/s   wrqm/s     r/s     w/s    rkB/s    wkB/s avgrq-sz avgqu-sz   await r_await w_await  svctm  %util
sda               0.00     0.00 1517.00    0.00  6068.00     0.00     8.00     0.14    0.09    0.09    0.00   0.09  13.90
sdb               0.00     0.00 1484.00    0.00  5936.00     0.00     8.00     0.15    0.10    0.10    0.00   0.10  14.90
sdc               0.00     0.00 1457.00    0.00  5828.00     0.00     8.00     0.16    0.11    0.11    0.00   0.11  15.70
sdd               0.00     0.00 1560.00    0.00  6240.00     0.00     8.00     0.16    0.11    0.11    0.00   0.11  16.40
sde               0.00     0.00 1454.00    0.00  5816.00     0.00     8.00     0.15    0.10    0.10    0.00   0.10  15.00
sdf               0.00     0.00 1537.00    0.00  6148.00     0.00     8.00     0.17    0.11    0.11    0.00   0.11  17.00
sdg               0.00     0.00    0.00    0.00     0.00     0.00     0.00     0.00    0.00    0.00    0.00   0.00   0.00
sdh               0.00     0.00    0.00    0.00     0.00     0.00     0.00     0.00    0.00    0.00    0.00   0.00   0.00
md0               0.00     0.00 9009.00    0.00 36036.00     0.00     8.00     0.00    0.00    0.00    0.00   0.00   0.00

avg-cpu:  %user   %nice %system %iowait  %steal   %idle
          24.38    0.00    3.48    9.20    0.00   62.94

Device:         rrqm/s   wrqm/s     r/s     w/s    rkB/s    wkB/s avgrq-sz avgqu-sz   await r_await w_await  svctm  %util
sda               0.00     0.00 1599.00    0.00  6396.00     0.00     8.00     0.16    0.10    0.10    0.00   0.10  15.70
sdb               0.00     0.00 1478.00    0.00  5912.00     0.00     8.00     0.14    0.10    0.10    0.00   0.10  14.30
sdc               0.00     0.00 1560.00    0.00  6240.00     0.00     8.00     0.17    0.11    0.11    0.00   0.11  16.80
sdd               0.00     0.00 1470.00    0.00  5880.00     0.00     8.00     0.15    0.10    0.10    0.00   0.10  14.90
sde               0.00     0.00 1562.00    0.00  6248.00     0.00     8.00     0.17    0.11    0.11    0.00   0.11  16.50
sdf               0.00     0.00 1533.00    0.00  6132.00     0.00     8.00     0.16    0.10    0.10    0.00   0.10  15.70
sdg               0.00     0.00    2.00   11.00    32.00    92.00    19.08     0.00    0.23    0.00    0.27   0.08   0.10
sdh               0.00     0.00    0.00    0.00     0.00     0.00     0.00     0.00    0.00    0.00    0.00   0.00   0.00
md0               0.00     0.00 9203.00    0.00 36812.00     0.00     8.00     0.00    0.00    0.00    0.00   0.00   0.00

avg-cpu:  %user   %nice %system %iowait  %steal   %idle
          24.75    0.00    3.25    8.75    0.00   63.25

Device:         rrqm/s   wrqm/s     r/s     w/s    rkB/s    wkB/s avgrq-sz avgqu-sz   await r_await w_await  svctm  %util
sda               0.00     0.00 1613.00    0.00  6452.00     0.00     8.00     0.15    0.10    0.10    0.00   0.10  15.40
sdb               0.00     0.00 1502.00    0.00  6008.00     0.00     8.00     0.15    0.10    0.10    0.00   0.10  15.20
sdc               0.00     0.00 1508.00    0.00  6032.00     0.00     8.00     0.15    0.10    0.10    0.00   0.10  15.30
sdd               0.00     0.00 1504.00    0.00  6016.00     0.00     8.00     0.15    0.10    0.10    0.00   0.10  15.50
sde               0.00     0.00 1547.00    0.00  6188.00     0.00     8.00     0.17    0.11    0.11    0.00   0.11  16.80
sdf               0.00     0.00 1524.00    0.00  6096.00     0.00     8.00     0.16    0.10    0.10    0.00   0.10  15.60
sdg               0.00     0.00    0.00    0.00     0.00     0.00     0.00     0.00    0.00    0.00    0.00   0.00   0.00
sdh               0.00     0.00    0.00    0.00     0.00     0.00     0.00     0.00    0.00    0.00    0.00   0.00   0.00
md0               0.00     0.00 9197.00    0.00 36788.00     0.00     8.00     0.00    0.00    0.00    0.00   0.00   0.00

avg-cpu:  %user   %nice %system %iowait  %steal   %idle
          24.63    0.25    3.48   11.94    0.00   59.70

Device:         rrqm/s   wrqm/s     r/s     w/s    rkB/s    wkB/s avgrq-sz avgqu-sz   await r_await w_await  svctm  %util
sda               0.00     0.00 1520.00    0.00  6080.00     0.00     8.00     0.14    0.09    0.09    0.00   0.09  14.30
sdb               0.00     0.00 1545.00    0.00  6180.00     0.00     8.00     0.15    0.10    0.10    0.00   0.10  15.10
sdc               0.00     0.00 1568.00    0.00  6272.00     0.00     8.00     0.16    0.10    0.10    0.00   0.10  16.00
sdd               0.00     0.00 1512.00    0.00  6048.00     0.00     8.00     0.17    0.11    0.11    0.00   0.11  16.50
sde               0.00     0.00 1502.00    0.00  6008.00     0.00     8.00     0.15    0.10    0.10    0.00   0.10  15.10
sdf               0.00     0.00 1517.00    0.00  6068.00     0.00     8.00     0.16    0.11    0.11    0.00   0.11  16.30
sdg               0.00     0.00   20.00    0.00   128.00     0.00    12.80     0.00    0.15    0.15    0.00   0.15   0.30
sdh               0.00     0.00    0.00    0.00     0.00     0.00     0.00     0.00    0.00    0.00    0.00   0.00   0.00
md0               0.00     0.00 9165.00    0.00 36660.00     0.00     8.00     0.00    0.00    0.00    0.00   0.00   0.00

avg-cpu:  %user   %nice %system %iowait  %steal   %idle
          24.69    0.00    2.52    3.53    0.00   69.27

Device:         rrqm/s   wrqm/s     r/s     w/s    rkB/s    wkB/s avgrq-sz avgqu-sz   await r_await w_await  svctm  %util
sda               0.00     0.00 1481.00    0.00  5924.00     0.00     8.00     0.14    0.09    0.09    0.00   0.09  14.00
sdb               0.00     0.00 1550.00    0.00  6200.00     0.00     8.00     0.15    0.10    0.10    0.00   0.09  14.60
sdc               0.00     0.00 1479.00    0.00  5916.00     0.00     8.00     0.17    0.11    0.11    0.00   0.11  16.50
sdd               0.00     0.00 1440.00    0.00  5760.00     0.00     8.00     0.15    0.11    0.11    0.00   0.11  15.40
sde               0.00     0.00 1556.00    0.00  6224.00     0.00     8.00     0.18    0.11    0.11    0.00   0.11  17.80
sdf               0.00     0.00 1506.00    0.00  6024.00     0.00     8.00     0.16    0.10    0.10    0.00   0.10  15.60
sdg               0.00     0.00    0.00    0.00     0.00     0.00     0.00     0.00    0.00    0.00    0.00   0.00   0.00
sdh               0.00     0.00    0.00    0.00     0.00     0.00     0.00     0.00    0.00    0.00    0.00   0.00   0.00
md0               0.00     0.00 9012.00    0.00 36048.00     0.00     8.00     0.00    0.00    0.00    0.00   0.00   0.00

avg-cpu:  %user   %nice %system %iowait  %steal   %idle
          24.94    0.00    2.52    4.53    0.00   68.01

Device:         rrqm/s   wrqm/s     r/s     w/s    rkB/s    wkB/s avgrq-sz avgqu-sz   await r_await w_await  svctm  %util
sda               0.00     0.00 1570.00    0.00  6280.00     0.00     8.00     0.15    0.09    0.09    0.00   0.09  14.80
sdb               0.00     0.00 1484.00    0.00  5936.00     0.00     8.00     0.15    0.10    0.10    0.00   0.10  15.00
sdc               0.00     0.00 1530.00    0.00  6120.00     0.00     8.00     0.16    0.10    0.10    0.00   0.10  15.70
sdd               0.00     0.00 1519.00    0.00  6076.00     0.00     8.00     0.15    0.10    0.10    0.00   0.10  15.40
sde               0.00     0.00 1535.00    0.00  6140.00     0.00     8.00     0.16    0.10    0.10    0.00   0.10  16.10
sdf               0.00     0.00 1511.00    0.00  6044.00     0.00     8.00     0.15    0.10    0.10    0.00   0.10  15.50
sdg               0.00     0.00    0.00    0.00     0.00     0.00     0.00     0.00    0.00    0.00    0.00   0.00   0.00
sdh               0.00     0.00    0.00    0.00     0.00     0.00     0.00     0.00    0.00    0.00    0.00   0.00   0.00
md0               0.00     0.00 9149.00    0.00 36596.00     0.00     8.00     0.00    0.00    0.00    0.00   0.00   0.00

avg-cpu:  %user   %nice %system %iowait  %steal   %idle
          24.38    0.00    3.73    5.47    0.00   66.42

Device:         rrqm/s   wrqm/s     r/s     w/s    rkB/s    wkB/s avgrq-sz avgqu-sz   await r_await w_await  svctm  %util
sda               0.00     0.00 1514.00    0.00  6056.00     0.00     8.00     0.15    0.10    0.10    0.00   0.10  15.10
sdb               0.00     0.00 1418.00    0.00  5672.00     0.00     8.00     0.14    0.10    0.10    0.00   0.10  13.50
sdc               0.00     0.00 1546.00    0.00  6184.00     0.00     8.00     0.16    0.10    0.10    0.00   0.10  16.00
sdd               0.00     0.00 1510.00    0.00  6040.00     0.00     8.00     0.15    0.10    0.10    0.00   0.10  15.50
sde               0.00     0.00 1578.00    0.00  6312.00     0.00     8.00     0.16    0.10    0.10    0.00   0.10  16.20
sdf               0.00     0.00 1543.00    0.00  6172.00     0.00     8.00     0.16    0.10    0.10    0.00   0.10  16.10
sdg               0.00     0.00    0.00    0.00     0.00     0.00     0.00     0.00    0.00    0.00    0.00   0.00   0.00
sdh               0.00     0.00    0.00    0.00     0.00     0.00     0.00     0.00    0.00    0.00    0.00   0.00   0.00
md0               0.00     0.00 9108.00    0.00 36432.00     0.00     8.00     0.00    0.00    0.00    0.00   0.00   0.00

avg-cpu:  %user   %nice %system %iowait  %steal   %idle
          24.87    0.00    2.51    4.52    0.00   68.09

Device:         rrqm/s   wrqm/s     r/s     w/s    rkB/s    wkB/s avgrq-sz avgqu-sz   await r_await w_await  svctm  %util
sda               0.00     0.00 1514.00    0.00  6056.00     0.00     8.00     0.15    0.10    0.10    0.00   0.10  15.20
sdb               0.00     0.00 1553.00    0.00  6212.00     0.00     8.00     0.16    0.10    0.10    0.00   0.10  15.70
sdc               0.00     0.00 1535.00    0.00  6140.00     0.00     8.00     0.16    0.10    0.10    0.00   0.10  15.70
sdd               0.00     0.00 1512.00    0.00  6048.00     0.00     8.00     0.17    0.11    0.11    0.00   0.11  16.80
sde               0.00     0.00 1552.00    0.00  6208.00     0.00     8.00     0.15    0.10    0.10    0.00   0.10  15.20
sdf               0.00     0.00 1432.00    0.00  5728.00     0.00     8.00     0.16    0.11    0.11    0.00   0.11  15.70
sdg               0.00     0.00    0.00    0.00     0.00     0.00     0.00     0.00    0.00    0.00    0.00   0.00   0.00
sdh               0.00     0.00    0.00    0.00     0.00     0.00     0.00     0.00    0.00    0.00    0.00   0.00   0.00
md0               0.00     0.00 9098.00    0.00 36392.00     0.00     8.00     0.00    0.00    0.00    0.00   0.00   0.00

avg-cpu:  %user   %nice %system %iowait  %steal   %idle
          24.57    0.00    3.97    8.19    0.00   63.28

Device:         rrqm/s   wrqm/s     r/s     w/s    rkB/s    wkB/s avgrq-sz avgqu-sz   await r_await w_await  svctm  %util
sda               0.00     0.00 1447.00    0.00  5788.00     0.00     8.00     0.15    0.10    0.10    0.00   0.10  14.70
sdb               0.00     0.00 1505.00    0.00  6020.00     0.00     8.00     0.13    0.09    0.09    0.00   0.09  12.90
sdc               0.00     0.00 1548.00    0.00  6192.00     0.00     8.00     0.16    0.11    0.11    0.00   0.11  16.40
sdd               0.00     0.00 1515.00    0.00  6060.00     0.00     8.00     0.16    0.10    0.10    0.00   0.10  15.70
sde               0.00     0.00 1562.00    0.00  6248.00     0.00     8.00     0.16    0.10    0.10    0.00   0.10  16.30
sdf               0.00     0.00 1531.00    0.00  6124.00     0.00     8.00     0.17    0.11    0.11    0.00   0.11  16.70
sdg               0.00     1.00    2.00    2.00     8.00    36.00    22.00     0.00    0.00    0.00    0.00   0.00   0.00
sdh               0.00     0.00    0.00    0.00     0.00     0.00     0.00     0.00    0.00    0.00    0.00   0.00   0.00
md0               0.00     0.00 9109.00    0.00 36436.00     0.00     8.00     0.00    0.00    0.00    0.00   0.00   0.00

avg-cpu:  %user   %nice %system %iowait  %steal   %idle
          24.69    0.00    2.52    7.05    0.00   65.74

Device:         rrqm/s   wrqm/s     r/s     w/s    rkB/s    wkB/s avgrq-sz avgqu-sz   await r_await w_await  svctm  %util
sda               0.00     0.00 1508.00    0.00  6032.00     0.00     8.00     0.15    0.10    0.10    0.00   0.10  15.50
sdb               0.00     0.00 1458.00    0.00  5832.00     0.00     8.00     0.14    0.09    0.09    0.00   0.09  13.70
sdc               0.00     0.00 1610.00    0.00  6440.00     0.00     8.00     0.17    0.10    0.10    0.00   0.10  16.80
sdd               0.00     0.00 1539.00    0.00  6156.00     0.00     8.00     0.16    0.11    0.11    0.00   0.11  16.40
sde               0.00     0.00 1523.00    0.00  6092.00     0.00     8.00     0.15    0.10    0.10    0.00   0.10  15.00
sdf               0.00     0.00 1503.00    0.00  6012.00     0.00     8.00     0.16    0.10    0.10    0.00   0.10  15.70
sdg               0.00     0.00    0.00    0.00     0.00     0.00     0.00     0.00    0.00    0.00    0.00   0.00   0.00
sdh               0.00     0.00    0.00    0.00     0.00     0.00     0.00     0.00    0.00    0.00    0.00   0.00   0.00
md0               0.00     0.00 9140.00    0.00 36560.00     0.00     8.00     0.00    0.00    0.00    0.00   0.00   0.00

avg-cpu:  %user   %nice %system %iowait  %steal   %idle
          24.44    0.00    4.20    9.14    0.00   62.22

Device:         rrqm/s   wrqm/s     r/s     w/s    rkB/s    wkB/s avgrq-sz avgqu-sz   await r_await w_await  svctm  %util
sda               0.00     0.00 1484.00    0.00  5936.00     0.00     8.00     0.14    0.10    0.10    0.00   0.10  14.10
sdb               0.00     0.00 1576.00    0.00  6304.00     0.00     8.00     0.16    0.10    0.10    0.00   0.10  15.80
sdc               0.00     0.00 1565.00    0.00  6260.00     0.00     8.00     0.16    0.10    0.10    0.00   0.10  15.70
sdd               0.00     0.00 1514.00    0.00  6056.00     0.00     8.00     0.16    0.11    0.11    0.00   0.11  16.00
sde               0.00     0.00 1573.00    0.00  6292.00     0.00     8.00     0.15    0.10    0.10    0.00   0.10  15.50
sdf               0.00     0.00 1492.00    0.00  5968.00     0.00     8.00     0.15    0.10    0.10    0.00   0.10  15.00
sdg               0.00     0.00    0.00    0.00     0.00     0.00     0.00     0.00    0.00    0.00    0.00   0.00   0.00
sdh               0.00     0.00    0.00    0.00     0.00     0.00     0.00     0.00    0.00    0.00    0.00   0.00   0.00
md0               0.00     0.00 9205.00    0.00 36820.00     0.00     8.00     0.00    0.00    0.00    0.00   0.00   0.00

avg-cpu:  %user   %nice %system %iowait  %steal   %idle
          24.44    0.00    3.49    8.23    0.00   63.84

Device:         rrqm/s   wrqm/s     r/s     w/s    rkB/s    wkB/s avgrq-sz avgqu-sz   await r_await w_await  svctm  %util
sda               0.00     0.00 1504.00    0.00  6016.00     0.00     8.00     0.15    0.10    0.10    0.00   0.10  14.80
sdb               0.00     0.00 1515.00    0.00  6060.00     0.00     8.00     0.14    0.10    0.10    0.00   0.10  14.50
sdc               0.00     0.00 1474.00    0.00  5896.00     0.00     8.00     0.15    0.10    0.10    0.00   0.10  14.90
sdd               0.00     0.00 1508.00    0.00  6032.00     0.00     8.00     0.16    0.10    0.10    0.00   0.10  15.60
sde               0.00     0.00 1579.00    0.00  6316.00     0.00     8.00     0.16    0.10    0.10    0.00   0.10  16.00
sdf               0.00     0.00 1581.00    0.00  6324.00     0.00     8.00     0.17    0.11    0.11    0.00   0.11  17.20
sdg               0.00     0.00    0.00    0.00     0.00     0.00     0.00     0.00    0.00    0.00    0.00   0.00   0.00
sdh               0.00     0.00    0.00    0.00     0.00     0.00     0.00     0.00    0.00    0.00    0.00   0.00   0.00
md0               0.00     0.00 9160.00    0.00 36640.00     0.00     8.00     0.00    0.00    0.00    0.00   0.00   0.00

avg-cpu:  %user   %nice %system %iowait  %steal   %idle
          24.63    0.00    3.48    8.71    0.00   63.18

Device:         rrqm/s   wrqm/s     r/s     w/s    rkB/s    wkB/s avgrq-sz avgqu-sz   await r_await w_await  svctm  %util
sda               0.00     0.00 1551.00    0.00  6204.00     0.00     8.00     0.16    0.10    0.10    0.00   0.10  15.60
sdb               0.00     0.00 1481.00    0.00  5924.00     0.00     8.00     0.14    0.09    0.09    0.00   0.09  13.90
sdc               0.00     0.00 1505.00    0.00  6020.00     0.00     8.00     0.16    0.10    0.10    0.00   0.10  15.80
sdd               0.00     0.00 1522.00    0.00  6088.00     0.00     8.00     0.16    0.10    0.10    0.00   0.10  15.90
sde               0.00     0.00 1486.00    0.00  5944.00     0.00     8.00     0.14    0.10    0.10    0.00   0.10  14.40
sdf               0.00     0.00 1636.00    0.00  6544.00     0.00     8.00     0.17    0.10    0.10    0.00   0.10  17.10
sdg               0.00     0.00    0.00    0.00     0.00     0.00     0.00     0.00    0.00    0.00    0.00   0.00   0.00
sdh               0.00     0.00    0.00    0.00     0.00     0.00     0.00     0.00    0.00    0.00    0.00   0.00   0.00
md0               0.00     0.00 9181.00    0.00 36724.00     0.00     8.00     0.00    0.00    0.00    0.00   0.00   0.00

avg-cpu:  %user   %nice %system %iowait  %steal   %idle
          24.94    0.00    2.77    2.77    0.00   69.52

Device:         rrqm/s   wrqm/s     r/s     w/s    rkB/s    wkB/s avgrq-sz avgqu-sz   await r_await w_await  svctm  %util
sda               0.00     0.00 1478.00    0.00  5912.00     0.00     8.00     0.14    0.10    0.10    0.00   0.10  14.40
sdb               0.00     0.00 1504.00    0.00  6016.00     0.00     8.00     0.14    0.10    0.10    0.00   0.09  14.20
sdc               0.00     0.00 1526.00    0.00  6104.00     0.00     8.00     0.17    0.11    0.11    0.00   0.11  16.70
sdd               0.00     0.00 1435.00    0.00  5740.00     0.00     8.00     0.15    0.10    0.10    0.00   0.10  14.80
sde               0.00     0.00 1514.00    0.00  6056.00     0.00     8.00     0.16    0.11    0.11    0.00   0.11  16.40
sdf               0.00     0.00 1466.00    0.00  5864.00     0.00     8.00     0.16    0.11    0.11    0.00   0.11  15.60
sdg               0.00     0.00    3.00    0.00    12.00     0.00     8.00     0.00    0.33    0.33    0.00   0.33   0.10
sdh               0.00     0.00    0.00    0.00     0.00     0.00     0.00     0.00    0.00    0.00    0.00   0.00   0.00
md0               0.00     0.00 8924.00    0.00 35696.00     0.00     8.00     0.00    0.00    0.00    0.00   0.00   0.00

avg-cpu:  %user   %nice %system %iowait  %steal   %idle
          24.62    0.00    3.02    3.52    0.00   68.84

Device:         rrqm/s   wrqm/s     r/s     w/s    rkB/s    wkB/s avgrq-sz avgqu-sz   await r_await w_await  svctm  %util
sda               0.00     0.00 1495.00    0.00  5980.00     0.00     8.00     0.14    0.09    0.09    0.00   0.09  14.10
sdb               0.00     0.00 1414.00    0.00  5656.00     0.00     8.00     0.14    0.10    0.10    0.00   0.10  14.50
sdc               0.00     0.00 1497.00    0.00  5988.00     0.00     8.00     0.16    0.11    0.11    0.00   0.11  16.10
sdd               0.00     0.00 1497.00    0.00  5988.00     0.00     8.00     0.15    0.10    0.10    0.00   0.10  15.30
sde               0.00     0.00 1540.00    0.00  6160.00     0.00     8.00     0.16    0.10    0.10    0.00   0.10  15.70
sdf               0.00     0.00 1535.00    0.00  6140.00     0.00     8.00     0.17    0.11    0.11    0.00   0.11  17.50
sdg               0.00     0.00    0.00    0.00     0.00     0.00     0.00     0.00    0.00    0.00    0.00   0.00   0.00
sdh               0.00     0.00    0.00    0.00     0.00     0.00     0.00     0.00    0.00    0.00    0.00   0.00   0.00
md0               0.00     0.00 8977.00    0.00 35908.00     0.00     8.00     0.00    0.00    0.00    0.00   0.00   0.00

avg-cpu:  %user   %nice %system %iowait  %steal   %idle
          24.87    0.00    2.51    3.77    0.00   68.84

Device:         rrqm/s   wrqm/s     r/s     w/s    rkB/s    wkB/s avgrq-sz avgqu-sz   await r_await w_await  svctm  %util
sda               0.00     0.00 1581.00    0.00  6324.00     0.00     8.00     0.15    0.10    0.10    0.00   0.10  15.20
sdb               0.00     0.00 1464.00    0.00  5856.00     0.00     8.00     0.14    0.10    0.10    0.00   0.10  14.00
sdc               0.00     0.00 1494.00    0.00  5976.00     0.00     8.00     0.16    0.11    0.11    0.00   0.11  16.40
sdd               0.00     0.00 1473.00    0.00  5892.00     0.00     8.00     0.16    0.11    0.11    0.00   0.11  15.90
sde               0.00     0.00 1519.00    0.00  6076.00     0.00     8.00     0.16    0.10    0.10    0.00   0.10  15.70
sdf               0.00     0.00 1485.00    0.00  5940.00     0.00     8.00     0.16    0.11    0.11    0.00   0.11  16.30
sdg               0.00     0.00    0.00    0.00     0.00     0.00     0.00     0.00    0.00    0.00    0.00   0.00   0.00
sdh               0.00     0.00    0.00    0.00     0.00     0.00     0.00     0.00    0.00    0.00    0.00   0.00   0.00
md0               0.00     0.00 9017.00    0.00 36068.00     0.00     8.00     0.00    0.00    0.00    0.00   0.00   0.00

avg-cpu:  %user   %nice %system %iowait  %steal   %idle
          24.81    0.00    2.76    3.26    0.00   69.17

Device:         rrqm/s   wrqm/s     r/s     w/s    rkB/s    wkB/s avgrq-sz avgqu-sz   await r_await w_await  svctm  %util
sda               0.00     0.00 1516.00    0.00  6064.00     0.00     8.00     0.14    0.09    0.09    0.00   0.09  14.30
sdb               0.00     0.00 1498.00    0.00  5992.00     0.00     8.00     0.14    0.10    0.10    0.00   0.10  14.40
sdc               0.00     0.00 1577.00    0.00  6308.00     0.00     8.00     0.16    0.10    0.10    0.00   0.10  15.80
sdd               0.00     0.00 1587.00    0.00  6348.00     0.00     8.00     0.17    0.11    0.11    0.00   0.11  17.30
sde               0.00     0.00 1493.00    0.00  5972.00     0.00     8.00     0.15    0.11    0.11    0.00   0.10  15.50
sdf               0.00     0.00 1458.00    0.00  5832.00     0.00     8.00     0.15    0.10    0.10    0.00   0.10  14.90
sdg               0.00     0.00    0.00    0.00     0.00     0.00     0.00     0.00    0.00    0.00    0.00   0.00   0.00
sdh               0.00     0.00    0.00    0.00     0.00     0.00     0.00     0.00    0.00    0.00    0.00   0.00   0.00
md0               0.00     0.00 9129.00    0.00 36516.00     0.00     8.00     0.00    0.00    0.00    0.00   0.00   0.00

avg-cpu:  %user   %nice %system %iowait  %steal   %idle
          24.50    0.00    3.25    5.25    0.00   67.00

Device:         rrqm/s   wrqm/s     r/s     w/s    rkB/s    wkB/s avgrq-sz avgqu-sz   await r_await w_await  svctm  %util
sda               0.00     0.00 1531.00    0.00  6124.00     0.00     8.00     0.15    0.10    0.10    0.00   0.10  15.20
sdb               0.00     0.00 1494.00    0.00  5976.00     0.00     8.00     0.15    0.10    0.10    0.00   0.10  14.80
sdc               0.00     0.00 1479.00    0.00  5916.00     0.00     8.00     0.15    0.10    0.10    0.00   0.10  14.70
sdd               0.00     0.00 1523.00    0.00  6092.00     0.00     8.00     0.16    0.11    0.11    0.00   0.11  16.10
sde               0.00     0.00 1500.00    0.00  6000.00     0.00     8.00     0.16    0.11    0.11    0.00   0.11  16.10
sdf               0.00     0.00 1608.00    0.00  6432.00     0.00     8.00     0.16    0.10    0.10    0.00   0.10  15.60
sdg               0.00     0.00    0.00    0.00     0.00     0.00     0.00     0.00    0.00    0.00    0.00   0.00   0.00
sdh               0.00     0.00    0.00    0.00     0.00     0.00     0.00     0.00    0.00    0.00    0.00   0.00   0.00
md0               0.00     0.00 9135.00    0.00 36540.00     0.00     8.00     0.00    0.00    0.00    0.00   0.00   0.00

