Linux 4.17.2 (bench) 	08/03/2018 	_x86_64_	(4 CPU)

avg-cpu:  %user   %nice %system %iowait  %steal   %idle
          10.26    0.02    4.14    2.68    0.00   82.90

Device:         rrqm/s   wrqm/s     r/s     w/s    rkB/s    wkB/s avgrq-sz avgqu-sz   await r_await w_await  svctm  %util
sda              50.34     4.20 1705.17  101.54 21235.11  3106.91    26.95     1.04    0.58    0.26    5.92   0.06  10.95
sdb              50.17     4.16 1705.15  101.68 21224.66  3103.61    26.93     1.04    0.58    0.26    5.85   0.06  10.83
sdc              87.92     4.22 1665.29  101.23 21216.82  3106.05    27.54     1.46    0.83    0.44    7.12   0.08  14.31
sdd              81.42     4.19 1670.98  101.30 21201.84  3102.28    27.43     1.47    0.83    0.43    7.33   0.08  14.41
sde              83.43     4.24 1676.06  101.40 21261.31  3106.49    27.42     1.49    0.84    0.44    7.44   0.08  14.43
sdf              80.57     4.21 1678.17  101.34 21242.63  3103.38    27.36     1.53    0.86    0.44    7.90   0.08  14.46
sdg               0.00     3.17   26.65   73.28   325.35   392.02    14.36     0.44    4.40    0.20    5.93   0.08   0.78
sdh               0.00     0.13    0.02    0.23     2.19     5.01    56.82     0.00    1.15    0.65    1.19   0.21   0.01
md0               0.00     0.00 10541.83  475.74 145532.56 21266.42    30.28     0.00    0.00    0.00    0.00   0.00   0.00

avg-cpu:  %user   %nice %system %iowait  %steal   %idle
          23.93    0.00    4.79    3.02    0.00   68.26

Device:         rrqm/s   wrqm/s     r/s     w/s    rkB/s    wkB/s avgrq-sz avgqu-sz   await r_await w_await  svctm  %util
sda             120.00     0.00  666.00    0.00 75776.00     0.00   227.56     0.39    0.59    0.59    0.00   0.40  26.80
sdb             118.00     0.00  638.00    0.00 76956.00     0.00   241.24     0.42    0.66    0.66    0.00   0.44  27.90
sdc             123.00     0.00  609.00    0.00 78292.00     0.00   257.12     0.68    1.12    1.12    0.00   0.65  39.60
sdd             115.00     0.00  660.00    0.00 77140.00     0.00   233.76     0.69    1.04    1.04    0.00   0.63  41.60
sde             117.00     0.00  718.00    0.00 76920.00     0.00   214.26     0.69    0.96    0.96    0.00   0.56  40.40
sdf             122.00     0.00  649.00    0.00 76264.00     0.00   235.02     0.64    0.99    0.99    0.00   0.60  39.10
sdg               0.00     0.00 1343.00   62.00  5428.00  1224.00     9.47     0.33    0.23    0.12    2.66   0.11  16.00
sdh               0.00     0.00    0.00    0.00     0.00     0.00     0.00     0.00    0.00    0.00    0.00   0.00   0.00
md0               0.00     0.00 4642.00    0.00 650852.00     0.00   280.42     0.00    0.00    0.00    0.00   0.00   0.00

avg-cpu:  %user   %nice %system %iowait  %steal   %idle
          24.12    0.00    3.02    1.26    0.00   71.61

Device:         rrqm/s   wrqm/s     r/s     w/s    rkB/s    wkB/s avgrq-sz avgqu-sz   await r_await w_await  svctm  %util
sda              92.00     0.00  705.00    0.00 65464.00     0.00   185.71     0.31    0.44    0.44    0.00   0.34  24.20
sdb              91.00     0.00  693.00    0.00 66480.00     0.00   191.86     0.31    0.45    0.45    0.00   0.35  24.40
sdc              97.00     0.00  623.00    0.00 68388.00     0.00   219.54     0.49    0.79    0.79    0.00   0.57  35.30
sdd             101.00     0.00  621.00    0.00 68384.00     0.00   220.24     0.50    0.80    0.80    0.00   0.57  35.20
sde              97.00     0.00  659.00    0.00 66728.00     0.00   202.51     0.49    0.75    0.75    0.00   0.54  35.70
sdf              89.00     0.00  761.00    0.00 64280.00     0.00   168.94     0.50    0.66    0.66    0.00   0.47  36.10
sdg               0.00     0.00    0.00    0.00     0.00     0.00     0.00     0.00    0.00    0.00    0.00   0.00   0.00
sdh               0.00     0.00    0.00    0.00     0.00     0.00     0.00     0.00    0.00    0.00    0.00   0.00   0.00
md0               0.00     0.00 4628.00    0.00 571276.00     0.00   246.88     0.00    0.00    0.00    0.00   0.00   0.00

