Linux 4.17.2 (bench) 	08/03/2018 	_x86_64_	(4 CPU)

avg-cpu:  %user   %nice %system %iowait  %steal   %idle
          10.26    0.02    4.16    2.69    0.00   82.88

Device:         rrqm/s   wrqm/s     r/s     w/s    rkB/s    wkB/s avgrq-sz avgqu-sz   await r_await w_await  svctm  %util
sda              51.64     4.20 1712.87  101.45 21293.95  3104.09    26.89     1.05    0.58    0.26    5.92   0.06  10.98
sdb              51.45     4.16 1712.85  101.58 21283.45  3100.79    26.88     1.05    0.58    0.26    5.85   0.06  10.85
sdc              89.28     4.22 1672.93  101.14 21275.62  3103.23    27.48     1.47    0.83    0.45    7.12   0.08  14.35
sdd              82.78     4.19 1678.61  101.21 21260.62  3099.46    27.37     1.47    0.83    0.44    7.33   0.08  14.44
sde              84.79     4.23 1683.69  101.30 21320.08  3103.67    27.37     1.49    0.84    0.44    7.44   0.08  14.46
sdf              81.93     4.20 1685.81  101.25 21301.48  3100.56    27.31     1.54    0.86    0.44    7.90   0.08  14.49
sdg               0.00     3.17   26.71   73.28   325.60   392.05    14.35     0.44    4.40    0.20    5.93   0.08   0.78
sdh               0.00     0.13    0.02    0.23     2.19     5.01    56.82     0.00    1.15    0.65    1.19   0.21   0.01
md0               0.00     0.00 10595.99  475.31 145949.23 21247.09    30.20     0.00    0.00    0.00    0.00   0.00   0.00

avg-cpu:  %user   %nice %system %iowait  %steal   %idle
          18.01    0.03   16.30    1.93    0.00   63.74

Device:         rrqm/s   wrqm/s     r/s     w/s    rkB/s    wkB/s avgrq-sz avgqu-sz   await r_await w_await  svctm  %util
sda             244.95     0.00  296.70    0.00 132359.00     0.00   892.21     0.68    2.30    2.30    0.00   1.26  37.28
sdb             244.60     0.00  295.65    0.00 132342.20     0.00   895.26     0.71    2.40    2.40    0.00   1.30  38.34
sdc             245.30     0.00  293.90    0.00 132314.80     0.00   900.41     1.28    4.34    4.34    0.00   2.14  62.79
sdd             245.35     0.00  297.90    0.00 132360.40     0.00   888.62     1.28    4.31    4.31    0.00   2.11  62.80
sde             244.70     0.00  295.00    0.00 132339.60     0.00   897.22     1.29    4.36    4.36    0.00   2.12  62.66
sdf             244.70     0.00  294.85    0.00 132359.60     0.00   897.81     1.32    4.49    4.49    0.00   2.18  64.33
sdg               0.00     7.50   93.50   72.75   384.20   378.20     9.17     0.45    2.69    0.13    5.97   0.09   1.51
sdh               0.00     0.00    0.00    0.00     0.00     0.00     0.00     0.00    0.00    0.00    0.00   0.00   0.00
md0               0.00     0.00 3243.60    0.00 1187741.00     0.00   732.36     0.00    0.00    0.00    0.00   0.00   0.00

