Linux 4.17.2 (bench) 	08/03/2018 	_x86_64_	(4 CPU)

avg-cpu:  %user   %nice %system %iowait  %steal   %idle
          10.27    0.02    4.09    2.61    0.00   83.01

Device:         rrqm/s   wrqm/s     r/s     w/s    rkB/s    wkB/s avgrq-sz avgqu-sz   await r_await w_await  svctm  %util
sda              47.06     4.23 1670.96  102.17 21023.96  3126.32    27.24     1.04    0.58    0.26    5.92   0.06  10.81
sdb              46.91     4.19 1670.91  102.31 21013.43  3122.99    27.22     1.03    0.58    0.26    5.85   0.06  10.68
sdc              84.78     4.25 1630.95  101.86 21005.56  3125.44    27.85     1.45    0.84    0.45    7.12   0.08  14.15
sdd              78.23     4.22 1636.67  101.93 20990.49  3121.65    27.74     1.46    0.84    0.44    7.33   0.08  14.24
sde              80.25     4.26 1641.75  102.03 21050.14  3125.89    27.73     1.48    0.85    0.44    7.44   0.08  14.26
sdf              77.37     4.23 1643.89  101.97 21031.44  3122.76    27.67     1.53    0.87    0.44    7.90   0.08  14.29
sdg               0.00     3.17   26.41   73.30   324.34   392.00    14.37     0.44    4.41    0.20    5.93   0.08   0.78
sdh               0.00     0.13    0.02    0.23     2.20     5.05    56.82     0.00    1.15    0.65    1.19   0.21   0.01
md0               0.00     0.00 10316.53  478.72 144016.07 21399.22    30.65     0.00    0.00    0.00    0.00   0.00   0.00

avg-cpu:  %user   %nice %system %iowait  %steal   %idle
          23.86    0.01    3.73    8.19    0.00   64.21

Device:         rrqm/s   wrqm/s     r/s     w/s    rkB/s    wkB/s avgrq-sz avgqu-sz   await r_await w_await  svctm  %util
sda              91.30     0.00  733.70    0.00 65302.60     0.00   178.01     0.35    0.47    0.47    0.00   0.32  23.63
sdb              91.20     0.00  737.70    0.00 65027.60     0.00   176.30     0.35    0.47    0.47    0.00   0.32  23.92
sdc              90.45     0.00  726.40    0.00 65298.60     0.00   179.79     0.56    0.76    0.76    0.00   0.48  34.86
sdd              92.55     0.00  732.30    0.00 65571.60     0.00   179.08     0.56    0.76    0.76    0.00   0.48  35.11
sde              92.35     0.00  731.10    0.00 65460.80     0.00   179.07     0.55    0.75    0.75    0.00   0.48  35.20
sdf              91.70     0.00  724.60    0.00 65267.40     0.00   180.15     0.55    0.76    0.76    0.00   0.48  34.95
sdg               0.00     2.90   69.30  128.20   309.60   644.20     9.66     0.78    3.96    0.12    6.03   0.07   1.38
sdh               0.00     0.00    0.00    0.00     0.00     0.00     0.00     0.00    0.00    0.00    0.00   0.00   0.00
md0               0.00     0.00 4935.45    0.00 543407.80     0.00   220.21     0.00    0.00    0.00    0.00   0.00   0.00

