Linux 4.17.2 (bench) 	08/03/2018 	_x86_64_	(4 CPU)

avg-cpu:  %user   %nice %system %iowait  %steal   %idle
          10.28    0.02    4.08    2.58    0.00   83.05

Device:         rrqm/s   wrqm/s     r/s     w/s    rkB/s    wkB/s avgrq-sz avgqu-sz   await r_await w_await  svctm  %util
sda              46.15     4.24 1661.16  102.40 20978.64  3133.30    27.34     1.04    0.59    0.26    5.92   0.06  10.76
sdb              46.01     4.20 1661.11  102.54 20968.04  3129.97    27.33     1.03    0.59    0.26    5.85   0.06  10.64
sdc              83.95     4.26 1621.07  102.09 20960.14  3132.43    27.96     1.45    0.84    0.45    7.12   0.08  14.10
sdd              77.38     4.23 1626.81  102.16 20945.07  3128.63    27.85     1.46    0.84    0.44    7.33   0.08  14.19
sde              79.41     4.27 1631.88  102.26 21004.82  3132.87    27.84     1.48    0.85    0.44    7.44   0.08  14.21
sdf              76.53     4.24 1634.03  102.20 20986.10  3129.74    27.78     1.53    0.88    0.44    7.90   0.08  14.24
sdg               0.00     3.17   26.34   73.32   324.12   392.05    14.37     0.44    4.42    0.20    5.93   0.08   0.78
sdh               0.00     0.13    0.02    0.23     2.21     5.06    56.82     0.00    1.15    0.65    1.19   0.21   0.01
md0               0.00     0.00 10252.31  479.79 143699.01 21447.03    30.78     0.00    0.00    0.00    0.00   0.00   0.00

avg-cpu:  %user   %nice %system %iowait  %steal   %idle
          24.96    0.01    1.73    1.53    0.00   71.76

Device:         rrqm/s   wrqm/s     r/s     w/s    rkB/s    wkB/s avgrq-sz avgqu-sz   await r_await w_await  svctm  %util
sda               0.00     0.00 1601.95    0.00  6407.80     0.00     8.00     0.15    0.09    0.09    0.00   0.09  14.86
sdb               0.00     0.00 1599.75    0.00  6399.00     0.00     8.00     0.15    0.09    0.09    0.00   0.09  14.87
sdc               0.00     0.00 1598.40    0.00  6393.60     0.00     8.00     0.16    0.10    0.10    0.00   0.10  16.02
sdd               0.00     0.00 1590.10    0.00  6360.40     0.00     8.00     0.16    0.10    0.10    0.00   0.10  16.18
sde               0.00     0.00 1604.15    0.00  6416.60     0.00     8.00     0.16    0.10    0.10    0.00   0.10  15.99
sdf               0.00     0.00 1599.65    0.00  6398.60     0.00     8.00     0.16    0.10    0.10    0.00   0.10  16.45
sdg               0.00     5.85   85.25   53.45   379.00   282.80     9.54     0.31    2.25    0.13    5.64   0.09   1.27
sdh               0.00     0.00    0.00    0.00     0.00     0.00     0.00     0.00    0.00    0.00    0.00   0.00   0.00
md0               0.00     0.00 9594.10    0.00 38376.40     0.00     8.00     0.00    0.00    0.00    0.00   0.00   0.00

