Linux 4.17.2 (bench) 	08/03/2018 	_x86_64_	(4 CPU)

avg-cpu:  %user   %nice %system %iowait  %steal   %idle
          10.27    0.02    4.09    2.61    0.00   83.02

Device:         rrqm/s   wrqm/s     r/s     w/s    rkB/s    wkB/s avgrq-sz avgqu-sz   await r_await w_await  svctm  %util
sda              47.06     4.23 1670.18  102.19 21018.05  3126.92    27.25     1.04    0.58    0.26    5.92   0.06  10.80
sdb              46.92     4.19 1670.13  102.33 21007.52  3123.60    27.23     1.03    0.58    0.26    5.85   0.06  10.68
sdc              84.79     4.25 1630.16  101.88 20999.63  3126.05    27.86     1.45    0.84    0.45    7.12   0.08  14.14
sdd              78.23     4.22 1635.89  101.95 20984.59  3122.26    27.74     1.46    0.84    0.44    7.33   0.08  14.24
sde              80.26     4.26 1640.96  102.05 21044.25  3126.49    27.73     1.48    0.85    0.44    7.44   0.08  14.26
sdf              77.38     4.23 1643.10  101.99 21025.55  3123.37    27.68     1.53    0.87    0.44    7.90   0.08  14.29
sdg               0.00     3.17   26.40   73.30   324.32   392.00    14.37     0.44    4.41    0.20    5.93   0.08   0.78
sdh               0.00     0.13    0.02    0.23     2.20     5.05    56.82     0.00    1.15    0.65    1.19   0.21   0.01
md0               0.00     0.00 10311.86  478.81 143971.33 21403.37    30.65     0.00    0.00    0.00    0.00   0.00   0.00

avg-cpu:  %user   %nice %system %iowait  %steal   %idle
          23.28    0.00    5.64    8.09    0.00   62.99

Device:         rrqm/s   wrqm/s     r/s     w/s    rkB/s    wkB/s avgrq-sz avgqu-sz   await r_await w_await  svctm  %util
sda              92.00     0.00  606.00    0.00 83008.00     0.00   273.95     0.32    0.54    0.54    0.00   0.42  25.50
sdb              90.00     0.00  583.00    0.00 82548.00     0.00   283.18     0.36    0.62    0.62    0.00   0.48  27.80
sdc              91.00     0.00  604.00    0.00 86004.00     0.00   284.78     0.53    0.88    0.88    0.00   0.67  40.70
sdd              94.00     0.00  585.00    0.00 83240.00     0.00   284.58     0.54    0.92    0.92    0.00   0.68  39.60
sde              96.00     0.00  630.00    0.00 89856.00     0.00   285.26     0.61    0.96    0.96    0.00   0.72  45.30
sdf              87.00     0.00  604.00    0.00 85944.00     0.00   284.58     0.56    0.92    0.92    0.00   0.69  41.70
sdg               0.00    19.00   12.00   75.00   192.00  1296.00    34.21     0.18    2.09    0.17    2.40   0.10   0.90
sdh               0.00     0.00    0.00    0.00     0.00     0.00     0.00     0.00    0.00    0.00    0.00   0.00   0.00
md0               0.00     0.00 4164.00    0.00 691300.00     0.00   332.04     0.00    0.00    0.00    0.00   0.00   0.00

avg-cpu:  %user   %nice %system %iowait  %steal   %idle
          23.08    0.00    5.71    8.19    0.00   63.03

Device:         rrqm/s   wrqm/s     r/s     w/s    rkB/s    wkB/s avgrq-sz avgqu-sz   await r_await w_await  svctm  %util
sda              96.00     0.00  555.00    0.00 88924.00     0.00   320.45     0.39    0.70    0.70    0.00   0.51  28.40
sdb             103.00     0.00  567.00    0.00 90672.00     0.00   319.83     0.39    0.68    0.68    0.00   0.53  29.90
sdc              96.00     0.00  589.00    0.00 87576.00     0.00   297.37     0.60    1.01    1.01    0.00   0.72  42.40
sdd             100.00     0.00  605.00    0.00 89216.00     0.00   294.93     0.60    0.98    0.98    0.00   0.72  43.70
sde             104.00     0.00  568.00    0.00 87496.00     0.00   308.08     0.60    1.05    1.05    0.00   0.79  45.10
sdf              96.00     0.00  593.00    0.00 88524.00     0.00   298.56     0.58    0.97    0.97    0.00   0.70  41.80
sdg               0.00     0.00   18.00    0.00   120.00     0.00    13.33     0.00    0.11    0.11    0.00   0.11   0.20
sdh               0.00     0.00    0.00    0.00     0.00     0.00     0.00     0.00    0.00    0.00    0.00   0.00   0.00
md0               0.00     0.00 4073.00    0.00 725928.00     0.00   356.46     0.00    0.00    0.00    0.00   0.00   0.00

avg-cpu:  %user   %nice %system %iowait  %steal   %idle
          23.41    0.00    5.85    8.05    0.00   62.68

Device:         rrqm/s   wrqm/s     r/s     w/s    rkB/s    wkB/s avgrq-sz avgqu-sz   await r_await w_await  svctm  %util
sda              84.00     0.00  604.00    0.00 81572.00     0.00   270.11     0.32    0.53    0.53    0.00   0.45  27.10
sdb              94.00     0.00  607.00    0.00 85212.00     0.00   280.76     0.32    0.52    0.52    0.00   0.45  27.20
sdc              92.00     0.00  563.00    0.00 84220.00     0.00   299.18     0.48    0.85    0.85    0.00   0.71  39.90
sdd              83.00     0.00  628.00    0.00 84244.00     0.00   268.29     0.50    0.80    0.80    0.00   0.64  40.50
sde              92.00     0.00  538.00    0.00 82676.00     0.00   307.35     0.52    0.97    0.97    0.00   0.80  42.80
sdf              93.00     0.00  563.00    0.00 81980.00     0.00   291.23     0.47    0.85    0.85    0.00   0.72  40.40
sdg               0.00     0.00    1.00    8.00    16.00   168.00    40.89     0.01    0.78    0.00    0.88   0.11   0.10
sdh               0.00     0.00    0.00    0.00     0.00     0.00     0.00     0.00    0.00    0.00    0.00   0.00   0.00
md0               0.00     0.00 4038.00    0.00 691708.00     0.00   342.60     0.00    0.00    0.00    0.00   0.00   0.00

