Linux 4.17.2 (bench) 	08/03/2018 	_x86_64_	(4 CPU)

avg-cpu:  %user   %nice %system %iowait  %steal   %idle
          10.27    0.02    4.12    2.64    0.00   82.96

Device:         rrqm/s   wrqm/s     r/s     w/s    rkB/s    wkB/s avgrq-sz avgqu-sz   await r_await w_await  svctm  %util
sda              49.26     4.22 1687.50  101.89 21141.38  3117.79    27.11     1.04    0.58    0.26    5.92   0.06  10.87
sdb              49.10     4.18 1687.47  102.03 21130.86  3114.47    27.10     1.04    0.58    0.26    5.85   0.06  10.75
sdc              86.98     4.24 1647.49  101.58 21122.98  3116.92    27.72     1.46    0.83    0.45    7.12   0.08  14.23
sdd              80.45     4.21 1653.19  101.65 21107.90  3113.14    27.60     1.47    0.84    0.44    7.33   0.08  14.32
sde              82.47     4.25 1658.28  101.75 21167.51  3117.36    27.60     1.49    0.85    0.44    7.44   0.08  14.34
sdf              79.60     4.22 1660.40  101.70 21148.85  3114.25    27.54     1.53    0.87    0.44    7.90   0.08  14.37
sdg               0.00     3.17   26.53   73.30   324.88   392.06    14.36     0.44    4.41    0.20    5.93   0.08   0.78
sdh               0.00     0.13    0.02    0.23     2.20     5.03    56.82     0.00    1.15    0.65    1.19   0.21   0.01
md0               0.00     0.00 10429.30  477.41 144865.77 21340.87    30.48     0.00    0.00    0.00    0.00   0.00   0.00

avg-cpu:  %user   %nice %system %iowait  %steal   %idle
          24.48    0.01    3.68   10.22    0.00   61.60

Device:         rrqm/s   wrqm/s     r/s     w/s    rkB/s    wkB/s avgrq-sz avgqu-sz   await r_await w_await  svctm  %util
sda               0.00     0.00 1513.25    0.00  6053.00     0.00     8.00     0.15    0.10    0.10    0.00   0.10  14.87
sdb               0.00     0.00 1518.75    0.00  6075.00     0.00     8.00     0.15    0.10    0.10    0.00   0.10  14.71
sdc               0.00     0.00 1534.05    0.00  6136.20     0.00     8.00     0.16    0.10    0.10    0.00   0.10  15.81
sdd               0.00     0.00 1527.25    0.00  6109.00     0.00     8.00     0.16    0.11    0.11    0.00   0.11  16.12
sde               0.00     0.00 1540.65    0.00  6162.60     0.00     8.00     0.16    0.10    0.10    0.00   0.10  15.99
sdf               0.00     0.00 1518.25    0.00  6073.00     0.00     8.00     0.16    0.10    0.10    0.00   0.10  15.85
sdg               0.00     4.50    2.00   76.65    14.00   437.80    11.49     0.44    5.67    0.40    5.81   0.05   0.40
sdh               0.00     0.00    0.00    0.00     0.00     0.00     0.00     0.00    0.00    0.00    0.00   0.00   0.00
md0               0.00     0.00 9152.30    0.00 36609.20     0.00     8.00     0.00    0.00    0.00    0.00   0.00   0.00

