Linux 4.17.2 (bench) 	08/03/2018 	_x86_64_	(4 CPU)

avg-cpu:  %user   %nice %system %iowait  %steal   %idle
          10.27    0.02    4.09    2.60    0.00   83.02

Device:         rrqm/s   wrqm/s     r/s     w/s    rkB/s    wkB/s avgrq-sz avgqu-sz   await r_await w_await  svctm  %util
sda              47.07     4.23 1667.60  102.24 21005.74  3128.37    27.27     1.04    0.59    0.26    5.92   0.06  10.79
sdb              46.93     4.19 1667.56  102.38 20995.21  3125.05    27.26     1.03    0.58    0.26    5.85   0.06  10.67
sdc              84.81     4.25 1627.57  101.93 20987.31  3127.50    27.89     1.45    0.84    0.45    7.12   0.08  14.13
sdd              78.26     4.22 1633.30  102.00 20972.26  3123.71    27.77     1.46    0.84    0.44    7.33   0.08  14.22
sde              80.28     4.26 1638.37  102.10 21031.93  3127.94    27.76     1.48    0.85    0.44    7.44   0.08  14.25
sdf              77.40     4.24 1640.52  102.04 21013.21  3124.82    27.70     1.53    0.88    0.44    7.90   0.08  14.28
sdg               0.00     3.17   26.38   73.30   324.26   392.01    14.37     0.44    4.41    0.20    5.93   0.08   0.78
sdh               0.00     0.13    0.02    0.23     2.20     5.05    56.82     0.00    1.15    0.65    1.19   0.21   0.01
md0               0.00     0.00 10296.50  479.03 143885.50 21413.31    30.68     0.00    0.00    0.00    0.00   0.00   0.00

avg-cpu:  %user   %nice %system %iowait  %steal   %idle
          16.64    0.01   20.92    6.13    0.00   56.30

Device:         rrqm/s   wrqm/s     r/s     w/s    rkB/s    wkB/s avgrq-sz avgqu-sz   await r_await w_await  svctm  %util
sda             278.30     0.00  327.25    0.00 147777.00     0.00   903.14     0.76    2.33    2.33    0.00   1.26  41.14
sdb             276.05     0.00  331.60    0.00 147772.60     0.00   891.27     0.79    2.38    2.38    0.00   1.27  42.27
sdc             277.30     0.00  332.85    0.00 147782.00     0.00   887.98     1.52    4.57    4.57    0.00   2.10  69.88
sdd             276.80     0.00  331.90    0.00 147765.80     0.00   890.42     1.52    4.57    4.57    0.00   2.11  69.87
sde             276.55     0.00  336.80    0.00 147678.40     0.00   876.95     1.52    4.51    4.51    0.00   2.07  69.76
sdf             277.15     0.00  332.70    0.00 147747.80     0.00   888.17     1.53    4.60    4.60    0.00   2.11  70.33
sdg               0.00     4.80  159.75  198.40   645.60  1008.80     9.24     1.23    3.44    0.12    6.11   0.08   2.82
sdh               0.00     0.00    0.00    0.00     0.00     0.00     0.00     0.00    0.00    0.00    0.00   0.00   0.00
md0               0.00     0.00 3655.35    0.00 1336307.80     0.00   731.15     0.00    0.00    0.00    0.00   0.00   0.00

