Linux 4.17.2 (bench) 	08/03/2018 	_x86_64_	(4 CPU)

avg-cpu:  %user   %nice %system %iowait  %steal   %idle
          10.26    0.02    4.15    2.69    0.00   82.89

Device:         rrqm/s   wrqm/s     r/s     w/s    rkB/s    wkB/s avgrq-sz avgqu-sz   await r_await w_await  svctm  %util
sda              50.92     4.20 1709.99  101.48 21270.02  3105.08    26.91     1.04    0.58    0.26    5.92   0.06  10.97
sdb              50.74     4.16 1709.96  101.62 21259.52  3101.78    26.90     1.04    0.58    0.26    5.85   0.06  10.84
sdc              88.54     4.22 1670.08  101.17 21251.74  3104.22    27.50     1.46    0.83    0.45    7.12   0.08  14.33
sdd              82.04     4.19 1675.76  101.24 21236.77  3100.45    27.39     1.47    0.83    0.44    7.33   0.08  14.43
sde              84.05     4.23 1680.84  101.34 21296.22  3104.66    27.38     1.49    0.84    0.44    7.44   0.08  14.45
sdf              81.19     4.20 1682.95  101.28 21277.55  3101.55    27.33     1.54    0.86    0.44    7.90   0.08  14.48
sdg               0.00     3.17   26.69   73.28   325.51   392.04    14.36     0.44    4.40    0.20    5.93   0.08   0.78
sdh               0.00     0.13    0.02    0.23     2.19     5.01    56.82     0.00    1.15    0.65    1.19   0.21   0.01
md0               0.00     0.00 10574.32  475.46 145784.31 21253.87    30.23     0.00    0.00    0.00    0.00   0.00   0.00

avg-cpu:  %user   %nice %system %iowait  %steal   %idle
          22.22    0.00    6.06    1.26    0.00   70.45

Device:         rrqm/s   wrqm/s     r/s     w/s    rkB/s    wkB/s avgrq-sz avgqu-sz   await r_await w_await  svctm  %util
sda              35.00     0.00  653.00    0.00 69348.00     0.00   212.40     0.34    0.53    0.53    0.00   0.36  23.50
sdb              51.00     0.00  662.00    0.00 73768.00     0.00   222.86     0.38    0.57    0.57    0.00   0.37  24.70
sdc              44.00     0.00  666.00    0.00 65316.00     0.00   196.14     0.48    0.71    0.71    0.00   0.49  32.80
sdd              44.00     0.00  665.00    0.00 66144.00     0.00   198.93     0.48    0.72    0.72    0.00   0.50  33.30
sde              42.00     0.00  688.00    0.00 68432.00     0.00   198.93     0.49    0.70    0.70    0.00   0.48  33.30
sdf              36.00     0.00  664.00    0.00 63312.00     0.00   190.70     0.46    0.68    0.68    0.00   0.47  31.30
sdg               0.00     0.00    3.00    0.00    88.00     0.00    58.67     0.00    0.33    0.33    0.00   0.33   0.10
sdh               0.00     0.00    0.00    0.00     0.00     0.00     0.00     0.00    0.00    0.00    0.00   0.00   0.00
md0               0.00     0.00 4256.00    0.00 546940.00     0.00   257.02     0.00    0.00    0.00    0.00   0.00   0.00

avg-cpu:  %user   %nice %system %iowait  %steal   %idle
          24.24    0.00    2.78   20.20    0.00   52.78

Device:         rrqm/s   wrqm/s     r/s     w/s    rkB/s    wkB/s avgrq-sz avgqu-sz   await r_await w_await  svctm  %util
sda              93.00     0.00  568.00    0.00 81876.00     0.00   288.30     0.36    0.63    0.63    0.00   0.46  26.30
sdb              92.00     0.00  617.00    0.00 84936.00     0.00   275.32     0.37    0.59    0.59    0.00   0.44  27.40
sdc              96.00     0.00  587.00    0.00 85596.00     0.00   291.64     0.57    0.98    0.98    0.00   0.70  41.10
sdd              89.00     0.00  620.00    0.00 86264.00     0.00   278.27     0.57    0.94    0.94    0.00   0.66  41.00
sde             102.00     0.00  579.00    0.00 83876.00     0.00   289.73     0.59    1.04    1.04    0.00   0.73  42.30
sdf              87.00     0.00  609.00    0.00 85040.00     0.00   279.28     0.58    0.98    0.98    0.00   0.68  41.60
sdg               0.00     0.00    0.00    0.00     0.00     0.00     0.00     0.00    0.00    0.00    0.00   0.00   0.00
sdh               0.00     0.00    0.00    0.00     0.00     0.00     0.00     0.00    0.00    0.00    0.00   0.00   0.00
md0               0.00     0.00 4136.00    0.00 712048.00     0.00   344.32     0.00    0.00    0.00    0.00   0.00   0.00

avg-cpu:  %user   %nice %system %iowait  %steal   %idle
          24.18    0.00    3.02    0.76    0.00   72.04

Device:         rrqm/s   wrqm/s     r/s     w/s    rkB/s    wkB/s avgrq-sz avgqu-sz   await r_await w_await  svctm  %util
sda              90.00     0.00  565.00    0.00 80776.00     0.00   285.93     0.34    0.61    0.61    0.00   0.46  26.20
sdb              88.00     0.00  575.00    0.00 78444.00     0.00   272.85     0.36    0.62    0.62    0.00   0.47  26.80
sdc              87.00     0.00  576.00    0.00 79208.00     0.00   275.03     0.54    0.94    0.94    0.00   0.70  40.50
sdd              93.00     0.00  584.00    0.00 80708.00     0.00   276.40     0.54    0.92    0.92    0.00   0.68  39.90
sde              88.00     0.00  602.00    0.00 83064.00     0.00   275.96     0.55    0.91    0.91    0.00   0.68  41.10
sdf              90.00     0.00  558.00    0.00 80256.00     0.00   287.66     0.54    0.97    0.97    0.00   0.72  40.20
sdg               0.00     0.00    0.00    0.00     0.00     0.00     0.00     0.00    0.00    0.00    0.00   0.00   0.00
sdh               0.00     0.00    0.00    0.00     0.00     0.00     0.00     0.00    0.00    0.00    0.00   0.00   0.00
md0               0.00     0.00 3997.00    0.00 679872.00     0.00   340.19     0.00    0.00    0.00    0.00   0.00   0.00

avg-cpu:  %user   %nice %system %iowait  %steal   %idle
          23.99    0.00    3.28    0.51    0.00   72.22

Device:         rrqm/s   wrqm/s     r/s     w/s    rkB/s    wkB/s avgrq-sz avgqu-sz   await r_await w_await  svctm  %util
sda              95.00     0.00  550.00    0.00 80976.00     0.00   294.46     0.35    0.64    0.64    0.00   0.48  26.20
sdb              88.00     0.00  573.00    0.00 80068.00     0.00   279.47     0.36    0.62    0.62    0.00   0.47  26.80
sdc              90.00     0.00  572.00    0.00 78868.00     0.00   275.76     0.54    0.94    0.94    0.00   0.68  38.90
sdd              91.00     0.00  569.00    0.00 80100.00     0.00   281.55     0.54    0.95    0.95    0.00   0.68  38.60
sde              89.00     0.00  606.00    0.00 85164.00     0.00   281.07     0.56    0.92    0.92    0.00   0.67  40.80
sdf              94.00     0.00  559.00    0.00 83868.00     0.00   300.06     0.58    1.03    1.03    0.00   0.75  41.70
sdg               0.00     0.00    0.00    0.00     0.00     0.00     0.00     0.00    0.00    0.00    0.00   0.00   0.00
sdh               0.00     0.00    0.00    0.00     0.00     0.00     0.00     0.00    0.00    0.00    0.00   0.00   0.00
md0               0.00     0.00 3974.00    0.00 688944.00     0.00   346.73     0.00    0.00    0.00    0.00   0.00   0.00

avg-cpu:  %user   %nice %system %iowait  %steal   %idle
          23.87    0.00    3.77    0.75    0.00   71.61

Device:         rrqm/s   wrqm/s     r/s     w/s    rkB/s    wkB/s avgrq-sz avgqu-sz   await r_await w_await  svctm  %util
sda             103.00     0.00  635.00    0.00 89772.00     0.00   282.75     0.43    0.68    0.68    0.00   0.47  29.70
sdb             104.00     0.00  596.00    0.00 87188.00     0.00   292.58     0.41    0.68    0.68    0.00   0.47  28.00
sdc             105.00     0.00  599.00    0.00 90320.00     0.00   301.57     0.66    1.09    1.09    0.00   0.74  44.30
sdd             109.00     0.00  550.00    0.00 89784.00     0.00   326.49     0.68    1.24    1.24    0.00   0.83  45.70
sde             114.00     0.00  568.00    0.00 90512.00     0.00   318.70     0.65    1.14    1.14    0.00   0.77  44.00
sdf             107.00     0.00  541.00    0.00 88304.00     0.00   326.45     0.66    1.22    1.22    0.00   0.80  43.50
sdg               0.00     0.00    0.00    0.00     0.00     0.00     0.00     0.00    0.00    0.00    0.00   0.00   0.00
sdh               0.00     0.00    0.00    0.00     0.00     0.00     0.00     0.00    0.00    0.00    0.00   0.00   0.00
md0               0.00     0.00 4130.00    0.00 771184.00     0.00   373.45     0.00    0.00    0.00    0.00   0.00   0.00

avg-cpu:  %user   %nice %system %iowait  %steal   %idle
          24.43    0.00    2.77    0.50    0.00   72.29

Device:         rrqm/s   wrqm/s     r/s     w/s    rkB/s    wkB/s avgrq-sz avgqu-sz   await r_await w_await  svctm  %util
sda              95.00     0.00  583.00    0.00 84984.00     0.00   291.54     0.37    0.63    0.63    0.00   0.49  28.80
sdb             100.00     0.00  585.00    0.00 84564.00     0.00   289.11     0.36    0.62    0.62    0.00   0.48  28.00
sdc             101.00     0.00  543.00    0.00 88584.00     0.00   326.28     0.57    1.05    1.05    0.00   0.78  42.20
sdd             102.00     0.00  574.00    0.00 87316.00     0.00   304.24     0.58    1.01    1.01    0.00   0.75  43.10
sde             102.00     0.00  537.00    0.00 86108.00     0.00   320.70     0.57    1.06    1.06    0.00   0.79  42.50
sdf             101.00     0.00  562.00    0.00 84656.00     0.00   301.27     0.56    0.99    0.99    0.00   0.75  41.90
sdg               0.00     0.00    0.00    0.00     0.00     0.00     0.00     0.00    0.00    0.00    0.00   0.00   0.00
sdh               0.00     0.00    0.00    0.00     0.00     0.00     0.00     0.00    0.00    0.00    0.00   0.00   0.00
md0               0.00     0.00 3985.00    0.00 723072.00     0.00   362.90     0.00    0.00    0.00    0.00   0.00   0.00

avg-cpu:  %user   %nice %system %iowait  %steal   %idle
          24.06    0.00    3.76    1.00    0.00   71.18

Device:         rrqm/s   wrqm/s     r/s     w/s    rkB/s    wkB/s avgrq-sz avgqu-sz   await r_await w_await  svctm  %util
sda             102.00     0.00  610.00    0.00 88320.00     0.00   289.57     0.39    0.64    0.64    0.00   0.47  28.40
sdb              99.00     0.00  605.00    0.00 89744.00     0.00   296.67     0.41    0.67    0.67    0.00   0.49  29.60
sdc             102.00     0.00  552.00    0.00 85692.00     0.00   310.48     0.60    1.09    1.09    0.00   0.78  42.80
sdd             104.00     0.00  546.00    0.00 84844.00     0.00   310.78     0.58    1.07    1.07    0.00   0.75  41.10
sde              97.00     0.00  534.00    0.00 82904.00     0.00   310.50     0.59    1.11    1.11    0.00   0.75  40.10
sdf             100.00     0.00  574.00    0.00 85496.00     0.00   297.90     0.59    1.03    1.03    0.00   0.72  41.50
sdg               0.00     0.00    0.00    0.00     0.00     0.00     0.00     0.00    0.00    0.00    0.00   0.00   0.00
sdh               0.00     0.00    0.00    0.00     0.00     0.00     0.00     0.00    0.00    0.00    0.00   0.00   0.00
md0               0.00     0.00 4028.00    0.00 728676.00     0.00   361.81     0.00    0.00    0.00    0.00   0.00   0.00

avg-cpu:  %user   %nice %system %iowait  %steal   %idle
          24.43    0.00    2.77    1.01    0.00   71.79

Device:         rrqm/s   wrqm/s     r/s     w/s    rkB/s    wkB/s avgrq-sz avgqu-sz   await r_await w_await  svctm  %util
sda              83.00     0.00  575.00    0.00 77992.00     0.00   271.28     0.33    0.57    0.57    0.00   0.46  26.50
sdb              84.00     0.00  630.00    0.00 78192.00     0.00   248.23     0.34    0.53    0.53    0.00   0.41  25.70
sdc              84.00     0.00  612.00    0.00 79628.00     0.00   260.22     0.54    0.87    0.87    0.00   0.64  39.10
sdd              85.00     0.00  588.00    0.00 80960.00     0.00   275.37     0.56    0.94    0.94    0.00   0.70  40.90
sde              82.00     0.00  595.00    0.00 77688.00     0.00   261.14     0.52    0.87    0.87    0.00   0.66  39.10
sdf              84.00     0.00  577.00    0.00 78608.00     0.00   272.47     0.51    0.87    0.87    0.00   0.66  37.80
sdg               0.00     0.00    0.00    0.00     0.00     0.00     0.00     0.00    0.00    0.00    0.00   0.00   0.00
sdh               0.00     0.00    0.00    0.00     0.00     0.00     0.00     0.00    0.00    0.00    0.00   0.00   0.00
md0               0.00     0.00 4086.00    0.00 679064.00     0.00   332.39     0.00    0.00    0.00    0.00   0.00   0.00

avg-cpu:  %user   %nice %system %iowait  %steal   %idle
          24.30    0.00    2.78    1.01    0.00   71.90

Device:         rrqm/s   wrqm/s     r/s     w/s    rkB/s    wkB/s avgrq-sz avgqu-sz   await r_await w_await  svctm  %util
sda             102.00     0.00  545.00    0.00 87068.00     0.00   319.52     0.37    0.68    0.68    0.00   0.52  28.30
sdb              95.00     0.00  550.00    0.00 83416.00     0.00   303.33     0.38    0.69    0.69    0.00   0.52  28.40
sdc              91.00     0.00  530.00    0.00 77940.00     0.00   294.11     0.54    1.02    1.02    0.00   0.74  39.20
sdd              90.00     0.00  610.00    0.00 83004.00     0.00   272.14     0.58    0.95    0.95    0.00   0.67  41.10
sde              94.00     0.00  601.00    0.00 86640.00     0.00   288.32     0.58    0.97    0.97    0.00   0.70  41.80
sdf              99.00     0.00  579.00    0.00 88252.00     0.00   304.84     0.60    1.04    1.04    0.00   0.74  43.00
sdg               0.00     0.00    0.00    0.00     0.00     0.00     0.00     0.00    0.00    0.00    0.00   0.00   0.00
sdh               0.00     0.00    0.00    0.00     0.00     0.00     0.00     0.00    0.00    0.00    0.00   0.00   0.00
md0               0.00     0.00 3977.00    0.00 697320.00     0.00   350.68     0.00    0.00    0.00    0.00   0.00   0.00

avg-cpu:  %user   %nice %system %iowait  %steal   %idle
          23.87    0.25    4.27    4.77    0.00   66.83

Device:         rrqm/s   wrqm/s     r/s     w/s    rkB/s    wkB/s avgrq-sz avgqu-sz   await r_await w_await  svctm  %util
sda              68.00     0.00  582.00    0.00 75864.00     0.00   260.70     0.33    0.56    0.56    0.00   0.43  25.30
sdb              74.00     0.00  573.00    0.00 76492.00     0.00   266.99     0.32    0.55    0.55    0.00   0.43  24.40
sdc              76.00     0.00  569.00    0.00 75144.00     0.00   264.13     0.47    0.82    0.82    0.00   0.64  36.60
sdd              76.00     0.00  562.00    0.00 75040.00     0.00   267.05     0.48    0.86    0.86    0.00   0.66  37.10
sde              80.00     0.00  590.00    0.00 75504.00     0.00   255.95     0.48    0.82    0.82    0.00   0.64  37.50
sdf              73.00     0.00  604.00    0.00 74680.00     0.00   247.28     0.48    0.79    0.79    0.00   0.60  36.30
sdg               0.00     0.00 1323.00    0.00  5292.00     0.00     8.00     0.15    0.11    0.11    0.00   0.11  14.90
sdh               0.00     0.00    0.00    0.00     0.00     0.00     0.00     0.00    0.00    0.00    0.00   0.00   0.00
md0               0.00     0.00 3926.00    0.00 621852.00     0.00   316.79     0.00    0.00    0.00    0.00   0.00   0.00

avg-cpu:  %user   %nice %system %iowait  %steal   %idle
          24.12    0.00    3.27    1.26    0.00   71.36

Device:         rrqm/s   wrqm/s     r/s     w/s    rkB/s    wkB/s avgrq-sz avgqu-sz   await r_await w_await  svctm  %util
sda              89.00     0.00  565.00    0.00 80388.00     0.00   284.56     0.34    0.61    0.61    0.00   0.46  26.20
sdb              87.00     0.00  572.00    0.00 82004.00     0.00   286.73     0.34    0.59    0.59    0.00   0.45  26.00
sdc              86.00     0.00  593.00    0.00 78352.00     0.00   264.26     0.51    0.87    0.87    0.00   0.65  38.40
sdd              82.00     0.00  629.00    0.00 81852.00     0.00   260.26     0.54    0.85    0.85    0.00   0.65  40.80
sde              93.00     0.00  559.00    0.00 81084.00     0.00   290.10     0.52    0.93    0.93    0.00   0.70  39.30
sdf              83.00     0.00  595.00    0.00 82476.00     0.00   277.23     0.54    0.91    0.91    0.00   0.67  39.60
sdg               0.00     0.00    0.00    0.00     0.00     0.00     0.00     0.00    0.00    0.00    0.00   0.00   0.00
sdh               0.00     0.00    0.00    0.00     0.00     0.00     0.00     0.00    0.00    0.00    0.00   0.00   0.00
md0               0.00     0.00 4032.00    0.00 691972.00     0.00   343.24     0.00    0.00    0.00    0.00   0.00   0.00

avg-cpu:  %user   %nice %system %iowait  %steal   %idle
          24.18    0.00    3.53    0.76    0.00   71.54

Device:         rrqm/s   wrqm/s     r/s     w/s    rkB/s    wkB/s avgrq-sz avgqu-sz   await r_await w_await  svctm  %util
sda              90.00     0.00  596.00    0.00 82992.00     0.00   278.50     0.37    0.63    0.63    0.00   0.46  27.50
sdb              94.00     0.00  525.00    0.00 82952.00     0.00   316.01     0.35    0.67    0.67    0.00   0.50  26.10
sdc              91.00     0.00  613.00    0.00 83664.00     0.00   272.97     0.58    0.95    0.95    0.00   0.67  40.90
sdd              89.00     0.00  559.00    0.00 82472.00     0.00   295.07     0.56    1.01    1.01    0.00   0.72  40.40
sde              96.00     0.00  567.00    0.00 83016.00     0.00   292.83     0.58    1.02    1.02    0.00   0.73  41.40
sdf              87.00     0.00  603.00    0.00 79624.00     0.00   264.09     0.56    0.92    0.92    0.00   0.66  40.00
sdg               0.00     0.00    0.00    0.00     0.00     0.00     0.00     0.00    0.00    0.00    0.00   0.00   0.00
sdh               0.00     0.00    0.00    0.00     0.00     0.00     0.00     0.00    0.00    0.00    0.00   0.00   0.00
md0               0.00     0.00 4013.00    0.00 684220.00     0.00   341.00     0.00    0.00    0.00    0.00   0.00   0.00

avg-cpu:  %user   %nice %system %iowait  %steal   %idle
          24.05    0.00    3.04    1.01    0.00   71.90

Device:         rrqm/s   wrqm/s     r/s     w/s    rkB/s    wkB/s avgrq-sz avgqu-sz   await r_await w_await  svctm  %util
sda             103.00     0.00  541.00    0.00 85580.00     0.00   316.38     0.37    0.68    0.68    0.00   0.51  27.70
sdb             104.00     0.00  559.00    0.00 88300.00     0.00   315.92     0.38    0.68    0.68    0.00   0.50  28.20
sdc             107.00     0.00  558.00    0.00 86136.00     0.00   308.73     0.59    1.06    1.06    0.00   0.77  43.20
sdd              96.00     0.00  587.00    0.00 83068.00     0.00   283.03     0.58    0.99    0.99    0.00   0.72  42.20
sde             101.00     0.00  539.00    0.00 82248.00     0.00   305.19     0.56    1.04    1.04    0.00   0.76  40.90
sdf             100.00     0.00  569.00    0.00 84368.00     0.00   296.55     0.59    1.05    1.05    0.00   0.73  41.70
sdg               0.00     0.00    0.00    0.00     0.00     0.00     0.00     0.00    0.00    0.00    0.00   0.00   0.00
sdh               0.00     0.00    0.00    0.00     0.00     0.00     0.00     0.00    0.00    0.00    0.00   0.00   0.00
md0               0.00     0.00 3963.00    0.00 700556.00     0.00   353.55     0.00    0.00    0.00    0.00   0.00   0.00

avg-cpu:  %user   %nice %system %iowait  %steal   %idle
          24.24    0.00    3.28    0.76    0.00   71.72

Device:         rrqm/s   wrqm/s     r/s     w/s    rkB/s    wkB/s avgrq-sz avgqu-sz   await r_await w_await  svctm  %util
sda              96.00     0.00  576.00    0.00 82980.00     0.00   288.12     0.37    0.64    0.64    0.00   0.48  27.60
sdb              83.00     0.00  587.00    0.00 81688.00     0.00   278.32     0.37    0.63    0.63    0.00   0.47  27.50
sdc              89.00     0.00  601.00    0.00 79448.00     0.00   264.39     0.53    0.89    0.89    0.00   0.65  39.30
sdd              87.00     0.00  640.00    0.00 83132.00     0.00   259.79     0.56    0.87    0.87    0.00   0.64  41.20
sde              92.00     0.00  579.00    0.00 78636.00     0.00   271.63     0.53    0.91    0.91    0.00   0.68  39.30
sdf              90.00     0.00  600.00    0.00 84136.00     0.00   280.45     0.55    0.92    0.92    0.00   0.67  40.30
sdg               0.00     0.00    0.00    0.00     0.00     0.00     0.00     0.00    0.00    0.00    0.00   0.00   0.00
sdh               0.00     0.00    0.00    0.00     0.00     0.00     0.00     0.00    0.00    0.00    0.00   0.00   0.00
md0               0.00     0.00 4120.00    0.00 683572.00     0.00   331.83     0.00    0.00    0.00    0.00   0.00   0.00

avg-cpu:  %user   %nice %system %iowait  %steal   %idle
          24.24    0.00    3.54    1.01    0.00   71.21

Device:         rrqm/s   wrqm/s     r/s     w/s    rkB/s    wkB/s avgrq-sz avgqu-sz   await r_await w_await  svctm  %util
sda              94.00     0.00  570.00    0.00 84024.00     0.00   294.82     0.36    0.63    0.63    0.00   0.47  27.00
sdb              91.00     0.00  608.00    0.00 83916.00     0.00   276.04     0.38    0.63    0.63    0.00   0.47  28.50
sdc              90.00     0.00  534.00    0.00 80224.00     0.00   300.46     0.54    1.02    1.02    0.00   0.75  39.90
sdd              84.00     0.00  574.00    0.00 80888.00     0.00   281.84     0.56    0.97    0.97    0.00   0.70  40.20
sde              88.00     0.00  626.00    0.00 82912.00     0.00   264.89     0.56    0.90    0.90    0.00   0.67  41.70
sdf              91.00     0.00  551.00    0.00 81188.00     0.00   294.69     0.55    1.00    1.00    0.00   0.70  38.70
sdg               0.00     0.00    0.00    0.00     0.00     0.00     0.00     0.00    0.00    0.00    0.00   0.00   0.00
sdh               0.00     0.00    0.00    0.00     0.00     0.00     0.00     0.00    0.00    0.00    0.00   0.00   0.00
md0               0.00     0.00 4003.00    0.00 680076.00     0.00   339.78     0.00    0.00    0.00    0.00   0.00   0.00

avg-cpu:  %user   %nice %system %iowait  %steal   %idle
          24.12    0.00    4.02    1.01    0.00   70.85

Device:         rrqm/s   wrqm/s     r/s     w/s    rkB/s    wkB/s avgrq-sz avgqu-sz   await r_await w_await  svctm  %util
sda             101.00     0.00  538.00    0.00 83456.00     0.00   310.25     0.37    0.68    0.68    0.00   0.49  26.40
sdb              99.00     0.00  553.00    0.00 84784.00     0.00   306.63     0.39    0.70    0.70    0.00   0.50  27.50
sdc             106.00     0.00  567.00    0.00 89224.00     0.00   314.72     0.61    1.08    1.08    0.00   0.76  43.20
sdd             102.00     0.00  562.00    0.00 88864.00     0.00   316.24     0.62    1.11    1.11    0.00   0.80  44.90
sde             106.00     0.00  528.00    0.00 87076.00     0.00   329.83     0.59    1.13    1.13    0.00   0.79  41.80
sdf             108.00     0.00  534.00    0.00 87572.00     0.00   327.99     0.61    1.15    1.15    0.00   0.81  43.50
sdg               0.00     1.00    1.00    2.00     4.00    24.00    18.67     0.00    0.00    0.00    0.00   0.00   0.00
sdh               0.00     0.00    0.00    0.00     0.00     0.00     0.00     0.00    0.00    0.00    0.00   0.00   0.00
md0               0.00     0.00 3903.00    0.00 743748.00     0.00   381.12     0.00    0.00    0.00    0.00   0.00   0.00

avg-cpu:  %user   %nice %system %iowait  %steal   %idle
          24.12    0.00    4.02    0.75    0.00   71.11

Device:         rrqm/s   wrqm/s     r/s     w/s    rkB/s    wkB/s avgrq-sz avgqu-sz   await r_await w_await  svctm  %util
sda              75.00     0.00  580.00    0.00 72644.00     0.00   250.50     0.31    0.53    0.53    0.00   0.42  24.30
sdb              72.00     0.00  621.00    0.00 76596.00     0.00   246.69     0.33    0.54    0.54    0.00   0.43  26.50
sdc              84.00     0.00  616.00    0.00 76280.00     0.00   247.66     0.47    0.77    0.77    0.00   0.62  38.40
sdd              75.00     0.00  590.00    0.00 80368.00     0.00   272.43     0.48    0.82    0.82    0.00   0.65  38.50
sde              85.00     0.00  544.00    0.00 76640.00     0.00   281.76     0.46    0.85    0.85    0.00   0.70  38.10
sdf              73.00     0.00  593.00    0.00 77804.00     0.00   262.41     0.47    0.79    0.79    0.00   0.65  38.30
sdg               0.00     0.00    0.00    0.00     0.00     0.00     0.00     0.00    0.00    0.00    0.00   0.00   0.00
sdh               0.00     0.00    0.00    0.00     0.00     0.00     0.00     0.00    0.00    0.00    0.00   0.00   0.00
md0               0.00     0.00 4006.00    0.00 643868.00     0.00   321.45     0.00    0.00    0.00    0.00   0.00   0.00

avg-cpu:  %user   %nice %system %iowait  %steal   %idle
          24.43    0.00    4.03    1.01    0.00   70.53

Device:         rrqm/s   wrqm/s     r/s     w/s    rkB/s    wkB/s avgrq-sz avgqu-sz   await r_await w_await  svctm  %util
sda             100.00     0.00  573.00    0.00 84932.00     0.00   296.45     0.37    0.65    0.65    0.00   0.49  28.00
sdb             104.00     0.00  534.00    0.00 83944.00     0.00   314.40     0.35    0.66    0.66    0.00   0.49  26.40
sdc              98.00     0.00  576.00    0.00 84692.00     0.00   294.07     0.57    0.99    0.99    0.00   0.71  41.10
sdd             101.00     0.00  587.00    0.00 87640.00     0.00   298.60     0.58    0.98    0.98    0.00   0.72  42.00
sde             101.00     0.00  541.00    0.00 83584.00     0.00   309.00     0.56    1.04    1.04    0.00   0.76  41.00
sdf              99.00     0.00  578.00    0.00 86444.00     0.00   299.11     0.58    1.01    1.01    0.00   0.73  42.30
sdg               0.00     0.00    0.00    0.00     0.00     0.00     0.00     0.00    0.00    0.00    0.00   0.00   0.00
sdh               0.00     0.00    0.00    0.00     0.00     0.00     0.00     0.00    0.00    0.00    0.00   0.00   0.00
md0               0.00     0.00 3994.00    0.00 717756.00     0.00   359.42     0.00    0.00    0.00    0.00   0.00   0.00

avg-cpu:  %user   %nice %system %iowait  %steal   %idle
          23.87    0.00    4.27    1.26    0.00   70.60

Device:         rrqm/s   wrqm/s     r/s     w/s    rkB/s    wkB/s avgrq-sz avgqu-sz   await r_await w_await  svctm  %util
sda              91.00     0.00  580.00    0.00 82152.00     0.00   283.28     0.38    0.65    0.65    0.00   0.48  28.00
sdb              88.00     0.00  570.00    0.00 79968.00     0.00   280.59     0.36    0.63    0.63    0.00   0.47  26.60
sdc              94.00     0.00  630.00    0.00 87320.00     0.00   277.21     0.61    0.96    0.96    0.00   0.69  43.40
sdd              92.00     0.00  593.00    0.00 82436.00     0.00   278.03     0.57    0.96    0.96    0.00   0.69  41.00
sde              92.00     0.00  579.00    0.00 85416.00     0.00   295.05     0.56    0.98    0.98    0.00   0.70  40.80
sdf              93.00     0.00  553.00    0.00 83416.00     0.00   301.69     0.58    1.05    1.05    0.00   0.75  41.40
sdg               0.00     0.00    0.00    0.00     0.00     0.00     0.00     0.00    0.00    0.00    0.00   0.00   0.00
sdh               0.00     0.00    0.00    0.00     0.00     0.00     0.00     0.00    0.00    0.00    0.00   0.00   0.00
md0               0.00     0.00 4056.00    0.00 690532.00     0.00   340.50     0.00    0.00    0.00    0.00   0.00   0.00

avg-cpu:  %user   %nice %system %iowait  %steal   %idle
          24.18    0.25    4.03    1.26    0.00   70.28

Device:         rrqm/s   wrqm/s     r/s     w/s    rkB/s    wkB/s avgrq-sz avgqu-sz   await r_await w_await  svctm  %util
sda              91.00     0.00  604.00    0.00 87072.00     0.00   288.32     0.37    0.61    0.61    0.00   0.47  28.20
sdb              96.00     0.00  537.00    0.00 80080.00     0.00   298.25     0.33    0.62    0.62    0.00   0.48  26.00
sdc              88.00     0.00  579.00    0.00 79668.00     0.00   275.19     0.54    0.93    0.93    0.00   0.69  39.70
sdd              92.00     0.00  583.00    0.00 81444.00     0.00   279.40     0.54    0.92    0.92    0.00   0.69  40.50
sde              89.00     0.00  550.00    0.00 81232.00     0.00   295.39     0.55    0.99    0.99    0.00   0.74  40.90
sdf              93.00     0.00  579.00    0.00 83724.00     0.00   289.20     0.55    0.96    0.96    0.00   0.72  41.80
sdg               0.00     0.00    2.00    0.00     8.00     0.00     8.00     0.00    0.00    0.00    0.00   0.00   0.00
sdh               0.00     0.00    0.00    0.00     0.00     0.00     0.00     0.00    0.00    0.00    0.00   0.00   0.00
md0               0.00     0.00 3979.00    0.00 707240.00     0.00   355.49     0.00    0.00    0.00    0.00   0.00   0.00

