Linux 4.17.2 (bench) 	08/03/2018 	_x86_64_	(4 CPU)

avg-cpu:  %user   %nice %system %iowait  %steal   %idle
          10.25    0.02    4.18    2.74    0.00   82.81

Device:         rrqm/s   wrqm/s     r/s     w/s    rkB/s    wkB/s avgrq-sz avgqu-sz   await r_await w_await  svctm  %util
sda              53.46     4.18 1730.37  101.04 21379.64  3091.54    26.72     1.05    0.57    0.26    5.92   0.06  11.06
sdb              53.26     4.14 1730.38  101.17 21369.17  3088.25    26.71     1.05    0.57    0.26    5.85   0.06  10.94
sdc              90.97     4.20 1690.57  100.73 21361.41  3090.67    27.30     1.47    0.82    0.44    7.12   0.08  14.44
sdd              84.51     4.17 1696.22  100.80 21346.47  3086.92    27.19     1.47    0.82    0.43    7.33   0.08  14.53
sde              86.50     4.21 1701.29  100.89 21405.78  3091.11    27.19     1.49    0.83    0.44    7.44   0.08  14.55
sdf              83.66     4.19 1703.40  100.84 21387.28  3088.02    27.13     1.54    0.85    0.44    7.90   0.08  14.58
sdg               0.00     3.17   26.85   73.25   326.14   391.99    14.35     0.44    4.39    0.20    5.93   0.08   0.79
sdh               0.00     0.13    0.02    0.23     2.18     4.99    56.82     0.00    1.15    0.65    1.19   0.21   0.01
md0               0.00     0.00 10712.00  473.39 146558.40 21161.15    29.99     0.00    0.00    0.00    0.00   0.00   0.00

avg-cpu:  %user   %nice %system %iowait  %steal   %idle
          24.22    0.03    3.30    2.15    0.00   70.30

Device:         rrqm/s   wrqm/s     r/s     w/s    rkB/s    wkB/s avgrq-sz avgqu-sz   await r_await w_await  svctm  %util
sda              94.60     0.00  582.30    0.00 84665.80     0.00   290.80     0.37    0.64    0.64    0.00   0.49  28.34
sdb              95.00     0.00  585.15    0.00 85023.40     0.00   290.60     0.37    0.64    0.64    0.00   0.48  28.13
sdc              93.00     0.00  584.40    0.00 84361.40     0.00   288.71     0.57    0.97    0.97    0.00   0.72  41.82
sdd              95.75     0.00  586.50    0.00 84469.60     0.00   288.05     0.57    0.97    0.97    0.00   0.71  41.89
sde              95.55     0.00  594.10    0.00 85728.80     0.00   288.60     0.58    0.97    0.97    0.00   0.71  42.34
sdf              94.75     0.00  583.80    0.00 85026.20     0.00   291.29     0.58    0.99    0.99    0.00   0.72  42.18
sdg               0.00     4.15   93.10   71.95   379.80   378.80     9.19     0.47    2.82    0.12    6.31   0.09   1.43
sdh               0.00     0.00    0.00    0.00     0.00     0.00     0.00     0.00    0.00    0.00    0.00   0.00   0.00
md0               0.00     0.00 4084.95    0.00 714917.80     0.00   350.03     0.00    0.00    0.00    0.00   0.00   0.00

