Linux 4.17.2 (bench) 	08/03/2018 	_x86_64_	(4 CPU)

avg-cpu:  %user   %nice %system %iowait  %steal   %idle
          10.27    0.02    4.12    2.64    0.00   82.96

Device:         rrqm/s   wrqm/s     r/s     w/s    rkB/s    wkB/s avgrq-sz avgqu-sz   await r_await w_await  svctm  %util
sda              49.29     4.22 1687.63  101.89 21141.63  3117.72    27.11     1.04    0.58    0.26    5.92   0.06  10.87
sdb              49.12     4.18 1687.59  102.03 21131.11  3114.40    27.10     1.04    0.58    0.26    5.85   0.06  10.75
sdc              87.00     4.24 1647.61  101.58 21123.23  3116.85    27.72     1.46    0.83    0.45    7.12   0.08  14.23
sdd              80.48     4.21 1653.31  101.65 21108.15  3113.07    27.60     1.47    0.84    0.44    7.33   0.08  14.32
sde              82.49     4.25 1658.40  101.75 21167.76  3117.29    27.59     1.49    0.85    0.44    7.44   0.08  14.34
sdf              79.62     4.22 1660.52  101.69 21149.10  3114.17    27.54     1.53    0.87    0.44    7.90   0.08  14.37
sdg               0.00     3.17   26.53   73.30   324.88   392.06    14.36     0.44    4.41    0.20    5.93   0.08   0.78
sdh               0.00     0.13    0.02    0.23     2.20     5.03    56.82     0.00    1.15    0.65    1.19   0.21   0.01
md0               0.00     0.00 10430.17  477.40 144866.88 21340.37    30.48     0.00    0.00    0.00    0.00   0.00   0.00

avg-cpu:  %user   %nice %system %iowait  %steal   %idle
          24.69    0.01    3.03    7.42    0.00   64.85

Device:         rrqm/s   wrqm/s     r/s     w/s    rkB/s    wkB/s avgrq-sz avgqu-sz   await r_await w_await  svctm  %util
sda               0.00     0.00 1524.60    0.00  6098.40     0.00     8.00     0.16    0.11    0.11    0.00   0.11  16.21
sdb               0.00     0.00 1483.80    0.00  5935.20     0.00     8.00     0.15    0.10    0.10    0.00   0.10  14.55
sdc               0.00     0.00 1514.75    0.00  6059.00     0.00     8.00     0.16    0.10    0.10    0.00   0.10  15.65
sdd               0.00     0.00 1506.90    0.00  6027.60     0.00     8.00     0.15    0.10    0.10    0.00   0.10  15.47
sde               0.00     0.00 1534.75    0.00  6139.00     0.00     8.00     0.16    0.10    0.10    0.00   0.10  15.93
sdf               0.00     0.00 1514.85    0.00  6059.40     0.00     8.00     0.16    0.10    0.10    0.00   0.10  15.55
sdg               0.00     0.15    2.00    1.20    14.60    15.00    18.50     0.00    0.41    0.25    0.67   0.16   0.05
sdh               0.00     0.00    0.00    0.00     0.00     0.00     0.00     0.00    0.00    0.00    0.00   0.00   0.00
md0               0.00     0.00 9079.75    0.00 36319.00     0.00     8.00     0.00    0.00    0.00    0.00   0.00   0.00

