Linux 4.17.2 (bench) 	08/03/2018 	_x86_64_	(4 CPU)

avg-cpu:  %user   %nice %system %iowait  %steal   %idle
          10.26    0.02    4.15    2.69    0.00   82.88

Device:         rrqm/s   wrqm/s     r/s     w/s    rkB/s    wkB/s avgrq-sz avgqu-sz   await r_await w_await  svctm  %util
sda              51.33     4.20 1712.01  101.46 21284.57  3104.40    26.90     1.05    0.58    0.26    5.92   0.06  10.97
sdb              51.15     4.16 1711.98  101.59 21274.06  3101.10    26.88     1.04    0.58    0.26    5.85   0.06  10.85
sdc              88.96     4.22 1672.09  101.15 21266.23  3103.53    27.49     1.47    0.83    0.45    7.12   0.08  14.34
sdd              82.46     4.19 1677.77  101.22 21251.24  3099.77    27.38     1.47    0.83    0.44    7.33   0.08  14.44
sde              84.47     4.23 1682.85  101.31 21310.70  3103.97    27.37     1.49    0.84    0.44    7.44   0.08  14.46
sdf              81.61     4.20 1684.96  101.26 21292.10  3100.87    27.31     1.54    0.86    0.44    7.90   0.08  14.49
sdg               0.00     3.17   26.70   73.28   325.57   392.04    14.36     0.44    4.40    0.20    5.93   0.08   0.78
sdh               0.00     0.13    0.02    0.23     2.19     5.01    56.82     0.00    1.15    0.65    1.19   0.21   0.01
md0               0.00     0.00 10588.96  475.36 145883.04 21249.20    30.21     0.00    0.00    0.00    0.00   0.00   0.00

avg-cpu:  %user   %nice %system %iowait  %steal   %idle
          23.68    0.00    3.78    2.02    0.00   70.53

Device:         rrqm/s   wrqm/s     r/s     w/s    rkB/s    wkB/s avgrq-sz avgqu-sz   await r_await w_await  svctm  %util
sda              92.00     0.00  667.00    0.00 67180.00     0.00   201.44     0.34    0.50    0.50    0.00   0.35  23.50
sdb              90.00     0.00  692.00    0.00 67644.00     0.00   195.50     0.35    0.50    0.50    0.00   0.36  24.60
sdc              90.00     0.00  718.00    0.00 67308.00     0.00   187.49     0.55    0.77    0.77    0.00   0.49  35.50
sdd              97.00     0.00  687.00    0.00 68376.00     0.00   199.06     0.55    0.80    0.80    0.00   0.53  36.60
sde              98.00     0.00  598.00    0.00 69808.00     0.00   233.47     0.55    0.91    0.91    0.00   0.61  36.40
sdf              95.00     0.00  719.00    0.00 67528.00     0.00   187.84     0.55    0.77    0.77    0.00   0.49  35.50
sdg               0.00     0.00    1.00    5.00    16.00   140.00    52.00     0.00    0.00    0.00    0.00   0.00   0.00
sdh               0.00     0.00    0.00    0.00     0.00     0.00     0.00     0.00    0.00    0.00    0.00   0.00   0.00
md0               0.00     0.00 4643.00    0.00 553224.00     0.00   238.30     0.00    0.00    0.00    0.00   0.00   0.00

avg-cpu:  %user   %nice %system %iowait  %steal   %idle
          23.25    0.00    4.50    1.50    0.00   70.75

Device:         rrqm/s   wrqm/s     r/s     w/s    rkB/s    wkB/s avgrq-sz avgqu-sz   await r_await w_await  svctm  %util
sda             116.00     0.00  644.00    0.00 73812.00     0.00   229.23     0.38    0.60    0.60    0.00   0.39  25.40
sdb             109.00     0.00  698.00    0.00 72340.00     0.00   207.28     0.39    0.56    0.56    0.00   0.36  25.40
sdc             109.00     0.00  715.00    0.00 72948.00     0.00   204.05     0.66    0.92    0.92    0.00   0.54  38.40
sdd             118.00     0.00  580.00    0.00 75528.00     0.00   260.44     0.63    1.09    1.09    0.00   0.66  38.40
sde             118.00     0.00  653.00    0.00 73480.00     0.00   225.05     0.63    0.96    0.96    0.00   0.58  37.60
sdf             112.00     0.00  656.00    0.00 72968.00     0.00   222.46     0.62    0.95    0.95    0.00   0.59  38.50
sdg               0.00     0.00    0.00    0.00     0.00     0.00     0.00     0.00    0.00    0.00    0.00   0.00   0.00
sdh               0.00     0.00    0.00    0.00     0.00     0.00     0.00     0.00    0.00    0.00    0.00   0.00   0.00
md0               0.00     0.00 4627.00    0.00 628156.00     0.00   271.52     0.00    0.00    0.00    0.00   0.00   0.00

avg-cpu:  %user   %nice %system %iowait  %steal   %idle
          23.23    0.00    4.29    1.26    0.00   71.21

Device:         rrqm/s   wrqm/s     r/s     w/s    rkB/s    wkB/s avgrq-sz avgqu-sz   await r_await w_await  svctm  %util
sda             104.00     0.00  668.00    0.00 69680.00     0.00   208.62     0.34    0.51    0.51    0.00   0.36  23.90
sdb             111.00     0.00  664.00    0.00 71244.00     0.00   214.59     0.36    0.55    0.55    0.00   0.38  25.40
sdc             103.00     0.00  662.00    0.00 67860.00     0.00   205.02     0.58    0.86    0.86    0.00   0.54  35.80
sdd             103.00     0.00  678.00    0.00 67136.00     0.00   198.04     0.56    0.82    0.82    0.00   0.53  35.80
sde             106.00     0.00  701.00    0.00 67448.00     0.00   192.43     0.59    0.82    0.82    0.00   0.52  36.50
sdf             106.00     0.00  716.00    0.00 69740.00     0.00   194.80     0.58    0.80    0.80    0.00   0.53  37.80
sdg               0.00     0.00    0.00    0.00     0.00     0.00     0.00     0.00    0.00    0.00    0.00   0.00   0.00
sdh               0.00     0.00    0.00    0.00     0.00     0.00     0.00     0.00    0.00    0.00    0.00   0.00   0.00
md0               0.00     0.00 4730.00    0.00 561200.00     0.00   237.29     0.00    0.00    0.00    0.00   0.00   0.00

