Linux 4.17.2 (bench) 	08/03/2018 	_x86_64_	(4 CPU)

avg-cpu:  %user   %nice %system %iowait  %steal   %idle
          10.26    0.02    4.14    2.68    0.00   82.90

Device:         rrqm/s   wrqm/s     r/s     w/s    rkB/s    wkB/s avgrq-sz avgqu-sz   await r_await w_await  svctm  %util
sda              50.34     4.20 1704.20  101.55 21228.30  3107.30    26.95     1.04    0.58    0.26    5.92   0.06  10.94
sdb              50.17     4.16 1704.17  101.69 21217.84  3103.99    26.94     1.04    0.58    0.26    5.85   0.06  10.82
sdc              87.93     4.22 1664.32  101.24 21210.00  3106.43    27.55     1.46    0.83    0.44    7.12   0.08  14.31
sdd              81.42     4.19 1670.01  101.31 21195.02  3102.66    27.43     1.47    0.83    0.43    7.33   0.08  14.40
sde              83.43     4.24 1675.08  101.41 21254.48  3106.87    27.43     1.49    0.84    0.44    7.44   0.08  14.42
sdf              80.57     4.21 1677.20  101.35 21235.79  3103.76    27.37     1.53    0.86    0.44    7.90   0.08  14.46
sdg               0.00     3.17   26.65   73.28   325.32   392.02    14.36     0.44    4.40    0.20    5.93   0.08   0.78
sdh               0.00     0.13    0.02    0.23     2.19     5.01    56.82     0.00    1.15    0.65    1.19   0.21   0.01
md0               0.00     0.00 10535.99  475.80 145484.12 21269.03    30.29     0.00    0.00    0.00    0.00   0.00   0.00

avg-cpu:  %user   %nice %system %iowait  %steal   %idle
          24.43    0.00    2.77   12.09    0.00   60.71

Device:         rrqm/s   wrqm/s     r/s     w/s    rkB/s    wkB/s avgrq-sz avgqu-sz   await r_await w_await  svctm  %util
sda              31.00     0.00 1123.00    0.00 24808.00     0.00    44.18     0.18    0.16    0.16    0.00   0.15  17.00
sdb              29.00     0.00 1206.00    0.00 24796.00     0.00    41.12     0.20    0.17    0.17    0.00   0.15  17.70
sdc              23.00     0.00 1131.00    0.00 23496.00     0.00    41.55     0.24    0.21    0.21    0.00   0.18  20.70
sdd              24.00     0.00 1172.00    0.00 22208.00     0.00    37.90     0.22    0.19    0.19    0.00   0.17  19.80
sde              22.00     0.00 1234.00    0.00 24524.00     0.00    39.75     0.24    0.19    0.19    0.00   0.17  21.40
sdf              26.00     0.00 1152.00    0.00 25496.00     0.00    44.26     0.23    0.20    0.20    0.00   0.19  21.60
sdg               0.00    19.00   27.00   84.00   432.00  1332.00    31.78     0.22    2.00    0.22    2.57   0.11   1.20
sdh               0.00     0.00    0.00    0.00     0.00     0.00     0.00     0.00    0.00    0.00    0.00   0.00   0.00
md0               0.00     0.00 7167.00    0.00 189684.00     0.00    52.93     0.00    0.00    0.00    0.00   0.00   0.00

avg-cpu:  %user   %nice %system %iowait  %steal   %idle
          25.00    0.00    2.02    6.31    0.00   66.67

Device:         rrqm/s   wrqm/s     r/s     w/s    rkB/s    wkB/s avgrq-sz avgqu-sz   await r_await w_await  svctm  %util
sda              24.00     0.00 1152.00    0.00 22808.00     0.00    39.60     0.19    0.17    0.17    0.00   0.15  17.20
sdb              22.00     0.00 1226.00    0.00 21952.00     0.00    35.81     0.19    0.15    0.15    0.00   0.14  17.20
sdc              27.00     0.00 1217.00    0.00 23212.00     0.00    38.15     0.24    0.20    0.20    0.00   0.17  20.60
sdd              28.00     0.00 1191.00    0.00 24112.00     0.00    40.49     0.25    0.21    0.21    0.00   0.18  21.30
sde              26.00     0.00 1145.00    0.00 24360.00     0.00    42.55     0.25    0.22    0.22    0.00   0.19  21.40
sdf              28.00     0.00 1167.00    0.00 25404.00     0.00    43.54     0.26    0.22    0.22    0.00   0.19  21.90
sdg               0.00     0.00    0.00    0.00     0.00     0.00     0.00     0.00    0.00    0.00    0.00   0.00   0.00
sdh               0.00     0.00    0.00    0.00     0.00     0.00     0.00     0.00    0.00    0.00    0.00   0.00   0.00
md0               0.00     0.00 7253.00    0.00 184240.00     0.00    50.80     0.00    0.00    0.00    0.00   0.00   0.00

