Linux 4.17.2 (bench) 	08/03/2018 	_x86_64_	(4 CPU)

avg-cpu:  %user   %nice %system %iowait  %steal   %idle
          10.27    0.02    4.13    2.66    0.00   82.93

Device:         rrqm/s   wrqm/s     r/s     w/s    rkB/s    wkB/s avgrq-sz avgqu-sz   await r_await w_await  svctm  %util
sda              50.29     4.21 1695.11  101.74 21161.69  3112.96    27.02     1.04    0.58    0.26    5.92   0.06  10.90
sdb              50.12     4.17 1695.08  101.87 21151.20  3109.64    27.00     1.04    0.58    0.26    5.85   0.06  10.78
sdc              87.95     4.23 1655.16  101.43 21143.31  3112.09    27.62     1.46    0.83    0.45    7.12   0.08  14.26
sdd              81.43     4.20 1660.85  101.50 21128.25  3108.31    27.50     1.47    0.83    0.44    7.33   0.08  14.35
sde              83.44     4.24 1665.93  101.59 21187.77  3112.53    27.50     1.49    0.84    0.44    7.44   0.08  14.38
sdf              80.57     4.22 1668.06  101.54 21169.14  3109.42    27.44     1.53    0.87    0.44    7.90   0.08  14.41
sdg               0.00     3.17   26.57   73.28   325.01   392.02    14.36     0.44    4.41    0.20    5.93   0.08   0.78
sdh               0.00     0.13    0.02    0.23     2.19     5.02    56.82     0.00    1.15    0.65    1.19   0.21   0.01
md0               0.00     0.00 10481.10  476.67 144979.94 21307.77    30.35     0.00    0.00    0.00    0.00   0.00   0.00

avg-cpu:  %user   %nice %system %iowait  %steal   %idle
          24.43    0.00    3.27    2.77    0.00   69.52

Device:         rrqm/s   wrqm/s     r/s     w/s    rkB/s    wkB/s avgrq-sz avgqu-sz   await r_await w_await  svctm  %util
sda               0.00     0.00 1500.00    0.00  6732.00     0.00     8.98     0.12    0.08    0.08    0.00   0.08  11.90
sdb               0.00     0.00 1471.00    0.00  6376.00     0.00     8.67     0.16    0.11    0.11    0.00   0.11  15.80
sdc               0.00     0.00 1516.00    0.00  6396.00     0.00     8.44     0.18    0.12    0.12    0.00   0.12  18.10
sdd               0.00     0.00 1473.00    0.00  6328.00     0.00     8.59     0.14    0.10    0.10    0.00   0.10  14.40
sde               0.00     0.00 1481.00    0.00  6324.00     0.00     8.54     0.17    0.11    0.11    0.00   0.11  16.60
sdf               0.00     0.00 1481.00    0.00  6464.00     0.00     8.73     0.16    0.11    0.11    0.00   0.11  15.80
sdg               0.00     5.00    3.00  122.00    88.00   636.00    11.58     0.19    1.51    0.33    1.54   0.03   0.40
sdh               0.00     0.00    0.00    0.00     0.00     0.00     0.00     0.00    0.00    0.00    0.00   0.00   0.00
md0               0.00     0.00 8924.00    0.00 38904.00     0.00     8.72     0.00    0.00    0.00    0.00   0.00   0.00

avg-cpu:  %user   %nice %system %iowait  %steal   %idle
          24.56    0.00    3.01    1.50    0.00   70.93

Device:         rrqm/s   wrqm/s     r/s     w/s    rkB/s    wkB/s avgrq-sz avgqu-sz   await r_await w_await  svctm  %util
sda               0.00     0.00 1457.00    0.00  6552.00     0.00     8.99     0.14    0.10    0.10    0.00   0.10  14.30
sdb               0.00     0.00 1518.00    0.00  6320.00     0.00     8.33     0.15    0.10    0.10    0.00   0.10  14.90
sdc               0.00     0.00 1482.00    0.00  6344.00     0.00     8.56     0.16    0.11    0.11    0.00   0.11  16.20
sdd               0.00     0.00 1465.00    0.00  6660.00     0.00     9.09     0.15    0.10    0.10    0.00   0.10  14.70
sde               0.00     0.00 1547.00    0.00  6976.00     0.00     9.02     0.17    0.11    0.11    0.00   0.11  16.70
sdf               0.00     0.00 1517.00    0.00  6452.00     0.00     8.51     0.14    0.09    0.09    0.00   0.09  14.10
sdg               0.00     0.00    0.00    0.00     0.00     0.00     0.00     0.00    0.00    0.00    0.00   0.00   0.00
sdh               0.00     0.00    0.00    0.00     0.00     0.00     0.00     0.00    0.00    0.00    0.00   0.00   0.00
md0               0.00     0.00 8985.00    0.00 39664.00     0.00     8.83     0.00    0.00    0.00    0.00   0.00   0.00

avg-cpu:  %user   %nice %system %iowait  %steal   %idle
          24.12    0.00    4.02    3.77    0.00   68.09

Device:         rrqm/s   wrqm/s     r/s     w/s    rkB/s    wkB/s avgrq-sz avgqu-sz   await r_await w_await  svctm  %util
sda               0.00     0.00 1535.00    0.00  6872.00     0.00     8.95     0.13    0.09    0.09    0.00   0.09  13.40
sdb               0.00     0.00 1480.00    0.00  6904.00     0.00     9.33     0.15    0.10    0.10    0.00   0.10  14.50
sdc               0.00     0.00 1473.00    0.00  6360.00     0.00     8.64     0.17    0.11    0.11    0.00   0.11  16.70
sdd               0.00     0.00 1474.00    0.00  6416.00     0.00     8.71     0.15    0.10    0.10    0.00   0.10  15.10
sde               0.00     0.00 1535.00    0.00  6884.00     0.00     8.97     0.17    0.11    0.11    0.00   0.11  17.20
sdf               0.00     0.00 1460.00    0.00  6532.00     0.00     8.95     0.13    0.09    0.09    0.00   0.09  13.00
sdg               0.00     0.00    0.00    0.00     0.00     0.00     0.00     0.00    0.00    0.00    0.00   0.00   0.00
sdh               0.00     0.00    0.00    0.00     0.00     0.00     0.00     0.00    0.00    0.00    0.00   0.00   0.00
md0               0.00     0.00 8957.00    0.00 40248.00     0.00     8.99     0.00    0.00    0.00    0.00   0.00   0.00

avg-cpu:  %user   %nice %system %iowait  %steal   %idle
          24.31    0.00    3.76    2.26    0.00   69.67

Device:         rrqm/s   wrqm/s     r/s     w/s    rkB/s    wkB/s avgrq-sz avgqu-sz   await r_await w_await  svctm  %util
sda               0.00     0.00 1478.00    0.00  6584.00     0.00     8.91     0.15    0.10    0.10    0.00   0.10  14.70
sdb               0.00     0.00 1462.00    0.00  6308.00     0.00     8.63     0.14    0.10    0.10    0.00   0.09  13.70
sdc               0.00     0.00 1521.00    0.00  6468.00     0.00     8.50     0.15    0.10    0.10    0.00   0.10  15.50
sdd               0.00     0.00 1473.00    0.00  6524.00     0.00     8.86     0.15    0.10    0.10    0.00   0.10  15.10
sde               0.00     0.00 1557.00    0.00  6744.00     0.00     8.66     0.17    0.11    0.11    0.00   0.11  17.10
sdf               0.00     0.00 1460.00    0.00  6216.00     0.00     8.52     0.15    0.11    0.11    0.00   0.11  15.50
sdg               0.00     0.00    0.00    0.00     0.00     0.00     0.00     0.00    0.00    0.00    0.00   0.00   0.00
sdh               0.00     0.00    0.00    0.00     0.00     0.00     0.00     0.00    0.00    0.00    0.00   0.00   0.00
md0               0.00     0.00 8952.00    0.00 39004.00     0.00     8.71     0.00    0.00    0.00    0.00   0.00   0.00

avg-cpu:  %user   %nice %system %iowait  %steal   %idle
          24.31    0.00    3.51    5.26    0.00   66.92

Device:         rrqm/s   wrqm/s     r/s     w/s    rkB/s    wkB/s avgrq-sz avgqu-sz   await r_await w_await  svctm  %util
sda               0.00     0.00 1535.00    0.00  6556.00     0.00     8.54     0.15    0.10    0.10    0.00   0.10  15.50
sdb               0.00     0.00 1502.00    0.00  6508.00     0.00     8.67     0.14    0.10    0.10    0.00   0.10  14.40
sdc               0.00     0.00 1465.00    0.00  6472.00     0.00     8.84     0.14    0.09    0.09    0.00   0.09  13.50
sdd               0.00     0.00 1527.00    0.00  6552.00     0.00     8.58     0.17    0.11    0.11    0.00   0.11  16.90
sde               0.00     0.00 1458.00    0.00  6204.00     0.00     8.51     0.16    0.11    0.11    0.00   0.11  16.00
sdf               0.00     0.00 1505.00    0.00  6708.00     0.00     8.91     0.15    0.10    0.10    0.00   0.10  15.50
sdg               0.00     0.00    0.00    0.00     0.00     0.00     0.00     0.00    0.00    0.00    0.00   0.00   0.00
sdh               0.00     0.00    0.00    0.00     0.00     0.00     0.00     0.00    0.00    0.00    0.00   0.00   0.00
md0               0.00     0.00 8992.00    0.00 39188.00     0.00     8.72     0.00    0.00    0.00    0.00   0.00   0.00

avg-cpu:  %user   %nice %system %iowait  %steal   %idle
          24.69    0.00    3.02    3.53    0.00   68.77

Device:         rrqm/s   wrqm/s     r/s     w/s    rkB/s    wkB/s avgrq-sz avgqu-sz   await r_await w_await  svctm  %util
sda               0.00     0.00 1521.00    0.00  6728.00     0.00     8.85     0.15    0.10    0.10    0.00   0.10  15.30
sdb               0.00     0.00 1496.00    0.00  6428.00     0.00     8.59     0.14    0.09    0.09    0.00   0.09  13.60
sdc               0.00     0.00 1513.00    0.00  6304.00     0.00     8.33     0.15    0.10    0.10    0.00   0.10  15.00
sdd               0.00     0.00 1502.00    0.00  6364.00     0.00     8.47     0.18    0.12    0.12    0.00   0.12  17.50
sde               0.00     0.00 1524.00    0.00  6676.00     0.00     8.76     0.17    0.11    0.11    0.00   0.11  16.70
sdf               0.00     0.00 1423.00    0.00  6096.00     0.00     8.57     0.15    0.11    0.11    0.00   0.11  15.00
sdg               0.00     0.00    0.00    0.00     0.00     0.00     0.00     0.00    0.00    0.00    0.00   0.00   0.00
sdh               0.00     0.00    0.00    0.00     0.00     0.00     0.00     0.00    0.00    0.00    0.00   0.00   0.00
md0               0.00     0.00 8979.00    0.00 38628.00     0.00     8.60     0.00    0.00    0.00    0.00   0.00   0.00

avg-cpu:  %user   %nice %system %iowait  %steal   %idle
          24.75    0.00    3.28    7.07    0.00   64.90

Device:         rrqm/s   wrqm/s     r/s     w/s    rkB/s    wkB/s avgrq-sz avgqu-sz   await r_await w_await  svctm  %util
sda               0.00     0.00 1504.00    0.00  6584.00     0.00     8.76     0.13    0.09    0.09    0.00   0.09  13.30
sdb               0.00     0.00 1461.00    0.00  6200.00     0.00     8.49     0.14    0.09    0.09    0.00   0.09  13.60
sdc               0.00     0.00 1404.00    0.00  6364.00     0.00     9.07     0.14    0.10    0.10    0.00   0.10  13.90
sdd               0.00     0.00 1508.00    0.00  6596.00     0.00     8.75     0.17    0.11    0.11    0.00   0.11  17.00
sde               0.00     0.00 1543.00    0.00  6532.00     0.00     8.47     0.18    0.12    0.12    0.00   0.12  18.40
sdf               0.00     0.00 1516.00    0.00  6704.00     0.00     8.84     0.17    0.11    0.11    0.00   0.11  16.50
sdg               0.00     0.00   21.00   10.00   156.00    60.00    13.94     0.00    0.06    0.10    0.00   0.06   0.20
sdh               0.00     0.00    0.00    0.00     0.00     0.00     0.00     0.00    0.00    0.00    0.00   0.00   0.00
md0               0.00     0.00 8937.00    0.00 39048.00     0.00     8.74     0.00    0.00    0.00    0.00   0.00   0.00

avg-cpu:  %user   %nice %system %iowait  %steal   %idle
          24.31    0.00    3.76    3.51    0.00   68.42

Device:         rrqm/s   wrqm/s     r/s     w/s    rkB/s    wkB/s avgrq-sz avgqu-sz   await r_await w_await  svctm  %util
sda               0.00     0.00 1496.00    0.00  6392.00     0.00     8.55     0.13    0.09    0.09    0.00   0.09  12.90
sdb               0.00     0.00 1498.00    0.00  6580.00     0.00     8.79     0.15    0.10    0.10    0.00   0.10  15.30
sdc               0.00     0.00 1526.00    0.00  6540.00     0.00     8.57     0.16    0.11    0.11    0.00   0.11  16.40
sdd               0.00     0.00 1502.00    0.00  6632.00     0.00     8.83     0.17    0.11    0.11    0.00   0.11  16.70
sde               0.00     0.00 1453.00    0.00  6456.00     0.00     8.89     0.16    0.11    0.11    0.00   0.11  15.80
sdf               0.00     0.00 1475.00    0.00  6316.00     0.00     8.56     0.14    0.09    0.09    0.00   0.09  13.80
sdg               0.00     0.00    0.00    0.00     0.00     0.00     0.00     0.00    0.00    0.00    0.00   0.00   0.00
sdh               0.00     0.00    0.00    0.00     0.00     0.00     0.00     0.00    0.00    0.00    0.00   0.00   0.00
md0               0.00     0.00 8949.00    0.00 39124.00     0.00     8.74     0.00    0.00    0.00    0.00   0.00   0.00

avg-cpu:  %user   %nice %system %iowait  %steal   %idle
          24.43    0.00    3.27    3.53    0.00   68.77

Device:         rrqm/s   wrqm/s     r/s     w/s    rkB/s    wkB/s avgrq-sz avgqu-sz   await r_await w_await  svctm  %util
sda               0.00     0.00 1515.00    0.00  6432.00     0.00     8.49     0.14    0.09    0.09    0.00   0.09  14.10
sdb               0.00     0.00 1502.00    0.00  6524.00     0.00     8.69     0.14    0.09    0.09    0.00   0.09  13.80
sdc               0.00     0.00 1559.00    0.00  6836.00     0.00     8.77     0.17    0.11    0.11    0.00   0.11  16.80
sdd               0.00     0.00 1454.00    0.00  6128.00     0.00     8.43     0.15    0.10    0.10    0.00   0.10  15.00
sde               0.00     0.00 1467.00    0.00  6336.00     0.00     8.64     0.15    0.10    0.10    0.00   0.10  15.20
sdf               0.00     0.00 1504.00    0.00  6216.00     0.00     8.27     0.16    0.11    0.11    0.00   0.11  16.20
sdg               0.00     0.00    0.00    0.00     0.00     0.00     0.00     0.00    0.00    0.00    0.00   0.00   0.00
sdh               0.00     0.00    0.00    0.00     0.00     0.00     0.00     0.00    0.00    0.00    0.00   0.00   0.00
md0               0.00     0.00 9000.00    0.00 38548.00     0.00     8.57     0.00    0.00    0.00    0.00   0.00   0.00

avg-cpu:  %user   %nice %system %iowait  %steal   %idle
          24.06    0.00    3.76    2.01    0.00   70.18

Device:         rrqm/s   wrqm/s     r/s     w/s    rkB/s    wkB/s avgrq-sz avgqu-sz   await r_await w_await  svctm  %util
sda               0.00     0.00 1530.00    0.00  6732.00     0.00     8.80     0.15    0.10    0.10    0.00   0.10  14.60
sdb               0.00     0.00 1494.00    0.00  6596.00     0.00     8.83     0.15    0.10    0.10    0.00   0.10  14.50
sdc               0.00     0.00 1526.00    0.00  6908.00     0.00     9.05     0.18    0.12    0.12    0.00   0.12  17.90
sdd               1.00     0.00 1500.00    0.00  7072.00     0.00     9.43     0.15    0.10    0.10    0.00   0.10  15.30
sde               1.00     0.00 1436.00    0.00  7032.00     0.00     9.79     0.16    0.11    0.11    0.00   0.11  16.10
sdf               0.00     0.00 1418.00    0.00  6248.00     0.00     8.81     0.14    0.10    0.10    0.00   0.10  13.70
sdg               0.00     0.00    0.00    0.00     0.00     0.00     0.00     0.00    0.00    0.00    0.00   0.00   0.00
sdh               0.00     0.00    0.00    0.00     0.00     0.00     0.00     0.00    0.00    0.00    0.00   0.00   0.00
md0               0.00     0.00 8906.00    0.00 41736.00     0.00     9.37     0.00    0.00    0.00    0.00   0.00   0.00

avg-cpu:  %user   %nice %system %iowait  %steal   %idle
          24.87    0.00    3.27    2.26    0.00   69.60

Device:         rrqm/s   wrqm/s     r/s     w/s    rkB/s    wkB/s avgrq-sz avgqu-sz   await r_await w_await  svctm  %util
sda               0.00     0.00 1463.00    0.00  6152.00     0.00     8.41     0.15    0.10    0.10    0.00   0.10  15.20
sdb               0.00     0.00 1441.00    0.00  6124.00     0.00     8.50     0.14    0.10    0.10    0.00   0.10  14.30
sdc               0.00     0.00 1525.00    0.00  6536.00     0.00     8.57     0.17    0.11    0.11    0.00   0.11  17.40
sdd               0.00     0.00 1415.00    0.00  6184.00     0.00     8.74     0.14    0.10    0.10    0.00   0.10  14.40
sde               0.00     0.00 1562.00    0.00  6928.00     0.00     8.87     0.15    0.09    0.09    0.00   0.09  14.60
sdf               0.00     0.00 1505.00    0.00  6460.00     0.00     8.58     0.15    0.10    0.10    0.00   0.10  15.00
sdg               0.00     0.00    0.00    0.00     0.00     0.00     0.00     0.00    0.00    0.00    0.00   0.00   0.00
sdh               0.00     0.00    0.00    0.00     0.00     0.00     0.00     0.00    0.00    0.00    0.00   0.00   0.00
md0               0.00     0.00 8913.00    0.00 38472.00     0.00     8.63     0.00    0.00    0.00    0.00   0.00   0.00

avg-cpu:  %user   %nice %system %iowait  %steal   %idle
          24.43    0.00    3.02    1.76    0.00   70.78

Device:         rrqm/s   wrqm/s     r/s     w/s    rkB/s    wkB/s avgrq-sz avgqu-sz   await r_await w_await  svctm  %util
sda               0.00     0.00 1510.00    0.00  6372.00     0.00     8.44     0.14    0.09    0.09    0.00   0.09  13.70
sdb               0.00     0.00 1514.00    0.00  6680.00     0.00     8.82     0.15    0.10    0.10    0.00   0.10  15.10
sdc               0.00     0.00 1486.00    0.00  6400.00     0.00     8.61     0.15    0.10    0.10    0.00   0.10  14.90
sdd               0.00     0.00 1460.00    0.00  6192.00     0.00     8.48     0.17    0.12    0.12    0.00   0.12  16.90
sde               0.00     0.00 1522.00    0.00  6572.00     0.00     8.64     0.16    0.10    0.10    0.00   0.10  15.70
sdf               0.00     0.00 1466.00    0.00  6312.00     0.00     8.61     0.17    0.11    0.11    0.00   0.11  16.60
sdg               0.00     1.00    0.00    2.00     0.00    36.00    36.00     0.00    0.00    0.00    0.00   0.00   0.00
sdh               0.00     0.00    0.00    0.00     0.00     0.00     0.00     0.00    0.00    0.00    0.00   0.00   0.00
md0               0.00     0.00 8957.00    0.00 38612.00     0.00     8.62     0.00    0.00    0.00    0.00   0.00   0.00

avg-cpu:  %user   %nice %system %iowait  %steal   %idle
          24.75    0.00    2.78    4.29    0.00   68.18

Device:         rrqm/s   wrqm/s     r/s     w/s    rkB/s    wkB/s avgrq-sz avgqu-sz   await r_await w_await  svctm  %util
sda               0.00     0.00 1511.00    0.00  6544.00     0.00     8.66     0.14    0.09    0.09    0.00   0.09  14.00
sdb               0.00     0.00 1441.00    0.00  6304.00     0.00     8.75     0.13    0.09    0.09    0.00   0.09  12.70
sdc               0.00     0.00 1491.00    0.00  7120.00     0.00     9.55     0.17    0.12    0.12    0.00   0.12  17.40
sdd               0.00     0.00 1490.00    0.00  6436.00     0.00     8.64     0.16    0.11    0.11    0.00   0.11  16.20
sde               0.00     0.00 1477.00    0.00  6448.00     0.00     8.73     0.17    0.12    0.12    0.00   0.12  17.40
sdf               0.00     0.00 1521.00    0.00  6960.00     0.00     9.15     0.16    0.10    0.10    0.00   0.10  15.60
sdg               0.00     0.00    0.00    0.00     0.00     0.00     0.00     0.00    0.00    0.00    0.00   0.00   0.00
sdh               0.00     0.00    0.00    0.00     0.00     0.00     0.00     0.00    0.00    0.00    0.00   0.00   0.00
md0               0.00     0.00 8931.00    0.00 40348.00     0.00     9.04     0.00    0.00    0.00    0.00   0.00   0.00

avg-cpu:  %user   %nice %system %iowait  %steal   %idle
          24.56    0.00    3.04    1.52    0.00   70.89

Device:         rrqm/s   wrqm/s     r/s     w/s    rkB/s    wkB/s avgrq-sz avgqu-sz   await r_await w_await  svctm  %util
sda               0.00     0.00 1460.00    0.00  6336.00     0.00     8.68     0.14    0.10    0.10    0.00   0.10  14.10
sdb               0.00     0.00 1493.00    0.00  6516.00     0.00     8.73     0.17    0.11    0.11    0.00   0.11  16.80
sdc               0.00     0.00 1497.00    0.00  6676.00     0.00     8.92     0.16    0.10    0.10    0.00   0.10  15.50
sdd               0.00     0.00 1541.00    0.00  6612.00     0.00     8.58     0.17    0.11    0.11    0.00   0.11  16.70
sde               0.00     0.00 1442.00    0.00  6332.00     0.00     8.78     0.15    0.10    0.10    0.00   0.10  14.70
sdf               0.00     0.00 1503.00    0.00  6468.00     0.00     8.61     0.16    0.11    0.11    0.00   0.11  15.90
sdg               0.00     0.00    0.00    0.00     0.00     0.00     0.00     0.00    0.00    0.00    0.00   0.00   0.00
sdh               0.00     0.00    0.00    0.00     0.00     0.00     0.00     0.00    0.00    0.00    0.00   0.00   0.00
md0               0.00     0.00 8936.00    0.00 39288.00     0.00     8.79     0.00    0.00    0.00    0.00   0.00   0.00

avg-cpu:  %user   %nice %system %iowait  %steal   %idle
          24.69    0.00    2.77    2.52    0.00   70.03

Device:         rrqm/s   wrqm/s     r/s     w/s    rkB/s    wkB/s avgrq-sz avgqu-sz   await r_await w_await  svctm  %util
sda               0.00     0.00 1500.00    0.00  6588.00     0.00     8.78     0.16    0.10    0.10    0.00   0.10  15.60
sdb               0.00     0.00 1515.00    0.00  7048.00     0.00     9.30     0.13    0.09    0.09    0.00   0.09  13.20
sdc               0.00     0.00 1487.00    0.00  6392.00     0.00     8.60     0.15    0.10    0.10    0.00   0.10  14.70
sdd               0.00     0.00 1490.00    0.00  6412.00     0.00     8.61     0.14    0.09    0.09    0.00   0.09  14.00
sde               0.00     0.00 1493.00    0.00  6596.00     0.00     8.84     0.17    0.12    0.12    0.00   0.12  17.40
sdf               0.00     0.00 1453.00    0.00  6364.00     0.00     8.76     0.18    0.13    0.13    0.00   0.12  18.10
sdg               0.00     0.00    0.00    0.00     0.00     0.00     0.00     0.00    0.00    0.00    0.00   0.00   0.00
sdh               0.00     0.00    0.00    0.00     0.00     0.00     0.00     0.00    0.00    0.00    0.00   0.00   0.00
md0               0.00     0.00 8938.00    0.00 39636.00     0.00     8.87     0.00    0.00    0.00    0.00   0.00   0.00

avg-cpu:  %user   %nice %system %iowait  %steal   %idle
          24.75    0.00    2.78    3.79    0.00   68.69

Device:         rrqm/s   wrqm/s     r/s     w/s    rkB/s    wkB/s avgrq-sz avgqu-sz   await r_await w_await  svctm  %util
sda               0.00     0.00 1531.00    0.00  6732.00     0.00     8.79     0.17    0.11    0.11    0.00   0.11  16.90
sdb               0.00     0.00 1458.00    0.00  6600.00     0.00     9.05     0.11    0.08    0.08    0.00   0.08  11.50
sdc               0.00     0.00 1517.00    0.00  6492.00     0.00     8.56     0.15    0.10    0.10    0.00   0.10  15.10
sdd               0.00     0.00 1479.00    0.00  6264.00     0.00     8.47     0.17    0.12    0.12    0.00   0.12  17.40
sde               0.00     0.00 1507.00    0.00  6444.00     0.00     8.55     0.14    0.10    0.10    0.00   0.10  14.50
sdf               0.00     0.00 1512.00    0.00  6596.00     0.00     8.72     0.17    0.12    0.12    0.00   0.12  17.50
sdg               0.00     0.00    0.00    0.00     0.00     0.00     0.00     0.00    0.00    0.00    0.00   0.00   0.00
sdh               0.00     0.00    0.00    0.00     0.00     0.00     0.00     0.00    0.00    0.00    0.00   0.00   0.00
md0               0.00     0.00 9004.00    0.00 39412.00     0.00     8.75     0.00    0.00    0.00    0.00   0.00   0.00

avg-cpu:  %user   %nice %system %iowait  %steal   %idle
          24.30    0.25    3.29    2.28    0.00   69.87

Device:         rrqm/s   wrqm/s     r/s     w/s    rkB/s    wkB/s avgrq-sz avgqu-sz   await r_await w_await  svctm  %util
sda               0.00     0.00 1480.00    0.00  6752.00     0.00     9.12     0.16    0.11    0.11    0.00   0.11  16.00
sdb               0.00     0.00 1489.00    0.00  6328.00     0.00     8.50     0.16    0.11    0.11    0.00   0.11  15.90
sdc               0.00     0.00 1534.00    0.00  6792.00     0.00     8.86     0.14    0.09    0.09    0.00   0.09  13.80
sdd               0.00     0.00 1526.00    0.00  6516.00     0.00     8.54     0.15    0.10    0.10    0.00   0.10  15.40
sde               0.00     0.00 1444.00    0.00  6212.00     0.00     8.60     0.14    0.10    0.10    0.00   0.10  14.40
sdf               0.00     0.00 1443.00    0.00  6300.00     0.00     8.73     0.16    0.11    0.11    0.00   0.11  15.70
sdg               0.00     0.00    2.00    0.00     8.00     0.00     8.00     0.00    0.00    0.00    0.00   0.00   0.00
sdh               0.00     0.00    0.00    0.00     0.00     0.00     0.00     0.00    0.00    0.00    0.00   0.00   0.00
md0               0.00     0.00 8916.00    0.00 38972.00     0.00     8.74     0.00    0.00    0.00    0.00   0.00   0.00

avg-cpu:  %user   %nice %system %iowait  %steal   %idle
          24.43    0.00    3.27    1.51    0.00   70.78

Device:         rrqm/s   wrqm/s     r/s     w/s    rkB/s    wkB/s avgrq-sz avgqu-sz   await r_await w_await  svctm  %util
sda               0.00     0.00 1508.00    0.00  6404.00     0.00     8.49     0.15    0.10    0.10    0.00   0.10  15.20
sdb               0.00     0.00 1455.00    0.00  6216.00     0.00     8.54     0.15    0.10    0.10    0.00   0.10  14.80
sdc               0.00     0.00 1480.00    0.00  6340.00     0.00     8.57     0.14    0.09    0.09    0.00   0.09  14.00
sdd               0.00     0.00 1537.00    0.00  6532.00     0.00     8.50     0.17    0.11    0.11    0.00   0.11  16.60
sde               0.00     0.00 1426.00    0.00  6076.00     0.00     8.52     0.15    0.11    0.11    0.00   0.11  15.00
sdf               0.00     0.00 1514.00    0.00  6404.00     0.00     8.46     0.17    0.11    0.11    0.00   0.11  17.20
sdg               0.00     0.00    0.00    0.00     0.00     0.00     0.00     0.00    0.00    0.00    0.00   0.00   0.00
sdh               0.00     0.00    0.00    0.00     0.00     0.00     0.00     0.00    0.00    0.00    0.00   0.00   0.00
md0               0.00     0.00 8920.00    0.00 37972.00     0.00     8.51     0.00    0.00    0.00    0.00   0.00   0.00

avg-cpu:  %user   %nice %system %iowait  %steal   %idle
          24.37    0.00    3.27    1.76    0.00   70.60

Device:         rrqm/s   wrqm/s     r/s     w/s    rkB/s    wkB/s avgrq-sz avgqu-sz   await r_await w_await  svctm  %util
sda               0.00     0.00 1471.00    0.00  6764.00     0.00     9.20     0.14    0.09    0.09    0.00   0.09  13.50
sdb               1.00     0.00 1470.00    0.00  6764.00     0.00     9.20     0.15    0.10    0.10    0.00   0.10  15.20
sdc               1.00     0.00 1488.00    0.00  6876.00     0.00     9.24     0.17    0.12    0.12    0.00   0.12  17.20
sdd               0.00     0.00 1525.00    0.00  6628.00     0.00     8.69     0.16    0.11    0.11    0.00   0.11  16.10
sde               0.00     0.00 1498.00    0.00  6580.00     0.00     8.79     0.16    0.11    0.11    0.00   0.11  16.40
sdf               0.00     0.00 1458.00    0.00  6512.00     0.00     8.93     0.14    0.10    0.10    0.00   0.10  14.10
sdg               0.00     0.00    0.00    0.00     0.00     0.00     0.00     0.00    0.00    0.00    0.00   0.00   0.00
sdh               0.00     0.00    0.00    0.00     0.00     0.00     0.00     0.00    0.00    0.00    0.00   0.00   0.00
md0               0.00     0.00 8912.00    0.00 40800.00     0.00     9.16     0.00    0.00    0.00    0.00   0.00   0.00

avg-cpu:  %user   %nice %system %iowait  %steal   %idle
          25.00    0.00    2.53    3.03    0.00   69.44

Device:         rrqm/s   wrqm/s     r/s     w/s    rkB/s    wkB/s avgrq-sz avgqu-sz   await r_await w_await  svctm  %util
sda               0.00     0.00 1513.00    0.00  6628.00     0.00     8.76     0.15    0.10    0.10    0.00   0.10  14.70
sdb               0.00     0.00 1456.00    0.00  6376.00     0.00     8.76     0.15    0.10    0.10    0.00   0.10  15.00
sdc               0.00     0.00 1520.00    0.00  6536.00     0.00     8.60     0.15    0.10    0.10    0.00   0.10  15.00
sdd               0.00     0.00 1484.00    0.00  6368.00     0.00     8.58     0.15    0.10    0.10    0.00   0.10  14.70
sde               0.00     0.00 1493.00    0.00  6512.00     0.00     8.72     0.17    0.11    0.11    0.00   0.11  16.60
sdf               0.00     0.00 1501.00    0.00  6464.00     0.00     8.61     0.16    0.11    0.11    0.00   0.11  15.80
sdg               0.00     0.00    0.00    0.00     0.00     0.00     0.00     0.00    0.00    0.00    0.00   0.00   0.00
sdh               0.00     0.00    0.00    0.00     0.00     0.00     0.00     0.00    0.00    0.00    0.00   0.00   0.00
md0               0.00     0.00 8966.00    0.00 39100.00     0.00     8.72     0.00    0.00    0.00    0.00   0.00   0.00

