Linux 4.17.2 (bench) 	08/03/2018 	_x86_64_	(4 CPU)

avg-cpu:  %user   %nice %system %iowait  %steal   %idle
          10.26    0.02    4.16    2.69    0.00   82.87

Device:         rrqm/s   wrqm/s     r/s     w/s    rkB/s    wkB/s avgrq-sz avgqu-sz   await r_await w_await  svctm  %util
sda              52.29     4.20 1713.42  101.41 21304.58  3103.07    26.90     1.05    0.58    0.26    5.92   0.06  10.98
sdb              52.09     4.16 1713.41  101.55 21294.08  3099.77    26.88     1.05    0.58    0.26    5.85   0.06  10.86
sdc              89.95     4.22 1673.46  101.11 21286.26  3102.20    27.49     1.47    0.83    0.45    7.12   0.08  14.35
sdd              83.46     4.19 1679.14  101.17 21271.26  3098.44    27.38     1.47    0.83    0.44    7.33   0.08  14.45
sde              85.46     4.23 1684.22  101.27 21330.71  3102.64    27.37     1.49    0.84    0.44    7.44   0.08  14.47
sdf              82.60     4.20 1686.34  101.22 21312.12  3099.54    27.31     1.54    0.86    0.44    7.90   0.08  14.50
sdg               0.00     3.17   26.72   73.28   325.68   392.06    14.35     0.44    4.40    0.20    5.93   0.08   0.78
sdh               0.00     0.13    0.02    0.23     2.19     5.01    56.82     0.00    1.15    0.65    1.19   0.21   0.01
md0               0.00     0.00 10603.24  475.16 146036.33 21240.09    30.20     0.00    0.00    0.00    0.00   0.00   0.00

avg-cpu:  %user   %nice %system %iowait  %steal   %idle
          24.22    0.01    2.29    2.45    0.00   71.02

Device:         rrqm/s   wrqm/s     r/s     w/s    rkB/s    wkB/s avgrq-sz avgqu-sz   await r_await w_await  svctm  %util
sda               0.00     0.00 1526.55    0.00  6106.20     0.00     8.00     0.16    0.10    0.10    0.00   0.10  15.87
sdb               0.00     0.00 1540.15    0.00  6160.60     0.00     8.00     0.16    0.10    0.10    0.00   0.10  15.55
sdc               0.00     0.00 1541.80    0.00  6167.20     0.00     8.00     0.16    0.10    0.10    0.00   0.10  15.84
sdd               0.00     0.00 1542.70    0.00  6170.80     0.00     8.00     0.15    0.10    0.10    0.00   0.10  15.32
sde               0.00     0.00 1530.55    0.00  6122.20     0.00     8.00     0.16    0.10    0.10    0.00   0.10  15.87
sdf               0.00     0.00 1516.60    0.00  6066.40     0.00     8.00     0.16    0.10    0.10    0.00   0.10  15.58
sdg               0.00     1.00   68.80    4.30   296.40    70.20    10.03     0.02    0.29    0.13    2.80   0.12   0.89
sdh               0.00     0.00    0.00    0.00     0.00     0.00     0.00     0.00    0.00    0.00    0.00   0.00   0.00
md0               0.00     0.00 9198.45    0.00 36793.80     0.00     8.00     0.00    0.00    0.00    0.00   0.00   0.00

