Linux 4.17.2 (bench) 	08/03/2018 	_x86_64_	(4 CPU)

avg-cpu:  %user   %nice %system %iowait  %steal   %idle
          10.27    0.02    4.07    2.57    0.00   83.07

Device:         rrqm/s   wrqm/s     r/s     w/s    rkB/s    wkB/s avgrq-sz avgqu-sz   await r_await w_await  svctm  %util
sda              45.95     4.24 1658.07  102.47 20974.90  3135.38    27.39     1.04    0.59    0.26    5.92   0.06  10.75
sdb              45.81     4.20 1658.02  102.61 20964.27  3132.05    27.37     1.03    0.59    0.26    5.85   0.06  10.62
sdc              83.78     4.26 1617.95  102.16 20956.36  3134.51    28.01     1.45    0.85    0.45    7.12   0.08  14.08
sdd              77.20     4.23 1623.69  102.23 20941.29  3130.71    27.89     1.46    0.85    0.44    7.33   0.08  14.18
sde              79.23     4.27 1628.76  102.32 21001.07  3134.95    27.89     1.48    0.86    0.44    7.44   0.08  14.20
sdf              76.35     4.25 1630.92  102.27 20982.33  3131.82    27.83     1.53    0.88    0.44    7.90   0.08  14.23
sdg               0.00     3.17   26.33   73.32   324.08   392.08    14.37     0.44    4.42    0.20    5.93   0.08   0.78
sdh               0.00     0.13    0.02    0.23     2.21     5.06    56.82     0.00    1.15    0.65    1.19   0.21   0.01
md0               0.00     0.00 10232.55  480.10 143688.29 21461.30    30.83     0.00    0.00    0.00    0.00   0.00   0.00

avg-cpu:  %user   %nice %system %iowait  %steal   %idle
          24.07    0.02    4.11    5.00    0.00   66.80

Device:         rrqm/s   wrqm/s     r/s     w/s    rkB/s    wkB/s avgrq-sz avgqu-sz   await r_await w_await  svctm  %util
sda               0.00     0.00 1548.85    0.00  6195.40     0.00     8.00     0.15    0.10    0.10    0.00   0.10  15.14
sdb               0.00     0.00 1523.70    0.00  6094.80     0.00     8.00     0.15    0.10    0.10    0.00   0.10  14.64
sdc               0.00     0.00 1521.50    0.00  6086.00     0.00     8.00     0.15    0.10    0.10    0.00   0.10  15.30
sdd               0.00     0.00 1521.40    0.00  6085.60     0.00     8.00     0.15    0.10    0.10    0.00   0.10  15.46
sde               0.00     0.00 1521.35    0.00  6085.40     0.00     8.00     0.16    0.11    0.11    0.00   0.11  16.05
sdf               0.00     0.00 1529.60    0.00  6118.40     0.00     8.00     0.16    0.10    0.10    0.00   0.10  15.77
sdg               0.00     0.10    2.15   75.95    14.60   443.60    11.73     0.44    5.64    0.40    5.79   0.05   0.40
sdh               0.00     0.00    0.00    0.00     0.00     0.00     0.00     0.00    0.00    0.00    0.00   0.00   0.00
md0               0.00     0.00 9166.50    0.00 36666.00     0.00     8.00     0.00    0.00    0.00    0.00   0.00   0.00

