Linux 4.17.2 (bench) 	08/03/2018 	_x86_64_	(4 CPU)

avg-cpu:  %user   %nice %system %iowait  %steal   %idle
          10.27    0.02    4.08    2.58    0.00   83.05

Device:         rrqm/s   wrqm/s     r/s     w/s    rkB/s    wkB/s avgrq-sz avgqu-sz   await r_await w_await  svctm  %util
sda              46.11     4.24 1659.88  102.42 20976.11  3133.91    27.36     1.04    0.59    0.26    5.92   0.06  10.75
sdb              45.97     4.20 1659.83  102.56 20965.51  3130.58    27.34     1.03    0.59    0.26    5.85   0.06  10.63
sdc              83.92     4.26 1619.78  102.11 20957.61  3133.04    27.98     1.45    0.84    0.45    7.12   0.08  14.09
sdd              77.35     4.23 1625.52  102.18 20942.54  3129.24    27.87     1.46    0.85    0.44    7.33   0.08  14.19
sde              79.38     4.27 1630.59  102.28 21002.29  3133.48    27.86     1.48    0.85    0.44    7.44   0.08  14.21
sdf              76.50     4.24 1632.74  102.22 20983.56  3130.35    27.80     1.53    0.88    0.44    7.90   0.08  14.24
sdg               0.00     3.17   26.33   73.32   324.10   392.06    14.37     0.44    4.42    0.20    5.93   0.08   0.78
sdh               0.00     0.13    0.02    0.23     2.21     5.06    56.82     0.00    1.15    0.65    1.19   0.21   0.01
md0               0.00     0.00 10244.36  479.88 143687.31 21451.23    30.80     0.00    0.00    0.00    0.00   0.00   0.00

avg-cpu:  %user   %nice %system %iowait  %steal   %idle
          22.89    0.00    4.98    3.23    0.00   68.91

Device:         rrqm/s   wrqm/s     r/s     w/s    rkB/s    wkB/s avgrq-sz avgqu-sz   await r_await w_await  svctm  %util
sda               0.00     0.00 2200.00    0.00  8800.00     0.00     8.00     0.15    0.07    0.07    0.00   0.07  14.80
sdb               0.00     0.00 2181.00    0.00  8724.00     0.00     8.00     0.15    0.07    0.07    0.00   0.07  15.30
sdc               0.00     0.00 2240.00    0.00  8960.00     0.00     8.00     0.16    0.07    0.07    0.00   0.07  15.70
sdd               0.00     0.00 2027.00    0.00  8108.00     0.00     8.00     0.14    0.07    0.07    0.00   0.07  13.90
sde               0.00     0.00 2278.00    0.00  9112.00     0.00     8.00     0.16    0.07    0.07    0.00   0.07  16.10
sdf               0.00     0.00 2111.00    0.00  8444.00     0.00     8.00     0.14    0.07    0.07    0.00   0.07  14.50
sdg               0.00     0.00    5.00    5.00    92.00    88.00    36.00     0.01    5.30    1.40    9.20   0.60   0.60
sdh               0.00     0.00    0.00    0.00     0.00     0.00     0.00     0.00    0.00    0.00    0.00   0.00   0.00
md0               0.00     0.00 13038.00    0.00 52152.00     0.00     8.00     0.00    0.00    0.00    0.00   0.00   0.00

avg-cpu:  %user   %nice %system %iowait  %steal   %idle
          24.50    0.00    4.50    9.25    0.00   61.75

Device:         rrqm/s   wrqm/s     r/s     w/s    rkB/s    wkB/s avgrq-sz avgqu-sz   await r_await w_await  svctm  %util
sda               0.00     0.00 2256.00    0.00  9024.00     0.00     8.00     0.14    0.06    0.06    0.00   0.06  14.20
sdb               0.00     0.00 2247.00    0.00  8988.00     0.00     8.00     0.15    0.06    0.06    0.00   0.06  14.60
sdc               0.00     0.00 2229.00    0.00  8916.00     0.00     8.00     0.15    0.07    0.07    0.00   0.07  15.10
sdd               0.00     0.00 2239.00    0.00  8956.00     0.00     8.00     0.15    0.07    0.07    0.00   0.07  15.40
sde               0.00     0.00 2297.00    0.00  9188.00     0.00     8.00     0.15    0.06    0.06    0.00   0.06  14.80
sdf               0.00     0.00 2234.00    0.00  8936.00     0.00     8.00     0.15    0.07    0.07    0.00   0.07  15.20
sdg               0.00     0.00    0.00    0.00     0.00     0.00     0.00     0.00    0.00    0.00    0.00   0.00   0.00
sdh               0.00     0.00    0.00    0.00     0.00     0.00     0.00     0.00    0.00    0.00    0.00   0.00   0.00
md0               0.00     0.00 13503.00    0.00 54012.00     0.00     8.00     0.00    0.00    0.00    0.00   0.00   0.00

avg-cpu:  %user   %nice %system %iowait  %steal   %idle
          23.95    0.00    5.68   10.62    0.00   59.75

Device:         rrqm/s   wrqm/s     r/s     w/s    rkB/s    wkB/s avgrq-sz avgqu-sz   await r_await w_await  svctm  %util
sda               0.00     0.00 2241.00    0.00  8964.00     0.00     8.00     0.14    0.06    0.06    0.00   0.06  14.20
sdb               0.00     0.00 2023.00    0.00  8092.00     0.00     8.00     0.14    0.07    0.07    0.00   0.07  13.90
sdc               0.00     0.00 2146.00    0.00  8584.00     0.00     8.00     0.15    0.07    0.07    0.00   0.07  15.30
sdd               0.00     0.00 2220.00    0.00  8880.00     0.00     8.00     0.15    0.07    0.07    0.00   0.07  15.20
sde               0.00     0.00 2309.00    0.00  9236.00     0.00     8.00     0.16    0.07    0.07    0.00   0.07  15.60
sdf               0.00     0.00 2271.00    0.00  9084.00     0.00     8.00     0.16    0.07    0.07    0.00   0.07  16.10
sdg               0.00     0.00    0.00    0.00     0.00     0.00     0.00     0.00    0.00    0.00    0.00   0.00   0.00
sdh               0.00     0.00    0.00    0.00     0.00     0.00     0.00     0.00    0.00    0.00    0.00   0.00   0.00
md0               0.00     0.00 13210.00    0.00 52840.00     0.00     8.00     0.00    0.00    0.00    0.00   0.00   0.00

avg-cpu:  %user   %nice %system %iowait  %steal   %idle
          24.38    0.25    4.98   10.70    0.00   59.70

Device:         rrqm/s   wrqm/s     r/s     w/s    rkB/s    wkB/s avgrq-sz avgqu-sz   await r_await w_await  svctm  %util
sda               0.00     0.00 1996.00    0.00  7984.00     0.00     8.00     0.13    0.06    0.06    0.00   0.06  12.60
sdb               0.00     0.00 2279.00    0.00  9116.00     0.00     8.00     0.15    0.07    0.07    0.00   0.07  15.30
sdc               0.00     0.00 2197.00    0.00  8788.00     0.00     8.00     0.15    0.07    0.07    0.00   0.07  15.40
sdd               0.00     0.00 2168.00    0.00  8672.00     0.00     8.00     0.15    0.07    0.07    0.00   0.07  14.80
sde               0.00     0.00 2476.00    0.00  9904.00     0.00     8.00     0.17    0.07    0.07    0.00   0.07  16.80
sdf               0.00     0.00 2217.00    0.00  8868.00     0.00     8.00     0.16    0.07    0.07    0.00   0.07  16.40
sdg               0.00     0.00   26.00    0.00   164.00     0.00    12.62     0.02    0.73    0.73    0.00   0.50   1.30
sdh               0.00     0.00    0.00    0.00     0.00     0.00     0.00     0.00    0.00    0.00    0.00   0.00   0.00
md0               0.00     0.00 13332.00    0.00 53328.00     0.00     8.00     0.00    0.00    0.00    0.00   0.00   0.00

avg-cpu:  %user   %nice %system %iowait  %steal   %idle
          24.26    0.00    5.45    9.90    0.00   60.40

Device:         rrqm/s   wrqm/s     r/s     w/s    rkB/s    wkB/s avgrq-sz avgqu-sz   await r_await w_await  svctm  %util
sda               0.00     0.00 2240.00    0.00  8960.00     0.00     8.00     0.14    0.06    0.06    0.00   0.06  14.30
sdb               0.00     0.00 2305.00    0.00  9220.00     0.00     8.00     0.15    0.07    0.07    0.00   0.07  15.50
sdc               0.00     0.00 2311.00    0.00  9244.00     0.00     8.00     0.16    0.07    0.07    0.00   0.07  15.80
sdd               0.00     0.00 2079.00    0.00  8316.00     0.00     8.00     0.14    0.07    0.07    0.00   0.07  13.80
sde               0.00     0.00 2154.00    0.00  8616.00     0.00     8.00     0.15    0.07    0.07    0.00   0.07  15.50
sdf               0.00     0.00 2285.00    0.00  9140.00     0.00     8.00     0.16    0.07    0.07    0.00   0.07  15.60
sdg               0.00     0.00    0.00    0.00     0.00     0.00     0.00     0.00    0.00    0.00    0.00   0.00   0.00
sdh               0.00     0.00    0.00    0.00     0.00     0.00     0.00     0.00    0.00    0.00    0.00   0.00   0.00
md0               0.00     0.00 13377.00    0.00 53508.00     0.00     8.00     0.00    0.00    0.00    0.00   0.00   0.00

avg-cpu:  %user   %nice %system %iowait  %steal   %idle
          24.44    0.00    4.49    9.48    0.00   61.60

Device:         rrqm/s   wrqm/s     r/s     w/s    rkB/s    wkB/s avgrq-sz avgqu-sz   await r_await w_await  svctm  %util
sda               0.00     0.00 2255.00    0.00  9020.00     0.00     8.00     0.15    0.07    0.07    0.00   0.07  15.40
sdb               0.00     0.00 2274.00    0.00  9096.00     0.00     8.00     0.15    0.06    0.06    0.00   0.06  14.70
sdc               0.00     0.00 2268.00    0.00  9072.00     0.00     8.00     0.15    0.07    0.07    0.00   0.07  15.40
sdd               0.00     0.00 2130.00    0.00  8520.00     0.00     8.00     0.15    0.07    0.07    0.00   0.07  15.40
sde               0.00     0.00 2185.00    0.00  8740.00     0.00     8.00     0.15    0.07    0.07    0.00   0.07  15.40
sdf               0.00     0.00 2143.00    0.00  8572.00     0.00     8.00     0.16    0.07    0.07    0.00   0.07  15.80
sdg               0.00     0.00    0.00    0.00     0.00     0.00     0.00     0.00    0.00    0.00    0.00   0.00   0.00
sdh               0.00     0.00    0.00    0.00     0.00     0.00     0.00     0.00    0.00    0.00    0.00   0.00   0.00
md0               0.00     0.00 13256.00    0.00 53024.00     0.00     8.00     0.00    0.00    0.00    0.00   0.00   0.00

avg-cpu:  %user   %nice %system %iowait  %steal   %idle
          22.38    0.00    7.30    0.97    0.00   69.34

Device:         rrqm/s   wrqm/s     r/s     w/s    rkB/s    wkB/s avgrq-sz avgqu-sz   await r_await w_await  svctm  %util
sda               0.00     0.00 2360.00    0.00  9440.00     0.00     8.00     0.15    0.07    0.07    0.00   0.06  15.30
sdb               0.00     0.00 2312.00    0.00  9248.00     0.00     8.00     0.15    0.07    0.07    0.00   0.07  15.30
sdc               0.00     0.00 2252.00    0.00  9008.00     0.00     8.00     0.15    0.07    0.07    0.00   0.07  14.90
sdd               0.00     0.00 2163.00    0.00  8652.00     0.00     8.00     0.15    0.07    0.07    0.00   0.07  14.80
sde               0.00     0.00 2031.00    0.00  8124.00     0.00     8.00     0.14    0.07    0.07    0.00   0.07  13.50
sdf               0.00     0.00 2125.00    0.00  8500.00     0.00     8.00     0.15    0.07    0.07    0.00   0.07  15.00
sdg               0.00     0.00    0.00    0.00     0.00     0.00     0.00     0.00    0.00    0.00    0.00   0.00   0.00
sdh               0.00     0.00    0.00    0.00     0.00     0.00     0.00     0.00    0.00    0.00    0.00   0.00   0.00
md0               0.00     0.00 13240.00    0.00 52960.00     0.00     8.00     0.00    0.00    0.00    0.00   0.00   0.00

avg-cpu:  %user   %nice %system %iowait  %steal   %idle
          22.36    0.00    6.14    1.23    0.00   70.27

Device:         rrqm/s   wrqm/s     r/s     w/s    rkB/s    wkB/s avgrq-sz avgqu-sz   await r_await w_await  svctm  %util
sda               0.00     0.00 2271.00    0.00  9084.00     0.00     8.00     0.14    0.06    0.06    0.00   0.06  14.00
sdb               0.00     0.00 2320.00    0.00  9280.00     0.00     8.00     0.15    0.06    0.06    0.00   0.06  14.80
sdc               0.00     0.00 2223.00    0.00  8892.00     0.00     8.00     0.15    0.07    0.07    0.00   0.07  15.10
sdd               0.00     0.00 2191.00    0.00  8764.00     0.00     8.00     0.15    0.07    0.07    0.00   0.07  14.80
sde               0.00     0.00 2238.00    0.00  8952.00     0.00     8.00     0.15    0.07    0.07    0.00   0.07  15.20
sdf               0.00     0.00 2200.00    0.00  8800.00     0.00     8.00     0.16    0.07    0.07    0.00   0.07  16.10
sdg               0.00     0.00    0.00    0.00     0.00     0.00     0.00     0.00    0.00    0.00    0.00   0.00   0.00
sdh               0.00     0.00    0.00    0.00     0.00     0.00     0.00     0.00    0.00    0.00    0.00   0.00   0.00
md0               0.00     0.00 13443.00    0.00 53772.00     0.00     8.00     0.00    0.00    0.00    0.00   0.00   0.00

avg-cpu:  %user   %nice %system %iowait  %steal   %idle
          22.49    0.00    6.85    0.98    0.00   69.68

Device:         rrqm/s   wrqm/s     r/s     w/s    rkB/s    wkB/s avgrq-sz avgqu-sz   await r_await w_await  svctm  %util
sda               0.00     0.00 2267.00    0.00  9068.00     0.00     8.00     0.15    0.06    0.06    0.00   0.06  14.60
sdb               0.00     0.00 2384.00    0.00  9536.00     0.00     8.00     0.15    0.06    0.06    0.00   0.06  15.10
sdc               0.00     0.00 2301.00    0.00  9204.00     0.00     8.00     0.15    0.07    0.07    0.00   0.07  15.00
sdd               0.00     0.00 2169.00    0.00  8676.00     0.00     8.00     0.16    0.08    0.08    0.00   0.08  16.30
sde               0.00     0.00 2242.00    0.00  8968.00     0.00     8.00     0.15    0.07    0.07    0.00   0.07  15.20
sdf               0.00     0.00 1969.00    0.00  7876.00     0.00     8.00     0.14    0.07    0.07    0.00   0.07  14.40
sdg               0.00     0.00    0.00    0.00     0.00     0.00     0.00     0.00    0.00    0.00    0.00   0.00   0.00
sdh               0.00     0.00    0.00    0.00     0.00     0.00     0.00     0.00    0.00    0.00    0.00   0.00   0.00
md0               0.00     0.00 13331.00    0.00 53324.00     0.00     8.00     0.00    0.00    0.00    0.00   0.00   0.00

avg-cpu:  %user   %nice %system %iowait  %steal   %idle
          22.41    0.00    6.16    1.23    0.00   70.20

Device:         rrqm/s   wrqm/s     r/s     w/s    rkB/s    wkB/s avgrq-sz avgqu-sz   await r_await w_await  svctm  %util
sda               0.00     0.00 2123.00    0.00  8492.00     0.00     8.00     0.13    0.06    0.06    0.00   0.06  13.40
sdb               0.00     0.00 2297.00    0.00  9188.00     0.00     8.00     0.15    0.06    0.06    0.00   0.06  14.70
sdc               0.00     0.00 2237.00    0.00  8948.00     0.00     8.00     0.15    0.07    0.07    0.00   0.07  15.30
sdd               0.00     0.00 2032.00    0.00  8128.00     0.00     8.00     0.14    0.07    0.07    0.00   0.07  14.30
sde               0.00     0.00 2278.00    0.00  9112.00     0.00     8.00     0.17    0.07    0.07    0.00   0.07  16.80
sdf               0.00     0.00 2303.00    0.00  9212.00     0.00     8.00     0.16    0.07    0.07    0.00   0.07  15.90
sdg               0.00     0.00    0.00    0.00     0.00     0.00     0.00     0.00    0.00    0.00    0.00   0.00   0.00
sdh               0.00     0.00    0.00    0.00     0.00     0.00     0.00     0.00    0.00    0.00    0.00   0.00   0.00
md0               0.00     0.00 13270.00    0.00 53080.00     0.00     8.00     0.00    0.00    0.00    0.00   0.00   0.00

avg-cpu:  %user   %nice %system %iowait  %steal   %idle
          22.64    0.00    5.22    1.24    0.00   70.90

Device:         rrqm/s   wrqm/s     r/s     w/s    rkB/s    wkB/s avgrq-sz avgqu-sz   await r_await w_await  svctm  %util
sda               0.00     0.00 2289.00    0.00  9156.00     0.00     8.00     0.14    0.06    0.06    0.00   0.06  14.20
sdb               0.00     0.00 2150.00    0.00  8600.00     0.00     8.00     0.15    0.07    0.07    0.00   0.07  14.70
sdc               0.00     0.00 2334.00    0.00  9336.00     0.00     8.00     0.16    0.07    0.07    0.00   0.07  16.40
sdd               0.00     0.00 2091.00    0.00  8364.00     0.00     8.00     0.15    0.07    0.07    0.00   0.07  15.00
sde               0.00     0.00 2152.00    0.00  8608.00     0.00     8.00     0.16    0.07    0.07    0.00   0.07  15.90
sdf               0.00     0.00 2316.00    0.00  9264.00     0.00     8.00     0.16    0.07    0.07    0.00   0.07  16.10
sdg               0.00     0.00    0.00    0.00     0.00     0.00     0.00     0.00    0.00    0.00    0.00   0.00   0.00
sdh               0.00     0.00    0.00    0.00     0.00     0.00     0.00     0.00    0.00    0.00    0.00   0.00   0.00
md0               0.00     0.00 13335.00    0.00 53340.00     0.00     8.00     0.00    0.00    0.00    0.00   0.00   0.00

avg-cpu:  %user   %nice %system %iowait  %steal   %idle
          22.96    0.00    5.43    0.99    0.00   70.62

Device:         rrqm/s   wrqm/s     r/s     w/s    rkB/s    wkB/s avgrq-sz avgqu-sz   await r_await w_await  svctm  %util
sda               0.00     0.00 2194.00    0.00  8776.00     0.00     8.00     0.14    0.06    0.06    0.00   0.06  13.60
sdb               0.00     0.00 2076.00    0.00  8304.00     0.00     8.00     0.15    0.07    0.07    0.00   0.07  14.90
sdc               0.00     0.00 2240.00    0.00  8960.00     0.00     8.00     0.16    0.07    0.07    0.00   0.07  15.60
sdd               0.00     0.00 2336.00    0.00  9344.00     0.00     8.00     0.16    0.07    0.07    0.00   0.07  16.40
sde               0.00     0.00 2242.00    0.00  8968.00     0.00     8.00     0.16    0.07    0.07    0.00   0.07  16.10
sdf               0.00     0.00 2138.00    0.00  8552.00     0.00     8.00     0.14    0.07    0.07    0.00   0.07  14.20
sdg               0.00     0.00    0.00    0.00     0.00     0.00     0.00     0.00    0.00    0.00    0.00   0.00   0.00
sdh               0.00     0.00    0.00    0.00     0.00     0.00     0.00     0.00    0.00    0.00    0.00   0.00   0.00
md0               0.00     0.00 13224.00    0.00 52896.00     0.00     8.00     0.00    0.00    0.00    0.00   0.00   0.00

avg-cpu:  %user   %nice %system %iowait  %steal   %idle
          22.85    0.00    5.90    1.23    0.00   70.02

Device:         rrqm/s   wrqm/s     r/s     w/s    rkB/s    wkB/s avgrq-sz avgqu-sz   await r_await w_await  svctm  %util
sda               0.00     0.00 2269.00    0.00  9076.00     0.00     8.00     0.15    0.07    0.07    0.00   0.07  15.00
sdb               0.00     0.00 2146.00    0.00  8584.00     0.00     8.00     0.15    0.07    0.07    0.00   0.07  14.70
sdc               0.00     0.00 2158.00    0.00  8632.00     0.00     8.00     0.15    0.07    0.07    0.00   0.07  15.10
sdd               0.00     0.00 2290.00    0.00  9160.00     0.00     8.00     0.15    0.07    0.07    0.00   0.07  15.30
sde               0.00     0.00 2200.00    0.00  8800.00     0.00     8.00     0.16    0.07    0.07    0.00   0.07  16.40
sdf               0.00     0.00 2121.00    0.00  8484.00     0.00     8.00     0.15    0.07    0.07    0.00   0.07  14.70
sdg               0.00     0.00    0.00    0.00     0.00     0.00     0.00     0.00    0.00    0.00    0.00   0.00   0.00
sdh               0.00     0.00    0.00    0.00     0.00     0.00     0.00     0.00    0.00    0.00    0.00   0.00   0.00
md0               0.00     0.00 13184.00    0.00 52736.00     0.00     8.00     0.00    0.00    0.00    0.00   0.00   0.00

avg-cpu:  %user   %nice %system %iowait  %steal   %idle
          22.36    0.25    6.63    1.47    0.00   69.29

Device:         rrqm/s   wrqm/s     r/s     w/s    rkB/s    wkB/s avgrq-sz avgqu-sz   await r_await w_await  svctm  %util
sda               0.00     0.00 2310.00    0.00  9240.00     0.00     8.00     0.15    0.06    0.06    0.00   0.06  14.70
sdb               0.00     0.00 2228.00    0.00  8912.00     0.00     8.00     0.14    0.06    0.06    0.00   0.06  14.40
sdc               0.00     0.00 2120.00    0.00  8480.00     0.00     8.00     0.15    0.07    0.07    0.00   0.07  15.00
sdd               0.00     0.00 2010.00    0.00  8040.00     0.00     8.00     0.14    0.07    0.07    0.00   0.07  14.30
sde               0.00     0.00 2352.00    0.00  9408.00     0.00     8.00     0.16    0.07    0.07    0.00   0.07  15.70
sdf               0.00     0.00 2272.00    0.00  9088.00     0.00     8.00     0.16    0.07    0.07    0.00   0.07  16.20
sdg               0.00     0.00    9.00  389.00    36.00  2004.00    10.25     1.46    3.67    0.11    3.76   0.03   1.30
sdh               0.00     0.00    0.00    0.00     0.00     0.00     0.00     0.00    0.00    0.00    0.00   0.00   0.00
md0               0.00     0.00 13292.00    0.00 53168.00     0.00     8.00     0.00    0.00    0.00    0.00   0.00   0.00

avg-cpu:  %user   %nice %system %iowait  %steal   %idle
          22.83    0.00    5.46    0.99    0.00   70.72

Device:         rrqm/s   wrqm/s     r/s     w/s    rkB/s    wkB/s avgrq-sz avgqu-sz   await r_await w_await  svctm  %util
sda               0.00     0.00 2214.00    0.00  8856.00     0.00     8.00     0.14    0.06    0.06    0.00   0.06  13.60
sdb               0.00     0.00 2144.00    0.00  8576.00     0.00     8.00     0.15    0.07    0.07    0.00   0.07  15.20
sdc               0.00     0.00 2365.00    0.00  9460.00     0.00     8.00     0.16    0.07    0.07    0.00   0.07  15.60
sdd               0.00     0.00 2187.00    0.00  8748.00     0.00     8.00     0.16    0.07    0.07    0.00   0.07  15.90
sde               0.00     0.00 2229.00    0.00  8916.00     0.00     8.00     0.16    0.07    0.07    0.00   0.07  15.90
sdf               0.00     0.00 2110.00    0.00  8440.00     0.00     8.00     0.15    0.07    0.07    0.00   0.07  15.20
sdg               0.00     0.00    2.00   19.00    32.00   228.00    24.76     0.02    0.76    0.50    0.79   0.10   0.20
sdh               0.00     0.00    0.00    0.00     0.00     0.00     0.00     0.00    0.00    0.00    0.00   0.00   0.00
md0               0.00     0.00 13248.00    0.00 52992.00     0.00     8.00     0.00    0.00    0.00    0.00   0.00   0.00

avg-cpu:  %user   %nice %system %iowait  %steal   %idle
          22.79    0.00    6.13    1.23    0.00   69.85

Device:         rrqm/s   wrqm/s     r/s     w/s    rkB/s    wkB/s avgrq-sz avgqu-sz   await r_await w_await  svctm  %util
sda               0.00     0.00 2134.00    0.00  8536.00     0.00     8.00     0.16    0.07    0.07    0.00   0.07  15.60
sdb               0.00     0.00 2297.00    0.00  9188.00     0.00     8.00     0.15    0.06    0.06    0.00   0.06  14.80
sdc               0.00     0.00 2014.00    0.00  8056.00     0.00     8.00     0.14    0.07    0.07    0.00   0.07  14.40
sdd               0.00     0.00 2188.00    0.00  8752.00     0.00     8.00     0.16    0.07    0.07    0.00   0.07  15.60
sde               0.00     0.00 2265.00    0.00  9060.00     0.00     8.00     0.16    0.07    0.07    0.00   0.07  15.60
sdf               0.00     0.00 2112.00    0.00  8448.00     0.00     8.00     0.15    0.07    0.07    0.00   0.07  15.20
sdg               0.00     0.00    0.00    0.00     0.00     0.00     0.00     0.00    0.00    0.00    0.00   0.00   0.00
sdh               0.00     0.00    0.00    0.00     0.00     0.00     0.00     0.00    0.00    0.00    0.00   0.00   0.00
md0               0.00     0.00 13011.00    0.00 52044.00     0.00     8.00     0.00    0.00    0.00    0.00   0.00   0.00

avg-cpu:  %user   %nice %system %iowait  %steal   %idle
          22.85    0.00    5.90    1.23    0.00   70.02

Device:         rrqm/s   wrqm/s     r/s     w/s    rkB/s    wkB/s avgrq-sz avgqu-sz   await r_await w_await  svctm  %util
sda               0.00     0.00 2149.00    0.00  8596.00     0.00     8.00     0.14    0.07    0.07    0.00   0.07  14.00
sdb               0.00     0.00 2186.00    0.00  8744.00     0.00     8.00     0.13    0.06    0.06    0.00   0.06  13.40
sdc               0.00     0.00 2307.00    0.00  9228.00     0.00     8.00     0.16    0.07    0.07    0.00   0.07  16.20
sdd               0.00     0.00 2432.00    0.00  9728.00     0.00     8.00     0.17    0.07    0.07    0.00   0.07  16.80
sde               0.00     0.00 2113.00    0.00  8452.00     0.00     8.00     0.14    0.07    0.07    0.00   0.07  14.30
sdf               0.00     0.00 2336.00    0.00  9344.00     0.00     8.00     0.16    0.07    0.07    0.00   0.07  16.10
sdg               0.00     0.00    0.00    0.00     0.00     0.00     0.00     0.00    0.00    0.00    0.00   0.00   0.00
sdh               0.00     0.00    0.00    0.00     0.00     0.00     0.00     0.00    0.00    0.00    0.00   0.00   0.00
md0               0.00     0.00 13522.00    0.00 54088.00     0.00     8.00     0.00    0.00    0.00    0.00   0.00   0.00

avg-cpu:  %user   %nice %system %iowait  %steal   %idle
          22.96    0.00    5.43    1.23    0.00   70.37

Device:         rrqm/s   wrqm/s     r/s     w/s    rkB/s    wkB/s avgrq-sz avgqu-sz   await r_await w_await  svctm  %util
sda               0.00     0.00 2151.00    0.00  8604.00     0.00     8.00     0.15    0.07    0.07    0.00   0.07  15.10
sdb               0.00     0.00 2265.00    0.00  9060.00     0.00     8.00     0.15    0.07    0.07    0.00   0.07  14.90
sdc               0.00     0.00 2234.00    0.00  8936.00     0.00     8.00     0.16    0.07    0.07    0.00   0.07  16.20
sdd               0.00     0.00 2187.00    0.00  8748.00     0.00     8.00     0.16    0.07    0.07    0.00   0.07  15.70
sde               0.00     0.00 2144.00    0.00  8576.00     0.00     8.00     0.14    0.07    0.07    0.00   0.07  14.10
sdf               0.00     0.00 2293.00    0.00  9172.00     0.00     8.00     0.16    0.07    0.07    0.00   0.07  16.40
sdg               0.00     0.00    0.00    0.00     0.00     0.00     0.00     0.00    0.00    0.00    0.00   0.00   0.00
sdh               0.00     0.00    0.00    0.00     0.00     0.00     0.00     0.00    0.00    0.00    0.00   0.00   0.00
md0               0.00     0.00 13274.00    0.00 53096.00     0.00     8.00     0.00    0.00    0.00    0.00   0.00   0.00

avg-cpu:  %user   %nice %system %iowait  %steal   %idle
          22.49    0.00    6.60    1.22    0.00   69.68

Device:         rrqm/s   wrqm/s     r/s     w/s    rkB/s    wkB/s avgrq-sz avgqu-sz   await r_await w_await  svctm  %util
sda               0.00     0.00 2202.00    0.00  8808.00     0.00     8.00     0.15    0.07    0.07    0.00   0.07  15.40
sdb               0.00     0.00 2136.00    0.00  8544.00     0.00     8.00     0.14    0.06    0.06    0.00   0.06  13.70
sdc               0.00     0.00 2268.00    0.00  9072.00     0.00     8.00     0.15    0.07    0.07    0.00   0.07  15.20
sdd               0.00     0.00 2177.00    0.00  8708.00     0.00     8.00     0.16    0.07    0.07    0.00   0.07  15.60
sde               0.00     0.00 2160.00    0.00  8640.00     0.00     8.00     0.16    0.07    0.07    0.00   0.07  15.70
sdf               0.00     0.00 2275.00    0.00  9100.00     0.00     8.00     0.15    0.07    0.07    0.00   0.07  15.40
sdg               0.00     0.00    0.00    0.00     0.00     0.00     0.00     0.00    0.00    0.00    0.00   0.00   0.00
sdh               0.00     0.00    0.00    0.00     0.00     0.00     0.00     0.00    0.00    0.00    0.00   0.00   0.00
md0               0.00     0.00 13218.00    0.00 52872.00     0.00     8.00     0.00    0.00    0.00    0.00   0.00   0.00

avg-cpu:  %user   %nice %system %iowait  %steal   %idle
          22.79    0.00    6.13    1.23    0.00   69.85

Device:         rrqm/s   wrqm/s     r/s     w/s    rkB/s    wkB/s avgrq-sz avgqu-sz   await r_await w_await  svctm  %util
sda               0.00     0.00 2304.00    0.00  9216.00     0.00     8.00     0.15    0.07    0.07    0.00   0.07  15.10
sdb               0.00     0.00 2393.00    0.00  9572.00     0.00     8.00     0.16    0.07    0.07    0.00   0.07  15.60
sdc               0.00     0.00 2207.00    0.00  8828.00     0.00     8.00     0.15    0.07    0.07    0.00   0.07  14.80
sdd               0.00     0.00 2028.00    0.00  8112.00     0.00     8.00     0.15    0.07    0.07    0.00   0.07  14.60
sde               0.00     0.00 2087.00    0.00  8348.00     0.00     8.00     0.14    0.07    0.07    0.00   0.07  14.40
sdf               0.00     0.00 2332.00    0.00  9328.00     0.00     8.00     0.16    0.07    0.07    0.00   0.07  15.70
sdg               0.00     0.00    0.00    0.00     0.00     0.00     0.00     0.00    0.00    0.00    0.00   0.00   0.00
sdh               0.00     0.00    0.00    0.00     0.00     0.00     0.00     0.00    0.00    0.00    0.00   0.00   0.00
md0               0.00     0.00 13351.00    0.00 53404.00     0.00     8.00     0.00    0.00    0.00    0.00   0.00   0.00

