Linux 4.17.2 (bench) 	08/03/2018 	_x86_64_	(4 CPU)

avg-cpu:  %user   %nice %system %iowait  %steal   %idle
          10.26    0.02    4.17    2.73    0.00   82.82

Device:         rrqm/s   wrqm/s     r/s     w/s    rkB/s    wkB/s avgrq-sz avgqu-sz   await r_await w_await  svctm  %util
sda              53.44     4.19 1725.13  101.13 21339.86  3094.48    26.76     1.05    0.57    0.26    5.92   0.06  11.04
sdb              53.25     4.15 1725.13  101.27 21329.42  3091.19    26.74     1.05    0.57    0.26    5.85   0.06  10.91
sdc              90.99     4.21 1685.29  100.83 21321.59  3093.62    27.34     1.47    0.82    0.44    7.12   0.08  14.41
sdd              84.52     4.17 1690.94  100.89 21306.62  3089.86    27.23     1.47    0.82    0.43    7.33   0.08  14.50
sde              86.52     4.22 1696.03  100.99 21366.00  3094.06    27.22     1.49    0.83    0.44    7.44   0.08  14.53
sdf              83.67     4.19 1698.13  100.94 21347.47  3090.96    27.17     1.54    0.85    0.44    7.90   0.08  14.56
sdg               0.00     3.17   26.81   73.25   325.94   391.98    14.35     0.44    4.39    0.20    5.93   0.08   0.78
sdh               0.00     0.13    0.02    0.23     2.18     4.99    56.82     0.00    1.15    0.65    1.19   0.21   0.01
md0               0.00     0.00 10680.44  473.84 146256.91 21181.31    30.02     0.00    0.00    0.00    0.00   0.00   0.00

avg-cpu:  %user   %nice %system %iowait  %steal   %idle
          24.34    0.03    2.57    8.80    0.00   64.27

Device:         rrqm/s   wrqm/s     r/s     w/s    rkB/s    wkB/s avgrq-sz avgqu-sz   await r_await w_await  svctm  %util
sda               5.55     0.00 1259.25    0.00 22410.20     0.00    35.59     0.19    0.15    0.15    0.00   0.14  17.07
sdb               5.05     0.00 1266.85    0.00 21302.40     0.00    33.63     0.18    0.14    0.14    0.00   0.13  16.72
sdc               4.60     0.00 1253.90    0.00 21294.00     0.00    33.96     0.22    0.17    0.17    0.00   0.16  19.48
sdd               4.45     0.00 1264.40    0.00 21939.20     0.00    34.70     0.22    0.17    0.17    0.00   0.16  19.91
sde               5.10     0.00 1256.65    0.00 21849.00     0.00    34.77     0.22    0.18    0.18    0.00   0.16  20.02
sdf               5.70     0.00 1265.60    0.00 21920.00     0.00    34.64     0.22    0.17    0.17    0.00   0.16  19.79
sdg               0.00     3.65   68.30  128.40   292.40   642.00     9.50     0.78    3.99    0.12    6.05   0.07   1.35
sdh               0.00     0.00    0.00    0.00     0.00     0.00     0.00     0.00    0.00    0.00    0.00   0.00   0.00
md0               0.00     0.00 7597.25    0.00 148375.40     0.00    39.06     0.00    0.00    0.00    0.00   0.00   0.00

