Linux 4.17.2 (bench) 	08/03/2018 	_x86_64_	(4 CPU)

avg-cpu:  %user   %nice %system %iowait  %steal   %idle
          10.27    0.02    4.10    2.62    0.00   82.99

Device:         rrqm/s   wrqm/s     r/s     w/s    rkB/s    wkB/s avgrq-sz avgqu-sz   await r_await w_await  svctm  %util
sda              47.32     4.22 1678.01  102.06 21086.71  3122.84    27.20     1.04    0.58    0.26    5.92   0.06  10.83
sdb              47.17     4.18 1677.97  102.20 21076.20  3119.52    27.18     1.04    0.58    0.26    5.85   0.06  10.71
sdc              85.00     4.24 1638.05  101.75 21068.33  3121.97    27.81     1.46    0.84    0.45    7.12   0.08  14.18
sdd              78.46     4.21 1643.76  101.82 21053.23  3118.18    27.69     1.46    0.84    0.44    7.33   0.08  14.28
sde              80.47     4.26 1648.84  101.92 21112.88  3122.41    27.69     1.48    0.85    0.44    7.44   0.08  14.30
sdf              77.60     4.23 1650.97  101.86 21094.21  3119.29    27.63     1.53    0.87    0.44    7.90   0.08  14.33
sdg               0.00     3.17   26.47   73.30   324.61   392.04    14.37     0.44    4.41    0.20    5.93   0.08   0.78
sdh               0.00     0.13    0.02    0.23     2.20     5.04    56.82     0.00    1.15    0.65    1.19   0.21   0.01
md0               0.00     0.00 10360.57  478.18 144498.41 21375.43    30.61     0.00    0.00    0.00    0.00   0.00   0.00

avg-cpu:  %user   %nice %system %iowait  %steal   %idle
          24.56    0.00    2.53    0.76    0.00   72.15

Device:         rrqm/s   wrqm/s     r/s     w/s    rkB/s    wkB/s avgrq-sz avgqu-sz   await r_await w_await  svctm  %util
sda               0.00     0.00 1465.00    0.00  5860.00     0.00     8.00     0.14    0.10    0.10    0.00   0.10  14.50
sdb               0.00     0.00 1461.00    0.00  5844.00     0.00     8.00     0.15    0.10    0.10    0.00   0.10  15.20
sdc               0.00     0.00 1464.00    0.00  5856.00     0.00     8.00     0.14    0.09    0.09    0.00   0.09  13.80
sdd               0.00     0.00 1560.00    0.00  6240.00     0.00     8.00     0.14    0.09    0.09    0.00   0.09  13.80
sde               0.00     0.00 1494.00    0.00  5976.00     0.00     8.00     0.16    0.11    0.11    0.00   0.11  16.30
sdf               0.00     0.00 1503.00    0.00  6012.00     0.00     8.00     0.15    0.10    0.10    0.00   0.10  15.40
sdg               0.00     0.00    4.00    0.00   104.00     0.00    52.00     0.00    0.25    0.25    0.00   0.25   0.10
sdh               0.00     0.00    0.00    0.00     0.00     0.00     0.00     0.00    0.00    0.00    0.00   0.00   0.00
md0               0.00     0.00 8949.00    0.00 35796.00     0.00     8.00     0.00    0.00    0.00    0.00   0.00   0.00

avg-cpu:  %user   %nice %system %iowait  %steal   %idle
          24.62    0.00    2.28    1.02    0.00   72.08

Device:         rrqm/s   wrqm/s     r/s     w/s    rkB/s    wkB/s avgrq-sz avgqu-sz   await r_await w_await  svctm  %util
sda               0.00     0.00 1479.00    0.00  5916.00     0.00     8.00     0.15    0.10    0.10    0.00   0.10  14.60
sdb               0.00     0.00 1513.00    0.00  6052.00     0.00     8.00     0.14    0.09    0.09    0.00   0.10  14.40
sdc               0.00     0.00 1539.00    0.00  6156.00     0.00     8.00     0.14    0.09    0.09    0.00   0.09  13.70
sdd               0.00     0.00 1456.00    0.00  5824.00     0.00     8.00     0.15    0.10    0.10    0.00   0.10  15.00
sde               0.00     0.00 1607.00    0.00  6428.00     0.00     8.00     0.17    0.10    0.10    0.00   0.10  16.70
sdf               0.00     0.00 1472.00    0.00  5888.00     0.00     8.00     0.17    0.11    0.11    0.00   0.11  16.50
sdg               0.00     0.00    0.00    0.00     0.00     0.00     0.00     0.00    0.00    0.00    0.00   0.00   0.00
sdh               0.00     0.00    0.00    0.00     0.00     0.00     0.00     0.00    0.00    0.00    0.00   0.00   0.00
md0               0.00     0.00 9065.00    0.00 36260.00     0.00     8.00     0.00    0.00    0.00    0.00   0.00   0.00

avg-cpu:  %user   %nice %system %iowait  %steal   %idle
          23.93    0.25    4.03    6.30    0.00   65.49

Device:         rrqm/s   wrqm/s     r/s     w/s    rkB/s    wkB/s avgrq-sz avgqu-sz   await r_await w_await  svctm  %util
sda               0.00     0.00 1480.00    0.00  5920.00     0.00     8.00     0.15    0.10    0.10    0.00   0.10  15.00
sdb               0.00     0.00 1487.00    0.00  5948.00     0.00     8.00     0.15    0.10    0.10    0.00   0.10  14.80
sdc               0.00     0.00 1486.00    0.00  5944.00     0.00     8.00     0.15    0.10    0.10    0.00   0.10  14.70
sdd               0.00     0.00 1499.00    0.00  5996.00     0.00     8.00     0.14    0.09    0.09    0.00   0.09  13.60
sde               0.00     0.00 1463.00    0.00  5852.00     0.00     8.00     0.17    0.12    0.12    0.00   0.12  17.50
sdf               0.00     0.00 1485.00    0.00  5940.00     0.00     8.00     0.14    0.10    0.10    0.00   0.10  14.20
sdg               0.00     0.00 1348.00    0.00  5464.00     0.00     8.11     0.15    0.11    0.11    0.00   0.11  14.80
sdh               0.00     0.00    0.00    0.00     0.00     0.00     0.00     0.00    0.00    0.00    0.00   0.00   0.00
md0               0.00     0.00 8901.00    0.00 35604.00     0.00     8.00     0.00    0.00    0.00    0.00   0.00   0.00

avg-cpu:  %user   %nice %system %iowait  %steal   %idle
          25.13    0.00    1.78    1.02    0.00   72.08

Device:         rrqm/s   wrqm/s     r/s     w/s    rkB/s    wkB/s avgrq-sz avgqu-sz   await r_await w_await  svctm  %util
sda               0.00     0.00 1509.00    0.00  6036.00     0.00     8.00     0.16    0.10    0.10    0.00   0.10  15.70
sdb               0.00     0.00 1519.00    0.00  6076.00     0.00     8.00     0.16    0.10    0.10    0.00   0.10  15.90
sdc               0.00     0.00 1496.00    0.00  5984.00     0.00     8.00     0.16    0.11    0.11    0.00   0.11  16.10
sdd               0.00     0.00 1535.00    0.00  6140.00     0.00     8.00     0.14    0.09    0.09    0.00   0.09  14.30
sde               0.00     0.00 1495.00    0.00  5980.00     0.00     8.00     0.14    0.10    0.10    0.00   0.10  14.40
sdf               0.00     0.00 1509.00    0.00  6036.00     0.00     8.00     0.15    0.10    0.10    0.00   0.10  15.50
sdg               0.00     0.00    0.00    0.00     0.00     0.00     0.00     0.00    0.00    0.00    0.00   0.00   0.00
sdh               0.00     0.00    0.00    0.00     0.00     0.00     0.00     0.00    0.00    0.00    0.00   0.00   0.00
md0               0.00     0.00 9063.00    0.00 36252.00     0.00     8.00     0.00    0.00    0.00    0.00   0.00   0.00

avg-cpu:  %user   %nice %system %iowait  %steal   %idle
          24.24    0.00    2.78    1.01    0.00   71.97

Device:         rrqm/s   wrqm/s     r/s     w/s    rkB/s    wkB/s avgrq-sz avgqu-sz   await r_await w_await  svctm  %util
sda               0.00     0.00 1512.00    0.00  6048.00     0.00     8.00     0.15    0.10    0.10    0.00   0.10  15.40
sdb               0.00     0.00 1562.00    0.00  6248.00     0.00     8.00     0.14    0.09    0.09    0.00   0.09  14.10
sdc               0.00     0.00 1526.00    0.00  6104.00     0.00     8.00     0.15    0.10    0.10    0.00   0.10  15.50
sdd               0.00     0.00 1503.00    0.00  6012.00     0.00     8.00     0.14    0.10    0.10    0.00   0.10  14.50
sde               0.00     0.00 1476.00    0.00  5904.00     0.00     8.00     0.14    0.10    0.10    0.00   0.10  14.30
sdf               0.00     0.00 1486.00    0.00  5944.00     0.00     8.00     0.16    0.10    0.10    0.00   0.10  15.60
sdg               0.00     0.00    0.00    0.00     0.00     0.00     0.00     0.00    0.00    0.00    0.00   0.00   0.00
sdh               0.00     0.00    0.00    0.00     0.00     0.00     0.00     0.00    0.00    0.00    0.00   0.00   0.00
md0               0.00     0.00 9064.00    0.00 36256.00     0.00     8.00     0.00    0.00    0.00    0.00   0.00   0.00

avg-cpu:  %user   %nice %system %iowait  %steal   %idle
          24.74    0.00    1.79    1.02    0.00   72.45

Device:         rrqm/s   wrqm/s     r/s     w/s    rkB/s    wkB/s avgrq-sz avgqu-sz   await r_await w_await  svctm  %util
sda               0.00     0.00 1499.00    0.00  5996.00     0.00     8.00     0.15    0.10    0.10    0.00   0.10  15.40
sdb               0.00     0.00 1462.00    0.00  5848.00     0.00     8.00     0.14    0.10    0.10    0.00   0.10  13.90
sdc               0.00     0.00 1531.00    0.00  6124.00     0.00     8.00     0.13    0.09    0.09    0.00   0.09  13.40
sdd               0.00     0.00 1545.00    0.00  6180.00     0.00     8.00     0.18    0.11    0.11    0.00   0.11  17.60
sde               0.00     0.00 1480.00    0.00  5920.00     0.00     8.00     0.16    0.11    0.11    0.00   0.11  15.90
sdf               0.00     0.00 1537.00    0.00  6148.00     0.00     8.00     0.15    0.10    0.10    0.00   0.10  15.50
sdg               0.00     0.00    0.00    0.00     0.00     0.00     0.00     0.00    0.00    0.00    0.00   0.00   0.00
sdh               0.00     0.00    0.00    0.00     0.00     0.00     0.00     0.00    0.00    0.00    0.00   0.00   0.00
md0               0.00     0.00 9054.00    0.00 36216.00     0.00     8.00     0.00    0.00    0.00    0.00   0.00   0.00

avg-cpu:  %user   %nice %system %iowait  %steal   %idle
          24.31    0.00    3.76   20.05    0.00   51.88

Device:         rrqm/s   wrqm/s     r/s     w/s    rkB/s    wkB/s avgrq-sz avgqu-sz   await r_await w_await  svctm  %util
sda               0.00     0.00 1511.00    0.00  6044.00     0.00     8.00     0.16    0.11    0.11    0.00   0.11  16.10
sdb               0.00     0.00 1463.00    0.00  5852.00     0.00     8.00     0.13    0.09    0.09    0.00   0.09  13.20
sdc               0.00     0.00 1517.00    0.00  6068.00     0.00     8.00     0.16    0.11    0.11    0.00   0.11  16.10
sdd               0.00     0.00 1485.00    0.00  5940.00     0.00     8.00     0.15    0.10    0.10    0.00   0.10  15.50
sde               0.00     0.00 1489.00    0.00  5956.00     0.00     8.00     0.15    0.10    0.10    0.00   0.10  14.60
sdf               0.00     0.00 1521.00    0.00  6084.00     0.00     8.00     0.14    0.09    0.09    0.00   0.09  14.40
sdg               0.00     0.00    0.00    0.00     0.00     0.00     0.00     0.00    0.00    0.00    0.00   0.00   0.00
sdh               0.00     0.00    0.00    0.00     0.00     0.00     0.00     0.00    0.00    0.00    0.00   0.00   0.00
md0               0.00     0.00 8988.00    0.00 35952.00     0.00     8.00     0.00    0.00    0.00    0.00   0.00   0.00

avg-cpu:  %user   %nice %system %iowait  %steal   %idle
          24.43    0.00    3.02   21.41    0.00   51.13

Device:         rrqm/s   wrqm/s     r/s     w/s    rkB/s    wkB/s avgrq-sz avgqu-sz   await r_await w_await  svctm  %util
sda               0.00     0.00 1518.00    0.00  6072.00     0.00     8.00     0.14    0.09    0.09    0.00   0.09  14.20
sdb               0.00     0.00 1511.00    0.00  6044.00     0.00     8.00     0.14    0.09    0.09    0.00   0.09  14.10
sdc               0.00     0.00 1499.00    0.00  5996.00     0.00     8.00     0.15    0.10    0.10    0.00   0.10  15.50
sdd               0.00     0.00 1493.00    0.00  5972.00     0.00     8.00     0.14    0.10    0.10    0.00   0.10  14.40
sde               0.00     0.00 1457.00    0.00  5828.00     0.00     8.00     0.17    0.12    0.12    0.00   0.12  17.40
sdf               0.00     0.00 1475.00    0.00  5900.00     0.00     8.00     0.15    0.10    0.10    0.00   0.10  15.40
sdg               0.00     0.00    0.00    0.00     0.00     0.00     0.00     0.00    0.00    0.00    0.00   0.00   0.00
sdh               0.00     0.00    0.00    0.00     0.00     0.00     0.00     0.00    0.00    0.00    0.00   0.00   0.00
md0               0.00     0.00 8951.00    0.00 35804.00     0.00     8.00     0.00    0.00    0.00    0.00   0.00   0.00

avg-cpu:  %user   %nice %system %iowait  %steal   %idle
          24.37    0.00    3.27   12.56    0.00   59.80

Device:         rrqm/s   wrqm/s     r/s     w/s    rkB/s    wkB/s avgrq-sz avgqu-sz   await r_await w_await  svctm  %util
sda               0.00     0.00 1507.00    0.00  6028.00     0.00     8.00     0.17    0.11    0.11    0.00   0.11  16.50
sdb               0.00     0.00 1519.00    0.00  6076.00     0.00     8.00     0.13    0.09    0.09    0.00   0.09  13.40
sdc               0.00     0.00 1536.00    0.00  6144.00     0.00     8.00     0.14    0.09    0.09    0.00   0.09  14.10
sdd               0.00     0.00 1435.00    0.00  5740.00     0.00     8.00     0.16    0.11    0.11    0.00   0.11  16.10
sde               0.00     0.00 1445.00    0.00  5780.00     0.00     8.00     0.16    0.11    0.11    0.00   0.11  15.90
sdf               0.00     0.00 1494.00    0.00  5976.00     0.00     8.00     0.13    0.09    0.09    0.00   0.09  13.10
sdg               0.00     0.00    0.00    0.00     0.00     0.00     0.00     0.00    0.00    0.00    0.00   0.00   0.00
sdh               0.00     0.00    0.00    0.00     0.00     0.00     0.00     0.00    0.00    0.00    0.00   0.00   0.00
md0               0.00     0.00 8937.00    0.00 35748.00     0.00     8.00     0.00    0.00    0.00    0.00   0.00   0.00

avg-cpu:  %user   %nice %system %iowait  %steal   %idle
          24.87    0.00    3.02    9.05    0.00   63.07

Device:         rrqm/s   wrqm/s     r/s     w/s    rkB/s    wkB/s avgrq-sz avgqu-sz   await r_await w_await  svctm  %util
sda               0.00     0.00 1519.00    0.00  6076.00     0.00     8.00     0.13    0.08    0.08    0.00   0.08  12.70
sdb               0.00     0.00 1470.00    0.00  5888.00     0.00     8.01     0.15    0.10    0.10    0.00   0.10  15.10
sdc               0.00     0.00 1519.00    0.00  6076.00     0.00     8.00     0.15    0.10    0.10    0.00   0.10  14.60
sdd               0.00     0.00 1461.00    0.00  5844.00     0.00     8.00     0.14    0.09    0.09    0.00   0.09  13.60
sde               0.00     0.00 1537.00    0.00  6148.00     0.00     8.00     0.20    0.13    0.13    0.00   0.13  20.00
sdf               0.00     0.00 1500.00    0.00  6000.00     0.00     8.00     0.14    0.09    0.09    0.00   0.09  13.90
sdg               0.00     0.00   52.00    1.00   932.00     4.00    35.32     0.01    0.19    0.19    0.00   0.19   1.00
sdh               0.00     0.00    0.00    0.00     0.00     0.00     0.00     0.00    0.00    0.00    0.00   0.00   0.00
md0               0.00     0.00 9005.00    0.00 36028.00     0.00     8.00     0.00    0.00    0.00    0.00   0.00   0.00

avg-cpu:  %user   %nice %system %iowait  %steal   %idle
          24.62    0.00    2.28    3.30    0.00   69.80

Device:         rrqm/s   wrqm/s     r/s     w/s    rkB/s    wkB/s avgrq-sz avgqu-sz   await r_await w_await  svctm  %util
sda               0.00     0.00 1501.00    0.00  6004.00     0.00     8.00     0.15    0.10    0.10    0.00   0.10  14.80
sdb               0.00     0.00 1445.00    0.00  5780.00     0.00     8.00     0.12    0.08    0.08    0.00   0.08  12.20
sdc               0.00     0.00 1515.00    0.00  6060.00     0.00     8.00     0.16    0.11    0.11    0.00   0.11  16.20
sdd               0.00     0.00 1544.00    0.00  6176.00     0.00     8.00     0.15    0.10    0.10    0.00   0.10  15.40
sde               0.00     0.00 1495.00    0.00  5980.00     0.00     8.00     0.16    0.11    0.11    0.00   0.11  15.70
sdf               0.00     0.00 1534.00    0.00  6136.00     0.00     8.00     0.17    0.11    0.11    0.00   0.11  16.90
sdg               0.00     0.00    0.00    0.00     0.00     0.00     0.00     0.00    0.00    0.00    0.00   0.00   0.00
sdh               0.00     0.00    0.00    0.00     0.00     0.00     0.00     0.00    0.00    0.00    0.00   0.00   0.00
md0               0.00     0.00 9035.00    0.00 36140.00     0.00     8.00     0.00    0.00    0.00    0.00   0.00   0.00

avg-cpu:  %user   %nice %system %iowait  %steal   %idle
          24.69    0.00    2.77    1.01    0.00   71.54

Device:         rrqm/s   wrqm/s     r/s     w/s    rkB/s    wkB/s avgrq-sz avgqu-sz   await r_await w_await  svctm  %util
sda               0.00     0.00 1489.00    0.00  5956.00     0.00     8.00     0.16    0.11    0.11    0.00   0.11  16.20
sdb               0.00     0.00 1485.00    0.00  5940.00     0.00     8.00     0.13    0.09    0.09    0.00   0.09  13.10
sdc               0.00     0.00 1572.00    0.00  6288.00     0.00     8.00     0.16    0.10    0.10    0.00   0.10  16.10
sdd               0.00     0.00 1518.00    0.00  6072.00     0.00     8.00     0.15    0.10    0.10    0.00   0.10  14.90
sde               0.00     0.00 1472.00    0.00  5888.00     0.00     8.00     0.15    0.10    0.10    0.00   0.10  15.20
sdf               0.00     0.00 1479.00    0.00  5916.00     0.00     8.00     0.15    0.10    0.10    0.00   0.10  15.10
sdg               0.00     0.00    0.00    0.00     0.00     0.00     0.00     0.00    0.00    0.00    0.00   0.00   0.00
sdh               0.00     0.00    0.00    0.00     0.00     0.00     0.00     0.00    0.00    0.00    0.00   0.00   0.00
md0               0.00     0.00 9016.00    0.00 36064.00     0.00     8.00     0.00    0.00    0.00    0.00   0.00   0.00

avg-cpu:  %user   %nice %system %iowait  %steal   %idle
          24.62    0.25    2.54    1.02    0.00   71.57

Device:         rrqm/s   wrqm/s     r/s     w/s    rkB/s    wkB/s avgrq-sz avgqu-sz   await r_await w_await  svctm  %util
sda               0.00     0.00 1478.00    0.00  5912.00     0.00     8.00     0.14    0.09    0.09    0.00   0.09  13.90
sdb               0.00     0.00 1472.00    0.00  5888.00     0.00     8.00     0.14    0.10    0.10    0.00   0.10  14.00
sdc               0.00     0.00 1434.00    0.00  5744.00     0.00     8.01     0.14    0.10    0.10    0.00   0.10  14.10
sdd               0.00     0.00 1536.00    0.00  6144.00     0.00     8.00     0.16    0.10    0.10    0.00   0.10  16.00
sde               0.00     0.00 1463.00    0.00  5852.00     0.00     8.00     0.16    0.11    0.11    0.00   0.11  16.00
sdf               0.00     0.00 1394.00    0.00  5576.00     0.00     8.00     0.16    0.11    0.11    0.00   0.11  15.90
sdg               0.00     0.00    4.00    0.00    16.00     0.00     8.00     0.00    0.00    0.00    0.00   0.00   0.00
sdh               0.00     0.00    0.00    0.00     0.00     0.00     0.00     0.00    0.00    0.00    0.00   0.00   0.00
md0               0.00     0.00 8774.00    0.00 35104.00     0.00     8.00     0.00    0.00    0.00    0.00   0.00   0.00

avg-cpu:  %user   %nice %system %iowait  %steal   %idle
          24.56    0.00    2.78    7.59    0.00   65.06

Device:         rrqm/s   wrqm/s     r/s     w/s    rkB/s    wkB/s avgrq-sz avgqu-sz   await r_await w_await  svctm  %util
sda               0.00     0.00 1502.00    0.00  6008.00     0.00     8.00     0.15    0.10    0.10    0.00   0.10  14.60
sdb               0.00     0.00 1484.00    0.00  5936.00     0.00     8.00     0.13    0.09    0.09    0.00   0.09  12.70
sdc               0.00     0.00 1497.00    0.00  5988.00     0.00     8.00     0.15    0.10    0.10    0.00   0.10  15.10
sdd               0.00     0.00 1434.00    0.00  5736.00     0.00     8.00     0.14    0.10    0.10    0.00   0.10  14.40
sde               0.00     0.00 1518.00    0.00  6072.00     0.00     8.00     0.16    0.11    0.11    0.00   0.11  16.30
sdf               0.00     0.00 1480.00    0.00  5920.00     0.00     8.00     0.17    0.11    0.11    0.00   0.11  16.50
sdg               0.00     0.00    0.00    0.00     0.00     0.00     0.00     0.00    0.00    0.00    0.00   0.00   0.00
sdh               0.00     0.00    0.00    0.00     0.00     0.00     0.00     0.00    0.00    0.00    0.00   0.00   0.00
md0               0.00     0.00 8917.00    0.00 35668.00     0.00     8.00     0.00    0.00    0.00    0.00   0.00   0.00

avg-cpu:  %user   %nice %system %iowait  %steal   %idle
          24.56    0.00    2.28    1.01    0.00   72.15

Device:         rrqm/s   wrqm/s     r/s     w/s    rkB/s    wkB/s avgrq-sz avgqu-sz   await r_await w_await  svctm  %util
sda               0.00     0.00 1488.00    0.00  5952.00     0.00     8.00     0.14    0.09    0.09    0.00   0.09  13.80
sdb               0.00     0.00 1536.00    0.00  6144.00     0.00     8.00     0.14    0.09    0.09    0.00   0.09  13.80
sdc               0.00     0.00 1480.00    0.00  5920.00     0.00     8.00     0.16    0.11    0.11    0.00   0.11  15.70
sdd               0.00     0.00 1573.00    0.00  6292.00     0.00     8.00     0.15    0.10    0.10    0.00   0.10  15.40
sde               0.00     0.00 1512.00    0.00  6048.00     0.00     8.00     0.16    0.10    0.10    0.00   0.10  15.80
sdf               0.00     0.00 1450.00    0.00  5800.00     0.00     8.00     0.17    0.11    0.11    0.00   0.11  16.50
sdg               0.00     0.00    0.00    0.00     0.00     0.00     0.00     0.00    0.00    0.00    0.00   0.00   0.00
sdh               0.00     0.00    0.00    0.00     0.00     0.00     0.00     0.00    0.00    0.00    0.00   0.00   0.00
md0               0.00     0.00 9040.00    0.00 36160.00     0.00     8.00     0.00    0.00    0.00    0.00   0.00   0.00

avg-cpu:  %user   %nice %system %iowait  %steal   %idle
          24.81    0.00    2.53    1.52    0.00   71.14

Device:         rrqm/s   wrqm/s     r/s     w/s    rkB/s    wkB/s avgrq-sz avgqu-sz   await r_await w_await  svctm  %util
sda               0.00     0.00 1459.00    0.00  5836.00     0.00     8.00     0.16    0.11    0.11    0.00   0.11  15.60
sdb               0.00     0.00 1505.00    0.00  6020.00     0.00     8.00     0.14    0.09    0.09    0.00   0.09  13.90
sdc               0.00     0.00 1530.00    0.00  6120.00     0.00     8.00     0.15    0.10    0.10    0.00   0.10  14.90
sdd               0.00     0.00 1477.00    0.00  5908.00     0.00     8.00     0.14    0.09    0.09    0.00   0.09  13.50
sde               0.00     0.00 1482.00    0.00  5928.00     0.00     8.00     0.17    0.12    0.12    0.00   0.12  17.10
sdf               0.00     0.00 1544.00    0.00  6176.00     0.00     8.00     0.15    0.10    0.10    0.00   0.10  15.00
sdg               0.00     0.00    1.00    7.00    16.00   152.00    42.00     0.00    0.38    0.00    0.43   0.12   0.10
sdh               0.00     0.00    0.00    0.00     0.00     0.00     0.00     0.00    0.00    0.00    0.00   0.00   0.00
md0               0.00     0.00 8996.00    0.00 35984.00     0.00     8.00     0.00    0.00    0.00    0.00   0.00   0.00

avg-cpu:  %user   %nice %system %iowait  %steal   %idle
          24.49    0.00    2.53    1.77    0.00   71.21

Device:         rrqm/s   wrqm/s     r/s     w/s    rkB/s    wkB/s avgrq-sz avgqu-sz   await r_await w_await  svctm  %util
sda               0.00     0.00 1466.00    0.00  5864.00     0.00     8.00     0.15    0.10    0.10    0.00   0.10  15.30
sdb               0.00     0.00 1491.00    0.00  5964.00     0.00     8.00     0.13    0.08    0.08    0.00   0.08  12.60
sdc               0.00     0.00 1440.00    0.00  5760.00     0.00     8.00     0.15    0.10    0.10    0.00   0.10  14.90
sdd               0.00     0.00 1459.00    0.00  5836.00     0.00     8.00     0.15    0.11    0.11    0.00   0.10  15.30
sde               0.00     0.00 1461.00    0.00  5844.00     0.00     8.00     0.15    0.10    0.10    0.00   0.10  14.60
sdf               0.00     0.00 1457.00    0.00  5828.00     0.00     8.00     0.17    0.11    0.11    0.00   0.11  16.70
sdg               0.00     0.00    0.00    1.00     0.00     4.00     8.00     0.00    0.00    0.00    0.00   0.00   0.00
sdh               0.00     0.00    0.00    0.00     0.00     0.00     0.00     0.00    0.00    0.00    0.00   0.00   0.00
md0               0.00     0.00 8774.00    0.00 35096.00     0.00     8.00     0.00    0.00    0.00    0.00   0.00   0.00

avg-cpu:  %user   %nice %system %iowait  %steal   %idle
          24.68    0.00    2.04    1.02    0.00   72.26

Device:         rrqm/s   wrqm/s     r/s     w/s    rkB/s    wkB/s avgrq-sz avgqu-sz   await r_await w_await  svctm  %util
sda               0.00     0.00 1494.00    0.00  5976.00     0.00     8.00     0.13    0.08    0.08    0.00   0.08  12.60
sdb               0.00     0.00 1465.00    0.00  5860.00     0.00     8.00     0.14    0.09    0.09    0.00   0.09  13.80
sdc               0.00     0.00 1561.00    0.00  6244.00     0.00     8.00     0.17    0.11    0.11    0.00   0.11  17.30
sdd               0.00     0.00 1490.00    0.00  5960.00     0.00     8.00     0.15    0.10    0.10    0.00   0.10  15.40
sde               0.00     0.00 1458.00    0.00  5832.00     0.00     8.00     0.16    0.11    0.11    0.00   0.11  16.40
sdf               0.00     0.00 1538.00    0.00  6152.00     0.00     8.00     0.15    0.10    0.10    0.00   0.10  15.20
sdg               0.00     0.00    0.00    0.00     0.00     0.00     0.00     0.00    0.00    0.00    0.00   0.00   0.00
sdh               0.00     0.00    0.00    0.00     0.00     0.00     0.00     0.00    0.00    0.00    0.00   0.00   0.00
md0               0.00     0.00 9006.00    0.00 36024.00     0.00     8.00     0.00    0.00    0.00    0.00   0.00   0.00

avg-cpu:  %user   %nice %system %iowait  %steal   %idle
          24.87    0.00    2.03    1.02    0.00   72.08

Device:         rrqm/s   wrqm/s     r/s     w/s    rkB/s    wkB/s avgrq-sz avgqu-sz   await r_await w_await  svctm  %util
sda               0.00     0.00 1506.00    0.00  6024.00     0.00     8.00     0.15    0.10    0.10    0.00   0.10  15.20
sdb               0.00     0.00 1470.00    0.00  5880.00     0.00     8.00     0.12    0.08    0.08    0.00   0.08  11.90
sdc               0.00     0.00 1476.00    0.00  5904.00     0.00     8.00     0.17    0.11    0.11    0.00   0.11  16.50
sdd               0.00     0.00 1524.00    0.00  6096.00     0.00     8.00     0.18    0.12    0.12    0.00   0.12  17.60
sde               0.00     0.00 1446.00    0.00  5784.00     0.00     8.00     0.15    0.10    0.10    0.00   0.10  15.10
sdf               0.00     0.00 1570.00    0.00  6280.00     0.00     8.00     0.16    0.10    0.10    0.00   0.10  15.60
sdg               0.00     0.00    0.00    0.00     0.00     0.00     0.00     0.00    0.00    0.00    0.00   0.00   0.00
sdh               0.00     0.00    0.00    0.00     0.00     0.00     0.00     0.00    0.00    0.00    0.00   0.00   0.00
md0               0.00     0.00 8992.00    0.00 35968.00     0.00     8.00     0.00    0.00    0.00    0.00   0.00   0.00

avg-cpu:  %user   %nice %system %iowait  %steal   %idle
          24.43    0.00    3.27   11.08    0.00   61.21

Device:         rrqm/s   wrqm/s     r/s     w/s    rkB/s    wkB/s avgrq-sz avgqu-sz   await r_await w_await  svctm  %util
sda               0.00     0.00 1495.00    0.00  5980.00     0.00     8.00     0.14    0.10    0.10    0.00   0.09  14.20
sdb               0.00     0.00 1444.00    0.00  5776.00     0.00     8.00     0.14    0.10    0.10    0.00   0.10  14.20
sdc               0.00     0.00 1471.00    0.00  5884.00     0.00     8.00     0.15    0.11    0.11    0.00   0.11  15.50
sdd               0.00     0.00 1485.00    0.00  5940.00     0.00     8.00     0.16    0.11    0.11    0.00   0.11  16.00
sde               0.00     0.00 1479.00    0.00  5924.00     0.00     8.01     0.14    0.10    0.10    0.00   0.10  14.50
sdf               0.00     0.00 1479.00    0.00  5916.00     0.00     8.00     0.16    0.11    0.11    0.00   0.11  15.60
sdg               0.00     1.00    1.00    2.00     4.00    20.00    16.00     0.00    0.00    0.00    0.00   0.00   0.00
sdh               0.00     0.00    0.00    0.00     0.00     0.00     0.00     0.00    0.00    0.00    0.00   0.00   0.00
md0               0.00     0.00 8853.00    0.00 35420.00     0.00     8.00     0.00    0.00    0.00    0.00   0.00   0.00

