Linux 4.17.2 (bench) 	08/03/2018 	_x86_64_	(4 CPU)

avg-cpu:  %user   %nice %system %iowait  %steal   %idle
          10.26    0.02    4.17    2.73    0.00   82.83

Device:         rrqm/s   wrqm/s     r/s     w/s    rkB/s    wkB/s avgrq-sz avgqu-sz   await r_await w_await  svctm  %util
sda              53.45     4.19 1724.13  101.15 21337.29  3095.02    26.77     1.05    0.57    0.26    5.92   0.06  11.03
sdb              53.26     4.15 1724.13  101.29 21326.84  3091.72    26.75     1.05    0.57    0.26    5.85   0.06  10.91
sdc              91.01     4.21 1684.28  100.84 21319.02  3094.15    27.35     1.47    0.82    0.44    7.12   0.08  14.40
sdd              84.53     4.18 1689.93  100.91 21304.04  3090.40    27.24     1.47    0.82    0.43    7.33   0.08  14.50
sde              86.53     4.22 1695.01  101.01 21363.42  3094.59    27.24     1.49    0.83    0.44    7.44   0.08  14.52
sdf              83.68     4.19 1697.12  100.95 21344.90  3091.50    27.18     1.54    0.86    0.44    7.90   0.08  14.55
sdg               0.00     3.17   26.80   73.25   325.92   391.99    14.35     0.44    4.39    0.20    5.93   0.08   0.78
sdh               0.00     0.13    0.02    0.23     2.18     4.99    56.82     0.00    1.15    0.65    1.19   0.21   0.01
md0               0.00     0.00 10674.46  473.92 146243.39 21184.98    30.04     0.00    0.00    0.00    0.00   0.00   0.00

avg-cpu:  %user   %nice %system %iowait  %steal   %idle
          24.81    0.00    2.28   10.89    0.00   62.03

Device:         rrqm/s   wrqm/s     r/s     w/s    rkB/s    wkB/s avgrq-sz avgqu-sz   await r_await w_await  svctm  %util
sda               0.00     0.00 1453.00    0.00  6316.00     0.00     8.69     0.15    0.10    0.10    0.00   0.10  14.90
sdb               0.00     0.00 1500.00    0.00  6436.00     0.00     8.58     0.14    0.10    0.10    0.00   0.10  14.50
sdc               0.00     0.00 1482.00    0.00  6852.00     0.00     9.25     0.15    0.10    0.10    0.00   0.10  14.50
sdd               0.00     0.00 1527.00    0.00  7008.00     0.00     9.18     0.17    0.11    0.11    0.00   0.11  16.70
sde               0.00     0.00 1512.00    0.00  6800.00     0.00     8.99     0.17    0.11    0.11    0.00   0.11  16.60
sdf               0.00     0.00 1485.00    0.00  6528.00     0.00     8.79     0.16    0.11    0.11    0.00   0.11  15.90
sdg               0.00    18.00    1.00   66.00    16.00  1264.00    38.21     0.21    3.16    0.00    3.21   0.09   0.60
sdh               0.00     0.00    0.00    0.00     0.00     0.00     0.00     0.00    0.00    0.00    0.00   0.00   0.00
md0               0.00     0.00 8960.00    0.00 40240.00     0.00     8.98     0.00    0.00    0.00    0.00   0.00   0.00

