Linux 4.17.2 (bench) 	08/03/2018 	_x86_64_	(4 CPU)

avg-cpu:  %user   %nice %system %iowait  %steal   %idle
          10.27    0.02    4.09    2.60    0.00   83.02

Device:         rrqm/s   wrqm/s     r/s     w/s    rkB/s    wkB/s avgrq-sz avgqu-sz   await r_await w_await  svctm  %util
sda              47.06     4.23 1669.70  102.21 21012.90  3127.30    27.25     1.04    0.58    0.26    5.92   0.06  10.80
sdb              46.92     4.19 1669.65  102.34 21002.37  3123.98    27.23     1.03    0.58    0.26    5.85   0.06  10.68
sdc              84.79     4.25 1629.68  101.89 20994.47  3126.43    27.86     1.45    0.84    0.45    7.12   0.08  14.14
sdd              78.24     4.22 1635.41  101.96 20979.43  3122.64    27.75     1.46    0.84    0.44    7.33   0.08  14.23
sde              80.26     4.26 1640.48  102.06 21039.09  3126.87    27.74     1.48    0.85    0.44    7.44   0.08  14.26
sdf              77.38     4.23 1642.62  102.01 21020.39  3123.75    27.68     1.53    0.87    0.44    7.90   0.08  14.29
sdg               0.00     3.17   26.39   73.30   324.30   392.00    14.37     0.44    4.41    0.20    5.93   0.08   0.78
sdh               0.00     0.13    0.02    0.23     2.20     5.05    56.82     0.00    1.15    0.65    1.19   0.21   0.01
md0               0.00     0.00 10309.01  478.87 143931.36 21405.98    30.65     0.00    0.00    0.00    0.00   0.00   0.00

avg-cpu:  %user   %nice %system %iowait  %steal   %idle
          24.23    0.01    2.65    8.27    0.00   64.84

Device:         rrqm/s   wrqm/s     r/s     w/s    rkB/s    wkB/s avgrq-sz avgqu-sz   await r_await w_await  svctm  %util
sda               3.95     0.00 1237.95    0.00 20634.60     0.00    33.34     0.20    0.16    0.16    0.00   0.15  18.52
sdb               4.45     0.00 1245.50    0.00 21721.60     0.00    34.88     0.18    0.15    0.15    0.00   0.13  16.57
sdc               4.65     0.00 1219.50    0.00 21023.60     0.00    34.48     0.21    0.17    0.17    0.00   0.15  18.90
sdd               4.75     0.00 1251.45    0.00 21512.60     0.00    34.38     0.22    0.17    0.17    0.00   0.16  19.53
sde               5.25     0.00 1238.75    0.00 21591.40     0.00    34.86     0.22    0.17    0.17    0.00   0.16  19.56
sdf               4.95     0.00 1240.00    0.00 21513.20     0.00    34.70     0.21    0.17    0.17    0.00   0.16  19.45
sdg               0.00     2.90    1.15  121.20    12.00   596.80     9.95     0.72    5.90    0.26    5.96   0.04   0.53
sdh               0.00     0.00    0.00    0.00     0.00     0.00     0.00     0.00    0.00    0.00    0.00   0.00   0.00
md0               0.00     0.00 7461.30    0.00 145261.00     0.00    38.94     0.00    0.00    0.00    0.00   0.00   0.00

