Linux 4.17.2 (bench) 	08/03/2018 	_x86_64_	(4 CPU)

avg-cpu:  %user   %nice %system %iowait  %steal   %idle
          10.26    0.02    4.15    2.68    0.00   82.89

Device:         rrqm/s   wrqm/s     r/s     w/s    rkB/s    wkB/s avgrq-sz avgqu-sz   await r_await w_await  svctm  %util
sda              50.53     4.20 1706.89  101.51 21253.42  3106.09    26.94     1.04    0.58    0.26    5.92   0.06  10.96
sdb              50.36     4.16 1706.87  101.65 21242.97  3102.78    26.92     1.04    0.58    0.26    5.85   0.06  10.83
sdc              88.10     4.22 1667.02  101.20 21235.13  3105.22    27.53     1.46    0.83    0.44    7.12   0.08  14.32
sdd              81.60     4.19 1672.71  101.27 21220.18  3101.46    27.42     1.47    0.83    0.43    7.33   0.08  14.42
sde              83.61     4.23 1677.78  101.37 21279.62  3105.66    27.41     1.49    0.84    0.44    7.44   0.08  14.44
sdf              80.75     4.21 1679.90  101.31 21260.96  3102.56    27.36     1.53    0.86    0.44    7.90   0.08  14.47
sdg               0.00     3.17   26.67   73.28   325.44   392.04    14.36     0.44    4.40    0.20    5.93   0.08   0.78
sdh               0.00     0.13    0.02    0.23     2.19     5.01    56.82     0.00    1.15    0.65    1.19   0.21   0.01
md0               0.00     0.00 10553.35  475.62 145678.82 21260.77    30.27     0.00    0.00    0.00    0.00   0.00   0.00

avg-cpu:  %user   %nice %system %iowait  %steal   %idle
           1.25    0.00   50.75    0.75    0.00   47.25

Device:         rrqm/s   wrqm/s     r/s     w/s    rkB/s    wkB/s avgrq-sz avgqu-sz   await r_await w_await  svctm  %util
sda               0.00     0.00 32565.00    0.00 130260.00     0.00     8.00    44.20    1.35    1.35    0.00   0.02  76.80
sdb               0.00     0.00 32161.00    0.00 128644.00     0.00     8.00    43.51    1.35    1.35    0.00   0.02  76.00
sdc               0.00     0.00 32129.00    0.00 128516.00     0.00     8.00    50.51    1.57    1.57    0.00   0.03  81.30
sdd               1.00     0.00 32379.00    0.00 129520.00     0.00     8.00    51.47    1.59    1.59    0.00   0.03  82.20
sde               0.00     0.00 32397.00    0.00 129588.00     0.00     8.00    51.49    1.59    1.59    0.00   0.03  81.60
sdf               1.00     0.00 32595.00    0.00 130384.00     0.00     8.00    52.70    1.60    1.60    0.00   0.03  82.10
sdg               0.00     0.00    3.00    0.00    88.00     0.00    58.67     0.00    0.33    0.33    0.00   0.33   0.10
sdh               0.00     0.00    0.00    0.00     0.00     0.00     0.00     0.00    0.00    0.00    0.00   0.00   0.00
md0               0.00     0.00 194773.00    0.00 779092.00     0.00     8.00     0.00    0.00    0.00    0.00   0.00   0.00

avg-cpu:  %user   %nice %system %iowait  %steal   %idle
           1.00    0.25   51.75    1.00    0.00   46.00

Device:         rrqm/s   wrqm/s     r/s     w/s    rkB/s    wkB/s avgrq-sz avgqu-sz   await r_await w_await  svctm  %util
sda               0.00     0.00 32102.00    0.00 128408.00     0.00     8.00    41.40    1.29    1.29    0.00   0.02  75.80
sdb               1.00     0.00 32478.00    0.00 129916.00     0.00     8.00    42.75    1.31    1.31    0.00   0.02  76.40
sdc               1.00     0.00 32388.00    0.00 129556.00     0.00     8.00    49.70    1.53    1.53    0.00   0.03  81.00
sdd               0.00     0.00 32337.00    0.00 129348.00     0.00     8.00    50.15    1.54    1.54    0.00   0.03  82.10
sde               0.00     0.00 32420.00    0.00 129680.00     0.00     8.00    49.92    1.54    1.54    0.00   0.03  82.00
sdf               0.00     0.00 32477.00    0.00 129908.00     0.00     8.00    50.50    1.56    1.56    0.00   0.03  82.50
sdg               0.00     0.00   21.00    0.00   120.00     0.00    11.43     0.00    0.05    0.05    0.00   0.05   0.10
sdh               0.00     0.00    0.00    0.00     0.00     0.00     0.00     0.00    0.00    0.00    0.00   0.00   0.00
md0               0.00     0.00 193678.00    0.00 774712.00     0.00     8.00     0.00    0.00    0.00    0.00   0.00   0.00

avg-cpu:  %user   %nice %system %iowait  %steal   %idle
           1.24    0.00   52.24    0.50    0.00   46.02

Device:         rrqm/s   wrqm/s     r/s     w/s    rkB/s    wkB/s avgrq-sz avgqu-sz   await r_await w_await  svctm  %util
sda               0.00     0.00 32145.00    0.00 128580.00     0.00     8.00    41.17    1.28    1.28    0.00   0.02  76.40
sdb               0.00     0.00 32314.00    0.00 129256.00     0.00     8.00    41.60    1.28    1.28    0.00   0.02  76.70
sdc               0.00     0.00 32209.00    0.00 128836.00     0.00     8.00    48.51    1.50    1.50    0.00   0.03  81.00
sdd               1.00     0.00 32182.00    0.00 128732.00     0.00     8.00    48.91    1.51    1.51    0.00   0.03  81.40
sde               2.00     0.00 32494.00    0.00 129984.00     0.00     8.00    49.81    1.52    1.52    0.00   0.03  81.80
sdf               1.00     0.00 32341.00    0.00 129368.00     0.00     8.00    49.44    1.53    1.53    0.00   0.03  82.60
sdg               0.00     0.00    0.00    0.00     0.00     0.00     0.00     0.00    0.00    0.00    0.00   0.00   0.00
sdh               0.00     0.00    0.00    0.00     0.00     0.00     0.00     0.00    0.00    0.00    0.00   0.00   0.00
md0               0.00     0.00 194306.00    0.00 777224.00     0.00     8.00     0.00    0.00    0.00    0.00   0.00   0.00

avg-cpu:  %user   %nice %system %iowait  %steal   %idle
           1.26    0.00   51.51    0.75    0.00   46.48

Device:         rrqm/s   wrqm/s     r/s     w/s    rkB/s    wkB/s avgrq-sz avgqu-sz   await r_await w_await  svctm  %util
sda               0.00     0.00 32115.00    0.00 128460.00     0.00     8.00    41.11    1.28    1.28    0.00   0.02  75.50
sdb               1.00     0.00 32356.00    0.00 129428.00     0.00     8.00    41.54    1.28    1.28    0.00   0.02  75.60
sdc               1.00     0.00 32057.00    0.00 128232.00     0.00     8.00    48.07    1.50    1.50    0.00   0.02  80.10
sdd               0.00     0.00 32087.00    0.00 128348.00     0.00     8.00    48.22    1.50    1.50    0.00   0.03  80.70
sde               1.00     0.00 32285.00    0.00 129144.00     0.00     8.00    48.60    1.51    1.51    0.00   0.03  80.80
sdf               0.00     0.00 32186.00    0.00 128744.00     0.00     8.00    48.62    1.51    1.51    0.00   0.03  80.80
sdg               0.00     0.00    0.00    0.00     0.00     0.00     0.00     0.00    0.00    0.00    0.00   0.00   0.00
sdh               0.00     0.00    0.00    0.00     0.00     0.00     0.00     0.00    0.00    0.00    0.00   0.00   0.00
md0               0.00     0.00 193016.00    0.00 772064.00     0.00     8.00     0.00    0.00    0.00    0.00   0.00   0.00

avg-cpu:  %user   %nice %system %iowait  %steal   %idle
           1.50    0.00   52.37    0.50    0.00   45.64

Device:         rrqm/s   wrqm/s     r/s     w/s    rkB/s    wkB/s avgrq-sz avgqu-sz   await r_await w_await  svctm  %util
sda               0.00     0.00 32262.00    0.00 129048.00     0.00     8.00    39.27    1.21    1.21    0.00   0.02  76.50
sdb               0.00     0.00 32319.00    0.00 129276.00     0.00     8.00    39.71    1.23    1.23    0.00   0.02  76.30
sdc               0.00     0.00 32225.00    0.00 128900.00     0.00     8.00    46.72    1.45    1.45    0.00   0.03  81.40
sdd               1.00     0.00 32331.00    0.00 129328.00     0.00     8.00    47.07    1.45    1.45    0.00   0.03  82.20
sde               0.00     0.00 32192.00    0.00 128768.00     0.00     8.00    46.81    1.45    1.45    0.00   0.03  81.10
sdf               0.00     0.00 32053.00    0.00 128212.00     0.00     8.00    46.48    1.45    1.45    0.00   0.03  81.20
sdg               0.00     0.00    0.00    0.00     0.00     0.00     0.00     0.00    0.00    0.00    0.00   0.00   0.00
sdh               0.00     0.00    0.00    0.00     0.00     0.00     0.00     0.00    0.00    0.00    0.00   0.00   0.00
md0               0.00     0.00 193443.00    0.00 773772.00     0.00     8.00     0.00    0.00    0.00    0.00   0.00   0.00

avg-cpu:  %user   %nice %system %iowait  %steal   %idle
           1.01    0.00   53.15    0.50    0.00   45.34

Device:         rrqm/s   wrqm/s     r/s     w/s    rkB/s    wkB/s avgrq-sz avgqu-sz   await r_await w_await  svctm  %util
sda               2.00     0.00 32117.00    0.00 128476.00     0.00     8.00    37.78    1.18    1.18    0.00   0.02  74.50
sdb               0.00     0.00 32295.00    0.00 129180.00     0.00     8.00    38.73    1.20    1.20    0.00   0.02  75.80
sdc               0.00     0.00 32146.00    0.00 128584.00     0.00     8.00    45.56    1.42    1.42    0.00   0.02  79.60
sdd               0.00     0.00 32122.00    0.00 128488.00     0.00     8.00    45.70    1.42    1.42    0.00   0.02  80.00
sde               1.00     0.00 32419.00    0.00 129680.00     0.00     8.00    46.69    1.44    1.44    0.00   0.02  80.90
sdf               0.00     0.00 32657.00    0.00 130628.00     0.00     8.00    47.72    1.46    1.46    0.00   0.03  82.30
sdg               0.00     0.00    0.00    0.00     0.00     0.00     0.00     0.00    0.00    0.00    0.00   0.00   0.00
sdh               0.00     0.00    0.00    0.00     0.00     0.00     0.00     0.00    0.00    0.00    0.00   0.00   0.00
md0               0.00     0.00 193197.00    0.00 772788.00     0.00     8.00     0.00    0.00    0.00    0.00   0.00   0.00

avg-cpu:  %user   %nice %system %iowait  %steal   %idle
           1.25    0.00   53.12    0.50    0.00   45.14

Device:         rrqm/s   wrqm/s     r/s     w/s    rkB/s    wkB/s avgrq-sz avgqu-sz   await r_await w_await  svctm  %util
sda               0.00     0.00 32101.00    0.00 128404.00     0.00     8.00    37.95    1.18    1.18    0.00   0.02  75.90
sdb               0.00     0.00 32458.00    0.00 129832.00     0.00     8.00    39.09    1.20    1.20    0.00   0.02  75.90
sdc               0.00     0.00 32206.00    0.00 128824.00     0.00     8.00    45.59    1.42    1.42    0.00   0.03  81.10
sdd               0.00     0.00 32291.00    0.00 129164.00     0.00     8.00    46.09    1.43    1.43    0.00   0.03  81.50
sde               1.00     0.00 32115.00    0.00 128464.00     0.00     8.00    45.45    1.41    1.41    0.00   0.03  81.80
sdf               0.00     0.00 31969.00    0.00 127876.00     0.00     8.00    45.33    1.42    1.42    0.00   0.03  81.10
sdg               0.00     1.00   11.00    4.00    44.00    20.00     8.53     0.00    0.13    0.18    0.00   0.13   0.20
sdh               0.00     0.00    0.00    0.00     0.00     0.00     0.00     0.00    0.00    0.00    0.00   0.00   0.00
md0               0.00     0.00 193264.00    0.00 773056.00     0.00     8.00     0.00    0.00    0.00    0.00   0.00   0.00

avg-cpu:  %user   %nice %system %iowait  %steal   %idle
           1.26    0.00   55.56    1.01    0.00   42.17

Device:         rrqm/s   wrqm/s     r/s     w/s    rkB/s    wkB/s avgrq-sz avgqu-sz   await r_await w_await  svctm  %util
sda               0.00     0.00 31862.00    0.00 127448.00     0.00     8.00    35.89    1.12    1.12    0.00   0.02  75.10
sdb               0.00     0.00 31589.00    0.00 126356.00     0.00     8.00    35.37    1.12    1.12    0.00   0.02  74.60
sdc               0.00     0.00 31954.00    0.00 127816.00     0.00     8.00    43.01    1.34    1.34    0.00   0.03  80.40
sdd               0.00     0.00 31582.00    0.00 126328.00     0.00     8.00    42.38    1.34    1.34    0.00   0.03  79.80
sde               0.00     0.00 32229.00    0.00 128916.00     0.00     8.00    44.02    1.36    1.36    0.00   0.03  81.10
sdf               0.00     0.00 31760.00    0.00 127040.00     0.00     8.00    43.11    1.36    1.36    0.00   0.03  81.10
sdg               0.00    90.00   15.00 1439.00   116.00  7460.00    10.42     7.84    5.40    0.00    5.45   0.04   6.40
sdh               0.00     0.00    0.00    0.00     0.00     0.00     0.00     0.00    0.00    0.00    0.00   0.00   0.00
md0               0.00     0.00 191387.00    0.00 765548.00     0.00     8.00     0.00    0.00    0.00    0.00   0.00   0.00

avg-cpu:  %user   %nice %system %iowait  %steal   %idle
           1.26    0.00   56.53    0.75    0.00   41.46

Device:         rrqm/s   wrqm/s     r/s     w/s    rkB/s    wkB/s avgrq-sz avgqu-sz   await r_await w_await  svctm  %util
sda               0.00     0.00 31820.00    0.00 127280.00     0.00     8.00    37.69    1.19    1.19    0.00   0.02  76.30
sdb               0.00     0.00 31693.00    0.00 126772.00     0.00     8.00    37.38    1.18    1.18    0.00   0.02  76.30
sdc               0.00     0.00 32087.00    0.00 128348.00     0.00     8.00    45.62    1.42    1.42    0.00   0.03  81.10
sdd               0.00     0.00 31522.00    0.00 126088.00     0.00     8.00    44.07    1.40    1.40    0.00   0.03  79.80
sde               0.00     0.00 31587.00    0.00 126348.00     0.00     8.00    44.32    1.41    1.41    0.00   0.03  80.00
sdf               0.00     0.00 31651.00    0.00 126604.00     0.00     8.00    44.77    1.41    1.41    0.00   0.03  79.90
sdg               0.00     0.00    0.00    0.00     0.00     0.00     0.00     0.00    0.00    0.00    0.00   0.00   0.00
sdh               0.00     0.00    0.00    0.00     0.00     0.00     0.00     0.00    0.00    0.00    0.00   0.00   0.00
md0               0.00     0.00 189765.00    0.00 759060.00     0.00     8.00     0.00    0.00    0.00    0.00   0.00   0.00

avg-cpu:  %user   %nice %system %iowait  %steal   %idle
           1.26    0.00   56.68    0.50    0.00   41.56

Device:         rrqm/s   wrqm/s     r/s     w/s    rkB/s    wkB/s avgrq-sz avgqu-sz   await r_await w_await  svctm  %util
sda               0.00     0.00 32071.00    0.00 128284.00     0.00     8.00    38.30    1.19    1.19    0.00   0.02  75.50
sdb               1.00     0.00 31600.00    0.00 126404.00     0.00     8.00    36.79    1.16    1.16    0.00   0.02  75.70
sdc               0.00     0.00 31631.00    0.00 126524.00     0.00     8.00    44.05    1.39    1.39    0.00   0.02  79.00
sdd               0.00     0.00 31474.00    0.00 125896.00     0.00     8.00    43.69    1.38    1.38    0.00   0.03  78.90
sde               1.00     0.00 31960.00    0.00 127844.00     0.00     8.00    44.65    1.40    1.40    0.00   0.03  80.30
sdf               0.00     0.00 31704.00    0.00 126816.00     0.00     8.00    44.41    1.40    1.40    0.00   0.03  80.20
sdg               0.00     0.00    0.00    0.00     0.00     0.00     0.00     0.00    0.00    0.00    0.00   0.00   0.00
sdh               0.00     0.00    0.00    0.00     0.00     0.00     0.00     0.00    0.00    0.00    0.00   0.00   0.00
md0               0.00     0.00 190442.00    0.00 761768.00     0.00     8.00     0.00    0.00    0.00    0.00   0.00   0.00

avg-cpu:  %user   %nice %system %iowait  %steal   %idle
           1.00    0.00   56.64    0.75    0.00   41.60

Device:         rrqm/s   wrqm/s     r/s     w/s    rkB/s    wkB/s avgrq-sz avgqu-sz   await r_await w_await  svctm  %util
sda               0.00     0.00 32001.00    0.00 128004.00     0.00     8.00    38.13    1.19    1.19    0.00   0.02  76.90
sdb               0.00     0.00 31844.00    0.00 127376.00     0.00     8.00    38.12    1.19    1.19    0.00   0.02  76.30
sdc               0.00     0.00 31652.00    0.00 126608.00     0.00     8.00    44.42    1.40    1.40    0.00   0.03  80.00
sdd               0.00     0.00 31911.00    0.00 127644.00     0.00     8.00    45.36    1.42    1.42    0.00   0.03  80.80
sde               0.00     0.00 31910.00    0.00 127640.00     0.00     8.00    45.52    1.42    1.42    0.00   0.03  80.70
sdf               0.00     0.00 31699.00    0.00 126796.00     0.00     8.00    45.20    1.42    1.42    0.00   0.03  80.20
sdg               0.00     0.00    0.00    0.00     0.00     0.00     0.00     0.00    0.00    0.00    0.00   0.00   0.00
sdh               0.00     0.00    0.00    0.00     0.00     0.00     0.00     0.00    0.00    0.00    0.00   0.00   0.00
md0               0.00     0.00 191618.00    0.00 766472.00     0.00     8.00     0.00    0.00    0.00    0.00   0.00   0.00

avg-cpu:  %user   %nice %system %iowait  %steal   %idle
           1.27    0.25   58.23    6.08    0.00   34.18

Device:         rrqm/s   wrqm/s     r/s     w/s    rkB/s    wkB/s avgrq-sz avgqu-sz   await r_await w_await  svctm  %util
sda               0.00     0.00 31214.00    0.00 124856.00     0.00     8.00    34.74    1.11    1.11    0.00   0.02  76.40
sdb               0.00     0.00 31684.00    0.00 126736.00     0.00     8.00    35.87    1.13    1.13    0.00   0.02  76.90
sdc               1.00     0.00 31233.00    0.00 124936.00     0.00     8.00    41.34    1.32    1.32    0.00   0.03  80.40
sdd               0.00     0.00 31354.00    0.00 125416.00     0.00     8.00    41.77    1.33    1.33    0.00   0.03  80.90
sde               0.00     0.00 31438.00    0.00 125752.00     0.00     8.00    42.20    1.34    1.34    0.00   0.03  81.20
sdf               0.00     0.00 31804.00    0.00 127216.00     0.00     8.00    43.31    1.36    1.36    0.00   0.03  81.00
sdg               0.00     0.00 3168.00    0.00 12716.00     0.00     8.03     0.41    0.13    0.13    0.00   0.13  41.00
sdh               0.00     0.00    0.00    0.00     0.00     0.00     0.00     0.00    0.00    0.00    0.00   0.00   0.00
md0               0.00     0.00 188700.00    0.00 754800.00     0.00     8.00     0.00    0.00    0.00    0.00   0.00   0.00

avg-cpu:  %user   %nice %system %iowait  %steal   %idle
           1.26    0.00   56.68    0.76    0.00   41.31

Device:         rrqm/s   wrqm/s     r/s     w/s    rkB/s    wkB/s avgrq-sz avgqu-sz   await r_await w_await  svctm  %util
sda               0.00     0.00 31958.00    0.00 127832.00     0.00     8.00    36.81    1.16    1.16    0.00   0.02  76.20
sdb               0.00     0.00 31830.00    0.00 127320.00     0.00     8.00    36.71    1.15    1.15    0.00   0.02  75.70
sdc               0.00     0.00 32004.00    0.00 128016.00     0.00     8.00    44.06    1.38    1.38    0.00   0.03  80.50
sdd               0.00     0.00 31864.00    0.00 127456.00     0.00     8.00    43.80    1.38    1.38    0.00   0.03  80.20
sde               1.00     0.00 31754.00    0.00 127020.00     0.00     8.00    44.01    1.39    1.39    0.00   0.03  80.60
sdf               0.00     0.00 31749.00    0.00 126996.00     0.00     8.00    43.90    1.38    1.38    0.00   0.03  80.60
sdg               0.00     0.00    0.00    0.00     0.00     0.00     0.00     0.00    0.00    0.00    0.00   0.00   0.00
sdh               0.00     0.00    0.00    0.00     0.00     0.00     0.00     0.00    0.00    0.00    0.00   0.00   0.00
md0               0.00     0.00 190594.00    0.00 762376.00     0.00     8.00     0.00    0.00    0.00    0.00   0.00   0.00

avg-cpu:  %user   %nice %system %iowait  %steal   %idle
           1.25    0.00   56.50    0.75    0.00   41.50

Device:         rrqm/s   wrqm/s     r/s     w/s    rkB/s    wkB/s avgrq-sz avgqu-sz   await r_await w_await  svctm  %util
sda               0.00     0.00 31986.00    0.00 127944.00     0.00     8.00    38.27    1.19    1.19    0.00   0.02  76.30
sdb               0.00     0.00 32440.00    0.00 129760.00     0.00     8.00    39.37    1.21    1.21    0.00   0.02  76.30
sdc               2.00     0.00 31906.00    0.00 127632.00     0.00     8.00    45.42    1.42    1.42    0.00   0.03  81.00
sdd               0.00     0.00 31861.00    0.00 127444.00     0.00     8.00    45.35    1.41    1.41    0.00   0.03  81.40
sde               0.00     0.00 31690.00    0.00 126760.00     0.00     8.00    44.79    1.41    1.41    0.00   0.03  80.60
sdf               0.00     0.00 32020.00    0.00 128080.00     0.00     8.00    46.03    1.43    1.43    0.00   0.03  81.60
sdg               0.00     0.00    0.00    0.00     0.00     0.00     0.00     0.00    0.00    0.00    0.00   0.00   0.00
sdh               0.00     0.00    0.00    0.00     0.00     0.00     0.00     0.00    0.00    0.00    0.00   0.00   0.00
md0               0.00     0.00 192422.00    0.00 769688.00     0.00     8.00     0.00    0.00    0.00    0.00   0.00   0.00

avg-cpu:  %user   %nice %system %iowait  %steal   %idle
           1.27    0.00   56.35    0.76    0.00   41.62

Device:         rrqm/s   wrqm/s     r/s     w/s    rkB/s    wkB/s avgrq-sz avgqu-sz   await r_await w_await  svctm  %util
sda               1.00     0.00 31920.00    0.00 127684.00     0.00     8.00    37.77    1.18    1.18    0.00   0.02  76.00
sdb               0.00     0.00 31734.00    0.00 126936.00     0.00     8.00    37.62    1.18    1.18    0.00   0.02  74.90
sdc               0.00     0.00 31795.00    0.00 127180.00     0.00     8.00    45.02    1.42    1.42    0.00   0.03  80.50
sdd               0.00     0.00 31596.00    0.00 126384.00     0.00     8.00    44.62    1.41    1.41    0.00   0.03  81.00
sde               0.00     0.00 31755.00    0.00 127020.00     0.00     8.00    45.10    1.42    1.42    0.00   0.03  80.70
sdf               0.00     0.00 31757.00    0.00 127028.00     0.00     8.00    45.28    1.43    1.43    0.00   0.03  81.00
sdg               0.00     0.00    0.00    0.00     0.00     0.00     0.00     0.00    0.00    0.00    0.00   0.00   0.00
sdh               0.00     0.00    0.00    0.00     0.00     0.00     0.00     0.00    0.00    0.00    0.00   0.00   0.00
md0               0.00     0.00 190568.00    0.00 762272.00     0.00     8.00     0.00    0.00    0.00    0.00   0.00   0.00

avg-cpu:  %user   %nice %system %iowait  %steal   %idle
           1.25    0.00   57.14    0.50    0.00   41.10

Device:         rrqm/s   wrqm/s     r/s     w/s    rkB/s    wkB/s avgrq-sz avgqu-sz   await r_await w_await  svctm  %util
sda               0.00     0.00 31594.06    0.00 126376.24     0.00     8.00    37.17    1.18    1.18    0.00   0.02  74.26
sdb               0.00     0.00 31550.50    0.00 126201.98     0.00     8.00    37.61    1.19    1.19    0.00   0.02  75.15
sdc               0.00     0.00 31704.95    0.00 126819.80     0.00     8.00    44.70    1.41    1.41    0.00   0.03  79.50
sdd               0.00     0.00 31650.50    0.00 126601.98     0.00     8.00    44.80    1.42    1.42    0.00   0.03  80.79
sde               0.00     0.00 31658.42    0.00 126633.66     0.00     8.00    44.81    1.42    1.42    0.00   0.03  80.30
sdf               0.00     0.00 31340.59    0.00 125362.38     0.00     8.00    44.49    1.42    1.42    0.00   0.03  79.70
sdg               0.00     0.00    0.00    0.00     0.00     0.00     0.00     0.00    0.00    0.00    0.00   0.00   0.00
sdh               0.00     0.00    0.00    0.00     0.00     0.00     0.00     0.00    0.00    0.00    0.00   0.00   0.00
md0               0.00     0.00 189613.86    0.00 758455.45     0.00     8.00     0.00    0.00    0.00    0.00   0.00   0.00

avg-cpu:  %user   %nice %system %iowait  %steal   %idle
           1.26    0.00   56.68    0.76    0.00   41.31

Device:         rrqm/s   wrqm/s     r/s     w/s    rkB/s    wkB/s avgrq-sz avgqu-sz   await r_await w_await  svctm  %util
sda               0.00     0.00 31776.00    0.00 127104.00     0.00     8.00    37.41    1.18    1.18    0.00   0.02  75.30
sdb               0.00     0.00 31656.00    0.00 126624.00     0.00     8.00    37.51    1.18    1.18    0.00   0.02  75.90
sdc               0.00     0.00 31650.00    0.00 126600.00     0.00     8.00    44.14    1.40    1.40    0.00   0.03  80.30
sdd               0.00     0.00 31784.00    0.00 127136.00     0.00     8.00    44.79    1.41    1.41    0.00   0.03  80.40
sde               0.00     0.00 31696.00    0.00 126784.00     0.00     8.00    44.73    1.41    1.41    0.00   0.03  80.00
sdf               0.00     0.00 31605.00    0.00 126420.00     0.00     8.00    44.42    1.41    1.41    0.00   0.03  80.30
sdg               0.00     0.00    0.00    0.00     0.00     0.00     0.00     0.00    0.00    0.00    0.00   0.00   0.00
sdh               0.00     0.00    0.00    0.00     0.00     0.00     0.00     0.00    0.00    0.00    0.00   0.00   0.00
md0               0.00     0.00 189517.00    0.00 758068.00     0.00     8.00     0.00    0.00    0.00    0.00   0.00   0.00

avg-cpu:  %user   %nice %system %iowait  %steal   %idle
           1.25    0.00   57.50    0.50    0.00   40.75

Device:         rrqm/s   wrqm/s     r/s     w/s    rkB/s    wkB/s avgrq-sz avgqu-sz   await r_await w_await  svctm  %util
sda               0.00     0.00 31523.00    0.00 126092.00     0.00     8.00    35.49    1.12    1.12    0.00   0.02  76.60
sdb               0.00     0.00 31434.00    0.00 125736.00     0.00     8.00    35.84    1.14    1.14    0.00   0.02  76.60
sdc               1.00     0.00 31537.00    0.00 126152.00     0.00     8.00    41.99    1.33    1.33    0.00   0.03  81.00
sdd               0.00     0.00 31401.00    0.00 125604.00     0.00     8.00    42.02    1.33    1.33    0.00   0.03  80.70
sde               0.00     0.00 31977.00    0.00 127908.00     0.00     8.00    43.44    1.35    1.35    0.00   0.03  81.80
sdf               1.00     0.00 31418.00    0.00 125676.00     0.00     8.00    42.34    1.34    1.34    0.00   0.03  81.00
sdg               0.00     0.00    0.00    0.00     0.00     0.00     0.00     0.00    0.00    0.00    0.00   0.00   0.00
sdh               0.00     0.00    0.00    0.00     0.00     0.00     0.00     0.00    0.00    0.00    0.00   0.00   0.00
md0               0.00     0.00 189675.00    0.00 758700.00     0.00     8.00     0.00    0.00    0.00    0.00   0.00   0.00

avg-cpu:  %user   %nice %system %iowait  %steal   %idle
           1.01    0.00   57.18    0.50    0.00   41.31

Device:         rrqm/s   wrqm/s     r/s     w/s    rkB/s    wkB/s avgrq-sz avgqu-sz   await r_await w_await  svctm  %util
sda               0.00     0.00 31574.00    0.00 126296.00     0.00     8.00    35.52    1.13    1.13    0.00   0.02  75.20
sdb               0.00     0.00 31519.00    0.00 126076.00     0.00     8.00    35.41    1.13    1.13    0.00   0.02  75.20
sdc               0.00     0.00 31672.00    0.00 126688.00     0.00     8.00    42.74    1.35    1.35    0.00   0.03  81.10
sdd               0.00     0.00 31751.00    0.00 127004.00     0.00     8.00    42.85    1.35    1.35    0.00   0.03  81.10
sde               0.00     0.00 31451.00    0.00 125804.00     0.00     8.00    42.10    1.34    1.34    0.00   0.03  79.70
sdf               0.00     0.00 31507.00    0.00 126028.00     0.00     8.00    42.28    1.34    1.34    0.00   0.03  79.90
sdg               0.00     0.00    0.00    0.00     0.00     0.00     0.00     0.00    0.00    0.00    0.00   0.00   0.00
sdh               0.00     0.00    0.00    0.00     0.00     0.00     0.00     0.00    0.00    0.00    0.00   0.00   0.00
md0               0.00     0.00 189727.00    0.00 758908.00     0.00     8.00     0.00    0.00    0.00    0.00   0.00   0.00

avg-cpu:  %user   %nice %system %iowait  %steal   %idle
           1.25    0.00   56.89    0.75    0.00   41.10

Device:         rrqm/s   wrqm/s     r/s     w/s    rkB/s    wkB/s avgrq-sz avgqu-sz   await r_await w_await  svctm  %util
sda               1.00     0.00 31769.00    0.00 127080.00     0.00     8.00    35.66    1.12    1.12    0.00   0.02  76.10
sdb               0.00     0.00 31833.00    0.00 127332.00     0.00     8.00    36.73    1.15    1.15    0.00   0.02  76.40
sdc               0.00     0.00 31809.00    0.00 127236.00     0.00     8.00    43.16    1.35    1.35    0.00   0.03  80.60
sdd               0.00     0.00 31452.00    0.00 125808.00     0.00     8.00    42.32    1.35    1.35    0.00   0.03  79.80
sde               0.00     0.00 31441.00    0.00 125764.00     0.00     8.00    42.16    1.34    1.34    0.00   0.03  80.40
sdf               0.00     0.00 31542.00    0.00 126168.00     0.00     8.00    42.29    1.34    1.34    0.00   0.03  80.00
sdg               0.00     0.00    1.00    0.00     4.00     0.00     8.00     0.00    1.00    1.00    0.00   1.00   0.10
sdh               0.00     0.00    0.00    0.00     0.00     0.00     0.00     0.00    0.00    0.00    0.00   0.00   0.00
md0               0.00     0.00 189510.00    0.00 758040.00     0.00     8.00     0.00    0.00    0.00    0.00   0.00   0.00

