Linux 4.17.2 (bench) 	08/03/2018 	_x86_64_	(4 CPU)

avg-cpu:  %user   %nice %system %iowait  %steal   %idle
          10.27    0.02    4.12    2.63    0.00   82.97

Device:         rrqm/s   wrqm/s     r/s     w/s    rkB/s    wkB/s avgrq-sz avgqu-sz   await r_await w_await  svctm  %util
sda              49.15     4.22 1685.91  101.94 21140.72  3119.15    27.14     1.04    0.58    0.26    5.92   0.06  10.86
sdb              48.98     4.18 1685.88  102.08 21130.20  3115.83    27.12     1.04    0.58    0.26    5.85   0.06  10.74
sdc              86.88     4.24 1645.88  101.63 21122.30  3118.28    27.74     1.46    0.84    0.45    7.12   0.08  14.22
sdd              80.35     4.21 1651.58  101.70 21107.22  3114.50    27.63     1.47    0.84    0.44    7.33   0.08  14.31
sde              82.36     4.25 1656.66  101.79 21166.82  3118.72    27.62     1.49    0.85    0.44    7.44   0.08  14.34
sdf              79.49     4.22 1658.79  101.74 21148.18  3115.60    27.56     1.53    0.87    0.44    7.90   0.08  14.37
sdg               0.00     3.17   26.53   73.30   324.88   392.07    14.36     0.44    4.41    0.20    5.93   0.08   0.78
sdh               0.00     0.13    0.02    0.23     2.20     5.03    56.82     0.00    1.15    0.65    1.19   0.21   0.01
md0               0.00     0.00 10419.02  477.62 144869.60 21350.16    30.51     0.00    0.00    0.00    0.00   0.00   0.00

avg-cpu:  %user   %nice %system %iowait  %steal   %idle
           0.26    0.00    1.53    1.02    0.00   97.19

Device:         rrqm/s   wrqm/s     r/s     w/s    rkB/s    wkB/s avgrq-sz avgqu-sz   await r_await w_await  svctm  %util
sda               0.00     0.00 1417.00    0.00  5668.00     0.00     8.00     0.14    0.10    0.10    0.00   0.10  14.00
sdb               0.00     0.00 1429.00    0.00  5716.00     0.00     8.00     0.15    0.10    0.10    0.00   0.10  14.60
sdc               0.00     0.00 1387.00    0.00  5548.00     0.00     8.00     0.15    0.11    0.11    0.00   0.11  14.80
sdd               0.00     0.00 1420.00    0.00  5680.00     0.00     8.00     0.15    0.11    0.11    0.00   0.11  15.30
sde               0.00     0.00 1486.00    0.00  5944.00     0.00     8.00     0.16    0.11    0.11    0.00   0.11  16.20
sdf               0.00     0.00 1465.00    0.00  5860.00     0.00     8.00     0.15    0.11    0.11    0.00   0.11  15.50
sdg               0.00     0.00    2.00    1.00    44.00    12.00    37.33     0.00    0.00    0.00    0.00   0.00   0.00
sdh               0.00     0.00    0.00    0.00     0.00     0.00     0.00     0.00    0.00    0.00    0.00   0.00   0.00
md0               0.00     0.00 8605.00    0.00 34420.00     0.00     8.00     0.00    0.00    0.00    0.00   0.00   0.00

avg-cpu:  %user   %nice %system %iowait  %steal   %idle
           0.26    0.00    1.54    0.77    0.00   97.44

Device:         rrqm/s   wrqm/s     r/s     w/s    rkB/s    wkB/s avgrq-sz avgqu-sz   await r_await w_await  svctm  %util
sda               0.00     0.00 1424.00    0.00  5696.00     0.00     8.00     0.13    0.09    0.09    0.00   0.09  13.00
sdb               0.00     0.00 1368.00    0.00  5472.00     0.00     8.00     0.14    0.10    0.10    0.00   0.10  13.60
sdc               0.00     0.00 1463.00    0.00  5852.00     0.00     8.00     0.16    0.11    0.11    0.00   0.11  15.60
sdd               0.00     0.00 1509.00    0.00  6036.00     0.00     8.00     0.17    0.11    0.11    0.00   0.11  16.90
sde               0.00     0.00 1383.00    0.00  5532.00     0.00     8.00     0.15    0.11    0.11    0.00   0.11  14.80
sdf               0.00     0.00 1473.00    0.00  5892.00     0.00     8.00     0.17    0.12    0.12    0.00   0.12  17.10
sdg               0.00     0.00    0.00    0.00     0.00     0.00     0.00     0.00    0.00    0.00    0.00   0.00   0.00
sdh               0.00     0.00    0.00    0.00     0.00     0.00     0.00     0.00    0.00    0.00    0.00   0.00   0.00
md0               0.00     0.00 8621.00    0.00 34484.00     0.00     8.00     0.00    0.00    0.00    0.00   0.00   0.00

avg-cpu:  %user   %nice %system %iowait  %steal   %idle
           0.25    0.00    2.04    0.76    0.00   96.95

Device:         rrqm/s   wrqm/s     r/s     w/s    rkB/s    wkB/s avgrq-sz avgqu-sz   await r_await w_await  svctm  %util
sda               0.00     0.00 1408.00    0.00  5632.00     0.00     8.00     0.14    0.10    0.10    0.00   0.10  14.50
sdb               0.00     0.00 1389.00    0.00  5556.00     0.00     8.00     0.13    0.09    0.09    0.00   0.09  13.00
sdc               0.00     0.00 1467.00    0.00  5868.00     0.00     8.00     0.16    0.11    0.11    0.00   0.11  16.00
sdd               0.00     0.00 1390.00    0.00  5560.00     0.00     8.00     0.15    0.11    0.11    0.00   0.11  15.20
sde               0.00     0.00 1462.00    0.00  5848.00     0.00     8.00     0.15    0.11    0.11    0.00   0.11  15.40
sdf               0.00     0.00 1442.00    0.00  5768.00     0.00     8.00     0.15    0.10    0.10    0.00   0.10  14.70
sdg               0.00     0.00    0.00    0.00     0.00     0.00     0.00     0.00    0.00    0.00    0.00   0.00   0.00
sdh               0.00     0.00    0.00    0.00     0.00     0.00     0.00     0.00    0.00    0.00    0.00   0.00   0.00
md0               0.00     0.00 8558.00    0.00 34232.00     0.00     8.00     0.00    0.00    0.00    0.00   0.00   0.00

avg-cpu:  %user   %nice %system %iowait  %steal   %idle
           0.26    0.00    1.03    0.77    0.00   97.94

Device:         rrqm/s   wrqm/s     r/s     w/s    rkB/s    wkB/s avgrq-sz avgqu-sz   await r_await w_await  svctm  %util
sda               0.00     0.00 1449.00    0.00  5796.00     0.00     8.00     0.15    0.11    0.11    0.00   0.11  15.40
sdb               0.00     0.00 1450.00    0.00  5800.00     0.00     8.00     0.14    0.10    0.10    0.00   0.10  14.30
sdc               0.00     0.00 1393.00    0.00  5572.00     0.00     8.00     0.16    0.11    0.11    0.00   0.11  15.80
sdd               0.00     0.00 1410.00    0.00  5640.00     0.00     8.00     0.15    0.11    0.11    0.00   0.11  15.00
sde               0.00     0.00 1490.00    0.00  5960.00     0.00     8.00     0.16    0.11    0.11    0.00   0.11  16.30
sdf               0.00     0.00 1402.00    0.00  5608.00     0.00     8.00     0.15    0.11    0.11    0.00   0.11  15.20
sdg               0.00     0.00    0.00    0.00     0.00     0.00     0.00     0.00    0.00    0.00    0.00   0.00   0.00
sdh               0.00     0.00    0.00    0.00     0.00     0.00     0.00     0.00    0.00    0.00    0.00   0.00   0.00
md0               0.00     0.00 8593.00    0.00 34372.00     0.00     8.00     0.00    0.00    0.00    0.00   0.00   0.00

avg-cpu:  %user   %nice %system %iowait  %steal   %idle
           0.26    0.00    2.04    0.77    0.00   96.94

Device:         rrqm/s   wrqm/s     r/s     w/s    rkB/s    wkB/s avgrq-sz avgqu-sz   await r_await w_await  svctm  %util
sda               0.00     0.00 1482.00    0.00  5928.00     0.00     8.00     0.14    0.10    0.10    0.00   0.10  14.50
sdb               0.00     0.00 1404.00    0.00  5616.00     0.00     8.00     0.14    0.10    0.10    0.00   0.10  13.60
sdc               0.00     0.00 1363.00    0.00  5452.00     0.00     8.00     0.14    0.11    0.11    0.00   0.11  14.40
sdd               0.00     0.00 1460.00    0.00  5840.00     0.00     8.00     0.15    0.10    0.10    0.00   0.10  15.20
sde               0.00     0.00 1446.00    0.00  5784.00     0.00     8.00     0.15    0.10    0.10    0.00   0.10  15.10
sdf               0.00     0.00 1440.00    0.00  5760.00     0.00     8.00     0.15    0.10    0.10    0.00   0.10  14.70
sdg               0.00     0.00    0.00    0.00     0.00     0.00     0.00     0.00    0.00    0.00    0.00   0.00   0.00
sdh               0.00     0.00    0.00    0.00     0.00     0.00     0.00     0.00    0.00    0.00    0.00   0.00   0.00
md0               0.00     0.00 8596.00    0.00 34384.00     0.00     8.00     0.00    0.00    0.00    0.00   0.00   0.00

avg-cpu:  %user   %nice %system %iowait  %steal   %idle
           0.00    0.00    1.79    2.56    0.00   95.65

Device:         rrqm/s   wrqm/s     r/s     w/s    rkB/s    wkB/s avgrq-sz avgqu-sz   await r_await w_await  svctm  %util
sda               0.00     0.00 1449.00    0.00  5796.00     0.00     8.00     0.14    0.10    0.10    0.00   0.10  14.10
sdb               0.00     0.00 1424.00    0.00  5696.00     0.00     8.00     0.16    0.11    0.11    0.00   0.11  15.70
sdc               0.00     0.00 1466.00    0.00  5864.00     0.00     8.00     0.16    0.11    0.11    0.00   0.11  16.10
sdd               0.00     0.00 1361.00    0.00  5444.00     0.00     8.00     0.15    0.11    0.11    0.00   0.11  14.80
sde               0.00     0.00 1376.00    0.00  5504.00     0.00     8.00     0.16    0.12    0.12    0.00   0.12  15.90
sdf               0.00     0.00 1483.00    0.00  5932.00     0.00     8.00     0.16    0.11    0.11    0.00   0.11  16.30
sdg               0.00     1.00    9.00    1.00    36.00    20.00    11.20     0.00    0.10    0.11    0.00   0.10   0.10
sdh               0.00     0.00    0.00    0.00     0.00     0.00     0.00     0.00    0.00    0.00    0.00   0.00   0.00
md0               0.00     0.00 8558.00    0.00 34232.00     0.00     8.00     0.00    0.00    0.00    0.00   0.00   0.00

avg-cpu:  %user   %nice %system %iowait  %steal   %idle
           0.26    0.00    1.28    1.02    0.00   97.45

Device:         rrqm/s   wrqm/s     r/s     w/s    rkB/s    wkB/s avgrq-sz avgqu-sz   await r_await w_await  svctm  %util
sda               0.00     0.00 1513.00    0.00  6052.00     0.00     8.00     0.15    0.10    0.10    0.00   0.10  15.10
sdb               0.00     0.00 1452.00    0.00  5808.00     0.00     8.00     0.13    0.09    0.09    0.00   0.09  13.40
sdc               0.00     0.00 1424.00    0.00  5696.00     0.00     8.00     0.17    0.12    0.12    0.00   0.12  16.70
sdd               0.00     0.00 1473.00    0.00  5892.00     0.00     8.00     0.15    0.11    0.11    0.00   0.11  15.50
sde               0.00     0.00 1418.00    0.00  5672.00     0.00     8.00     0.15    0.11    0.11    0.00   0.11  15.40
sdf               0.00     0.00 1411.00    0.00  5644.00     0.00     8.00     0.16    0.11    0.11    0.00   0.11  15.60
sdg               0.00     0.00    0.00    0.00     0.00     0.00     0.00     0.00    0.00    0.00    0.00   0.00   0.00
sdh               0.00     0.00    0.00    0.00     0.00     0.00     0.00     0.00    0.00    0.00    0.00   0.00   0.00
md0               0.00     0.00 8692.00    0.00 34768.00     0.00     8.00     0.00    0.00    0.00    0.00   0.00   0.00

avg-cpu:  %user   %nice %system %iowait  %steal   %idle
           0.00    0.26    2.04    1.02    0.00   96.68

Device:         rrqm/s   wrqm/s     r/s     w/s    rkB/s    wkB/s avgrq-sz avgqu-sz   await r_await w_await  svctm  %util
sda               0.00     0.00 1463.00    0.00  5852.00     0.00     8.00     0.14    0.10    0.10    0.00   0.10  14.00
sdb               0.00     0.00 1436.00    0.00  5744.00     0.00     8.00     0.15    0.10    0.10    0.00   0.10  15.00
sdc               0.00     0.00 1464.00    0.00  5856.00     0.00     8.00     0.16    0.11    0.11    0.00   0.11  15.70
sdd               0.00     0.00 1533.00    0.00  6132.00     0.00     8.00     0.16    0.10    0.10    0.00   0.10  15.80
sde               0.00     0.00 1516.00    0.00  6064.00     0.00     8.00     0.17    0.11    0.11    0.00   0.11  17.00
sdf               0.00     0.00 1404.00    0.00  5616.00     0.00     8.00     0.15    0.11    0.11    0.00   0.11  15.00
sdg               0.00     0.00   39.00    0.00   468.00     0.00    24.00     0.00    0.10    0.10    0.00   0.08   0.30
sdh               0.00     0.00    0.00    0.00     0.00     0.00     0.00     0.00    0.00    0.00    0.00   0.00   0.00
md0               0.00     0.00 8816.00    0.00 35264.00     0.00     8.00     0.00    0.00    0.00    0.00   0.00   0.00

avg-cpu:  %user   %nice %system %iowait  %steal   %idle
           0.26    0.00    1.53    0.77    0.00   97.44

Device:         rrqm/s   wrqm/s     r/s     w/s    rkB/s    wkB/s avgrq-sz avgqu-sz   await r_await w_await  svctm  %util
sda               0.00     0.00 1445.00    0.00  5780.00     0.00     8.00     0.14    0.10    0.10    0.00   0.10  14.40
sdb               0.00     0.00 1434.00    0.00  5736.00     0.00     8.00     0.14    0.10    0.10    0.00   0.10  14.30
sdc               0.00     0.00 1435.00    0.00  5740.00     0.00     8.00     0.17    0.12    0.12    0.00   0.12  16.80
sdd               0.00     0.00 1365.00    0.00  5460.00     0.00     8.00     0.15    0.11    0.11    0.00   0.11  14.90
sde               0.00     0.00 1451.00    0.00  5804.00     0.00     8.00     0.16    0.11    0.11    0.00   0.11  15.90
sdf               0.00     0.00 1483.00    0.00  5932.00     0.00     8.00     0.16    0.11    0.11    0.00   0.11  16.20
sdg               0.00     0.00    0.00    0.00     0.00     0.00     0.00     0.00    0.00    0.00    0.00   0.00   0.00
sdh               0.00     0.00    0.00    0.00     0.00     0.00     0.00     0.00    0.00    0.00    0.00   0.00   0.00
md0               0.00     0.00 8613.00    0.00 34452.00     0.00     8.00     0.00    0.00    0.00    0.00   0.00   0.00

avg-cpu:  %user   %nice %system %iowait  %steal   %idle
           0.00    0.00    1.29    1.03    0.00   97.69

Device:         rrqm/s   wrqm/s     r/s     w/s    rkB/s    wkB/s avgrq-sz avgqu-sz   await r_await w_await  svctm  %util
sda               0.00     0.00 1439.00    0.00  5756.00     0.00     8.00     0.14    0.10    0.10    0.00   0.10  14.50
sdb               0.00     0.00 1447.00    0.00  5788.00     0.00     8.00     0.14    0.10    0.10    0.00   0.10  13.90
sdc               0.00     0.00 1430.00    0.00  5720.00     0.00     8.00     0.16    0.11    0.11    0.00   0.11  16.20
sdd               0.00     0.00 1406.00    0.00  5624.00     0.00     8.00     0.15    0.11    0.11    0.00   0.11  14.90
sde               0.00     0.00 1438.00    0.00  5752.00     0.00     8.00     0.16    0.11    0.11    0.00   0.11  15.80
sdf               0.00     0.00 1442.00    0.00  5768.00     0.00     8.00     0.15    0.11    0.11    0.00   0.11  15.50
sdg               0.00     0.00    0.00    0.00     0.00     0.00     0.00     0.00    0.00    0.00    0.00   0.00   0.00
sdh               0.00     0.00    0.00    0.00     0.00     0.00     0.00     0.00    0.00    0.00    0.00   0.00   0.00
md0               0.00     0.00 8602.00    0.00 34408.00     0.00     8.00     0.00    0.00    0.00    0.00   0.00   0.00

avg-cpu:  %user   %nice %system %iowait  %steal   %idle
           0.26    0.00    1.79    0.77    0.00   97.19

Device:         rrqm/s   wrqm/s     r/s     w/s    rkB/s    wkB/s avgrq-sz avgqu-sz   await r_await w_await  svctm  %util
sda               0.00     0.00 1428.00    0.00  5712.00     0.00     8.00     0.14    0.10    0.10    0.00   0.10  14.20
sdb               0.00     0.00 1464.00    0.00  5856.00     0.00     8.00     0.14    0.10    0.10    0.00   0.10  14.50
sdc               0.00     0.00 1427.00    0.00  5708.00     0.00     8.00     0.15    0.10    0.10    0.00   0.10  14.60
sdd               0.00     0.00 1376.00    0.00  5504.00     0.00     8.00     0.16    0.11    0.11    0.00   0.11  15.60
sde               0.00     0.00 1500.00    0.00  6000.00     0.00     8.00     0.16    0.10    0.10    0.00   0.10  15.60
sdf               0.00     0.00 1455.00    0.00  5820.00     0.00     8.00     0.16    0.11    0.11    0.00   0.11  16.30
sdg               0.00     0.00    0.00    0.00     0.00     0.00     0.00     0.00    0.00    0.00    0.00   0.00   0.00
sdh               0.00     0.00    0.00    0.00     0.00     0.00     0.00     0.00    0.00    0.00    0.00   0.00   0.00
md0               0.00     0.00 8650.00    0.00 34600.00     0.00     8.00     0.00    0.00    0.00    0.00   0.00   0.00

avg-cpu:  %user   %nice %system %iowait  %steal   %idle
           0.26    0.00    2.04    0.51    0.00   97.19

Device:         rrqm/s   wrqm/s     r/s     w/s    rkB/s    wkB/s avgrq-sz avgqu-sz   await r_await w_await  svctm  %util
sda               0.00     0.00 1427.00    0.00  5708.00     0.00     8.00     0.13    0.09    0.09    0.00   0.09  12.70
sdb               0.00     0.00 1437.00    0.00  5748.00     0.00     8.00     0.15    0.10    0.10    0.00   0.10  14.60
sdc               0.00     0.00 1498.00    0.00  5992.00     0.00     8.00     0.16    0.11    0.11    0.00   0.11  16.10
sdd               0.00     0.00 1385.00    0.00  5540.00     0.00     8.00     0.15    0.11    0.11    0.00   0.11  15.30
sde               0.00     0.00 1404.00    0.00  5616.00     0.00     8.00     0.14    0.10    0.10    0.00   0.10  14.10
sdf               0.00     0.00 1408.00    0.00  5632.00     0.00     8.00     0.15    0.11    0.11    0.00   0.11  14.80
sdg               0.00     1.00    2.00    2.00     8.00    36.00    22.00     0.00    0.25    0.00    0.50   0.25   0.10
sdh               0.00     0.00    0.00    0.00     0.00     0.00     0.00     0.00    0.00    0.00    0.00   0.00   0.00
md0               0.00     0.00 8559.00    0.00 34236.00     0.00     8.00     0.00    0.00    0.00    0.00   0.00   0.00

avg-cpu:  %user   %nice %system %iowait  %steal   %idle
           0.25    0.00    1.78    0.76    0.00   97.20

Device:         rrqm/s   wrqm/s     r/s     w/s    rkB/s    wkB/s avgrq-sz avgqu-sz   await r_await w_await  svctm  %util
sda               0.00     0.00 1498.00    0.00  5992.00     0.00     8.00     0.14    0.09    0.09    0.00   0.09  14.10
sdb               0.00     0.00 1505.00    0.00  6020.00     0.00     8.00     0.15    0.10    0.10    0.00   0.10  14.90
sdc               0.00     0.00 1529.00    0.00  6116.00     0.00     8.00     0.16    0.11    0.11    0.00   0.11  16.40
sdd               0.00     0.00 1463.00    0.00  5852.00     0.00     8.00     0.14    0.10    0.10    0.00   0.10  14.50
sde               0.00     0.00 1533.00    0.00  6132.00     0.00     8.00     0.17    0.11    0.11    0.00   0.11  17.10
sdf               0.00     0.00 1411.00    0.00  5644.00     0.00     8.00     0.16    0.11    0.11    0.00   0.11  15.80
sdg               0.00     1.00    3.00   23.00    48.00   272.00    24.62     0.00    0.04    0.00    0.04   0.04   0.10
sdh               0.00     0.00    0.00    0.00     0.00     0.00     0.00     0.00    0.00    0.00    0.00   0.00   0.00
md0               0.00     0.00 8938.00    0.00 35752.00     0.00     8.00     0.00    0.00    0.00    0.00   0.00   0.00

avg-cpu:  %user   %nice %system %iowait  %steal   %idle
           0.00    0.00    2.03    1.02    0.00   96.95

Device:         rrqm/s   wrqm/s     r/s     w/s    rkB/s    wkB/s avgrq-sz avgqu-sz   await r_await w_await  svctm  %util
sda               0.00     0.00 1561.00    0.00  6244.00     0.00     8.00     0.16    0.10    0.10    0.00   0.10  15.70
sdb               0.00     0.00 1505.00    0.00  6020.00     0.00     8.00     0.16    0.11    0.11    0.00   0.11  15.90
sdc               0.00     0.00 1396.00    0.00  5584.00     0.00     8.00     0.15    0.11    0.11    0.00   0.11  15.20
sdd               0.00     0.00 1477.00    0.00  5908.00     0.00     8.00     0.16    0.11    0.11    0.00   0.11  15.90
sde               0.00     0.00 1496.00    0.00  5984.00     0.00     8.00     0.16    0.11    0.11    0.00   0.11  15.90
sdf               0.00     0.00 1533.00    0.00  6132.00     0.00     8.00     0.16    0.11    0.11    0.00   0.11  16.30
sdg               0.00     0.00    0.00    0.00     0.00     0.00     0.00     0.00    0.00    0.00    0.00   0.00   0.00
sdh               0.00     0.00    0.00    0.00     0.00     0.00     0.00     0.00    0.00    0.00    0.00   0.00   0.00
md0               0.00     0.00 8969.00    0.00 35876.00     0.00     8.00     0.00    0.00    0.00    0.00   0.00   0.00

avg-cpu:  %user   %nice %system %iowait  %steal   %idle
           0.25    0.00    2.28    0.76    0.00   96.71

Device:         rrqm/s   wrqm/s     r/s     w/s    rkB/s    wkB/s avgrq-sz avgqu-sz   await r_await w_await  svctm  %util
sda               0.00     0.00 1519.00    0.00  6076.00     0.00     8.00     0.15    0.10    0.10    0.00   0.10  14.90
sdb               0.00     0.00 1427.00    0.00  5708.00     0.00     8.00     0.15    0.10    0.10    0.00   0.10  14.70
sdc               0.00     0.00 1572.00    0.00  6288.00     0.00     8.00     0.17    0.11    0.11    0.00   0.11  16.60
sdd               0.00     0.00 1506.00    0.00  6024.00     0.00     8.00     0.16    0.11    0.11    0.00   0.11  16.10
sde               0.00     0.00 1526.00    0.00  6104.00     0.00     8.00     0.16    0.11    0.11    0.00   0.11  16.10
sdf               0.00     0.00 1462.00    0.00  5848.00     0.00     8.00     0.16    0.11    0.11    0.00   0.11  16.00
sdg               0.00     0.00    0.00    0.00     0.00     0.00     0.00     0.00    0.00    0.00    0.00   0.00   0.00
sdh               0.00     0.00    0.00    0.00     0.00     0.00     0.00     0.00    0.00    0.00    0.00   0.00   0.00
md0               0.00     0.00 9011.00    0.00 36044.00     0.00     8.00     0.00    0.00    0.00    0.00   0.00   0.00

avg-cpu:  %user   %nice %system %iowait  %steal   %idle
           0.00    0.00    1.79    0.51    0.00   97.70

Device:         rrqm/s   wrqm/s     r/s     w/s    rkB/s    wkB/s avgrq-sz avgqu-sz   await r_await w_await  svctm  %util
sda               0.00     0.00 1454.00    0.00  5816.00     0.00     8.00     0.14    0.10    0.10    0.00   0.10  14.30
sdb               0.00     0.00 1399.00    0.00  5596.00     0.00     8.00     0.13    0.10    0.10    0.00   0.10  13.40
sdc               0.00     0.00 1515.00    0.00  6060.00     0.00     8.00     0.16    0.11    0.11    0.00   0.11  16.30
sdd               0.00     0.00 1439.00    0.00  5756.00     0.00     8.00     0.15    0.11    0.11    0.00   0.11  15.40
sde               0.00     0.00 1359.00    0.00  5436.00     0.00     8.00     0.14    0.11    0.11    0.00   0.11  14.30
sdf               0.00     0.00 1420.00    0.00  5680.00     0.00     8.00     0.15    0.11    0.11    0.00   0.11  15.40
sdg               0.00     0.00    0.00    0.00     0.00     0.00     0.00     0.00    0.00    0.00    0.00   0.00   0.00
sdh               0.00     0.00    0.00    0.00     0.00     0.00     0.00     0.00    0.00    0.00    0.00   0.00   0.00
md0               0.00     0.00 8587.00    0.00 34348.00     0.00     8.00     0.00    0.00    0.00    0.00   0.00   0.00

avg-cpu:  %user   %nice %system %iowait  %steal   %idle
           0.26    0.00    1.29    1.03    0.00   97.43

Device:         rrqm/s   wrqm/s     r/s     w/s    rkB/s    wkB/s avgrq-sz avgqu-sz   await r_await w_await  svctm  %util
sda               0.00     0.00 1470.00    0.00  5880.00     0.00     8.00     0.16    0.11    0.11    0.00   0.11  16.30
sdb               0.00     0.00 1377.00    0.00  5508.00     0.00     8.00     0.13    0.10    0.10    0.00   0.10  13.40
sdc               0.00     0.00 1514.00    0.00  6056.00     0.00     8.00     0.17    0.11    0.11    0.00   0.11  16.90
sdd               0.00     0.00 1430.00    0.00  5720.00     0.00     8.00     0.15    0.10    0.10    0.00   0.10  14.90
sde               0.00     0.00 1435.00    0.00  5740.00     0.00     8.00     0.16    0.11    0.11    0.00   0.11  16.30
sdf               0.00     0.00 1400.00    0.00  5600.00     0.00     8.00     0.15    0.10    0.10    0.00   0.11  14.80
sdg               0.00    78.00    0.00 1440.00     0.00  7408.00    10.29     8.37    5.81    0.00    5.81   0.04   6.20
sdh               0.00     0.00    0.00    0.00     0.00     0.00     0.00     0.00    0.00    0.00    0.00   0.00   0.00
md0               0.00     0.00 8625.00    0.00 34500.00     0.00     8.00     0.00    0.00    0.00    0.00   0.00   0.00

avg-cpu:  %user   %nice %system %iowait  %steal   %idle
           0.25    0.00    2.29    1.02    0.00   96.44

Device:         rrqm/s   wrqm/s     r/s     w/s    rkB/s    wkB/s avgrq-sz avgqu-sz   await r_await w_await  svctm  %util
sda               0.00     0.00 1365.00    0.00  5460.00     0.00     8.00     0.14    0.10    0.10    0.00   0.10  13.60
sdb               0.00     0.00 1406.00    0.00  5624.00     0.00     8.00     0.15    0.11    0.11    0.00   0.11  14.90
sdc               0.00     0.00 1434.00    0.00  5736.00     0.00     8.00     0.14    0.10    0.10    0.00   0.10  14.50
sdd               0.00     0.00 1406.00    0.00  5624.00     0.00     8.00     0.16    0.12    0.12    0.00   0.12  16.40
sde               0.00     0.00 1354.00    0.00  5416.00     0.00     8.00     0.15    0.11    0.11    0.00   0.11  15.40
sdf               0.00     0.00 1445.00    0.00  5780.00     0.00     8.00     0.16    0.11    0.11    0.00   0.11  16.00
sdg               0.00     0.00    4.00    0.00    16.00     0.00     8.00     0.00    0.00    0.00    0.00   0.00   0.00
sdh               0.00     0.00    0.00    0.00     0.00     0.00     0.00     0.00    0.00    0.00    0.00   0.00   0.00
md0               0.00     0.00 8410.00    0.00 33640.00     0.00     8.00     0.00    0.00    0.00    0.00   0.00   0.00

avg-cpu:  %user   %nice %system %iowait  %steal   %idle
           0.25    0.00    2.04    0.76    0.00   96.95

Device:         rrqm/s   wrqm/s     r/s     w/s    rkB/s    wkB/s avgrq-sz avgqu-sz   await r_await w_await  svctm  %util
sda               0.00     0.00 1445.00    0.00  5780.00     0.00     8.00     0.14    0.10    0.10    0.00   0.10  14.00
sdb               0.00     0.00 1444.00    0.00  5776.00     0.00     8.00     0.14    0.10    0.10    0.00   0.10  13.90
sdc               0.00     0.00 1459.00    0.00  5836.00     0.00     8.00     0.15    0.10    0.10    0.00   0.10  15.10
sdd               0.00     0.00 1400.00    0.00  5600.00     0.00     8.00     0.15    0.11    0.11    0.00   0.11  14.90
sde               0.00     0.00 1466.00    0.00  5864.00     0.00     8.00     0.16    0.11    0.11    0.00   0.11  15.70
sdf               0.00     0.00 1414.00    0.00  5656.00     0.00     8.00     0.16    0.11    0.11    0.00   0.11  15.80
sdg               0.00     0.00    0.00    0.00     0.00     0.00     0.00     0.00    0.00    0.00    0.00   0.00   0.00
sdh               0.00     0.00    0.00    0.00     0.00     0.00     0.00     0.00    0.00    0.00    0.00   0.00   0.00
md0               0.00     0.00 8629.00    0.00 34516.00     0.00     8.00     0.00    0.00    0.00    0.00   0.00   0.00

avg-cpu:  %user   %nice %system %iowait  %steal   %idle
           0.26    0.00    1.53    0.77    0.00   97.44

Device:         rrqm/s   wrqm/s     r/s     w/s    rkB/s    wkB/s avgrq-sz avgqu-sz   await r_await w_await  svctm  %util
sda               0.00     0.00 1440.00    0.00  5760.00     0.00     8.00     0.14    0.10    0.10    0.00   0.10  13.90
sdb               0.00     0.00 1448.00    0.00  5792.00     0.00     8.00     0.14    0.09    0.09    0.00   0.09  13.60
sdc               0.00     0.00 1455.00    0.00  5820.00     0.00     8.00     0.16    0.11    0.11    0.00   0.11  15.90
sdd               0.00     0.00 1411.00    0.00  5644.00     0.00     8.00     0.15    0.11    0.11    0.00   0.11  15.40
sde               0.00     0.00 1459.00    0.00  5836.00     0.00     8.00     0.17    0.12    0.12    0.00   0.12  17.10
sdf               0.00     0.00 1391.00    0.00  5564.00     0.00     8.00     0.15    0.11    0.11    0.00   0.11  14.90
sdg               0.00     0.00    0.00    0.00     0.00     0.00     0.00     0.00    0.00    0.00    0.00   0.00   0.00
sdh               0.00     0.00    0.00    0.00     0.00     0.00     0.00     0.00    0.00    0.00    0.00   0.00   0.00
md0               0.00     0.00 8603.00    0.00 34412.00     0.00     8.00     0.00    0.00    0.00    0.00   0.00   0.00

