Linux 4.17.2 (bench) 	08/03/2018 	_x86_64_	(4 CPU)

avg-cpu:  %user   %nice %system %iowait  %steal   %idle
          10.26    0.02    4.17    2.73    0.00   82.82

Device:         rrqm/s   wrqm/s     r/s     w/s    rkB/s    wkB/s avgrq-sz avgqu-sz   await r_await w_await  svctm  %util
sda              53.44     4.19 1724.92  101.14 21338.92  3094.59    26.76     1.05    0.57    0.26    5.92   0.06  11.04
sdb              53.25     4.15 1724.92  101.27 21328.47  3091.30    26.74     1.05    0.57    0.26    5.85   0.06  10.91
sdc              91.00     4.21 1685.07  100.83 21320.65  3093.73    27.34     1.47    0.82    0.44    7.12   0.08  14.41
sdd              84.52     4.17 1690.72  100.90 21305.67  3089.97    27.23     1.47    0.82    0.43    7.33   0.08  14.50
sde              86.52     4.22 1695.81  100.99 21365.05  3094.16    27.23     1.49    0.83    0.44    7.44   0.08  14.52
sdf              83.67     4.19 1697.91  100.94 21346.53  3091.07    27.17     1.54    0.85    0.44    7.90   0.08  14.56
sdg               0.00     3.17   26.81   73.25   325.94   391.98    14.35     0.44    4.39    0.20    5.93   0.08   0.78
sdh               0.00     0.13    0.02    0.23     2.18     4.99    56.82     0.00    1.15    0.65    1.19   0.21   0.01
md0               0.00     0.00 10679.15  473.86 146251.11 21182.05    30.02     0.00    0.00    0.00    0.00   0.00   0.00

avg-cpu:  %user   %nice %system %iowait  %steal   %idle
           2.37    0.00   10.82    0.79    0.00   86.02

Device:         rrqm/s   wrqm/s     r/s     w/s    rkB/s    wkB/s avgrq-sz avgqu-sz   await r_await w_await  svctm  %util
sda               0.00     0.00 11754.00    0.00 47016.00     0.00     8.00     1.40    0.12    0.12    0.00   0.04  45.00
sdb               0.00     0.00 11731.00    0.00 46924.00     0.00     8.00     1.47    0.13    0.13    0.00   0.04  46.60
sdc               0.00     0.00 11629.00    0.00 46516.00     0.00     8.00     1.67    0.14    0.14    0.00   0.05  58.30
sdd               0.00     0.00 11478.00    0.00 45912.00     0.00     8.00     1.73    0.15    0.15    0.00   0.05  53.30
sde               0.00     0.00 11854.00    0.00 47416.00     0.00     8.00     1.64    0.14    0.14    0.00   0.04  52.80
sdf               0.00     0.00 12009.00    0.00 48036.00     0.00     8.00     1.72    0.14    0.14    0.00   0.04  51.50
sdg               0.00    18.00   10.00   65.00   160.00  1252.00    37.65     0.19    2.53    0.60    2.83   0.15   1.10
sdh               0.00     0.00    0.00    0.00     0.00     0.00     0.00     0.00    0.00    0.00    0.00   0.00   0.00
md0               0.00     0.00 70436.00    0.00 281744.00     0.00     8.00     0.00    0.00    0.00    0.00   0.00   0.00

