Linux 4.17.2 (bench) 	08/03/2018 	_x86_64_	(4 CPU)

avg-cpu:  %user   %nice %system %iowait  %steal   %idle
          10.26    0.02    4.13    2.67    0.00   82.92

Device:         rrqm/s   wrqm/s     r/s     w/s    rkB/s    wkB/s avgrq-sz avgqu-sz   await r_await w_await  svctm  %util
sda              50.28     4.21 1697.40  101.67 21176.75  3110.94    27.00     1.04    0.58    0.26    5.92   0.06  10.92
sdb              50.11     4.17 1697.36  101.81 21166.28  3107.63    26.98     1.04    0.58    0.26    5.85   0.06  10.80
sdc              87.91     4.23 1657.47  101.36 21158.39  3110.08    27.60     1.46    0.83    0.45    7.12   0.08  14.27
sdd              81.40     4.20 1663.15  101.43 21143.33  3106.30    27.48     1.47    0.83    0.44    7.33   0.08  14.37
sde              83.41     4.24 1668.24  101.53 21202.82  3110.52    27.48     1.49    0.84    0.44    7.44   0.08  14.39
sdf              80.55     4.21 1670.35  101.47 21184.19  3107.41    27.42     1.53    0.86    0.44    7.90   0.08  14.42
sdg               0.00     3.17   26.59   73.28   325.08   392.00    14.36     0.44    4.40    0.20    5.93   0.08   0.78
sdh               0.00     0.13    0.02    0.23     2.19     5.02    56.82     0.00    1.15    0.65    1.19   0.21   0.01
md0               0.00     0.00 10494.75  476.36 145097.58 21294.00    30.33     0.00    0.00    0.00    0.00   0.00   0.00

avg-cpu:  %user   %nice %system %iowait  %steal   %idle
           0.51    0.00    2.04    1.02    0.00   96.44

Device:         rrqm/s   wrqm/s     r/s     w/s    rkB/s    wkB/s avgrq-sz avgqu-sz   await r_await w_await  svctm  %util
sda               3.00     0.00 1141.00    0.00 19632.00     0.00    34.41     0.17    0.15    0.15    0.00   0.13  15.20
sdb               2.00     0.00 1207.00    0.00 19064.00     0.00    31.59     0.19    0.16    0.16    0.00   0.14  16.60
sdc               2.00     0.00 1191.00    0.00 20684.00     0.00    34.73     0.22    0.19    0.19    0.00   0.16  18.70
sdd               3.00     0.00 1138.00    0.00 19284.00     0.00    33.89     0.22    0.19    0.19    0.00   0.16  17.90
sde               2.00     0.00 1167.00    0.00 20216.00     0.00    34.65     0.22    0.19    0.19    0.00   0.16  18.80
sdf               1.00     0.00 1168.00    0.00 19464.00     0.00    33.33     0.23    0.20    0.20    0.00   0.16  18.90
sdg               0.00     0.00    3.00    0.00    88.00     0.00    58.67     0.00    0.33    0.33    0.00   0.33   0.10
sdh               0.00     0.00    0.00    0.00     0.00     0.00     0.00     0.00    0.00    0.00    0.00   0.00   0.00
md0               0.00     0.00 7027.00    0.00 129948.00     0.00    36.99     0.00    0.00    0.00    0.00   0.00   0.00

avg-cpu:  %user   %nice %system %iowait  %steal   %idle
           0.25    0.25    3.28    1.77    0.00   94.44

Device:         rrqm/s   wrqm/s     r/s     w/s    rkB/s    wkB/s avgrq-sz avgqu-sz   await r_await w_await  svctm  %util
sda               2.00     0.00 1213.00    0.00 20772.00     0.00    34.25     0.18    0.15    0.15    0.00   0.13  15.30
sdb               2.00     0.00 1196.00    0.00 21244.00     0.00    35.53     0.20    0.17    0.17    0.00   0.15  17.80
sdc               5.00     0.00 1249.00    0.00 23396.00     0.00    37.46     0.26    0.20    0.20    0.00   0.16  20.20
sdd               2.00     0.00 1144.00    0.00 21440.00     0.00    37.48     0.21    0.18    0.18    0.00   0.16  18.20
sde               5.00     0.00 1169.00    0.00 21348.00     0.00    36.52     0.21    0.18    0.18    0.00   0.15  17.60
sdf               3.00     0.00 1184.00    0.00 21636.00     0.00    36.55     0.24    0.20    0.20    0.00   0.17  19.80
sdg               0.00     0.00 1362.00    0.00  5724.00     0.00     8.41     0.16    0.12    0.12    0.00   0.11  15.20
sdh               0.00     0.00    0.00    0.00     0.00     0.00     0.00     0.00    0.00    0.00    0.00   0.00   0.00
md0               0.00     0.00 7174.00    0.00 146132.00     0.00    40.74     0.00    0.00    0.00    0.00   0.00   0.00

avg-cpu:  %user   %nice %system %iowait  %steal   %idle
           0.00    0.00    2.30    1.28    0.00   96.43

Device:         rrqm/s   wrqm/s     r/s     w/s    rkB/s    wkB/s avgrq-sz avgqu-sz   await r_await w_await  svctm  %util
sda               5.00     0.00 1135.00    0.00 20036.00     0.00    35.31     0.17    0.15    0.15    0.00   0.14  15.70
sdb               5.00     0.00 1173.00    0.00 18716.00     0.00    31.91     0.16    0.13    0.13    0.00   0.13  14.80
sdc               4.00     0.00 1140.00    0.00 20384.00     0.00    35.76     0.20    0.18    0.18    0.00   0.16  18.50
sdd               4.00     0.00 1110.00    0.00 19652.00     0.00    35.41     0.19    0.17    0.17    0.00   0.16  17.60
sde               4.00     0.00 1131.00    0.00 19600.00     0.00    34.66     0.19    0.17    0.17    0.00   0.16  17.90
sdf               5.00     0.00 1121.00    0.00 17968.00     0.00    32.06     0.19    0.17    0.17    0.00   0.16  17.90
sdg               0.00     0.00    0.00    0.00     0.00     0.00     0.00     0.00    0.00    0.00    0.00   0.00   0.00
sdh               0.00     0.00    0.00    0.00     0.00     0.00     0.00     0.00    0.00    0.00    0.00   0.00   0.00
md0               0.00     0.00 6837.00    0.00 132376.00     0.00    38.72     0.00    0.00    0.00    0.00   0.00   0.00

avg-cpu:  %user   %nice %system %iowait  %steal   %idle
           0.25    0.00    2.53   11.90    0.00   85.32

Device:         rrqm/s   wrqm/s     r/s     w/s    rkB/s    wkB/s avgrq-sz avgqu-sz   await r_await w_await  svctm  %util
sda               5.00     0.00 1104.00    0.00 19904.00     0.00    36.06     0.18    0.17    0.17    0.00   0.15  16.70
sdb               4.00     0.00 1137.00    0.00 19184.00     0.00    33.74     0.18    0.15    0.15    0.00   0.14  15.80
sdc               5.00     0.00 1175.00    0.00 20208.00     0.00    34.40     0.21    0.18    0.18    0.00   0.16  19.30
sdd               6.00     0.00 1203.00    0.00 21952.00     0.00    36.50     0.22    0.18    0.18    0.00   0.16  19.30
sde               7.00     0.00 1165.00    0.00 21684.00     0.00    37.23     0.22    0.19    0.19    0.00   0.16  19.10
sdf               6.00     0.00 1182.00    0.00 20220.00     0.00    34.21     0.21    0.18    0.18    0.00   0.16  18.90
sdg               0.00     0.00    0.00    0.00     0.00     0.00     0.00     0.00    0.00    0.00    0.00   0.00   0.00
sdh               0.00     0.00    0.00    0.00     0.00     0.00     0.00     0.00    0.00    0.00    0.00   0.00   0.00
md0               0.00     0.00 7000.00    0.00 139940.00     0.00    39.98     0.00    0.00    0.00    0.00   0.00   0.00

avg-cpu:  %user   %nice %system %iowait  %steal   %idle
           0.25    0.00    2.80   22.90    0.00   74.05

Device:         rrqm/s   wrqm/s     r/s     w/s    rkB/s    wkB/s avgrq-sz avgqu-sz   await r_await w_await  svctm  %util
sda               2.00     0.00 1143.00    0.00 19292.00     0.00    33.76     0.16    0.14    0.14    0.00   0.13  14.70
sdb               4.00     0.00 1181.00    0.00 18684.00     0.00    31.64     0.16    0.13    0.13    0.00   0.12  14.30
sdc               3.00     0.00 1207.00    0.00 20076.00     0.00    33.27     0.23    0.19    0.19    0.00   0.17  20.30
sdd               4.00     0.00 1188.00    0.00 18152.00     0.00    30.56     0.20    0.17    0.17    0.00   0.16  18.70
sde               2.00     0.00 1202.00    0.00 17380.00     0.00    28.92     0.20    0.17    0.17    0.00   0.15  18.60
sdf               1.00     0.00 1235.00    0.00 21000.00     0.00    34.01     0.22    0.18    0.18    0.00   0.16  20.00
sdg               0.00     0.00    0.00 2568.00     0.00 12752.00     9.93    15.79    6.15    0.00    6.15   0.04  11.40
sdh               0.00     0.00    0.00    0.00     0.00     0.00     0.00     0.00    0.00    0.00    0.00   0.00   0.00
md0               0.00     0.00 7171.00    0.00 129172.00     0.00    36.03     0.00    0.00    0.00    0.00   0.00   0.00

avg-cpu:  %user   %nice %system %iowait  %steal   %idle
           0.25    0.00    2.53   13.92    0.00   83.29

Device:         rrqm/s   wrqm/s     r/s     w/s    rkB/s    wkB/s avgrq-sz avgqu-sz   await r_await w_await  svctm  %util
sda               8.00     0.00 1087.00    0.00 21680.00     0.00    39.89     0.17    0.16    0.16    0.00   0.15  16.10
sdb               8.00     0.00 1079.00    0.00 21832.00     0.00    40.47     0.17    0.16    0.16    0.00   0.15  16.30
sdc               9.00     0.00 1089.00    0.00 21700.00     0.00    39.85     0.20    0.18    0.18    0.00   0.17  18.50
sdd               7.00     0.00 1069.00    0.00 20464.00     0.00    38.29     0.19    0.18    0.18    0.00   0.16  17.40
sde               5.00     0.00 1137.00    0.00 18968.00     0.00    33.36     0.20    0.18    0.18    0.00   0.16  18.50
sdf               7.00     0.00 1190.00    0.00 22860.00     0.00    38.42     0.23    0.19    0.19    0.00   0.18  21.00
sdg               0.00     0.00    0.00    0.00     0.00     0.00     0.00     0.00    0.00    0.00    0.00   0.00   0.00
sdh               0.00     0.00    0.00    0.00     0.00     0.00     0.00     0.00    0.00    0.00    0.00   0.00   0.00
md0               0.00     0.00 6696.00    0.00 148584.00     0.00    44.38     0.00    0.00    0.00    0.00   0.00   0.00

avg-cpu:  %user   %nice %system %iowait  %steal   %idle
           0.25    0.00    2.04   19.08    0.00   78.63

Device:         rrqm/s   wrqm/s     r/s     w/s    rkB/s    wkB/s avgrq-sz avgqu-sz   await r_await w_await  svctm  %util
sda               2.00     0.00 1156.00    0.00 19244.00     0.00    33.29     0.17    0.14    0.14    0.00   0.13  15.50
sdb               2.00     0.00 1202.00    0.00 18988.00     0.00    31.59     0.17    0.14    0.14    0.00   0.13  15.20
sdc               4.00     0.00 1155.00    0.00 20792.00     0.00    36.00     0.22    0.19    0.19    0.00   0.17  20.20
sdd               7.00     0.00 1182.00    0.00 24260.00     0.00    41.05     0.20    0.17    0.17    0.00   0.15  17.90
sde              10.00     0.00 1177.00    0.00 21120.00     0.00    35.89     0.20    0.17    0.17    0.00   0.16  18.90
sdf               7.00     0.00 1139.00    0.00 20116.00     0.00    35.32     0.19    0.17    0.17    0.00   0.15  17.50
sdg               0.00     0.00    0.00    0.00     0.00     0.00     0.00     0.00    0.00    0.00    0.00   0.00   0.00
sdh               0.00     0.00    0.00    0.00     0.00     0.00     0.00     0.00    0.00    0.00    0.00   0.00   0.00
md0               0.00     0.00 7041.00    0.00 144468.00     0.00    41.04     0.00    0.00    0.00    0.00   0.00   0.00

avg-cpu:  %user   %nice %system %iowait  %steal   %idle
           0.25    0.00    2.53   16.71    0.00   80.51

Device:         rrqm/s   wrqm/s     r/s     w/s    rkB/s    wkB/s avgrq-sz avgqu-sz   await r_await w_await  svctm  %util
sda               4.00     0.00 1125.00    0.00 19932.00     0.00    35.43     0.16    0.14    0.14    0.00   0.13  14.80
sdb               4.00     0.00 1153.00    0.00 20768.00     0.00    36.02     0.17    0.15    0.15    0.00   0.13  15.10
sdc               3.00     0.00 1108.00    0.00 16544.00     0.00    29.86     0.20    0.18    0.18    0.00   0.17  19.30
sdd               3.00     0.00 1209.00    0.00 21460.00     0.00    35.50     0.23    0.19    0.19    0.00   0.18  21.20
sde               5.00     0.00 1129.00    0.00 20244.00     0.00    35.86     0.21    0.18    0.18    0.00   0.17  19.10
sdf               4.00     0.00 1151.00    0.00 20072.00     0.00    34.88     0.22    0.19    0.19    0.00   0.17  19.80
sdg               0.00     0.00    0.00    0.00     0.00     0.00     0.00     0.00    0.00    0.00    0.00   0.00   0.00
sdh               0.00     0.00    0.00    0.00     0.00     0.00     0.00     0.00    0.00    0.00    0.00   0.00   0.00
md0               0.00     0.00 6899.00    0.00 137448.00     0.00    39.85     0.00    0.00    0.00    0.00   0.00   0.00

avg-cpu:  %user   %nice %system %iowait  %steal   %idle
           0.50    0.00    2.77    6.05    0.00   90.68

Device:         rrqm/s   wrqm/s     r/s     w/s    rkB/s    wkB/s avgrq-sz avgqu-sz   await r_await w_await  svctm  %util
sda               4.00     0.00 1104.00    0.00 18564.00     0.00    33.63     0.16    0.14    0.14    0.00   0.13  14.80
sdb               5.00     0.00 1156.00    0.00 19440.00     0.00    33.63     0.17    0.15    0.15    0.00   0.14  15.80
sdc               5.00     0.00 1167.00    0.00 22304.00     0.00    38.22     0.21    0.18    0.18    0.00   0.17  19.90
sdd               7.00     0.00 1120.00    0.00 22980.00     0.00    41.04     0.21    0.18    0.18    0.00   0.17  19.00
sde               5.00     0.00 1110.00    0.00 21280.00     0.00    38.34     0.20    0.18    0.18    0.00   0.17  18.90
sdf               4.00     0.00 1178.00    0.00 20648.00     0.00    35.06     0.22    0.19    0.19    0.00   0.17  20.30
sdg               0.00     0.00    0.00    0.00     0.00     0.00     0.00     0.00    0.00    0.00    0.00   0.00   0.00
sdh               0.00     0.00    0.00    0.00     0.00     0.00     0.00     0.00    0.00    0.00    0.00   0.00   0.00
md0               0.00     0.00 6866.00    0.00 144568.00     0.00    42.11     0.00    0.00    0.00    0.00   0.00   0.00

avg-cpu:  %user   %nice %system %iowait  %steal   %idle
           0.00    0.00    2.79   20.56    0.00   76.65

Device:         rrqm/s   wrqm/s     r/s     w/s    rkB/s    wkB/s avgrq-sz avgqu-sz   await r_await w_await  svctm  %util
sda               7.00     0.00 1137.00    0.00 21144.00     0.00    37.19     0.18    0.16    0.16    0.00   0.15  16.70
sdb               9.00     0.00 1056.00    0.00 20452.00     0.00    38.73     0.17    0.16    0.16    0.00   0.15  15.90
sdc               8.00     0.00 1036.00    0.00 20456.00     0.00    39.49     0.21    0.20    0.20    0.00   0.18  19.00
sdd               8.00     0.00 1158.00    0.00 22992.00     0.00    39.71     0.24    0.21    0.21    0.00   0.18  21.00
sde              11.00     0.00 1063.00    0.00 22960.00     0.00    43.20     0.21    0.20    0.20    0.00   0.18  19.60
sdf              10.00     0.00 1100.00    0.00 22720.00     0.00    41.31     0.23    0.21    0.21    0.00   0.18  20.10
sdg               0.00     2.00    5.00    5.00    20.00    52.00    14.40     0.00    0.20    0.20    0.20   0.10   0.10
sdh               0.00     0.00    0.00    0.00     0.00     0.00     0.00     0.00    0.00    0.00    0.00   0.00   0.00
md0               0.00     0.00 6601.00    0.00 159216.00     0.00    48.24     0.00    0.00    0.00    0.00   0.00   0.00

avg-cpu:  %user   %nice %system %iowait  %steal   %idle
           0.51    0.00    2.53    5.06    0.00   91.90

Device:         rrqm/s   wrqm/s     r/s     w/s    rkB/s    wkB/s avgrq-sz avgqu-sz   await r_await w_await  svctm  %util
sda               4.00     0.00 1126.00    0.00 18460.00     0.00    32.79     0.18    0.16    0.16    0.00   0.15  16.50
sdb               4.00     0.00 1174.00    0.00 21752.00     0.00    37.06     0.16    0.14    0.14    0.00   0.13  14.70
sdc               7.00     0.00 1145.00    0.00 19412.00     0.00    33.91     0.20    0.17    0.17    0.00   0.16  18.00
sdd               8.00     0.00 1122.00    0.00 21324.00     0.00    38.01     0.21    0.19    0.19    0.00   0.17  19.40
sde               4.00     0.00 1169.00    0.00 19524.00     0.00    33.40     0.22    0.18    0.18    0.00   0.17  19.90
sdf               4.00     0.00 1153.00    0.00 19276.00     0.00    33.44     0.20    0.17    0.17    0.00   0.17  19.40
sdg               0.00     0.00    0.00    0.00     0.00     0.00     0.00     0.00    0.00    0.00    0.00   0.00   0.00
sdh               0.00     0.00    0.00    0.00     0.00     0.00     0.00     0.00    0.00    0.00    0.00   0.00   0.00
md0               0.00     0.00 6921.00    0.00 137896.00     0.00    39.85     0.00    0.00    0.00    0.00   0.00   0.00

avg-cpu:  %user   %nice %system %iowait  %steal   %idle
           0.26    0.00    2.30    1.28    0.00   96.17

Device:         rrqm/s   wrqm/s     r/s     w/s    rkB/s    wkB/s avgrq-sz avgqu-sz   await r_await w_await  svctm  %util
sda               2.00     0.00 1148.00    0.00 17012.00     0.00    29.64     0.16    0.14    0.14    0.00   0.13  14.70
sdb               4.00     0.00 1153.00    0.00 16208.00     0.00    28.11     0.17    0.14    0.14    0.00   0.14  15.60
sdc               4.00     0.00 1206.00    0.00 19432.00     0.00    32.23     0.20    0.17    0.17    0.00   0.15  18.30
sdd               2.00     0.00 1203.00    0.00 18104.00     0.00    30.10     0.18    0.15    0.15    0.00   0.14  17.20
sde               1.00     0.00 1232.00    0.00 20960.00     0.00    34.03     0.20    0.17    0.17    0.00   0.15  18.60
sdf               3.00     0.00 1209.00    0.00 18600.00     0.00    30.77     0.21    0.17    0.17    0.00   0.16  19.30
sdg               0.00     0.00    2.00    0.00     8.00     0.00     8.00     0.00    0.00    0.00    0.00   0.00   0.00
sdh               0.00     0.00    0.00    0.00     0.00     0.00     0.00     0.00    0.00    0.00    0.00   0.00   0.00
md0               0.00     0.00 7166.00    0.00 122092.00     0.00    34.08     0.00    0.00    0.00    0.00   0.00   0.00

avg-cpu:  %user   %nice %system %iowait  %steal   %idle
           0.51    0.00    1.78    1.53    0.00   96.18

Device:         rrqm/s   wrqm/s     r/s     w/s    rkB/s    wkB/s avgrq-sz avgqu-sz   await r_await w_await  svctm  %util
sda               2.00     0.00 1239.00    0.00 18704.00     0.00    30.19     0.18    0.14    0.14    0.00   0.14  16.80
sdb               3.00     0.00 1241.00    0.00 21936.00     0.00    35.35     0.20    0.16    0.16    0.00   0.15  18.00
sdc               4.00     0.00 1132.00    0.00 18432.00     0.00    32.57     0.18    0.16    0.16    0.00   0.15  17.20
sdd               4.00     0.00 1228.00    0.00 20728.00     0.00    33.76     0.23    0.19    0.19    0.00   0.17  20.80
sde               3.00     0.00 1191.00    0.00 19284.00     0.00    32.38     0.19    0.16    0.16    0.00   0.14  17.00
sdf               2.00     0.00 1224.00    0.00 18916.00     0.00    30.91     0.21    0.17    0.17    0.00   0.15  18.90
sdg               0.00     0.00    0.00    0.00     0.00     0.00     0.00     0.00    0.00    0.00    0.00   0.00   0.00
sdh               0.00     0.00    0.00    0.00     0.00     0.00     0.00     0.00    0.00    0.00    0.00   0.00   0.00
md0               0.00     0.00 7273.00    0.00 132364.00     0.00    36.40     0.00    0.00    0.00    0.00   0.00   0.00

avg-cpu:  %user   %nice %system %iowait  %steal   %idle
           0.25    0.00    2.54    0.76    0.00   96.44

Device:         rrqm/s   wrqm/s     r/s     w/s    rkB/s    wkB/s avgrq-sz avgqu-sz   await r_await w_await  svctm  %util
sda              10.00     0.00 1138.00    0.00 22440.00     0.00    39.44     0.18    0.16    0.16    0.00   0.15  16.90
sdb               9.00     0.00 1194.00    0.00 23448.00     0.00    39.28     0.20    0.16    0.16    0.00   0.15  17.80
sdc               7.00     0.00 1158.00    0.00 20028.00     0.00    34.59     0.20    0.17    0.17    0.00   0.15  17.80
sdd               8.00     0.00 1206.00    0.00 21848.00     0.00    36.23     0.21    0.17    0.17    0.00   0.16  19.10
sde              10.00     0.00 1199.00    0.00 23788.00     0.00    39.68     0.23    0.19    0.19    0.00   0.18  21.20
sdf              11.00     0.00 1188.00    0.00 23628.00     0.00    39.78     0.23    0.19    0.19    0.00   0.17  20.20
sdg               0.00     0.00    0.00    0.00     0.00     0.00     0.00     0.00    0.00    0.00    0.00   0.00   0.00
sdh               0.00     0.00    0.00    0.00     0.00     0.00     0.00     0.00    0.00    0.00    0.00   0.00   0.00
md0               0.00     0.00 7140.00    0.00 153864.00     0.00    43.10     0.00    0.00    0.00    0.00   0.00   0.00

avg-cpu:  %user   %nice %system %iowait  %steal   %idle
           0.51    0.00    1.79    1.02    0.00   96.68

Device:         rrqm/s   wrqm/s     r/s     w/s    rkB/s    wkB/s avgrq-sz avgqu-sz   await r_await w_await  svctm  %util
sda               7.00     0.00 1166.00    0.00 22200.00     0.00    38.08     0.19    0.16    0.16    0.00   0.15  17.20
sdb               6.00     0.00 1203.00    0.00 20752.00     0.00    34.50     0.18    0.15    0.15    0.00   0.14  17.10
sdc               4.00     0.00 1151.00    0.00 19956.00     0.00    34.68     0.21    0.18    0.18    0.00   0.17  19.20
sdd               6.00     0.00 1231.00    0.00 21912.00     0.00    35.60     0.20    0.16    0.16    0.00   0.15  18.10
sde               6.00     0.00 1168.00    0.00 18828.00     0.00    32.24     0.20    0.17    0.17    0.00   0.16  18.60
sdf               6.00     0.00 1153.00    0.00 20692.00     0.00    35.89     0.19    0.17    0.17    0.00   0.16  18.30
sdg               0.00     0.00    0.00    0.00     0.00     0.00     0.00     0.00    0.00    0.00    0.00   0.00   0.00
sdh               0.00     0.00    0.00    0.00     0.00     0.00     0.00     0.00    0.00    0.00    0.00   0.00   0.00
md0               0.00     0.00 7106.00    0.00 142188.00     0.00    40.02     0.00    0.00    0.00    0.00   0.00   0.00

avg-cpu:  %user   %nice %system %iowait  %steal   %idle
           0.51    0.00    2.04    1.02    0.00   96.43

Device:         rrqm/s   wrqm/s     r/s     w/s    rkB/s    wkB/s avgrq-sz avgqu-sz   await r_await w_await  svctm  %util
sda               5.00     0.00 1157.00    0.00 19392.00     0.00    33.52     0.16    0.14    0.14    0.00   0.13  15.10
sdb               3.00     0.00 1173.00    0.00 19672.00     0.00    33.54     0.17    0.14    0.14    0.00   0.14  16.20
sdc               3.00     0.00 1253.00    0.00 20440.00     0.00    32.63     0.21    0.17    0.17    0.00   0.15  18.80
sdd               4.00     0.00 1176.00    0.00 20300.00     0.00    34.52     0.21    0.18    0.18    0.00   0.17  19.60
sde               5.00     0.00 1149.00    0.00 21996.00     0.00    38.29     0.23    0.20    0.20    0.00   0.18  20.60
sdf               5.00     0.00 1214.00    0.00 22236.00     0.00    36.63     0.22    0.18    0.18    0.00   0.16  19.60
sdg               0.00     0.00    0.00    0.00     0.00     0.00     0.00     0.00    0.00    0.00    0.00   0.00   0.00
sdh               0.00     0.00    0.00    0.00     0.00     0.00     0.00     0.00    0.00    0.00    0.00   0.00   0.00
md0               0.00     0.00 7146.00    0.00 138740.00     0.00    38.83     0.00    0.00    0.00    0.00   0.00   0.00

avg-cpu:  %user   %nice %system %iowait  %steal   %idle
           0.25    0.00    2.29    7.63    0.00   89.82

Device:         rrqm/s   wrqm/s     r/s     w/s    rkB/s    wkB/s avgrq-sz avgqu-sz   await r_await w_await  svctm  %util
sda               4.00     0.00 1253.00    0.00 21360.00     0.00    34.09     0.18    0.15    0.15    0.00   0.13  16.60
sdb               3.00     0.00 1146.00    0.00 18472.00     0.00    32.24     0.17    0.15    0.15    0.00   0.14  15.90
sdc               2.00     0.00 1153.00    0.00 19040.00     0.00    33.03     0.18    0.16    0.16    0.00   0.15  17.40
sdd               2.00     0.00 1238.00    0.00 20024.00     0.00    32.35     0.23    0.19    0.19    0.00   0.17  20.50
sde               4.00     0.00 1259.00    0.00 20904.00     0.00    33.21     0.20    0.16    0.16    0.00   0.15  18.50
sdf               5.00     0.00 1269.00    0.00 21192.00     0.00    33.40     0.22    0.17    0.17    0.00   0.16  19.70
sdg               0.00     0.00    0.00    0.00     0.00     0.00     0.00     0.00    0.00    0.00    0.00   0.00   0.00
sdh               0.00     0.00    0.00    0.00     0.00     0.00     0.00     0.00    0.00    0.00    0.00   0.00   0.00
md0               0.00     0.00 7338.00    0.00 137332.00     0.00    37.43     0.00    0.00    0.00    0.00   0.00   0.00

avg-cpu:  %user   %nice %system %iowait  %steal   %idle
           0.25    0.00    2.28   14.94    0.00   82.53

Device:         rrqm/s   wrqm/s     r/s     w/s    rkB/s    wkB/s avgrq-sz avgqu-sz   await r_await w_await  svctm  %util
sda               5.00     0.00 1170.00    0.00 19700.00     0.00    33.68     0.18    0.15    0.15    0.00   0.14  16.10
sdb               3.00     0.00 1203.00    0.00 20900.00     0.00    34.75     0.17    0.14    0.14    0.00   0.14  16.40
sdc               1.00     0.00 1167.00    0.00 18036.00     0.00    30.91     0.21    0.18    0.18    0.00   0.17  19.30
sdd               0.00     0.00 1183.00    0.00 18804.00     0.00    31.79     0.20    0.17    0.17    0.00   0.15  17.60
sde               3.00     0.00 1186.00    0.00 19600.00     0.00    33.05     0.20    0.16    0.16    0.00   0.15  17.70
sdf               5.00     0.00 1122.00    0.00 19680.00     0.00    35.08     0.18    0.16    0.16    0.00   0.15  16.70
sdg               0.00     0.00    0.00    0.00     0.00     0.00     0.00     0.00    0.00    0.00    0.00   0.00   0.00
sdh               0.00     0.00    0.00    0.00     0.00     0.00     0.00     0.00    0.00    0.00    0.00   0.00   0.00
md0               0.00     0.00 7050.00    0.00 131396.00     0.00    37.28     0.00    0.00    0.00    0.00   0.00   0.00

avg-cpu:  %user   %nice %system %iowait  %steal   %idle
           0.51    0.00    2.53    1.01    0.00   95.95

Device:         rrqm/s   wrqm/s     r/s     w/s    rkB/s    wkB/s avgrq-sz avgqu-sz   await r_await w_await  svctm  %util
sda               5.00     0.00 1094.00    0.00 18960.00     0.00    34.66     0.17    0.15    0.15    0.00   0.14  15.50
sdb               5.00     0.00 1119.00    0.00 20484.00     0.00    36.61     0.15    0.14    0.14    0.00   0.13  14.10
sdc               7.00     0.00 1126.00    0.00 21156.00     0.00    37.58     0.20    0.18    0.18    0.00   0.17  18.80
sdd               8.00     0.00 1190.00    0.00 22052.00     0.00    37.06     0.22    0.18    0.18    0.00   0.17  19.90
sde               8.00     0.00 1031.00    0.00 18912.00     0.00    36.69     0.17    0.17    0.17    0.00   0.16  16.00
sdf               7.00     0.00 1153.00    0.00 19484.00     0.00    33.80     0.21    0.18    0.18    0.00   0.17  19.50
sdg               0.00     0.00    0.00    0.00     0.00     0.00     0.00     0.00    0.00    0.00    0.00   0.00   0.00
sdh               0.00     0.00    0.00    0.00     0.00     0.00     0.00     0.00    0.00    0.00    0.00   0.00   0.00
md0               0.00     0.00 6752.00    0.00 140856.00     0.00    41.72     0.00    0.00    0.00    0.00   0.00   0.00

avg-cpu:  %user   %nice %system %iowait  %steal   %idle
           0.51    0.00    2.28    1.02    0.00   96.19

Device:         rrqm/s   wrqm/s     r/s     w/s    rkB/s    wkB/s avgrq-sz avgqu-sz   await r_await w_await  svctm  %util
sda               3.00     0.00 1101.00    0.00 19336.00     0.00    35.12     0.16    0.15    0.15    0.00   0.13  14.50
sdb               5.00     0.00 1217.00    0.00 21060.00     0.00    34.61     0.19    0.16    0.16    0.00   0.14  17.40
sdc               5.00     0.00 1154.00    0.00 20684.00     0.00    35.85     0.21    0.18    0.18    0.00   0.17  19.50
sdd               7.00     0.00 1146.00    0.00 20280.00     0.00    35.39     0.20    0.18    0.18    0.00   0.16  18.60
sde               6.00     0.00 1131.00    0.00 19940.00     0.00    35.26     0.19    0.17    0.17    0.00   0.15  17.40
sdf               4.00     0.00 1050.00    0.00 17352.00     0.00    33.05     0.18    0.17    0.17    0.00   0.16  16.40
sdg               0.00     0.00    0.00    0.00     0.00     0.00     0.00     0.00    0.00    0.00    0.00   0.00   0.00
sdh               0.00     0.00    0.00    0.00     0.00     0.00     0.00     0.00    0.00    0.00    0.00   0.00   0.00
md0               0.00     0.00 6829.00    0.00 139128.00     0.00    40.75     0.00    0.00    0.00    0.00   0.00   0.00

