Linux 4.17.2 (bench) 	08/03/2018 	_x86_64_	(4 CPU)

avg-cpu:  %user   %nice %system %iowait  %steal   %idle
          10.26    0.02    4.13    2.67    0.00   82.92

Device:         rrqm/s   wrqm/s     r/s     w/s    rkB/s    wkB/s avgrq-sz avgqu-sz   await r_await w_await  svctm  %util
sda              50.28     4.21 1698.64  101.64 21187.51  3109.94    26.99     1.04    0.58    0.26    5.92   0.06  10.92
sdb              50.11     4.17 1698.61  101.77 21177.03  3106.63    26.98     1.04    0.58    0.26    5.85   0.06  10.80
sdc              87.90     4.23 1658.72  101.33 21169.13  3109.07    27.59     1.46    0.83    0.45    7.12   0.08  14.28
sdd              81.39     4.20 1664.41  101.40 21154.12  3105.30    27.48     1.47    0.83    0.43    7.33   0.08  14.38
sde              83.40     4.24 1669.49  101.49 21213.61  3109.51    27.47     1.49    0.84    0.44    7.44   0.08  14.40
sdf              80.53     4.21 1671.61  101.44 21194.96  3106.40    27.41     1.53    0.86    0.44    7.90   0.08  14.43
sdg               0.00     3.17   26.60   73.28   325.12   392.00    14.36     0.44    4.40    0.20    5.93   0.08   0.78
sdh               0.00     0.13    0.02    0.23     2.19     5.02    56.82     0.00    1.15    0.65    1.19   0.21   0.01
md0               0.00     0.00 10502.18  476.21 145179.24 21287.12    30.33     0.00    0.00    0.00    0.00   0.00   0.00

avg-cpu:  %user   %nice %system %iowait  %steal   %idle
           2.11    0.01   21.78   47.55    0.00   28.55

Device:         rrqm/s   wrqm/s     r/s     w/s    rkB/s    wkB/s avgrq-sz avgqu-sz   await r_await w_await  svctm  %util
sda              26.95     0.00 9255.65    0.00 59636.20     0.00    12.89     1.73    0.19    0.19    0.00   0.03  27.13
sdb              26.25     0.00 9278.70    0.00 59860.40     0.00    12.90     1.76    0.19    0.19    0.00   0.03  27.23
sdc              28.05     0.00 9329.10    0.00 60399.20     0.00    12.95     2.34    0.25    0.25    0.00   0.04  36.31
sdd              26.35     0.00 9305.65    0.00 60839.20     0.00    13.08     2.36    0.25    0.25    0.00   0.04  36.45
sde              26.75     0.00 9254.10    0.00 60038.40     0.00    12.98     2.26    0.24    0.24    0.00   0.04  35.84
sdf              27.30     0.00 9247.60    0.00 59490.80     0.00    12.87     2.38    0.26    0.26    0.00   0.04  40.42
sdg               0.00     0.20  160.35    1.90   673.80    11.60     8.45     0.02    0.13    0.13    0.03   0.12   2.02
sdh               0.00     0.00    0.00    0.00     0.00     0.00     0.00     0.00    0.00    0.00    0.00   0.00   0.00
md0               0.00     0.00 55910.00    0.00 401990.60     0.00    14.38     0.00    0.00    0.00    0.00   0.00   0.00

