Linux 4.17.2 (bench) 	08/03/2018 	_x86_64_	(4 CPU)

avg-cpu:  %user   %nice %system %iowait  %steal   %idle
          10.27    0.02    4.11    2.62    0.00   82.99

Device:         rrqm/s   wrqm/s     r/s     w/s    rkB/s    wkB/s avgrq-sz avgqu-sz   await r_await w_await  svctm  %util
sda              47.32     4.22 1681.20  102.03 21096.61  3121.93    27.16     1.04    0.58    0.26    5.92   0.06  10.84
sdb              47.17     4.18 1681.16  102.17 21086.09  3118.61    27.15     1.04    0.58    0.26    5.85   0.06  10.72
sdc              84.99     4.24 1641.25  101.72 21078.23  3121.06    27.77     1.46    0.84    0.45    7.12   0.08  14.19
sdd              78.45     4.21 1646.96  101.79 21063.15  3117.28    27.65     1.46    0.84    0.44    7.33   0.08  14.29
sde              80.47     4.26 1652.04  101.89 21122.77  3121.50    27.65     1.49    0.85    0.44    7.44   0.08  14.31
sdf              77.59     4.23 1654.17  101.83 21104.11  3118.38    27.59     1.53    0.87    0.44    7.90   0.08  14.34
sdg               0.00     3.17   26.48   73.30   324.66   392.03    14.37     0.44    4.41    0.20    5.93   0.08   0.78
sdh               0.00     0.13    0.02    0.23     2.20     5.04    56.82     0.00    1.15    0.65    1.19   0.21   0.01
md0               0.00     0.00 10379.72  478.04 144553.64 21369.21    30.56     0.00    0.00    0.00    0.00   0.00   0.00

avg-cpu:  %user   %nice %system %iowait  %steal   %idle
           4.93    0.03   35.82    0.33    0.00   58.90

Device:         rrqm/s   wrqm/s     r/s     w/s    rkB/s    wkB/s avgrq-sz avgqu-sz   await r_await w_await  svctm  %util
sda            6095.05     0.00 23889.40    0.00 120277.40     0.00    10.07    19.79    0.83    0.83    0.00   0.02  53.86
sdb            6137.35     0.00 23854.55    0.00 120309.80     0.00    10.09    19.89    0.83    0.83    0.00   0.02  53.86
sdc            6344.25     0.00 23636.15    0.00 120269.00     0.00    10.18    24.34    1.03    1.03    0.00   0.03  64.79
sdd            6373.05     0.00 23602.65    0.00 120248.40     0.00    10.19    24.42    1.03    1.03    0.00   0.03  65.22
sde            6380.45     0.00 23670.00    0.00 120544.20     0.00    10.19    24.60    1.04    1.04    0.00   0.03  65.40
sdf            6421.65     0.00 23665.00    0.00 120696.20     0.00    10.20    24.73    1.04    1.04    0.00   0.03  65.59
sdg               0.00     1.05   94.50   72.40   386.60   383.20     9.22     0.44    2.65    0.13    5.95   0.09   1.48
sdh               0.00     0.00    0.00    0.00     0.00     0.00     0.00     0.00    0.00    0.00    0.00   0.00   0.00
md0               0.00     0.00 180614.55    0.00 722458.20     0.00     8.00     0.00    0.00    0.00    0.00   0.00   0.00

