Linux 4.17.2 (bench) 	08/03/2018 	_x86_64_	(4 CPU)

avg-cpu:  %user   %nice %system %iowait  %steal   %idle
          10.25    0.02    4.18    2.74    0.00   82.80

Device:         rrqm/s   wrqm/s     r/s     w/s    rkB/s    wkB/s avgrq-sz avgqu-sz   await r_await w_await  svctm  %util
sda              53.50     4.18 1731.09  101.02 21387.93  3091.13    26.72     1.05    0.57    0.26    5.92   0.06  11.06
sdb              53.30     4.14 1731.10  101.16 21377.46  3087.84    26.71     1.05    0.57    0.26    5.85   0.06  10.94
sdc              91.01     4.20 1691.29  100.72 21369.69  3090.27    27.30     1.47    0.82    0.44    7.12   0.08  14.44
sdd              84.55     4.17 1696.94  100.79 21354.76  3086.52    27.19     1.47    0.82    0.43    7.33   0.08  14.53
sde              86.54     4.21 1702.02  100.88 21414.07  3090.71    27.18     1.50    0.83    0.44    7.44   0.08  14.56
sdf              83.70     4.19 1704.12  100.83 21395.57  3087.62    27.13     1.54    0.85    0.44    7.90   0.08  14.59
sdg               0.00     3.17   26.86   73.25   326.17   392.00    14.35     0.44    4.39    0.20    5.93   0.08   0.79
sdh               0.00     0.13    0.02    0.23     2.18     4.99    56.82     0.00    1.15    0.65    1.19   0.21   0.01
md0               0.00     0.00 10716.62  473.33 146622.83 21158.39    29.99     0.00    0.00    0.00    0.00   0.00   0.00

avg-cpu:  %user   %nice %system %iowait  %steal   %idle
           1.26    0.00   13.10   49.12    0.00   36.52

Device:         rrqm/s   wrqm/s     r/s     w/s    rkB/s    wkB/s avgrq-sz avgqu-sz   await r_await w_await  svctm  %util
sda               9.00     0.00 7484.00    0.00 58656.00     0.00    15.68     1.01    0.14    0.14    0.00   0.09  66.10
sdb               8.00     0.00 7456.00    0.00 59716.00     0.00    16.02     1.00    0.13    0.13    0.00   0.08  62.80
sdc               7.00     0.00 7521.00    0.00 57820.00     0.00    15.38     1.15    0.15    0.15    0.00   0.09  69.60
sdd               9.00     0.00 7353.00    0.00 56676.00     0.00    15.42     1.09    0.15    0.15    0.00   0.10  72.60
sde              14.00     0.00 7343.00    0.00 57272.00     0.00    15.60     1.07    0.15    0.15    0.00   0.10  71.90
sdf              12.00     0.00 7463.00    0.00 59632.00     0.00    15.98     1.19    0.16    0.16    0.00   0.10  73.40
sdg               0.00    16.00   43.00   70.00   688.00  1280.00    34.83     0.17    1.50    0.21    2.30   0.12   1.40
sdh               0.00     0.00    0.00    0.00     0.00     0.00     0.00     0.00    0.00    0.00    0.00   0.00   0.00
md0               0.00     0.00 44678.00    0.00 377796.00     0.00    16.91     0.00    0.00    0.00    0.00   0.00   0.00

avg-cpu:  %user   %nice %system %iowait  %steal   %idle
           1.01    0.00   12.41   49.87    0.00   36.71

Device:         rrqm/s   wrqm/s     r/s     w/s    rkB/s    wkB/s avgrq-sz avgqu-sz   await r_await w_await  svctm  %util
sda              10.00     0.00 7352.00    0.00 60424.00     0.00    16.44     0.95    0.13    0.13    0.00   0.09  63.90
sdb               5.00     0.00 7272.00    0.00 56852.00     0.00    15.64     0.96    0.13    0.13    0.00   0.08  60.80
sdc               5.00     0.00 7462.00    0.00 56684.00     0.00    15.19     1.16    0.16    0.16    0.00   0.09  68.30
sdd               5.00     0.00 7315.00    0.00 61560.00     0.00    16.83     1.15    0.16    0.16    0.00   0.10  71.60
sde              14.00     0.00 7489.00    0.00 58952.00     0.00    15.74     1.15    0.15    0.15    0.00   0.10  71.40
sdf              13.00     0.00 7233.00    0.00 57160.00     0.00    15.81     1.13    0.16    0.16    0.00   0.10  71.20
sdg               0.00     1.00    0.00    2.00     0.00    16.00    16.00     0.00    0.00    0.00    0.00   0.00   0.00
sdh               0.00     0.00    0.00    0.00     0.00     0.00     0.00     0.00    0.00    0.00    0.00   0.00   0.00
md0               0.00     0.00 44179.00    0.00 383168.00     0.00    17.35     0.00    0.00    0.00    0.00   0.00   0.00

