Linux 4.17.2 (bench) 	08/03/2018 	_x86_64_	(4 CPU)

avg-cpu:  %user   %nice %system %iowait  %steal   %idle
          10.26    0.02    4.17    2.73    0.00   82.83

Device:         rrqm/s   wrqm/s     r/s     w/s    rkB/s    wkB/s avgrq-sz avgqu-sz   await r_await w_await  svctm  %util
sda              53.45     4.19 1722.80  101.19 21323.99  3096.36    26.78     1.05    0.57    0.26    5.92   0.06  11.02
sdb              53.26     4.15 1722.80  101.33 21313.54  3093.07    26.76     1.05    0.57    0.26    5.85   0.06  10.90
sdc              91.03     4.21 1682.93  100.89 21305.70  3095.50    27.36     1.47    0.82    0.44    7.12   0.08  14.39
sdd              84.55     4.18 1688.59  100.96 21290.70  3091.75    27.25     1.47    0.82    0.43    7.33   0.08  14.49
sde              86.55     4.22 1693.68  101.05 21350.11  3095.94    27.24     1.49    0.83    0.44    7.44   0.08  14.51
sdf              83.70     4.19 1695.78  101.00 21331.55  3092.84    27.19     1.54    0.86    0.44    7.90   0.08  14.54
sdg               0.00     3.17   26.78   73.26   325.86   391.99    14.35     0.44    4.40    0.20    5.93   0.08   0.78
sdh               0.00     0.13    0.02    0.23     2.18     5.00    56.82     0.00    1.15    0.65    1.19   0.21   0.01
md0               0.00     0.00 10666.50  474.13 146133.56 21194.20    30.04     0.00    0.00    0.00    0.00   0.00   0.00

avg-cpu:  %user   %nice %system %iowait  %steal   %idle
           1.15    0.01    8.44   37.63    0.00   52.76

Device:         rrqm/s   wrqm/s     r/s     w/s    rkB/s    wkB/s avgrq-sz avgqu-sz   await r_await w_await  svctm  %util
sda              22.20     0.00 3205.05    0.00 58261.60     0.00    36.36     0.64    0.20    0.20    0.00   0.09  28.74
sdb              23.95     0.00 3155.40    0.00 57015.80     0.00    36.14     0.63    0.20    0.20    0.00   0.09  28.45
sdc              23.90     0.00 3187.25    0.00 57941.40     0.00    36.36     0.85    0.27    0.27    0.00   0.12  36.69
sdd              24.05     0.00 3242.95    0.00 58079.20     0.00    35.82     0.87    0.27    0.27    0.00   0.11  37.08
sde              22.15     0.00 3183.60    0.00 56605.00     0.00    35.56     0.83    0.26    0.26    0.00   0.11  36.28
sdf              22.20     0.00 3256.05    0.00 58383.00     0.00    35.86     0.87    0.27    0.27    0.00   0.12  37.67
sdg               0.00     3.40    1.00  127.65     7.80   641.20    10.09     0.77    6.02    0.20    6.06   0.05   0.58
sdh               0.00     0.00    0.00    0.00     0.00     0.00     0.00     0.00    0.00    0.00    0.00   0.00   0.00
md0               0.00     0.00 19552.30    0.00 413697.20     0.00    42.32     0.00    0.00    0.00    0.00   0.00   0.00

