Linux 4.17.2 (bench) 	08/03/2018 	_x86_64_	(4 CPU)

avg-cpu:  %user   %nice %system %iowait  %steal   %idle
          10.25    0.02    4.19    2.75    0.00   82.80

Device:         rrqm/s   wrqm/s     r/s     w/s    rkB/s    wkB/s avgrq-sz avgqu-sz   await r_await w_await  svctm  %util
sda              53.69     4.18 1733.87  100.98 21413.79  3089.88    26.71     1.05    0.57    0.26    5.92   0.06  11.07
sdb              53.49     4.14 1733.87  101.12 21403.32  3086.60    26.69     1.05    0.57    0.26    5.85   0.06  10.95
sdc              91.18     4.20 1694.08  100.68 21395.55  3089.02    27.28     1.47    0.82    0.44    7.12   0.08  14.46
sdd              84.72     4.17 1699.73  100.74 21380.65  3085.28    27.18     1.48    0.82    0.43    7.33   0.08  14.55
sde              86.72     4.21 1704.81  100.84 21439.95  3089.46    27.17     1.50    0.83    0.44    7.44   0.08  14.57
sdf              83.87     4.18 1706.91  100.79 21421.43  3086.37    27.11     1.54    0.85    0.44    7.90   0.08  14.60
sdg               0.00     3.17   26.89   73.25   326.29   392.01    14.35     0.44    4.39    0.20    5.93   0.08   0.79
sdh               0.00     0.13    0.02    0.23     2.18     4.99    56.82     0.00    1.15    0.65    1.19   0.21   0.01
md0               0.00     0.00 10734.48  473.14 146822.19 21149.84    29.97     0.00    0.00    0.00    0.00   0.00   0.00

avg-cpu:  %user   %nice %system %iowait  %steal   %idle
           1.11    0.01   54.32    0.60    0.00   43.95

Device:         rrqm/s   wrqm/s     r/s     w/s    rkB/s    wkB/s avgrq-sz avgqu-sz   await r_await w_await  svctm  %util
sda               0.20     0.00 31737.55    0.00 126951.00     0.00     8.00    36.29    1.14    1.14    0.00   0.02  75.30
sdb               0.10     0.00 31768.05    0.00 127072.60     0.00     8.00    36.56    1.15    1.15    0.00   0.02  75.45
sdc               0.35     0.00 31670.75    0.00 126684.40     0.00     8.00    43.12    1.36    1.36    0.00   0.03  79.81
sdd               0.20     0.00 31759.80    0.00 127040.00     0.00     8.00    43.56    1.37    1.37    0.00   0.03  79.98
sde               0.35     0.00 31670.20    0.00 126682.20     0.00     8.00    43.44    1.37    1.37    0.00   0.03  79.94
sdf               0.35     0.00 31737.35    0.00 126951.20     0.00     8.00    43.80    1.38    1.38    0.00   0.03  80.50
sdg               0.00     1.25   93.55  130.20   381.00   644.40     9.17     0.82    3.66    0.13    6.20   0.08   1.78
sdh               0.00     0.00    0.00    0.00     0.00     0.00     0.00     0.00    0.00    0.00    0.00   0.00   0.00
md0               0.00     0.00 190366.80    0.00 761467.60     0.00     8.00     0.00    0.00    0.00    0.00   0.00   0.00

