Linux 4.17.2 (bench) 	08/03/2018 	_x86_64_	(4 CPU)

avg-cpu:  %user   %nice %system %iowait  %steal   %idle
          10.25    0.02    4.19    2.75    0.00   82.80

Device:         rrqm/s   wrqm/s     r/s     w/s    rkB/s    wkB/s avgrq-sz avgqu-sz   await r_await w_await  svctm  %util
sda              53.68     4.18 1734.68  100.98 21416.05  3089.67    26.70     1.05    0.57    0.26    5.92   0.06  11.07
sdb              53.48     4.14 1734.68  101.11 21405.57  3086.38    26.68     1.05    0.57    0.26    5.85   0.06  10.95
sdc              91.18     4.20 1694.89  100.67 21397.81  3088.81    27.27     1.47    0.82    0.44    7.12   0.08  14.46
sdd              84.71     4.17 1700.54  100.74 21382.91  3085.06    27.17     1.48    0.82    0.43    7.33   0.08  14.55
sde              86.71     4.21 1705.62  100.83 21442.20  3089.24    27.16     1.50    0.83    0.44    7.44   0.08  14.57
sdf              83.86     4.18 1707.72  100.78 21423.69  3086.16    27.11     1.54    0.85    0.44    7.90   0.08  14.61
sdg               0.00     3.17   26.89   73.26   326.31   392.02    14.35     0.44    4.39    0.20    5.93   0.08   0.79
sdh               0.00     0.13    0.02    0.23     2.18     4.99    56.82     0.00    1.15    0.65    1.19   0.21   0.01
md0               0.00     0.00 10739.32  473.10 146834.46 21148.37    29.96     0.00    0.00    0.00    0.00   0.00   0.00

avg-cpu:  %user   %nice %system %iowait  %steal   %idle
           4.01    0.00   21.05    0.00    0.00   74.94

Device:         rrqm/s   wrqm/s     r/s     w/s    rkB/s    wkB/s avgrq-sz avgqu-sz   await r_await w_await  svctm  %util
sda               0.00     0.00 19055.00    0.00 76220.00     0.00     8.00     2.22    0.12    0.12    0.00   0.04  73.00
sdb               0.00     0.00 18588.00    0.00 74352.00     0.00     8.00     1.98    0.11    0.11    0.00   0.04  71.00
sdc               0.00     0.00 19048.00    0.00 76192.00     0.00     8.00     2.59    0.14    0.14    0.00   0.04  75.60
sdd               0.00     0.00 18961.00    0.00 75844.00     0.00     8.00     2.59    0.14    0.14    0.00   0.04  75.40
sde               0.00     0.00 18914.00    0.00 75656.00     0.00     8.00     2.48    0.13    0.13    0.00   0.04  75.00
sdf               0.00     0.00 18931.00    0.00 75724.00     0.00     8.00     2.49    0.13    0.13    0.00   0.04  75.60
sdg               0.00     2.00    0.00   12.00     0.00    60.00    10.00     0.00    0.00    0.00    0.00   0.00   0.00
sdh               0.00     0.00    0.00    0.00     0.00     0.00     0.00     0.00    0.00    0.00    0.00   0.00   0.00
md0               0.00     0.00 113124.00    0.00 452496.00     0.00     8.00     0.00    0.00    0.00    0.00   0.00   0.00

