Linux 4.17.2 (bench) 	08/03/2018 	_x86_64_	(4 CPU)

avg-cpu:  %user   %nice %system %iowait  %steal   %idle
          10.27    0.02    4.10    2.61    0.00   83.00

Device:         rrqm/s   wrqm/s     r/s     w/s    rkB/s    wkB/s avgrq-sz avgqu-sz   await r_await w_await  svctm  %util
sda              47.07     4.23 1673.32  102.13 21044.83  3124.96    27.23     1.04    0.58    0.26    5.92   0.06  10.82
sdb              46.92     4.19 1673.27  102.27 21034.29  3121.64    27.21     1.03    0.58    0.26    5.85   0.06  10.69
sdc              84.77     4.25 1633.33  101.82 21026.45  3124.09    27.84     1.45    0.84    0.45    7.12   0.08  14.16
sdd              78.22     4.22 1639.05  101.89 21011.38  3120.30    27.72     1.46    0.84    0.44    7.33   0.08  14.25
sde              80.24     4.26 1644.12  101.98 21071.00  3124.54    27.71     1.48    0.85    0.44    7.44   0.08  14.28
sdf              77.37     4.23 1646.26  101.93 21052.32  3121.41    27.66     1.53    0.87    0.44    7.90   0.08  14.31
sdg               0.00     3.17   26.43   73.30   324.44   392.02    14.37     0.44    4.41    0.20    5.93   0.08   0.78
sdh               0.00     0.13    0.02    0.23     2.20     5.04    56.82     0.00    1.15    0.65    1.19   0.21   0.01
md0               0.00     0.00 10330.79  478.51 144182.85 21389.97    30.64     0.00    0.00    0.00    0.00   0.00   0.00

avg-cpu:  %user   %nice %system %iowait  %steal   %idle
           3.33    0.00   23.85   50.51    0.00   22.31

Device:         rrqm/s   wrqm/s     r/s     w/s    rkB/s    wkB/s avgrq-sz avgqu-sz   await r_await w_await  svctm  %util
sda               0.00     0.00 13828.00    0.00 58648.00     0.00     8.48     1.61    0.12    0.12    0.00   0.05  66.70
sdb               0.00     0.00 13768.00    0.00 58932.00     0.00     8.56     1.59    0.12    0.12    0.00   0.05  67.60
sdc               0.00     0.00 13497.00    0.00 57720.00     0.00     8.55     1.86    0.14    0.14    0.00   0.05  70.90
sdd               0.00     0.00 13614.00    0.00 57944.00     0.00     8.51     1.86    0.14    0.14    0.00   0.05  68.30
sde               0.00     0.00 13498.00    0.00 57408.00     0.00     8.51     1.76    0.13    0.13    0.00   0.05  70.10
sdf               0.00     0.00 13724.00    0.00 58504.00     0.00     8.53     1.88    0.14    0.14    0.00   0.05  71.50
sdg               0.00     0.00    3.00    0.00    88.00     0.00    58.67     0.00    0.00    0.00    0.00   0.00   0.00
sdh               0.00     0.00    0.00    0.00     0.00     0.00     0.00     0.00    0.00    0.00    0.00   0.00   0.00
md0               0.00     0.00 81930.00    0.00 349876.00     0.00     8.54     0.00    0.00    0.00    0.00   0.00   0.00

avg-cpu:  %user   %nice %system %iowait  %steal   %idle
           3.59    0.00   23.33   50.77    0.00   22.31

Device:         rrqm/s   wrqm/s     r/s     w/s    rkB/s    wkB/s avgrq-sz avgqu-sz   await r_await w_await  svctm  %util
sda               1.00     0.00 13444.00    0.00 58324.00     0.00     8.68     1.53    0.11    0.11    0.00   0.05  67.70
sdb               0.00     0.00 13354.00    0.00 57052.00     0.00     8.54     1.60    0.12    0.12    0.00   0.05  67.10
sdc               0.00     0.00 13582.00    0.00 58560.00     0.00     8.62     1.82    0.13    0.13    0.00   0.05  69.40
sdd               0.00     0.00 13349.00    0.00 57356.00     0.00     8.59     1.75    0.13    0.13    0.00   0.05  68.10
sde               0.00     0.00 13733.00    0.00 59592.00     0.00     8.68     1.92    0.14    0.14    0.00   0.05  71.80
sdf               1.00     0.00 13451.00    0.00 58252.00     0.00     8.66     1.82    0.14    0.14    0.00   0.05  72.30
sdg               0.00     0.00    0.00    0.00     0.00     0.00     0.00     0.00    0.00    0.00    0.00   0.00   0.00
sdh               0.00     0.00    0.00    0.00     0.00     0.00     0.00     0.00    0.00    0.00    0.00   0.00   0.00
md0               0.00     0.00 80944.00    0.00 351832.00     0.00     8.69     0.00    0.00    0.00    0.00   0.00   0.00

avg-cpu:  %user   %nice %system %iowait  %steal   %idle
           2.80    0.00   24.68   50.89    0.00   21.63

Device:         rrqm/s   wrqm/s     r/s     w/s    rkB/s    wkB/s avgrq-sz avgqu-sz   await r_await w_await  svctm  %util
sda               0.00     0.00 13829.00    0.00 58460.00     0.00     8.45     1.60    0.12    0.12    0.00   0.05  69.20
sdb               1.00     0.00 13771.00    0.00 58180.00     0.00     8.45     1.60    0.12    0.12    0.00   0.05  67.10
sdc               0.00     0.00 13502.00    0.00 57812.00     0.00     8.56     1.81    0.13    0.13    0.00   0.05  68.70
sdd               0.00     0.00 13824.00    0.00 59000.00     0.00     8.54     1.81    0.13    0.13    0.00   0.05  69.00
sde               0.00     0.00 13717.00    0.00 58240.00     0.00     8.49     1.89    0.14    0.14    0.00   0.05  69.30
sdf               0.00     0.00 13683.00    0.00 58156.00     0.00     8.50     1.85    0.14    0.14    0.00   0.05  71.50
sdg               0.00     0.00    0.00    0.00     0.00     0.00     0.00     0.00    0.00    0.00    0.00   0.00   0.00
sdh               0.00     0.00    0.00    0.00     0.00     0.00     0.00     0.00    0.00    0.00    0.00   0.00   0.00
md0               0.00     0.00 82321.00    0.00 351168.00     0.00     8.53     0.00    0.00    0.00    0.00   0.00   0.00

avg-cpu:  %user   %nice %system %iowait  %steal   %idle
           3.32    0.00   23.79   51.15    0.00   21.74

Device:         rrqm/s   wrqm/s     r/s     w/s    rkB/s    wkB/s avgrq-sz avgqu-sz   await r_await w_await  svctm  %util
sda               0.00     0.00 13948.00    0.00 60252.00     0.00     8.64     1.68    0.12    0.12    0.00   0.05  69.40
sdb               0.00     0.00 13381.00    0.00 57212.00     0.00     8.55     1.56    0.12    0.12    0.00   0.05  67.90
sdc               0.00     0.00 13357.00    0.00 56760.00     0.00     8.50     1.79    0.13    0.13    0.00   0.05  68.00
sdd               0.00     0.00 13726.00    0.00 58736.00     0.00     8.56     1.92    0.14    0.14    0.00   0.05  71.40
sde               0.00     0.00 13528.00    0.00 58004.00     0.00     8.58     1.85    0.14    0.14    0.00   0.05  69.50
sdf               0.00     0.00 13700.00    0.00 58472.00     0.00     8.54     1.86    0.14    0.14    0.00   0.05  72.00
sdg               0.00     0.00    0.00    0.00     0.00     0.00     0.00     0.00    0.00    0.00    0.00   0.00   0.00
sdh               0.00     0.00    0.00    0.00     0.00     0.00     0.00     0.00    0.00    0.00    0.00   0.00   0.00
md0               0.00     0.00 81636.00    0.00 350556.00     0.00     8.59     0.00    0.00    0.00    0.00   0.00   0.00

avg-cpu:  %user   %nice %system %iowait  %steal   %idle
           3.06    0.00   23.98   50.51    0.00   22.45

Device:         rrqm/s   wrqm/s     r/s     w/s    rkB/s    wkB/s avgrq-sz avgqu-sz   await r_await w_await  svctm  %util
sda               0.00     0.00 13340.00    0.00 56952.00     0.00     8.54     1.59    0.12    0.12    0.00   0.05  68.50
sdb               0.00     0.00 13343.00    0.00 56648.00     0.00     8.49     1.59    0.12    0.12    0.00   0.05  67.70
sdc               0.00     0.00 13393.00    0.00 56908.00     0.00     8.50     1.81    0.14    0.14    0.00   0.05  68.30
sdd               0.00     0.00 13390.00    0.00 58080.00     0.00     8.68     1.87    0.14    0.14    0.00   0.05  71.20
sde               0.00     0.00 13404.00    0.00 58628.00     0.00     8.75     1.72    0.13    0.13    0.00   0.05  67.30
sdf               0.00     0.00 13462.00    0.00 58704.00     0.00     8.72     1.84    0.14    0.14    0.00   0.05  71.30
sdg               0.00     0.00    0.00    0.00     0.00     0.00     0.00     0.00    0.00    0.00    0.00   0.00   0.00
sdh               0.00     0.00    0.00    0.00     0.00     0.00     0.00     0.00    0.00    0.00    0.00   0.00   0.00
md0               0.00     0.00 80337.00    0.00 347408.00     0.00     8.65     0.00    0.00    0.00    0.00   0.00   0.00

avg-cpu:  %user   %nice %system %iowait  %steal   %idle
           3.33    0.00   23.59   50.77    0.00   22.31

Device:         rrqm/s   wrqm/s     r/s     w/s    rkB/s    wkB/s avgrq-sz avgqu-sz   await r_await w_await  svctm  %util
sda               0.00     0.00 13554.00    0.00 58860.00     0.00     8.69     1.57    0.12    0.12    0.00   0.05  67.50
sdb               0.00     0.00 13619.00    0.00 59016.00     0.00     8.67     1.65    0.12    0.12    0.00   0.05  68.20
sdc               0.00     0.00 13519.00    0.00 57664.00     0.00     8.53     1.78    0.13    0.13    0.00   0.05  67.80
sdd               0.00     0.00 13445.00    0.00 57376.00     0.00     8.53     1.77    0.13    0.13    0.00   0.05  68.60
sde               0.00     0.00 13593.00    0.00 58348.00     0.00     8.59     1.84    0.14    0.14    0.00   0.05  69.50
sdf               0.00     0.00 13444.00    0.00 57660.00     0.00     8.58     1.78    0.13    0.13    0.00   0.05  69.70
sdg               0.00     0.00    0.00    0.00     0.00     0.00     0.00     0.00    0.00    0.00    0.00   0.00   0.00
sdh               0.00     0.00    0.00    0.00     0.00     0.00     0.00     0.00    0.00    0.00    0.00   0.00   0.00
md0               0.00     0.00 81173.00    0.00 349664.00     0.00     8.62     0.00    0.00    0.00    0.00   0.00   0.00

avg-cpu:  %user   %nice %system %iowait  %steal   %idle
           3.25    0.00   25.25   49.75    0.00   21.75

Device:         rrqm/s   wrqm/s     r/s     w/s    rkB/s    wkB/s avgrq-sz avgqu-sz   await r_await w_await  svctm  %util
sda               0.00     0.00 13495.00    0.00 58048.00     0.00     8.60     1.58    0.12    0.12    0.00   0.05  67.90
sdb               0.00     0.00 13654.00    0.00 58996.00     0.00     8.64     1.56    0.11    0.11    0.00   0.05  66.10
sdc               1.00     0.00 13484.00    0.00 57944.00     0.00     8.59     1.82    0.13    0.13    0.00   0.05  68.40
sdd               0.00     0.00 13456.00    0.00 58164.00     0.00     8.65     1.89    0.14    0.14    0.00   0.05  70.60
sde               0.00     0.00 13431.00    0.00 58144.00     0.00     8.66     1.74    0.13    0.13    0.00   0.05  68.80
sdf               1.00     0.00 13526.00    0.00 58532.00     0.00     8.65     1.82    0.13    0.13    0.00   0.05  70.70
sdg               0.00     0.00    0.00    0.00     0.00     0.00     0.00     0.00    0.00    0.00    0.00   0.00   0.00
sdh               0.00     0.00    0.00    0.00     0.00     0.00     0.00     0.00    0.00    0.00    0.00   0.00   0.00
md0               0.00     0.00 81036.00    0.00 352868.00     0.00     8.71     0.00    0.00    0.00    0.00   0.00   0.00

avg-cpu:  %user   %nice %system %iowait  %steal   %idle
           3.37    0.26   23.32   50.78    0.00   22.28

Device:         rrqm/s   wrqm/s     r/s     w/s    rkB/s    wkB/s avgrq-sz avgqu-sz   await r_await w_await  svctm  %util
sda               0.00     0.00 13349.00    0.00 57484.00     0.00     8.61     1.49    0.11    0.11    0.00   0.05  66.80
sdb               0.00     0.00 13332.00    0.00 57876.00     0.00     8.68     1.51    0.11    0.11    0.00   0.05  65.60
sdc               0.00     0.00 13480.00    0.00 58752.00     0.00     8.72     1.83    0.14    0.14    0.00   0.05  68.90
sdd               0.00     0.00 13399.00    0.00 57592.00     0.00     8.60     1.75    0.13    0.13    0.00   0.05  67.30
sde               0.00     0.00 13505.00    0.00 58556.00     0.00     8.67     1.86    0.14    0.14    0.00   0.05  70.10
sdf               0.00     0.00 13475.00    0.00 57792.00     0.00     8.58     1.84    0.14    0.14    0.00   0.05  69.20
sdg               0.00     0.00 1338.00    0.00  5400.00     0.00     8.07     0.18    0.13    0.13    0.00   0.13  17.40
sdh               0.00     0.00    0.00    0.00     0.00     0.00     0.00     0.00    0.00    0.00    0.00   0.00   0.00
md0               0.00     0.00 80532.00    0.00 349480.00     0.00     8.68     0.00    0.00    0.00    0.00   0.00   0.00

avg-cpu:  %user   %nice %system %iowait  %steal   %idle
           3.29    0.00   24.56   50.13    0.00   22.03

Device:         rrqm/s   wrqm/s     r/s     w/s    rkB/s    wkB/s avgrq-sz avgqu-sz   await r_await w_await  svctm  %util
sda               0.00     0.00 13396.00    0.00 57964.00     0.00     8.65     1.52    0.11    0.11    0.00   0.05  66.90
sdb               0.00     0.00 13663.00    0.00 59352.00     0.00     8.69     1.59    0.12    0.12    0.00   0.05  66.60
sdc               0.00     0.00 13485.00    0.00 58516.00     0.00     8.68     1.83    0.14    0.14    0.00   0.05  68.10
sdd               0.00     0.00 13270.00    0.00 56880.00     0.00     8.57     1.81    0.14    0.14    0.00   0.05  70.40
sde               0.00     0.00 13549.00    0.00 58784.00     0.00     8.68     1.83    0.14    0.14    0.00   0.05  69.90
sdf               0.00     0.00 13403.00    0.00 57948.00     0.00     8.65     1.81    0.14    0.14    0.00   0.05  70.00
sdg               0.00     0.00    0.00    0.00     0.00     0.00     0.00     0.00    0.00    0.00    0.00   0.00   0.00
sdh               0.00     0.00    0.00    0.00     0.00     0.00     0.00     0.00    0.00    0.00    0.00   0.00   0.00
md0               0.00     0.00 80762.00    0.00 351216.00     0.00     8.70     0.00    0.00    0.00    0.00   0.00   0.00

avg-cpu:  %user   %nice %system %iowait  %steal   %idle
           3.08    0.00   23.33   50.51    0.00   23.08

Device:         rrqm/s   wrqm/s     r/s     w/s    rkB/s    wkB/s avgrq-sz avgqu-sz   await r_await w_await  svctm  %util
sda               0.00     0.00 13288.00    0.00 56396.00     0.00     8.49     1.61    0.12    0.12    0.00   0.05  67.80
sdb               0.00     0.00 13414.00    0.00 57864.00     0.00     8.63     1.53    0.11    0.11    0.00   0.05  65.00
sdc               0.00     0.00 13312.00    0.00 56900.00     0.00     8.55     1.75    0.13    0.13    0.00   0.05  67.10
sdd               0.00     0.00 13620.00    0.00 59236.00     0.00     8.70     1.87    0.14    0.14    0.00   0.05  69.00
sde               0.00     0.00 13631.00    0.00 58904.00     0.00     8.64     1.88    0.14    0.14    0.00   0.05  70.10
sdf               0.00     0.00 13380.00    0.00 57228.00     0.00     8.55     1.78    0.13    0.13    0.00   0.05  70.80
sdg               0.00     2.00    8.00    6.00    32.00    56.00    12.57     0.00    0.29    0.12    0.50   0.14   0.20
sdh               0.00     0.00    0.00    0.00     0.00     0.00     0.00     0.00    0.00    0.00    0.00   0.00   0.00
md0               0.00     0.00 80647.00    0.00 347628.00     0.00     8.62     0.00    0.00    0.00    0.00   0.00   0.00

avg-cpu:  %user   %nice %system %iowait  %steal   %idle
           3.05    0.00   24.17   50.38    0.00   22.39

Device:         rrqm/s   wrqm/s     r/s     w/s    rkB/s    wkB/s avgrq-sz avgqu-sz   await r_await w_await  svctm  %util
sda               1.00     0.00 13439.00    0.00 58280.00     0.00     8.67     1.54    0.11    0.11    0.00   0.05  66.10
sdb               0.00     0.00 13208.00    0.00 58000.00     0.00     8.78     1.51    0.11    0.11    0.00   0.05  63.30
sdc               1.00     0.00 13347.00    0.00 57740.00     0.00     8.65     1.80    0.14    0.14    0.00   0.05  68.50
sdd               0.00     0.00 13351.00    0.00 57824.00     0.00     8.66     1.81    0.14    0.14    0.00   0.05  67.30
sde               0.00     0.00 13591.00    0.00 59336.00     0.00     8.73     1.83    0.13    0.13    0.00   0.05  69.80
sdf               0.00     0.00 13442.00    0.00 58504.00     0.00     8.70     1.85    0.14    0.14    0.00   0.05  68.30
sdg               0.00     0.00    0.00    0.00     0.00     0.00     0.00     0.00    0.00    0.00    0.00   0.00   0.00
sdh               0.00     0.00    0.00    0.00     0.00     0.00     0.00     0.00    0.00    0.00    0.00   0.00   0.00
md0               0.00     0.00 80403.00    0.00 352136.00     0.00     8.76     0.00    0.00    0.00    0.00   0.00   0.00

avg-cpu:  %user   %nice %system %iowait  %steal   %idle
           3.32    0.00   23.72   50.51    0.00   22.45

Device:         rrqm/s   wrqm/s     r/s     w/s    rkB/s    wkB/s avgrq-sz avgqu-sz   await r_await w_await  svctm  %util
sda               0.00     0.00 13584.00    0.00 58564.00     0.00     8.62     1.63    0.12    0.12    0.00   0.05  66.60
sdb               0.00     0.00 13630.00    0.00 58592.00     0.00     8.60     1.48    0.11    0.11    0.00   0.05  62.70
sdc               0.00     0.00 13261.00    0.00 57508.00     0.00     8.67     1.71    0.13    0.13    0.00   0.05  67.20
sdd               0.00     0.00 13700.00    0.00 58588.00     0.00     8.55     1.79    0.13    0.13    0.00   0.05  68.40
sde               0.00     0.00 13772.00    0.00 60376.00     0.00     8.77     1.91    0.14    0.14    0.00   0.05  70.80
sdf               0.00     0.00 13611.00    0.00 58584.00     0.00     8.61     1.87    0.14    0.14    0.00   0.05  71.40
sdg               0.00     0.00    0.00    0.00     0.00     0.00     0.00     0.00    0.00    0.00    0.00   0.00   0.00
sdh               0.00     0.00    0.00    0.00     0.00     0.00     0.00     0.00    0.00    0.00    0.00   0.00   0.00
md0               0.00     0.00 81560.00    0.00 353812.00     0.00     8.68     0.00    0.00    0.00    0.00   0.00   0.00

avg-cpu:  %user   %nice %system %iowait  %steal   %idle
           3.51    0.00   25.06   49.12    0.00   22.31

Device:         rrqm/s   wrqm/s     r/s     w/s    rkB/s    wkB/s avgrq-sz avgqu-sz   await r_await w_await  svctm  %util
sda               0.00     0.00 13441.00    0.00 59560.00     0.00     8.86     1.53    0.11    0.11    0.00   0.05  65.50
sdb               0.00     0.00 13292.00    0.00 58168.00     0.00     8.75     1.52    0.11    0.11    0.00   0.05  64.40
sdc               0.00     0.00 13372.00    0.00 58484.00     0.00     8.75     1.72    0.13    0.13    0.00   0.05  64.20
sdd               0.00     0.00 13527.00    0.00 58392.00     0.00     8.63     1.79    0.13    0.13    0.00   0.05  68.30
sde               0.00     0.00 13399.00    0.00 57832.00     0.00     8.63     1.81    0.13    0.13    0.00   0.05  69.40
sdf               0.00     0.00 13524.00    0.00 58884.00     0.00     8.71     1.74    0.13    0.13    0.00   0.05  68.30
sdg               0.00     0.00    0.00    0.00     0.00     0.00     0.00     0.00    0.00    0.00    0.00   0.00   0.00
sdh               0.00     0.00    0.00    0.00     0.00     0.00     0.00     0.00    0.00    0.00    0.00   0.00   0.00
md0               0.00     0.00 80532.00    0.00 353064.00     0.00     8.77     0.00    0.00    0.00    0.00   0.00   0.00

avg-cpu:  %user   %nice %system %iowait  %steal   %idle
           3.56    0.00   23.16   49.87    0.00   23.41

Device:         rrqm/s   wrqm/s     r/s     w/s    rkB/s    wkB/s avgrq-sz avgqu-sz   await r_await w_await  svctm  %util
sda               0.00     0.00 13177.00    0.00 57248.00     0.00     8.69     1.53    0.12    0.12    0.00   0.05  63.00
sdb               0.00     0.00 13301.00    0.00 57368.00     0.00     8.63     1.49    0.11    0.11    0.00   0.05  65.30
sdc               0.00     0.00 13186.00    0.00 57208.00     0.00     8.68     1.77    0.13    0.13    0.00   0.05  66.40
sdd               0.00     0.00 13464.00    0.00 59688.00     0.00     8.87     1.73    0.13    0.13    0.00   0.05  67.30
sde               0.00     0.00 13320.00    0.00 59188.00     0.00     8.89     1.84    0.14    0.14    0.00   0.05  67.40
sdf               0.00     0.00 13366.00    0.00 57452.00     0.00     8.60     1.78    0.13    0.13    0.00   0.05  68.50
sdg               0.00     0.00    0.00    0.00     0.00     0.00     0.00     0.00    0.00    0.00    0.00   0.00   0.00
sdh               0.00     0.00    0.00    0.00     0.00     0.00     0.00     0.00    0.00    0.00    0.00   0.00   0.00
md0               0.00     0.00 79846.00    0.00 349300.00     0.00     8.75     0.00    0.00    0.00    0.00   0.00   0.00

avg-cpu:  %user   %nice %system %iowait  %steal   %idle
           3.08    0.00   23.14   50.90    0.00   22.88

Device:         rrqm/s   wrqm/s     r/s     w/s    rkB/s    wkB/s avgrq-sz avgqu-sz   await r_await w_await  svctm  %util
sda               0.00     0.00 13396.00    0.00 59072.00     0.00     8.82     1.60    0.12    0.12    0.00   0.05  66.40
sdb               0.00     0.00 13292.00    0.00 58060.00     0.00     8.74     1.59    0.12    0.12    0.00   0.05  65.10
sdc               0.00     0.00 13284.00    0.00 57356.00     0.00     8.64     1.79    0.13    0.13    0.00   0.05  67.20
sdd               0.00     0.00 13458.00    0.00 58620.00     0.00     8.71     1.87    0.14    0.14    0.00   0.05  68.30
sde               0.00     0.00 13458.00    0.00 58272.00     0.00     8.66     1.75    0.13    0.13    0.00   0.05  68.50
sdf               0.00     0.00 13221.00    0.00 58444.00     0.00     8.84     1.71    0.13    0.13    0.00   0.05  69.10
sdg               0.00     1.00    9.00    1.00    36.00    20.00    11.20     0.01    0.60    0.56    1.00   0.50   0.50
sdh               0.00     0.00    0.00    0.00     0.00     0.00     0.00     0.00    0.00    0.00    0.00   0.00   0.00
md0               0.00     0.00 80089.00    0.00 351128.00     0.00     8.77     0.00    0.00    0.00    0.00   0.00   0.00

avg-cpu:  %user   %nice %system %iowait  %steal   %idle
           3.31    0.00   24.17   50.13    0.00   22.39

Device:         rrqm/s   wrqm/s     r/s     w/s    rkB/s    wkB/s avgrq-sz avgqu-sz   await r_await w_await  svctm  %util
sda               0.00     0.00 13709.00    0.00 59316.00     0.00     8.65     1.64    0.12    0.12    0.00   0.05  68.90
sdb               0.00     0.00 13585.00    0.00 59324.00     0.00     8.73     1.53    0.11    0.11    0.00   0.05  65.50
sdc               0.00     0.00 13432.00    0.00 57684.00     0.00     8.59     1.78    0.13    0.13    0.00   0.05  69.30
sdd               0.00     0.00 13579.00    0.00 58652.00     0.00     8.64     1.83    0.14    0.14    0.00   0.05  69.10
sde               0.00     0.00 13626.00    0.00 58852.00     0.00     8.64     1.83    0.13    0.13    0.00   0.05  70.30
sdf               0.00     0.00 13426.00    0.00 57804.00     0.00     8.61     1.80    0.13    0.13    0.00   0.05  70.70
sdg               0.00     0.00    0.00    0.00     0.00     0.00     0.00     0.00    0.00    0.00    0.00   0.00   0.00
sdh               0.00     0.00    0.00    0.00     0.00     0.00     0.00     0.00    0.00    0.00    0.00   0.00   0.00
md0               0.00     0.00 81364.00    0.00 353120.00     0.00     8.68     0.00    0.00    0.00    0.00   0.00   0.00

avg-cpu:  %user   %nice %system %iowait  %steal   %idle
           3.52    0.00   24.62   49.25    0.00   22.61

Device:         rrqm/s   wrqm/s     r/s     w/s    rkB/s    wkB/s avgrq-sz avgqu-sz   await r_await w_await  svctm  %util
sda               0.00     0.00 13396.00    0.00 57356.00     0.00     8.56     1.56    0.12    0.12    0.00   0.05  66.90
sdb               0.00     0.00 13411.00    0.00 58224.00     0.00     8.68     1.50    0.11    0.11    0.00   0.05  64.60
sdc               0.00     0.00 13374.00    0.00 58608.00     0.00     8.76     1.80    0.13    0.13    0.00   0.05  67.20
sdd               0.00     0.00 13433.00    0.00 58184.00     0.00     8.66     1.76    0.13    0.13    0.00   0.05  66.90
sde               0.00     0.00 13565.00    0.00 58772.00     0.00     8.67     1.71    0.13    0.13    0.00   0.05  68.40
sdf               0.00     0.00 13276.00    0.00 57792.00     0.00     8.71     1.85    0.14    0.14    0.00   0.05  68.60
sdg               0.00     0.00    0.00    0.00     0.00     0.00     0.00     0.00    0.00    0.00    0.00   0.00   0.00
sdh               0.00     0.00    0.00    0.00     0.00     0.00     0.00     0.00    0.00    0.00    0.00   0.00   0.00
md0               0.00     0.00 80460.00    0.00 350632.00     0.00     8.72     0.00    0.00    0.00    0.00   0.00   0.00

avg-cpu:  %user   %nice %system %iowait  %steal   %idle
           3.02    0.25   24.94   49.12    0.00   22.67

Device:         rrqm/s   wrqm/s     r/s     w/s    rkB/s    wkB/s avgrq-sz avgqu-sz   await r_await w_await  svctm  %util
sda               0.00     0.00 13235.00    0.00 56992.00     0.00     8.61     1.49    0.11    0.11    0.00   0.05  65.30
sdb               0.00     0.00 13299.00    0.00 56580.00     0.00     8.51     1.53    0.12    0.12    0.00   0.05  64.00
sdc               0.00     0.00 13325.00    0.00 57992.00     0.00     8.70     1.77    0.13    0.13    0.00   0.05  67.60
sdd               0.00     0.00 13269.00    0.00 57156.00     0.00     8.61     1.75    0.13    0.13    0.00   0.05  66.80
sde               0.00     0.00 13341.00    0.00 58524.00     0.00     8.77     1.79    0.13    0.13    0.00   0.05  69.50
sdf               0.00     0.00 13228.00    0.00 57536.00     0.00     8.70     1.72    0.13    0.13    0.00   0.05  69.40
sdg               0.00     0.00    2.00    0.00     8.00     0.00     8.00     0.00    0.00    0.00    0.00   0.00   0.00
sdh               0.00     0.00    0.00    0.00     0.00     0.00     0.00     0.00    0.00    0.00    0.00   0.00   0.00
md0               0.00     0.00 79671.00    0.00 345460.00     0.00     8.67     0.00    0.00    0.00    0.00   0.00   0.00

avg-cpu:  %user   %nice %system %iowait  %steal   %idle
           3.58    0.00   23.27   50.13    0.00   23.02

Device:         rrqm/s   wrqm/s     r/s     w/s    rkB/s    wkB/s avgrq-sz avgqu-sz   await r_await w_await  svctm  %util
sda               0.00     0.00 13477.00    0.00 58556.00     0.00     8.69     1.55    0.12    0.12    0.00   0.05  66.30
sdb               0.00     0.00 13229.00    0.00 57676.00     0.00     8.72     1.50    0.11    0.11    0.00   0.05  64.60
sdc               0.00     0.00 13376.00    0.00 57404.00     0.00     8.58     1.83    0.14    0.14    0.00   0.05  69.20
sdd               0.00     0.00 13436.00    0.00 57200.00     0.00     8.51     1.74    0.13    0.13    0.00   0.05  67.40
sde               0.00     0.00 13381.00    0.00 58796.00     0.00     8.79     1.79    0.13    0.13    0.00   0.05  68.90
sdf               0.00     0.00 13404.00    0.00 58132.00     0.00     8.67     1.82    0.14    0.14    0.00   0.05  70.90
sdg               0.00     0.00    0.00    6.00     0.00   140.00    46.67     0.00    0.00    0.00    0.00   0.00   0.00
sdh               0.00     0.00    0.00    0.00     0.00     0.00     0.00     0.00    0.00    0.00    0.00   0.00   0.00
md0               0.00     0.00 80322.00    0.00 348812.00     0.00     8.69     0.00    0.00    0.00    0.00   0.00   0.00

avg-cpu:  %user   %nice %system %iowait  %steal   %idle
           3.31    0.00   24.43   48.09    0.00   24.17

Device:         rrqm/s   wrqm/s     r/s     w/s    rkB/s    wkB/s avgrq-sz avgqu-sz   await r_await w_await  svctm  %util
sda               0.00     0.00 13104.00    0.00 56300.00     0.00     8.59     1.52    0.12    0.12    0.00   0.05  64.10
sdb               0.00     0.00 13055.00    0.00 57208.00     0.00     8.76     1.51    0.12    0.12    0.00   0.05  62.30
sdc               0.00     0.00 13041.00    0.00 56264.00     0.00     8.63     1.74    0.13    0.13    0.00   0.05  66.00
sdd               0.00     0.00 13105.00    0.00 56956.00     0.00     8.69     1.75    0.13    0.13    0.00   0.05  66.60
sde               0.00     0.00 12954.00    0.00 55548.00     0.00     8.58     1.63    0.13    0.13    0.00   0.05  66.50
sdf               0.00     0.00 12941.00    0.00 55920.00     0.00     8.64     1.71    0.13    0.13    0.00   0.05  66.70
sdg               0.00     0.00    0.00    0.00     0.00     0.00     0.00     0.00    0.00    0.00    0.00   0.00   0.00
sdh               0.00     0.00    0.00    0.00     0.00     0.00     0.00     0.00    0.00    0.00    0.00   0.00   0.00
md0               0.00     0.00 78187.00    0.00 339260.00     0.00     8.68     0.00    0.00    0.00    0.00   0.00   0.00

