Linux 4.17.2 (bench) 	08/03/2018 	_x86_64_	(4 CPU)

avg-cpu:  %user   %nice %system %iowait  %steal   %idle
          10.26    0.02    4.16    2.70    0.00   82.87

Device:         rrqm/s   wrqm/s     r/s     w/s    rkB/s    wkB/s avgrq-sz avgqu-sz   await r_await w_await  svctm  %util
sda              52.44     4.20 1714.89  101.36 21304.25  3101.58    26.87     1.05    0.58    0.26    5.92   0.06  10.99
sdb              52.24     4.16 1714.89  101.50 21293.75  3098.28    26.86     1.05    0.58    0.26    5.85   0.06  10.87
sdc              90.08     4.22 1674.95  101.06 21285.93  3100.71    27.46     1.47    0.83    0.45    7.12   0.08  14.36
sdd              83.59     4.18 1680.62  101.13 21270.92  3096.95    27.35     1.47    0.83    0.44    7.33   0.08  14.46
sde              85.59     4.23 1685.71  101.22 21330.35  3101.15    27.34     1.49    0.84    0.44    7.44   0.08  14.48
sdf              82.74     4.20 1687.83  101.17 21311.80  3098.05    27.29     1.54    0.86    0.44    7.90   0.08  14.51
sdg               0.00     3.17   26.74   73.28   325.72   392.05    14.35     0.44    4.40    0.20    5.93   0.08   0.78
sdh               0.00     0.13    0.02    0.23     2.19     5.01    56.82     0.00    1.15    0.65    1.19   0.21   0.01
md0               0.00     0.00 10612.98  474.93 146025.57 21229.90    30.17     0.00    0.00    0.00    0.00   0.00   0.00

avg-cpu:  %user   %nice %system %iowait  %steal   %idle
           1.92    0.03   20.42   60.95    0.00   16.68

Device:         rrqm/s   wrqm/s     r/s     w/s    rkB/s    wkB/s avgrq-sz avgqu-sz   await r_await w_await  svctm  %util
sda               0.00     0.00 11205.35    0.00 44821.40     0.00     8.00     2.25    0.20    0.20    0.00   0.02  23.90
sdb               0.00     0.00 11087.60    0.00 44350.40     0.00     8.00     2.30    0.21    0.21    0.00   0.02  24.24
sdc               0.00     0.00 11264.05    0.00 45056.20     0.00     8.00     2.97    0.26    0.26    0.00   0.03  30.14
sdd               0.00     0.00 11103.45    0.00 44413.80     0.00     8.00     2.93    0.26    0.26    0.00   0.03  29.84
sde               0.00     0.00 10891.50    0.00 43566.00     0.00     8.00     2.92    0.27    0.27    0.00   0.03  30.05
sdf               0.00     0.00 11170.15    0.00 44680.60     0.00     8.00     3.06    0.27    0.27    0.00   0.03  31.04
sdg               0.00     0.30   69.30    4.30   292.80    30.00     8.77     0.01    0.15    0.12    0.70   0.11   0.81
sdh               0.00     0.00    0.00    0.00     0.00     0.00     0.00     0.00    0.00    0.00    0.00   0.00   0.00
md0               0.00     0.00 66721.70    0.00 266886.80     0.00     8.00     0.00    0.00    0.00    0.00   0.00   0.00

