Linux 4.17.2 (bench) 	08/03/2018 	_x86_64_	(4 CPU)

avg-cpu:  %user   %nice %system %iowait  %steal   %idle
          10.26    0.02    4.13    2.67    0.00   82.92

Device:         rrqm/s   wrqm/s     r/s     w/s    rkB/s    wkB/s avgrq-sz avgqu-sz   await r_await w_await  svctm  %util
sda              50.29     4.21 1695.67  101.70 21173.00  3111.70    27.02     1.04    0.58    0.26    5.92   0.06  10.91
sdb              50.13     4.17 1695.63  101.83 21162.52  3108.39    27.01     1.04    0.58    0.26    5.85   0.06  10.79
sdc              87.93     4.23 1655.73  101.39 21154.63  3110.84    27.62     1.46    0.83    0.45    7.12   0.08  14.27
sdd              81.42     4.20 1661.42  101.46 21139.58  3107.06    27.51     1.47    0.83    0.44    7.33   0.08  14.36
sde              83.43     4.24 1666.50  101.55 21199.06  3111.28    27.50     1.49    0.84    0.44    7.44   0.08  14.38
sdf              80.57     4.21 1668.62  101.50 21180.43  3108.17    27.44     1.53    0.87    0.44    7.90   0.08  14.41
sdg               0.00     3.17   26.59   73.28   325.07   392.01    14.36     0.44    4.40    0.20    5.93   0.08   0.78
sdh               0.00     0.13    0.02    0.23     2.19     5.02    56.82     0.00    1.15    0.65    1.19   0.21   0.01
md0               0.00     0.00 10484.44  476.48 145079.13 21299.21    30.36     0.00    0.00    0.00    0.00   0.00   0.00

avg-cpu:  %user   %nice %system %iowait  %steal   %idle
           0.13    0.03    2.01    1.81    0.00   96.03

Device:         rrqm/s   wrqm/s     r/s     w/s    rkB/s    wkB/s avgrq-sz avgqu-sz   await r_await w_await  svctm  %util
sda               0.00     0.00 1453.60    0.00  5814.40     0.00     8.00     0.14    0.10    0.10    0.00   0.10  14.37
sdb               0.00     0.00 1469.85    0.00  5879.40     0.00     8.00     0.15    0.10    0.10    0.00   0.10  15.14
sdc               0.00     0.00 1467.35    0.00  5869.40     0.00     8.00     0.16    0.11    0.11    0.00   0.11  15.61
sdd               0.00     0.00 1469.70    0.00  5878.80     0.00     8.00     0.16    0.11    0.11    0.00   0.11  15.54
sde               0.00     0.00 1450.70    0.00  5803.20     0.00     8.00     0.15    0.11    0.11    0.00   0.11  15.40
sdf               0.00     0.00 1461.95    0.00  5848.20     0.00     8.00     0.16    0.11    0.11    0.00   0.11  15.72
sdg               0.00     0.10   69.25    0.25   297.00     3.20     8.64     0.01    0.12    0.12    0.00   0.12   0.80
sdh               0.00     0.00    0.00    0.00     0.00     0.00     0.00     0.00    0.00    0.00    0.00   0.00   0.00
md0               0.00     0.00 8773.25    0.00 35093.80     0.00     8.00     0.00    0.00    0.00    0.00   0.00   0.00

