Linux 4.17.2 (bench) 	08/03/2018 	_x86_64_	(4 CPU)

avg-cpu:  %user   %nice %system %iowait  %steal   %idle
          10.27    0.02    4.09    2.60    0.00   83.02

Device:         rrqm/s   wrqm/s     r/s     w/s    rkB/s    wkB/s avgrq-sz avgqu-sz   await r_await w_await  svctm  %util
sda              47.08     4.23 1667.92  102.23 21008.35  3128.10    27.27     1.04    0.58    0.26    5.92   0.06  10.79
sdb              46.93     4.19 1667.87  102.37 20997.82  3124.77    27.25     1.03    0.58    0.26    5.85   0.06  10.67
sdc              84.81     4.25 1627.89  101.92 20989.92  3127.23    27.88     1.45    0.84    0.45    7.12   0.08  14.13
sdd              78.26     4.22 1633.62  101.99 20974.87  3123.44    27.77     1.46    0.84    0.44    7.33   0.08  14.23
sde              80.28     4.26 1638.69  102.09 21034.54  3127.67    27.76     1.48    0.85    0.44    7.44   0.08  14.25
sdf              77.40     4.24 1640.83  102.03 21015.82  3124.54    27.70     1.53    0.88    0.44    7.90   0.08  14.28
sdg               0.00     3.17   26.39   73.30   324.28   392.01    14.37     0.44    4.41    0.20    5.93   0.08   0.78
sdh               0.00     0.13    0.02    0.23     2.20     5.05    56.82     0.00    1.15    0.65    1.19   0.21   0.01
md0               0.00     0.00 10298.38  478.99 143907.39 21411.44    30.68     0.00    0.00    0.00    0.00   0.00   0.00

avg-cpu:  %user   %nice %system %iowait  %steal   %idle
           1.74    0.00   30.10    1.49    0.00   66.67

Device:         rrqm/s   wrqm/s     r/s     w/s    rkB/s    wkB/s avgrq-sz avgqu-sz   await r_await w_await  svctm  %util
sda               0.00     0.00 19630.00    0.00 78520.00     0.00     8.00     2.79    0.14    0.14    0.00   0.04  69.40
sdb               0.00     0.00 19898.00    0.00 79592.00     0.00     8.00     2.86    0.14    0.14    0.00   0.03  68.20
sdc               0.00     0.00 19897.00    0.00 79588.00     0.00     8.00     3.22    0.16    0.16    0.00   0.04  74.60
sdd               0.00     0.00 20038.00    0.00 80152.00     0.00     8.00     3.23    0.16    0.16    0.00   0.04  74.90
sde               0.00     0.00 19933.00    0.00 79732.00     0.00     8.00     3.18    0.16    0.16    0.00   0.04  76.80
sdf               0.00     0.00 19330.00    0.00 77320.00     0.00     8.00     3.15    0.16    0.16    0.00   0.04  73.00
sdg               0.00     0.00    0.00    1.00     0.00    12.00    24.00     0.00    0.00    0.00    0.00   0.00   0.00
sdh               0.00     0.00    0.00    0.00     0.00     0.00     0.00     0.00    0.00    0.00    0.00   0.00   0.00
md0               0.00     0.00 118679.00    0.00 474716.00     0.00     8.00     0.00    0.00    0.00    0.00   0.00   0.00

