Linux 4.17.2 (bench) 	08/03/2018 	_x86_64_	(4 CPU)

avg-cpu:  %user   %nice %system %iowait  %steal   %idle
          10.26    0.02    4.17    2.73    0.00   82.83

Device:         rrqm/s   wrqm/s     r/s     w/s    rkB/s    wkB/s avgrq-sz avgqu-sz   await r_await w_await  svctm  %util
sda              53.45     4.19 1722.88  101.19 21326.34  3096.15    26.78     1.05    0.57    0.26    5.92   0.06  11.02
sdb              53.26     4.15 1722.88  101.32 21315.88  3092.86    26.76     1.05    0.57    0.26    5.85   0.06  10.90
sdc              91.02     4.21 1683.01  100.88 21308.06  3095.29    27.36     1.47    0.82    0.44    7.12   0.08  14.40
sdd              84.55     4.18 1688.67  100.95 21293.07  3091.53    27.25     1.47    0.82    0.43    7.33   0.08  14.49
sde              86.55     4.22 1693.75  101.04 21352.45  3095.72    27.24     1.49    0.83    0.44    7.44   0.08  14.51
sdf              83.69     4.19 1695.86  100.99 21333.92  3092.63    27.19     1.54    0.86    0.44    7.90   0.08  14.54
sdg               0.00     3.17   26.79   73.26   325.87   391.99    14.35     0.44    4.40    0.20    5.93   0.08   0.78
sdh               0.00     0.13    0.02    0.23     2.18     5.00    56.82     0.00    1.15    0.65    1.19   0.21   0.01
md0               0.00     0.00 10666.95  474.10 146153.41 21192.73    30.04     0.00    0.00    0.00    0.00   0.00   0.00

avg-cpu:  %user   %nice %system %iowait  %steal   %idle
           1.53    0.00    7.42   30.95    0.00   60.10

Device:         rrqm/s   wrqm/s     r/s     w/s    rkB/s    wkB/s avgrq-sz avgqu-sz   await r_await w_await  svctm  %util
sda             106.00     0.00  997.00    0.00 100136.00     0.00   200.87     0.57    0.57    0.57    0.00   0.30  30.10
sdb              92.00     0.00  990.00    0.00 93836.00     0.00   189.57     0.54    0.55    0.55    0.00   0.29  28.40
sdc             109.00     0.00  942.00    0.00 101368.00     0.00   215.22     0.86    0.92    0.92    0.00   0.49  46.20
sdd              97.00     0.00  932.00    0.00 104228.00     0.00   223.67     0.98    1.05    1.05    0.00   0.50  46.90
sde              88.00     0.00  980.00    0.00 99984.00     0.00   204.05     0.89    0.90    0.90    0.00   0.48  46.70
sdf              90.00     0.00 1049.00    0.00 102236.00     0.00   194.92     0.92    0.87    0.87    0.00   0.45  47.60
sdg               0.00     0.00    3.00    0.00    88.00     0.00    58.67     0.00    0.33    0.33    0.00   0.33   0.10
sdh               0.00     0.00    0.00    0.00     0.00     0.00     0.00     0.00    0.00    0.00    0.00   0.00   0.00
md0               0.00     0.00 6969.00    0.00 805324.00     0.00   231.12     0.00    0.00    0.00    0.00   0.00   0.00

avg-cpu:  %user   %nice %system %iowait  %steal   %idle
           1.00    0.00    5.51   27.82    0.00   65.66

Device:         rrqm/s   wrqm/s     r/s     w/s    rkB/s    wkB/s avgrq-sz avgqu-sz   await r_await w_await  svctm  %util
sda             183.00     0.00  772.00    0.00 121268.00     0.00   314.17     0.63    0.82    0.82    0.00   0.47  36.40
sdb             175.00     0.00  863.00    0.00 120936.00     0.00   280.27     0.61    0.71    0.71    0.00   0.42  36.00
sdc             190.00     0.00  834.00    0.00 125508.00     0.00   300.98     1.01    1.21    1.21    0.00   0.70  58.00
sdd             185.00     0.00  769.00    0.00 118880.00     0.00   309.18     0.92    1.20    1.20    0.00   0.72  55.40
sde             174.00     0.00  878.00    0.00 124248.00     0.00   283.03     0.97    1.11    1.11    0.00   0.66  57.60
sdf             181.00     0.00  907.00    0.00 123704.00     0.00   272.78     1.03    1.14    1.14    0.00   0.63  57.20
sdg               0.00     0.00    0.00    0.00     0.00     0.00     0.00     0.00    0.00    0.00    0.00   0.00   0.00
sdh               0.00     0.00    0.00    0.00     0.00     0.00     0.00     0.00    0.00    0.00    0.00   0.00   0.00
md0               0.00     0.00 6463.00    0.00 1028568.00     0.00   318.29     0.00    0.00    0.00    0.00   0.00   0.00

avg-cpu:  %user   %nice %system %iowait  %steal   %idle
           0.51    0.00    5.56   28.28    0.00   65.66

Device:         rrqm/s   wrqm/s     r/s     w/s    rkB/s    wkB/s avgrq-sz avgqu-sz   await r_await w_await  svctm  %util
sda             183.00     0.00  897.00    0.00 122396.00     0.00   272.90     0.61    0.66    0.66    0.00   0.40  35.80
sdb             182.00     0.00  972.00    0.00 122376.00     0.00   251.80     0.65    0.67    0.67    0.00   0.37  36.30
sdc             178.00     0.00  843.00    0.00 116208.00     0.00   275.70     0.96    1.13    1.13    0.00   0.65  54.80
sdd             172.00     0.00  866.00    0.00 114324.00     0.00   264.03     0.98    1.12    1.12    0.00   0.62  53.30
sde             167.00     0.00  822.00    0.00 115928.00     0.00   282.06     0.92    1.12    1.12    0.00   0.64  52.80
sdf             182.00     0.00  878.00    0.00 122008.00     0.00   277.92     1.03    1.17    1.17    0.00   0.64  56.40
sdg               0.00     0.00    0.00    0.00     0.00     0.00     0.00     0.00    0.00    0.00    0.00   0.00   0.00
sdh               0.00     0.00    0.00    0.00     0.00     0.00     0.00     0.00    0.00    0.00    0.00   0.00   0.00
md0               0.00     0.00 6670.00    0.00 1012568.00     0.00   303.62     0.00    0.00    0.00    0.00   0.00   0.00

avg-cpu:  %user   %nice %system %iowait  %steal   %idle
           0.74    0.00    6.95   28.04    0.00   64.27

Device:         rrqm/s   wrqm/s     r/s     w/s    rkB/s    wkB/s avgrq-sz avgqu-sz   await r_await w_await  svctm  %util
sda             173.00     0.00  819.00    0.00 117512.00     0.00   286.96     0.56    0.68    0.68    0.00   0.42  34.50
sdb             173.00     0.00  830.00    0.00 113408.00     0.00   273.27     0.58    0.68    0.68    0.00   0.41  34.10
sdc             174.00     0.00  885.00    0.00 118640.00     0.00   268.11     1.08    1.19    1.19    0.00   0.62  55.00
sdd             166.00     0.00  886.00    0.00 116444.00     0.00   262.85     1.03    1.16    1.16    0.00   0.62  54.60
sde             170.00     0.00  890.00    0.00 119064.00     0.00   267.56     1.00    1.13    1.13    0.00   0.63  56.00
sdf             174.00     0.00  918.00    0.00 119348.00     0.00   260.02     1.01    1.11    1.11    0.00   0.60  54.90
sdg               0.00     0.00    0.00    0.00     0.00     0.00     0.00     0.00    0.00    0.00    0.00   0.00   0.00
sdh               0.00     0.00    0.00    0.00     0.00     0.00     0.00     0.00    0.00    0.00    0.00   0.00   0.00
md0               0.00     0.00 6807.00    0.00 1020356.00     0.00   299.80     0.00    0.00    0.00    0.00   0.00   0.00

avg-cpu:  %user   %nice %system %iowait  %steal   %idle
           0.51    0.00    4.82   29.95    0.00   64.72

Device:         rrqm/s   wrqm/s     r/s     w/s    rkB/s    wkB/s avgrq-sz avgqu-sz   await r_await w_await  svctm  %util
sda             160.00     0.00  885.00    0.00 115340.00     0.00   260.66     0.57    0.63    0.63    0.00   0.39  34.60
sdb             166.00     0.00  917.00    0.00 118180.00     0.00   257.75     0.56    0.60    0.60    0.00   0.39  35.60
sdc             151.00     0.00  925.00    0.00 115216.00     0.00   249.12     1.00    1.08    1.08    0.00   0.57  53.00
sdd             157.00     0.00  848.00    0.00 109864.00     0.00   259.11     0.92    1.08    1.08    0.00   0.61  51.90
sde             150.00     0.00  935.00    0.00 116936.00     0.00   250.13     0.97    1.04    1.04    0.00   0.60  56.10
sdf             168.00     0.00  925.00    0.00 114936.00     0.00   248.51     0.94    1.02    1.02    0.00   0.59  54.50
sdg               0.00     1.00    9.00    1.00    36.00    20.00    11.20     0.00    0.10    0.11    0.00   0.10   0.10
sdh               0.00     0.00    0.00    0.00     0.00     0.00     0.00     0.00    0.00    0.00    0.00   0.00   0.00
md0               0.00     0.00 6928.00    0.00 974272.00     0.00   281.26     0.00    0.00    0.00    0.00   0.00   0.00

avg-cpu:  %user   %nice %system %iowait  %steal   %idle
           1.01    0.00    5.28   28.39    0.00   65.33

Device:         rrqm/s   wrqm/s     r/s     w/s    rkB/s    wkB/s avgrq-sz avgqu-sz   await r_await w_await  svctm  %util
sda             151.00     0.00  911.00    0.00 111904.00     0.00   245.67     0.56    0.61    0.61    0.00   0.37  33.80
sdb             162.00     0.00  916.00    0.00 115644.00     0.00   252.50     0.61    0.67    0.67    0.00   0.38  35.20
sdc             172.00     0.00  865.00    0.00 112620.00     0.00   260.39     0.86    0.99    0.99    0.00   0.59  51.40
sdd             156.00     0.00  994.00    0.00 116428.00     0.00   234.26     0.98    0.98    0.98    0.00   0.54  53.80
sde             155.00     0.00  845.00    0.00 115504.00     0.00   273.38     0.95    1.12    1.12    0.00   0.65  54.60
sdf             157.00     0.00  858.00    0.00 109852.00     0.00   256.07     0.90    1.05    1.05    0.00   0.59  50.50
sdg               0.00     0.00    0.00    0.00     0.00     0.00     0.00     0.00    0.00    0.00    0.00   0.00   0.00
sdh               0.00     0.00    0.00    0.00     0.00     0.00     0.00     0.00    0.00    0.00    0.00   0.00   0.00
md0               0.00     0.00 6769.00    0.00 965864.00     0.00   285.38     0.00    0.00    0.00    0.00   0.00   0.00

avg-cpu:  %user   %nice %system %iowait  %steal   %idle
           0.75    0.00    5.53   28.64    0.00   65.08

Device:         rrqm/s   wrqm/s     r/s     w/s    rkB/s    wkB/s avgrq-sz avgqu-sz   await r_await w_await  svctm  %util
sda             173.00     0.00  863.00    0.00 110248.00     0.00   255.50     0.57    0.66    0.66    0.00   0.37  31.50
sdb             147.00     0.00  853.00    0.00 110416.00     0.00   258.89     0.55    0.65    0.65    0.00   0.39  33.20
sdc             156.00     0.00  794.00    0.00 110056.00     0.00   277.22     0.86    1.08    1.08    0.00   0.63  50.00
sdd             155.00     0.00  890.00    0.00 109688.00     0.00   246.49     0.86    0.97    0.97    0.00   0.56  49.90
sde             156.00     0.00  947.00    0.00 109752.00     0.00   231.79     0.94    0.99    0.99    0.00   0.55  52.20
sdf             164.00     0.00  955.00    0.00 111228.00     0.00   232.94     0.92    0.96    0.96    0.00   0.55  52.10
sdg               0.00     0.00    0.00    0.00     0.00     0.00     0.00     0.00    0.00    0.00    0.00   0.00   0.00
sdh               0.00     0.00    0.00    0.00     0.00     0.00     0.00     0.00    0.00    0.00    0.00   0.00   0.00
md0               0.00     0.00 6703.00    0.00 930728.00     0.00   277.70     0.00    0.00    0.00    0.00   0.00   0.00

avg-cpu:  %user   %nice %system %iowait  %steal   %idle
           1.01    0.00    5.29   29.22    0.00   64.48

Device:         rrqm/s   wrqm/s     r/s     w/s    rkB/s    wkB/s avgrq-sz avgqu-sz   await r_await w_await  svctm  %util
sda             168.00     0.00  815.00    0.00 113832.00     0.00   279.34     0.61    0.75    0.75    0.00   0.41  33.40
sdb             174.00     0.00  917.00    0.00 118836.00     0.00   259.18     0.66    0.67    0.67    0.00   0.38  35.20
sdc             167.00     0.00  887.00    0.00 119812.00     0.00   270.15     1.05    1.19    1.19    0.00   0.63  55.60
sdd             179.00     0.00  971.00    0.00 121164.00     0.00   249.57     1.08    1.11    1.11    0.00   0.57  55.40
sde             183.00     0.00  845.00    0.00 120892.00     0.00   286.13     1.13    1.31    1.31    0.00   0.71  59.70
sdf             170.00     0.00  844.00    0.00 118060.00     0.00   279.76     1.03    1.22    1.22    0.00   0.66  56.00
sdg               0.00     0.00    0.00    0.00     0.00     0.00     0.00     0.00    0.00    0.00    0.00   0.00   0.00
sdh               0.00     0.00    0.00    0.00     0.00     0.00     0.00     0.00    0.00    0.00    0.00   0.00   0.00
md0               0.00     0.00 6956.00    0.00 1014724.00     0.00   291.76     0.00    0.00    0.00    0.00   0.00   0.00

avg-cpu:  %user   %nice %system %iowait  %steal   %idle
           0.75    0.00    6.48   27.68    0.00   65.09

Device:         rrqm/s   wrqm/s     r/s     w/s    rkB/s    wkB/s avgrq-sz avgqu-sz   await r_await w_await  svctm  %util
sda             193.00     0.00  808.00    0.00 117352.00     0.00   290.48     0.58    0.72    0.72    0.00   0.42  34.30
sdb             169.00     0.00  935.00    0.00 115436.00     0.00   246.92     0.64    0.68    0.68    0.00   0.38  35.10
sdc             159.00     0.00  841.00    0.00 115968.00     0.00   275.79     0.97    1.15    1.15    0.00   0.63  53.40
sdd             161.00     0.00  937.00    0.00 118888.00     0.00   253.76     0.98    1.05    1.05    0.00   0.57  53.60
sde             169.00     0.00  869.00    0.00 120508.00     0.00   277.35     1.02    1.17    1.17    0.00   0.67  58.00
sdf             173.00     0.00  896.00    0.00 124960.00     0.00   278.93     1.06    1.19    1.19    0.00   0.63  56.20
sdg               0.00     0.00    0.00    0.00     0.00     0.00     0.00     0.00    0.00    0.00    0.00   0.00   0.00
sdh               0.00     0.00    0.00    0.00     0.00     0.00     0.00     0.00    0.00    0.00    0.00   0.00   0.00
md0               0.00     0.00 6616.00    0.00 1039656.00     0.00   314.29     0.00    0.00    0.00    0.00   0.00   0.00

avg-cpu:  %user   %nice %system %iowait  %steal   %idle
           0.75    0.25    8.04   40.20    0.00   50.75

Device:         rrqm/s   wrqm/s     r/s     w/s    rkB/s    wkB/s avgrq-sz avgqu-sz   await r_await w_await  svctm  %util
sda             149.00     0.00  931.00    0.00 107548.00     0.00   231.04     0.57    0.58    0.58    0.00   0.35  32.90
sdb             149.00     0.00  975.00    0.00 108944.00     0.00   223.47     0.63    0.64    0.64    0.00   0.34  33.60
sdc             162.00     0.00  938.00    0.00 110960.00     0.00   236.59     0.92    0.97    0.97    0.00   0.54  50.90
sdd             147.00     0.00 1083.00    0.00 117204.00     0.00   216.44     0.93    0.86    0.86    0.00   0.50  54.40
sde             164.00     0.00  893.00    0.00 114220.00     0.00   255.81     0.98    1.08    1.08    0.00   0.62  55.70
sdf             162.00     0.00  982.00    0.00 110272.00     0.00   224.59     0.89    0.91    0.91    0.00   0.53  51.80
sdg               0.00   189.00 3175.00 1445.00 12700.00  7480.00     8.74     9.64    2.09    0.13    6.38   0.10  48.50
sdh               0.00     0.00    0.00    0.00     0.00     0.00     0.00     0.00    0.00    0.00    0.00   0.00   0.00
md0               0.00     0.00 7385.00    0.00 931760.00     0.00   252.34     0.00    0.00    0.00    0.00   0.00   0.00

avg-cpu:  %user   %nice %system %iowait  %steal   %idle
           0.75    0.00    6.28   28.14    0.00   64.82

Device:         rrqm/s   wrqm/s     r/s     w/s    rkB/s    wkB/s avgrq-sz avgqu-sz   await r_await w_await  svctm  %util
sda             166.00     0.00  827.00    0.00 111508.00     0.00   269.67     0.56    0.67    0.67    0.00   0.40  33.30
sdb             168.00     0.00  891.00    0.00 114408.00     0.00   256.81     0.60    0.68    0.68    0.00   0.38  33.80
sdc             168.00     0.00  859.00    0.00 110336.00     0.00   256.89     0.93    1.07    1.07    0.00   0.59  51.00
sdd             154.00     0.00  865.00    0.00 110432.00     0.00   255.33     0.91    1.04    1.04    0.00   0.58  50.50
sde             158.00     0.00  902.00    0.00 115544.00     0.00   256.20     1.02    1.14    1.14    0.00   0.63  56.70
sdf             162.00     0.00  846.00    0.00 110232.00     0.00   260.60     0.89    1.04    1.04    0.00   0.60  51.00
sdg               0.00     0.00    0.00    0.00     0.00     0.00     0.00     0.00    0.00    0.00    0.00   0.00   0.00
sdh               0.00     0.00    0.00    0.00     0.00     0.00     0.00     0.00    0.00    0.00    0.00   0.00   0.00
md0               0.00     0.00 6525.00    0.00 915292.00     0.00   280.55     0.00    0.00    0.00    0.00   0.00   0.00

avg-cpu:  %user   %nice %system %iowait  %steal   %idle
           0.26    0.00    5.63   27.62    0.00   66.50

Device:         rrqm/s   wrqm/s     r/s     w/s    rkB/s    wkB/s avgrq-sz avgqu-sz   await r_await w_await  svctm  %util
sda             148.00     0.00  772.00    0.00 103100.00     0.00   267.10     0.51    0.66    0.66    0.00   0.41  31.60
sdb             139.00     0.00  947.00    0.00 105588.00     0.00   222.99     0.60    0.63    0.63    0.00   0.35  33.00
sdc             138.00     0.00  856.00    0.00 104388.00     0.00   243.90     0.85    1.01    1.01    0.00   0.57  48.80
sdd             162.00     0.00  859.00    0.00 110240.00     0.00   256.67     0.89    1.05    1.05    0.00   0.59  50.70
sde             144.00     0.00  961.00    0.00 110304.00     0.00   229.56     0.92    0.97    0.97    0.00   0.56  54.20
sdf             155.00     0.00  842.00    0.00 112996.00     0.00   268.40     0.87    1.04    1.04    0.00   0.61  51.50
sdg               0.00     0.00    0.00    0.00     0.00     0.00     0.00     0.00    0.00    0.00    0.00   0.00   0.00
sdh               0.00     0.00    0.00    0.00     0.00     0.00     0.00     0.00    0.00    0.00    0.00   0.00   0.00
md0               0.00     0.00 6633.00    0.00 894552.00     0.00   269.73     0.00    0.00    0.00    0.00   0.00   0.00

avg-cpu:  %user   %nice %system %iowait  %steal   %idle
           1.00    0.00    6.73   26.43    0.00   65.84

Device:         rrqm/s   wrqm/s     r/s     w/s    rkB/s    wkB/s avgrq-sz avgqu-sz   await r_await w_await  svctm  %util
sda             172.00     0.00  857.00    0.00 115288.00     0.00   269.05     0.61    0.71    0.71    0.00   0.39  33.70
sdb             161.00     0.00  993.00    0.00 110720.00     0.00   223.00     0.69    0.69    0.69    0.00   0.35  34.30
sdc             149.00     0.00  848.00    0.00 112012.00     0.00   264.18     0.91    1.07    1.07    0.00   0.62  52.20
sdd             170.00     0.00  794.00    0.00 110744.00     0.00   278.95     0.85    1.08    1.08    0.00   0.65  51.30
sde             166.00     0.00  996.00    0.00 115004.00     0.00   230.93     1.03    1.04    1.04    0.00   0.56  56.10
sdf             162.00     0.00  784.00    0.00 115352.00     0.00   294.27     0.86    1.10    1.10    0.00   0.66  52.00
sdg               0.00     0.00    0.00    0.00     0.00     0.00     0.00     0.00    0.00    0.00    0.00   0.00   0.00
sdh               0.00     0.00    0.00    0.00     0.00     0.00     0.00     0.00    0.00    0.00    0.00   0.00   0.00
md0               0.00     0.00 6685.00    0.00 967080.00     0.00   289.33     0.00    0.00    0.00    0.00   0.00   0.00

avg-cpu:  %user   %nice %system %iowait  %steal   %idle
           0.76    0.00    5.58   26.90    0.00   66.75

Device:         rrqm/s   wrqm/s     r/s     w/s    rkB/s    wkB/s avgrq-sz avgqu-sz   await r_await w_await  svctm  %util
sda             163.00     0.00  863.00    0.00 116804.00     0.00   270.69     0.58    0.68    0.68    0.00   0.39  34.00
sdb             158.00     0.00  836.00    0.00 109372.00     0.00   261.66     0.58    0.69    0.69    0.00   0.40  33.10
sdc             160.00     0.00  925.00    0.00 110748.00     0.00   239.46     0.93    1.00    1.00    0.00   0.55  50.90
sdd             147.00     0.00  855.00    0.00 110172.00     0.00   257.71     0.87    1.01    1.01    0.00   0.59  50.40
sde             154.00     0.00  875.00    0.00 107760.00     0.00   246.31     0.88    1.00    1.00    0.00   0.60  52.80
sdf             148.00     0.00  869.00    0.00 112572.00     0.00   259.08     0.88    1.01    1.01    0.00   0.60  52.50
sdg               0.00     0.00    0.00    0.00     0.00     0.00     0.00     0.00    0.00    0.00    0.00   0.00   0.00
sdh               0.00     0.00    0.00    0.00     0.00     0.00     0.00     0.00    0.00    0.00    0.00   0.00   0.00
md0               0.00     0.00 6401.00    0.00 942412.00     0.00   294.46     0.00    0.00    0.00    0.00   0.00   0.00

avg-cpu:  %user   %nice %system %iowait  %steal   %idle
           0.76    0.00    6.30   28.21    0.00   64.74

Device:         rrqm/s   wrqm/s     r/s     w/s    rkB/s    wkB/s avgrq-sz avgqu-sz   await r_await w_await  svctm  %util
sda             152.00     0.00  843.00    0.00 104692.00     0.00   248.38     0.56    0.66    0.66    0.00   0.38  31.80
sdb             141.00     0.00  913.00    0.00 103916.00     0.00   227.64     0.57    0.60    0.60    0.00   0.35  32.40
sdc             160.00     0.00  876.00    0.00 108732.00     0.00   248.25     0.86    0.98    0.98    0.00   0.57  50.30
sdd             147.00     0.00  952.00    0.00 113612.00     0.00   238.68     0.91    0.96    0.96    0.00   0.55  52.40
sde             157.00     0.00  885.00    0.00 114504.00     0.00   258.77     0.97    1.10    1.10    0.00   0.63  55.40
sdf             158.00     0.00  770.00    0.00 109988.00     0.00   285.68     0.84    1.10    1.10    0.00   0.67  51.30
sdg               0.00     0.00    0.00    0.00     0.00     0.00     0.00     0.00    0.00    0.00    0.00   0.00   0.00
sdh               0.00     0.00    0.00    0.00     0.00     0.00     0.00     0.00    0.00    0.00    0.00   0.00   0.00
md0               0.00     0.00 6475.00    0.00 927376.00     0.00   286.45     0.00    0.00    0.00    0.00   0.00   0.00

avg-cpu:  %user   %nice %system %iowait  %steal   %idle
           0.76    0.00    6.06   27.53    0.00   65.66

Device:         rrqm/s   wrqm/s     r/s     w/s    rkB/s    wkB/s avgrq-sz avgqu-sz   await r_await w_await  svctm  %util
sda             162.00     0.00  855.00    0.00 110852.00     0.00   259.30     0.54    0.64    0.64    0.00   0.38  32.50
sdb             150.00     0.00  943.00    0.00 111476.00     0.00   236.43     0.60    0.64    0.64    0.00   0.37  34.70
sdc             157.00     0.00  953.00    0.00 106464.00     0.00   223.43     0.90    0.94    0.94    0.00   0.52  49.70
sdd             144.00     0.00  910.00    0.00 106984.00     0.00   235.13     0.89    0.98    0.98    0.00   0.54  49.20
sde             153.00     0.00  911.00    0.00 109868.00     0.00   241.20     0.93    1.02    1.02    0.00   0.59  53.60
sdf             161.00     0.00  860.00    0.00 111136.00     0.00   258.46     0.87    1.02    1.02    0.00   0.59  51.10
sdg               0.00     0.00    0.00    0.00     0.00     0.00     0.00     0.00    0.00    0.00    0.00   0.00   0.00
sdh               0.00     0.00    0.00    0.00     0.00     0.00     0.00     0.00    0.00    0.00    0.00   0.00   0.00
md0               0.00     0.00 6910.00    0.00 924596.00     0.00   267.61     0.00    0.00    0.00    0.00   0.00   0.00

avg-cpu:  %user   %nice %system %iowait  %steal   %idle
           0.75    0.00    6.75   26.75    0.00   65.75

Device:         rrqm/s   wrqm/s     r/s     w/s    rkB/s    wkB/s avgrq-sz avgqu-sz   await r_await w_await  svctm  %util
sda             148.00     0.00  846.00    0.00 110444.00     0.00   261.10     0.49    0.58    0.58    0.00   0.37  31.20
sdb             155.00     0.00  869.00    0.00 109360.00     0.00   251.69     0.52    0.60    0.60    0.00   0.36  31.40
sdc             145.00     0.00  876.00    0.00 106480.00     0.00   243.11     0.83    0.94    0.94    0.00   0.57  49.60
sdd             146.00     0.00  865.00    0.00 105944.00     0.00   244.96     0.84    0.97    0.97    0.00   0.57  48.90
sde             145.00     0.00  824.00    0.00 107284.00     0.00   260.40     0.89    1.07    1.07    0.00   0.63  52.20
sdf             146.00     0.00  946.00    0.00 109264.00     0.00   231.00     0.86    0.91    0.91    0.00   0.54  51.30
sdg               0.00     0.00    0.00    0.00     0.00     0.00     0.00     0.00    0.00    0.00    0.00   0.00   0.00
sdh               0.00     0.00    0.00    0.00     0.00     0.00     0.00     0.00    0.00    0.00    0.00   0.00   0.00
md0               0.00     0.00 6503.00    0.00 908500.00     0.00   279.41     0.00    0.00    0.00    0.00   0.00   0.00

avg-cpu:  %user   %nice %system %iowait  %steal   %idle
           0.76    0.00    5.84   28.93    0.00   64.47

Device:         rrqm/s   wrqm/s     r/s     w/s    rkB/s    wkB/s avgrq-sz avgqu-sz   await r_await w_await  svctm  %util
sda             169.00     0.00  779.00    0.00 115460.00     0.00   296.43     0.55    0.70    0.70    0.00   0.43  33.60
sdb             160.00     0.00  908.00    0.00 114152.00     0.00   251.44     0.56    0.62    0.62    0.00   0.37  33.30
sdc             176.00     0.00  760.00    0.00 117260.00     0.00   308.58     0.93    1.23    1.23    0.00   0.71  53.60
sdd             175.00     0.00  880.00    0.00 116224.00     0.00   264.15     0.96    1.09    1.09    0.00   0.61  54.00
sde             167.00     0.00  813.00    0.00 113432.00     0.00   279.05     0.96    1.18    1.18    0.00   0.68  55.10
sdf             170.00     0.00  786.00    0.00 112292.00     0.00   285.73     0.92    1.16    1.16    0.00   0.66  51.70
sdg               0.00     0.00    0.00    0.00     0.00     0.00     0.00     0.00    0.00    0.00    0.00   0.00   0.00
sdh               0.00     0.00    0.00    0.00     0.00     0.00     0.00     0.00    0.00    0.00    0.00   0.00   0.00
md0               0.00     0.00 6197.00    0.00 975316.00     0.00   314.77     0.00    0.00    0.00    0.00   0.00   0.00

avg-cpu:  %user   %nice %system %iowait  %steal   %idle
           0.51    0.00    6.11   27.48    0.00   65.90

Device:         rrqm/s   wrqm/s     r/s     w/s    rkB/s    wkB/s avgrq-sz avgqu-sz   await r_await w_await  svctm  %util
sda             158.00     0.00  827.00    0.00 111208.00     0.00   268.94     0.55    0.66    0.66    0.00   0.39  32.40
sdb             152.00     0.00  945.00    0.00 108900.00     0.00   230.48     0.61    0.64    0.64    0.00   0.34  32.40
sdc             147.00     0.00  884.00    0.00 110220.00     0.00   249.37     0.84    0.95    0.95    0.00   0.58  51.00
sdd             156.00     0.00  887.00    0.00 114248.00     0.00   257.61     0.89    1.00    1.00    0.00   0.59  52.60
sde             160.00     0.00  907.00    0.00 109212.00     0.00   240.82     0.93    1.03    1.03    0.00   0.59  53.20
sdf             151.00     0.00  947.00    0.00 111936.00     0.00   236.40     0.93    0.98    0.98    0.00   0.55  51.80
sdg               0.00     0.00    0.00    0.00     0.00     0.00     0.00     0.00    0.00    0.00    0.00   0.00   0.00
sdh               0.00     0.00    0.00    0.00     0.00     0.00     0.00     0.00    0.00    0.00    0.00   0.00   0.00
md0               0.00     0.00 6787.00    0.00 929368.00     0.00   273.87     0.00    0.00    0.00    0.00   0.00   0.00

avg-cpu:  %user   %nice %system %iowait  %steal   %idle
           0.50    0.00    7.50   27.00    0.00   65.00

Device:         rrqm/s   wrqm/s     r/s     w/s    rkB/s    wkB/s avgrq-sz avgqu-sz   await r_await w_await  svctm  %util
sda             156.00     0.00  871.00    0.00 111624.00     0.00   256.31     0.56    0.64    0.64    0.00   0.37  31.80
sdb             148.00     0.00  809.00    0.00 108860.00     0.00   269.12     0.53    0.66    0.66    0.00   0.39  31.90
sdc             158.00     0.00  978.00    0.00 109304.00     0.00   223.53     0.91    0.93    0.93    0.00   0.52  50.90
sdd             155.00     0.00  851.00    0.00 105840.00     0.00   248.74     0.85    1.00    1.00    0.00   0.58  49.20
sde             156.00     0.00 1028.00    0.00 107684.00     0.00   209.50     1.08    1.05    1.05    0.00   0.50  51.90
sdf             153.00     0.00  790.00    0.00 110296.00     0.00   279.23     0.83    1.06    1.06    0.00   0.64  50.70
sdg               0.00     0.00    4.00    0.00    16.00     0.00     8.00     0.00    0.25    0.25    0.00   0.25   0.10
sdh               0.00     0.00    0.00    0.00     0.00     0.00     0.00     0.00    0.00    0.00    0.00   0.00   0.00
md0               0.00     0.00 6731.00    0.00 920364.00     0.00   273.47     0.00    0.00    0.00    0.00   0.00   0.00

