Linux 4.17.2 (bench) 	08/03/2018 	_x86_64_	(4 CPU)

avg-cpu:  %user   %nice %system %iowait  %steal   %idle
          10.27    0.02    4.09    2.60    0.00   83.02

Device:         rrqm/s   wrqm/s     r/s     w/s    rkB/s    wkB/s avgrq-sz avgqu-sz   await r_await w_await  svctm  %util
sda              47.07     4.23 1667.44  102.26 20999.76  3128.84    27.27     1.04    0.59    0.26    5.92   0.06  10.79
sdb              46.92     4.19 1667.40  102.39 20989.22  3125.51    27.25     1.03    0.58    0.26    5.85   0.06  10.67
sdc              84.81     4.25 1627.40  101.94 20981.34  3127.97    27.88     1.45    0.84    0.45    7.12   0.08  14.13
sdd              78.26     4.22 1633.14  102.01 20966.28  3124.17    27.77     1.46    0.84    0.44    7.33   0.08  14.22
sde              80.28     4.27 1638.21  102.11 21025.95  3128.41    27.76     1.48    0.85    0.44    7.44   0.08  14.24
sdf              77.40     4.24 1640.35  102.06 21007.23  3125.28    27.70     1.53    0.88    0.44    7.90   0.08  14.27
sdg               0.00     3.17   26.38   73.30   324.22   392.01    14.37     0.44    4.41    0.20    5.93   0.08   0.78
sdh               0.00     0.13    0.02    0.23     2.20     5.05    56.82     0.00    1.15    0.65    1.19   0.21   0.01
md0               0.00     0.00 10295.49  479.10 143831.56 21416.50    30.67     0.00    0.00    0.00    0.00   0.00   0.00

avg-cpu:  %user   %nice %system %iowait  %steal   %idle
           0.77    0.00    5.61    6.12    0.00   87.50

Device:         rrqm/s   wrqm/s     r/s     w/s    rkB/s    wkB/s avgrq-sz avgqu-sz   await r_await w_await  svctm  %util
sda               0.00     0.00 4784.00    0.00 19136.00     0.00     8.00     0.56    0.12    0.12    0.00   0.03  16.70
sdb               0.00     0.00 4927.00    0.00 19708.00     0.00     8.00     0.61    0.12    0.12    0.00   0.04  17.60
sdc               0.00     0.00 5009.00    0.00 20036.00     0.00     8.00     0.65    0.13    0.13    0.00   0.04  19.30
sdd               0.00     0.00 4973.00    0.00 19892.00     0.00     8.00     0.68    0.14    0.14    0.00   0.04  21.00
sde               0.00     0.00 5009.00    0.00 20036.00     0.00     8.00     0.69    0.14    0.14    0.00   0.04  20.50
sdf               0.00     0.00 4932.00    0.00 19728.00     0.00     8.00     0.61    0.12    0.12    0.00   0.04  18.10
sdg               0.00     0.00    3.00    0.00   100.00     0.00    66.67     0.00    0.33    0.33    0.00   0.33   0.10
sdh               0.00     0.00    0.00    0.00     0.00     0.00     0.00     0.00    0.00    0.00    0.00   0.00   0.00
md0               0.00     0.00 29644.00    0.00 118576.00     0.00     8.00     0.00    0.00    0.00    0.00   0.00   0.00

avg-cpu:  %user   %nice %system %iowait  %steal   %idle
           0.78    0.26    5.17    2.58    0.00   91.21

Device:         rrqm/s   wrqm/s     r/s     w/s    rkB/s    wkB/s avgrq-sz avgqu-sz   await r_await w_await  svctm  %util
sda               0.00     0.00 4907.00    0.00 19628.00     0.00     8.00     0.61    0.13    0.13    0.00   0.04  18.90
sdb               0.00     0.00 4831.00    0.00 19324.00     0.00     8.00     0.52    0.11    0.11    0.00   0.03  16.50
sdc               0.00     0.00 4928.00    0.00 19712.00     0.00     8.00     0.74    0.15    0.15    0.00   0.04  21.30
sdd               0.00     0.00 4968.00    0.00 19872.00     0.00     8.00     0.64    0.13    0.13    0.00   0.04  20.30
sde               0.00     0.00 4981.00    0.00 19924.00     0.00     8.00     0.65    0.13    0.13    0.00   0.04  18.90
sdf               0.00     0.00 4871.00    0.00 19484.00     0.00     8.00     0.74    0.15    0.15    0.00   0.04  20.70
sdg               0.00     0.00   18.00    0.00   120.00     0.00    13.33     0.01    0.28    0.28    0.00   0.22   0.40
sdh               0.00     0.00    0.00    0.00     0.00     0.00     0.00     0.00    0.00    0.00    0.00   0.00   0.00
md0               0.00     0.00 29483.00    0.00 117932.00     0.00     8.00     0.00    0.00    0.00    0.00   0.00   0.00

avg-cpu:  %user   %nice %system %iowait  %steal   %idle
           0.52    0.00    4.94    3.90    0.00   90.65

Device:         rrqm/s   wrqm/s     r/s     w/s    rkB/s    wkB/s avgrq-sz avgqu-sz   await r_await w_await  svctm  %util
sda               0.00     0.00 5312.00    0.00 21248.00     0.00     8.00     0.64    0.12    0.12    0.00   0.04  19.00
sdb               0.00     0.00 5318.00    0.00 21272.00     0.00     8.00     0.61    0.12    0.12    0.00   0.03  16.60
sdc               0.00     0.00 5220.00    0.00 20880.00     0.00     8.00     0.76    0.14    0.14    0.00   0.04  20.10
sdd               0.00     0.00 5142.00    0.00 20568.00     0.00     8.00     0.71    0.14    0.14    0.00   0.04  19.60
sde               0.00     0.00 5220.00    0.00 20880.00     0.00     8.00     0.69    0.13    0.13    0.00   0.04  19.40
sdf               0.00     0.00 5264.00    0.00 21056.00     0.00     8.00     0.66    0.12    0.12    0.00   0.04  18.50
sdg               0.00     0.00    0.00    0.00     0.00     0.00     0.00     0.00    0.00    0.00    0.00   0.00   0.00
sdh               0.00     0.00    0.00    0.00     0.00     0.00     0.00     0.00    0.00    0.00    0.00   0.00   0.00
md0               0.00     0.00 31475.00    0.00 125900.00     0.00     8.00     0.00    0.00    0.00    0.00   0.00   0.00

avg-cpu:  %user   %nice %system %iowait  %steal   %idle
           0.52    0.00    4.69    0.52    0.00   94.27

Device:         rrqm/s   wrqm/s     r/s     w/s    rkB/s    wkB/s avgrq-sz avgqu-sz   await r_await w_await  svctm  %util
sda               0.00     0.00 5248.00    0.00 20992.00     0.00     8.00     0.61    0.12    0.12    0.00   0.03  17.70
sdb               0.00     0.00 5316.00    0.00 21264.00     0.00     8.00     0.55    0.10    0.10    0.00   0.03  15.70
sdc               0.00     0.00 5195.00    0.00 20780.00     0.00     8.00     0.71    0.14    0.14    0.00   0.04  19.30
sdd               0.00     0.00 5198.00    0.00 20792.00     0.00     8.00     0.68    0.13    0.13    0.00   0.04  19.30
sde               0.00     0.00 5223.00    0.00 20892.00     0.00     8.00     0.65    0.13    0.13    0.00   0.04  18.30
sdf               0.00     0.00 5320.00    0.00 21280.00     0.00     8.00     0.78    0.15    0.15    0.00   0.04  21.90
sdg               0.00     0.00    0.00    0.00     0.00     0.00     0.00     0.00    0.00    0.00    0.00   0.00   0.00
sdh               0.00     0.00    0.00    0.00     0.00     0.00     0.00     0.00    0.00    0.00    0.00   0.00   0.00
md0               0.00     0.00 31504.00    0.00 126016.00     0.00     8.00     0.00    0.00    0.00    0.00   0.00   0.00

avg-cpu:  %user   %nice %system %iowait  %steal   %idle
           0.51    0.00    7.11   11.42    0.00   80.96

Device:         rrqm/s   wrqm/s     r/s     w/s    rkB/s    wkB/s avgrq-sz avgqu-sz   await r_await w_await  svctm  %util
sda               0.00     0.00 5319.00    0.00 21276.00     0.00     8.00     0.57    0.11    0.11    0.00   0.03  16.10
sdb               0.00     0.00 5296.00    0.00 21184.00     0.00     8.00     0.67    0.13    0.13    0.00   0.03  17.50
sdc               0.00     0.00 5255.00    0.00 21020.00     0.00     8.00     0.68    0.13    0.13    0.00   0.03  17.80
sdd               0.00     0.00 5319.00    0.00 21276.00     0.00     8.00     0.75    0.14    0.14    0.00   0.04  21.30
sde               0.00     0.00 5313.00    0.00 21252.00     0.00     8.00     0.73    0.14    0.14    0.00   0.04  19.50
sdf               0.00     0.00 5274.00    0.00 21096.00     0.00     8.00     0.75    0.14    0.14    0.00   0.04  19.80
sdg               0.00     0.00    0.00    0.00     0.00     0.00     0.00     0.00    0.00    0.00    0.00   0.00   0.00
sdh               0.00     0.00    0.00    0.00     0.00     0.00     0.00     0.00    0.00    0.00    0.00   0.00   0.00
md0               0.00     0.00 31774.00    0.00 127096.00     0.00     8.00     0.00    0.00    0.00    0.00   0.00   0.00

avg-cpu:  %user   %nice %system %iowait  %steal   %idle
           0.76    0.00    6.60    9.90    0.00   82.74

Device:         rrqm/s   wrqm/s     r/s     w/s    rkB/s    wkB/s avgrq-sz avgqu-sz   await r_await w_await  svctm  %util
sda               0.00     0.00 5361.00    0.00 21444.00     0.00     8.00     0.54    0.10    0.10    0.00   0.03  16.90
sdb               0.00     0.00 5377.00    0.00 21508.00     0.00     8.00     0.64    0.12    0.12    0.00   0.03  17.00
sdc               0.00     0.00 5192.00    0.00 20768.00     0.00     8.00     0.73    0.14    0.14    0.00   0.04  20.00
sdd               0.00     0.00 5251.00    0.00 21004.00     0.00     8.00     0.70    0.13    0.13    0.00   0.04  19.60
sde               0.00     0.00 5245.00    0.00 20980.00     0.00     8.00     0.75    0.14    0.14    0.00   0.04  21.20
sdf               0.00     0.00 5355.00    0.00 21420.00     0.00     8.00     0.75    0.14    0.14    0.00   0.04  20.20
sdg               0.00     0.00    8.00    5.00    32.00    24.00     8.62     0.00    0.08    0.12    0.00   0.08   0.10
sdh               0.00     0.00    0.00    0.00     0.00     0.00     0.00     0.00    0.00    0.00    0.00   0.00   0.00
md0               0.00     0.00 31780.00    0.00 127120.00     0.00     8.00     0.00    0.00    0.00    0.00   0.00   0.00

avg-cpu:  %user   %nice %system %iowait  %steal   %idle
           0.77    0.00    6.14    3.58    0.00   89.51

Device:         rrqm/s   wrqm/s     r/s     w/s    rkB/s    wkB/s avgrq-sz avgqu-sz   await r_await w_await  svctm  %util
sda               0.00     0.00 5122.00    0.00 20492.00     0.00     8.00     0.58    0.11    0.11    0.00   0.03  15.90
sdb               0.00     0.00 5252.00    0.00 21008.00     0.00     8.00     0.64    0.12    0.12    0.00   0.03  17.30
sdc               0.00     0.00 5254.00    0.00 21016.00     0.00     8.00     0.68    0.13    0.13    0.00   0.04  18.70
sdd               0.00     0.00 5360.00    0.00 21440.00     0.00     8.00     0.68    0.13    0.13    0.00   0.04  18.80
sde               0.00     0.00 5266.00    0.00 21064.00     0.00     8.00     0.82    0.16    0.16    0.00   0.04  21.20
sdf               0.00     0.00 5209.00    0.00 20836.00     0.00     8.00     0.67    0.13    0.13    0.00   0.04  18.50
sdg               0.00     0.00    0.00    0.00     0.00     0.00     0.00     0.00    0.00    0.00    0.00   0.00   0.00
sdh               0.00     0.00    0.00    0.00     0.00     0.00     0.00     0.00    0.00    0.00    0.00   0.00   0.00
md0               0.00     0.00 31463.00    0.00 125852.00     0.00     8.00     0.00    0.00    0.00    0.00   0.00   0.00

avg-cpu:  %user   %nice %system %iowait  %steal   %idle
           0.78    0.00    4.94    0.52    0.00   93.77

Device:         rrqm/s   wrqm/s     r/s     w/s    rkB/s    wkB/s avgrq-sz avgqu-sz   await r_await w_await  svctm  %util
sda               0.00     0.00 5268.00    0.00 21068.00     0.00     8.00     0.63    0.12    0.12    0.00   0.03  17.30
sdb               0.00     0.00 5200.00    0.00 20800.00     0.00     8.00     0.65    0.13    0.13    0.00   0.03  17.10
sdc               0.00     0.00 5263.00    0.00 21052.00     0.00     8.00     0.76    0.14    0.14    0.00   0.04  19.70
sdd               0.00     0.00 5286.00    0.00 21144.00     0.00     8.00     0.70    0.13    0.13    0.00   0.03  18.50
sde               0.00     0.00 5245.00    0.00 20980.00     0.00     8.00     0.77    0.15    0.15    0.00   0.04  21.40
sdf               0.00     0.00 5323.00    0.00 21292.00     0.00     8.00     0.67    0.13    0.13    0.00   0.04  19.00
sdg               0.00     0.00    0.00    0.00     0.00     0.00     0.00     0.00    0.00    0.00    0.00   0.00   0.00
sdh               0.00     0.00    0.00    0.00     0.00     0.00     0.00     0.00    0.00    0.00    0.00   0.00   0.00
md0               0.00     0.00 31588.00    0.00 126352.00     0.00     8.00     0.00    0.00    0.00    0.00   0.00   0.00

avg-cpu:  %user   %nice %system %iowait  %steal   %idle
           0.51    0.00    6.84    0.76    0.00   91.90

Device:         rrqm/s   wrqm/s     r/s     w/s    rkB/s    wkB/s avgrq-sz avgqu-sz   await r_await w_await  svctm  %util
sda               0.00     0.00 5517.00    0.00 22068.00     0.00     8.00     0.68    0.12    0.12    0.00   0.04  19.70
sdb               0.00     0.00 5457.00    0.00 21828.00     0.00     8.00     0.61    0.11    0.11    0.00   0.03  17.50
sdc               0.00     0.00 5477.00    0.00 21908.00     0.00     8.00     0.77    0.14    0.14    0.00   0.04  20.70
sdd               0.00     0.00 5407.00    0.00 21628.00     0.00     8.00     0.73    0.13    0.13    0.00   0.04  20.30
sde               0.00     0.00 5706.00    0.00 22824.00     0.00     8.00     0.77    0.13    0.13    0.00   0.04  20.70
sdf               0.00     0.00 5365.00    0.00 21460.00     0.00     8.00     0.76    0.14    0.14    0.00   0.04  20.20
sdg               0.00     0.00    0.00    0.00     0.00     0.00     0.00     0.00    0.00    0.00    0.00   0.00   0.00
sdh               0.00     0.00    0.00    0.00     0.00     0.00     0.00     0.00    0.00    0.00    0.00   0.00   0.00
md0               0.00     0.00 32926.00    0.00 131704.00     0.00     8.00     0.00    0.00    0.00    0.00   0.00   0.00

avg-cpu:  %user   %nice %system %iowait  %steal   %idle
           0.77    0.00    5.15    0.52    0.00   93.56

Device:         rrqm/s   wrqm/s     r/s     w/s    rkB/s    wkB/s avgrq-sz avgqu-sz   await r_await w_await  svctm  %util
sda               0.00     0.00 5135.00    0.00 20540.00     0.00     8.00     0.58    0.11    0.11    0.00   0.03  17.30
sdb               0.00     0.00 5110.00    0.00 20440.00     0.00     8.00     0.60    0.12    0.12    0.00   0.03  17.20
sdc               0.00     0.00 5130.00    0.00 20520.00     0.00     8.00     0.69    0.13    0.13    0.00   0.04  19.00
sdd               0.00     0.00 5140.00    0.00 20560.00     0.00     8.00     0.76    0.15    0.15    0.00   0.04  20.30
sde               0.00     0.00 5063.00    0.00 20252.00     0.00     8.00     0.63    0.12    0.12    0.00   0.03  17.30
sdf               0.00     0.00 5211.00    0.00 20844.00     0.00     8.00     0.70    0.13    0.13    0.00   0.04  19.80
sdg               0.00     0.00    0.00    0.00     0.00     0.00     0.00     0.00    0.00    0.00    0.00   0.00   0.00
sdh               0.00     0.00    0.00    0.00     0.00     0.00     0.00     0.00    0.00    0.00    0.00   0.00   0.00
md0               0.00     0.00 30790.00    0.00 123160.00     0.00     8.00     0.00    0.00    0.00    0.00   0.00   0.00

avg-cpu:  %user   %nice %system %iowait  %steal   %idle
           0.77    0.00    5.90    5.38    0.00   87.95

Device:         rrqm/s   wrqm/s     r/s     w/s    rkB/s    wkB/s avgrq-sz avgqu-sz   await r_await w_await  svctm  %util
sda               0.00     0.00 5203.00    0.00 20812.00     0.00     8.00     0.57    0.11    0.11    0.00   0.03  17.00
sdb               0.00     0.00 5212.00    0.00 20848.00     0.00     8.00     0.64    0.12    0.12    0.00   0.03  17.50
sdc               0.00     0.00 5249.00    0.00 20996.00     0.00     8.00     0.72    0.14    0.14    0.00   0.04  18.80
sdd               0.00     0.00 5263.00    0.00 21052.00     0.00     8.00     0.69    0.13    0.13    0.00   0.04  20.10
sde               0.00     0.00 5365.00    0.00 21460.00     0.00     8.00     0.72    0.13    0.13    0.00   0.04  20.60
sdf               0.00     0.00 5234.00    0.00 20936.00     0.00     8.00     0.67    0.13    0.13    0.00   0.03  17.70
sdg               0.00     0.00    0.00    0.00     0.00     0.00     0.00     0.00    0.00    0.00    0.00   0.00   0.00
sdh               0.00     0.00    0.00    0.00     0.00     0.00     0.00     0.00    0.00    0.00    0.00   0.00   0.00
md0               0.00     0.00 31524.00    0.00 126096.00     0.00     8.00     0.00    0.00    0.00    0.00   0.00   0.00

avg-cpu:  %user   %nice %system %iowait  %steal   %idle
           0.77    0.26    5.66    4.63    0.00   88.69

Device:         rrqm/s   wrqm/s     r/s     w/s    rkB/s    wkB/s avgrq-sz avgqu-sz   await r_await w_await  svctm  %util
sda               0.00     0.00 5290.00    0.00 21160.00     0.00     8.00     0.63    0.12    0.12    0.00   0.03  17.30
sdb               0.00     0.00 5180.00    0.00 20720.00     0.00     8.00     0.67    0.13    0.13    0.00   0.04  19.00
sdc               0.00     0.00 5266.00    0.00 21064.00     0.00     8.00     0.75    0.14    0.14    0.00   0.04  19.10
sdd               0.00     0.00 5189.00    0.00 20756.00     0.00     8.00     0.72    0.14    0.14    0.00   0.04  19.60
sde               0.00     0.00 5246.00    0.00 20984.00     0.00     8.00     0.66    0.13    0.13    0.00   0.04  18.60
sdf               0.00     0.00 5312.00    0.00 21248.00     0.00     8.00     0.73    0.14    0.14    0.00   0.04  20.00
sdg               0.00     1.00    4.00    8.00    16.00   172.00    31.33     0.00    0.33    0.25    0.38   0.17   0.20
sdh               0.00     0.00    0.00    0.00     0.00     0.00     0.00     0.00    0.00    0.00    0.00   0.00   0.00
md0               0.00     0.00 31485.00    0.00 125940.00     0.00     8.00     0.00    0.00    0.00    0.00   0.00   0.00

avg-cpu:  %user   %nice %system %iowait  %steal   %idle
           0.50    0.00    7.79    9.30    0.00   82.41

Device:         rrqm/s   wrqm/s     r/s     w/s    rkB/s    wkB/s avgrq-sz avgqu-sz   await r_await w_await  svctm  %util
sda               0.00     0.00 5813.00    0.00 23252.00     0.00     8.00     0.73    0.13    0.13    0.00   0.03  19.40
sdb               0.00     0.00 5735.00    0.00 22940.00     0.00     8.00     0.68    0.12    0.12    0.00   0.03  19.10
sdc               0.00     0.00 5850.00    0.00 23400.00     0.00     8.00     0.80    0.14    0.14    0.00   0.04  21.20
sdd               0.00     0.00 5582.00    0.00 22328.00     0.00     8.00     0.82    0.15    0.15    0.00   0.04  21.50
sde               0.00     0.00 5702.00    0.00 22808.00     0.00     8.00     0.72    0.13    0.13    0.00   0.03  19.50
sdf               0.00     0.00 5700.00    0.00 22800.00     0.00     8.00     0.74    0.13    0.13    0.00   0.04  21.40
sdg               0.00     0.00    0.00    0.00     0.00     0.00     0.00     0.00    0.00    0.00    0.00   0.00   0.00
sdh               0.00     0.00    0.00    0.00     0.00     0.00     0.00     0.00    0.00    0.00    0.00   0.00   0.00
md0               0.00     0.00 34388.00    0.00 137552.00     0.00     8.00     0.00    0.00    0.00    0.00   0.00   0.00

avg-cpu:  %user   %nice %system %iowait  %steal   %idle
           1.03    0.00    5.38    5.13    0.00   88.46

Device:         rrqm/s   wrqm/s     r/s     w/s    rkB/s    wkB/s avgrq-sz avgqu-sz   await r_await w_await  svctm  %util
sda               0.00     0.00 5321.00    0.00 21284.00     0.00     8.00     0.60    0.11    0.11    0.00   0.03  16.70
sdb               0.00     0.00 5332.00    0.00 21328.00     0.00     8.00     0.70    0.13    0.13    0.00   0.04  18.80
sdc               0.00     0.00 5385.00    0.00 21540.00     0.00     8.00     0.74    0.14    0.14    0.00   0.04  19.80
sdd               0.00     0.00 5328.00    0.00 21312.00     0.00     8.00     0.66    0.12    0.12    0.00   0.04  19.30
sde               0.00     0.00 5346.00    0.00 21384.00     0.00     8.00     0.83    0.16    0.16    0.00   0.04  22.30
sdf               0.00     0.00 5385.00    0.00 21540.00     0.00     8.00     0.70    0.13    0.13    0.00   0.04  20.00
sdg               0.00     0.00    0.00    0.00     0.00     0.00     0.00     0.00    0.00    0.00    0.00   0.00   0.00
sdh               0.00     0.00    0.00    0.00     0.00     0.00     0.00     0.00    0.00    0.00    0.00   0.00   0.00
md0               0.00     0.00 32091.00    0.00 128364.00     0.00     8.00     0.00    0.00    0.00    0.00   0.00   0.00

avg-cpu:  %user   %nice %system %iowait  %steal   %idle
           0.50    0.00    7.54    0.75    0.00   91.21

Device:         rrqm/s   wrqm/s     r/s     w/s    rkB/s    wkB/s avgrq-sz avgqu-sz   await r_await w_await  svctm  %util
sda               0.00     0.00 5727.00    0.00 22908.00     0.00     8.00     0.60    0.11    0.11    0.00   0.03  16.90
sdb               0.00     0.00 5782.00    0.00 23128.00     0.00     8.00     0.67    0.12    0.12    0.00   0.03  18.60
sdc               0.00     0.00 5780.00    0.00 23120.00     0.00     8.00     0.81    0.14    0.14    0.00   0.04  21.70
sdd               0.00     0.00 5699.00    0.00 22796.00     0.00     8.00     0.76    0.13    0.13    0.00   0.04  21.50
sde               0.00     0.00 5786.00    0.00 23144.00     0.00     8.00     0.79    0.14    0.14    0.00   0.04  21.60
sdf               0.00     0.00 5721.00    0.00 22884.00     0.00     8.00     0.79    0.14    0.14    0.00   0.04  21.80
sdg               0.00     0.00    0.00    0.00     0.00     0.00     0.00     0.00    0.00    0.00    0.00   0.00   0.00
sdh               0.00     0.00    0.00    0.00     0.00     0.00     0.00     0.00    0.00    0.00    0.00   0.00   0.00
md0               0.00     0.00 34495.00    0.00 137980.00     0.00     8.00     0.00    0.00    0.00    0.00   0.00   0.00

avg-cpu:  %user   %nice %system %iowait  %steal   %idle
           0.50    0.00    7.54    0.50    0.00   91.46

Device:         rrqm/s   wrqm/s     r/s     w/s    rkB/s    wkB/s avgrq-sz avgqu-sz   await r_await w_await  svctm  %util
sda               0.00     0.00 5741.00    0.00 22964.00     0.00     8.00     0.68    0.12    0.12    0.00   0.03  18.70
sdb               0.00     0.00 5835.00    0.00 23340.00     0.00     8.00     0.62    0.11    0.11    0.00   0.03  17.40
sdc               0.00     0.00 5703.00    0.00 22812.00     0.00     8.00     0.80    0.14    0.14    0.00   0.04  22.00
sdd               0.00     0.00 5808.00    0.00 23232.00     0.00     8.00     0.81    0.14    0.14    0.00   0.04  21.80
sde               0.00     0.00 5593.00    0.00 22372.00     0.00     8.00     0.71    0.13    0.13    0.00   0.04  19.60
sdf               0.00     0.00 5727.00    0.00 22908.00     0.00     8.00     0.77    0.13    0.13    0.00   0.04  22.70
sdg               0.00     0.00    0.00    0.00     0.00     0.00     0.00     0.00    0.00    0.00    0.00   0.00   0.00
sdh               0.00     0.00    0.00    0.00     0.00     0.00     0.00     0.00    0.00    0.00    0.00   0.00   0.00
md0               0.00     0.00 34405.00    0.00 137620.00     0.00     8.00     0.00    0.00    0.00    0.00   0.00   0.00

avg-cpu:  %user   %nice %system %iowait  %steal   %idle
           0.50    0.00    8.75    1.75    0.00   89.00

Device:         rrqm/s   wrqm/s     r/s     w/s    rkB/s    wkB/s avgrq-sz avgqu-sz   await r_await w_await  svctm  %util
sda               0.00     0.00 5727.00    0.00 22908.00     0.00     8.00     0.73    0.13    0.13    0.00   0.03  19.60
sdb               0.00     0.00 5748.00    0.00 22992.00     0.00     8.00     0.69    0.12    0.12    0.00   0.03  17.40
sdc               0.00     0.00 5762.00    0.00 23048.00     0.00     8.00     0.82    0.14    0.14    0.00   0.04  22.20
sdd               0.00     0.00 5630.00    0.00 22520.00     0.00     8.00     0.81    0.14    0.14    0.00   0.04  20.80
sde               0.00     0.00 5671.00    0.00 22684.00     0.00     8.00     0.69    0.12    0.12    0.00   0.03  18.90
sdf               0.00     0.00 5845.00    0.00 23380.00     0.00     8.00     0.78    0.13    0.13    0.00   0.04  21.60
sdg               0.00   182.00    0.00 2553.00     0.00 12668.00     9.92    15.67    6.14    0.00    6.14   0.04  11.40
sdh               0.00     0.00    0.00    0.00     0.00     0.00     0.00     0.00    0.00    0.00    0.00   0.00   0.00
md0               0.00     0.00 34378.00    0.00 137512.00     0.00     8.00     0.00    0.00    0.00    0.00   0.00   0.00

avg-cpu:  %user   %nice %system %iowait  %steal   %idle
           1.25    0.00    7.02    0.50    0.00   91.23

Device:         rrqm/s   wrqm/s     r/s     w/s    rkB/s    wkB/s avgrq-sz avgqu-sz   await r_await w_await  svctm  %util
sda               0.00     0.00 5716.00    0.00 22864.00     0.00     8.00     0.62    0.11    0.11    0.00   0.03  18.50
sdb               0.00     0.00 5645.00    0.00 22580.00     0.00     8.00     0.60    0.11    0.11    0.00   0.03  17.80
sdc               0.00     0.00 5661.00    0.00 22644.00     0.00     8.00     0.78    0.14    0.14    0.00   0.04  20.20
sdd               0.00     0.00 5829.00    0.00 23316.00     0.00     8.00     0.76    0.13    0.13    0.00   0.04  21.40
sde               0.00     0.00 5837.00    0.00 23348.00     0.00     8.00     0.71    0.12    0.12    0.00   0.04  20.90
sdf               0.00     0.00 5756.00    0.00 23024.00     0.00     8.00     0.85    0.15    0.15    0.00   0.04  21.70
sdg               0.00     0.00    0.00    0.00     0.00     0.00     0.00     0.00    0.00    0.00    0.00   0.00   0.00
sdh               0.00     0.00    0.00    0.00     0.00     0.00     0.00     0.00    0.00    0.00    0.00   0.00   0.00
md0               0.00     0.00 34451.00    0.00 137804.00     0.00     8.00     0.00    0.00    0.00    0.00   0.00   0.00

avg-cpu:  %user   %nice %system %iowait  %steal   %idle
           0.51    0.00    6.60    0.76    0.00   92.13

Device:         rrqm/s   wrqm/s     r/s     w/s    rkB/s    wkB/s avgrq-sz avgqu-sz   await r_await w_await  svctm  %util
sda               0.00     0.00 5695.00    0.00 22780.00     0.00     8.00     0.73    0.13    0.13    0.00   0.03  19.30
sdb               0.00     0.00 5690.00    0.00 22760.00     0.00     8.00     0.69    0.12    0.12    0.00   0.03  19.40
sdc               0.00     0.00 5684.00    0.00 22736.00     0.00     8.00     0.77    0.14    0.14    0.00   0.04  20.10
sdd               0.00     0.00 5753.00    0.00 23012.00     0.00     8.00     0.78    0.14    0.14    0.00   0.04  20.80
sde               0.00     0.00 5819.00    0.00 23276.00     0.00     8.00     0.85    0.15    0.15    0.00   0.04  22.40
sdf               0.00     0.00 5719.00    0.00 22876.00     0.00     8.00     0.80    0.14    0.14    0.00   0.04  20.80
sdg               0.00     0.00    0.00    0.00     0.00     0.00     0.00     0.00    0.00    0.00    0.00   0.00   0.00
sdh               0.00     0.00    0.00    0.00     0.00     0.00     0.00     0.00    0.00    0.00    0.00   0.00   0.00
md0               0.00     0.00 34359.00    0.00 137436.00     0.00     8.00     0.00    0.00    0.00    0.00   0.00   0.00

avg-cpu:  %user   %nice %system %iowait  %steal   %idle
           0.76    0.00    7.30    0.50    0.00   91.44

Device:         rrqm/s   wrqm/s     r/s     w/s    rkB/s    wkB/s avgrq-sz avgqu-sz   await r_await w_await  svctm  %util
sda               0.00     0.00 5622.00    0.00 22488.00     0.00     8.00     0.64    0.11    0.11    0.00   0.03  16.90
sdb               0.00     0.00 5846.00    0.00 23384.00     0.00     8.00     0.70    0.12    0.12    0.00   0.03  18.20
sdc               0.00     0.00 5675.00    0.00 22700.00     0.00     8.00     0.80    0.14    0.14    0.00   0.04  21.00
sdd               0.00     0.00 5693.00    0.00 22772.00     0.00     8.00     0.75    0.13    0.13    0.00   0.03  19.80
sde               0.00     0.00 5841.00    0.00 23364.00     0.00     8.00     0.80    0.14    0.14    0.00   0.04  20.80
sdf               0.00     0.00 5670.00    0.00 22680.00     0.00     8.00     0.78    0.14    0.14    0.00   0.04  21.00
sdg               0.00     0.00    0.00    0.00     0.00     0.00     0.00     0.00    0.00    0.00    0.00   0.00   0.00
sdh               0.00     0.00    0.00    0.00     0.00     0.00     0.00     0.00    0.00    0.00    0.00   0.00   0.00
md0               0.00     0.00 34348.00    0.00 137392.00     0.00     8.00     0.00    0.00    0.00    0.00   0.00   0.00

