Linux 4.17.2 (bench) 	08/03/2018 	_x86_64_	(4 CPU)

avg-cpu:  %user   %nice %system %iowait  %steal   %idle
          10.27    0.02    4.08    2.58    0.00   83.05

Device:         rrqm/s   wrqm/s     r/s     w/s    rkB/s    wkB/s avgrq-sz avgqu-sz   await r_await w_await  svctm  %util
sda              46.11     4.24 1660.12  102.42 20976.42  3133.77    27.36     1.04    0.59    0.26    5.92   0.06  10.75
sdb              45.96     4.20 1660.07  102.55 20965.82  3130.43    27.34     1.03    0.59    0.26    5.85   0.06  10.63
sdc              83.92     4.26 1620.03  102.11 20957.92  3132.89    27.98     1.45    0.84    0.45    7.12   0.08  14.09
sdd              77.35     4.23 1625.76  102.18 20942.85  3129.09    27.86     1.46    0.85    0.44    7.33   0.08  14.19
sde              79.37     4.27 1630.83  102.27 21002.61  3133.34    27.85     1.48    0.85    0.44    7.44   0.08  14.21
sdf              76.49     4.24 1632.99  102.22 20983.88  3130.20    27.79     1.53    0.88    0.44    7.90   0.08  14.24
sdg               0.00     3.17   26.34   73.32   324.11   392.06    14.37     0.44    4.42    0.20    5.93   0.08   0.78
sdh               0.00     0.13    0.02    0.23     2.21     5.06    56.82     0.00    1.15    0.65    1.19   0.21   0.01
md0               0.00     0.00 10245.82  479.86 143688.35 21450.22    30.79     0.00    0.00    0.00    0.00   0.00   0.00

avg-cpu:  %user   %nice %system %iowait  %steal   %idle
           0.56    0.01   16.74   67.66    0.00   15.04

Device:         rrqm/s   wrqm/s     r/s     w/s    rkB/s    wkB/s avgrq-sz avgqu-sz   await r_await w_await  svctm  %util
sda               0.00     0.00 10910.95    0.00 43643.80     0.00     8.00     1.11    0.10    0.10    0.00   0.06  67.94
sdb               0.00     0.00 10885.40    0.00 43541.60     0.00     8.00     1.11    0.10    0.10    0.00   0.06  68.03
sdc               0.00     0.00 10918.75    0.00 43675.00     0.00     8.00     1.24    0.11    0.11    0.00   0.07  71.99
sdd               0.00     0.00 10947.75    0.00 43791.00     0.00     8.00     1.24    0.11    0.11    0.00   0.07  72.10
sde               0.00     0.00 10888.55    0.00 43554.20     0.00     8.00     1.22    0.11    0.11    0.00   0.07  71.38
sdf               0.00     0.00 10904.80    0.00 43619.20     0.00     8.00     1.22    0.11    0.11    0.00   0.07  71.38
sdg               0.00     0.95    4.45   23.90    49.20   173.80    15.73     0.07    2.62    0.19    3.08   0.06   0.17
sdh               0.00     0.00    0.00    0.00     0.00     0.00     0.00     0.00    0.00    0.00    0.00   0.00   0.00
md0               0.00     0.00 65457.05    0.00 261828.20     0.00     8.00     0.00    0.00    0.00    0.00   0.00   0.00

