Linux 4.17.2 (bench) 	08/03/2018 	_x86_64_	(4 CPU)

avg-cpu:  %user   %nice %system %iowait  %steal   %idle
          10.25    0.02    4.19    2.75    0.00   82.80

Device:         rrqm/s   wrqm/s     r/s     w/s    rkB/s    wkB/s avgrq-sz avgqu-sz   await r_await w_await  svctm  %util
sda              53.69     4.18 1733.40  100.99 21412.43  3090.00    26.71     1.05    0.57    0.26    5.92   0.06  11.07
sdb              53.49     4.14 1733.40  101.12 21401.96  3086.71    26.70     1.05    0.57    0.26    5.85   0.06  10.95
sdc              91.19     4.20 1693.61  100.68 21394.20  3089.13    27.29     1.47    0.82    0.44    7.12   0.08  14.45
sdd              84.72     4.17 1699.26  100.75 21379.29  3085.39    27.18     1.47    0.82    0.43    7.33   0.08  14.55
sde              86.72     4.21 1704.34  100.84 21438.59  3089.57    27.18     1.50    0.83    0.44    7.44   0.08  14.57
sdf              83.87     4.18 1706.44  100.79 21420.08  3086.48    27.12     1.54    0.85    0.43    7.90   0.08  14.60
sdg               0.00     3.17   26.88   73.26   326.28   392.02    14.35     0.44    4.39    0.20    5.93   0.08   0.79
sdh               0.00     0.13    0.02    0.23     2.18     4.99    56.82     0.00    1.15    0.65    1.19   0.21   0.01
md0               0.00     0.00 10731.67  473.15 146814.72 21150.61    29.98     0.00    0.00    0.00    0.00   0.00   0.00

avg-cpu:  %user   %nice %system %iowait  %steal   %idle
           0.50    0.00   19.30   58.15    0.00   22.06

Device:         rrqm/s   wrqm/s     r/s     w/s    rkB/s    wkB/s avgrq-sz avgqu-sz   await r_await w_await  svctm  %util
sda               0.00     0.00 10200.00    0.00 40800.00     0.00     8.00     1.04    0.10    0.10    0.00   0.06  64.90
sdb               0.00     0.00 10265.00    0.00 41060.00     0.00     8.00     1.18    0.11    0.11    0.00   0.07  69.80
sdc               0.00     0.00 10325.00    0.00 41300.00     0.00     8.00     1.16    0.11    0.11    0.00   0.07  68.00
sdd               0.00     0.00 10199.00    0.00 40796.00     0.00     8.00     1.13    0.11    0.11    0.00   0.07  67.50
sde               0.00     0.00 10152.00    0.00 40608.00     0.00     8.00     1.18    0.12    0.12    0.00   0.07  69.30
sdf               0.00     0.00 9964.00    0.00 39856.00     0.00     8.00     1.12    0.11    0.11    0.00   0.07  67.70
sdg               0.00    18.00   34.00   86.00   544.00  1348.00    31.53     0.23    1.88    0.18    2.55   0.11   1.30
sdh               0.00     0.00    0.00    0.00     0.00     0.00     0.00     0.00    0.00    0.00    0.00   0.00   0.00
md0               0.00     0.00 61083.00    0.00 244332.00     0.00     8.00     0.00    0.00    0.00    0.00   0.00   0.00

avg-cpu:  %user   %nice %system %iowait  %steal   %idle
           0.51    0.00   18.32   59.03    0.00   22.14

Device:         rrqm/s   wrqm/s     r/s     w/s    rkB/s    wkB/s avgrq-sz avgqu-sz   await r_await w_await  svctm  %util
sda               0.00     0.00 10494.00    0.00 41976.00     0.00     8.00     1.09    0.10    0.10    0.00   0.06  67.80
sdb               0.00     0.00 10204.00    0.00 40816.00     0.00     8.00     1.14    0.11    0.11    0.00   0.06  66.10
sdc               0.00     0.00 10005.00    0.00 40020.00     0.00     8.00     1.07    0.11    0.11    0.00   0.06  65.00
sdd               0.00     0.00 10166.00    0.00 40664.00     0.00     8.00     1.21    0.12    0.12    0.00   0.07  70.00
sde               0.00     0.00 10427.00    0.00 41716.00     0.00     8.00     1.20    0.11    0.11    0.00   0.07  68.10
sdf               0.00     0.00 9970.00    0.00 39880.00     0.00     8.00     1.10    0.11    0.11    0.00   0.07  65.90
sdg               0.00     0.00    0.00    0.00     0.00     0.00     0.00     0.00    0.00    0.00    0.00   0.00   0.00
sdh               0.00     0.00    0.00    0.00     0.00     0.00     0.00     0.00    0.00    0.00    0.00   0.00   0.00
md0               0.00     0.00 61268.00    0.00 245080.00     0.00     8.00     0.00    0.00    0.00    0.00   0.00   0.00

