Linux 4.17.2 (bench) 	08/03/2018 	_x86_64_	(4 CPU)

avg-cpu:  %user   %nice %system %iowait  %steal   %idle
          10.27    0.02    4.09    2.60    0.00   83.02

Device:         rrqm/s   wrqm/s     r/s     w/s    rkB/s    wkB/s avgrq-sz avgqu-sz   await r_await w_await  svctm  %util
sda              47.07     4.23 1668.69  102.22 21010.18  3127.82    27.26     1.04    0.58    0.26    5.92   0.06  10.80
sdb              46.92     4.19 1668.64  102.36 20999.65  3124.50    27.24     1.03    0.58    0.26    5.85   0.06  10.67
sdc              84.80     4.25 1628.66  101.91 20991.76  3126.95    27.87     1.45    0.84    0.45    7.12   0.08  14.14
sdd              78.25     4.22 1634.39  101.98 20976.70  3123.16    27.76     1.46    0.84    0.44    7.33   0.08  14.23
sde              80.27     4.26 1639.46  102.08 21036.37  3127.39    27.75     1.48    0.85    0.44    7.44   0.08  14.25
sdf              77.39     4.24 1641.61  102.02 21017.66  3124.27    27.69     1.53    0.87    0.44    7.90   0.08  14.28
sdg               0.00     3.17   26.39   73.30   324.29   392.01    14.37     0.44    4.41    0.20    5.93   0.08   0.78
sdh               0.00     0.13    0.02    0.23     2.20     5.05    56.82     0.00    1.15    0.65    1.19   0.21   0.01
md0               0.00     0.00 10302.98  478.95 143916.81 21409.54    30.67     0.00    0.00    0.00    0.00   0.00   0.00

avg-cpu:  %user   %nice %system %iowait  %steal   %idle
           0.51    0.00    1.78    1.27    0.00   96.44

Device:         rrqm/s   wrqm/s     r/s     w/s    rkB/s    wkB/s avgrq-sz avgqu-sz   await r_await w_await  svctm  %util
sda               0.00     0.00 1368.00    0.00  6020.00     0.00     8.80     0.13    0.10    0.10    0.00   0.10  13.30
sdb               0.00     0.00 1454.00    0.00  6924.00     0.00     9.52     0.15    0.10    0.10    0.00   0.10  14.90
sdc               0.00     0.00 1441.00    0.00  6604.00     0.00     9.17     0.17    0.12    0.12    0.00   0.12  17.40
sdd               0.00     0.00 1448.00    0.00  6128.00     0.00     8.46     0.15    0.11    0.11    0.00   0.11  15.40
sde               0.00     0.00 1436.00    0.00  6316.00     0.00     8.80     0.14    0.10    0.10    0.00   0.10  14.40
sdf               0.00     0.00 1374.00    0.00  5772.00     0.00     8.40     0.14    0.10    0.10    0.00   0.10  14.10
sdg               0.00     0.00    0.00    1.00     0.00     8.00    16.00     0.00    0.00    0.00    0.00   0.00   0.00
sdh               0.00     0.00    0.00    0.00     0.00     0.00     0.00     0.00    0.00    0.00    0.00   0.00   0.00
md0               0.00     0.00 8509.00    0.00 38140.00     0.00     8.96     0.00    0.00    0.00    0.00   0.00   0.00

