Linux 4.17.2 (bench) 	08/03/2018 	_x86_64_	(4 CPU)

avg-cpu:  %user   %nice %system %iowait  %steal   %idle
          10.25    0.02    4.19    2.75    0.00   82.79

Device:         rrqm/s   wrqm/s     r/s     w/s    rkB/s    wkB/s avgrq-sz avgqu-sz   await r_await w_await  svctm  %util
sda              54.40     4.18 1737.97  100.94 21438.76  3088.48    26.68     1.05    0.57    0.26    5.92   0.06  11.09
sdb              54.21     4.14 1737.98  101.07 21428.28  3085.20    26.66     1.05    0.57    0.26    5.85   0.06  10.96
sdc              91.93     4.20 1698.14  100.63 21420.51  3087.62    27.25     1.47    0.82    0.44    7.12   0.08  14.47
sdd              85.48     4.17 1703.79  100.70 21405.63  3083.87    27.14     1.48    0.82    0.43    7.33   0.08  14.57
sde              87.47     4.21 1708.87  100.79 21464.89  3088.06    27.14     1.50    0.83    0.44    7.44   0.08  14.59
sdf              84.63     4.18 1710.96  100.74 21446.42  3084.97    27.08     1.54    0.85    0.44    7.90   0.08  14.62
sdg               0.00     3.17   26.91   73.26   326.40   392.03    14.34     0.44    4.39    0.20    5.93   0.08   0.79
sdh               0.00     0.13    0.02    0.23     2.18     4.98    56.82     0.00    1.15    0.65    1.19   0.21   0.01
md0               0.00     0.00 10763.46  472.92 146985.68 21140.24    29.93     0.00    0.00    0.00    0.00   0.00   0.00

avg-cpu:  %user   %nice %system %iowait  %steal   %idle
           0.76    0.00   14.86   56.42    0.00   27.96

Device:         rrqm/s   wrqm/s     r/s     w/s    rkB/s    wkB/s avgrq-sz avgqu-sz   await r_await w_await  svctm  %util
sda               8.00     0.00 8225.00    0.00 68628.00     0.00    16.69     1.09    0.13    0.13    0.00   0.08  64.40
sdb               7.00     0.00 8289.00    0.00 68092.00     0.00    16.43     1.13    0.14    0.14    0.00   0.08  66.10
sdc               7.00     0.00 8363.00    0.00 67044.00     0.00    16.03     1.42    0.17    0.17    0.00   0.09  74.90
sdd              12.00     0.00 8230.00    0.00 66968.00     0.00    16.27     1.32    0.16    0.16    0.00   0.09  71.40
sde               6.00     0.00 8418.00    0.00 66168.00     0.00    15.72     1.38    0.16    0.16    0.00   0.09  73.60
sdf               6.00     0.00 8246.00    0.00 66484.00     0.00    16.13     1.41    0.17    0.17    0.00   0.09  72.50
sdg               0.00     0.00    0.00    0.00     0.00     0.00     0.00     0.00    0.00    0.00    0.00   0.00   0.00
sdh               0.00     0.00    0.00    0.00     0.00     0.00     0.00     0.00    0.00    0.00    0.00   0.00   0.00
md0               0.00     0.00 49816.00    0.00 444732.00     0.00    17.85     0.00    0.00    0.00    0.00   0.00   0.00

