Linux 4.17.2 (bench) 	08/03/2018 	_x86_64_	(4 CPU)

avg-cpu:  %user   %nice %system %iowait  %steal   %idle
          10.26    0.02    4.15    2.68    0.00   82.89

Device:         rrqm/s   wrqm/s     r/s     w/s    rkB/s    wkB/s avgrq-sz avgqu-sz   await r_await w_await  svctm  %util
sda              50.53     4.20 1706.08  101.52 21250.96  3106.25    26.95     1.04    0.58    0.26    5.92   0.06  10.95
sdb              50.36     4.16 1706.06  101.65 21240.51  3102.95    26.93     1.04    0.58    0.26    5.85   0.06  10.83
sdc              88.11     4.22 1666.21  101.21 21232.67  3105.39    27.54     1.46    0.83    0.44    7.12   0.08  14.32
sdd              81.60     4.19 1671.90  101.28 21217.72  3101.62    27.43     1.47    0.83    0.43    7.33   0.08  14.42
sde              83.61     4.23 1676.98  101.37 21277.17  3105.83    27.42     1.49    0.84    0.44    7.44   0.08  14.44
sdf              80.75     4.21 1679.09  101.32 21258.50  3102.72    27.37     1.53    0.86    0.44    7.90   0.08  14.47
sdg               0.00     3.17   26.67   73.28   325.43   392.04    14.36     0.44    4.40    0.20    5.93   0.08   0.78
sdh               0.00     0.13    0.02    0.23     2.19     5.01    56.82     0.00    1.15    0.65    1.19   0.21   0.01
md0               0.00     0.00 10548.53  475.64 145665.04 21261.90    30.28     0.00    0.00    0.00    0.00   0.00   0.00

avg-cpu:  %user   %nice %system %iowait  %steal   %idle
           1.18    0.01   52.73    0.28    0.00   45.80

Device:         rrqm/s   wrqm/s     r/s     w/s    rkB/s    wkB/s avgrq-sz avgqu-sz   await r_await w_await  svctm  %util
sda               0.35     0.00 30909.55    0.00 123640.00     0.00     8.00    34.00    1.10    1.10    0.00   0.02  73.77
sdb               0.10     0.00 30984.25    0.00 123937.40     0.00     8.00    34.28    1.11    1.11    0.00   0.02  73.65
sdc               0.35     0.00 30908.90    0.00 123637.00     0.00     8.00    41.35    1.34    1.34    0.00   0.03  79.24
sdd               0.35     0.00 30977.80    0.00 123912.60     0.00     8.00    41.02    1.32    1.32    0.00   0.03  77.65
sde               0.30     0.00 30971.30    0.00 123886.40     0.00     8.00    41.12    1.33    1.33    0.00   0.03  77.66
sdf               0.15     0.00 30957.60    0.00 123831.00     0.00     8.00    41.16    1.33    1.33    0.00   0.03  77.80
sdg               0.00     0.10  100.65    0.65   406.40    10.60     8.23     0.01    0.12    0.12    0.38   0.12   1.23
sdh               0.00     0.00    0.00    0.00     0.00     0.00     0.00     0.00    0.00    0.00    0.00   0.00   0.00
md0               0.00     0.00 185714.25    0.00 742857.40     0.00     8.00     0.00    0.00    0.00    0.00   0.00   0.00

