Linux 4.17.2 (bench) 	08/03/2018 	_x86_64_	(4 CPU)

avg-cpu:  %user   %nice %system %iowait  %steal   %idle
          10.27    0.02    4.07    2.56    0.00   83.07

Device:         rrqm/s   wrqm/s     r/s     w/s    rkB/s    wkB/s avgrq-sz avgqu-sz   await r_await w_await  svctm  %util
sda              45.88     4.24 1657.54  102.50 20976.90  3136.37    27.40     1.04    0.59    0.26    5.92   0.06  10.74
sdb              45.74     4.20 1657.48  102.64 20966.27  3133.03    27.38     1.03    0.59    0.26    5.85   0.06  10.62
sdc              83.72     4.26 1617.40  102.19 20958.36  3135.49    28.02     1.45    0.85    0.45    7.12   0.08  14.08
sdd              77.15     4.23 1623.14  102.26 20943.28  3131.69    27.91     1.46    0.85    0.44    7.33   0.08  14.18
sde              79.18     4.28 1628.21  102.36 21003.07  3135.94    27.90     1.48    0.86    0.44    7.44   0.08  14.20
sdf              76.29     4.25 1630.37  102.30 20984.33  3132.80    27.84     1.53    0.88    0.44    7.90   0.08  14.23
sdg               0.00     3.17   26.32   73.33   324.06   392.10    14.37     0.44    4.42    0.20    5.93   0.08   0.78
sdh               0.00     0.13    0.02    0.23     2.21     5.06    56.82     0.00    1.15    0.65    1.19   0.21   0.01
md0               0.00     0.00 10228.92  480.25 143705.87 21468.01    30.85     0.00    0.00    0.00    0.00   0.00   0.00

avg-cpu:  %user   %nice %system %iowait  %steal   %idle
           0.52    0.01    2.68   13.58    0.00   83.20

Device:         rrqm/s   wrqm/s     r/s     w/s    rkB/s    wkB/s avgrq-sz avgqu-sz   await r_await w_await  svctm  %util
sda               0.00     0.00 1459.35    0.00  5837.40     0.00     8.00     0.14    0.10    0.10    0.00   0.10  14.21
sdb               0.00     0.00 1468.50    0.00  5874.00     0.00     8.00     0.14    0.10    0.10    0.00   0.10  14.22
sdc               0.00     0.00 1466.75    0.00  5867.00     0.00     8.00     0.15    0.10    0.10    0.00   0.10  15.38
sdd               0.00     0.00 1452.90    0.00  5811.60     0.00     8.00     0.15    0.10    0.10    0.00   0.10  15.17
sde               0.00     0.00 1461.30    0.00  5845.20     0.00     8.00     0.15    0.10    0.10    0.00   0.10  15.28
sdf               0.00     0.00 1466.35    0.00  5865.40     0.00     8.00     0.15    0.11    0.11    0.00   0.11  15.46
sdg               0.00     4.70   67.80  131.35   277.20   677.60     9.59     0.80    4.06    0.12    6.10   0.07   1.38
sdh               0.00     0.00    0.00    0.00     0.00     0.00     0.00     0.00    0.00    0.00    0.00   0.00   0.00
md0               0.00     0.00 8775.25    0.00 35101.00     0.00     8.00     0.00    0.00    0.00    0.00   0.00   0.00

