Linux 4.17.2 (bench) 	08/03/2018 	_x86_64_	(4 CPU)

avg-cpu:  %user   %nice %system %iowait  %steal   %idle
          10.26    0.02    4.16    2.71    0.00   82.85

Device:         rrqm/s   wrqm/s     r/s     w/s    rkB/s    wkB/s avgrq-sz avgqu-sz   await r_await w_await  svctm  %util
sda              52.74     4.19 1718.10  101.30 21309.61  3099.68    26.83     1.05    0.58    0.26    5.92   0.06  11.00
sdb              52.55     4.15 1718.10  101.44 21299.12  3096.39    26.82     1.05    0.57    0.26    5.85   0.06  10.88
sdc              90.36     4.21 1678.19  100.99 21291.31  3098.82    27.42     1.47    0.82    0.45    7.12   0.08  14.37
sdd              83.88     4.18 1683.85  101.06 21276.30  3095.06    27.31     1.47    0.83    0.44    7.33   0.08  14.47
sde              85.87     4.23 1688.94  101.16 21335.70  3099.26    27.30     1.49    0.83    0.44    7.44   0.08  14.49
sdf              83.02     4.20 1691.05  101.11 21317.15  3096.16    27.24     1.54    0.86    0.44    7.90   0.08  14.52
sdg               0.00     3.17   26.76   73.27   325.78   392.02    14.35     0.44    4.40    0.20    5.93   0.08   0.78
sdh               0.00     0.13    0.02    0.23     2.18     5.00    56.82     0.00    1.15    0.65    1.19   0.21   0.01
md0               0.00     0.00 10634.06  474.64 146046.63 21216.93    30.11     0.00    0.00    0.00    0.00   0.00   0.00

avg-cpu:  %user   %nice %system %iowait  %steal   %idle
           1.28    0.00   24.10   61.28    0.00   13.33

Device:         rrqm/s   wrqm/s     r/s     w/s    rkB/s    wkB/s avgrq-sz avgqu-sz   await r_await w_await  svctm  %util
sda               0.00     0.00 16248.00    0.00 64992.00     0.00     8.00     1.88    0.12    0.12    0.00   0.04  72.40
sdb               0.00     0.00 16477.00    0.00 65908.00     0.00     8.00     1.88    0.11    0.11    0.00   0.04  69.10
sdc               0.00     0.00 16333.00    0.00 65332.00     0.00     8.00     2.17    0.13    0.13    0.00   0.05  80.20
sdd               0.00     0.00 16541.00    0.00 66164.00     0.00     8.00     2.18    0.13    0.13    0.00   0.05  77.70
sde               0.00     0.00 16691.00    0.00 66764.00     0.00     8.00     2.21    0.13    0.13    0.00   0.05  78.60
sdf               0.00     0.00 16424.00    0.00 65696.00     0.00     8.00     2.17    0.13    0.13    0.00   0.05  78.20
sdg               0.00     1.00    3.00    7.00    48.00    40.00    17.60     0.00    0.10    0.33    0.00   0.10   0.10
sdh               0.00     0.00    0.00    0.00     0.00     0.00     0.00     0.00    0.00    0.00    0.00   0.00   0.00
md0               0.00     0.00 98736.00    0.00 394944.00     0.00     8.00     0.00    0.00    0.00    0.00   0.00   0.00

avg-cpu:  %user   %nice %system %iowait  %steal   %idle
           1.02    0.00   22.96   58.42    0.00   17.60

Device:         rrqm/s   wrqm/s     r/s     w/s    rkB/s    wkB/s avgrq-sz avgqu-sz   await r_await w_await  svctm  %util
sda               0.00     0.00 15281.00    0.00 61124.00     0.00     8.00     1.75    0.11    0.11    0.00   0.04  67.00
sdb               0.00     0.00 15171.00    0.00 60684.00     0.00     8.00     1.73    0.11    0.11    0.00   0.04  65.30
sdc               0.00     0.00 15498.00    0.00 61992.00     0.00     8.00     2.14    0.14    0.14    0.00   0.05  79.70
sdd               0.00     0.00 15464.00    0.00 61856.00     0.00     8.00     2.02    0.13    0.13    0.00   0.05  74.60
sde               0.00     0.00 15627.00    0.00 62508.00     0.00     8.00     2.08    0.13    0.13    0.00   0.05  74.00
sdf               0.00     0.00 15539.00    0.00 62160.00     0.00     8.00     2.01    0.13    0.13    0.00   0.05  73.50
sdg               0.00     0.00   16.00    0.00   296.00     0.00    37.00     0.00    0.19    0.19    0.00   0.19   0.30
sdh               0.00     0.00    0.00    0.00     0.00     0.00     0.00     0.00    0.00    0.00    0.00   0.00   0.00
md0               0.00     0.00 92578.00    0.00 370312.00     0.00     8.00     0.00    0.00    0.00    0.00   0.00   0.00

avg-cpu:  %user   %nice %system %iowait  %steal   %idle
           1.01    0.00   24.69   57.43    0.00   16.88

Device:         rrqm/s   wrqm/s     r/s     w/s    rkB/s    wkB/s avgrq-sz avgqu-sz   await r_await w_await  svctm  %util
sda               0.00     0.00 15659.00    0.00 62636.00     0.00     8.00     1.82    0.12    0.12    0.00   0.04  68.90
sdb               0.00     0.00 15425.00    0.00 61700.00     0.00     8.00     1.76    0.11    0.11    0.00   0.04  66.00
sdc               0.00     0.00 15158.00    0.00 60632.00     0.00     8.00     2.10    0.14    0.14    0.00   0.05  81.00
sdd               0.00     0.00 15395.00    0.00 61580.00     0.00     8.00     2.02    0.13    0.13    0.00   0.05  75.80
sde               0.00     0.00 15790.00    0.00 63160.00     0.00     8.00     2.08    0.13    0.13    0.00   0.05  73.60
sdf               0.00     0.00 15486.00    0.00 61940.00     0.00     8.00     2.03    0.13    0.13    0.00   0.05  73.90
sdg               0.00    66.00    0.00 2561.00     0.00 12708.00     9.92    16.05    6.27    0.00    6.27   0.05  11.60
sdh               0.00     0.00    0.00    0.00     0.00     0.00     0.00     0.00    0.00    0.00    0.00   0.00   0.00
md0               0.00     0.00 92920.00    0.00 371680.00     0.00     8.00     0.00    0.00    0.00    0.00   0.00   0.00

avg-cpu:  %user   %nice %system %iowait  %steal   %idle
           1.04    0.00   22.28   58.81    0.00   17.88

Device:         rrqm/s   wrqm/s     r/s     w/s    rkB/s    wkB/s avgrq-sz avgqu-sz   await r_await w_await  svctm  %util
sda               0.00     0.00 15474.00    0.00 61896.00     0.00     8.00     1.75    0.11    0.11    0.00   0.04  66.70
sdb               0.00     0.00 15249.00    0.00 60996.00     0.00     8.00     1.73    0.11    0.11    0.00   0.04  65.70
sdc               0.00     0.00 15264.00    0.00 61056.00     0.00     8.00     2.14    0.14    0.14    0.00   0.05  83.30
sdd               0.00     0.00 15763.00    0.00 63052.00     0.00     8.00     2.08    0.13    0.13    0.00   0.05  74.80
sde               0.00     0.00 15729.00    0.00 62916.00     0.00     8.00     2.06    0.13    0.13    0.00   0.05  74.80
sdf               0.00     0.00 15549.00    0.00 62196.00     0.00     8.00     2.11    0.14    0.14    0.00   0.05  76.20
sdg               0.00     0.00    0.00    0.00     0.00     0.00     0.00     0.00    0.00    0.00    0.00   0.00   0.00
sdh               0.00     0.00    0.00    0.00     0.00     0.00     0.00     0.00    0.00    0.00    0.00   0.00   0.00
md0               0.00     0.00 93003.00    0.00 372012.00     0.00     8.00     0.00    0.00    0.00    0.00   0.00   0.00

avg-cpu:  %user   %nice %system %iowait  %steal   %idle
           0.77    0.00   22.82   58.72    0.00   17.69

Device:         rrqm/s   wrqm/s     r/s     w/s    rkB/s    wkB/s avgrq-sz avgqu-sz   await r_await w_await  svctm  %util
sda               0.00     0.00 15374.00    0.00 61496.00     0.00     8.00     1.77    0.11    0.11    0.00   0.04  68.40
sdb               0.00     0.00 15404.00    0.00 61616.00     0.00     8.00     1.76    0.11    0.11    0.00   0.04  66.10
sdc               0.00     0.00 15784.00    0.00 63136.00     0.00     8.00     2.27    0.14    0.14    0.00   0.05  81.90
sdd               0.00     0.00 15651.00    0.00 62604.00     0.00     8.00     2.09    0.13    0.13    0.00   0.05  75.90
sde               0.00     0.00 15413.00    0.00 61652.00     0.00     8.00     2.03    0.13    0.13    0.00   0.05  74.00
sdf               0.00     0.00 15329.00    0.00 61316.00     0.00     8.00     2.00    0.13    0.13    0.00   0.05  73.60
sdg               0.00     0.00    1.00   11.00    16.00    80.00    16.00     0.00    0.00    0.00    0.00   0.00   0.00
sdh               0.00     0.00    0.00    0.00     0.00     0.00     0.00     0.00    0.00    0.00    0.00   0.00   0.00
md0               0.00     0.00 92978.00    0.00 371912.00     0.00     8.00     0.00    0.00    0.00    0.00   0.00   0.00

avg-cpu:  %user   %nice %system %iowait  %steal   %idle
           0.76    0.00   23.60   57.11    0.00   18.53

Device:         rrqm/s   wrqm/s     r/s     w/s    rkB/s    wkB/s avgrq-sz avgqu-sz   await r_await w_await  svctm  %util
sda               0.00     0.00 15339.00    0.00 61356.00     0.00     8.00     1.77    0.12    0.12    0.00   0.04  67.10
sdb               0.00     0.00 15274.00    0.00 61096.00     0.00     8.00     1.76    0.12    0.12    0.00   0.04  66.90
sdc               0.00     0.00 15482.00    0.00 61928.00     0.00     8.00     2.20    0.14    0.14    0.00   0.05  82.20
sdd               0.00     0.00 15565.00    0.00 62260.00     0.00     8.00     2.05    0.13    0.13    0.00   0.05  75.10
sde               0.00     0.00 15192.00    0.00 60768.00     0.00     8.00     2.06    0.14    0.14    0.00   0.05  76.10
sdf               0.00     0.00 15172.00    0.00 60688.00     0.00     8.00     1.98    0.13    0.13    0.00   0.05  73.40
sdg               0.00     0.00    0.00    0.00     0.00     0.00     0.00     0.00    0.00    0.00    0.00   0.00   0.00
sdh               0.00     0.00    0.00    0.00     0.00     0.00     0.00     0.00    0.00    0.00    0.00   0.00   0.00
md0               0.00     0.00 92020.00    0.00 368080.00     0.00     8.00     0.00    0.00    0.00    0.00   0.00   0.00

avg-cpu:  %user   %nice %system %iowait  %steal   %idle
           1.25    0.00   24.31   57.14    0.00   17.29

Device:         rrqm/s   wrqm/s     r/s     w/s    rkB/s    wkB/s avgrq-sz avgqu-sz   await r_await w_await  svctm  %util
sda               0.00     0.00 15376.00    0.00 61504.00     0.00     8.00     1.75    0.11    0.11    0.00   0.04  67.30
sdb               0.00     0.00 15501.00    0.00 62004.00     0.00     8.00     1.75    0.11    0.11    0.00   0.04  65.40
sdc               0.00     0.00 15660.00    0.00 62640.00     0.00     8.00     2.17    0.14    0.14    0.00   0.05  80.60
sdd               0.00     0.00 15489.00    0.00 61956.00     0.00     8.00     2.03    0.13    0.13    0.00   0.05  75.80
sde               0.00     0.00 15644.00    0.00 62576.00     0.00     8.00     2.07    0.13    0.13    0.00   0.05  74.60
sdf               0.00     0.00 15257.00    0.00 61028.00     0.00     8.00     1.99    0.13    0.13    0.00   0.05  74.60
sdg               0.00     0.00    0.00    0.00     0.00     0.00     0.00     0.00    0.00    0.00    0.00   0.00   0.00
sdh               0.00     0.00    0.00    0.00     0.00     0.00     0.00     0.00    0.00    0.00    0.00   0.00   0.00
md0               0.00     0.00 92922.00    0.00 371688.00     0.00     8.00     0.00    0.00    0.00    0.00   0.00   0.00

avg-cpu:  %user   %nice %system %iowait  %steal   %idle
           1.03    0.00   22.31   58.21    0.00   18.46

Device:         rrqm/s   wrqm/s     r/s     w/s    rkB/s    wkB/s avgrq-sz avgqu-sz   await r_await w_await  svctm  %util
sda               0.00     0.00 15284.00    0.00 61136.00     0.00     8.00     1.77    0.12    0.12    0.00   0.04  67.80
sdb               0.00     0.00 15146.00    0.00 60584.00     0.00     8.00     1.70    0.11    0.11    0.00   0.04  65.00
sdc               0.00     0.00 15371.00    0.00 61484.00     0.00     8.00     2.16    0.14    0.14    0.00   0.05  80.60
sdd               0.00     0.00 15308.00    0.00 61232.00     0.00     8.00     1.99    0.13    0.13    0.00   0.05  73.10
sde               0.00     0.00 15416.00    0.00 61664.00     0.00     8.00     2.02    0.13    0.13    0.00   0.05  72.30
sdf               0.00     0.00 15228.00    0.00 60912.00     0.00     8.00     2.00    0.13    0.13    0.00   0.05  73.70
sdg               0.00     0.00    0.00    0.00     0.00     0.00     0.00     0.00    0.00    0.00    0.00   0.00   0.00
sdh               0.00     0.00    0.00    0.00     0.00     0.00     0.00     0.00    0.00    0.00    0.00   0.00   0.00
md0               0.00     0.00 91739.00    0.00 366956.00     0.00     8.00     0.00    0.00    0.00    0.00   0.00   0.00

avg-cpu:  %user   %nice %system %iowait  %steal   %idle
           1.02    0.00   23.72   57.40    0.00   17.86

Device:         rrqm/s   wrqm/s     r/s     w/s    rkB/s    wkB/s avgrq-sz avgqu-sz   await r_await w_await  svctm  %util
sda               0.00     0.00 15208.00    0.00 60832.00     0.00     8.00     1.76    0.12    0.12    0.00   0.04  65.90
sdb               0.00     0.00 15430.00    0.00 61720.00     0.00     8.00     1.76    0.11    0.11    0.00   0.04  66.50
sdc               0.00     0.00 15066.00    0.00 60264.00     0.00     8.00     2.13    0.14    0.14    0.00   0.05  80.30
sdd               0.00     0.00 15277.00    0.00 61108.00     0.00     8.00     2.04    0.13    0.13    0.00   0.05  73.90
sde               0.00     0.00 15148.00    0.00 60592.00     0.00     8.00     1.93    0.13    0.13    0.00   0.05  73.50
sdf               0.00     0.00 15417.00    0.00 61668.00     0.00     8.00     2.04    0.13    0.13    0.00   0.05  71.40
sdg               0.00     0.00   19.00    0.00   136.00     0.00    14.32     0.00    0.16    0.16    0.00   0.16   0.30
sdh               0.00     0.00    0.00    0.00     0.00     0.00     0.00     0.00    0.00    0.00    0.00   0.00   0.00
md0               0.00     0.00 91564.00    0.00 366256.00     0.00     8.00     0.00    0.00    0.00    0.00   0.00   0.00

avg-cpu:  %user   %nice %system %iowait  %steal   %idle
           0.77    0.00   22.82   58.72    0.00   17.69

Device:         rrqm/s   wrqm/s     r/s     w/s    rkB/s    wkB/s avgrq-sz avgqu-sz   await r_await w_await  svctm  %util
sda               0.00     0.00 15346.00    0.00 61384.00     0.00     8.00     1.75    0.11    0.11    0.00   0.04  68.60
sdb               0.00     0.00 15576.00    0.00 62304.00     0.00     8.00     1.80    0.12    0.12    0.00   0.04  65.20
sdc               0.00     0.00 15372.00    0.00 61488.00     0.00     8.00     2.15    0.14    0.14    0.00   0.05  81.30
sdd               0.00     0.00 15408.00    0.00 61632.00     0.00     8.00     2.03    0.13    0.13    0.00   0.05  74.30
sde               0.00     0.00 15659.00    0.00 62636.00     0.00     8.00     2.00    0.13    0.13    0.00   0.05  73.20
sdf               0.00     0.00 15416.00    0.00 61664.00     0.00     8.00     2.04    0.13    0.13    0.00   0.05  73.50
sdg               0.00     0.00    0.00    0.00     0.00     0.00     0.00     0.00    0.00    0.00    0.00   0.00   0.00
sdh               0.00     0.00    0.00    0.00     0.00     0.00     0.00     0.00    0.00    0.00    0.00   0.00   0.00
md0               0.00     0.00 92759.00    0.00 371036.00     0.00     8.00     0.00    0.00    0.00    0.00   0.00   0.00

avg-cpu:  %user   %nice %system %iowait  %steal   %idle
           1.02    0.00   23.16   57.51    0.00   18.32

Device:         rrqm/s   wrqm/s     r/s     w/s    rkB/s    wkB/s avgrq-sz avgqu-sz   await r_await w_await  svctm  %util
sda               0.00     0.00 15419.00    0.00 61676.00     0.00     8.00     1.79    0.12    0.12    0.00   0.04  67.90
sdb               0.00     0.00 15150.00    0.00 60600.00     0.00     8.00     1.72    0.11    0.11    0.00   0.04  64.20
sdc               0.00     0.00 15089.00    0.00 60356.00     0.00     8.00     2.09    0.14    0.14    0.00   0.05  80.70
sdd               0.00     0.00 15407.00    0.00 61628.00     0.00     8.00     2.01    0.13    0.13    0.00   0.05  72.20
sde               0.00     0.00 15718.00    0.00 62872.00     0.00     8.00     2.04    0.13    0.13    0.00   0.05  73.90
sdf               0.00     0.00 15415.00    0.00 61660.00     0.00     8.00     2.05    0.13    0.13    0.00   0.05  72.80
sdg               0.00     0.00    0.00    0.00     0.00     0.00     0.00     0.00    0.00    0.00    0.00   0.00   0.00
sdh               0.00     0.00    0.00    0.00     0.00     0.00     0.00     0.00    0.00    0.00    0.00   0.00   0.00
md0               0.00     0.00 92217.00    0.00 368868.00     0.00     8.00     0.00    0.00    0.00    0.00   0.00   0.00

avg-cpu:  %user   %nice %system %iowait  %steal   %idle
           1.26    0.00   23.99   58.33    0.00   16.41

Device:         rrqm/s   wrqm/s     r/s     w/s    rkB/s    wkB/s avgrq-sz avgqu-sz   await r_await w_await  svctm  %util
sda               0.00     0.00 15778.00    0.00 63112.00     0.00     8.00     1.78    0.11    0.11    0.00   0.04  67.40
sdb               0.00     0.00 15879.00    0.00 63516.00     0.00     8.00     1.80    0.11    0.11    0.00   0.04  67.20
sdc               0.00     0.00 15701.00    0.00 62804.00     0.00     8.00     2.15    0.14    0.14    0.00   0.05  79.70
sdd               0.00     0.00 15863.00    0.00 63452.00     0.00     8.00     2.06    0.13    0.13    0.00   0.05  75.50
sde               0.00     0.00 15477.00    0.00 61908.00     0.00     8.00     2.00    0.13    0.13    0.00   0.05  74.40
sdf               0.00     0.00 15853.00    0.00 63412.00     0.00     8.00     2.09    0.13    0.13    0.00   0.05  75.70
sdg               0.00     0.00    0.00    0.00     0.00     0.00     0.00     0.00    0.00    0.00    0.00   0.00   0.00
sdh               0.00     0.00    0.00    0.00     0.00     0.00     0.00     0.00    0.00    0.00    0.00   0.00   0.00
md0               0.00     0.00 94537.00    0.00 378148.00     0.00     8.00     0.00    0.00    0.00    0.00   0.00   0.00

avg-cpu:  %user   %nice %system %iowait  %steal   %idle
           1.03    0.00   22.68   59.02    0.00   17.27

Device:         rrqm/s   wrqm/s     r/s     w/s    rkB/s    wkB/s avgrq-sz avgqu-sz   await r_await w_await  svctm  %util
sda               0.00     0.00 15522.00    0.00 62088.00     0.00     8.00     1.80    0.12    0.12    0.00   0.04  67.70
sdb               0.00     0.00 15225.00    0.00 60900.00     0.00     8.00     1.76    0.12    0.12    0.00   0.04  67.30
sdc               0.00     0.00 15380.00    0.00 61520.00     0.00     8.00     2.18    0.14    0.14    0.00   0.05  80.10
sdd               0.00     0.00 15353.00    0.00 61412.00     0.00     8.00     2.03    0.13    0.13    0.00   0.05  75.70
sde               0.00     0.00 15748.00    0.00 62992.00     0.00     8.00     2.11    0.13    0.13    0.00   0.05  76.30
sdf               0.00     0.00 15579.00    0.00 62316.00     0.00     8.00     2.06    0.13    0.13    0.00   0.05  74.60
sdg               0.00     1.00    5.00    6.00    20.00    52.00    13.09     0.00    0.18    0.20    0.17   0.09   0.10
sdh               0.00     0.00    0.00    0.00     0.00     0.00     0.00     0.00    0.00    0.00    0.00   0.00   0.00
md0               0.00     0.00 92815.00    0.00 371260.00     0.00     8.00     0.00    0.00    0.00    0.00   0.00   0.00

avg-cpu:  %user   %nice %system %iowait  %steal   %idle
           0.52    0.00   22.08   58.44    0.00   18.96

Device:         rrqm/s   wrqm/s     r/s     w/s    rkB/s    wkB/s avgrq-sz avgqu-sz   await r_await w_await  svctm  %util
sda               0.00     0.00 15543.00    0.00 62172.00     0.00     8.00     1.82    0.12    0.12    0.00   0.04  69.10
sdb               0.00     0.00 15164.00    0.00 60656.00     0.00     8.00     1.69    0.11    0.11    0.00   0.04  65.20
sdc               0.00     0.00 15158.00    0.00 60632.00     0.00     8.00     2.14    0.14    0.14    0.00   0.05  80.10
sdd               0.00     0.00 15185.00    0.00 60740.00     0.00     8.00     1.99    0.13    0.13    0.00   0.05  73.50
sde               0.00     0.00 15507.00    0.00 62028.00     0.00     8.00     2.03    0.13    0.13    0.00   0.05  73.70
sdf               0.00     0.00 15492.00    0.00 61968.00     0.00     8.00     2.07    0.13    0.13    0.00   0.05  75.40
sdg               0.00     0.00    0.00    0.00     0.00     0.00     0.00     0.00    0.00    0.00    0.00   0.00   0.00
sdh               0.00     0.00    0.00    0.00     0.00     0.00     0.00     0.00    0.00    0.00    0.00   0.00   0.00
md0               0.00     0.00 92054.00    0.00 368212.00     0.00     8.00     0.00    0.00    0.00    0.00   0.00   0.00

avg-cpu:  %user   %nice %system %iowait  %steal   %idle
           1.27    0.00   23.41   57.25    0.00   18.07

Device:         rrqm/s   wrqm/s     r/s     w/s    rkB/s    wkB/s avgrq-sz avgqu-sz   await r_await w_await  svctm  %util
sda               0.00     0.00 15588.00    0.00 62352.00     0.00     8.00     1.77    0.11    0.11    0.00   0.04  68.70
sdb               0.00     0.00 15670.00    0.00 62680.00     0.00     8.00     1.77    0.11    0.11    0.00   0.04  65.20
sdc               0.00     0.00 15215.00    0.00 60860.00     0.00     8.00     2.12    0.14    0.14    0.00   0.05  80.80
sdd               0.00     0.00 15533.00    0.00 62132.00     0.00     8.00     2.03    0.13    0.13    0.00   0.05  73.50
sde               0.00     0.00 15391.00    0.00 61568.00     0.00     8.00     2.01    0.13    0.13    0.00   0.05  73.30
sdf               0.00     0.00 15280.00    0.00 61120.00     0.00     8.00     2.00    0.13    0.13    0.00   0.05  74.10
sdg               0.00     0.00    0.00    0.00     0.00     0.00     0.00     0.00    0.00    0.00    0.00   0.00   0.00
sdh               0.00     0.00    0.00    0.00     0.00     0.00     0.00     0.00    0.00    0.00    0.00   0.00   0.00
md0               0.00     0.00 92681.00    0.00 370728.00     0.00     8.00     0.00    0.00    0.00    0.00   0.00   0.00

avg-cpu:  %user   %nice %system %iowait  %steal   %idle
           1.03    0.00   22.62   58.87    0.00   17.48

Device:         rrqm/s   wrqm/s     r/s     w/s    rkB/s    wkB/s avgrq-sz avgqu-sz   await r_await w_await  svctm  %util
sda               0.00     0.00 15686.00    0.00 62744.00     0.00     8.00     1.78    0.11    0.11    0.00   0.04  67.30
sdb               0.00     0.00 15369.00    0.00 61476.00     0.00     8.00     1.76    0.11    0.11    0.00   0.04  64.70
sdc               0.00     0.00 15435.00    0.00 61740.00     0.00     8.00     2.14    0.14    0.14    0.00   0.05  79.70
sdd               0.00     0.00 15307.00    0.00 61228.00     0.00     8.00     1.97    0.13    0.13    0.00   0.05  73.90
sde               0.00     0.00 15709.00    0.00 62832.00     0.00     8.00     2.09    0.13    0.13    0.00   0.05  73.90
sdf               0.00     0.00 15272.00    0.00 61088.00     0.00     8.00     2.01    0.13    0.13    0.00   0.05  73.70
sdg               0.00     0.00    0.00    0.00     0.00     0.00     0.00     0.00    0.00    0.00    0.00   0.00   0.00
sdh               0.00     0.00    0.00    0.00     0.00     0.00     0.00     0.00    0.00    0.00    0.00   0.00   0.00
md0               0.00     0.00 92769.00    0.00 371076.00     0.00     8.00     0.00    0.00    0.00    0.00   0.00   0.00

avg-cpu:  %user   %nice %system %iowait  %steal   %idle
           1.02    0.00   24.30   59.85    0.00   14.83

Device:         rrqm/s   wrqm/s     r/s     w/s    rkB/s    wkB/s avgrq-sz avgqu-sz   await r_await w_await  svctm  %util
sda               0.00     0.00 16274.00    0.00 65096.00     0.00     8.00     1.87    0.11    0.11    0.00   0.04  70.20
sdb               0.00     0.00 16123.00    0.00 64492.00     0.00     8.00     1.86    0.12    0.12    0.00   0.04  69.00
sdc               0.00     0.00 16161.00    0.00 64644.00     0.00     8.00     2.18    0.14    0.14    0.00   0.05  78.30
sdd               0.00     0.00 16223.00    0.00 64892.00     0.00     8.00     2.13    0.13    0.13    0.00   0.05  77.00
sde               0.00     0.00 16216.00    0.00 64864.00     0.00     8.00     2.13    0.13    0.13    0.00   0.05  77.10
sdf               0.00     0.00 15994.00    0.00 63976.00     0.00     8.00     2.11    0.13    0.13    0.00   0.05  78.00
sdg               0.00     0.00    0.00    0.00     0.00     0.00     0.00     0.00    0.00    0.00    0.00   0.00   0.00
sdh               0.00     0.00    0.00    0.00     0.00     0.00     0.00     0.00    0.00    0.00    0.00   0.00   0.00
md0               0.00     0.00 97000.00    0.00 388000.00     0.00     8.00     0.00    0.00    0.00    0.00   0.00   0.00

avg-cpu:  %user   %nice %system %iowait  %steal   %idle
           1.28    0.00   25.06   62.40    0.00   11.25

Device:         rrqm/s   wrqm/s     r/s     w/s    rkB/s    wkB/s avgrq-sz avgqu-sz   await r_await w_await  svctm  %util
sda               0.00     0.00 16874.00    0.00 67500.00     0.00     8.00     1.94    0.12    0.12    0.00   0.04  73.70
sdb               0.00     0.00 17236.00    0.00 68944.00     0.00     8.00     1.93    0.11    0.11    0.00   0.04  73.30
sdc               0.00     0.00 16800.00    0.00 67200.00     0.00     8.00     2.20    0.13    0.13    0.00   0.05  79.00
sdd               0.00     0.00 17316.00    0.00 69264.00     0.00     8.00     2.25    0.13    0.13    0.00   0.05  81.50
sde               0.00     0.00 17088.00    0.00 68352.00     0.00     8.00     2.18    0.13    0.13    0.00   0.05  78.60
sdf               0.00     0.00 16532.00    0.00 66128.00     0.00     8.00     2.16    0.13    0.13    0.00   0.05  79.60
sdg               0.00     0.00    0.00    0.00     0.00     0.00     0.00     0.00    0.00    0.00    0.00   0.00   0.00
sdh               0.00     0.00    0.00    0.00     0.00     0.00     0.00     0.00    0.00    0.00    0.00   0.00   0.00
md0               0.00     0.00 101850.00    0.00 407400.00     0.00     8.00     0.00    0.00    0.00    0.00   0.00   0.00

avg-cpu:  %user   %nice %system %iowait  %steal   %idle
           1.03    0.26   24.74   62.37    0.00   11.60

Device:         rrqm/s   wrqm/s     r/s     w/s    rkB/s    wkB/s avgrq-sz avgqu-sz   await r_await w_await  svctm  %util
sda               0.00     0.00 17037.00    0.00 68144.00     0.00     8.00     1.95    0.11    0.11    0.00   0.04  74.20
sdb               0.00     0.00 16722.00    0.00 66888.00     0.00     8.00     1.95    0.12    0.12    0.00   0.04  72.70
sdc               0.00     0.00 16670.00    0.00 66680.00     0.00     8.00     2.16    0.13    0.13    0.00   0.05  77.40
sdd               0.00     0.00 17004.00    0.00 68016.00     0.00     8.00     2.24    0.13    0.13    0.00   0.05  79.60
sde               0.00     0.00 16845.00    0.00 67380.00     0.00     8.00     2.23    0.13    0.13    0.00   0.05  80.20
sdf               0.00     0.00 16727.00    0.00 66908.00     0.00     8.00     2.20    0.13    0.13    0.00   0.05  80.30
sdg               0.00     0.00    5.00    0.00    20.00     0.00     8.00     0.00    0.40    0.40    0.00   0.40   0.20
sdh               0.00     0.00    0.00    0.00     0.00     0.00     0.00     0.00    0.00    0.00    0.00   0.00   0.00
md0               0.00     0.00 101003.00    0.00 404012.00     0.00     8.00     0.00    0.00    0.00    0.00   0.00   0.00

avg-cpu:  %user   %nice %system %iowait  %steal   %idle
           1.29    0.00   24.68   62.98    0.00   11.05

Device:         rrqm/s   wrqm/s     r/s     w/s    rkB/s    wkB/s avgrq-sz avgqu-sz   await r_await w_await  svctm  %util
sda               0.00     0.00 16874.00    0.00 67496.00     0.00     8.00     1.93    0.11    0.11    0.00   0.04  73.40
sdb               0.00     0.00 16935.00    0.00 67744.00     0.00     8.00     1.92    0.11    0.11    0.00   0.04  71.20
sdc               0.00     0.00 17169.00    0.00 68676.00     0.00     8.00     2.24    0.13    0.13    0.00   0.05  79.70
sdd               0.00     0.00 16976.00    0.00 67904.00     0.00     8.00     2.24    0.13    0.13    0.00   0.05  79.60
sde               0.00     0.00 17021.00    0.00 68084.00     0.00     8.00     2.25    0.13    0.13    0.00   0.05  81.10
sdf               0.00     0.00 16904.00    0.00 67616.00     0.00     8.00     2.20    0.13    0.13    0.00   0.05  81.20
sdg               0.00     0.00    0.00    0.00     0.00     0.00     0.00     0.00    0.00    0.00    0.00   0.00   0.00
sdh               0.00     0.00    0.00    0.00     0.00     0.00     0.00     0.00    0.00    0.00    0.00   0.00   0.00
md0               0.00     0.00 101877.00    0.00 407504.00     0.00     8.00     0.00    0.00    0.00    0.00   0.00   0.00

