Linux 4.17.2 (bench) 	08/03/2018 	_x86_64_	(4 CPU)

avg-cpu:  %user   %nice %system %iowait  %steal   %idle
          10.25    0.02    4.18    2.74    0.00   82.80

Device:         rrqm/s   wrqm/s     r/s     w/s    rkB/s    wkB/s avgrq-sz avgqu-sz   await r_await w_await  svctm  %util
sda              53.50     4.18 1731.61  101.02 21390.03  3090.97    26.72     1.05    0.57    0.26    5.92   0.06  11.06
sdb              53.30     4.14 1731.61  101.15 21379.55  3087.68    26.70     1.05    0.57    0.26    5.85   0.06  10.94
sdc              91.01     4.20 1691.81  100.71 21371.77  3090.11    27.29     1.47    0.82    0.44    7.12   0.08  14.44
sdd              84.54     4.17 1697.46  100.78 21356.86  3086.36    27.19     1.47    0.82    0.43    7.33   0.08  14.54
sde              86.54     4.21 1702.54  100.87 21416.16  3090.55    27.18     1.50    0.83    0.44    7.44   0.08  14.56
sdf              83.69     4.19 1704.64  100.82 21397.67  3087.46    27.12     1.54    0.85    0.43    7.90   0.08  14.59
sdg               0.00     3.17   26.86   73.25   326.18   392.00    14.35     0.44    4.39    0.20    5.93   0.08   0.79
sdh               0.00     0.13    0.02    0.23     2.18     4.99    56.82     0.00    1.15    0.65    1.19   0.21   0.01
md0               0.00     0.00 10719.70  473.30 146635.47 21157.28    29.98     0.00    0.00    0.00    0.00   0.00   0.00

avg-cpu:  %user   %nice %system %iowait  %steal   %idle
           2.28    0.00   29.95   42.89    0.00   24.87

Device:         rrqm/s   wrqm/s     r/s     w/s    rkB/s    wkB/s avgrq-sz avgqu-sz   await r_await w_await  svctm  %util
sda               1.00     0.00 15624.00    0.00 82396.00     0.00    10.55     2.40    0.15    0.15    0.00   0.04  60.60
sdb               3.00     0.00 15967.00    0.00 85116.00     0.00    10.66     2.39    0.15    0.15    0.00   0.04  58.70
sdc               3.00     0.00 15633.00    0.00 81716.00     0.00    10.45     2.97    0.19    0.19    0.00   0.04  67.80
sdd               2.00     0.00 15717.00    0.00 81616.00     0.00    10.39     2.83    0.18    0.18    0.00   0.04  67.20
sde               3.00     0.00 15723.00    0.00 83544.00     0.00    10.63     2.88    0.18    0.18    0.00   0.04  67.50
sdf               2.00     0.00 15647.00    0.00 82516.00     0.00    10.55     2.83    0.18    0.18    0.00   0.04  68.10
sdg               0.00     0.00    0.00    0.00     0.00     0.00     0.00     0.00    0.00    0.00    0.00   0.00   0.00
sdh               0.00     0.00    0.00    0.00     0.00     0.00     0.00     0.00    0.00    0.00    0.00   0.00   0.00
md0               0.00     0.00 94307.00    0.00 507000.00     0.00    10.75     0.00    0.00    0.00    0.00   0.00   0.00

avg-cpu:  %user   %nice %system %iowait  %steal   %idle
           1.79    0.00   30.77   43.85    0.00   23.59

Device:         rrqm/s   wrqm/s     r/s     w/s    rkB/s    wkB/s avgrq-sz avgqu-sz   await r_await w_await  svctm  %util
sda               2.00     0.00 16438.00    0.00 85796.00     0.00    10.44     2.69    0.16    0.16    0.00   0.04  65.30
sdb               2.00     0.00 16595.00    0.00 87612.00     0.00    10.56     2.68    0.16    0.16    0.00   0.04  64.70
sdc               0.00     0.00 16435.00    0.00 85296.00     0.00    10.38     3.15    0.19    0.19    0.00   0.04  72.10
sdd               1.00     0.00 16471.00    0.00 86732.00     0.00    10.53     3.22    0.20    0.20    0.00   0.04  72.90
sde               1.00     0.00 16562.00    0.00 88628.00     0.00    10.70     3.22    0.19    0.19    0.00   0.04  74.40
sdf               2.00     0.00 16521.00    0.00 88012.00     0.00    10.65     3.23    0.20    0.20    0.00   0.05  74.50
sdg               0.00     0.00    0.00    0.00     0.00     0.00     0.00     0.00    0.00    0.00    0.00   0.00   0.00
sdh               0.00     0.00    0.00    0.00     0.00     0.00     0.00     0.00    0.00    0.00    0.00   0.00   0.00
md0               0.00     0.00 99030.00    0.00 530940.00     0.00    10.72     0.00    0.00    0.00    0.00   0.00   0.00

