Linux 4.17.2 (bench) 	08/03/2018 	_x86_64_	(4 CPU)

avg-cpu:  %user   %nice %system %iowait  %steal   %idle
          10.28    0.02    4.08    2.58    0.00   83.05

Device:         rrqm/s   wrqm/s     r/s     w/s    rkB/s    wkB/s avgrq-sz avgqu-sz   await r_await w_await  svctm  %util
sda              46.28     4.24 1661.45  102.40 20979.65  3133.15    27.34     1.04    0.59    0.26    5.92   0.06  10.76
sdb              46.13     4.20 1661.40  102.53 20969.05  3129.82    27.32     1.03    0.59    0.26    5.85   0.06  10.64
sdc              84.08     4.26 1621.36  102.09 20961.15  3132.28    27.96     1.45    0.84    0.45    7.12   0.08  14.10
sdd              77.51     4.23 1627.10  102.16 20946.09  3128.48    27.84     1.46    0.84    0.44    7.33   0.08  14.19
sde              79.54     4.27 1632.17  102.25 21005.83  3132.72    27.83     1.48    0.85    0.44    7.44   0.08  14.21
sdf              76.66     4.24 1634.32  102.20 20987.09  3129.59    27.78     1.53    0.88    0.44    7.90   0.08  14.24
sdg               0.00     3.17   26.34   73.31   324.12   392.05    14.37     0.44    4.42    0.20    5.93   0.08   0.78
sdh               0.00     0.13    0.02    0.23     2.21     5.06    56.82     0.00    1.15    0.65    1.19   0.21   0.01
md0               0.00     0.00 10254.82  479.76 143704.22 21446.03    30.77     0.00    0.00    0.00    0.00   0.00   0.00

avg-cpu:  %user   %nice %system %iowait  %steal   %idle
           0.17    0.01    2.45    5.81    0.00   91.56

Device:         rrqm/s   wrqm/s     r/s     w/s    rkB/s    wkB/s avgrq-sz avgqu-sz   await r_await w_await  svctm  %util
sda               0.00     0.00 2261.85    0.00  9047.40     0.00     8.00     0.14    0.06    0.06    0.00   0.06  14.35
sdb               0.00     0.00 2268.65    0.00  9074.60     0.00     8.00     0.15    0.06    0.06    0.00   0.06  14.56
sdc               0.00     0.00 2227.60    0.00  8910.40     0.00     8.00     0.15    0.07    0.07    0.00   0.07  15.14
sdd               0.00     0.00 2185.60    0.00  8742.40     0.00     8.00     0.15    0.07    0.07    0.00   0.07  14.98
sde               0.00     0.00 2312.45    0.00  9249.80     0.00     8.00     0.16    0.07    0.07    0.00   0.07  15.89
sdf               0.00     0.00 2315.85    0.00  9263.40     0.00     8.00     0.16    0.07    0.07    0.00   0.07  15.85
sdg               0.00     0.85    3.35   53.00    46.00   282.60    11.66     0.30    5.28    0.25    5.60   0.05   0.30
sdh               0.00     0.00    0.00    0.00     0.00     0.00     0.00     0.00    0.00    0.00    0.00   0.00   0.00
md0               0.00     0.00 13572.05    0.00 54288.20     0.00     8.00     0.00    0.00    0.00    0.00   0.00   0.00

