Linux 4.17.2 (bench) 	08/03/2018 	_x86_64_	(4 CPU)

avg-cpu:  %user   %nice %system %iowait  %steal   %idle
          10.25    0.02    4.18    2.75    0.00   82.80

Device:         rrqm/s   wrqm/s     r/s     w/s    rkB/s    wkB/s avgrq-sz avgqu-sz   await r_await w_await  svctm  %util
sda              53.50     4.18 1732.63  101.00 21398.42  3090.56    26.71     1.05    0.57    0.26    5.92   0.06  11.07
sdb              53.30     4.14 1732.64  101.14 21387.94  3087.27    26.69     1.05    0.57    0.26    5.85   0.06  10.94
sdc              91.00     4.20 1692.84  100.70 21380.17  3089.70    27.29     1.47    0.82    0.44    7.12   0.08  14.45
sdd              84.54     4.17 1698.49  100.77 21365.25  3085.95    27.18     1.47    0.82    0.43    7.33   0.08  14.54
sde              86.53     4.21 1703.57  100.86 21424.57  3090.14    27.17     1.50    0.83    0.44    7.44   0.08  14.56
sdf              83.69     4.18 1705.67  100.81 21406.06  3087.05    27.12     1.54    0.85    0.43    7.90   0.08  14.59
sdg               0.00     3.17   26.87   73.25   326.21   392.00    14.35     0.44    4.39    0.20    5.93   0.08   0.79
sdh               0.00     0.13    0.02    0.23     2.18     4.99    56.82     0.00    1.15    0.65    1.19   0.21   0.01
md0               0.00     0.00 10725.86  473.24 146696.48 21154.49    29.98     0.00    0.00    0.00    0.00   0.00   0.00

avg-cpu:  %user   %nice %system %iowait  %steal   %idle
           2.50    0.00   33.00    1.25    0.00   63.25

Device:         rrqm/s   wrqm/s     r/s     w/s    rkB/s    wkB/s avgrq-sz avgqu-sz   await r_await w_await  svctm  %util
sda               2.00     0.00 21899.00    0.00 87604.00     0.00     8.00     5.65    0.26    0.26    0.00   0.02  48.10
sdb               5.00     0.00 21840.00    0.00 87384.00     0.00     8.00     5.60    0.26    0.26    0.00   0.02  48.10
sdc               1.00     0.00 21783.00    0.00 87136.00     0.00     8.00     6.49    0.30    0.30    0.00   0.03  60.60
sdd               2.00     0.00 22028.00    0.00 88120.00     0.00     8.00     6.52    0.30    0.30    0.00   0.03  59.10
sde               0.00     0.00 21606.00    0.00 86424.00     0.00     8.00     6.19    0.29    0.29    0.00   0.03  59.00
sdf               3.00     0.00 22037.00    0.00 88160.00     0.00     8.00     6.62    0.30    0.30    0.00   0.03  60.30
sdg               0.00     0.00    3.00    0.00    88.00     0.00    58.67     0.00    0.33    0.33    0.00   0.33   0.10
sdh               0.00     0.00    0.00    0.00     0.00     0.00     0.00     0.00    0.00    0.00    0.00   0.00   0.00
md0               0.00     0.00 131249.00    0.00 524996.00     0.00     8.00     0.00    0.00    0.00    0.00   0.00   0.00

avg-cpu:  %user   %nice %system %iowait  %steal   %idle
           2.30    0.00   31.46    1.28    0.00   64.96

Device:         rrqm/s   wrqm/s     r/s     w/s    rkB/s    wkB/s avgrq-sz avgqu-sz   await r_await w_await  svctm  %util
sda               1.00     0.00 21920.00    0.00 87684.00     0.00     8.00     5.61    0.26    0.26    0.00   0.02  46.30
sdb               1.00     0.00 21983.00    0.00 87936.00     0.00     8.00     5.70    0.26    0.26    0.00   0.02  46.60
sdc               1.00     0.00 21773.00    0.00 87096.00     0.00     8.00     6.37    0.29    0.29    0.00   0.03  56.20
sdd              11.00     0.00 22151.00    0.00 88648.00     0.00     8.00     6.70    0.30    0.30    0.00   0.03  58.50
sde               2.00     0.00 22184.00    0.00 88744.00     0.00     8.00     6.39    0.29    0.29    0.00   0.03  59.20
sdf               5.00     0.00 21591.00    0.00 86384.00     0.00     8.00     6.14    0.28    0.28    0.00   0.03  56.20
sdg               0.00     0.00    0.00    0.00     0.00     0.00     0.00     0.00    0.00    0.00    0.00   0.00   0.00
sdh               0.00     0.00    0.00    0.00     0.00     0.00     0.00     0.00    0.00    0.00    0.00   0.00   0.00
md0               0.00     0.00 131669.00    0.00 526676.00     0.00     8.00     0.00    0.00    0.00    0.00   0.00   0.00

avg-cpu:  %user   %nice %system %iowait  %steal   %idle
           1.74    0.00   34.74    1.24    0.00   62.28

Device:         rrqm/s   wrqm/s     r/s     w/s    rkB/s    wkB/s avgrq-sz avgqu-sz   await r_await w_await  svctm  %util
sda              16.00     0.00 22617.00    0.00 90540.00     0.00     8.01     6.40    0.28    0.28    0.00   0.02  47.40
sdb               3.00     0.00 22699.00    0.00 90808.00     0.00     8.00     6.63    0.29    0.29    0.00   0.02  49.40
sdc              18.00     0.00 22458.00    0.00 89912.00     0.00     8.01     7.32    0.33    0.33    0.00   0.03  59.50
sdd              12.00     0.00 22558.00    0.00 90288.00     0.00     8.00     7.27    0.32    0.32    0.00   0.03  59.00
sde              16.00     0.00 22693.00    0.00 90848.00     0.00     8.01     7.09    0.31    0.31    0.00   0.03  59.00
sdf              19.00     0.00 22991.00    0.00 92056.00     0.00     8.01     7.61    0.33    0.33    0.00   0.03  60.00
sdg               0.00     0.00   40.00    1.00   472.00    20.00    24.00     0.01    0.20    0.20    0.00   0.20   0.80
sdh               0.00     0.00    0.00    0.00     0.00     0.00     0.00     0.00    0.00    0.00    0.00   0.00   0.00
md0               0.00     0.00 136039.00    0.00 544156.00     0.00     8.00     0.00    0.00    0.00    0.00   0.00   0.00

avg-cpu:  %user   %nice %system %iowait  %steal   %idle
           2.26    0.00   33.33    1.00    0.00   63.41

Device:         rrqm/s   wrqm/s     r/s     w/s    rkB/s    wkB/s avgrq-sz avgqu-sz   await r_await w_await  svctm  %util
sda              12.00     0.00 22410.00    0.00 89692.00     0.00     8.00     6.05    0.27    0.27    0.00   0.02  47.00
sdb              22.00     0.00 22812.00    0.00 91352.00     0.00     8.01     6.43    0.28    0.28    0.00   0.02  46.60
sdc               5.00     0.00 22866.00    0.00 91488.00     0.00     8.00     7.18    0.31    0.31    0.00   0.03  59.30
sdd               9.00     0.00 22772.00    0.00 91124.00     0.00     8.00     7.16    0.31    0.31    0.00   0.03  58.90
sde              21.00     0.00 22693.00    0.00 90856.00     0.00     8.01     6.90    0.30    0.30    0.00   0.03  57.30
sdf              12.00     0.00 22768.00    0.00 91128.00     0.00     8.00     7.27    0.32    0.32    0.00   0.03  58.60
sdg               0.00     0.00    0.00    0.00     0.00     0.00     0.00     0.00    0.00    0.00    0.00   0.00   0.00
sdh               0.00     0.00    0.00    0.00     0.00     0.00     0.00     0.00    0.00    0.00    0.00   0.00   0.00
md0               0.00     0.00 136489.00    0.00 545956.00     0.00     8.00     0.00    0.00    0.00    0.00   0.00   0.00

avg-cpu:  %user   %nice %system %iowait  %steal   %idle
           1.79    0.00   32.74    1.28    0.00   64.19

Device:         rrqm/s   wrqm/s     r/s     w/s    rkB/s    wkB/s avgrq-sz avgqu-sz   await r_await w_await  svctm  %util
sda              14.00     0.00 22707.00    0.00 90892.00     0.00     8.01     6.25    0.27    0.27    0.00   0.02  46.30
sdb              10.00     0.00 22854.00    0.00 91464.00     0.00     8.00     6.07    0.27    0.27    0.00   0.02  45.20
sdc              21.00     0.00 22966.00    0.00 91964.00     0.00     8.01     7.06    0.31    0.31    0.00   0.03  58.90
sdd              11.00     0.00 22950.00    0.00 91844.00     0.00     8.00     7.34    0.32    0.32    0.00   0.03  58.40
sde              10.00     0.00 23064.00    0.00 92300.00     0.00     8.00     7.45    0.32    0.32    0.00   0.03  59.80
sdf              10.00     0.00 22532.00    0.00 90176.00     0.00     8.00     7.32    0.32    0.32    0.00   0.03  60.20
sdg               0.00     0.00    0.00    0.00     0.00     0.00     0.00     0.00    0.00    0.00    0.00   0.00   0.00
sdh               0.00     0.00    0.00    0.00     0.00     0.00     0.00     0.00    0.00    0.00    0.00   0.00   0.00
md0               0.00     0.00 137067.00    0.00 548268.00     0.00     8.00     0.00    0.00    0.00    0.00   0.00   0.00

avg-cpu:  %user   %nice %system %iowait  %steal   %idle
           2.27    0.00   33.08    1.26    0.00   63.38

Device:         rrqm/s   wrqm/s     r/s     w/s    rkB/s    wkB/s avgrq-sz avgqu-sz   await r_await w_await  svctm  %util
sda              11.00     0.00 22551.00    0.00 90252.00     0.00     8.00     6.11    0.27    0.27    0.00   0.02  45.60
sdb               9.00     0.00 22530.00    0.00 90160.00     0.00     8.00     5.87    0.26    0.26    0.00   0.02  44.00
sdc              14.00     0.00 22412.00    0.00 89712.00     0.00     8.01     6.99    0.31    0.31    0.00   0.02  55.00
sdd              17.00     0.00 22904.00    0.00 91692.00     0.00     8.01     7.26    0.32    0.32    0.00   0.03  59.10
sde              12.00     0.00 22805.00    0.00 91272.00     0.00     8.00     7.37    0.32    0.32    0.00   0.03  60.80
sdf              17.00     0.00 23049.00    0.00 92272.00     0.00     8.01     7.30    0.32    0.32    0.00   0.03  59.00
sdg               0.00     0.00    0.00    0.00     0.00     0.00     0.00     0.00    0.00    0.00    0.00   0.00   0.00
sdh               0.00     0.00    0.00    0.00     0.00     0.00     0.00     0.00    0.00    0.00    0.00   0.00   0.00
md0               0.00     0.00 136412.00    0.00 545648.00     0.00     8.00     0.00    0.00    0.00    0.00   0.00   0.00

avg-cpu:  %user   %nice %system %iowait  %steal   %idle
           2.00    0.00   34.25    1.00    0.00   62.75

Device:         rrqm/s   wrqm/s     r/s     w/s    rkB/s    wkB/s avgrq-sz avgqu-sz   await r_await w_await  svctm  %util
sda               8.00     0.00 22810.00    0.00 91280.00     0.00     8.00     6.11    0.27    0.27    0.00   0.02  47.40
sdb               6.00     0.00 22741.00    0.00 90988.00     0.00     8.00     6.53    0.29    0.29    0.00   0.02  46.80
sdc               7.00     0.00 23001.00    0.00 92032.00     0.00     8.00     7.14    0.31    0.31    0.00   0.03  60.90
sdd              14.00     0.00 22810.00    0.00 91300.00     0.00     8.01     7.23    0.32    0.32    0.00   0.03  59.60
sde               9.00     0.00 22753.00    0.00 91056.00     0.00     8.00     7.23    0.32    0.32    0.00   0.03  58.60
sdf              28.00     0.00 23039.00    0.00 92284.00     0.00     8.01     7.32    0.32    0.32    0.00   0.03  59.70
sdg               0.00     0.00    0.00    0.00     0.00     0.00     0.00     0.00    0.00    0.00    0.00   0.00   0.00
sdh               0.00     0.00    0.00    0.00     0.00     0.00     0.00     0.00    0.00    0.00    0.00   0.00   0.00
md0               0.00     0.00 137241.00    0.00 548964.00     0.00     8.00     0.00    0.00    0.00    0.00   0.00   0.00

avg-cpu:  %user   %nice %system %iowait  %steal   %idle
           1.99    0.00   35.07    1.00    0.00   61.94

Device:         rrqm/s   wrqm/s     r/s     w/s    rkB/s    wkB/s avgrq-sz avgqu-sz   await r_await w_await  svctm  %util
sda              10.00     0.00 23041.00    0.00 92212.00     0.00     8.00     6.32    0.27    0.27    0.00   0.02  46.00
sdb              19.00     0.00 23162.00    0.00 92732.00     0.00     8.01     6.39    0.28    0.28    0.00   0.02  48.00
sdc               2.00     0.00 22829.00    0.00 91324.00     0.00     8.00     7.37    0.32    0.32    0.00   0.03  59.40
sdd               3.00     0.00 22677.00    0.00 90724.00     0.00     8.00     6.99    0.31    0.31    0.00   0.03  57.90
sde              25.00     0.00 22849.00    0.00 91520.00     0.00     8.01     7.26    0.32    0.32    0.00   0.03  60.80
sdf               2.00     0.00 22875.00    0.00 91508.00     0.00     8.00     7.40    0.32    0.32    0.00   0.03  61.20
sdg               0.00     0.00   18.00    0.00   332.00     0.00    36.89     0.00    0.17    0.17    0.00   0.17   0.30
sdh               0.00     0.00    0.00    0.00     0.00     0.00     0.00     0.00    0.00    0.00    0.00   0.00   0.00
md0               0.00     0.00 137506.00    0.00 550024.00     0.00     8.00     0.00    0.00    0.00    0.00   0.00   0.00

avg-cpu:  %user   %nice %system %iowait  %steal   %idle
           1.98    0.00   35.06    0.99    0.00   61.98

Device:         rrqm/s   wrqm/s     r/s     w/s    rkB/s    wkB/s avgrq-sz avgqu-sz   await r_await w_await  svctm  %util
sda              11.00     0.00 22061.00    0.00 88288.00     0.00     8.00     5.50    0.25    0.25    0.00   0.02  44.70
sdb              18.00     0.00 22365.00    0.00 89532.00     0.00     8.01     5.58    0.25    0.25    0.00   0.02  45.10
sdc               5.00     0.00 22917.00    0.00 91688.00     0.00     8.00     7.30    0.32    0.32    0.00   0.03  58.30
sdd              15.00     0.00 22631.00    0.00 90588.00     0.00     8.01     7.18    0.32    0.32    0.00   0.03  61.10
sde              12.00     0.00 23080.00    0.00 92368.00     0.00     8.00     7.36    0.32    0.32    0.00   0.03  59.30
sdf              21.00     0.00 23259.00    0.00 93128.00     0.00     8.01     7.33    0.31    0.31    0.00   0.03  60.60
sdg               0.00     0.00    0.00    0.00     0.00     0.00     0.00     0.00    0.00    0.00    0.00   0.00   0.00
sdh               0.00     0.00    0.00    0.00     0.00     0.00     0.00     0.00    0.00    0.00    0.00   0.00   0.00
md0               0.00     0.00 136401.00    0.00 545604.00     0.00     8.00     0.00    0.00    0.00    0.00   0.00   0.00

avg-cpu:  %user   %nice %system %iowait  %steal   %idle
           2.26    0.00   33.83    1.25    0.00   62.66

Device:         rrqm/s   wrqm/s     r/s     w/s    rkB/s    wkB/s avgrq-sz avgqu-sz   await r_await w_await  svctm  %util
sda               6.00     0.00 22714.00    0.00 90880.00     0.00     8.00     6.19    0.27    0.27    0.00   0.02  44.60
sdb              16.00     0.00 22519.00    0.00 90148.00     0.00     8.01     6.03    0.27    0.27    0.00   0.02  44.30
sdc               8.00     0.00 22563.00    0.00 90288.00     0.00     8.00     7.18    0.32    0.32    0.00   0.03  58.90
sdd              17.00     0.00 22679.00    0.00 90792.00     0.00     8.01     7.31    0.32    0.32    0.00   0.03  58.80
sde              17.00     0.00 22911.00    0.00 91712.00     0.00     8.01     7.38    0.32    0.32    0.00   0.03  57.50
sdf              21.00     0.00 22437.00    0.00 89844.00     0.00     8.01     6.97    0.31    0.31    0.00   0.03  59.10
sdg               0.00     0.00    0.00    0.00     0.00     0.00     0.00     0.00    0.00    0.00    0.00   0.00   0.00
sdh               0.00     0.00    0.00    0.00     0.00     0.00     0.00     0.00    0.00    0.00    0.00   0.00   0.00
md0               0.00     0.00 135916.00    0.00 543664.00     0.00     8.00     0.00    0.00    0.00    0.00   0.00   0.00

avg-cpu:  %user   %nice %system %iowait  %steal   %idle
           2.28    0.00   33.25    1.27    0.00   63.20

Device:         rrqm/s   wrqm/s     r/s     w/s    rkB/s    wkB/s avgrq-sz avgqu-sz   await r_await w_await  svctm  %util
sda               6.00     0.00 22846.00    0.00 91408.00     0.00     8.00     6.08    0.27    0.27    0.00   0.02  46.20
sdb               4.00     0.00 22722.00    0.00 90904.00     0.00     8.00     5.78    0.25    0.25    0.00   0.02  44.70
sdc               4.00     0.00 22860.00    0.00 91456.00     0.00     8.00     7.43    0.32    0.32    0.00   0.03  58.70
sdd               8.00     0.00 22701.00    0.00 90836.00     0.00     8.00     6.88    0.30    0.30    0.00   0.03  58.10
sde               9.00     0.00 22797.00    0.00 91224.00     0.00     8.00     7.28    0.32    0.32    0.00   0.03  58.50
sdf              11.00     0.00 23091.00    0.00 92408.00     0.00     8.00     7.49    0.32    0.32    0.00   0.03  59.30
sdg               0.00     0.00    0.00    0.00     0.00     0.00     0.00     0.00    0.00    0.00    0.00   0.00   0.00
sdh               0.00     0.00    0.00    0.00     0.00     0.00     0.00     0.00    0.00    0.00    0.00   0.00   0.00
md0               0.00     0.00 136994.00    0.00 547976.00     0.00     8.00     0.00    0.00    0.00    0.00   0.00   0.00

avg-cpu:  %user   %nice %system %iowait  %steal   %idle
           1.52    0.00   33.76    1.02    0.00   63.71

Device:         rrqm/s   wrqm/s     r/s     w/s    rkB/s    wkB/s avgrq-sz avgqu-sz   await r_await w_await  svctm  %util
sda               2.00     0.00 22447.00    0.00 89796.00     0.00     8.00     5.82    0.26    0.26    0.00   0.02  46.50
sdb              14.00     0.00 23089.00    0.00 92412.00     0.00     8.00     6.14    0.27    0.27    0.00   0.02  45.80
sdc              22.00     0.00 22942.00    0.00 91860.00     0.00     8.01     6.90    0.30    0.30    0.00   0.03  59.00
sdd              10.00     0.00 22297.00    0.00 89228.00     0.00     8.00     6.83    0.31    0.31    0.00   0.03  56.90
sde              11.00     0.00 22772.00    0.00 91132.00     0.00     8.00     7.20    0.32    0.32    0.00   0.03  59.40
sdf              13.00     0.00 22857.00    0.00 91484.00     0.00     8.00     7.22    0.32    0.32    0.00   0.03  60.30
sdg               0.00     0.00    0.00    0.00     0.00     0.00     0.00     0.00    0.00    0.00    0.00   0.00   0.00
sdh               0.00     0.00    0.00    0.00     0.00     0.00     0.00     0.00    0.00    0.00    0.00   0.00   0.00
md0               0.00     0.00 136546.00    0.00 546184.00     0.00     8.00     0.00    0.00    0.00    0.00   0.00   0.00

avg-cpu:  %user   %nice %system %iowait  %steal   %idle
           2.00    0.25   36.00    2.75    0.00   59.00

Device:         rrqm/s   wrqm/s     r/s     w/s    rkB/s    wkB/s avgrq-sz avgqu-sz   await r_await w_await  svctm  %util
sda              11.00     0.00 22309.00    0.00 89284.00     0.00     8.00     6.12    0.27    0.27    0.00   0.02  46.50
sdb              11.00     0.00 22606.00    0.00 90468.00     0.00     8.00     6.32    0.28    0.28    0.00   0.02  46.40
sdc              10.00     0.00 22474.00    0.00 89936.00     0.00     8.00     6.83    0.30    0.30    0.00   0.03  57.20
sdd              10.00     0.00 22762.00    0.00 91088.00     0.00     8.00     7.17    0.31    0.31    0.00   0.03  58.10
sde              16.00     0.00 22733.00    0.00 91000.00     0.00     8.01     7.72    0.34    0.34    0.00   0.03  60.50
sdf              15.00     0.00 22346.00    0.00 89452.00     0.00     8.01     7.49    0.34    0.34    0.00   0.03  59.10
sdg               0.00   107.00  145.00 2600.00   580.00 12768.00     9.73    16.32    5.94    0.20    6.26   0.05  14.00
sdh               0.00     0.00    0.00    0.00     0.00     0.00     0.00     0.00    0.00    0.00    0.00   0.00   0.00
md0               0.00     0.00 135255.00    0.00 541020.00     0.00     8.00     0.00    0.00    0.00    0.00   0.00   0.00

avg-cpu:  %user   %nice %system %iowait  %steal   %idle
           1.77    0.00   36.11    3.28    0.00   58.84

Device:         rrqm/s   wrqm/s     r/s     w/s    rkB/s    wkB/s avgrq-sz avgqu-sz   await r_await w_await  svctm  %util
sda               6.00     0.00 22763.00    0.00 91076.00     0.00     8.00     6.31    0.28    0.28    0.00   0.02  47.00
sdb               3.00     0.00 22513.00    0.00 90064.00     0.00     8.00     6.10    0.27    0.27    0.00   0.02  45.80
sdc               5.00     0.00 22806.00    0.00 91244.00     0.00     8.00     7.30    0.32    0.32    0.00   0.03  61.10
sdd               4.00     0.00 22639.00    0.00 90572.00     0.00     8.00     7.53    0.33    0.33    0.00   0.03  59.20
sde              18.00     0.00 22727.00    0.00 90988.00     0.00     8.01     7.53    0.33    0.33    0.00   0.03  59.50
sdf              15.00     0.00 22682.00    0.00 90792.00     0.00     8.01     7.46    0.33    0.33    0.00   0.03  58.00
sdg               0.00     0.00 1703.00    0.00  6812.00     0.00     8.00     0.21    0.13    0.13    0.00   0.13  21.40
sdh               0.00     0.00    0.00    0.00     0.00     0.00     0.00     0.00    0.00    0.00    0.00   0.00   0.00
md0               0.00     0.00 136241.00    0.00 544964.00     0.00     8.00     0.00    0.00    0.00    0.00   0.00   0.00

avg-cpu:  %user   %nice %system %iowait  %steal   %idle
           2.00    0.00   35.41    1.00    0.00   61.60

Device:         rrqm/s   wrqm/s     r/s     w/s    rkB/s    wkB/s avgrq-sz avgqu-sz   await r_await w_await  svctm  %util
sda               1.00     0.00 22459.00    0.00 89840.00     0.00     8.00     6.06    0.27    0.27    0.00   0.02  45.90
sdb              10.00     0.00 22719.00    0.00 90916.00     0.00     8.00     5.93    0.26    0.26    0.00   0.02  46.00
sdc              14.00     0.00 22675.00    0.00 90764.00     0.00     8.01     7.22    0.32    0.32    0.00   0.03  59.80
sdd              23.00     0.00 22825.00    0.00 91396.00     0.00     8.01     6.80    0.30    0.30    0.00   0.03  58.80
sde              17.00     0.00 22739.00    0.00 91036.00     0.00     8.01     6.92    0.30    0.30    0.00   0.03  58.10
sdf              11.00     0.00 22716.00    0.00 90912.00     0.00     8.00     7.22    0.32    0.32    0.00   0.02  56.60
sdg               0.00     0.00    0.00    0.00     0.00     0.00     0.00     0.00    0.00    0.00    0.00   0.00   0.00
sdh               0.00     0.00    0.00    0.00     0.00     0.00     0.00     0.00    0.00    0.00    0.00   0.00   0.00
md0               0.00     0.00 136170.00    0.00 544680.00     0.00     8.00     0.00    0.00    0.00    0.00   0.00   0.00

avg-cpu:  %user   %nice %system %iowait  %steal   %idle
           2.01    0.00   34.67    1.01    0.00   62.31

Device:         rrqm/s   wrqm/s     r/s     w/s    rkB/s    wkB/s avgrq-sz avgqu-sz   await r_await w_await  svctm  %util
sda              15.00     0.00 22320.00    0.00 89340.00     0.00     8.01     5.93    0.27    0.27    0.00   0.02  43.80
sdb              12.00     0.00 22309.00    0.00 89296.00     0.00     8.01     6.11    0.27    0.27    0.00   0.02  45.60
sdc              23.00     0.00 22506.00    0.00 90128.00     0.00     8.01     7.42    0.33    0.33    0.00   0.03  60.40
sdd              12.00     0.00 22524.00    0.00 90152.00     0.00     8.00     7.51    0.33    0.33    0.00   0.03  60.50
sde              16.00     0.00 22433.00    0.00 89804.00     0.00     8.01     7.14    0.32    0.32    0.00   0.03  57.60
sdf              12.00     0.00 22247.00    0.00 89036.00     0.00     8.00     6.87    0.31    0.31    0.00   0.03  56.60
sdg               0.00     0.00    0.00    0.00     0.00     0.00     0.00     0.00    0.00    0.00    0.00   0.00   0.00
sdh               0.00     0.00    0.00    0.00     0.00     0.00     0.00     0.00    0.00    0.00    0.00   0.00   0.00
md0               0.00     0.00 134396.00    0.00 537584.00     0.00     8.00     0.00    0.00    0.00    0.00   0.00   0.00

avg-cpu:  %user   %nice %system %iowait  %steal   %idle
           1.97    0.00   35.96    1.23    0.00   60.84

Device:         rrqm/s   wrqm/s     r/s     w/s    rkB/s    wkB/s avgrq-sz avgqu-sz   await r_await w_await  svctm  %util
sda              10.00     0.00 22827.00    0.00 91352.00     0.00     8.00     6.28    0.28    0.28    0.00   0.02  46.40
sdb              24.00     0.00 22847.00    0.00 91492.00     0.00     8.01     5.78    0.25    0.25    0.00   0.02  45.50
sdc              24.00     0.00 22678.00    0.00 90824.00     0.00     8.01     6.98    0.31    0.31    0.00   0.03  57.20
sdd              12.00     0.00 22617.00    0.00 90516.00     0.00     8.00     6.67    0.29    0.29    0.00   0.02  55.50
sde               8.00     0.00 22583.00    0.00 90368.00     0.00     8.00     7.03    0.31    0.31    0.00   0.03  56.90
sdf              13.00     0.00 22489.00    0.00 90012.00     0.00     8.00     7.38    0.33    0.33    0.00   0.03  60.10
sdg               0.00     0.00    0.00    0.00     0.00     0.00     0.00     0.00    0.00    0.00    0.00   0.00   0.00
sdh               0.00     0.00    0.00    0.00     0.00     0.00     0.00     0.00    0.00    0.00    0.00   0.00   0.00
md0               0.00     0.00 136160.00    0.00 544640.00     0.00     8.00     0.00    0.00    0.00    0.00   0.00   0.00

avg-cpu:  %user   %nice %system %iowait  %steal   %idle
           2.26    0.00   34.67    1.01    0.00   62.06

Device:         rrqm/s   wrqm/s     r/s     w/s    rkB/s    wkB/s avgrq-sz avgqu-sz   await r_await w_await  svctm  %util
sda              12.00     0.00 22641.00    0.00 90620.00     0.00     8.00     5.96    0.26    0.26    0.00   0.02  45.00
sdb              20.00     0.00 22479.00    0.00 90004.00     0.00     8.01     5.76    0.26    0.26    0.00   0.02  43.20
sdc               5.00     0.00 22407.00    0.00 89648.00     0.00     8.00     7.10    0.32    0.32    0.00   0.03  59.10
sdd              11.00     0.00 22489.00    0.00 90004.00     0.00     8.00     7.29    0.32    0.32    0.00   0.03  59.40
sde              26.00     0.00 22618.00    0.00 90596.00     0.00     8.01     7.47    0.33    0.33    0.00   0.03  60.10
sdf              14.00     0.00 22570.00    0.00 90344.00     0.00     8.01     7.45    0.33    0.33    0.00   0.03  58.90
sdg               0.00     0.00    0.00    0.00     0.00     0.00     0.00     0.00    0.00    0.00    0.00   0.00   0.00
sdh               0.00     0.00    0.00    0.00     0.00     0.00     0.00     0.00    0.00    0.00    0.00   0.00   0.00
md0               0.00     0.00 135297.00    0.00 541188.00     0.00     8.00     0.00    0.00    0.00    0.00   0.00   0.00

avg-cpu:  %user   %nice %system %iowait  %steal   %idle
           1.99    0.00   35.82    1.00    0.00   61.19

Device:         rrqm/s   wrqm/s     r/s     w/s    rkB/s    wkB/s avgrq-sz avgqu-sz   await r_await w_await  svctm  %util
sda              26.00     0.00 22167.00    0.00 88784.00     0.00     8.01     6.01    0.27    0.27    0.00   0.02  44.90
sdb              16.00     0.00 22298.00    0.00 89268.00     0.00     8.01     6.32    0.28    0.28    0.00   0.02  44.80
sdc              22.00     0.00 22500.00    0.00 90088.00     0.00     8.01     7.27    0.32    0.32    0.00   0.03  58.80
sdd               8.00     0.00 22823.00    0.00 91328.00     0.00     8.00     7.16    0.31    0.31    0.00   0.03  58.90
sde              18.00     0.00 22479.00    0.00 89988.00     0.00     8.01     7.09    0.32    0.32    0.00   0.03  58.40
sdf               5.00     0.00 22645.00    0.00 90600.00     0.00     8.00     7.43    0.33    0.33    0.00   0.03  58.60
sdg               0.00     0.00    0.00    0.00     0.00     0.00     0.00     0.00    0.00    0.00    0.00   0.00   0.00
sdh               0.00     0.00    0.00    0.00     0.00     0.00     0.00     0.00    0.00    0.00    0.00   0.00   0.00
md0               0.00     0.00 135028.00    0.00 540112.00     0.00     8.00     0.00    0.00    0.00    0.00   0.00   0.00

avg-cpu:  %user   %nice %system %iowait  %steal   %idle
           1.52    0.00   34.52    1.27    0.00   62.69

Device:         rrqm/s   wrqm/s     r/s     w/s    rkB/s    wkB/s avgrq-sz avgqu-sz   await r_await w_await  svctm  %util
sda               6.00     0.00 22436.00    0.00 89768.00     0.00     8.00     5.91    0.26    0.26    0.00   0.02  43.20
sdb               3.00     0.00 21858.00    0.00 87448.00     0.00     8.00     5.92    0.27    0.27    0.00   0.02  44.40
sdc              11.00     0.00 22091.00    0.00 88408.00     0.00     8.00     6.93    0.31    0.31    0.00   0.03  56.80
sdd               5.00     0.00 22125.00    0.00 88520.00     0.00     8.00     7.05    0.32    0.32    0.00   0.03  57.50
sde               9.00     0.00 22584.00    0.00 90372.00     0.00     8.00     7.48    0.33    0.33    0.00   0.03  61.60
sdf              13.00     0.00 22424.00    0.00 89752.00     0.00     8.00     7.21    0.32    0.32    0.00   0.03  57.80
sdg               0.00     0.00    1.00    0.00     4.00     0.00     8.00     0.00    0.00    0.00    0.00   0.00   0.00
sdh               0.00     0.00    0.00    0.00     0.00     0.00     0.00     0.00    0.00    0.00    0.00   0.00   0.00
md0               0.00     0.00 133620.00    0.00 534480.00     0.00     8.00     0.00    0.00    0.00    0.00   0.00   0.00

