Linux 4.17.2 (bench) 	08/03/2018 	_x86_64_	(4 CPU)

avg-cpu:  %user   %nice %system %iowait  %steal   %idle
          10.26    0.02    4.17    2.73    0.00   82.83

Device:         rrqm/s   wrqm/s     r/s     w/s    rkB/s    wkB/s avgrq-sz avgqu-sz   await r_await w_await  svctm  %util
sda              53.45     4.19 1722.92  101.18 21327.07  3095.99    26.78     1.05    0.57    0.26    5.92   0.06  11.03
sdb              53.25     4.15 1722.92  101.32 21316.62  3092.69    26.76     1.05    0.57    0.26    5.85   0.06  10.90
sdc              91.02     4.21 1683.06  100.87 21308.80  3095.12    27.36     1.47    0.82    0.44    7.12   0.08  14.40
sdd              84.54     4.18 1688.72  100.94 21293.83  3091.37    27.25     1.47    0.82    0.43    7.33   0.08  14.49
sde              86.54     4.22 1693.80  101.04 21353.21  3095.56    27.24     1.49    0.83    0.44    7.44   0.08  14.51
sdf              83.69     4.19 1695.91  100.98 21334.68  3092.47    27.19     1.54    0.86    0.44    7.90   0.08  14.54
sdg               0.00     3.17   26.79   73.26   325.88   391.99    14.35     0.44    4.40    0.20    5.93   0.08   0.78
sdh               0.00     0.13    0.02    0.23     2.18     5.00    56.82     0.00    1.15    0.65    1.19   0.21   0.01
md0               0.00     0.00 10667.24  474.07 146160.00 21191.62    30.04     0.00    0.00    0.00    0.00   0.00   0.00

avg-cpu:  %user   %nice %system %iowait  %steal   %idle
           0.52    0.00    4.18    0.52    0.00   94.78

Device:         rrqm/s   wrqm/s     r/s     w/s    rkB/s    wkB/s avgrq-sz avgqu-sz   await r_await w_await  svctm  %util
sda               0.00     0.00 4955.00    0.00 19820.00     0.00     8.00     0.56    0.11    0.11    0.00   0.03  16.50
sdb               0.00     0.00 4894.00    0.00 19576.00     0.00     8.00     0.56    0.11    0.11    0.00   0.03  16.20
sdc               0.00     0.00 5136.00    0.00 20544.00     0.00     8.00     0.72    0.14    0.14    0.00   0.04  21.70
sdd               0.00     0.00 4950.00    0.00 19800.00     0.00     8.00     0.73    0.15    0.15    0.00   0.04  20.50
sde               0.00     0.00 4850.00    0.00 19400.00     0.00     8.00     0.61    0.13    0.13    0.00   0.04  17.70
sdf               0.00     0.00 4896.00    0.00 19584.00     0.00     8.00     0.70    0.14    0.14    0.00   0.04  20.30
sdg               0.00     0.00    3.00    0.00    88.00     0.00    58.67     0.00    0.67    0.67    0.00   0.67   0.20
sdh               0.00     0.00    0.00    0.00     0.00     0.00     0.00     0.00    0.00    0.00    0.00   0.00   0.00
md0               0.00     0.00 29687.00    0.00 118748.00     0.00     8.00     0.00    0.00    0.00    0.00   0.00   0.00

avg-cpu:  %user   %nice %system %iowait  %steal   %idle
           0.52    0.00    5.15    0.77    0.00   93.56

Device:         rrqm/s   wrqm/s     r/s     w/s    rkB/s    wkB/s avgrq-sz avgqu-sz   await r_await w_await  svctm  %util
sda               0.00     0.00 5110.00    0.00 20440.00     0.00     8.00     0.60    0.12    0.12    0.00   0.04  18.10
sdb               0.00     0.00 4924.00    0.00 19696.00     0.00     8.00     0.60    0.12    0.12    0.00   0.04  17.30
sdc               0.00     0.00 5007.00    0.00 20028.00     0.00     8.00     0.65    0.13    0.13    0.00   0.04  19.10
sdd               0.00     0.00 5011.00    0.00 20044.00     0.00     8.00     0.67    0.13    0.13    0.00   0.04  19.70
sde               0.00     0.00 5044.00    0.00 20176.00     0.00     8.00     0.68    0.13    0.13    0.00   0.04  19.60
sdf               0.00     0.00 4920.00    0.00 19680.00     0.00     8.00     0.69    0.14    0.14    0.00   0.04  20.70
sdg               0.00     0.00    0.00    0.00     0.00     0.00     0.00     0.00    0.00    0.00    0.00   0.00   0.00
sdh               0.00     0.00    0.00    0.00     0.00     0.00     0.00     0.00    0.00    0.00    0.00   0.00   0.00
md0               0.00     0.00 30026.00    0.00 120104.00     0.00     8.00     0.00    0.00    0.00    0.00   0.00   0.00

avg-cpu:  %user   %nice %system %iowait  %steal   %idle
           0.52    0.00    4.20    0.52    0.00   94.75

Device:         rrqm/s   wrqm/s     r/s     w/s    rkB/s    wkB/s avgrq-sz avgqu-sz   await r_await w_await  svctm  %util
sda               0.00     0.00 5267.00    0.00 21068.00     0.00     8.00     0.71    0.14    0.14    0.00   0.04  19.50
sdb               0.00     0.00 5382.00    0.00 21528.00     0.00     8.00     0.68    0.13    0.13    0.00   0.04  19.80
sdc               0.00     0.00 5276.00    0.00 21104.00     0.00     8.00     0.65    0.12    0.12    0.00   0.04  18.50
sdd               0.00     0.00 5308.00    0.00 21232.00     0.00     8.00     0.81    0.15    0.15    0.00   0.04  21.80
sde               0.00     0.00 5280.00    0.00 21120.00     0.00     8.00     0.76    0.14    0.14    0.00   0.04  19.70
sdf               0.00     0.00 5272.00    0.00 21088.00     0.00     8.00     0.73    0.14    0.14    0.00   0.04  19.90
sdg               0.00     0.00    4.00    3.00    16.00    12.00     8.00     0.00    0.00    0.00    0.00   0.00   0.00
sdh               0.00     0.00    0.00    0.00     0.00     0.00     0.00     0.00    0.00    0.00    0.00   0.00   0.00
md0               0.00     0.00 31779.00    0.00 127116.00     0.00     8.00     0.00    0.00    0.00    0.00   0.00   0.00

avg-cpu:  %user   %nice %system %iowait  %steal   %idle
           1.00    0.25    7.77   12.78    0.00   78.20

Device:         rrqm/s   wrqm/s     r/s     w/s    rkB/s    wkB/s avgrq-sz avgqu-sz   await r_await w_await  svctm  %util
sda               0.00     0.00 5431.00    0.00 21724.00     0.00     8.00     0.59    0.11    0.11    0.00   0.03  17.10
sdb               0.00     0.00 5233.00    0.00 20932.00     0.00     8.00     0.59    0.11    0.11    0.00   0.03  17.20
sdc               0.00     0.00 5380.00    0.00 21520.00     0.00     8.00     0.74    0.14    0.14    0.00   0.04  19.50
sdd               0.00     0.00 5271.00    0.00 21084.00     0.00     8.00     0.65    0.12    0.12    0.00   0.03  17.60
sde               0.00     0.00 5281.00    0.00 21124.00     0.00     8.00     0.74    0.14    0.14    0.00   0.04  20.40
sdf               0.00     0.00 5257.00    0.00 21028.00     0.00     8.00     0.72    0.14    0.14    0.00   0.04  20.10
sdg               0.00     0.00   39.00    0.00   468.00     0.00    24.00     0.01    0.23    0.23    0.00   0.15   0.60
sdh               0.00     0.00    0.00    0.00     0.00     0.00     0.00     0.00    0.00    0.00    0.00   0.00   0.00
md0               0.00     0.00 31855.00    0.00 127420.00     0.00     8.00     0.00    0.00    0.00    0.00   0.00   0.00

avg-cpu:  %user   %nice %system %iowait  %steal   %idle
           0.51    0.00    6.15    8.72    0.00   84.62

Device:         rrqm/s   wrqm/s     r/s     w/s    rkB/s    wkB/s avgrq-sz avgqu-sz   await r_await w_await  svctm  %util
sda               0.00     0.00 5296.00    0.00 21184.00     0.00     8.00     0.53    0.10    0.10    0.00   0.03  16.00
sdb               0.00     0.00 5312.00    0.00 21248.00     0.00     8.00     0.64    0.12    0.12    0.00   0.03  17.60
sdc               0.00     0.00 5310.00    0.00 21240.00     0.00     8.00     0.69    0.13    0.13    0.00   0.03  18.30
sdd               0.00     0.00 5187.00    0.00 20748.00     0.00     8.00     0.71    0.14    0.14    0.00   0.04  19.30
sde               0.00     0.00 5339.00    0.00 21356.00     0.00     8.00     0.78    0.15    0.15    0.00   0.04  20.10
sdf               0.00     0.00 5326.00    0.00 21304.00     0.00     8.00     0.72    0.14    0.14    0.00   0.04  21.20
sdg               0.00     0.00    0.00    0.00     0.00     0.00     0.00     0.00    0.00    0.00    0.00   0.00   0.00
sdh               0.00     0.00    0.00    0.00     0.00     0.00     0.00     0.00    0.00    0.00    0.00   0.00   0.00
md0               0.00     0.00 31764.00    0.00 127056.00     0.00     8.00     0.00    0.00    0.00    0.00   0.00   0.00

avg-cpu:  %user   %nice %system %iowait  %steal   %idle
           0.52    0.00    5.43    0.52    0.00   93.54

Device:         rrqm/s   wrqm/s     r/s     w/s    rkB/s    wkB/s avgrq-sz avgqu-sz   await r_await w_await  svctm  %util
sda               0.00     0.00 5209.00    0.00 20836.00     0.00     8.00     0.58    0.11    0.11    0.00   0.03  15.90
sdb               0.00     0.00 5192.00    0.00 20768.00     0.00     8.00     0.64    0.12    0.12    0.00   0.03  17.90
sdc               0.00     0.00 5276.00    0.00 21104.00     0.00     8.00     0.70    0.13    0.13    0.00   0.04  20.40
sdd               0.00     0.00 5111.00    0.00 20444.00     0.00     8.00     0.68    0.13    0.13    0.00   0.04  19.10
sde               0.00     0.00 5168.00    0.00 20672.00     0.00     8.00     0.71    0.14    0.14    0.00   0.04  19.80
sdf               0.00     0.00 5183.00    0.00 20732.00     0.00     8.00     0.64    0.12    0.12    0.00   0.03  17.40
sdg               0.00     0.00    0.00    0.00     0.00     0.00     0.00     0.00    0.00    0.00    0.00   0.00   0.00
sdh               0.00     0.00    0.00    0.00     0.00     0.00     0.00     0.00    0.00    0.00    0.00   0.00   0.00
md0               0.00     0.00 31140.00    0.00 124560.00     0.00     8.00     0.00    0.00    0.00    0.00   0.00   0.00

avg-cpu:  %user   %nice %system %iowait  %steal   %idle
           0.52    0.00    4.94    0.52    0.00   94.03

Device:         rrqm/s   wrqm/s     r/s     w/s    rkB/s    wkB/s avgrq-sz avgqu-sz   await r_await w_await  svctm  %util
sda               0.00     0.00 5223.00    0.00 20892.00     0.00     8.00     0.66    0.13    0.13    0.00   0.03  17.80
sdb               0.00     0.00 5231.00    0.00 20924.00     0.00     8.00     0.64    0.12    0.12    0.00   0.03  16.90
sdc               0.00     0.00 5254.00    0.00 21016.00     0.00     8.00     0.78    0.15    0.15    0.00   0.04  19.70
sdd               0.00     0.00 5258.00    0.00 21032.00     0.00     8.00     0.72    0.14    0.14    0.00   0.04  20.50
sde               0.00     0.00 5300.00    0.00 21200.00     0.00     8.00     0.76    0.14    0.14    0.00   0.04  19.30
sdf               0.00     0.00 5128.00    0.00 20512.00     0.00     8.00     0.67    0.13    0.13    0.00   0.04  18.90
sdg               0.00     0.00    0.00    0.00     0.00     0.00     0.00     0.00    0.00    0.00    0.00   0.00   0.00
sdh               0.00     0.00    0.00    0.00     0.00     0.00     0.00     0.00    0.00    0.00    0.00   0.00   0.00
md0               0.00     0.00 31391.00    0.00 125564.00     0.00     8.00     0.00    0.00    0.00    0.00   0.00   0.00

avg-cpu:  %user   %nice %system %iowait  %steal   %idle
           0.52    0.00    5.70    1.81    0.00   91.97

Device:         rrqm/s   wrqm/s     r/s     w/s    rkB/s    wkB/s avgrq-sz avgqu-sz   await r_await w_await  svctm  %util
sda               0.00     0.00 5320.00    0.00 21280.00     0.00     8.00     0.64    0.12    0.12    0.00   0.03  18.10
sdb               0.00     0.00 5137.00    0.00 20548.00     0.00     8.00     0.59    0.12    0.12    0.00   0.03  17.00
sdc               0.00     0.00 5305.00    0.00 21220.00     0.00     8.00     0.71    0.13    0.13    0.00   0.04  19.50
sdd               0.00     0.00 5232.00    0.00 20928.00     0.00     8.00     0.66    0.13    0.13    0.00   0.04  18.90
sde               0.00     0.00 5170.00    0.00 20680.00     0.00     8.00     0.77    0.15    0.15    0.00   0.04  20.40
sdf               0.00     0.00 5252.00    0.00 21008.00     0.00     8.00     0.71    0.13    0.13    0.00   0.04  18.50
sdg               0.00    66.00    4.00 1444.00    16.00  7476.00    10.35     8.72    6.02    2.75    6.03   0.05   6.70
sdh               0.00     0.00    0.00    0.00     0.00     0.00     0.00     0.00    0.00    0.00    0.00   0.00   0.00
md0               0.00     0.00 31418.00    0.00 125672.00     0.00     8.00     0.00    0.00    0.00    0.00   0.00   0.00

avg-cpu:  %user   %nice %system %iowait  %steal   %idle
           0.52    0.00    5.18    0.52    0.00   93.78

Device:         rrqm/s   wrqm/s     r/s     w/s    rkB/s    wkB/s avgrq-sz avgqu-sz   await r_await w_await  svctm  %util
sda               0.00     0.00 5168.00    0.00 20672.00     0.00     8.00     0.60    0.12    0.12    0.00   0.03  16.80
sdb               0.00     0.00 5328.00    0.00 21312.00     0.00     8.00     0.61    0.11    0.11    0.00   0.03  16.30
sdc               0.00     0.00 5264.00    0.00 21056.00     0.00     8.00     0.75    0.14    0.14    0.00   0.04  21.00
sdd               0.00     0.00 5361.00    0.00 21444.00     0.00     8.00     0.72    0.13    0.13    0.00   0.04  19.20
sde               0.00     0.00 5332.00    0.00 21328.00     0.00     8.00     0.75    0.14    0.14    0.00   0.04  20.20
sdf               0.00     0.00 5213.00    0.00 20852.00     0.00     8.00     0.73    0.14    0.14    0.00   0.04  19.60
sdg               0.00     0.00    0.00    0.00     0.00     0.00     0.00     0.00    0.00    0.00    0.00   0.00   0.00
sdh               0.00     0.00    0.00    0.00     0.00     0.00     0.00     0.00    0.00    0.00    0.00   0.00   0.00
md0               0.00     0.00 31667.00    0.00 126668.00     0.00     8.00     0.00    0.00    0.00    0.00   0.00   0.00

avg-cpu:  %user   %nice %system %iowait  %steal   %idle
           0.77    0.00    6.38    5.36    0.00   87.50

Device:         rrqm/s   wrqm/s     r/s     w/s    rkB/s    wkB/s avgrq-sz avgqu-sz   await r_await w_await  svctm  %util
sda               0.00     0.00 5331.00    0.00 21324.00     0.00     8.00     0.62    0.12    0.12    0.00   0.03  16.70
sdb               0.00     0.00 5308.00    0.00 21232.00     0.00     8.00     0.58    0.11    0.11    0.00   0.03  16.70
sdc               0.00     0.00 5323.00    0.00 21292.00     0.00     8.00     0.67    0.13    0.13    0.00   0.04  19.90
sdd               0.00     0.00 5299.00    0.00 21196.00     0.00     8.00     0.72    0.14    0.14    0.00   0.04  19.80
sde               0.00     0.00 5257.00    0.00 21028.00     0.00     8.00     0.73    0.14    0.14    0.00   0.04  19.20
sdf               0.00     0.00 5310.00    0.00 21240.00     0.00     8.00     0.73    0.14    0.14    0.00   0.04  20.20
sdg               0.00     0.00    0.00    0.00     0.00     0.00     0.00     0.00    0.00    0.00    0.00   0.00   0.00
sdh               0.00     0.00    0.00    0.00     0.00     0.00     0.00     0.00    0.00    0.00    0.00   0.00   0.00
md0               0.00     0.00 31828.00    0.00 127312.00     0.00     8.00     0.00    0.00    0.00    0.00   0.00   0.00

avg-cpu:  %user   %nice %system %iowait  %steal   %idle
           0.77    0.00    6.14    3.07    0.00   90.03

Device:         rrqm/s   wrqm/s     r/s     w/s    rkB/s    wkB/s avgrq-sz avgqu-sz   await r_await w_await  svctm  %util
sda               0.00     0.00 5220.00    0.00 20880.00     0.00     8.00     0.59    0.11    0.11    0.00   0.03  17.20
sdb               0.00     0.00 5355.00    0.00 21420.00     0.00     8.00     0.57    0.11    0.11    0.00   0.03  16.80
sdc               0.00     0.00 5478.00    0.00 21912.00     0.00     8.00     0.74    0.14    0.14    0.00   0.04  21.30
sdd               0.00     0.00 5422.00    0.00 21688.00     0.00     8.00     0.69    0.13    0.13    0.00   0.04  19.50
sde               0.00     0.00 5440.00    0.00 21760.00     0.00     8.00     0.76    0.14    0.14    0.00   0.04  20.20
sdf               0.00     0.00 5373.00    0.00 21492.00     0.00     8.00     0.71    0.13    0.13    0.00   0.04  19.00
sdg               0.00     0.00    0.00    7.00     0.00   140.00    40.00     0.00    0.00    0.00    0.00   0.00   0.00
sdh               0.00     0.00    0.00    0.00     0.00     0.00     0.00     0.00    0.00    0.00    0.00   0.00   0.00
md0               0.00     0.00 32290.00    0.00 129160.00     0.00     8.00     0.00    0.00    0.00    0.00   0.00   0.00

avg-cpu:  %user   %nice %system %iowait  %steal   %idle
           0.51    0.00    6.39    4.60    0.00   88.49

Device:         rrqm/s   wrqm/s     r/s     w/s    rkB/s    wkB/s avgrq-sz avgqu-sz   await r_await w_await  svctm  %util
sda               0.00     0.00 5296.00    0.00 21184.00     0.00     8.00     0.65    0.12    0.12    0.00   0.04  18.80
sdb               0.00     0.00 5232.00    0.00 20928.00     0.00     8.00     0.58    0.11    0.11    0.00   0.03  16.40
sdc               0.00     0.00 5166.00    0.00 20664.00     0.00     8.00     0.68    0.13    0.13    0.00   0.04  18.30
sdd               0.00     0.00 5213.00    0.00 20852.00     0.00     8.00     0.72    0.14    0.14    0.00   0.04  20.80
sde               0.00     0.00 5330.00    0.00 21320.00     0.00     8.00     0.70    0.13    0.13    0.00   0.03  18.30
sdf               0.00     0.00 5236.00    0.00 20944.00     0.00     8.00     0.71    0.14    0.14    0.00   0.04  19.70
sdg               0.00     0.00    0.00    0.00     0.00     0.00     0.00     0.00    0.00    0.00    0.00   0.00   0.00
sdh               0.00     0.00    0.00    0.00     0.00     0.00     0.00     0.00    0.00    0.00    0.00   0.00   0.00
md0               0.00     0.00 31465.00    0.00 125860.00     0.00     8.00     0.00    0.00    0.00    0.00   0.00   0.00

avg-cpu:  %user   %nice %system %iowait  %steal   %idle
           0.52    0.00    4.94    0.52    0.00   94.03

Device:         rrqm/s   wrqm/s     r/s     w/s    rkB/s    wkB/s avgrq-sz avgqu-sz   await r_await w_await  svctm  %util
sda               0.00     0.00 5228.00    0.00 20912.00     0.00     8.00     0.60    0.12    0.12    0.00   0.03  16.30
sdb               0.00     0.00 5203.00    0.00 20812.00     0.00     8.00     0.58    0.11    0.11    0.00   0.03  16.50
sdc               0.00     0.00 5212.00    0.00 20848.00     0.00     8.00     0.75    0.14    0.14    0.00   0.04  21.10
sdd               0.00     0.00 5189.00    0.00 20756.00     0.00     8.00     0.79    0.15    0.15    0.00   0.04  20.70
sde               0.00     0.00 5156.00    0.00 20624.00     0.00     8.00     0.61    0.12    0.12    0.00   0.04  18.80
sdf               0.00     0.00 5168.00    0.00 20672.00     0.00     8.00     0.79    0.15    0.15    0.00   0.04  20.70
sdg               0.00     0.00    0.00    0.00     0.00     0.00     0.00     0.00    0.00    0.00    0.00   0.00   0.00
sdh               0.00     0.00    0.00    0.00     0.00     0.00     0.00     0.00    0.00    0.00    0.00   0.00   0.00
md0               0.00     0.00 31159.00    0.00 124636.00     0.00     8.00     0.00    0.00    0.00    0.00   0.00   0.00

avg-cpu:  %user   %nice %system %iowait  %steal   %idle
           0.77    0.26    6.19    4.12    0.00   88.66

Device:         rrqm/s   wrqm/s     r/s     w/s    rkB/s    wkB/s avgrq-sz avgqu-sz   await r_await w_await  svctm  %util
sda               0.00     0.00 5285.00    0.00 21140.00     0.00     8.00     0.64    0.12    0.12    0.00   0.03  18.10
sdb               0.00     0.00 5311.00    0.00 21244.00     0.00     8.00     0.67    0.13    0.13    0.00   0.03  18.10
sdc               0.00     0.00 5284.00    0.00 21136.00     0.00     8.00     0.66    0.12    0.12    0.00   0.03  18.10
sdd               0.00     0.00 5377.00    0.00 21508.00     0.00     8.00     0.80    0.15    0.15    0.00   0.04  21.30
sde               0.00     0.00 5218.00    0.00 20872.00     0.00     8.00     0.77    0.15    0.15    0.00   0.04  20.90
sdf               0.00     0.00 5358.00    0.00 21432.00     0.00     8.00     0.70    0.13    0.13    0.00   0.04  19.70
sdg               0.00     0.00 1330.00    0.00  5320.00     0.00     8.00     0.15    0.12    0.12    0.00   0.11  15.20
sdh               0.00     0.00    0.00    0.00     0.00     0.00     0.00     0.00    0.00    0.00    0.00   0.00   0.00
md0               0.00     0.00 31835.00    0.00 127340.00     0.00     8.00     0.00    0.00    0.00    0.00   0.00   0.00

avg-cpu:  %user   %nice %system %iowait  %steal   %idle
           0.52    0.00    5.67    0.52    0.00   93.30

Device:         rrqm/s   wrqm/s     r/s     w/s    rkB/s    wkB/s avgrq-sz avgqu-sz   await r_await w_await  svctm  %util
sda               0.00     0.00 5362.00    0.00 21448.00     0.00     8.00     0.62    0.12    0.12    0.00   0.03  17.80
sdb               0.00     0.00 5323.00    0.00 21292.00     0.00     8.00     0.62    0.12    0.12    0.00   0.03  16.90
sdc               0.00     0.00 5202.00    0.00 20808.00     0.00     8.00     0.67    0.13    0.13    0.00   0.03  18.00
sdd               0.00     0.00 5339.00    0.00 21356.00     0.00     8.00     0.76    0.14    0.14    0.00   0.04  20.30
sde               0.00     0.00 5300.00    0.00 21200.00     0.00     8.00     0.73    0.14    0.14    0.00   0.04  19.90
sdf               0.00     0.00 5300.00    0.00 21200.00     0.00     8.00     0.63    0.12    0.12    0.00   0.03  17.30
sdg               0.00     0.00    0.00    0.00     0.00     0.00     0.00     0.00    0.00    0.00    0.00   0.00   0.00
sdh               0.00     0.00    0.00    0.00     0.00     0.00     0.00     0.00    0.00    0.00    0.00   0.00   0.00
md0               0.00     0.00 31826.00    0.00 127304.00     0.00     8.00     0.00    0.00    0.00    0.00   0.00   0.00

avg-cpu:  %user   %nice %system %iowait  %steal   %idle
           0.52    0.00    5.44    0.52    0.00   93.52

Device:         rrqm/s   wrqm/s     r/s     w/s    rkB/s    wkB/s avgrq-sz avgqu-sz   await r_await w_await  svctm  %util
sda               0.00     0.00 5417.00    0.00 21668.00     0.00     8.00     0.66    0.12    0.12    0.00   0.03  17.30
sdb               0.00     0.00 5271.00    0.00 21084.00     0.00     8.00     0.61    0.11    0.11    0.00   0.03  16.60
sdc               0.00     0.00 5326.00    0.00 21304.00     0.00     8.00     0.74    0.14    0.14    0.00   0.04  20.00
sdd               0.00     0.00 5373.00    0.00 21492.00     0.00     8.00     0.67    0.12    0.12    0.00   0.04  19.50
sde               0.00     0.00 5235.00    0.00 20936.00     0.00     8.00     0.72    0.14    0.14    0.00   0.04  19.40
sdf               0.00     0.00 5245.00    0.00 20980.00     0.00     8.00     0.61    0.12    0.12    0.00   0.03  17.90
sdg               0.00     0.00    0.00    0.00     0.00     0.00     0.00     0.00    0.00    0.00    0.00   0.00   0.00
sdh               0.00     0.00    0.00    0.00     0.00     0.00     0.00     0.00    0.00    0.00    0.00   0.00   0.00
md0               0.00     0.00 31867.00    0.00 127468.00     0.00     8.00     0.00    0.00    0.00    0.00   0.00   0.00

avg-cpu:  %user   %nice %system %iowait  %steal   %idle
           0.77    0.00    5.67    0.52    0.00   93.04

Device:         rrqm/s   wrqm/s     r/s     w/s    rkB/s    wkB/s avgrq-sz avgqu-sz   await r_await w_await  svctm  %util
sda               0.00     0.00 5330.00    0.00 21320.00     0.00     8.00     0.55    0.10    0.10    0.00   0.03  16.20
sdb               0.00     0.00 5438.00    0.00 21752.00     0.00     8.00     0.62    0.11    0.11    0.00   0.03  17.40
sdc               0.00     0.00 5421.00    0.00 21684.00     0.00     8.00     0.74    0.14    0.14    0.00   0.04  19.80
sdd               0.00     0.00 5378.00    0.00 21512.00     0.00     8.00     0.70    0.13    0.13    0.00   0.04  19.30
sde               0.00     0.00 5498.00    0.00 21996.00     0.00     8.00     0.85    0.15    0.15    0.00   0.04  23.30
sdf               0.00     0.00 5431.00    0.00 21724.00     0.00     8.00     0.77    0.14    0.14    0.00   0.04  19.40
sdg               0.00     0.00   18.00    0.00   332.00     0.00    36.89     0.01    0.28    0.28    0.00   0.22   0.40
sdh               0.00     0.00    0.00    0.00     0.00     0.00     0.00     0.00    0.00    0.00    0.00   0.00   0.00
md0               0.00     0.00 32494.00    0.00 129976.00     0.00     8.00     0.00    0.00    0.00    0.00   0.00   0.00

avg-cpu:  %user   %nice %system %iowait  %steal   %idle
           0.52    0.00    4.43    1.82    0.00   93.23

Device:         rrqm/s   wrqm/s     r/s     w/s    rkB/s    wkB/s avgrq-sz avgqu-sz   await r_await w_await  svctm  %util
sda               0.00     0.00 5629.00    0.00 22516.00     0.00     8.00     0.66    0.12    0.12    0.00   0.03  17.70
sdb               0.00     0.00 5715.00    0.00 22860.00     0.00     8.00     0.63    0.11    0.11    0.00   0.03  18.30
sdc               0.00     0.00 5671.00    0.00 22684.00     0.00     8.00     0.73    0.13    0.13    0.00   0.04  20.10
sdd               0.00     0.00 5677.00    0.00 22708.00     0.00     8.00     0.74    0.13    0.13    0.00   0.04  20.70
sde               0.00     0.00 5891.00    0.00 23564.00     0.00     8.00     0.80    0.14    0.14    0.00   0.03  20.50
sdf               0.00     0.00 5603.00    0.00 22412.00     0.00     8.00     0.78    0.14    0.14    0.00   0.04  20.90
sdg               0.00     0.00    0.00    0.00     0.00     0.00     0.00     0.00    0.00    0.00    0.00   0.00   0.00
sdh               0.00     0.00    0.00    0.00     0.00     0.00     0.00     0.00    0.00    0.00    0.00   0.00   0.00
md0               0.00     0.00 34186.00    0.00 136744.00     0.00     8.00     0.00    0.00    0.00    0.00   0.00   0.00

avg-cpu:  %user   %nice %system %iowait  %steal   %idle
           0.78    0.00    4.68    0.52    0.00   94.03

Device:         rrqm/s   wrqm/s     r/s     w/s    rkB/s    wkB/s avgrq-sz avgqu-sz   await r_await w_await  svctm  %util
sda               0.00     0.00 5707.00    0.00 22828.00     0.00     8.00     0.66    0.12    0.12    0.00   0.03  18.10
sdb               0.00     0.00 5811.00    0.00 23244.00     0.00     8.00     0.62    0.11    0.11    0.00   0.03  18.10
sdc               0.00     0.00 5613.00    0.00 22452.00     0.00     8.00     0.73    0.13    0.13    0.00   0.04  20.90
sdd               0.00     0.00 5723.00    0.00 22892.00     0.00     8.00     0.79    0.14    0.14    0.00   0.04  21.70
sde               0.00     0.00 5540.00    0.00 22160.00     0.00     8.00     0.73    0.13    0.13    0.00   0.04  21.30
sdf               0.00     0.00 5715.00    0.00 22860.00     0.00     8.00     0.76    0.13    0.13    0.00   0.04  21.20
sdg               0.00     0.00    0.00    0.00     0.00     0.00     0.00     0.00    0.00    0.00    0.00   0.00   0.00
sdh               0.00     0.00    0.00    0.00     0.00     0.00     0.00     0.00    0.00    0.00    0.00   0.00   0.00
md0               0.00     0.00 34112.00    0.00 136448.00     0.00     8.00     0.00    0.00    0.00    0.00   0.00   0.00

avg-cpu:  %user   %nice %system %iowait  %steal   %idle
           0.78    0.00    4.17    0.78    0.00   94.27

Device:         rrqm/s   wrqm/s     r/s     w/s    rkB/s    wkB/s avgrq-sz avgqu-sz   await r_await w_await  svctm  %util
sda               0.00     0.00 5836.00    0.00 23344.00     0.00     8.00     0.80    0.14    0.14    0.00   0.03  19.80
sdb               0.00     0.00 5737.00    0.00 22948.00     0.00     8.00     0.56    0.10    0.10    0.00   0.03  16.90
sdc               0.00     0.00 5712.00    0.00 22848.00     0.00     8.00     0.78    0.14    0.14    0.00   0.04  20.70
sdd               0.00     0.00 5783.00    0.00 23132.00     0.00     8.00     0.88    0.15    0.15    0.00   0.04  22.00
sde               0.00     0.00 5746.00    0.00 22984.00     0.00     8.00     0.75    0.13    0.13    0.00   0.04  20.80
sdf               0.00     0.00 5702.00    0.00 22808.00     0.00     8.00     0.77    0.14    0.14    0.00   0.04  20.70
sdg               0.00     0.00    0.00    0.00     0.00     0.00     0.00     0.00    0.00    0.00    0.00   0.00   0.00
sdh               0.00     0.00    0.00    0.00     0.00     0.00     0.00     0.00    0.00    0.00    0.00   0.00   0.00
md0               0.00     0.00 34516.00    0.00 138064.00     0.00     8.00     0.00    0.00    0.00    0.00   0.00   0.00

