Linux 4.17.2 (bench) 	08/03/2018 	_x86_64_	(4 CPU)

avg-cpu:  %user   %nice %system %iowait  %steal   %idle
          10.26    0.02    4.16    2.69    0.00   82.87

Device:         rrqm/s   wrqm/s     r/s     w/s    rkB/s    wkB/s avgrq-sz avgqu-sz   await r_await w_await  svctm  %util
sda              52.29     4.20 1713.42  101.41 21304.47  3103.04    26.90     1.05    0.58    0.26    5.92   0.06  10.98
sdb              52.09     4.16 1713.41  101.55 21293.96  3099.74    26.88     1.05    0.58    0.26    5.85   0.06  10.86
sdc              89.95     4.22 1673.46  101.10 21286.14  3102.18    27.49     1.47    0.83    0.45    7.12   0.08  14.35
sdd              83.46     4.19 1679.14  101.17 21271.14  3098.42    27.38     1.47    0.83    0.44    7.33   0.08  14.45
sde              85.46     4.23 1684.22  101.27 21330.59  3102.62    27.37     1.49    0.84    0.44    7.44   0.08  14.47
sdf              82.60     4.20 1686.33  101.21 21312.01  3099.51    27.31     1.54    0.86    0.44    7.90   0.08  14.50
sdg               0.00     3.17   26.73   73.28   325.69   392.06    14.35     0.44    4.40    0.20    5.93   0.08   0.78
sdh               0.00     0.13    0.02    0.23     2.19     5.01    56.82     0.00    1.15    0.65    1.19   0.21   0.01
md0               0.00     0.00 10603.23  475.15 146035.48 21239.92    30.20     0.00    0.00    0.00    0.00   0.00   0.00

avg-cpu:  %user   %nice %system %iowait  %steal   %idle
           2.20    0.03   12.68   44.48    0.00   40.61

Device:         rrqm/s   wrqm/s     r/s     w/s    rkB/s    wkB/s avgrq-sz avgqu-sz   await r_await w_await  svctm  %util
sda               0.00     0.00 6917.90    0.00 27671.60     0.00     8.00     0.81    0.12    0.12    0.00   0.07  45.33
sdb               0.00     0.00 6880.30    0.00 27521.20     0.00     8.00     0.77    0.11    0.11    0.00   0.06  42.90
sdc               0.00     0.00 6856.45    0.00 27425.80     0.00     8.00     0.83    0.12    0.12    0.00   0.07  45.77
sdd               0.00     0.00 6912.05    0.00 27648.20     0.00     8.00     0.84    0.12    0.12    0.00   0.07  46.13
sde               0.00     0.00 6913.55    0.00 27654.20     0.00     8.00     0.84    0.12    0.12    0.00   0.07  46.69
sdf               0.00     0.00 6907.95    0.00 27631.80     0.00     8.00     0.85    0.12    0.12    0.00   0.07  46.83
sdg               0.00    11.65    2.65  130.45    28.00   645.00    10.11     0.79    5.90    0.15    6.02   0.05   0.60
sdh               0.00     0.00    0.00    0.00     0.00     0.00     0.00     0.00    0.00    0.00    0.00   0.00   0.00
md0               0.00     0.00 41388.50    0.00 165554.00     0.00     8.00     0.00    0.00    0.00    0.00   0.00   0.00

