Linux 4.17.2 (bench) 	08/03/2018 	_x86_64_	(4 CPU)

avg-cpu:  %user   %nice %system %iowait  %steal   %idle
          10.27    0.02    4.11    2.63    0.00   82.98

Device:         rrqm/s   wrqm/s     r/s     w/s    rkB/s    wkB/s avgrq-sz avgqu-sz   await r_await w_await  svctm  %util
sda              48.10     4.22 1684.31  101.99 21121.50  3120.80    27.14     1.04    0.58    0.26    5.92   0.06  10.85
sdb              47.96     4.18 1684.27  102.13 21111.04  3117.48    27.13     1.04    0.58    0.26    5.85   0.06  10.73
sdc              85.82     4.24 1644.31  101.68 21103.13  3119.93    27.75     1.46    0.84    0.45    7.12   0.08  14.21
sdd              79.28     4.21 1650.02  101.75 21088.03  3116.15    27.63     1.47    0.84    0.44    7.33   0.08  14.30
sde              81.30     4.25 1655.10  101.85 21147.63  3120.37    27.63     1.49    0.85    0.44    7.44   0.08  14.32
sdf              78.43     4.23 1657.23  101.79 21129.00  3117.25    27.57     1.53    0.87    0.44    7.90   0.08  14.35
sdg               0.00     3.17   26.50   73.30   324.76   392.05    14.36     0.44    4.41    0.20    5.93   0.08   0.78
sdh               0.00     0.13    0.02    0.23     2.20     5.04    56.82     0.00    1.15    0.65    1.19   0.21   0.01
md0               0.00     0.00 10403.14  477.87 144724.34 21361.46    30.53     0.00    0.00    0.00    0.00   0.00   0.00

avg-cpu:  %user   %nice %system %iowait  %steal   %idle
           0.51    0.00   10.41   55.33    0.00   33.76

Device:         rrqm/s   wrqm/s     r/s     w/s    rkB/s    wkB/s avgrq-sz avgqu-sz   await r_await w_await  svctm  %util
sda              55.00     0.00 5051.00    0.00 128864.00     0.00    51.03     1.25    0.25    0.25    0.00   0.13  65.90
sdb              44.00     0.00 5209.00    0.00 130008.00     0.00    49.92     1.30    0.25    0.25    0.00   0.13  66.20
sdc              50.00     0.00 4866.00    0.00 130028.00     0.00    53.44     1.85    0.38    0.38    0.00   0.16  78.90
sdd              45.00     0.00 4860.00    0.00 126736.00     0.00    52.15     1.86    0.38    0.38    0.00   0.16  80.00
sde              49.00     0.00 4980.00    0.00 126544.00     0.00    50.82     1.83    0.37    0.37    0.00   0.16  79.80
sdf              47.00     0.00 4892.00    0.00 125840.00     0.00    51.45     1.79    0.36    0.36    0.00   0.16  79.90
sdg               0.00     2.00    0.00    8.00     0.00   148.00    37.00     0.00    0.12    0.00    0.12   0.12   0.10
sdh               0.00     0.00    0.00    0.00     0.00     0.00     0.00     0.00    0.00    0.00    0.00   0.00   0.00
md0               0.00     0.00 30184.00    0.00 929084.00     0.00    61.56     0.00    0.00    0.00    0.00   0.00   0.00

avg-cpu:  %user   %nice %system %iowait  %steal   %idle
           0.50    0.00   11.06   56.28    0.00   32.16

Device:         rrqm/s   wrqm/s     r/s     w/s    rkB/s    wkB/s avgrq-sz avgqu-sz   await r_await w_await  svctm  %util
sda              46.00     0.00 4920.00    0.00 123452.00     0.00    50.18     1.17    0.24    0.24    0.00   0.13  64.00
sdb              44.00     0.00 5124.00    0.00 126928.00     0.00    49.54     1.23    0.24    0.24    0.00   0.13  65.90
sdc              43.00     0.00 5086.00    0.00 127100.00     0.00    49.98     1.80    0.36    0.36    0.00   0.16  81.30
sdd              45.00     0.00 4892.00    0.00 127816.00     0.00    52.26     1.72    0.35    0.35    0.00   0.16  79.70
sde              44.00     0.00 4931.00    0.00 129320.00     0.00    52.45     1.88    0.38    0.38    0.00   0.16  81.30
sdf              44.00     0.00 4922.00    0.00 133464.00     0.00    54.23     1.96    0.40    0.40    0.00   0.17  82.60
sdg               0.00     0.00    0.00    0.00     0.00     0.00     0.00     0.00    0.00    0.00    0.00   0.00   0.00
sdh               0.00     0.00    0.00    0.00     0.00     0.00     0.00     0.00    0.00    0.00    0.00   0.00   0.00
md0               0.00     0.00 30145.00    0.00 898180.00     0.00    59.59     0.00    0.00    0.00    0.00   0.00   0.00

