Linux 4.17.2 (bench) 	08/03/2018 	_x86_64_	(4 CPU)

avg-cpu:  %user   %nice %system %iowait  %steal   %idle
          10.26    0.02    4.16    2.71    0.00   82.85

Device:         rrqm/s   wrqm/s     r/s     w/s    rkB/s    wkB/s avgrq-sz avgqu-sz   await r_await w_await  svctm  %util
sda              52.84     4.19 1718.89  101.29 21311.60  3099.35    26.82     1.05    0.58    0.26    5.92   0.06  11.00
sdb              52.64     4.15 1718.89  101.43 21301.11  3096.05    26.81     1.05    0.57    0.26    5.85   0.06  10.88
sdc              90.45     4.21 1678.99  100.98 21293.30  3098.48    27.41     1.47    0.82    0.45    7.12   0.08  14.37
sdd              83.96     4.18 1684.65  101.05 21278.29  3094.73    27.30     1.47    0.83    0.44    7.33   0.08  14.47
sde              85.96     4.22 1689.73  101.15 21337.70  3098.92    27.29     1.49    0.83    0.44    7.44   0.08  14.49
sdf              83.11     4.20 1691.85  101.09 21319.14  3095.82    27.23     1.54    0.86    0.44    7.90   0.08  14.52
sdg               0.00     3.17   26.76   73.27   325.79   392.02    14.35     0.44    4.40    0.20    5.93   0.08   0.78
sdh               0.00     0.13    0.02    0.23     2.18     5.00    56.82     0.00    1.15    0.65    1.19   0.21   0.01
md0               0.00     0.00 10639.35  474.59 146056.59 21214.63    30.10     0.00    0.00    0.00    0.00   0.00   0.00

avg-cpu:  %user   %nice %system %iowait  %steal   %idle
           0.26    0.00    1.28    1.53    0.00   96.94

Device:         rrqm/s   wrqm/s     r/s     w/s    rkB/s    wkB/s avgrq-sz avgqu-sz   await r_await w_await  svctm  %util
sda               0.00     0.00 1511.00    0.00  6044.00     0.00     8.00     0.14    0.09    0.09    0.00   0.09  13.60
sdb               0.00     0.00 1504.00    0.00  6016.00     0.00     8.00     0.14    0.10    0.10    0.00   0.10  14.30
sdc               0.00     0.00 1509.00    0.00  6036.00     0.00     8.00     0.16    0.10    0.10    0.00   0.10  15.60
sdd               0.00     0.00 1513.00    0.00  6052.00     0.00     8.00     0.15    0.10    0.10    0.00   0.10  14.80
sde               0.00     0.00 1568.00    0.00  6272.00     0.00     8.00     0.19    0.12    0.12    0.00   0.12  18.80
sdf               0.00     0.00 1562.00    0.00  6248.00     0.00     8.00     0.18    0.12    0.12    0.00   0.12  18.10
sdg               0.00     2.00    2.00   12.00    44.00   168.00    30.29     0.00    0.21    0.00    0.25   0.07   0.10
sdh               0.00     0.00    0.00    0.00     0.00     0.00     0.00     0.00    0.00    0.00    0.00   0.00   0.00
md0               0.00     0.00 9169.00    0.00 36676.00     0.00     8.00     0.00    0.00    0.00    0.00   0.00   0.00

avg-cpu:  %user   %nice %system %iowait  %steal   %idle
           0.00    0.00    1.03    1.28    0.00   97.69

Device:         rrqm/s   wrqm/s     r/s     w/s    rkB/s    wkB/s avgrq-sz avgqu-sz   await r_await w_await  svctm  %util
sda               0.00     0.00 1516.00    0.00  6064.00     0.00     8.00     0.16    0.10    0.10    0.00   0.10  15.60
sdb               0.00     0.00 1485.00    0.00  5940.00     0.00     8.00     0.14    0.09    0.09    0.00   0.09  14.10
sdc               0.00     0.00 1506.00    0.00  6024.00     0.00     8.00     0.17    0.11    0.11    0.00   0.11  17.20
sdd               0.00     0.00 1519.00    0.00  6076.00     0.00     8.00     0.17    0.11    0.11    0.00   0.11  17.00
sde               0.00     0.00 1547.00    0.00  6188.00     0.00     8.00     0.15    0.10    0.10    0.00   0.10  15.50
sdf               0.00     0.00 1528.00    0.00  6112.00     0.00     8.00     0.16    0.10    0.10    0.00   0.10  15.70
sdg               0.00     0.00    0.00    0.00     0.00     0.00     0.00     0.00    0.00    0.00    0.00   0.00   0.00
sdh               0.00     0.00    0.00    0.00     0.00     0.00     0.00     0.00    0.00    0.00    0.00   0.00   0.00
md0               0.00     0.00 9101.00    0.00 36404.00     0.00     8.00     0.00    0.00    0.00    0.00   0.00   0.00

avg-cpu:  %user   %nice %system %iowait  %steal   %idle
           0.00    0.00    1.28    1.03    0.00   97.69

Device:         rrqm/s   wrqm/s     r/s     w/s    rkB/s    wkB/s avgrq-sz avgqu-sz   await r_await w_await  svctm  %util
sda               0.00     0.00 1499.00    0.00  5996.00     0.00     8.00     0.15    0.10    0.10    0.00   0.10  15.50
sdb               0.00     0.00 1544.00    0.00  6176.00     0.00     8.00     0.16    0.11    0.11    0.00   0.11  16.30
sdc               0.00     0.00 1554.00    0.00  6216.00     0.00     8.00     0.17    0.11    0.11    0.00   0.11  16.60
sdd               0.00     0.00 1558.00    0.00  6232.00     0.00     8.00     0.15    0.09    0.09    0.00   0.09  14.60
sde               0.00     0.00 1482.00    0.00  5928.00     0.00     8.00     0.17    0.11    0.11    0.00   0.11  16.50
sdf               0.00     0.00 1468.00    0.00  5872.00     0.00     8.00     0.17    0.11    0.11    0.00   0.11  16.50
sdg               0.00     0.00    0.00    0.00     0.00     0.00     0.00     0.00    0.00    0.00    0.00   0.00   0.00
sdh               0.00     0.00    0.00    0.00     0.00     0.00     0.00     0.00    0.00    0.00    0.00   0.00   0.00
md0               0.00     0.00 9105.00    0.00 36420.00     0.00     8.00     0.00    0.00    0.00    0.00   0.00   0.00

avg-cpu:  %user   %nice %system %iowait  %steal   %idle
           0.00    0.00    1.02    1.28    0.00   97.70

Device:         rrqm/s   wrqm/s     r/s     w/s    rkB/s    wkB/s avgrq-sz avgqu-sz   await r_await w_await  svctm  %util
sda               0.00     0.00 1572.00    0.00  6288.00     0.00     8.00     0.16    0.10    0.10    0.00   0.10  16.20
sdb               0.00     0.00 1574.00    0.00  6296.00     0.00     8.00     0.16    0.10    0.10    0.00   0.10  15.70
sdc               0.00     0.00 1567.00    0.00  6268.00     0.00     8.00     0.18    0.11    0.11    0.00   0.11  17.90
sdd               0.00     0.00 1513.00    0.00  6052.00     0.00     8.00     0.17    0.11    0.11    0.00   0.11  16.90
sde               0.00     0.00 1475.00    0.00  5900.00     0.00     8.00     0.15    0.10    0.10    0.00   0.10  14.60
sdf               0.00     0.00 1426.00    0.00  5704.00     0.00     8.00     0.15    0.10    0.10    0.00   0.10  14.70
sdg               0.00     0.00    0.00    0.00     0.00     0.00     0.00     0.00    0.00    0.00    0.00   0.00   0.00
sdh               0.00     0.00    0.00    0.00     0.00     0.00     0.00     0.00    0.00    0.00    0.00   0.00   0.00
md0               0.00     0.00 9127.00    0.00 36508.00     0.00     8.00     0.00    0.00    0.00    0.00   0.00   0.00

avg-cpu:  %user   %nice %system %iowait  %steal   %idle
           0.00    0.00    1.28    1.03    0.00   97.69

Device:         rrqm/s   wrqm/s     r/s     w/s    rkB/s    wkB/s avgrq-sz avgqu-sz   await r_await w_await  svctm  %util
sda               0.00     0.00 1500.00    0.00  6000.00     0.00     8.00     0.14    0.09    0.09    0.00   0.09  14.00
sdb               0.00     0.00 1479.00    0.00  5916.00     0.00     8.00     0.14    0.10    0.10    0.00   0.10  14.40
sdc               0.00     0.00 1527.00    0.00  6108.00     0.00     8.00     0.17    0.11    0.11    0.00   0.11  17.40
sdd               0.00     0.00 1475.00    0.00  5900.00     0.00     8.00     0.16    0.11    0.11    0.00   0.11  15.90
sde               0.00     0.00 1575.00    0.00  6300.00     0.00     8.00     0.16    0.10    0.10    0.00   0.10  16.00
sdf               0.00     0.00 1551.00    0.00  6204.00     0.00     8.00     0.18    0.12    0.12    0.00   0.12  18.10
sdg               0.00     0.00    0.00    0.00     0.00     0.00     0.00     0.00    0.00    0.00    0.00   0.00   0.00
sdh               0.00     0.00    0.00    0.00     0.00     0.00     0.00     0.00    0.00    0.00    0.00   0.00   0.00
md0               0.00     0.00 9106.00    0.00 36424.00     0.00     8.00     0.00    0.00    0.00    0.00   0.00   0.00

avg-cpu:  %user   %nice %system %iowait  %steal   %idle
           0.00    0.00    1.02    1.28    0.00   97.70

Device:         rrqm/s   wrqm/s     r/s     w/s    rkB/s    wkB/s avgrq-sz avgqu-sz   await r_await w_await  svctm  %util
sda               0.00     0.00 1492.00    0.00  5968.00     0.00     8.00     0.14    0.09    0.09    0.00   0.09  14.10
sdb               0.00     0.00 1488.00    0.00  5952.00     0.00     8.00     0.15    0.10    0.10    0.00   0.10  15.10
sdc               0.00     0.00 1582.00    0.00  6328.00     0.00     8.00     0.17    0.11    0.11    0.00   0.11  17.20
sdd               0.00     0.00 1567.00    0.00  6268.00     0.00     8.00     0.17    0.11    0.11    0.00   0.11  17.20
sde               0.00     0.00 1478.00    0.00  5912.00     0.00     8.00     0.15    0.10    0.10    0.00   0.10  15.30
sdf               0.00     0.00 1512.00    0.00  6048.00     0.00     8.00     0.17    0.11    0.11    0.00   0.11  17.00
sdg               0.00     0.00    0.00    0.00     0.00     0.00     0.00     0.00    0.00    0.00    0.00   0.00   0.00
sdh               0.00     0.00    0.00    0.00     0.00     0.00     0.00     0.00    0.00    0.00    0.00   0.00   0.00
md0               0.00     0.00 9120.00    0.00 36480.00     0.00     8.00     0.00    0.00    0.00    0.00   0.00   0.00

avg-cpu:  %user   %nice %system %iowait  %steal   %idle
           0.26    0.00    1.54    1.03    0.00   97.18

Device:         rrqm/s   wrqm/s     r/s     w/s    rkB/s    wkB/s avgrq-sz avgqu-sz   await r_await w_await  svctm  %util
sda               0.00     0.00 1517.00    0.00  6068.00     0.00     8.00     0.15    0.10    0.10    0.00   0.10  14.90
sdb               0.00     0.00 1480.00    0.00  5920.00     0.00     8.00     0.14    0.10    0.10    0.00   0.10  14.20
sdc               0.00     0.00 1572.00    0.00  6288.00     0.00     8.00     0.17    0.11    0.11    0.00   0.11  16.90
sdd               0.00     0.00 1487.00    0.00  5948.00     0.00     8.00     0.15    0.10    0.10    0.00   0.10  15.10
sde               0.00     0.00 1483.00    0.00  5932.00     0.00     8.00     0.15    0.10    0.10    0.00   0.10  15.20
sdf               0.00     0.00 1563.00    0.00  6252.00     0.00     8.00     0.19    0.12    0.12    0.00   0.12  18.60
sdg               0.00     0.00   38.00    0.00   464.00     0.00    24.42     0.01    0.24    0.24    0.00   0.21   0.80
sdh               0.00     0.00    0.00    0.00     0.00     0.00     0.00     0.00    0.00    0.00    0.00   0.00   0.00
md0               0.00     0.00 9102.00    0.00 36408.00     0.00     8.00     0.00    0.00    0.00    0.00   0.00   0.00

avg-cpu:  %user   %nice %system %iowait  %steal   %idle
           0.00    0.00    1.78    1.27    0.00   96.95

Device:         rrqm/s   wrqm/s     r/s     w/s    rkB/s    wkB/s avgrq-sz avgqu-sz   await r_await w_await  svctm  %util
sda               0.00     0.00 1553.00    0.00  6212.00     0.00     8.00     0.14    0.09    0.09    0.00   0.09  14.30
sdb               0.00     0.00 1516.00    0.00  6064.00     0.00     8.00     0.14    0.10    0.10    0.00   0.10  14.50
sdc               0.00     0.00 1504.00    0.00  6016.00     0.00     8.00     0.18    0.12    0.12    0.00   0.12  17.90
sdd               0.00     0.00 1481.00    0.00  5924.00     0.00     8.00     0.16    0.11    0.11    0.00   0.11  15.80
sde               0.00     0.00 1533.00    0.00  6132.00     0.00     8.00     0.15    0.10    0.10    0.00   0.10  14.60
sdf               0.00     0.00 1552.00    0.00  6208.00     0.00     8.00     0.18    0.11    0.11    0.00   0.11  17.70
sdg               0.00     0.00    0.00    0.00     0.00     0.00     0.00     0.00    0.00    0.00    0.00   0.00   0.00
sdh               0.00     0.00    0.00    0.00     0.00     0.00     0.00     0.00    0.00    0.00    0.00   0.00   0.00
md0               0.00     0.00 9139.00    0.00 36556.00     0.00     8.00     0.00    0.00    0.00    0.00   0.00   0.00

avg-cpu:  %user   %nice %system %iowait  %steal   %idle
           0.00    0.00    1.28    1.03    0.00   97.69

Device:         rrqm/s   wrqm/s     r/s     w/s    rkB/s    wkB/s avgrq-sz avgqu-sz   await r_await w_await  svctm  %util
sda               0.00     0.00 1493.00    0.00  5972.00     0.00     8.00     0.15    0.10    0.10    0.00   0.10  14.90
sdb               0.00     0.00 1541.00    0.00  6164.00     0.00     8.00     0.14    0.09    0.09    0.00   0.09  14.50
sdc               0.00     0.00 1553.00    0.00  6212.00     0.00     8.00     0.16    0.10    0.10    0.00   0.10  15.90
sdd               0.00     0.00 1559.00    0.00  6236.00     0.00     8.00     0.18    0.12    0.12    0.00   0.12  18.00
sde               0.00     0.00 1476.00    0.00  5904.00     0.00     8.00     0.16    0.11    0.11    0.00   0.11  16.40
sdf               0.00     0.00 1484.00    0.00  5936.00     0.00     8.00     0.16    0.11    0.11    0.00   0.11  15.80
sdg               0.00     0.00    0.00    0.00     0.00     0.00     0.00     0.00    0.00    0.00    0.00   0.00   0.00
sdh               0.00     0.00    0.00    0.00     0.00     0.00     0.00     0.00    0.00    0.00    0.00   0.00   0.00
md0               0.00     0.00 9105.00    0.00 36420.00     0.00     8.00     0.00    0.00    0.00    0.00   0.00   0.00

avg-cpu:  %user   %nice %system %iowait  %steal   %idle
           0.00    0.00    1.02    1.53    0.00   97.44

Device:         rrqm/s   wrqm/s     r/s     w/s    rkB/s    wkB/s avgrq-sz avgqu-sz   await r_await w_await  svctm  %util
sda               0.00     0.00 1522.00    0.00  6088.00     0.00     8.00     0.14    0.09    0.09    0.00   0.09  14.10
sdb               0.00     0.00 1501.00    0.00  6008.00     0.00     8.01     0.16    0.11    0.11    0.00   0.11  15.80
sdc               0.00     0.00 1547.00    0.00  6188.00     0.00     8.00     0.16    0.10    0.10    0.00   0.10  16.10
sdd               0.00     0.00 1525.00    0.00  6100.00     0.00     8.00     0.16    0.10    0.10    0.00   0.10  15.70
sde               0.00     0.00 1537.00    0.00  6148.00     0.00     8.00     0.17    0.11    0.11    0.00   0.11  17.20
sdf               0.00     0.00 1501.00    0.00  6004.00     0.00     8.00     0.17    0.11    0.11    0.00   0.11  16.70
sdg               0.00     0.00    0.00    0.00     0.00     0.00     0.00     0.00    0.00    0.00    0.00   0.00   0.00
sdh               0.00     0.00    0.00    0.00     0.00     0.00     0.00     0.00    0.00    0.00    0.00   0.00   0.00
md0               0.00     0.00 9135.00    0.00 36540.00     0.00     8.00     0.00    0.00    0.00    0.00   0.00   0.00

avg-cpu:  %user   %nice %system %iowait  %steal   %idle
           0.00    0.00    2.53   21.72    0.00   75.76

Device:         rrqm/s   wrqm/s     r/s     w/s    rkB/s    wkB/s avgrq-sz avgqu-sz   await r_await w_await  svctm  %util
sda               0.00     0.00 1547.00    0.00  6188.00     0.00     8.00     0.15    0.10    0.10    0.00   0.10  15.30
sdb               0.00     0.00 1524.00    0.00  6092.00     0.00     7.99     0.15    0.10    0.10    0.00   0.10  15.20
sdc               0.00     0.00 1525.00    0.00  6100.00     0.00     8.00     0.16    0.10    0.10    0.00   0.10  16.00
sdd               0.00     0.00 1477.00    0.00  5908.00     0.00     8.00     0.16    0.11    0.11    0.00   0.11  16.30
sde               0.00     0.00 1549.00    0.00  6196.00     0.00     8.00     0.17    0.11    0.11    0.00   0.11  17.10
sdf               0.00     0.00 1511.00    0.00  6044.00     0.00     8.00     0.16    0.11    0.11    0.00   0.11  16.30
sdg               0.00     0.00    0.00    0.00     0.00     0.00     0.00     0.00    0.00    0.00    0.00   0.00   0.00
sdh               0.00     0.00    0.00    0.00     0.00     0.00     0.00     0.00    0.00    0.00    0.00   0.00   0.00
md0               0.00     0.00 9132.00    0.00 36528.00     0.00     8.00     0.00    0.00    0.00    0.00   0.00   0.00

avg-cpu:  %user   %nice %system %iowait  %steal   %idle
           0.25    0.00    1.78   22.08    0.00   75.89

Device:         rrqm/s   wrqm/s     r/s     w/s    rkB/s    wkB/s avgrq-sz avgqu-sz   await r_await w_await  svctm  %util
sda               0.00     0.00 1540.00    0.00  6160.00     0.00     8.00     0.15    0.10    0.10    0.00   0.10  15.00
sdb               0.00     0.00 1574.00    0.00  6296.00     0.00     8.00     0.16    0.10    0.10    0.00   0.10  15.60
sdc               0.00     0.00 1491.00    0.00  5964.00     0.00     8.00     0.16    0.11    0.11    0.00   0.11  16.10
sdd               0.00     0.00 1550.00    0.00  6200.00     0.00     8.00     0.16    0.10    0.10    0.00   0.10  16.10
sde               0.00     0.00 1464.00    0.00  5856.00     0.00     8.00     0.14    0.10    0.10    0.00   0.10  14.20
sdf               0.00     0.00 1502.00    0.00  6008.00     0.00     8.00     0.18    0.12    0.12    0.00   0.12  18.20
sdg               0.00     0.00    0.00    0.00     0.00     0.00     0.00     0.00    0.00    0.00    0.00   0.00   0.00
sdh               0.00     0.00    0.00    0.00     0.00     0.00     0.00     0.00    0.00    0.00    0.00   0.00   0.00
md0               0.00     0.00 9121.00    0.00 36484.00     0.00     8.00     0.00    0.00    0.00    0.00   0.00   0.00

avg-cpu:  %user   %nice %system %iowait  %steal   %idle
           0.00    0.00    2.03   21.83    0.00   76.14

Device:         rrqm/s   wrqm/s     r/s     w/s    rkB/s    wkB/s avgrq-sz avgqu-sz   await r_await w_await  svctm  %util
sda               0.00     0.00 1462.00    0.00  5848.00     0.00     8.00     0.15    0.10    0.10    0.00   0.10  14.80
sdb               0.00     0.00 1550.00    0.00  6200.00     0.00     8.00     0.16    0.10    0.10    0.00   0.10  16.20
sdc               0.00     0.00 1498.00    0.00  5992.00     0.00     8.00     0.14    0.09    0.09    0.00   0.09  13.80
sdd               0.00     0.00 1563.00    0.00  6252.00     0.00     8.00     0.17    0.11    0.11    0.00   0.11  16.70
sde               0.00     0.00 1512.00    0.00  6048.00     0.00     8.00     0.16    0.11    0.11    0.00   0.11  16.20
sdf               0.00     0.00 1518.00    0.00  6072.00     0.00     8.00     0.18    0.12    0.12    0.00   0.12  17.70
sdg               0.00     0.00    0.00    0.00     0.00     0.00     0.00     0.00    0.00    0.00    0.00   0.00   0.00
sdh               0.00     0.00    0.00    0.00     0.00     0.00     0.00     0.00    0.00    0.00    0.00   0.00   0.00
md0               0.00     0.00 9102.00    0.00 36408.00     0.00     8.00     0.00    0.00    0.00    0.00   0.00   0.00

avg-cpu:  %user   %nice %system %iowait  %steal   %idle
           0.00    0.00    2.53   21.72    0.00   75.76

Device:         rrqm/s   wrqm/s     r/s     w/s    rkB/s    wkB/s avgrq-sz avgqu-sz   await r_await w_await  svctm  %util
sda               0.00     0.00 1540.00    0.00  6160.00     0.00     8.00     0.17    0.11    0.11    0.00   0.11  16.80
sdb               0.00     0.00 1496.00    0.00  5984.00     0.00     8.00     0.17    0.11    0.11    0.00   0.11  16.80
sdc               0.00     0.00 1520.00    0.00  6080.00     0.00     8.00     0.14    0.09    0.09    0.00   0.09  14.10
sdd               0.00     0.00 1519.00    0.00  6076.00     0.00     8.00     0.15    0.10    0.10    0.00   0.10  15.50
sde               0.00     0.00 1501.00    0.00  6004.00     0.00     8.00     0.15    0.10    0.10    0.00   0.10  15.40
sdf               0.00     0.00 1551.00    0.00  6204.00     0.00     8.00     0.16    0.11    0.11    0.00   0.11  16.30
sdg               0.00     0.00    0.00    0.00     0.00     0.00     0.00     0.00    0.00    0.00    0.00   0.00   0.00
sdh               0.00     0.00    0.00    0.00     0.00     0.00     0.00     0.00    0.00    0.00    0.00   0.00   0.00
md0               0.00     0.00 9128.00    0.00 36512.00     0.00     8.00     0.00    0.00    0.00    0.00   0.00   0.00

avg-cpu:  %user   %nice %system %iowait  %steal   %idle
           0.00    0.00    2.28   22.03    0.00   75.70

Device:         rrqm/s   wrqm/s     r/s     w/s    rkB/s    wkB/s avgrq-sz avgqu-sz   await r_await w_await  svctm  %util
sda               0.00     0.00 1462.00    0.00  5848.00     0.00     8.00     0.14    0.09    0.09    0.00   0.09  13.50
sdb               0.00     0.00 1501.00    0.00  6004.00     0.00     8.00     0.15    0.10    0.10    0.00   0.10  14.90
sdc               0.00     0.00 1577.00    0.00  6308.00     0.00     8.00     0.18    0.12    0.12    0.00   0.12  18.30
sdd               0.00     0.00 1558.00    0.00  6232.00     0.00     8.00     0.16    0.11    0.11    0.00   0.11  16.40
sde               0.00     0.00 1487.00    0.00  5948.00     0.00     8.00     0.16    0.11    0.11    0.00   0.11  16.10
sdf               0.00     0.00 1534.00    0.00  6136.00     0.00     8.00     0.16    0.11    0.11    0.00   0.11  16.40
sdg               0.00     1.00    5.00 1423.00    20.00  7404.00    10.40     8.86    6.21    1.60    6.22   0.05   6.70
sdh               0.00     0.00    0.00    0.00     0.00     0.00     0.00     0.00    0.00    0.00    0.00   0.00   0.00
md0               0.00     0.00 9119.00    0.00 36476.00     0.00     8.00     0.00    0.00    0.00    0.00   0.00   0.00

avg-cpu:  %user   %nice %system %iowait  %steal   %idle
           0.00    0.00    2.03   21.83    0.00   76.14

Device:         rrqm/s   wrqm/s     r/s     w/s    rkB/s    wkB/s avgrq-sz avgqu-sz   await r_await w_await  svctm  %util
sda               0.00     0.00 1467.00    0.00  5868.00     0.00     8.00     0.16    0.11    0.11    0.00   0.11  16.00
sdb               0.00     0.00 1530.00    0.00  6120.00     0.00     8.00     0.15    0.10    0.10    0.00   0.10  14.80
sdc               0.00     0.00 1462.00    0.00  5848.00     0.00     8.00     0.17    0.12    0.12    0.00   0.12  17.00
sdd               0.00     0.00 1493.00    0.00  5972.00     0.00     8.00     0.16    0.11    0.11    0.00   0.11  15.90
sde               0.00     0.00 1561.00    0.00  6244.00     0.00     8.00     0.14    0.09    0.09    0.00   0.09  14.50
sdf               0.00     0.00 1586.00    0.00  6344.00     0.00     8.00     0.17    0.11    0.11    0.00   0.11  17.20
sdg               0.00     0.00    0.00    0.00     0.00     0.00     0.00     0.00    0.00    0.00    0.00   0.00   0.00
sdh               0.00     0.00    0.00    0.00     0.00     0.00     0.00     0.00    0.00    0.00    0.00   0.00   0.00
md0               0.00     0.00 9099.00    0.00 36396.00     0.00     8.00     0.00    0.00    0.00    0.00   0.00   0.00

avg-cpu:  %user   %nice %system %iowait  %steal   %idle
           0.25    0.25    2.53   21.72    0.00   75.25

Device:         rrqm/s   wrqm/s     r/s     w/s    rkB/s    wkB/s avgrq-sz avgqu-sz   await r_await w_await  svctm  %util
sda               0.00     0.00 1483.00    0.00  5932.00     0.00     8.00     0.15    0.10    0.10    0.00   0.10  15.40
sdb               0.00     0.00 1538.00    0.00  6152.00     0.00     8.00     0.15    0.10    0.10    0.00   0.10  14.70
sdc               0.00     0.00 1490.00    0.00  5960.00     0.00     8.00     0.17    0.11    0.11    0.00   0.11  16.50
sdd               0.00     0.00 1521.00    0.00  6084.00     0.00     8.00     0.17    0.11    0.11    0.00   0.11  16.60
sde               0.00     0.00 1519.00    0.00  6076.00     0.00     8.00     0.16    0.11    0.11    0.00   0.11  16.10
sdf               0.00     0.00 1567.00    0.00  6268.00     0.00     8.00     0.15    0.10    0.10    0.00   0.10  15.40
sdg               0.00     0.00    1.00    0.00     4.00     0.00     8.00     0.00    0.00    0.00    0.00   0.00   0.00
sdh               0.00     0.00    0.00    0.00     0.00     0.00     0.00     0.00    0.00    0.00    0.00   0.00   0.00
md0               0.00     0.00 9117.00    0.00 36468.00     0.00     8.00     0.00    0.00    0.00    0.00   0.00   0.00

avg-cpu:  %user   %nice %system %iowait  %steal   %idle
           0.00    0.00    1.78   12.18    0.00   86.04

Device:         rrqm/s   wrqm/s     r/s     w/s    rkB/s    wkB/s avgrq-sz avgqu-sz   await r_await w_await  svctm  %util
sda               0.00     0.00 1541.00    0.00  6164.00     0.00     8.00     0.18    0.12    0.12    0.00   0.12  18.00
sdb               0.00     0.00 1469.00    0.00  5876.00     0.00     8.00     0.12    0.08    0.08    0.00   0.08  11.90
sdc               0.00     0.00 1463.00    0.00  5852.00     0.00     8.00     0.16    0.11    0.11    0.00   0.11  15.70
sdd               0.00     0.00 1451.00    0.00  5804.00     0.00     8.00     0.16    0.11    0.11    0.00   0.11  16.20
sde               0.00     0.00 1590.00    0.00  6360.00     0.00     8.00     0.16    0.10    0.10    0.00   0.10  16.30
sdf               0.00     0.00 1510.00    0.00  6040.00     0.00     8.00     0.17    0.11    0.11    0.00   0.11  17.00
sdg               0.00     0.00    0.00    0.00     0.00     0.00     0.00     0.00    0.00    0.00    0.00   0.00   0.00
sdh               0.00     0.00    0.00    0.00     0.00     0.00     0.00     0.00    0.00    0.00    0.00   0.00   0.00
md0               0.00     0.00 9025.00    0.00 36100.00     0.00     8.00     0.00    0.00    0.00    0.00   0.00   0.00

avg-cpu:  %user   %nice %system %iowait  %steal   %idle
           0.00    0.00    1.28    1.02    0.00   97.70

Device:         rrqm/s   wrqm/s     r/s     w/s    rkB/s    wkB/s avgrq-sz avgqu-sz   await r_await w_await  svctm  %util
sda               0.00     0.00 1494.00    0.00  5976.00     0.00     8.00     0.15    0.10    0.10    0.00   0.10  14.60
sdb               0.00     0.00 1558.00    0.00  6232.00     0.00     8.00     0.17    0.11    0.11    0.00   0.11  16.60
sdc               0.00     0.00 1536.00    0.00  6144.00     0.00     8.00     0.16    0.10    0.10    0.00   0.10  16.00
sdd               0.00     0.00 1484.00    0.00  5936.00     0.00     8.00     0.16    0.11    0.11    0.00   0.11  16.00
sde               0.00     0.00 1575.00    0.00  6300.00     0.00     8.00     0.17    0.11    0.11    0.00   0.10  16.50
sdf               0.00     0.00 1526.00    0.00  6104.00     0.00     8.00     0.16    0.11    0.11    0.00   0.11  16.20
sdg               0.00     0.00    0.00    0.00     0.00     0.00     0.00     0.00    0.00    0.00    0.00   0.00   0.00
sdh               0.00     0.00    0.00    0.00     0.00     0.00     0.00     0.00    0.00    0.00    0.00   0.00   0.00
md0               0.00     0.00 9173.00    0.00 36692.00     0.00     8.00     0.00    0.00    0.00    0.00   0.00   0.00

avg-cpu:  %user   %nice %system %iowait  %steal   %idle
           0.00    0.00    1.03    1.28    0.00   97.69

Device:         rrqm/s   wrqm/s     r/s     w/s    rkB/s    wkB/s avgrq-sz avgqu-sz   await r_await w_await  svctm  %util
sda               0.00     0.00 1514.00    0.00  6056.00     0.00     8.00     0.15    0.10    0.10    0.00   0.10  15.00
sdb               0.00     0.00 1549.00    0.00  6196.00     0.00     8.00     0.16    0.10    0.10    0.00   0.10  16.10
sdc               0.00     0.00 1587.00    0.00  6348.00     0.00     8.00     0.15    0.10    0.10    0.00   0.10  15.30
sdd               0.00     0.00 1530.00    0.00  6120.00     0.00     8.00     0.16    0.10    0.10    0.00   0.10  16.00
sde               0.00     0.00 1504.00    0.00  6016.00     0.00     8.00     0.17    0.11    0.11    0.00   0.11  17.10
sdf               0.00     0.00 1446.00    0.00  5784.00     0.00     8.00     0.16    0.11    0.11    0.00   0.11  15.60
sdg               0.00     0.00    0.00    0.00     0.00     0.00     0.00     0.00    0.00    0.00    0.00   0.00   0.00
sdh               0.00     0.00    0.00    0.00     0.00     0.00     0.00     0.00    0.00    0.00    0.00   0.00   0.00
md0               0.00     0.00 9130.00    0.00 36520.00     0.00     8.00     0.00    0.00    0.00    0.00   0.00   0.00

