Linux 4.17.2 (bench) 	08/03/2018 	_x86_64_	(4 CPU)

avg-cpu:  %user   %nice %system %iowait  %steal   %idle
          10.27    0.02    4.09    2.61    0.00   83.01

Device:         rrqm/s   wrqm/s     r/s     w/s    rkB/s    wkB/s avgrq-sz avgqu-sz   await r_await w_await  svctm  %util
sda              47.06     4.23 1671.00  102.17 21025.27  3126.20    27.24     1.04    0.58    0.26    5.92   0.06  10.81
sdb              46.91     4.19 1670.95  102.31 21014.73  3122.88    27.22     1.03    0.58    0.26    5.85   0.06  10.68
sdc              84.78     4.25 1630.99  101.86 21006.87  3125.33    27.85     1.45    0.84    0.45    7.12   0.08  14.15
sdd              78.23     4.22 1636.72  101.93 20991.80  3121.54    27.74     1.46    0.84    0.44    7.33   0.08  14.24
sde              80.25     4.26 1641.79  102.02 21051.45  3125.77    27.73     1.48    0.85    0.44    7.44   0.08  14.26
sdf              77.37     4.23 1643.93  101.97 21032.74  3122.65    27.67     1.53    0.87    0.44    7.90   0.08  14.29
sdg               0.00     3.17   26.41   73.30   324.35   392.00    14.37     0.44    4.41    0.20    5.93   0.08   0.78
sdh               0.00     0.13    0.02    0.23     2.20     5.05    56.82     0.00    1.15    0.65    1.19   0.21   0.01
md0               0.00     0.00 10316.79  478.70 144027.41 21398.45    30.65     0.00    0.00    0.00    0.00   0.00   0.00

avg-cpu:  %user   %nice %system %iowait  %steal   %idle
           1.27    0.00   10.38   24.05    0.00   64.30

Device:         rrqm/s   wrqm/s     r/s     w/s    rkB/s    wkB/s avgrq-sz avgqu-sz   await r_await w_await  svctm  %util
sda              59.00     0.00 3471.00    0.00 109324.00     0.00    62.99     2.31    0.66    0.66    0.00   0.11  36.50
sdb              63.00     0.00 3705.00    0.00 113148.00     0.00    61.08     2.63    0.71    0.71    0.00   0.10  38.00
sdc              56.00     0.00 3615.00    0.00 111016.00     0.00    61.42     4.24    1.17    1.17    0.00   0.15  55.30
sdd              57.00     0.00 3603.00    0.00 113156.00     0.00    62.81     4.58    1.26    1.26    0.00   0.16  55.90
sde              72.00     0.00 3618.00    0.00 114352.00     0.00    63.21     4.51    1.25    1.25    0.00   0.16  57.20
sdf              67.00     0.00 3709.00    0.00 116592.00     0.00    62.87     4.78    1.29    1.29    0.00   0.15  57.20
sdg               0.00     0.00    3.00    0.00    88.00     0.00    58.67     0.00    0.33    0.33    0.00   0.33   0.10
sdh               0.00     0.00    0.00    0.00     0.00     0.00     0.00     0.00    0.00    0.00    0.00   0.00   0.00
md0               0.00     0.00 23900.00    0.00 804176.00     0.00    67.30     0.00    0.00    0.00    0.00   0.00   0.00

avg-cpu:  %user   %nice %system %iowait  %steal   %idle
           0.76    0.00    7.30   31.74    0.00   60.20

Device:         rrqm/s   wrqm/s     r/s     w/s    rkB/s    wkB/s avgrq-sz avgqu-sz   await r_await w_await  svctm  %util
sda             100.00     0.00 2545.00    0.00 90056.00     0.00    70.77     0.80    0.31    0.31    0.00   0.13  31.90
sdb             103.00     0.00 2523.00    0.00 89852.00     0.00    71.23     0.73    0.29    0.29    0.00   0.12  30.30
sdc             111.00     0.00 2489.00    0.00 94728.00     0.00    76.12     1.16    0.47    0.47    0.00   0.19  47.70
sdd             106.00     0.00 2412.00    0.00 94040.00     0.00    77.98     1.15    0.47    0.47    0.00   0.20  47.20
sde             112.00     0.00 2363.00    0.00 93296.00     0.00    78.96     1.12    0.47    0.47    0.00   0.20  48.30
sdf             108.00     0.00 2473.00    0.00 91932.00     0.00    74.35     1.11    0.45    0.45    0.00   0.19  46.70
sdg               0.00    57.00    0.00 2550.00     0.00 12664.00     9.93    16.08    6.31    0.00    6.31   0.05  11.60
sdh               0.00     0.00    0.00    0.00     0.00     0.00     0.00     0.00    0.00    0.00    0.00   0.00   0.00
md0               0.00     0.00 15644.00    0.00 752620.00     0.00    96.22     0.00    0.00    0.00    0.00   0.00   0.00

avg-cpu:  %user   %nice %system %iowait  %steal   %idle
           0.51    0.00    6.33   29.87    0.00   63.29

Device:         rrqm/s   wrqm/s     r/s     w/s    rkB/s    wkB/s avgrq-sz avgqu-sz   await r_await w_await  svctm  %util
sda             112.00     0.00 2347.00    0.00 89912.00     0.00    76.62     0.70    0.30    0.30    0.00   0.13  30.70
sdb             108.00     0.00 2363.00    0.00 89080.00     0.00    75.40     0.72    0.30    0.30    0.00   0.13  31.10
sdc             115.00     0.00 2355.00    0.00 89444.00     0.00    75.96     1.09    0.46    0.46    0.00   0.19  44.80
sdd             111.00     0.00 2276.00    0.00 90864.00     0.00    79.85     1.09    0.48    0.48    0.00   0.20  46.50
sde             108.00     0.00 2352.00    0.00 91224.00     0.00    77.57     1.03    0.44    0.44    0.00   0.20  46.20
sdf             108.00     0.00 2430.00    0.00 92412.00     0.00    76.06     1.13    0.47    0.47    0.00   0.19  46.20
sdg               0.00     0.00    0.00    0.00     0.00     0.00     0.00     0.00    0.00    0.00    0.00   0.00   0.00
sdh               0.00     0.00    0.00    0.00     0.00     0.00     0.00     0.00    0.00    0.00    0.00   0.00   0.00
md0               0.00     0.00 14821.00    0.00 720728.00     0.00    97.26     0.00    0.00    0.00    0.00   0.00   0.00

avg-cpu:  %user   %nice %system %iowait  %steal   %idle
           0.76    0.00    6.60   30.46    0.00   62.18

Device:         rrqm/s   wrqm/s     r/s     w/s    rkB/s    wkB/s avgrq-sz avgqu-sz   await r_await w_await  svctm  %util
sda             108.00     0.00 2510.00    0.00 87000.00     0.00    69.32     0.68    0.27    0.27    0.00   0.12  29.30
sdb             100.00     0.00 2730.00    0.00 89048.00     0.00    65.24     0.76    0.28    0.28    0.00   0.11  31.00
sdc              97.00     0.00 2629.00    0.00 85512.00     0.00    65.05     1.04    0.40    0.40    0.00   0.17  45.30
sdd              84.00     0.00 2847.00    0.00 84196.00     0.00    59.15     1.16    0.41    0.41    0.00   0.15  43.30
sde              89.00     0.00 2647.00    0.00 85084.00     0.00    64.29     1.11    0.42    0.42    0.00   0.17  44.30
sdf              98.00     0.00 2700.00    0.00 87440.00     0.00    64.77     1.15    0.42    0.42    0.00   0.17  46.10
sdg               0.00     0.00    0.00    0.00     0.00     0.00     0.00     0.00    0.00    0.00    0.00   0.00   0.00
sdh               0.00     0.00    0.00    0.00     0.00     0.00     0.00     0.00    0.00    0.00    0.00   0.00   0.00
md0               0.00     0.00 16640.00    0.00 669232.00     0.00    80.44     0.00    0.00    0.00    0.00   0.00   0.00

avg-cpu:  %user   %nice %system %iowait  %steal   %idle
           0.50    0.00    7.30   30.48    0.00   61.71

Device:         rrqm/s   wrqm/s     r/s     w/s    rkB/s    wkB/s avgrq-sz avgqu-sz   await r_await w_await  svctm  %util
sda             104.00     0.00 2529.00    0.00 93564.00     0.00    73.99     0.78    0.31    0.31    0.00   0.13  32.10
sdb             117.00     0.00 2565.00    0.00 95516.00     0.00    74.48     0.78    0.30    0.30    0.00   0.13  32.10
sdc             115.00     0.00 2466.00    0.00 96780.00     0.00    78.49     1.25    0.51    0.51    0.00   0.20  49.10
sdd             122.00     0.00 2410.00    0.00 95028.00     0.00    78.86     1.17    0.49    0.49    0.00   0.21  49.90
sde             122.00     0.00 2483.00    0.00 93276.00     0.00    75.13     1.18    0.47    0.47    0.00   0.19  47.90
sdf             115.00     0.00 2537.00    0.00 93192.00     0.00    73.47     1.20    0.47    0.47    0.00   0.19  48.80
sdg               0.00     0.00    0.00    0.00     0.00     0.00     0.00     0.00    0.00    0.00    0.00   0.00   0.00
sdh               0.00     0.00    0.00    0.00     0.00     0.00     0.00     0.00    0.00    0.00    0.00   0.00   0.00
md0               0.00     0.00 15746.00    0.00 752112.00     0.00    95.53     0.00    0.00    0.00    0.00   0.00   0.00

avg-cpu:  %user   %nice %system %iowait  %steal   %idle
           1.01    0.00    6.78   31.66    0.00   60.55

Device:         rrqm/s   wrqm/s     r/s     w/s    rkB/s    wkB/s avgrq-sz avgqu-sz   await r_await w_await  svctm  %util
sda             114.00     0.00 2529.00    0.00 93024.00     0.00    73.57     0.81    0.32    0.32    0.00   0.13  32.30
sdb             109.00     0.00 2658.00    0.00 91188.00     0.00    68.61     0.75    0.28    0.28    0.00   0.12  31.70
sdc             110.00     0.00 2728.00    0.00 92360.00     0.00    67.71     1.11    0.41    0.41    0.00   0.17  47.10
sdd              98.00     0.00 2607.00    0.00 91500.00     0.00    70.20     1.07    0.41    0.41    0.00   0.18  45.90
sde             104.00     0.00 2549.00    0.00 93504.00     0.00    73.37     1.17    0.46    0.46    0.00   0.18  46.70
sdf             111.00     0.00 2435.00    0.00 90580.00     0.00    74.40     1.06    0.43    0.43    0.00   0.19  45.70
sdg               0.00     0.00    0.00    0.00     0.00     0.00     0.00     0.00    0.00    0.00    0.00   0.00   0.00
sdh               0.00     0.00    0.00    0.00     0.00     0.00     0.00     0.00    0.00    0.00    0.00   0.00   0.00
md0               0.00     0.00 16158.00    0.00 731956.00     0.00    90.60     0.00    0.00    0.00    0.00   0.00   0.00

avg-cpu:  %user   %nice %system %iowait  %steal   %idle
           0.76    0.00    6.58   31.14    0.00   61.52

Device:         rrqm/s   wrqm/s     r/s     w/s    rkB/s    wkB/s avgrq-sz avgqu-sz   await r_await w_await  svctm  %util
sda             107.00     0.00 2556.00    0.00 88240.00     0.00    69.05     0.74    0.29    0.29    0.00   0.12  31.00
sdb             107.00     0.00 2542.00    0.00 92080.00     0.00    72.45     0.77    0.30    0.30    0.00   0.13  31.90
sdc             114.00     0.00 2422.00    0.00 89868.00     0.00    74.21     1.07    0.44    0.44    0.00   0.19  46.40
sdd             111.00     0.00 2540.00    0.00 92648.00     0.00    72.95     1.15    0.45    0.45    0.00   0.18  46.90
sde             114.00     0.00 2345.00    0.00 89908.00     0.00    76.68     1.12    0.48    0.48    0.00   0.21  48.30
sdf             113.00     0.00 2600.00    0.00 90920.00     0.00    69.94     1.18    0.45    0.45    0.00   0.18  46.30
sdg               0.00     0.00    8.00    2.00    32.00    12.00     8.80     0.00    0.10    0.12    0.00   0.10   0.10
sdh               0.00     0.00    0.00    0.00     0.00     0.00     0.00     0.00    0.00    0.00    0.00   0.00   0.00
md0               0.00     0.00 15685.00    0.00 724848.00     0.00    92.43     0.00    0.00    0.00    0.00   0.00   0.00

avg-cpu:  %user   %nice %system %iowait  %steal   %idle
           0.76    0.00    6.09   29.70    0.00   63.45

Device:         rrqm/s   wrqm/s     r/s     w/s    rkB/s    wkB/s avgrq-sz avgqu-sz   await r_await w_await  svctm  %util
sda             114.00     0.00 2177.00    0.00 92564.00     0.00    85.04     0.74    0.34    0.34    0.00   0.15  32.20
sdb             116.00     0.00 2377.00    0.00 93156.00     0.00    78.38     0.79    0.33    0.33    0.00   0.14  32.40
sdc             119.00     0.00 2288.00    0.00 93736.00     0.00    81.94     1.12    0.49    0.49    0.00   0.21  48.30
sdd             109.00     0.00 2306.00    0.00 96016.00     0.00    83.27     1.21    0.52    0.52    0.00   0.21  48.90
sde             114.00     0.00 2335.00    0.00 93028.00     0.00    79.68     1.25    0.54    0.54    0.00   0.21  49.70
sdf             117.00     0.00 2369.00    0.00 96624.00     0.00    81.57     1.20    0.51    0.51    0.00   0.20  48.10
sdg               0.00     0.00    0.00    0.00     0.00     0.00     0.00     0.00    0.00    0.00    0.00   0.00   0.00
sdh               0.00     0.00    0.00    0.00     0.00     0.00     0.00     0.00    0.00    0.00    0.00   0.00   0.00
md0               0.00     0.00 14539.00    0.00 766660.00     0.00   105.46     0.00    0.00    0.00    0.00   0.00   0.00

avg-cpu:  %user   %nice %system %iowait  %steal   %idle
           0.51    0.00    6.57   30.30    0.00   62.63

Device:         rrqm/s   wrqm/s     r/s     w/s    rkB/s    wkB/s avgrq-sz avgqu-sz   await r_await w_await  svctm  %util
sda             135.00     0.00 2159.00    0.00 103228.00     0.00    95.63     0.82    0.38    0.38    0.00   0.16  33.80
sdb             141.00     0.00 2190.00    0.00 103076.00     0.00    94.13     0.79    0.36    0.36    0.00   0.15  32.90
sdc             143.00     0.00 2232.00    0.00 99356.00     0.00    89.03     1.19    0.53    0.53    0.00   0.22  49.30
sdd             139.00     0.00 2271.00    0.00 102812.00     0.00    90.54     1.18    0.52    0.52    0.00   0.22  50.20
sde             143.00     0.00 2231.00    0.00 98904.00     0.00    88.66     1.26    0.57    0.57    0.00   0.24  54.30
sdf             148.00     0.00 2199.00    0.00 103776.00     0.00    94.38     1.26    0.57    0.57    0.00   0.24  52.20
sdg               0.00     0.00    0.00    0.00     0.00     0.00     0.00     0.00    0.00    0.00    0.00   0.00   0.00
sdh               0.00     0.00    0.00    0.00     0.00     0.00     0.00     0.00    0.00    0.00    0.00   0.00   0.00
md0               0.00     0.00 14208.00    0.00 865716.00     0.00   121.86     0.00    0.00    0.00    0.00   0.00   0.00

avg-cpu:  %user   %nice %system %iowait  %steal   %idle
           0.75    0.25    7.27   27.82    0.00   63.91

Device:         rrqm/s   wrqm/s     r/s     w/s    rkB/s    wkB/s avgrq-sz avgqu-sz   await r_await w_await  svctm  %util
sda             147.00     0.00 2013.00    0.00 106416.00     0.00   105.73     0.79    0.39    0.39    0.00   0.16  32.80
sdb             144.00     0.00 2199.00    0.00 106900.00     0.00    97.23     0.97    0.44    0.44    0.00   0.16  35.00
sdc             148.00     0.00 2043.00    0.00 105412.00     0.00   103.19     1.27    0.62    0.62    0.00   0.25  51.60
sdd             144.00     0.00 2208.00    0.00 102392.00     0.00    92.75     1.31    0.59    0.59    0.00   0.24  52.20
sde             141.00     0.00 2107.00    0.00 104248.00     0.00    98.95     1.38    0.65    0.65    0.00   0.26  54.90
sdf             145.00     0.00 2257.00    0.00 108032.00     0.00    95.73     1.40    0.62    0.62    0.00   0.23  53.00
sdg               0.00     0.00    5.00    0.00    20.00     0.00     8.00     0.00    0.00    0.00    0.00   0.00   0.00
sdh               0.00     0.00    0.00    0.00     0.00     0.00     0.00     0.00    0.00    0.00    0.00   0.00   0.00
md0               0.00     0.00 13794.00    0.00 907316.00     0.00   131.55     0.00    0.00    0.00    0.00   0.00   0.00

avg-cpu:  %user   %nice %system %iowait  %steal   %idle
           0.76    0.00    6.80   30.23    0.00   62.22

Device:         rrqm/s   wrqm/s     r/s     w/s    rkB/s    wkB/s avgrq-sz avgqu-sz   await r_await w_await  svctm  %util
sda             118.00     0.00 2475.00    0.00 92832.00     0.00    75.02     0.69    0.28    0.28    0.00   0.13  31.00
sdb             117.00     0.00 2513.00    0.00 95156.00     0.00    75.73     0.77    0.31    0.31    0.00   0.13  31.70
sdc             117.00     0.00 2421.00    0.00 93896.00     0.00    77.57     1.14    0.47    0.47    0.00   0.19  47.00
sdd             122.00     0.00 2368.00    0.00 96232.00     0.00    81.28     1.14    0.48    0.48    0.00   0.20  48.30
sde             128.00     0.00 2370.00    0.00 95348.00     0.00    80.46     1.27    0.54    0.54    0.00   0.22  52.00
sdf             120.00     0.00 2491.00    0.00 95012.00     0.00    76.28     1.21    0.48    0.48    0.00   0.19  48.30
sdg               0.00     0.00    0.00    0.00     0.00     0.00     0.00     0.00    0.00    0.00    0.00   0.00   0.00
sdh               0.00     0.00    0.00    0.00     0.00     0.00     0.00     0.00    0.00    0.00    0.00   0.00   0.00
md0               0.00     0.00 15363.00    0.00 781036.00     0.00   101.68     0.00    0.00    0.00    0.00   0.00   0.00

avg-cpu:  %user   %nice %system %iowait  %steal   %idle
           0.50    0.00    7.30   29.47    0.00   62.72

Device:         rrqm/s   wrqm/s     r/s     w/s    rkB/s    wkB/s avgrq-sz avgqu-sz   await r_await w_await  svctm  %util
sda             126.00     0.00 2201.00    0.00 97012.00     0.00    88.15     0.66    0.30    0.30    0.00   0.14  30.30
sdb             124.00     0.00 2170.00    0.00 93688.00     0.00    86.35     0.70    0.32    0.32    0.00   0.14  30.90
sdc             126.00     0.00 2264.00    0.00 93776.00     0.00    82.84     1.14    0.50    0.50    0.00   0.21  46.60
sdd             120.00     0.00 2223.00    0.00 94248.00     0.00    84.79     1.13    0.51    0.51    0.00   0.21  47.20
sde             126.00     0.00 2259.00    0.00 98288.00     0.00    87.02     1.27    0.56    0.56    0.00   0.24  53.30
sdf             127.00     0.00 2301.00    0.00 98876.00     0.00    85.94     1.18    0.51    0.51    0.00   0.22  49.80
sdg               0.00     1.00    0.00    2.00     0.00    36.00    36.00     0.00    0.00    0.00    0.00   0.00   0.00
sdh               0.00     0.00    0.00    0.00     0.00     0.00     0.00     0.00    0.00    0.00    0.00   0.00   0.00
md0               0.00     0.00 14164.00    0.00 774352.00     0.00   109.34     0.00    0.00    0.00    0.00   0.00   0.00

avg-cpu:  %user   %nice %system %iowait  %steal   %idle
           1.00    0.00    7.77   29.32    0.00   61.90

Device:         rrqm/s   wrqm/s     r/s     w/s    rkB/s    wkB/s avgrq-sz avgqu-sz   await r_await w_await  svctm  %util
sda             120.00     0.00 2215.00    0.00 91200.00     0.00    82.35     0.70    0.32    0.32    0.00   0.14  31.30
sdb             113.00     0.00 2555.00    0.00 87756.00     0.00    68.69     0.69    0.27    0.27    0.00   0.12  30.20
sdc             108.00     0.00 2411.00    0.00 88104.00     0.00    73.09     1.08    0.45    0.45    0.00   0.19  45.90
sdd             111.00     0.00 2524.00    0.00 90044.00     0.00    71.35     1.11    0.44    0.44    0.00   0.19  47.10
sde             108.00     0.00 2341.00    0.00 91472.00     0.00    78.15     1.13    0.48    0.48    0.00   0.21  50.00
sdf             118.00     0.00 2465.00    0.00 93020.00     0.00    75.47     1.07    0.43    0.43    0.00   0.20  48.80
sdg               0.00     0.00    0.00    0.00     0.00     0.00     0.00     0.00    0.00    0.00    0.00   0.00   0.00
sdh               0.00     0.00    0.00    0.00     0.00     0.00     0.00     0.00    0.00    0.00    0.00   0.00   0.00
md0               0.00     0.00 15256.00    0.00 735564.00     0.00    96.43     0.00    0.00    0.00    0.00   0.00   0.00

avg-cpu:  %user   %nice %system %iowait  %steal   %idle
           0.51    0.00    7.36   29.44    0.00   62.69

Device:         rrqm/s   wrqm/s     r/s     w/s    rkB/s    wkB/s avgrq-sz avgqu-sz   await r_await w_await  svctm  %util
sda             109.00     0.00 2559.00    0.00 93396.00     0.00    72.99     0.79    0.31    0.31    0.00   0.13  32.10
sdb             117.00     0.00 2287.00    0.00 92184.00     0.00    80.62     0.76    0.33    0.33    0.00   0.14  31.80
sdc             117.00     0.00 2228.00    0.00 99152.00     0.00    89.01     1.20    0.54    0.54    0.00   0.22  49.20
sdd             126.00     0.00 2021.00    0.00 97020.00     0.00    96.01     1.10    0.54    0.54    0.00   0.24  49.00
sde             125.00     0.00 2186.00    0.00 90432.00     0.00    82.74     1.14    0.52    0.52    0.00   0.22  48.70
sdf             106.00     0.00 2529.00    0.00 89452.00     0.00    70.74     1.15    0.46    0.46    0.00   0.18  46.00
sdg               0.00     0.00    1.00    7.00    16.00   152.00    42.00     0.01    0.75    0.00    0.86   0.12   0.10
sdh               0.00     0.00    0.00    0.00     0.00     0.00     0.00     0.00    0.00    0.00    0.00   0.00   0.00
md0               0.00     0.00 14539.00    0.00 753176.00     0.00   103.61     0.00    0.00    0.00    0.00   0.00   0.00

avg-cpu:  %user   %nice %system %iowait  %steal   %idle
           0.50    0.00    7.81   29.97    0.00   61.71

Device:         rrqm/s   wrqm/s     r/s     w/s    rkB/s    wkB/s avgrq-sz avgqu-sz   await r_await w_await  svctm  %util
sda             100.00     0.00 2423.00    0.00 84912.00     0.00    70.09     0.64    0.26    0.26    0.00   0.12  29.00
sdb             105.00     0.00 2542.00    0.00 86720.00     0.00    68.23     0.76    0.30    0.30    0.00   0.12  29.50
sdc             108.00     0.00 2384.00    0.00 91060.00     0.00    76.39     1.16    0.49    0.49    0.00   0.19  46.00
sdd             104.00     0.00 2309.00    0.00 89808.00     0.00    77.79     1.06    0.46    0.46    0.00   0.20  45.30
sde             113.00     0.00 2251.00    0.00 87684.00     0.00    77.91     1.24    0.55    0.55    0.00   0.22  48.70
sdf             107.00     0.00 2417.00    0.00 88344.00     0.00    73.10     1.10    0.45    0.45    0.00   0.19  45.50
sdg               0.00     0.00    0.00    0.00     0.00     0.00     0.00     0.00    0.00    0.00    0.00   0.00   0.00
sdh               0.00     0.00    0.00    0.00     0.00     0.00     0.00     0.00    0.00    0.00    0.00   0.00   0.00
md0               0.00     0.00 15014.00    0.00 701348.00     0.00    93.43     0.00    0.00    0.00    0.00   0.00   0.00

avg-cpu:  %user   %nice %system %iowait  %steal   %idle
           0.76    0.00    6.85   30.96    0.00   61.42

Device:         rrqm/s   wrqm/s     r/s     w/s    rkB/s    wkB/s avgrq-sz avgqu-sz   await r_await w_await  svctm  %util
sda             105.00     0.00 2604.00    0.00 88800.00     0.00    68.20     0.80    0.31    0.31    0.00   0.11  29.30
sdb             100.00     0.00 2633.00    0.00 85656.00     0.00    65.06     0.75    0.28    0.28    0.00   0.11  30.10
sdc             111.00     0.00 2479.00    0.00 88312.00     0.00    71.25     1.13    0.46    0.46    0.00   0.18  44.50
sdd             106.00     0.00 2495.00    0.00 89912.00     0.00    72.07     1.14    0.46    0.46    0.00   0.19  46.90
sde             110.00     0.00 2381.00    0.00 90732.00     0.00    76.21     1.15    0.48    0.48    0.00   0.21  50.70
sdf             113.00     0.00 2333.00    0.00 91156.00     0.00    78.14     1.07    0.46    0.46    0.00   0.19  45.20
sdg               0.00     0.00    0.00    0.00     0.00     0.00     0.00     0.00    0.00    0.00    0.00   0.00   0.00
sdh               0.00     0.00    0.00    0.00     0.00     0.00     0.00     0.00    0.00    0.00    0.00   0.00   0.00
md0               0.00     0.00 15610.00    0.00 748352.00     0.00    95.88     0.00    0.00    0.00    0.00   0.00   0.00

avg-cpu:  %user   %nice %system %iowait  %steal   %idle
           0.51    0.00    7.34   30.89    0.00   61.27

Device:         rrqm/s   wrqm/s     r/s     w/s    rkB/s    wkB/s avgrq-sz avgqu-sz   await r_await w_await  svctm  %util
sda             113.00     0.00 2250.00    0.00 87396.00     0.00    77.69     0.65    0.29    0.29    0.00   0.13  28.40
sdb             102.00     0.00 2391.00    0.00 85652.00     0.00    71.65     0.64    0.27    0.27    0.00   0.13  30.00
sdc             100.00     0.00 2492.00    0.00 88616.00     0.00    71.12     1.14    0.46    0.46    0.00   0.18  44.80
sdd             102.00     0.00 2547.00    0.00 87944.00     0.00    69.06     1.18    0.46    0.46    0.00   0.18  45.50
sde             102.00     0.00 2476.00    0.00 89600.00     0.00    72.37     1.25    0.50    0.50    0.00   0.20  49.50
sdf             105.00     0.00 2417.00    0.00 87596.00     0.00    72.48     1.12    0.46    0.46    0.00   0.19  45.70
sdg               0.00     1.00    9.00    1.00    36.00    20.00    11.20     0.00    0.20    0.22    0.00   0.10   0.10
sdh               0.00     0.00    0.00    0.00     0.00     0.00     0.00     0.00    0.00    0.00    0.00   0.00   0.00
md0               0.00     0.00 15229.00    0.00 710768.00     0.00    93.34     0.00    0.00    0.00    0.00   0.00   0.00

avg-cpu:  %user   %nice %system %iowait  %steal   %idle
           0.51    0.00    6.89   29.59    0.00   63.01

Device:         rrqm/s   wrqm/s     r/s     w/s    rkB/s    wkB/s avgrq-sz avgqu-sz   await r_await w_await  svctm  %util
sda             119.00     0.00 2317.00    0.00 92744.00     0.00    80.06     0.79    0.34    0.34    0.00   0.13  30.90
sdb             114.00     0.00 2403.00    0.00 93776.00     0.00    78.05     0.75    0.31    0.31    0.00   0.13  31.70
sdc             124.00     0.00 2189.00    0.00 94196.00     0.00    86.06     1.10    0.50    0.50    0.00   0.21  46.90
sdd             126.00     0.00 2277.00    0.00 92572.00     0.00    81.31     1.11    0.48    0.48    0.00   0.21  46.80
sde             114.00     0.00 2248.00    0.00 92908.00     0.00    82.66     1.24    0.55    0.55    0.00   0.22  50.20
sdf             112.00     0.00 2339.00    0.00 90680.00     0.00    77.54     1.17    0.50    0.50    0.00   0.20  46.40
sdg               0.00     0.00    0.00    0.00     0.00     0.00     0.00     0.00    0.00    0.00    0.00   0.00   0.00
sdh               0.00     0.00    0.00    0.00     0.00     0.00     0.00     0.00    0.00    0.00    0.00   0.00   0.00
md0               0.00     0.00 14594.00    0.00 774008.00     0.00   106.07     0.00    0.00    0.00    0.00   0.00   0.00

avg-cpu:  %user   %nice %system %iowait  %steal   %idle
           0.51    0.00    7.34   29.62    0.00   62.53

Device:         rrqm/s   wrqm/s     r/s     w/s    rkB/s    wkB/s avgrq-sz avgqu-sz   await r_await w_await  svctm  %util
sda             141.00     0.00 2212.00    0.00 103596.00     0.00    93.67     0.76    0.35    0.35    0.00   0.15  33.10
sdb             139.00     0.00 2131.00    0.00 99984.00     0.00    93.84     0.74    0.35    0.35    0.00   0.16  34.10
sdc             139.00     0.00 2142.00    0.00 100464.00     0.00    93.80     1.13    0.53    0.53    0.00   0.23  49.60
sdd             125.00     0.00 2338.00    0.00 98880.00     0.00    84.59     1.22    0.52    0.52    0.00   0.22  51.20
sde             132.00     0.00 2233.00    0.00 100404.00     0.00    89.93     1.21    0.54    0.54    0.00   0.24  53.90
sdf             145.00     0.00 2138.00    0.00 105488.00     0.00    98.68     1.19    0.56    0.56    0.00   0.24  51.80
sdg               0.00     0.00    0.00    0.00     0.00     0.00     0.00     0.00    0.00    0.00    0.00   0.00   0.00
sdh               0.00     0.00    0.00    0.00     0.00     0.00     0.00     0.00    0.00    0.00    0.00   0.00   0.00
md0               0.00     0.00 14015.00    0.00 815292.00     0.00   116.35     0.00    0.00    0.00    0.00   0.00   0.00

avg-cpu:  %user   %nice %system %iowait  %steal   %idle
           0.75    0.00    8.04   29.40    0.00   61.81

Device:         rrqm/s   wrqm/s     r/s     w/s    rkB/s    wkB/s avgrq-sz avgqu-sz   await r_await w_await  svctm  %util
sda             106.00     0.00 2559.00    0.00 85860.00     0.00    67.10     0.70    0.28    0.28    0.00   0.11  28.80
sdb             103.00     0.00 2401.00    0.00 85936.00     0.00    71.58     0.67    0.28    0.28    0.00   0.13  30.20
sdc             105.00     0.00 2467.00    0.00 88316.00     0.00    71.60     1.13    0.46    0.46    0.00   0.18  44.60
sdd             106.00     0.00 2279.00    0.00 89168.00     0.00    78.25     1.09    0.48    0.48    0.00   0.20  46.00
sde              96.00     0.00 2494.00    0.00 86932.00     0.00    69.71     1.21    0.49    0.49    0.00   0.20  49.30
sdf             101.00     0.00 2461.00    0.00 85196.00     0.00    69.24     1.05    0.43    0.43    0.00   0.17  42.80
sdg               0.00     0.00    5.00    0.00    20.00     0.00     8.00     0.00    0.00    0.00    0.00   0.00   0.00
sdh               0.00     0.00    0.00    0.00     0.00     0.00     0.00     0.00    0.00    0.00    0.00   0.00   0.00
md0               0.00     0.00 15316.00    0.00 699452.00     0.00    91.34     0.00    0.00    0.00    0.00   0.00   0.00

