Linux 4.17.2 (bench) 	08/03/2018 	_x86_64_	(4 CPU)

avg-cpu:  %user   %nice %system %iowait  %steal   %idle
          10.27    0.02    4.08    2.60    0.00   83.03

Device:         rrqm/s   wrqm/s     r/s     w/s    rkB/s    wkB/s avgrq-sz avgqu-sz   await r_await w_await  svctm  %util
sda              47.08     4.23 1666.94  102.28 20996.67  3129.71    27.27     1.04    0.59    0.26    5.92   0.06  10.78
sdb              46.93     4.19 1666.89  102.42 20986.10  3126.38    27.26     1.03    0.58    0.26    5.85   0.06  10.66
sdc              84.83     4.25 1626.88  101.97 20978.19  3128.84    27.89     1.45    0.84    0.45    7.12   0.08  14.12
sdd              78.27     4.22 1632.62  102.04 20963.16  3125.04    27.77     1.46    0.84    0.44    7.33   0.08  14.22
sde              80.30     4.27 1637.69  102.14 21022.86  3129.28    27.76     1.48    0.85    0.44    7.44   0.08  14.24
sdf              77.42     4.24 1639.84  102.08 21004.13  3126.15    27.71     1.53    0.88    0.44    7.90   0.08  14.27
sdg               0.00     3.17   26.37   73.30   324.21   392.02    14.37     0.44    4.41    0.20    5.93   0.08   0.78
sdh               0.00     0.13    0.02    0.23     2.21     5.05    56.82     0.00    1.15    0.65    1.19   0.21   0.01
md0               0.00     0.00 10292.49  479.24 143806.70 21422.47    30.68     0.00    0.00    0.00    0.00   0.00   0.00

avg-cpu:  %user   %nice %system %iowait  %steal   %idle
           0.62    0.03    8.99    2.82    0.00   87.54

Device:         rrqm/s   wrqm/s     r/s     w/s    rkB/s    wkB/s avgrq-sz avgqu-sz   await r_await w_await  svctm  %util
sda               0.00     0.00 7808.40    0.00 31233.60     0.00     8.00     0.80    0.10    0.10    0.00   0.07  51.36
sdb               0.00     0.00 7806.75    0.00 31227.00     0.00     8.00     0.82    0.11    0.11    0.00   0.07  51.88
sdc               0.00     0.00 7809.60    0.00 31238.40     0.00     8.00     0.88    0.11    0.11    0.00   0.07  55.91
sdd               0.00     0.00 7784.55    0.00 31138.20     0.00     8.00     0.88    0.11    0.11    0.00   0.07  55.80
sde               0.00     0.00 7793.45    0.00 31173.80     0.00     8.00     0.89    0.11    0.11    0.00   0.07  56.01
sdf               0.00     0.00 7815.00    0.00 31260.00     0.00     8.00     0.88    0.11    0.11    0.00   0.07  55.87
sdg               0.00     0.05   67.70    0.60   278.20     9.80     8.43     0.01    0.12    0.12    0.33   0.12   0.80
sdh               0.00     0.00    0.00    0.00     0.00     0.00     0.00     0.00    0.00    0.00    0.00   0.00   0.00
md0               0.00     0.00 46818.55    0.00 187274.00     0.00     8.00     0.00    0.00    0.00    0.00   0.00   0.00

