Linux 4.17.2 (bench) 	08/03/2018 	_x86_64_	(4 CPU)

avg-cpu:  %user   %nice %system %iowait  %steal   %idle
          10.26    0.02    4.13    2.66    0.00   82.93

Device:         rrqm/s   wrqm/s     r/s     w/s    rkB/s    wkB/s avgrq-sz avgqu-sz   await r_await w_await  svctm  %util
sda              50.29     4.21 1695.48  101.71 21166.48  3112.06    27.02     1.04    0.58    0.26    5.92   0.06  10.91
sdb              50.12     4.17 1695.44  101.84 21156.00  3108.75    27.00     1.04    0.58    0.26    5.85   0.06  10.79
sdc              87.93     4.23 1655.53  101.40 21148.10  3111.19    27.62     1.46    0.83    0.45    7.12   0.08  14.26
sdd              81.42     4.20 1661.22  101.47 21133.06  3107.42    27.50     1.47    0.83    0.44    7.33   0.08  14.36
sde              83.43     4.24 1666.30  101.56 21192.55  3111.63    27.50     1.49    0.84    0.44    7.44   0.08  14.38
sdf              80.56     4.21 1668.42  101.51 21173.91  3108.52    27.44     1.53    0.87    0.44    7.90   0.08  14.41
sdg               0.00     3.17   26.58   73.28   325.03   392.01    14.36     0.44    4.40    0.20    5.93   0.08   0.78
sdh               0.00     0.13    0.02    0.23     2.19     5.02    56.82     0.00    1.15    0.65    1.19   0.21   0.01
md0               0.00     0.00 10483.24  476.53 145020.53 21301.65    30.35     0.00    0.00    0.00    0.00   0.00   0.00

avg-cpu:  %user   %nice %system %iowait  %steal   %idle
           2.51    0.00   13.57   28.64    0.00   55.28

Device:         rrqm/s   wrqm/s     r/s     w/s    rkB/s    wkB/s avgrq-sz avgqu-sz   await r_await w_await  svctm  %util
sda              56.00     0.00 2236.00    0.00 75744.00     0.00    67.75     1.08    0.48    0.48    0.00   0.11  24.30
sdb              60.00     0.00 2445.00    0.00 85620.00     0.00    70.04     1.46    0.59    0.59    0.00   0.11  27.50
sdc              62.00     0.00 2337.00    0.00 85264.00     0.00    72.97     2.12    0.91    0.91    0.00   0.18  41.10
sdd              66.00     0.00 2349.00    0.00 85420.00     0.00    72.73     2.24    0.95    0.95    0.00   0.18  42.90
sde              69.00     0.00 2253.00    0.00 87316.00     0.00    77.51     2.13    0.95    0.95    0.00   0.18  41.60
sdf              66.00     0.00 2244.00    0.00 84832.00     0.00    75.61     2.15    0.96    0.96    0.00   0.18  39.70
sdg               0.00     0.00    2.00    0.00    84.00     0.00    84.00     0.00    0.00    0.00    0.00   0.00   0.00
sdh               0.00     0.00    0.00    0.00     0.00     0.00     0.00     0.00    0.00    0.00    0.00   0.00   0.00
md0               0.00     0.00 15382.00    0.00 616484.00     0.00    80.16     0.00    0.00    0.00    0.00   0.00   0.00

avg-cpu:  %user   %nice %system %iowait  %steal   %idle
           1.25    0.25    7.77   35.84    0.00   54.89

Device:         rrqm/s   wrqm/s     r/s     w/s    rkB/s    wkB/s avgrq-sz avgqu-sz   await r_await w_await  svctm  %util
sda             141.00     0.00 1350.00    0.00 87324.00     0.00   129.37     0.54    0.40    0.40    0.00   0.20  27.00
sdb             126.00     0.00 1424.00    0.00 86760.00     0.00   121.85     0.60    0.42    0.42    0.00   0.20  28.00
sdc             136.00     0.00 1434.00    0.00 88816.00     0.00   123.87     0.85    0.59    0.59    0.00   0.30  42.50
sdd             126.00     0.00 1385.00    0.00 89156.00     0.00   128.75     0.94    0.67    0.67    0.00   0.33  45.60
sde             126.00     0.00 1474.00    0.00 84036.00     0.00   114.02     0.84    0.57    0.57    0.00   0.28  41.30
sdf             125.00     0.00 1448.00    0.00 87032.00     0.00   120.21     0.87    0.60    0.60    0.00   0.29  42.30
sdg               0.00     0.00   17.00    0.00   116.00     0.00    13.65     0.00    0.18    0.18    0.00   0.12   0.20
sdh               0.00     0.00    0.00    0.00     0.00     0.00     0.00     0.00    0.00    0.00    0.00   0.00   0.00
md0               0.00     0.00 9649.00    0.00 754132.00     0.00   156.31     0.00    0.00    0.00    0.00   0.00   0.00

avg-cpu:  %user   %nice %system %iowait  %steal   %idle
           0.76    0.00    6.62   35.62    0.00   57.00

Device:         rrqm/s   wrqm/s     r/s     w/s    rkB/s    wkB/s avgrq-sz avgqu-sz   await r_await w_await  svctm  %util
sda             130.00     0.00 1471.00    0.00 85920.00     0.00   116.82     0.55    0.37    0.37    0.00   0.19  28.60
sdb             126.00     0.00 1430.00    0.00 87920.00     0.00   122.97     0.55    0.38    0.38    0.00   0.20  28.90
sdc             128.00     0.00 1449.00    0.00 88520.00     0.00   122.18     1.00    0.69    0.69    0.00   0.30  43.20
sdd             130.00     0.00 1386.00    0.00 88188.00     0.00   127.26     0.96    0.70    0.70    0.00   0.33  46.10
sde             129.00     0.00 1434.00    0.00 88752.00     0.00   123.78     0.90    0.62    0.62    0.00   0.30  42.60
sdf             117.00     0.00 1315.00    0.00 88832.00     0.00   135.11     0.81    0.61    0.61    0.00   0.33  42.80
sdg               0.00     0.00    0.00    0.00     0.00     0.00     0.00     0.00    0.00    0.00    0.00   0.00   0.00
sdh               0.00     0.00    0.00    0.00     0.00     0.00     0.00     0.00    0.00    0.00    0.00   0.00   0.00
md0               0.00     0.00 9459.00    0.00 763776.00     0.00   161.49     0.00    0.00    0.00    0.00   0.00   0.00

avg-cpu:  %user   %nice %system %iowait  %steal   %idle
           1.23    0.00    8.40   34.32    0.00   56.05

Device:         rrqm/s   wrqm/s     r/s     w/s    rkB/s    wkB/s avgrq-sz avgqu-sz   await r_await w_await  svctm  %util
sda             117.00     0.00 1504.00    0.00 77816.00     0.00   103.48     0.53    0.35    0.35    0.00   0.16  24.30
sdb             101.00     0.00 1567.00    0.00 77616.00     0.00    99.06     0.53    0.34    0.34    0.00   0.16  24.70
sdc             116.00     0.00 1299.00    0.00 80552.00     0.00   124.02     0.72    0.56    0.56    0.00   0.30  39.20
sdd             109.00     0.00 1501.00    0.00 78400.00     0.00   104.46     0.79    0.53    0.53    0.00   0.27  40.90
sde             117.00     0.00 1436.00    0.00 77788.00     0.00   108.34     0.76    0.53    0.53    0.00   0.27  38.40
sdf             110.00     0.00 1458.00    0.00 78504.00     0.00   107.69     0.73    0.50    0.50    0.00   0.26  37.90
sdg               0.00     0.00    0.00    0.00     0.00     0.00     0.00     0.00    0.00    0.00    0.00   0.00   0.00
sdh               0.00     0.00    0.00    0.00     0.00     0.00     0.00     0.00    0.00    0.00    0.00   0.00   0.00
md0               0.00     0.00 9574.00    0.00 689456.00     0.00   144.03     0.00    0.00    0.00    0.00   0.00   0.00

avg-cpu:  %user   %nice %system %iowait  %steal   %idle
           1.01    0.00    7.32   36.11    0.00   55.56

Device:         rrqm/s   wrqm/s     r/s     w/s    rkB/s    wkB/s avgrq-sz avgqu-sz   await r_await w_await  svctm  %util
sda             142.00     0.00 1373.00    0.00 96176.00     0.00   140.10     0.66    0.47    0.47    0.00   0.21  29.00
sdb             139.00     0.00 1386.00    0.00 96032.00     0.00   138.57     0.66    0.46    0.46    0.00   0.21  29.40
sdc             145.00     0.00 1356.00    0.00 94896.00     0.00   139.96     0.94    0.69    0.69    0.00   0.34  45.70
sdd             142.00     0.00 1368.00    0.00 94292.00     0.00   137.85     0.97    0.71    0.71    0.00   0.35  47.70
sde             145.00     0.00 1337.00    0.00 95344.00     0.00   142.62     0.87    0.65    0.65    0.00   0.33  44.10
sdf             137.00     0.00 1408.00    0.00 95256.00     0.00   135.31     0.96    0.68    0.68    0.00   0.33  45.90
sdg               0.00     0.00    0.00    0.00     0.00     0.00     0.00     0.00    0.00    0.00    0.00   0.00   0.00
sdh               0.00     0.00    0.00    0.00     0.00     0.00     0.00     0.00    0.00    0.00    0.00   0.00   0.00
md0               0.00     0.00 9202.00    0.00 815804.00     0.00   177.31     0.00    0.00    0.00    0.00   0.00   0.00

avg-cpu:  %user   %nice %system %iowait  %steal   %idle
           1.02    0.00    6.36   36.13    0.00   56.49

Device:         rrqm/s   wrqm/s     r/s     w/s    rkB/s    wkB/s avgrq-sz avgqu-sz   await r_await w_await  svctm  %util
sda             100.00     0.00 1437.00    0.00 77228.00     0.00   107.49     0.48    0.34    0.34    0.00   0.17  23.80
sdb             101.00     0.00 1543.00    0.00 74356.00     0.00    96.38     0.51    0.33    0.33    0.00   0.16  24.20
sdc              97.00     0.00 1597.00    0.00 71920.00     0.00    90.07     0.71    0.45    0.45    0.00   0.22  34.60
sdd              91.00     0.00 1693.00    0.00 73500.00     0.00    86.83     0.83    0.48    0.48    0.00   0.24  40.30
sde              98.00     0.00 1518.00    0.00 72324.00     0.00    95.29     0.70    0.46    0.46    0.00   0.24  36.10
sdf              90.00     0.00 1542.00    0.00 75400.00     0.00    97.80     0.75    0.49    0.49    0.00   0.24  37.20
sdg               0.00     0.00    0.00    0.00     0.00     0.00     0.00     0.00    0.00    0.00    0.00   0.00   0.00
sdh               0.00     0.00    0.00    0.00     0.00     0.00     0.00     0.00    0.00    0.00    0.00   0.00   0.00
md0               0.00     0.00 10048.00    0.00 609844.00     0.00   121.39     0.00    0.00    0.00    0.00   0.00   0.00

avg-cpu:  %user   %nice %system %iowait  %steal   %idle
           1.25    0.00    7.52   34.34    0.00   56.89

Device:         rrqm/s   wrqm/s     r/s     w/s    rkB/s    wkB/s avgrq-sz avgqu-sz   await r_await w_await  svctm  %util
sda             152.00     0.00 1196.00    0.00 99816.00     0.00   166.92     0.58    0.48    0.48    0.00   0.25  29.90
sdb             161.00     0.00 1262.00    0.00 100588.00     0.00   159.41     0.67    0.53    0.53    0.00   0.24  30.50
sdc             154.00     0.00 1201.00    0.00 100056.00     0.00   166.62     0.99    0.83    0.83    0.00   0.41  49.10
sdd             152.00     0.00 1194.00    0.00 100052.00     0.00   167.59     1.00    0.84    0.84    0.00   0.43  51.20
sde             153.00     0.00 1176.00    0.00 99804.00     0.00   169.73     0.94    0.80    0.80    0.00   0.41  48.80
sdf             157.00     0.00 1264.00    0.00 99148.00     0.00   156.88     0.99    0.79    0.79    0.00   0.38  48.50
sdg               0.00     0.00    0.00    0.00     0.00     0.00     0.00     0.00    0.00    0.00    0.00   0.00   0.00
sdh               0.00     0.00    0.00    0.00     0.00     0.00     0.00     0.00    0.00    0.00    0.00   0.00   0.00
md0               0.00     0.00 8449.00    0.00 841972.00     0.00   199.31     0.00    0.00    0.00    0.00   0.00   0.00

avg-cpu:  %user   %nice %system %iowait  %steal   %idle
           1.01    0.00    6.84   37.22    0.00   54.94

Device:         rrqm/s   wrqm/s     r/s     w/s    rkB/s    wkB/s avgrq-sz avgqu-sz   await r_await w_await  svctm  %util
sda             155.00     0.00 1305.00    0.00 96464.00     0.00   147.84     0.59    0.45    0.45    0.00   0.23  29.60
sdb             144.00     0.00 1372.00    0.00 94812.00     0.00   138.21     0.61    0.44    0.44    0.00   0.21  29.30
sdc             136.00     0.00 1357.00    0.00 93404.00     0.00   137.66     0.95    0.69    0.69    0.00   0.33  45.20
sdd             136.00     0.00 1338.00    0.00 92284.00     0.00   137.94     0.96    0.71    0.71    0.00   0.36  47.60
sde             145.00     0.00 1375.00    0.00 92244.00     0.00   134.17     0.96    0.69    0.69    0.00   0.33  45.20
sdf             141.00     0.00 1238.00    0.00 94548.00     0.00   152.74     0.89    0.71    0.71    0.00   0.37  46.10
sdg               0.00     0.00    0.00    0.00     0.00     0.00     0.00     0.00    0.00    0.00    0.00   0.00   0.00
sdh               0.00     0.00    0.00    0.00     0.00     0.00     0.00     0.00    0.00    0.00    0.00   0.00   0.00
md0               0.00     0.00 9060.00    0.00 796608.00     0.00   175.85     0.00    0.00    0.00    0.00   0.00   0.00

avg-cpu:  %user   %nice %system %iowait  %steal   %idle
           1.00    0.00    8.00   34.00    0.00   57.00

Device:         rrqm/s   wrqm/s     r/s     w/s    rkB/s    wkB/s avgrq-sz avgqu-sz   await r_await w_await  svctm  %util
sda             134.00     0.00 1244.00    0.00 89332.00     0.00   143.62     0.51    0.41    0.41    0.00   0.22  26.90
sdb             127.00     0.00 1439.00    0.00 85384.00     0.00   118.67     0.57    0.40    0.40    0.00   0.19  27.50
sdc             117.00     0.00 1453.00    0.00 88108.00     0.00   121.28     0.86    0.61    0.61    0.00   0.29  41.80
sdd             120.00     0.00 1486.00    0.00 85644.00     0.00   115.27     0.97    0.66    0.66    0.00   0.30  44.20
sde             117.00     0.00 1386.00    0.00 88256.00     0.00   127.35     0.80    0.59    0.59    0.00   0.30  41.30
sdf             125.00     0.00 1497.00    0.00 86588.00     0.00   115.68     0.88    0.60    0.60    0.00   0.28  42.40
sdg               0.00     0.00    0.00    0.00     0.00     0.00     0.00     0.00    0.00    0.00    0.00   0.00   0.00
sdh               0.00     0.00    0.00    0.00     0.00     0.00     0.00     0.00    0.00    0.00    0.00   0.00   0.00
md0               0.00     0.00 9478.00    0.00 724620.00     0.00   152.91     0.00    0.00    0.00    0.00   0.00   0.00

avg-cpu:  %user   %nice %system %iowait  %steal   %idle
           1.01    0.00    7.07   35.61    0.00   56.31

Device:         rrqm/s   wrqm/s     r/s     w/s    rkB/s    wkB/s avgrq-sz avgqu-sz   await r_await w_await  svctm  %util
sda             118.00     0.00 1561.00    0.00 80360.00     0.00   102.96     0.56    0.36    0.36    0.00   0.17  26.00
sdb             114.00     0.00 1496.00    0.00 83792.00     0.00   112.02     0.55    0.37    0.37    0.00   0.17  25.30
sdc             123.00     0.00 1400.00    0.00 84708.00     0.00   121.01     0.80    0.57    0.57    0.00   0.29  40.50
sdd             108.00     0.00 1534.00    0.00 81428.00     0.00   106.16     0.89    0.58    0.58    0.00   0.28  43.50
sde             100.00     0.00 1607.00    0.00 80044.00     0.00    99.62     0.75    0.47    0.47    0.00   0.24  38.30
sdf             111.00     0.00 1445.00    0.00 81320.00     0.00   112.55     0.79    0.55    0.55    0.00   0.27  38.90
sdg               0.00     2.00    4.00    3.00    16.00    44.00    17.14     0.00    0.00    0.00    0.00   0.00   0.00
sdh               0.00     0.00    0.00    0.00     0.00     0.00     0.00     0.00    0.00    0.00    0.00   0.00   0.00
md0               0.00     0.00 9983.00    0.00 689528.00     0.00   138.14     0.00    0.00    0.00    0.00   0.00   0.00

avg-cpu:  %user   %nice %system %iowait  %steal   %idle
           1.01    0.00    7.30   37.28    0.00   54.41

Device:         rrqm/s   wrqm/s     r/s     w/s    rkB/s    wkB/s avgrq-sz avgqu-sz   await r_await w_await  svctm  %util
sda             125.00     0.00 1439.00    0.00 89928.00     0.00   124.99     0.55    0.38    0.38    0.00   0.19  27.20
sdb             127.00     0.00 1317.00    0.00 91072.00     0.00   138.30     0.60    0.46    0.46    0.00   0.21  28.20
sdc             139.00     0.00 1359.00    0.00 89700.00     0.00   132.01     0.86    0.63    0.63    0.00   0.32  43.10
sdd             131.00     0.00 1477.00    0.00 88284.00     0.00   119.55     0.97    0.65    0.65    0.00   0.32  46.90
sde             125.00     0.00 1588.00    0.00 84732.00     0.00   106.72     0.80    0.50    0.50    0.00   0.26  41.90
sdf             120.00     0.00 1513.00    0.00 85768.00     0.00   113.37     0.81    0.53    0.53    0.00   0.27  40.70
sdg               0.00     0.00    0.00    0.00     0.00     0.00     0.00     0.00    0.00    0.00    0.00   0.00   0.00
sdh               0.00     0.00    0.00    0.00     0.00     0.00     0.00     0.00    0.00    0.00    0.00   0.00   0.00
md0               0.00     0.00 9603.00    0.00 738896.00     0.00   153.89     0.00    0.00    0.00    0.00   0.00   0.00

avg-cpu:  %user   %nice %system %iowait  %steal   %idle
           1.01    0.00    8.04   34.42    0.00   56.53

Device:         rrqm/s   wrqm/s     r/s     w/s    rkB/s    wkB/s avgrq-sz avgqu-sz   await r_await w_await  svctm  %util
sda             119.00     0.00 1588.00    0.00 86700.00     0.00   109.19     0.61    0.38    0.38    0.00   0.17  27.00
sdb             119.00     0.00 1510.00    0.00 83228.00     0.00   110.24     0.58    0.38    0.38    0.00   0.17  25.80
sdc             118.00     0.00 1548.00    0.00 85848.00     0.00   110.91     0.86    0.56    0.56    0.00   0.27  41.10
sdd             118.00     0.00 1577.00    0.00 83972.00     0.00   106.50     0.92    0.59    0.59    0.00   0.27  42.30
sde             122.00     0.00 1598.00    0.00 82336.00     0.00   103.05     0.84    0.53    0.53    0.00   0.24  39.00
sdf             112.00     0.00 1675.00    0.00 84308.00     0.00   100.67     0.91    0.54    0.54    0.00   0.24  39.70
sdg               0.00     0.00    6.00    0.00    24.00     0.00     8.00     0.00    0.00    0.00    0.00   0.00   0.00
sdh               0.00     0.00    0.00    0.00     0.00     0.00     0.00     0.00    0.00    0.00    0.00   0.00   0.00
md0               0.00     0.00 10468.00    0.00 673740.00     0.00   128.72     0.00    0.00    0.00    0.00   0.00   0.00

avg-cpu:  %user   %nice %system %iowait  %steal   %idle
           0.76    0.00    7.36   35.28    0.00   56.60

Device:         rrqm/s   wrqm/s     r/s     w/s    rkB/s    wkB/s avgrq-sz avgqu-sz   await r_await w_await  svctm  %util
sda             115.00     0.00 1535.00    0.00 85684.00     0.00   111.64     0.59    0.38    0.38    0.00   0.17  26.20
sdb             111.00     0.00 1429.00    0.00 83128.00     0.00   116.34     0.55    0.39    0.39    0.00   0.18  26.10
sdc             122.00     0.00 1535.00    0.00 82324.00     0.00   107.26     0.82    0.54    0.54    0.00   0.26  40.30
sdd             114.00     0.00 1488.00    0.00 82224.00     0.00   110.52     0.79    0.53    0.53    0.00   0.29  42.80
sde             114.00     0.00 1562.00    0.00 84884.00     0.00   108.69     0.81    0.52    0.52    0.00   0.26  40.70
sdf             120.00     0.00 1451.00    0.00 84812.00     0.00   116.90     0.83    0.57    0.57    0.00   0.29  41.60
sdg               0.00     0.00    0.00    0.00     0.00     0.00     0.00     0.00    0.00    0.00    0.00   0.00   0.00
sdh               0.00     0.00    0.00    0.00     0.00     0.00     0.00     0.00    0.00    0.00    0.00   0.00   0.00
md0               0.00     0.00 9889.00    0.00 701748.00     0.00   141.92     0.00    0.00    0.00    0.00   0.00   0.00

avg-cpu:  %user   %nice %system %iowait  %steal   %idle
           0.75    0.00    8.29   32.16    0.00   58.79

Device:         rrqm/s   wrqm/s     r/s     w/s    rkB/s    wkB/s avgrq-sz avgqu-sz   await r_await w_await  svctm  %util
sda             107.00     0.00 1434.00    0.00 78484.00     0.00   109.46     0.52    0.36    0.36    0.00   0.19  26.70
sdb             113.00     0.00 1369.00    0.00 78616.00     0.00   114.85     0.45    0.33    0.33    0.00   0.18  25.10
sdc             114.00     0.00 1425.00    0.00 78244.00     0.00   109.82     0.67    0.47    0.47    0.00   0.27  38.80
sdd             107.00     0.00 1349.00    0.00 77608.00     0.00   115.06     0.68    0.50    0.50    0.00   0.30  40.10
sde             109.00     0.00 1452.00    0.00 78132.00     0.00   107.62     0.70    0.48    0.48    0.00   0.27  38.50
sdf             107.00     0.00 1460.00    0.00 78588.00     0.00   107.65     0.71    0.49    0.49    0.00   0.26  38.40
sdg               0.00     0.00    0.00    0.00     0.00     0.00     0.00     0.00    0.00    0.00    0.00   0.00   0.00
sdh               0.00     0.00    0.00    0.00     0.00     0.00     0.00     0.00    0.00    0.00    0.00   0.00   0.00
md0               0.00     0.00 9258.00    0.00 647076.00     0.00   139.79     0.00    0.00    0.00    0.00   0.00   0.00

avg-cpu:  %user   %nice %system %iowait  %steal   %idle
           1.00    0.00    8.52   33.83    0.00   56.64

Device:         rrqm/s   wrqm/s     r/s     w/s    rkB/s    wkB/s avgrq-sz avgqu-sz   await r_await w_await  svctm  %util
sda             112.00     0.00 1362.00    0.00 79672.00     0.00   116.99     0.53    0.39    0.39    0.00   0.18  24.40
sdb             100.00     0.00 1512.00    0.00 75672.00     0.00   100.10     0.57    0.38    0.38    0.00   0.16  23.90
sdc             103.00     0.00 1645.00    0.00 74544.00     0.00    90.63     0.86    0.52    0.52    0.00   0.23  37.50
sdd             102.00     0.00 1585.00    0.00 75088.00     0.00    94.75     0.91    0.58    0.58    0.00   0.26  41.30
sde             102.00     0.00 1515.00    0.00 77884.00     0.00   102.82     0.81    0.54    0.54    0.00   0.26  39.10
sdf             110.00     0.00 1382.00    0.00 82616.00     0.00   119.56     0.82    0.59    0.59    0.00   0.29  40.20
sdg               0.00     0.00    0.00  965.00     0.00  5040.00    10.45     5.48    5.68    0.00    5.68   0.04   4.20
sdh               0.00     0.00    0.00    0.00     0.00     0.00     0.00     0.00    0.00    0.00    0.00   0.00   0.00
md0               0.00     0.00 9902.00    0.00 627824.00     0.00   126.81     0.00    0.00    0.00    0.00   0.00   0.00

avg-cpu:  %user   %nice %system %iowait  %steal   %idle
           0.76    0.00    7.87   33.76    0.00   57.61

Device:         rrqm/s   wrqm/s     r/s     w/s    rkB/s    wkB/s avgrq-sz avgqu-sz   await r_await w_await  svctm  %util
sda             142.00     0.00 1377.00    0.00 96788.00     0.00   140.58     0.56    0.41    0.41    0.00   0.21  29.00
sdb             143.00     0.00 1400.00    0.00 95624.00     0.00   136.61     0.61    0.43    0.43    0.00   0.22  30.20
sdc             148.00     0.00 1290.00    0.00 97436.00     0.00   151.06     0.97    0.75    0.75    0.00   0.36  46.80
sdd             148.00     0.00 1213.00    0.00 98624.00     0.00   162.61     0.93    0.76    0.76    0.00   0.39  47.30
sde             148.00     0.00 1237.00    0.00 99156.00     0.00   160.32     0.96    0.77    0.77    0.00   0.39  48.00
sdf             148.00     0.00 1304.00    0.00 97980.00     0.00   150.28     1.01    0.76    0.76    0.00   0.37  48.40
sdg               0.00     0.00    0.00    0.00     0.00     0.00     0.00     0.00    0.00    0.00    0.00   0.00   0.00
sdh               0.00     0.00    0.00    0.00     0.00     0.00     0.00     0.00    0.00    0.00    0.00   0.00   0.00
md0               0.00     0.00 8880.00    0.00 834364.00     0.00   187.92     0.00    0.00    0.00    0.00   0.00   0.00

avg-cpu:  %user   %nice %system %iowait  %steal   %idle
           1.26    0.00    8.29   33.92    0.00   56.53

Device:         rrqm/s   wrqm/s     r/s     w/s    rkB/s    wkB/s avgrq-sz avgqu-sz   await r_await w_await  svctm  %util
sda             126.00     0.00 1499.00    0.00 85680.00     0.00   114.32     0.54    0.36    0.36    0.00   0.18  26.60
sdb             118.00     0.00 1609.00    0.00 86096.00     0.00   107.02     0.65    0.40    0.40    0.00   0.17  27.50
sdc             122.00     0.00 1459.00    0.00 85672.00     0.00   117.44     0.80    0.55    0.55    0.00   0.29  41.80
sdd             123.00     0.00 1532.00    0.00 84532.00     0.00   110.36     0.84    0.55    0.55    0.00   0.28  42.50
sde             119.00     0.00 1430.00    0.00 88148.00     0.00   123.28     0.82    0.57    0.57    0.00   0.29  42.00
sdf             123.00     0.00 1451.00    0.00 85596.00     0.00   117.98     0.84    0.58    0.58    0.00   0.28  41.30
sdg               0.00     0.00    1.00    7.00    16.00   152.00    42.00     0.01    0.75    0.00    0.86   0.12   0.10
sdh               0.00     0.00    0.00    0.00     0.00     0.00     0.00     0.00    0.00    0.00    0.00   0.00   0.00
md0               0.00     0.00 10027.00    0.00 706912.00     0.00   141.00     0.00    0.00    0.00    0.00   0.00   0.00

avg-cpu:  %user   %nice %system %iowait  %steal   %idle
           1.26    0.00    8.08   37.12    0.00   53.54

Device:         rrqm/s   wrqm/s     r/s     w/s    rkB/s    wkB/s avgrq-sz avgqu-sz   await r_await w_await  svctm  %util
sda             114.00     0.00 1599.00    0.00 85208.00     0.00   106.58     0.57    0.36    0.36    0.00   0.17  26.70
sdb             120.00     0.00 1654.00    0.00 85188.00     0.00   103.01     0.51    0.31    0.31    0.00   0.16  26.00
sdc             122.00     0.00 1603.00    0.00 84668.00     0.00   105.64     0.86    0.53    0.53    0.00   0.26  41.00
sdd             126.00     0.00 1402.00    0.00 88612.00     0.00   126.41     0.95    0.68    0.68    0.00   0.31  43.20
sde             123.00     0.00 1565.00    0.00 88304.00     0.00   112.85     0.91    0.59    0.59    0.00   0.27  42.30
sdf             125.00     0.00 1379.00    0.00 91200.00     0.00   132.27     0.86    0.63    0.63    0.00   0.31  43.10
sdg               0.00     0.00    0.00    0.00     0.00     0.00     0.00     0.00    0.00    0.00    0.00   0.00   0.00
sdh               0.00     0.00    0.00    0.00     0.00     0.00     0.00     0.00    0.00    0.00    0.00   0.00   0.00
md0               0.00     0.00 10271.00    0.00 719556.00     0.00   140.11     0.00    0.00    0.00    0.00   0.00   0.00

avg-cpu:  %user   %nice %system %iowait  %steal   %idle
           1.01    0.00    8.10   36.20    0.00   54.68

Device:         rrqm/s   wrqm/s     r/s     w/s    rkB/s    wkB/s avgrq-sz avgqu-sz   await r_await w_await  svctm  %util
sda             121.00     0.00 1505.00    0.00 89908.00     0.00   119.48     0.61    0.40    0.40    0.00   0.20  29.60
sdb             127.00     0.00 1568.00    0.00 87832.00     0.00   112.03     0.58    0.37    0.37    0.00   0.18  28.60
sdc             144.00     0.00 1564.00    0.00 88644.00     0.00   113.36     0.82    0.53    0.53    0.00   0.27  42.80
sdd             125.00     0.00 1509.00    0.00 89748.00     0.00   118.95     0.85    0.56    0.56    0.00   0.29  43.70
sde             128.00     0.00 1529.00    0.00 89228.00     0.00   116.71     0.87    0.57    0.57    0.00   0.30  45.60
sdf             126.00     0.00 1547.00    0.00 88900.00     0.00   114.93     0.87    0.56    0.56    0.00   0.28  43.30
sdg               0.00     0.00    0.00    0.00     0.00     0.00     0.00     0.00    0.00    0.00    0.00   0.00   0.00
sdh               0.00     0.00    0.00    0.00     0.00     0.00     0.00     0.00    0.00    0.00    0.00   0.00   0.00
md0               0.00     0.00 10274.00    0.00 739420.00     0.00   143.94     0.00    0.00    0.00    0.00   0.00   0.00

avg-cpu:  %user   %nice %system %iowait  %steal   %idle
           1.00    0.00    8.77   33.08    0.00   57.14

Device:         rrqm/s   wrqm/s     r/s     w/s    rkB/s    wkB/s avgrq-sz avgqu-sz   await r_await w_await  svctm  %util
sda             136.00     0.00 1271.00    0.00 97148.00     0.00   152.87     0.56    0.45    0.45    0.00   0.23  29.70
sdb             150.00     0.00 1362.00    0.00 97396.00     0.00   143.02     0.66    0.48    0.48    0.00   0.21  29.20
sdc             146.00     0.00 1298.00    0.00 96044.00     0.00   147.99     0.88    0.68    0.68    0.00   0.35  45.80
sdd             141.00     0.00 1352.00    0.00 93920.00     0.00   138.93     0.95    0.71    0.71    0.00   0.34  46.00
sde             130.00     0.00 1437.00    0.00 90804.00     0.00   126.38     0.93    0.65    0.65    0.00   0.30  43.70
sdf             154.00     0.00 1431.00    0.00 94532.00     0.00   132.12     0.92    0.64    0.64    0.00   0.32  45.70
sdg               0.00     0.00    0.00    0.00     0.00     0.00     0.00     0.00    0.00    0.00    0.00   0.00   0.00
sdh               0.00     0.00    0.00    0.00     0.00     0.00     0.00     0.00    0.00    0.00    0.00   0.00   0.00
md0               0.00     0.00 9148.00    0.00 804544.00     0.00   175.90     0.00    0.00    0.00    0.00   0.00   0.00

