Linux 4.17.2 (bench) 	08/03/2018 	_x86_64_	(4 CPU)

avg-cpu:  %user   %nice %system %iowait  %steal   %idle
          10.26    0.02    4.13    2.67    0.00   82.91

Device:         rrqm/s   wrqm/s     r/s     w/s    rkB/s    wkB/s avgrq-sz avgqu-sz   await r_await w_await  svctm  %util
sda              50.28     4.21 1699.04  101.62 21192.78  3109.53    26.99     1.04    0.58    0.26    5.92   0.06  10.93
sdb              50.11     4.17 1699.01  101.76 21182.29  3106.22    26.98     1.04    0.58    0.26    5.85   0.06  10.80
sdc              87.89     4.23 1659.13  101.32 21174.42  3108.66    27.59     1.46    0.83    0.45    7.12   0.08  14.28
sdd              81.38     4.20 1664.82  101.39 21159.42  3104.89    27.48     1.47    0.83    0.43    7.33   0.08  14.38
sde              83.39     4.24 1669.90  101.48 21218.88  3109.10    27.47     1.49    0.84    0.44    7.44   0.08  14.40
sdf              80.53     4.21 1672.02  101.43 21200.23  3105.99    27.41     1.53    0.86    0.44    7.90   0.08  14.43
sdg               0.00     3.17   26.61   73.28   325.14   391.99    14.36     0.44    4.40    0.20    5.93   0.08   0.78
sdh               0.00     0.13    0.02    0.23     2.19     5.02    56.82     0.00    1.15    0.65    1.19   0.21   0.01
md0               0.00     0.00 10504.63  476.15 145221.83 21284.32    30.33     0.00    0.00    0.00    0.00   0.00   0.00

avg-cpu:  %user   %nice %system %iowait  %steal   %idle
           1.77    0.01   18.24    8.69    0.00   71.29

Device:         rrqm/s   wrqm/s     r/s     w/s    rkB/s    wkB/s avgrq-sz avgqu-sz   await r_await w_await  svctm  %util
sda               0.00     0.00 9584.95    0.00 38339.80     0.00     8.00     1.61    0.17    0.17    0.00   0.02  20.23
sdb               0.00     0.00 9587.15    0.00 38348.60     0.00     8.00     1.62    0.17    0.17    0.00   0.02  20.00
sdc               0.00     0.00 9634.05    0.00 38536.20     0.00     8.00     2.08    0.22    0.22    0.00   0.03  25.78
sdd               0.00     0.00 9558.45    0.00 38233.80     0.00     8.00     2.12    0.22    0.22    0.00   0.03  25.34
sde               0.00     0.00 9623.00    0.00 38492.00     0.00     8.00     2.07    0.21    0.21    0.00   0.03  25.68
sdf               0.00     0.00 9557.75    0.00 38231.00     0.00     8.00     2.10    0.22    0.22    0.00   0.03  25.48
sdg               0.00     0.05   69.05    0.10   309.80     1.00     8.99     0.01    0.12    0.12    0.00   0.12   0.84
sdh               0.00     0.00    0.00    0.00     0.00     0.00     0.00     0.00    0.00    0.00    0.00   0.00   0.00
md0               0.00     0.00 57546.60    0.00 230186.40     0.00     8.00     0.00    0.00    0.00    0.00   0.00   0.00

