Linux 4.17.2 (bench) 	08/03/2018 	_x86_64_	(4 CPU)

avg-cpu:  %user   %nice %system %iowait  %steal   %idle
          10.25    0.02    4.18    2.74    0.00   82.81

Device:         rrqm/s   wrqm/s     r/s     w/s    rkB/s    wkB/s avgrq-sz avgqu-sz   await r_await w_await  svctm  %util
sda              53.44     4.18 1729.34  101.05 21373.17  3091.94    26.73     1.05    0.57    0.26    5.92   0.06  11.05
sdb              53.25     4.14 1729.34  101.19 21362.71  3088.66    26.72     1.05    0.57    0.26    5.85   0.06  10.93
sdc              90.96     4.20 1689.52  100.74 21354.94  3091.08    27.31     1.47    0.82    0.44    7.12   0.08  14.43
sdd              84.49     4.17 1695.18  100.81 21340.01  3087.33    27.20     1.47    0.82    0.43    7.33   0.08  14.53
sde              86.49     4.21 1700.25  100.91 21399.33  3091.52    27.19     1.49    0.83    0.44    7.44   0.08  14.55
sdf              83.64     4.19 1702.36  100.85 21380.82  3088.43    27.14     1.54    0.85    0.44    7.90   0.08  14.58
sdg               0.00     3.17   26.84   73.25   326.10   391.99    14.35     0.44    4.39    0.20    5.93   0.08   0.79
sdh               0.00     0.13    0.02    0.23     2.18     4.99    56.82     0.00    1.15    0.65    1.19   0.21   0.01
md0               0.00     0.00 10705.69  473.45 146515.22 21163.96    30.00     0.00    0.00    0.00    0.00   0.00   0.00

avg-cpu:  %user   %nice %system %iowait  %steal   %idle
           3.01    0.00   21.55    0.00    0.00   75.44

Device:         rrqm/s   wrqm/s     r/s     w/s    rkB/s    wkB/s avgrq-sz avgqu-sz   await r_await w_await  svctm  %util
sda               0.00     0.00 18334.00    0.00 73336.00     0.00     8.00     2.17    0.12    0.12    0.00   0.03  63.80
sdb               0.00     0.00 18740.00    0.00 74960.00     0.00     8.00     2.39    0.13    0.13    0.00   0.03  65.40
sdc               0.00     0.00 18921.00    0.00 75684.00     0.00     8.00     2.82    0.15    0.15    0.00   0.04  70.20
sdd               0.00     0.00 18489.00    0.00 73956.00     0.00     8.00     2.61    0.14    0.14    0.00   0.04  69.70
sde               0.00     0.00 18965.00    0.00 75860.00     0.00     8.00     2.68    0.14    0.14    0.00   0.04  70.70
sdf               0.00     0.00 18729.00    0.00 74916.00     0.00     8.00     2.73    0.15    0.15    0.00   0.04  70.30
sdg               0.00     0.00    0.00    4.00     0.00   128.00    64.00     0.00    0.75    0.00    0.75   0.25   0.10
sdh               0.00     0.00    0.00    0.00     0.00     0.00     0.00     0.00    0.00    0.00    0.00   0.00   0.00
md0               0.00     0.00 112136.00    0.00 448544.00     0.00     8.00     0.00    0.00    0.00    0.00   0.00   0.00

