Linux 4.17.2 (bench) 	08/03/2018 	_x86_64_	(4 CPU)

avg-cpu:  %user   %nice %system %iowait  %steal   %idle
          10.27    0.02    4.11    2.62    0.00   82.98

Device:         rrqm/s   wrqm/s     r/s     w/s    rkB/s    wkB/s avgrq-sz avgqu-sz   await r_await w_await  svctm  %util
sda              48.04     4.22 1682.71  102.01 21113.20  3121.26    27.16     1.04    0.58    0.26    5.92   0.06  10.85
sdb              47.90     4.18 1682.66  102.15 21102.72  3117.94    27.14     1.04    0.58    0.26    5.85   0.06  10.73
sdc              85.76     4.24 1642.70  101.70 21094.84  3120.39    27.76     1.46    0.84    0.45    7.12   0.08  14.20
sdd              79.22     4.21 1648.41  101.77 21079.73  3116.61    27.65     1.47    0.84    0.44    7.33   0.08  14.30
sde              81.24     4.25 1653.49  101.86 21139.34  3120.84    27.64     1.49    0.85    0.44    7.44   0.08  14.32
sdf              78.37     4.23 1655.62  101.81 21120.72  3117.72    27.58     1.53    0.87    0.44    7.90   0.08  14.35
sdg               0.00     3.17   26.49   73.30   324.73   392.05    14.37     0.44    4.41    0.20    5.93   0.08   0.78
sdh               0.00     0.13    0.02    0.23     2.20     5.04    56.82     0.00    1.15    0.65    1.19   0.21   0.01
md0               0.00     0.00 10393.13  477.94 144669.81 21364.65    30.55     0.00    0.00    0.00    0.00   0.00   0.00

avg-cpu:  %user   %nice %system %iowait  %steal   %idle
           0.26    0.00    3.07    1.02    0.00   95.65

Device:         rrqm/s   wrqm/s     r/s     w/s    rkB/s    wkB/s avgrq-sz avgqu-sz   await r_await w_await  svctm  %util
sda               5.00     0.00 2303.00    0.00 61160.00     0.00    53.11     1.85    0.80    0.80    0.00   0.11  24.20
sdb               8.00     0.00 2327.00    0.00 60952.00     0.00    52.39     2.05    0.88    0.88    0.00   0.11  26.40
sdc               9.00     0.00 2300.00    0.00 60944.00     0.00    52.99     3.85    1.68    1.68    0.00   0.16  35.70
sdd               9.00     0.00 2300.00    0.00 59768.00     0.00    51.97     3.86    1.68    1.68    0.00   0.16  35.90
sde              12.00     0.00 2270.00    0.00 59992.00     0.00    52.86     4.02    1.77    1.77    0.00   0.16  36.30
sdf               7.00     0.00 2311.00    0.00 60680.00     0.00    52.51     4.25    1.84    1.84    0.00   0.16  36.50
sdg               0.00     0.00    3.00    0.00    88.00     0.00    58.67     0.00    0.33    0.33    0.00   0.33   0.10
sdh               0.00     0.00    0.00    0.00     0.00     0.00     0.00     0.00    0.00    0.00    0.00   0.00   0.00
md0               0.00     0.00 13862.00    0.00 392124.00     0.00    56.58     0.00    0.00    0.00    0.00   0.00   0.00

avg-cpu:  %user   %nice %system %iowait  %steal   %idle
           0.25    0.00    2.03    9.90    0.00   87.82

Device:         rrqm/s   wrqm/s     r/s     w/s    rkB/s    wkB/s avgrq-sz avgqu-sz   await r_await w_await  svctm  %util
sda              24.00     0.00 1184.00    0.00 22180.00     0.00    37.47     0.19    0.16    0.16    0.00   0.14  16.90
sdb              27.00     0.00 1146.00    0.00 22608.00     0.00    39.46     0.20    0.17    0.17    0.00   0.15  17.60
sdc              27.00     0.00 1166.00    0.00 22668.00     0.00    38.88     0.25    0.21    0.21    0.00   0.19  21.70
sdd              26.00     0.00 1114.00    0.00 21488.00     0.00    38.58     0.24    0.20    0.20    0.00   0.17  19.30
sde              29.00     0.00 1209.00    0.00 21608.00     0.00    35.75     0.26    0.21    0.21    0.00   0.17  21.00
sdf              25.00     0.00 1190.00    0.00 22704.00     0.00    38.16     0.26    0.21    0.21    0.00   0.18  20.90
sdg               0.00     0.00    0.00    0.00     0.00     0.00     0.00     0.00    0.00    0.00    0.00   0.00   0.00
sdh               0.00     0.00    0.00    0.00     0.00     0.00     0.00     0.00    0.00    0.00    0.00   0.00   0.00
md0               0.00     0.00 7182.00    0.00 202288.00     0.00    56.33     0.00    0.00    0.00    0.00   0.00   0.00

avg-cpu:  %user   %nice %system %iowait  %steal   %idle
           0.25    0.00    2.52   20.40    0.00   76.83

Device:         rrqm/s   wrqm/s     r/s     w/s    rkB/s    wkB/s avgrq-sz avgqu-sz   await r_await w_await  svctm  %util
sda              24.00     0.00 1110.00    0.00 25640.00     0.00    46.20     0.19    0.18    0.18    0.00   0.16  17.70
sdb              24.00     0.00 1150.00    0.00 24472.00     0.00    42.56     0.19    0.17    0.17    0.00   0.15  16.90
sdc              23.00     0.00 1129.00    0.00 23368.00     0.00    41.40     0.25    0.24    0.24    0.00   0.19  21.50
sdd              25.00     0.00 1137.00    0.00 23100.00     0.00    40.63     0.24    0.22    0.22    0.00   0.19  21.20
sde              25.00     0.00 1160.00    0.00 24196.00     0.00    41.72     0.25    0.23    0.23    0.00   0.19  22.20
sdf              22.00     0.00 1167.00    0.00 22628.00     0.00    38.78     0.25    0.22    0.22    0.00   0.19  21.60
sdg               0.00     0.00    0.00    0.00     0.00     0.00     0.00     0.00    0.00    0.00    0.00   0.00   0.00
sdh               0.00     0.00    0.00    0.00     0.00     0.00     0.00     0.00    0.00    0.00    0.00   0.00   0.00
md0               0.00     0.00 6982.00    0.00 179520.00     0.00    51.42     0.00    0.00    0.00    0.00   0.00   0.00

avg-cpu:  %user   %nice %system %iowait  %steal   %idle
           0.00    0.00    2.03    1.27    0.00   96.70

Device:         rrqm/s   wrqm/s     r/s     w/s    rkB/s    wkB/s avgrq-sz avgqu-sz   await r_await w_await  svctm  %util
sda              33.00     0.00 1050.00    0.00 28664.00     0.00    54.60     0.21    0.20    0.20    0.00   0.17  17.80
sdb              35.00     0.00 1046.00    0.00 27316.00     0.00    52.23     0.20    0.19    0.19    0.00   0.16  16.90
sdc              33.00     0.00 1141.00    0.00 26620.00     0.00    46.66     0.26    0.23    0.23    0.00   0.20  22.40
sdd              33.00     0.00 1141.00    0.00 26300.00     0.00    46.10     0.27    0.24    0.24    0.00   0.19  21.70
sde              31.00     0.00 1150.00    0.00 24940.00     0.00    43.37     0.28    0.24    0.24    0.00   0.19  21.90
sdf              28.00     0.00 1125.00    0.00 25556.00     0.00    45.43     0.27    0.24    0.24    0.00   0.19  21.50
sdg               0.00     0.00    0.00    0.00     0.00     0.00     0.00     0.00    0.00    0.00    0.00   0.00   0.00
sdh               0.00     0.00    0.00    0.00     0.00     0.00     0.00     0.00    0.00    0.00    0.00   0.00   0.00
md0               0.00     0.00 6852.00    0.00 224016.00     0.00    65.39     0.00    0.00    0.00    0.00   0.00   0.00

avg-cpu:  %user   %nice %system %iowait  %steal   %idle
           0.25    0.00    1.78    1.52    0.00   96.45

Device:         rrqm/s   wrqm/s     r/s     w/s    rkB/s    wkB/s avgrq-sz avgqu-sz   await r_await w_await  svctm  %util
sda              17.00     0.00 1151.00    0.00 20052.00     0.00    34.84     0.18    0.16    0.16    0.00   0.14  16.60
sdb              13.00     0.00 1209.00    0.00 19580.00     0.00    32.39     0.17    0.14    0.14    0.00   0.13  15.70
sdc              15.00     0.00 1139.00    0.00 19076.00     0.00    33.50     0.21    0.18    0.18    0.00   0.17  19.20
sdd              16.00     0.00 1142.00    0.00 19320.00     0.00    33.84     0.21    0.18    0.18    0.00   0.16  18.30
sde              17.00     0.00 1116.00    0.00 18536.00     0.00    33.22     0.21    0.19    0.19    0.00   0.17  18.70
sdf              19.00     0.00 1150.00    0.00 20552.00     0.00    35.74     0.22    0.19    0.19    0.00   0.17  19.70
sdg               0.00     0.00    0.00    0.00     0.00     0.00     0.00     0.00    0.00    0.00    0.00   0.00   0.00
sdh               0.00     0.00    0.00    0.00     0.00     0.00     0.00     0.00    0.00    0.00    0.00   0.00   0.00
md0               0.00     0.00 6998.00    0.00 147452.00     0.00    42.14     0.00    0.00    0.00    0.00   0.00   0.00

avg-cpu:  %user   %nice %system %iowait  %steal   %idle
           0.25    0.00    2.03    3.81    0.00   93.91

Device:         rrqm/s   wrqm/s     r/s     w/s    rkB/s    wkB/s avgrq-sz avgqu-sz   await r_await w_await  svctm  %util
sda              14.00     0.00 1208.00    0.00 17580.00     0.00    29.11     0.17    0.14    0.14    0.00   0.13  15.60
sdb              15.00     0.00 1184.00    0.00 17952.00     0.00    30.32     0.17    0.14    0.14    0.00   0.14  16.10
sdc              15.00     0.00 1256.00    0.00 18552.00     0.00    29.54     0.21    0.17    0.17    0.00   0.15  19.40
sdd              17.00     0.00 1174.00    0.00 17072.00     0.00    29.08     0.20    0.17    0.17    0.00   0.16  18.30
sde              17.00     0.00 1189.00    0.00 18040.00     0.00    30.34     0.20    0.17    0.17    0.00   0.15  18.40
sdf              15.00     0.00 1163.00    0.00 18132.00     0.00    31.18     0.20    0.17    0.17    0.00   0.16  18.30
sdg               0.00     0.00    0.00    0.00     0.00     0.00     0.00     0.00    0.00    0.00    0.00   0.00   0.00
sdh               0.00     0.00    0.00    0.00     0.00     0.00     0.00     0.00    0.00    0.00    0.00   0.00   0.00
md0               0.00     0.00 7267.00    0.00 139812.00     0.00    38.48     0.00    0.00    0.00    0.00   0.00   0.00

avg-cpu:  %user   %nice %system %iowait  %steal   %idle
           0.00    0.00    2.28    1.52    0.00   96.20

Device:         rrqm/s   wrqm/s     r/s     w/s    rkB/s    wkB/s avgrq-sz avgqu-sz   await r_await w_await  svctm  %util
sda              23.00     0.00 1131.00    0.00 21300.00     0.00    37.67     0.19    0.17    0.17    0.00   0.15  16.90
sdb              23.00     0.00 1181.00    0.00 21524.00     0.00    36.45     0.20    0.17    0.17    0.00   0.15  17.80
sdc              22.00     0.00 1180.00    0.00 21508.00     0.00    36.45     0.23    0.19    0.19    0.00   0.16  19.10
sdd              25.00     0.00 1093.00    0.00 22892.00     0.00    41.89     0.24    0.22    0.22    0.00   0.19  20.30
sde              24.00     0.00 1149.00    0.00 23100.00     0.00    40.21     0.24    0.21    0.21    0.00   0.18  20.80
sdf              22.00     0.00 1174.00    0.00 22672.00     0.00    38.62     0.25    0.21    0.21    0.00   0.18  20.60
sdg               0.00     0.00    0.00    0.00     0.00     0.00     0.00     0.00    0.00    0.00    0.00   0.00   0.00
sdh               0.00     0.00    0.00    0.00     0.00     0.00     0.00     0.00    0.00    0.00    0.00   0.00   0.00
md0               0.00     0.00 7047.00    0.00 173784.00     0.00    49.32     0.00    0.00    0.00    0.00   0.00   0.00

avg-cpu:  %user   %nice %system %iowait  %steal   %idle
           0.00    0.00    2.04    7.12    0.00   90.84

Device:         rrqm/s   wrqm/s     r/s     w/s    rkB/s    wkB/s avgrq-sz avgqu-sz   await r_await w_await  svctm  %util
sda              14.00     0.00 1157.00    0.00 18096.00     0.00    31.28     0.16    0.14    0.14    0.00   0.13  15.40
sdb              15.00     0.00 1234.00    0.00 17424.00     0.00    28.24     0.17    0.14    0.14    0.00   0.13  16.10
sdc              10.00     0.00 1238.00    0.00 16268.00     0.00    26.28     0.19    0.15    0.15    0.00   0.15  18.20
sdd              15.00     0.00 1187.00    0.00 17348.00     0.00    29.23     0.19    0.16    0.16    0.00   0.16  18.40
sde              13.00     0.00 1213.00    0.00 17060.00     0.00    28.13     0.19    0.15    0.15    0.00   0.15  18.40
sdf               8.00     0.00 1242.00    0.00 13928.00     0.00    22.43     0.18    0.14    0.14    0.00   0.14  17.80
sdg               0.00     0.00    0.00    0.00     0.00     0.00     0.00     0.00    0.00    0.00    0.00   0.00   0.00
sdh               0.00     0.00    0.00    0.00     0.00     0.00     0.00     0.00    0.00    0.00    0.00   0.00   0.00
md0               0.00     0.00 7345.00    0.00 122792.00     0.00    33.44     0.00    0.00    0.00    0.00   0.00   0.00

avg-cpu:  %user   %nice %system %iowait  %steal   %idle
           0.25    0.00    2.76   21.61    0.00   75.38

Device:         rrqm/s   wrqm/s     r/s     w/s    rkB/s    wkB/s avgrq-sz avgqu-sz   await r_await w_await  svctm  %util
sda              16.00     0.00 1165.00    0.00 19020.00     0.00    32.65     0.17    0.15    0.15    0.00   0.14  16.00
sdb              16.00     0.00 1186.00    0.00 19236.00     0.00    32.44     0.18    0.15    0.15    0.00   0.13  15.70
sdc              15.00     0.00 1128.00    0.00 19804.00     0.00    35.11     0.20    0.18    0.18    0.00   0.16  17.80
sdd              19.00     0.00 1072.00    0.00 20784.00     0.00    38.78     0.21    0.20    0.20    0.00   0.17  18.70
sde              17.00     0.00 1219.00    0.00 19284.00     0.00    31.64     0.23    0.19    0.19    0.00   0.17  20.20
sdf              16.00     0.00 1221.00    0.00 17548.00     0.00    28.74     0.22    0.18    0.18    0.00   0.16  19.10
sdg               0.00     0.00    0.00    0.00     0.00     0.00     0.00     0.00    0.00    0.00    0.00   0.00   0.00
sdh               0.00     0.00    0.00    0.00     0.00     0.00     0.00     0.00    0.00    0.00    0.00   0.00   0.00
md0               0.00     0.00 7091.00    0.00 139056.00     0.00    39.22     0.00    0.00    0.00    0.00   0.00   0.00

avg-cpu:  %user   %nice %system %iowait  %steal   %idle
           0.25    0.25    3.27    5.28    0.00   90.95

Device:         rrqm/s   wrqm/s     r/s     w/s    rkB/s    wkB/s avgrq-sz avgqu-sz   await r_await w_await  svctm  %util
sda              26.00     0.00 1186.00    0.00 22760.00     0.00    38.38     0.18    0.15    0.15    0.00   0.13  16.00
sdb              29.00     0.00 1147.00    0.00 24156.00     0.00    42.12     0.20    0.17    0.17    0.00   0.15  17.30
sdc              25.00     0.00 1181.00    0.00 24064.00     0.00    40.75     0.27    0.23    0.23    0.00   0.18  21.30
sdd              28.00     0.00 1109.00    0.00 25056.00     0.00    45.19     0.27    0.24    0.24    0.00   0.19  21.60
sde              30.00     0.00 1107.00    0.00 26728.00     0.00    48.29     0.27    0.24    0.24    0.00   0.19  21.40
sdf              25.00     0.00 1157.00    0.00 24476.00     0.00    42.31     0.29    0.25    0.25    0.00   0.19  22.10
sdg               0.00     0.00 1333.00    0.00  5332.00     0.00     8.00     0.16    0.12    0.12    0.00   0.12  15.60
sdh               0.00     0.00    0.00    0.00     0.00     0.00     0.00     0.00    0.00    0.00    0.00   0.00   0.00
md0               0.00     0.00 7050.00    0.00 186304.00     0.00    52.85     0.00    0.00    0.00    0.00   0.00   0.00

avg-cpu:  %user   %nice %system %iowait  %steal   %idle
           0.00    0.00    1.79    1.28    0.00   96.94

Device:         rrqm/s   wrqm/s     r/s     w/s    rkB/s    wkB/s avgrq-sz avgqu-sz   await r_await w_await  svctm  %util
sda              17.00     0.00 1152.00    0.00 18208.00     0.00    31.61     0.17    0.15    0.15    0.00   0.14  15.70
sdb              15.00     0.00 1182.00    0.00 19072.00     0.00    32.27     0.17    0.15    0.15    0.00   0.14  16.40
sdc              15.00     0.00 1167.00    0.00 17244.00     0.00    29.55     0.20    0.17    0.17    0.00   0.16  18.60
sdd              13.00     0.00 1207.00    0.00 17708.00     0.00    29.34     0.21    0.17    0.17    0.00   0.16  19.30
sde              14.00     0.00 1132.00    0.00 18168.00     0.00    32.10     0.19    0.17    0.17    0.00   0.15  17.50
sdf              16.00     0.00 1118.00    0.00 18504.00     0.00    33.10     0.20    0.18    0.18    0.00   0.16  17.70
sdg               0.00     0.00    0.00    0.00     0.00     0.00     0.00     0.00    0.00    0.00    0.00   0.00   0.00
sdh               0.00     0.00    0.00    0.00     0.00     0.00     0.00     0.00    0.00    0.00    0.00   0.00   0.00
md0               0.00     0.00 7047.00    0.00 139104.00     0.00    39.48     0.00    0.00    0.00    0.00   0.00   0.00

avg-cpu:  %user   %nice %system %iowait  %steal   %idle
           0.25    0.00    2.03    1.27    0.00   96.45

Device:         rrqm/s   wrqm/s     r/s     w/s    rkB/s    wkB/s avgrq-sz avgqu-sz   await r_await w_await  svctm  %util
sda              23.00     0.00 1045.00    0.00 22600.00     0.00    43.25     0.18    0.17    0.17    0.00   0.15  15.90
sdb              25.00     0.00 1133.00    0.00 22792.00     0.00    40.23     0.18    0.16    0.16    0.00   0.14  15.70
sdc              22.00     0.00 1192.00    0.00 20720.00     0.00    34.77     0.25    0.21    0.21    0.00   0.18  20.90
sdd              20.00     0.00 1159.00    0.00 19924.00     0.00    34.38     0.25    0.22    0.22    0.00   0.17  19.90
sde              18.00     0.00 1179.00    0.00 20200.00     0.00    34.27     0.26    0.22    0.22    0.00   0.17  20.60
sdf              18.00     0.00 1215.00    0.00 20152.00     0.00    33.17     0.25    0.21    0.21    0.00   0.17  20.10
sdg               0.00     0.00    0.00    7.00     0.00   144.00    41.14     0.00    0.57    0.00    0.57   0.14   0.10
sdh               0.00     0.00    0.00    0.00     0.00     0.00     0.00     0.00    0.00    0.00    0.00   0.00   0.00
md0               0.00     0.00 7050.00    0.00 165820.00     0.00    47.04     0.00    0.00    0.00    0.00   0.00   0.00

avg-cpu:  %user   %nice %system %iowait  %steal   %idle
           0.25    0.00    3.01   21.55    0.00   75.19

Device:         rrqm/s   wrqm/s     r/s     w/s    rkB/s    wkB/s avgrq-sz avgqu-sz   await r_await w_await  svctm  %util
sda              12.00     0.00 1187.00    0.00 15700.00     0.00    26.45     0.17    0.15    0.15    0.00   0.14  16.40
sdb              11.00     0.00 1186.00    0.00 16488.00     0.00    27.80     0.16    0.14    0.14    0.00   0.13  15.30
sdc              13.00     0.00 1121.00    0.00 18052.00     0.00    32.21     0.18    0.17    0.17    0.00   0.16  17.40
sdd              13.00     0.00 1227.00    0.00 17424.00     0.00    28.40     0.20    0.16    0.16    0.00   0.15  18.60
sde              13.00     0.00 1191.00    0.00 16516.00     0.00    27.73     0.20    0.17    0.17    0.00   0.16  19.10
sdf              12.00     0.00 1123.00    0.00 17668.00     0.00    31.47     0.20    0.18    0.18    0.00   0.16  17.90
sdg               0.00     0.00    0.00    0.00     0.00     0.00     0.00     0.00    0.00    0.00    0.00   0.00   0.00
sdh               0.00     0.00    0.00    0.00     0.00     0.00     0.00     0.00    0.00    0.00    0.00   0.00   0.00
md0               0.00     0.00 7109.00    0.00 130676.00     0.00    36.76     0.00    0.00    0.00    0.00   0.00   0.00

avg-cpu:  %user   %nice %system %iowait  %steal   %idle
           0.00    0.00    2.04    1.53    0.00   96.44

Device:         rrqm/s   wrqm/s     r/s     w/s    rkB/s    wkB/s avgrq-sz avgqu-sz   await r_await w_await  svctm  %util
sda              21.00     0.00 1124.00    0.00 20204.00     0.00    35.95     0.16    0.14    0.14    0.00   0.13  14.80
sdb              19.00     0.00 1128.00    0.00 20024.00     0.00    35.50     0.18    0.16    0.16    0.00   0.15  16.80
sdc              17.00     0.00 1209.00    0.00 20392.00     0.00    33.73     0.22    0.18    0.18    0.00   0.17  20.20
sdd              19.00     0.00 1196.00    0.00 20800.00     0.00    34.78     0.22    0.18    0.18    0.00   0.17  20.40
sde              19.00     0.00 1183.00    0.00 20192.00     0.00    34.14     0.20    0.17    0.17    0.00   0.16  18.60
sdf              20.00     0.00 1173.00    0.00 20060.00     0.00    34.20     0.22    0.19    0.19    0.00   0.17  19.90
sdg               0.00     0.00    0.00    0.00     0.00     0.00     0.00     0.00    0.00    0.00    0.00   0.00   0.00
sdh               0.00     0.00    0.00    0.00     0.00     0.00     0.00     0.00    0.00    0.00    0.00   0.00   0.00
md0               0.00     0.00 7128.00    0.00 154492.00     0.00    43.35     0.00    0.00    0.00    0.00   0.00   0.00

avg-cpu:  %user   %nice %system %iowait  %steal   %idle
           0.25    0.00    1.78    1.27    0.00   96.70

Device:         rrqm/s   wrqm/s     r/s     w/s    rkB/s    wkB/s avgrq-sz avgqu-sz   await r_await w_await  svctm  %util
sda              17.00     0.00 1159.00    0.00 20376.00     0.00    35.16     0.17    0.15    0.15    0.00   0.14  16.50
sdb              17.00     0.00 1173.00    0.00 19424.00     0.00    33.12     0.17    0.14    0.14    0.00   0.14  16.30
sdc              21.00     0.00 1155.00    0.00 19904.00     0.00    34.47     0.21    0.18    0.18    0.00   0.17  19.60
sdd              19.00     0.00 1184.00    0.00 19756.00     0.00    33.37     0.21    0.18    0.18    0.00   0.16  19.30
sde              21.00     0.00 1021.00    0.00 21380.00     0.00    41.88     0.20    0.20    0.20    0.00   0.19  19.00
sdf              21.00     0.00 1208.00    0.00 20960.00     0.00    34.70     0.22    0.18    0.18    0.00   0.17  20.30
sdg               0.00     0.00    0.00    0.00     0.00     0.00     0.00     0.00    0.00    0.00    0.00   0.00   0.00
sdh               0.00     0.00    0.00    0.00     0.00     0.00     0.00     0.00    0.00    0.00    0.00   0.00   0.00
md0               0.00     0.00 7016.00    0.00 151856.00     0.00    43.29     0.00    0.00    0.00    0.00   0.00   0.00

avg-cpu:  %user   %nice %system %iowait  %steal   %idle
           0.00    0.00    2.53    1.52    0.00   95.96

Device:         rrqm/s   wrqm/s     r/s     w/s    rkB/s    wkB/s avgrq-sz avgqu-sz   await r_await w_await  svctm  %util
sda              30.00     0.00 1098.00    0.00 24116.00     0.00    43.93     0.18    0.17    0.17    0.00   0.15  16.80
sdb              29.00     0.00 1098.00    0.00 24840.00     0.00    45.25     0.19    0.17    0.17    0.00   0.15  16.80
sdc              23.00     0.00 1177.00    0.00 21132.00     0.00    35.91     0.24    0.20    0.20    0.00   0.17  20.10
sdd              22.00     0.00 1201.00    0.00 22040.00     0.00    36.70     0.24    0.20    0.20    0.00   0.17  20.40
sde              23.00     0.00 1219.00    0.00 21168.00     0.00    34.73     0.24    0.19    0.19    0.00   0.17  20.80
sdf              26.00     0.00 1136.00    0.00 22928.00     0.00    40.37     0.23    0.20    0.20    0.00   0.17  19.70
sdg               0.00     0.00    0.00    0.00     0.00     0.00     0.00     0.00    0.00    0.00    0.00   0.00   0.00
sdh               0.00     0.00    0.00    0.00     0.00     0.00     0.00     0.00    0.00    0.00    0.00   0.00   0.00
md0               0.00     0.00 7083.00    0.00 174352.00     0.00    49.23     0.00    0.00    0.00    0.00   0.00   0.00

avg-cpu:  %user   %nice %system %iowait  %steal   %idle
           0.00    0.00    1.79    1.28    0.00   96.94

Device:         rrqm/s   wrqm/s     r/s     w/s    rkB/s    wkB/s avgrq-sz avgqu-sz   await r_await w_await  svctm  %util
sda              19.00     0.00 1108.00    0.00 21024.00     0.00    37.95     0.17    0.16    0.16    0.00   0.14  15.80
sdb              21.00     0.00 1166.00    0.00 20748.00     0.00    35.59     0.18    0.16    0.16    0.00   0.14  16.80
sdc              20.00     0.00 1153.00    0.00 20248.00     0.00    35.12     0.22    0.19    0.19    0.00   0.16  18.40
sdd              17.00     0.00 1136.00    0.00 18928.00     0.00    33.32     0.22    0.19    0.19    0.00   0.18  19.90
sde              18.00     0.00 1163.00    0.00 19544.00     0.00    33.61     0.22    0.19    0.19    0.00   0.17  19.90
sdf              19.00     0.00 1167.00    0.00 19816.00     0.00    33.96     0.23    0.19    0.19    0.00   0.17  20.30
sdg               0.00     0.00    0.00    0.00     0.00     0.00     0.00     0.00    0.00    0.00    0.00   0.00   0.00
sdh               0.00     0.00    0.00    0.00     0.00     0.00     0.00     0.00    0.00    0.00    0.00   0.00   0.00
md0               0.00     0.00 7006.00    0.00 157348.00     0.00    44.92     0.00    0.00    0.00    0.00   0.00   0.00

avg-cpu:  %user   %nice %system %iowait  %steal   %idle
           0.25    0.00    2.52    1.51    0.00   95.72

Device:         rrqm/s   wrqm/s     r/s     w/s    rkB/s    wkB/s avgrq-sz avgqu-sz   await r_await w_await  svctm  %util
sda              11.00     0.00 1196.00    0.00 15844.00     0.00    26.49     0.15    0.13    0.13    0.00   0.12  14.80
sdb               9.00     0.00 1156.00    0.00 15608.00     0.00    27.00     0.15    0.13    0.13    0.00   0.13  15.10
sdc              10.00     0.00 1161.00    0.00 16720.00     0.00    28.80     0.17    0.15    0.15    0.00   0.14  16.70
sdd              10.00     0.00 1166.00    0.00 17864.00     0.00    30.64     0.17    0.15    0.15    0.00   0.15  17.00
sde              11.00     0.00 1126.00    0.00 18960.00     0.00    33.68     0.17    0.15    0.15    0.00   0.15  17.10
sdf              12.00     0.00 1179.00    0.00 15256.00     0.00    25.88     0.17    0.15    0.15    0.00   0.15  17.20
sdg               0.00     0.00    0.00    0.00     0.00     0.00     0.00     0.00    0.00    0.00    0.00   0.00   0.00
sdh               0.00     0.00    0.00    0.00     0.00     0.00     0.00     0.00    0.00    0.00    0.00   0.00   0.00
md0               0.00     0.00 7047.00    0.00 121760.00     0.00    34.56     0.00    0.00    0.00    0.00   0.00   0.00

avg-cpu:  %user   %nice %system %iowait  %steal   %idle
           0.25    0.00    1.78    1.27    0.00   96.69

Device:         rrqm/s   wrqm/s     r/s     w/s    rkB/s    wkB/s avgrq-sz avgqu-sz   await r_await w_await  svctm  %util
sda              25.00     0.00 1128.00    0.00 22296.00     0.00    39.53     0.18    0.16    0.16    0.00   0.15  16.40
sdb              23.00     0.00 1130.00    0.00 23052.00     0.00    40.80     0.18    0.16    0.16    0.00   0.14  16.30
sdc              26.00     0.00 1125.00    0.00 22592.00     0.00    40.16     0.23    0.20    0.20    0.00   0.17  19.40
sdd              26.00     0.00 1102.00    0.00 21932.00     0.00    39.80     0.23    0.21    0.21    0.00   0.17  19.10
sde              23.00     0.00 1176.00    0.00 23484.00     0.00    39.94     0.25    0.21    0.21    0.00   0.18  21.20
sdf              21.00     0.00 1194.00    0.00 22212.00     0.00    37.21     0.25    0.21    0.21    0.00   0.17  20.80
sdg               0.00     0.00    0.00    0.00     0.00     0.00     0.00     0.00    0.00    0.00    0.00   0.00   0.00
sdh               0.00     0.00    0.00    0.00     0.00     0.00     0.00     0.00    0.00    0.00    0.00   0.00   0.00
md0               0.00     0.00 6999.00    0.00 176236.00     0.00    50.36     0.00    0.00    0.00    0.00   0.00   0.00

avg-cpu:  %user   %nice %system %iowait  %steal   %idle
           0.00    0.00    2.29    1.27    0.00   96.44

Device:         rrqm/s   wrqm/s     r/s     w/s    rkB/s    wkB/s avgrq-sz avgqu-sz   await r_await w_await  svctm  %util
sda              26.00     0.00 1047.00    0.00 22288.00     0.00    42.57     0.16    0.16    0.16    0.00   0.15  15.40
sdb              26.00     0.00 1161.00    0.00 23312.00     0.00    40.16     0.18    0.16    0.16    0.00   0.15  16.90
sdc              22.00     0.00 1127.00    0.00 22000.00     0.00    39.04     0.21    0.19    0.19    0.00   0.17  19.40
sdd              19.00     0.00 1164.00    0.00 20160.00     0.00    34.64     0.20    0.18    0.18    0.00   0.16  19.10
sde              19.00     0.00 1154.00    0.00 21068.00     0.00    36.51     0.23    0.19    0.19    0.00   0.18  21.10
sdf              24.00     0.00 1190.00    0.00 21176.00     0.00    35.59     0.21    0.17    0.17    0.00   0.17  20.00
sdg               0.00     0.00    0.00    0.00     0.00     0.00     0.00     0.00    0.00    0.00    0.00   0.00   0.00
sdh               0.00     0.00    0.00    0.00     0.00     0.00     0.00     0.00    0.00    0.00    0.00   0.00   0.00
md0               0.00     0.00 6979.00    0.00 176064.00     0.00    50.46     0.00    0.00    0.00    0.00   0.00   0.00

