Linux 4.17.2 (bench) 	08/03/2018 	_x86_64_	(4 CPU)

avg-cpu:  %user   %nice %system %iowait  %steal   %idle
          10.26    0.02    4.13    2.67    0.00   82.92

Device:         rrqm/s   wrqm/s     r/s     w/s    rkB/s    wkB/s avgrq-sz avgqu-sz   await r_await w_await  svctm  %util
sda              50.28     4.21 1697.61  101.67 21177.71  3110.78    27.00     1.04    0.58    0.26    5.92   0.06  10.92
sdb              50.11     4.17 1697.58  101.80 21167.24  3107.47    26.98     1.04    0.58    0.26    5.85   0.06  10.80
sdc              87.91     4.23 1657.68  101.36 21159.34  3109.92    27.59     1.46    0.83    0.45    7.12   0.08  14.28
sdd              81.40     4.20 1663.37  101.43 21144.29  3106.14    27.48     1.47    0.83    0.44    7.33   0.08  14.37
sde              83.41     4.24 1668.45  101.52 21203.77  3110.36    27.47     1.49    0.84    0.44    7.44   0.08  14.39
sdf              80.54     4.21 1670.57  101.47 21185.14  3107.25    27.42     1.53    0.86    0.44    7.90   0.08  14.42
sdg               0.00     3.17   26.59   73.28   325.08   392.00    14.36     0.44    4.40    0.20    5.93   0.08   0.78
sdh               0.00     0.13    0.02    0.23     2.19     5.02    56.82     0.00    1.15    0.65    1.19   0.21   0.01
md0               0.00     0.00 10496.01  476.34 145103.42 21292.90    30.33     0.00    0.00    0.00    0.00   0.00   0.00

avg-cpu:  %user   %nice %system %iowait  %steal   %idle
           2.04    0.00   14.25   41.48    0.00   42.24

Device:         rrqm/s   wrqm/s     r/s     w/s    rkB/s    wkB/s avgrq-sz avgqu-sz   await r_await w_await  svctm  %util
sda               6.00     0.00 7068.00    0.00 61784.00     0.00    17.48     1.11    0.16    0.16    0.00   0.06  44.40
sdb               5.00     0.00 6931.00    0.00 57332.00     0.00    16.54     1.01    0.15    0.15    0.00   0.06  42.10
sdc              12.00     0.00 6946.00    0.00 58336.00     0.00    16.80     1.26    0.18    0.18    0.00   0.07  50.60
sdd               6.00     0.00 7002.00    0.00 59740.00     0.00    17.06     1.26    0.18    0.18    0.00   0.08  53.60
sde               8.00     0.00 7098.00    0.00 58660.00     0.00    16.53     1.28    0.18    0.18    0.00   0.07  51.30
sdf              13.00     0.00 6944.00    0.00 58736.00     0.00    16.92     1.24    0.18    0.18    0.00   0.07  50.90
sdg               0.00     0.00    0.00    0.00     0.00     0.00     0.00     0.00    0.00    0.00    0.00   0.00   0.00
sdh               0.00     0.00    0.00    0.00     0.00     0.00     0.00     0.00    0.00    0.00    0.00   0.00   0.00
md0               0.00     0.00 42038.00    0.00 395672.00     0.00    18.82     0.00    0.00    0.00    0.00   0.00   0.00

avg-cpu:  %user   %nice %system %iowait  %steal   %idle
           2.05    0.00   14.83   42.46    0.00   40.66

Device:         rrqm/s   wrqm/s     r/s     w/s    rkB/s    wkB/s avgrq-sz avgqu-sz   await r_await w_await  svctm  %util
sda               9.00     0.00 7614.00    0.00 61780.00     0.00    16.23     1.10    0.14    0.14    0.00   0.06  46.20
sdb              13.00     0.00 7668.00    0.00 61912.00     0.00    16.15     1.18    0.15    0.15    0.00   0.06  47.00
sdc               9.00     0.00 7265.00    0.00 59564.00     0.00    16.40     1.31    0.18    0.18    0.00   0.07  52.80
sdd               6.00     0.00 7809.00    0.00 60688.00     0.00    15.54     1.37    0.18    0.18    0.00   0.07  54.00
sde               6.00     0.00 7422.00    0.00 56620.00     0.00    15.26     1.26    0.17    0.17    0.00   0.07  52.40
sdf              10.00     0.00 7556.00    0.00 59516.00     0.00    15.75     1.36    0.18    0.18    0.00   0.07  55.10
sdg               0.00     0.00    0.00    0.00     0.00     0.00     0.00     0.00    0.00    0.00    0.00   0.00   0.00
sdh               0.00     0.00    0.00    0.00     0.00     0.00     0.00     0.00    0.00    0.00    0.00   0.00   0.00
md0               0.00     0.00 45397.00    0.00 398088.00     0.00    17.54     0.00    0.00    0.00    0.00   0.00   0.00

avg-cpu:  %user   %nice %system %iowait  %steal   %idle
           2.28    0.00   15.74   42.89    0.00   39.09

Device:         rrqm/s   wrqm/s     r/s     w/s    rkB/s    wkB/s avgrq-sz avgqu-sz   await r_await w_await  svctm  %util
sda               8.00     0.00 7855.00    0.00 59368.00     0.00    15.12     1.14    0.14    0.14    0.00   0.06  47.20
sdb              11.00     0.00 7869.00    0.00 58400.00     0.00    14.84     1.15    0.15    0.15    0.00   0.06  47.50
sdc               2.00     0.00 7782.00    0.00 57692.00     0.00    14.83     1.30    0.17    0.17    0.00   0.07  54.00
sdd               7.00     0.00 7966.00    0.00 58992.00     0.00    14.81     1.39    0.17    0.17    0.00   0.07  55.40
sde              10.00     0.00 8190.00    0.00 60044.00     0.00    14.66     1.32    0.16    0.16    0.00   0.07  57.00
sdf               8.00     0.00 7871.00    0.00 56664.00     0.00    14.40     1.24    0.16    0.16    0.00   0.07  53.90
sdg               0.00     0.00    0.00    0.00     0.00     0.00     0.00     0.00    0.00    0.00    0.00   0.00   0.00
sdh               0.00     0.00    0.00    0.00     0.00     0.00     0.00     0.00    0.00    0.00    0.00   0.00   0.00
md0               0.00     0.00 47565.00    0.00 386464.00     0.00    16.25     0.00    0.00    0.00    0.00   0.00   0.00

