Linux 4.17.2 (bench) 	08/03/2018 	_x86_64_	(4 CPU)

avg-cpu:  %user   %nice %system %iowait  %steal   %idle
          10.27    0.02    4.09    2.61    0.00   83.01

Device:         rrqm/s   wrqm/s     r/s     w/s    rkB/s    wkB/s avgrq-sz avgqu-sz   await r_await w_await  svctm  %util
sda              47.08     4.23 1671.58  102.15 21040.37  3125.52    27.25     1.04    0.58    0.26    5.92   0.06  10.81
sdb              46.93     4.19 1671.54  102.28 21029.84  3122.19    27.23     1.03    0.58    0.26    5.85   0.06  10.69
sdc              84.79     4.25 1631.58  101.84 21021.98  3124.65    27.86     1.45    0.84    0.45    7.12   0.08  14.15
sdd              78.24     4.22 1637.31  101.91 21006.91  3120.86    27.75     1.46    0.84    0.44    7.33   0.08  14.25
sde              80.26     4.26 1642.38  102.00 21066.55  3125.09    27.74     1.48    0.85    0.44    7.44   0.08  14.27
sdf              77.38     4.23 1644.52  101.95 21047.86  3121.97    27.68     1.53    0.87    0.44    7.90   0.08  14.30
sdg               0.00     3.17   26.42   73.30   324.42   392.02    14.37     0.44    4.41    0.20    5.93   0.08   0.78
sdh               0.00     0.13    0.02    0.23     2.20     5.04    56.82     0.00    1.15    0.65    1.19   0.21   0.01
md0               0.00     0.00 10320.42  478.59 144159.25 21393.77    30.66     0.00    0.00    0.00    0.00   0.00   0.00

avg-cpu:  %user   %nice %system %iowait  %steal   %idle
           0.26    0.00    1.53    1.28    0.00   96.94

Device:         rrqm/s   wrqm/s     r/s     w/s    rkB/s    wkB/s avgrq-sz avgqu-sz   await r_await w_await  svctm  %util
sda               0.00     0.00 1433.00    0.00  5732.00     0.00     8.00     0.14    0.10    0.10    0.00   0.10  14.30
sdb               0.00     0.00 1538.00    0.00  6152.00     0.00     8.00     0.13    0.08    0.08    0.00   0.08  12.90
sdc               0.00     0.00 1439.00    0.00  5756.00     0.00     8.00     0.18    0.13    0.13    0.00   0.13  18.00
sdd               0.00     0.00 1518.00    0.00  6072.00     0.00     8.00     0.18    0.12    0.12    0.00   0.12  18.50
sde               0.00     0.00 1480.00    0.00  5920.00     0.00     8.00     0.17    0.11    0.11    0.00   0.11  16.80
sdf               0.00     0.00 1440.00    0.00  5760.00     0.00     8.00     0.15    0.10    0.10    0.00   0.10  15.10
sdg               0.00    19.00   31.00   74.00   496.00  1304.00    34.29     0.24    2.27    0.19    3.14   0.11   1.20
sdh               0.00     0.00    0.00    0.00     0.00     0.00     0.00     0.00    0.00    0.00    0.00   0.00   0.00
md0               0.00     0.00 8843.00    0.00 35372.00     0.00     8.00     0.00    0.00    0.00    0.00   0.00   0.00

avg-cpu:  %user   %nice %system %iowait  %steal   %idle
           0.00    0.00    1.54    1.03    0.00   97.43

Device:         rrqm/s   wrqm/s     r/s     w/s    rkB/s    wkB/s avgrq-sz avgqu-sz   await r_await w_await  svctm  %util
sda               0.00     0.00 1497.00    0.00  5988.00     0.00     8.00     0.15    0.10    0.10    0.00   0.10  14.60
sdb               0.00     0.00 1423.00    0.00  5692.00     0.00     8.00     0.13    0.09    0.09    0.00   0.09  13.40
sdc               0.00     0.00 1556.00    0.00  6224.00     0.00     8.00     0.16    0.10    0.10    0.00   0.10  15.60
sdd               0.00     0.00 1452.00    0.00  5808.00     0.00     8.00     0.17    0.11    0.11    0.00   0.11  16.50
sde               0.00     0.00 1474.00    0.00  5896.00     0.00     8.00     0.16    0.11    0.11    0.00   0.11  16.30
sdf               0.00     0.00 1512.00    0.00  6048.00     0.00     8.00     0.17    0.11    0.11    0.00   0.11  16.50
sdg               0.00     0.00    0.00    0.00     0.00     0.00     0.00     0.00    0.00    0.00    0.00   0.00   0.00
sdh               0.00     0.00    0.00    0.00     0.00     0.00     0.00     0.00    0.00    0.00    0.00   0.00   0.00
md0               0.00     0.00 8916.00    0.00 35664.00     0.00     8.00     0.00    0.00    0.00    0.00   0.00   0.00

