Linux 4.17.2 (bench) 	08/03/2018 	_x86_64_	(4 CPU)

avg-cpu:  %user   %nice %system %iowait  %steal   %idle
          10.28    0.02    4.08    2.59    0.00   83.04

Device:         rrqm/s   wrqm/s     r/s     w/s    rkB/s    wkB/s avgrq-sz avgqu-sz   await r_await w_await  svctm  %util
sda              46.44     4.24 1662.83  102.37 20982.38  3132.40    27.32     1.04    0.59    0.26    5.92   0.06  10.77
sdb              46.30     4.20 1662.78  102.51 20971.79  3129.06    27.31     1.03    0.59    0.26    5.85   0.06  10.64
sdc              84.23     4.26 1622.75  102.06 20963.88  3131.52    27.94     1.45    0.84    0.45    7.12   0.08  14.10
sdd              77.67     4.23 1628.48  102.13 20948.82  3127.72    27.82     1.46    0.84    0.44    7.33   0.08  14.20
sde              79.69     4.27 1633.55  102.23 21008.56  3131.97    27.82     1.48    0.85    0.44    7.44   0.08  14.22
sdf              76.81     4.24 1635.70  102.17 20989.82  3128.83    27.76     1.53    0.88    0.44    7.90   0.08  14.25
sdg               0.00     3.17   26.35   73.31   324.14   392.04    14.37     0.44    4.42    0.20    5.93   0.08   0.78
sdh               0.00     0.13    0.02    0.23     2.21     5.06    56.82     0.00    1.15    0.65    1.19   0.21   0.01
md0               0.00     0.00 10264.05  479.65 143716.28 21440.83    30.74     0.00    0.00    0.00    0.00   0.00   0.00

avg-cpu:  %user   %nice %system %iowait  %steal   %idle
           0.76    0.00   18.69   68.69    0.00   11.87

Device:         rrqm/s   wrqm/s     r/s     w/s    rkB/s    wkB/s avgrq-sz avgqu-sz   await r_await w_await  svctm  %util
sda               0.00     0.00 12687.00    0.00 50748.00     0.00     8.00     1.71    0.14    0.14    0.00   0.02  29.60
sdb               0.00     0.00 12879.00    0.00 51516.00     0.00     8.00     1.69    0.13    0.13    0.00   0.02  29.40
sdc               0.00     0.00 13054.00    0.00 52216.00     0.00     8.00     2.36    0.18    0.18    0.00   0.03  37.60
sdd               0.00     0.00 12798.00    0.00 51192.00     0.00     8.00     2.31    0.18    0.18    0.00   0.03  39.60
sde               0.00     0.00 12905.00    0.00 51620.00     0.00     8.00     2.28    0.18    0.18    0.00   0.03  38.50
sdf               0.00     0.00 12332.00    0.00 49328.00     0.00     8.00     2.25    0.18    0.18    0.00   0.03  37.40
sdg               0.00    18.00    3.00   76.00    60.00  1296.00    34.33     0.21    2.65    0.33    2.74   0.09   0.70
sdh               0.00     0.00    0.00    0.00     0.00     0.00     0.00     0.00    0.00    0.00    0.00   0.00   0.00
md0               0.00     0.00 76676.00    0.00 306704.00     0.00     8.00     0.00    0.00    0.00    0.00   0.00   0.00

avg-cpu:  %user   %nice %system %iowait  %steal   %idle
           0.77    0.00   17.44   70.51    0.00   11.28

Device:         rrqm/s   wrqm/s     r/s     w/s    rkB/s    wkB/s avgrq-sz avgqu-sz   await r_await w_await  svctm  %util
sda               0.00     0.00 12838.00    0.00 51352.00     0.00     8.00     1.74    0.14    0.14    0.00   0.02  31.10
sdb               0.00     0.00 13015.00    0.00 52060.00     0.00     8.00     1.74    0.13    0.13    0.00   0.02  31.30
sdc               0.00     0.00 12643.00    0.00 50572.00     0.00     8.00     2.26    0.18    0.18    0.00   0.03  37.80
sdd               0.00     0.00 12885.00    0.00 51540.00     0.00     8.00     2.25    0.18    0.18    0.00   0.03  38.40
sde               0.00     0.00 12882.00    0.00 51528.00     0.00     8.00     2.21    0.17    0.17    0.00   0.03  37.40
sdf               0.00     0.00 13212.00    0.00 52848.00     0.00     8.00     2.30    0.17    0.17    0.00   0.03  38.40
sdg               0.00     0.00    0.00    0.00     0.00     0.00     0.00     0.00    0.00    0.00    0.00   0.00   0.00
sdh               0.00     0.00    0.00    0.00     0.00     0.00     0.00     0.00    0.00    0.00    0.00   0.00   0.00
md0               0.00     0.00 77471.00    0.00 309884.00     0.00     8.00     0.00    0.00    0.00    0.00   0.00   0.00

avg-cpu:  %user   %nice %system %iowait  %steal   %idle
           0.51    0.00   18.67   70.08    0.00   10.74

Device:         rrqm/s   wrqm/s     r/s     w/s    rkB/s    wkB/s avgrq-sz avgqu-sz   await r_await w_await  svctm  %util
sda               0.00     0.00 12460.00    0.00 49840.00     0.00     8.00     1.68    0.13    0.13    0.00   0.02  30.80
sdb               0.00     0.00 12717.00    0.00 50868.00     0.00     8.00     1.69    0.13    0.13    0.00   0.02  31.40
sdc               0.00     0.00 12883.00    0.00 51532.00     0.00     8.00     2.30    0.18    0.18    0.00   0.03  38.50
sdd               0.00     0.00 13358.00    0.00 53432.00     0.00     8.00     2.32    0.17    0.17    0.00   0.03  39.40
sde               0.00     0.00 12920.00    0.00 51680.00     0.00     8.00     2.27    0.18    0.18    0.00   0.03  36.40
sdf               0.00     0.00 12537.00    0.00 50148.00     0.00     8.00     2.19    0.17    0.17    0.00   0.03  37.20
sdg               0.00     2.00   11.00 1456.00    44.00  7428.00    10.19     8.35    5.69    0.09    5.74   0.04   6.40
sdh               0.00     0.00    0.00    0.00     0.00     0.00     0.00     0.00    0.00    0.00    0.00   0.00   0.00
md0               0.00     0.00 76882.00    0.00 307528.00     0.00     8.00     0.00    0.00    0.00    0.00   0.00   0.00

avg-cpu:  %user   %nice %system %iowait  %steal   %idle
           0.76    0.00   18.32   69.72    0.00   11.20

Device:         rrqm/s   wrqm/s     r/s     w/s    rkB/s    wkB/s avgrq-sz avgqu-sz   await r_await w_await  svctm  %util
sda               0.00     0.00 12951.00    0.00 51804.00     0.00     8.00     1.70    0.13    0.13    0.00   0.02  30.70
sdb               0.00     0.00 13017.00    0.00 52068.00     0.00     8.00     1.75    0.13    0.13    0.00   0.02  31.00
sdc               0.00     0.00 13028.00    0.00 52112.00     0.00     8.00     2.37    0.18    0.18    0.00   0.03  38.50
sdd               0.00     0.00 12932.00    0.00 51728.00     0.00     8.00     2.31    0.18    0.18    0.00   0.03  40.10
sde               0.00     0.00 12973.00    0.00 51892.00     0.00     8.00     2.35    0.18    0.18    0.00   0.03  39.30
sdf               0.00     0.00 12893.00    0.00 51572.00     0.00     8.00     2.32    0.18    0.18    0.00   0.03  39.10
sdg               0.00     0.00    0.00    0.00     0.00     0.00     0.00     0.00    0.00    0.00    0.00   0.00   0.00
sdh               0.00     0.00    0.00    0.00     0.00     0.00     0.00     0.00    0.00    0.00    0.00   0.00   0.00
md0               0.00     0.00 77799.00    0.00 311196.00     0.00     8.00     0.00    0.00    0.00    0.00   0.00   0.00

avg-cpu:  %user   %nice %system %iowait  %steal   %idle
           0.51    0.00   18.37   69.90    0.00   11.22

Device:         rrqm/s   wrqm/s     r/s     w/s    rkB/s    wkB/s avgrq-sz avgqu-sz   await r_await w_await  svctm  %util
sda               0.00     0.00 12996.00    0.00 51984.00     0.00     8.00     1.81    0.14    0.14    0.00   0.02  32.20
sdb               0.00     0.00 12638.00    0.00 50552.00     0.00     8.00     1.69    0.13    0.13    0.00   0.02  30.20
sdc               0.00     0.00 12838.00    0.00 51352.00     0.00     8.00     2.24    0.17    0.17    0.00   0.03  36.80
sdd               0.00     0.00 13061.00    0.00 52244.00     0.00     8.00     2.38    0.18    0.18    0.00   0.03  38.30
sde               0.00     0.00 12742.00    0.00 50968.00     0.00     8.00     2.27    0.18    0.18    0.00   0.03  38.80
sdf               0.00     0.00 13000.00    0.00 52000.00     0.00     8.00     2.36    0.18    0.18    0.00   0.03  38.70
sdg               0.00     0.00    0.00    0.00     0.00     0.00     0.00     0.00    0.00    0.00    0.00   0.00   0.00
sdh               0.00     0.00    0.00    0.00     0.00     0.00     0.00     0.00    0.00    0.00    0.00   0.00   0.00
md0               0.00     0.00 77268.00    0.00 309072.00     0.00     8.00     0.00    0.00    0.00    0.00   0.00   0.00

avg-cpu:  %user   %nice %system %iowait  %steal   %idle
           0.75    0.00   19.30   68.67    0.00   11.28

Device:         rrqm/s   wrqm/s     r/s     w/s    rkB/s    wkB/s avgrq-sz avgqu-sz   await r_await w_await  svctm  %util
sda               0.00     0.00 12838.00    0.00 51352.00     0.00     8.00     1.76    0.14    0.14    0.00   0.02  30.20
sdb               0.00     0.00 12916.00    0.00 51664.00     0.00     8.00     1.69    0.13    0.13    0.00   0.02  31.30
sdc               0.00     0.00 12430.00    0.00 49720.00     0.00     8.00     2.21    0.18    0.18    0.00   0.03  36.80
sdd               0.00     0.00 13399.00    0.00 53596.00     0.00     8.00     2.43    0.18    0.18    0.00   0.03  39.20
sde               0.00     0.00 12792.00    0.00 51168.00     0.00     8.00     2.19    0.17    0.17    0.00   0.03  37.90
sdf               0.00     0.00 13055.00    0.00 52220.00     0.00     8.00     2.30    0.18    0.18    0.00   0.03  39.70
sdg               0.00     0.00    0.00    3.00     0.00    40.00    26.67     0.00    0.00    0.00    0.00   0.00   0.00
sdh               0.00     0.00    0.00    0.00     0.00     0.00     0.00     0.00    0.00    0.00    0.00   0.00   0.00
md0               0.00     0.00 77413.00    0.00 309652.00     0.00     8.00     0.00    0.00    0.00    0.00   0.00   0.00

avg-cpu:  %user   %nice %system %iowait  %steal   %idle
           0.75    0.50   19.80   67.67    0.00   11.28

Device:         rrqm/s   wrqm/s     r/s     w/s    rkB/s    wkB/s avgrq-sz avgqu-sz   await r_await w_await  svctm  %util
sda               0.00     0.00 13008.00    0.00 52032.00     0.00     8.00     1.80    0.14    0.14    0.00   0.02  31.60
sdb               0.00     0.00 13254.00    0.00 53016.00     0.00     8.00     1.77    0.13    0.13    0.00   0.02  32.00
sdc               0.00     0.00 13027.00    0.00 52108.00     0.00     8.00     2.29    0.18    0.18    0.00   0.03  36.80
sdd               0.00     0.00 12229.00    0.00 48916.00     0.00     8.00     2.14    0.18    0.18    0.00   0.03  37.80
sde               0.00     0.00 13115.00    0.00 52460.00     0.00     8.00     2.37    0.18    0.18    0.00   0.03  37.90
sdf               0.00     0.00 12691.00    0.00 50764.00     0.00     8.00     2.17    0.17    0.17    0.00   0.03  38.20
sdg               0.00     0.00   18.00    0.00   120.00     0.00    13.33     0.00    0.11    0.11    0.00   0.11   0.20
sdh               0.00     0.00    0.00    0.00     0.00     0.00     0.00     0.00    0.00    0.00    0.00   0.00   0.00
md0               0.00     0.00 77337.00    0.00 309348.00     0.00     8.00     0.00    0.00    0.00    0.00   0.00   0.00

avg-cpu:  %user   %nice %system %iowait  %steal   %idle
           0.75    0.00   19.35   68.59    0.00   11.31

Device:         rrqm/s   wrqm/s     r/s     w/s    rkB/s    wkB/s avgrq-sz avgqu-sz   await r_await w_await  svctm  %util
sda               0.00     0.00 13017.00    0.00 52068.00     0.00     8.00     1.70    0.13    0.13    0.00   0.02  31.20
sdb               0.00     0.00 13140.00    0.00 52560.00     0.00     8.00     1.72    0.13    0.13    0.00   0.02  30.20
sdc               0.00     0.00 13182.00    0.00 52728.00     0.00     8.00     2.39    0.18    0.18    0.00   0.03  38.10
sdd               0.00     0.00 12725.00    0.00 50900.00     0.00     8.00     2.25    0.18    0.18    0.00   0.03  38.40
sde               0.00     0.00 12437.00    0.00 49748.00     0.00     8.00     2.12    0.17    0.17    0.00   0.03  37.30
sdf               0.00     0.00 12932.00    0.00 51728.00     0.00     8.00     2.32    0.18    0.18    0.00   0.03  38.30
sdg               0.00     0.00    0.00    0.00     0.00     0.00     0.00     0.00    0.00    0.00    0.00   0.00   0.00
sdh               0.00     0.00    0.00    0.00     0.00     0.00     0.00     0.00    0.00    0.00    0.00   0.00   0.00
md0               0.00     0.00 77429.00    0.00 309716.00     0.00     8.00     0.00    0.00    0.00    0.00   0.00   0.00

avg-cpu:  %user   %nice %system %iowait  %steal   %idle
           0.51    0.00   17.95   70.26    0.00   11.28

Device:         rrqm/s   wrqm/s     r/s     w/s    rkB/s    wkB/s avgrq-sz avgqu-sz   await r_await w_await  svctm  %util
sda               0.00     0.00 13064.00    0.00 52256.00     0.00     8.00     1.76    0.14    0.14    0.00   0.02  31.50
sdb               0.00     0.00 12871.00    0.00 51484.00     0.00     8.00     1.78    0.14    0.14    0.00   0.02  31.00
sdc               0.00     0.00 12910.00    0.00 51640.00     0.00     8.00     2.24    0.17    0.17    0.00   0.03  37.90
sdd               0.00     0.00 12481.00    0.00 49924.00     0.00     8.00     2.09    0.17    0.17    0.00   0.03  35.90
sde               0.00     0.00 13212.00    0.00 52848.00     0.00     8.00     2.38    0.18    0.18    0.00   0.03  39.20
sdf               0.00     0.00 12846.00    0.00 51384.00     0.00     8.00     2.40    0.19    0.19    0.00   0.03  38.50
sdg               0.00     0.00    0.00    0.00     0.00     0.00     0.00     0.00    0.00    0.00    0.00   0.00   0.00
sdh               0.00     0.00    0.00    0.00     0.00     0.00     0.00     0.00    0.00    0.00    0.00   0.00   0.00
md0               0.00     0.00 77396.00    0.00 309584.00     0.00     8.00     0.00    0.00    0.00    0.00   0.00   0.00

avg-cpu:  %user   %nice %system %iowait  %steal   %idle
           1.02    0.00   18.07   69.72    0.00   11.20

Device:         rrqm/s   wrqm/s     r/s     w/s    rkB/s    wkB/s avgrq-sz avgqu-sz   await r_await w_await  svctm  %util
sda               0.00     0.00 12641.00    0.00 50564.00     0.00     8.00     1.69    0.13    0.13    0.00   0.02  30.40
sdb               0.00     0.00 13056.00    0.00 52224.00     0.00     8.00     1.72    0.13    0.13    0.00   0.02  30.60
sdc               0.00     0.00 13395.00    0.00 53580.00     0.00     8.00     2.50    0.19    0.19    0.00   0.03  39.50
sdd               0.00     0.00 12599.00    0.00 50396.00     0.00     8.00     2.24    0.18    0.18    0.00   0.03  39.10
sde               0.00     0.00 12943.00    0.00 51772.00     0.00     8.00     2.34    0.18    0.18    0.00   0.03  37.20
sdf               0.00     0.00 12800.00    0.00 51200.00     0.00     8.00     2.26    0.18    0.18    0.00   0.03  38.50
sdg               0.00     0.00    0.00    0.00     0.00     0.00     0.00     0.00    0.00    0.00    0.00   0.00   0.00
sdh               0.00     0.00    0.00    0.00     0.00     0.00     0.00     0.00    0.00    0.00    0.00   0.00   0.00
md0               0.00     0.00 77427.00    0.00 309708.00     0.00     8.00     0.00    0.00    0.00    0.00   0.00   0.00

avg-cpu:  %user   %nice %system %iowait  %steal   %idle
           0.77    0.00   17.95   70.00    0.00   11.28

Device:         rrqm/s   wrqm/s     r/s     w/s    rkB/s    wkB/s avgrq-sz avgqu-sz   await r_await w_await  svctm  %util
sda               0.00     0.00 12794.00    0.00 51176.00     0.00     8.00     1.73    0.14    0.14    0.00   0.03  32.30
sdb               0.00     0.00 13164.00    0.00 52656.00     0.00     8.00     1.78    0.14    0.14    0.00   0.02  30.70
sdc               0.00     0.00 12869.00    0.00 51476.00     0.00     8.00     2.26    0.18    0.18    0.00   0.03  37.60
sdd               0.00     0.00 13163.00    0.00 52652.00     0.00     8.00     2.38    0.18    0.18    0.00   0.03  38.30
sde               0.00     0.00 13076.00    0.00 52304.00     0.00     8.00     2.26    0.17    0.17    0.00   0.03  37.20
sdf               0.00     0.00 12815.00    0.00 51260.00     0.00     8.00     2.22    0.17    0.17    0.00   0.03  37.40
sdg               0.00     0.00    0.00    0.00     0.00     0.00     0.00     0.00    0.00    0.00    0.00   0.00   0.00
sdh               0.00     0.00    0.00    0.00     0.00     0.00     0.00     0.00    0.00    0.00    0.00   0.00   0.00
md0               0.00     0.00 77867.00    0.00 311468.00     0.00     8.00     0.00    0.00    0.00    0.00   0.00   0.00

avg-cpu:  %user   %nice %system %iowait  %steal   %idle
           0.51    0.00   17.99   70.44    0.00   11.05

Device:         rrqm/s   wrqm/s     r/s     w/s    rkB/s    wkB/s avgrq-sz avgqu-sz   await r_await w_await  svctm  %util
sda               0.00     0.00 13135.00    0.00 52540.00     0.00     8.00     1.78    0.13    0.13    0.00   0.02  32.10
sdb               0.00     0.00 12939.00    0.00 51756.00     0.00     8.00     1.74    0.13    0.13    0.00   0.02  32.30
sdc               0.00     0.00 12984.00    0.00 51936.00     0.00     8.00     2.31    0.18    0.18    0.00   0.03  38.90
sdd               0.00     0.00 13032.00    0.00 52128.00     0.00     8.00     2.29    0.18    0.18    0.00   0.03  37.20
sde               0.00     0.00 12813.00    0.00 51252.00     0.00     8.00     2.21    0.17    0.17    0.00   0.03  37.20
sdf               0.00     0.00 13053.00    0.00 52212.00     0.00     8.00     2.32    0.18    0.18    0.00   0.03  38.70
sdg               0.00     0.00    0.00    0.00     0.00     0.00     0.00     0.00    0.00    0.00    0.00   0.00   0.00
sdh               0.00     0.00    0.00    0.00     0.00     0.00     0.00     0.00    0.00    0.00    0.00   0.00   0.00
md0               0.00     0.00 77952.00    0.00 311808.00     0.00     8.00     0.00    0.00    0.00    0.00   0.00   0.00

avg-cpu:  %user   %nice %system %iowait  %steal   %idle
           0.76    0.00   18.53   69.29    0.00   11.42

Device:         rrqm/s   wrqm/s     r/s     w/s    rkB/s    wkB/s avgrq-sz avgqu-sz   await r_await w_await  svctm  %util
sda               0.00     0.00 13176.00    0.00 52704.00     0.00     8.00     1.80    0.14    0.14    0.00   0.02  30.80
sdb               0.00     0.00 13186.00    0.00 52744.00     0.00     8.00     1.73    0.13    0.13    0.00   0.02  30.60
sdc               0.00     0.00 12824.00    0.00 51296.00     0.00     8.00     2.27    0.18    0.18    0.00   0.03  38.10
sdd               0.00     0.00 12900.00    0.00 51600.00     0.00     8.00     2.28    0.18    0.18    0.00   0.03  38.10
sde               0.00     0.00 13033.00    0.00 52132.00     0.00     8.00     2.37    0.18    0.18    0.00   0.03  38.30
sdf               0.00     0.00 12704.00    0.00 50816.00     0.00     8.00     2.29    0.18    0.18    0.00   0.03  38.60
sdg               0.00     0.00    0.00    0.00     0.00     0.00     0.00     0.00    0.00    0.00    0.00   0.00   0.00
sdh               0.00     0.00    0.00    0.00     0.00     0.00     0.00     0.00    0.00    0.00    0.00   0.00   0.00
md0               0.00     0.00 77824.00    0.00 311296.00     0.00     8.00     0.00    0.00    0.00    0.00   0.00   0.00

avg-cpu:  %user   %nice %system %iowait  %steal   %idle
           0.51    0.00   18.78   69.29    0.00   11.42

Device:         rrqm/s   wrqm/s     r/s     w/s    rkB/s    wkB/s avgrq-sz avgqu-sz   await r_await w_await  svctm  %util
sda               0.00     0.00 13217.00    0.00 52868.00     0.00     8.00     1.84    0.14    0.14    0.00   0.02  32.10
sdb               0.00     0.00 12671.00    0.00 50684.00     0.00     8.00     1.74    0.14    0.14    0.00   0.02  31.20
sdc               0.00     0.00 12795.00    0.00 51180.00     0.00     8.00     2.33    0.18    0.18    0.00   0.03  39.10
sdd               0.00     0.00 13158.00    0.00 52632.00     0.00     8.00     2.32    0.18    0.18    0.00   0.03  38.40
sde               0.00     0.00 12378.00    0.00 49512.00     0.00     8.00     2.21    0.18    0.18    0.00   0.03  37.30
sdf               0.00     0.00 12797.00    0.00 51188.00     0.00     8.00     2.26    0.18    0.18    0.00   0.03  38.50
sdg               0.00     0.00    0.00    0.00     0.00     0.00     0.00     0.00    0.00    0.00    0.00   0.00   0.00
sdh               0.00     0.00    0.00    0.00     0.00     0.00     0.00     0.00    0.00    0.00    0.00   0.00   0.00
md0               0.00     0.00 77046.00    0.00 308184.00     0.00     8.00     0.00    0.00    0.00    0.00   0.00   0.00

avg-cpu:  %user   %nice %system %iowait  %steal   %idle
           0.76    0.00   18.99   69.37    0.00   10.89

Device:         rrqm/s   wrqm/s     r/s     w/s    rkB/s    wkB/s avgrq-sz avgqu-sz   await r_await w_await  svctm  %util
sda               0.00     0.00 12987.00    0.00 51948.00     0.00     8.00     1.79    0.14    0.14    0.00   0.02  30.50
sdb               0.00     0.00 12683.00    0.00 50732.00     0.00     8.00     1.73    0.14    0.14    0.00   0.02  31.20
sdc               0.00     0.00 13196.00    0.00 52784.00     0.00     8.00     2.36    0.18    0.18    0.00   0.03  37.20
sdd               0.00     0.00 13235.00    0.00 52940.00     0.00     8.00     2.28    0.17    0.17    0.00   0.03  40.40
sde               0.00     0.00 12695.00    0.00 50780.00     0.00     8.00     2.23    0.18    0.18    0.00   0.03  36.70
sdf               0.00     0.00 12918.00    0.00 51672.00     0.00     8.00     2.28    0.18    0.18    0.00   0.03  39.80
sdg               0.00     0.00    0.00    0.00     0.00     0.00     0.00     0.00    0.00    0.00    0.00   0.00   0.00
sdh               0.00     0.00    0.00    0.00     0.00     0.00     0.00     0.00    0.00    0.00    0.00   0.00   0.00
md0               0.00     0.00 77699.00    0.00 310796.00     0.00     8.00     0.00    0.00    0.00    0.00   0.00   0.00

avg-cpu:  %user   %nice %system %iowait  %steal   %idle
           1.02    0.00   18.07   69.47    0.00   11.45

Device:         rrqm/s   wrqm/s     r/s     w/s    rkB/s    wkB/s avgrq-sz avgqu-sz   await r_await w_await  svctm  %util
sda               0.00     0.00 12700.00    0.00 50800.00     0.00     8.00     1.68    0.13    0.13    0.00   0.02  30.90
sdb               0.00     0.00 13093.00    0.00 52372.00     0.00     8.00     1.75    0.13    0.13    0.00   0.02  30.40
sdc               0.00     0.00 12793.00    0.00 51172.00     0.00     8.00     2.31    0.18    0.18    0.00   0.03  37.10
sdd               0.00     0.00 12699.00    0.00 50796.00     0.00     8.00     2.33    0.18    0.18    0.00   0.03  38.60
sde               0.00     0.00 12796.00    0.00 51184.00     0.00     8.00     2.35    0.18    0.18    0.00   0.03  39.00
sdf               0.00     0.00 12834.00    0.00 51336.00     0.00     8.00     2.29    0.18    0.18    0.00   0.03  37.70
sdg               0.00     0.00    0.00    0.00     0.00     0.00     0.00     0.00    0.00    0.00    0.00   0.00   0.00
sdh               0.00     0.00    0.00    0.00     0.00     0.00     0.00     0.00    0.00    0.00    0.00   0.00   0.00
md0               0.00     0.00 76921.00    0.00 307684.00     0.00     8.00     0.00    0.00    0.00    0.00   0.00   0.00

avg-cpu:  %user   %nice %system %iowait  %steal   %idle
           0.76    0.00   19.19   67.93    0.00   12.12

Device:         rrqm/s   wrqm/s     r/s     w/s    rkB/s    wkB/s avgrq-sz avgqu-sz   await r_await w_await  svctm  %util
sda               0.00     0.00 13055.00    0.00 52220.00     0.00     8.00     1.79    0.14    0.14    0.00   0.02  31.70
sdb               0.00     0.00 12785.00    0.00 51140.00     0.00     8.00     1.79    0.14    0.14    0.00   0.02  31.00
sdc               0.00     0.00 12951.00    0.00 51804.00     0.00     8.00     2.41    0.19    0.19    0.00   0.03  39.40
sdd               0.00     0.00 12997.00    0.00 51988.00     0.00     8.00     2.31    0.18    0.18    0.00   0.03  37.90
sde               0.00     0.00 12433.00    0.00 49732.00     0.00     8.00     2.12    0.17    0.17    0.00   0.03  37.20
sdf               0.00     0.00 12559.00    0.00 50236.00     0.00     8.00     2.18    0.17    0.17    0.00   0.03  35.90
sdg               0.00     0.00    2.00    0.00     8.00     0.00     8.00     0.00    0.00    0.00    0.00   0.00   0.00
sdh               0.00     0.00    0.00    0.00     0.00     0.00     0.00     0.00    0.00    0.00    0.00   0.00   0.00
md0               0.00     0.00 76776.00    0.00 307104.00     0.00     8.00     0.00    0.00    0.00    0.00   0.00   0.00

avg-cpu:  %user   %nice %system %iowait  %steal   %idle
           0.51    0.00   18.21   70.00    0.00   11.28

Device:         rrqm/s   wrqm/s     r/s     w/s    rkB/s    wkB/s avgrq-sz avgqu-sz   await r_await w_await  svctm  %util
sda               0.00     0.00 12944.00    0.00 51776.00     0.00     8.00     1.73    0.13    0.13    0.00   0.03  33.50
sdb               0.00     0.00 12922.00    0.00 51688.00     0.00     8.00     1.70    0.13    0.13    0.00   0.02  30.50
sdc               0.00     0.00 12502.00    0.00 50008.00     0.00     8.00     2.19    0.18    0.18    0.00   0.03  37.50
sdd               0.00     0.00 12732.00    0.00 50928.00     0.00     8.00     2.34    0.18    0.18    0.00   0.03  38.10
sde               0.00     0.00 13159.00    0.00 52636.00     0.00     8.00     2.33    0.18    0.18    0.00   0.03  38.50
sdf               0.00     0.00 12931.00    0.00 51724.00     0.00     8.00     2.29    0.18    0.18    0.00   0.03  37.60
sdg               0.00     0.00    0.00    0.00     0.00     0.00     0.00     0.00    0.00    0.00    0.00   0.00   0.00
sdh               0.00     0.00    0.00    0.00     0.00     0.00     0.00     0.00    0.00    0.00    0.00   0.00   0.00
md0               0.00     0.00 77196.00    0.00 308784.00     0.00     8.00     0.00    0.00    0.00    0.00   0.00   0.00

avg-cpu:  %user   %nice %system %iowait  %steal   %idle
           0.77    0.00   17.69   70.00    0.00   11.54

Device:         rrqm/s   wrqm/s     r/s     w/s    rkB/s    wkB/s avgrq-sz avgqu-sz   await r_await w_await  svctm  %util
sda               0.00     0.00 13211.00    0.00 52844.00     0.00     8.00     1.80    0.14    0.14    0.00   0.02  32.60
sdb               0.00     0.00 12528.00    0.00 50112.00     0.00     8.00     1.61    0.13    0.13    0.00   0.02  29.60
sdc               0.00     0.00 12939.00    0.00 51756.00     0.00     8.00     2.37    0.18    0.18    0.00   0.03  37.60
sdd               0.00     0.00 12568.00    0.00 50272.00     0.00     8.00     2.24    0.18    0.18    0.00   0.03  37.20
sde               0.00     0.00 12557.00    0.00 50228.00     0.00     8.00     2.25    0.18    0.18    0.00   0.03  37.20
sdf               0.00     0.00 12945.00    0.00 51784.00     0.00     8.00     2.35    0.18    0.18    0.00   0.03  39.10
sdg               0.00     0.00    0.00    0.00     0.00     0.00     0.00     0.00    0.00    0.00    0.00   0.00   0.00
sdh               0.00     0.00    0.00    0.00     0.00     0.00     0.00     0.00    0.00    0.00    0.00   0.00   0.00
md0               0.00     0.00 76747.00    0.00 306988.00     0.00     8.00     0.00    0.00    0.00    0.00   0.00   0.00

avg-cpu:  %user   %nice %system %iowait  %steal   %idle
           1.01    0.00   18.43   68.94    0.00   11.62

Device:         rrqm/s   wrqm/s     r/s     w/s    rkB/s    wkB/s avgrq-sz avgqu-sz   await r_await w_await  svctm  %util
sda               0.00     0.00 12923.00    0.00 51692.00     0.00     8.00     1.79    0.14    0.14    0.00   0.02  32.20
sdb               0.00     0.00 13077.00    0.00 52308.00     0.00     8.00     1.75    0.13    0.13    0.00   0.02  31.00
sdc               0.00     0.00 12826.00    0.00 51304.00     0.00     8.00     2.30    0.18    0.18    0.00   0.03  39.30
sdd               0.00     0.00 12909.00    0.00 51636.00     0.00     8.00     2.34    0.18    0.18    0.00   0.03  37.90
sde               0.00     0.00 12577.00    0.00 50308.00     0.00     8.00     2.25    0.18    0.18    0.00   0.03  38.80
sdf               0.00     0.00 12780.00    0.00 51116.00     0.00     8.00     2.29    0.18    0.18    0.00   0.03  38.00
sdg               0.00     0.00    0.00    0.00     0.00     0.00     0.00     0.00    0.00    0.00    0.00   0.00   0.00
sdh               0.00     0.00    0.00    0.00     0.00     0.00     0.00     0.00    0.00    0.00    0.00   0.00   0.00
md0               0.00     0.00 77091.00    0.00 308364.00     0.00     8.00     0.00    0.00    0.00    0.00   0.00   0.00

