Linux 4.17.2 (bench) 	08/03/2018 	_x86_64_	(4 CPU)

avg-cpu:  %user   %nice %system %iowait  %steal   %idle
          10.26    0.02    4.17    2.72    0.00   82.84

Device:         rrqm/s   wrqm/s     r/s     w/s    rkB/s    wkB/s avgrq-sz avgqu-sz   await r_await w_await  svctm  %util
sda              53.23     4.19 1721.69  101.25 21319.20  3098.22    26.79     1.05    0.57    0.26    5.92   0.06  11.01
sdb              53.04     4.15 1721.69  101.39 21308.73  3094.92    26.77     1.05    0.57    0.26    5.85   0.06  10.89
sdc              90.83     4.21 1681.80  100.95 21300.91  3097.36    27.37     1.47    0.82    0.45    7.12   0.08  14.39
sdd              84.35     4.18 1687.46  101.02 21285.89  3093.60    27.26     1.47    0.82    0.43    7.33   0.08  14.48
sde              86.35     4.22 1692.55  101.11 21345.31  3097.79    27.26     1.50    0.83    0.44    7.44   0.08  14.50
sdf              83.49     4.20 1694.66  101.06 21326.73  3094.70    27.20     1.54    0.86    0.44    7.90   0.08  14.53
sdg               0.00     3.17   26.77   73.26   325.83   392.01    14.35     0.44    4.40    0.20    5.93   0.08   0.78
sdh               0.00     0.13    0.02    0.23     2.18     5.00    56.82     0.00    1.15    0.65    1.19   0.21   0.01
md0               0.00     0.00 10658.53  474.41 146095.60 21206.90    30.06     0.00    0.00    0.00    0.00   0.00   0.00

avg-cpu:  %user   %nice %system %iowait  %steal   %idle
           0.51    0.00   15.19   65.32    0.00   18.99

Device:         rrqm/s   wrqm/s     r/s     w/s    rkB/s    wkB/s avgrq-sz avgqu-sz   await r_await w_await  svctm  %util
sda               0.00     0.00 11216.00    0.00 44864.00     0.00     8.00     1.14    0.10    0.10    0.00   0.07  80.40
sdb               0.00     0.00 11102.00    0.00 44408.00     0.00     8.00     1.13    0.10    0.10    0.00   0.07  79.50
sdc               0.00     0.00 11026.00    0.00 44104.00     0.00     8.00     1.24    0.11    0.11    0.00   0.08  83.40
sdd               0.00     0.00 10947.00    0.00 43788.00     0.00     8.00     1.20    0.11    0.11    0.00   0.08  82.30
sde               0.00     0.00 10869.00    0.00 43476.00     0.00     8.00     1.22    0.11    0.11    0.00   0.08  83.40
sdf               0.00     0.00 11351.00    0.00 45404.00     0.00     8.00     1.29    0.11    0.11    0.00   0.07  84.70
sdg               0.00    17.00   18.00   63.00   300.00  1236.00    37.93     0.17    2.06    0.22    2.59   0.10   0.80
sdh               0.00     0.00    0.00    0.00     0.00     0.00     0.00     0.00    0.00    0.00    0.00   0.00   0.00
md0               0.00     0.00 66524.00    0.00 266096.00     0.00     8.00     0.00    0.00    0.00    0.00   0.00   0.00

avg-cpu:  %user   %nice %system %iowait  %steal   %idle
           0.51    0.00   15.35   67.26    0.00   16.88

Device:         rrqm/s   wrqm/s     r/s     w/s    rkB/s    wkB/s avgrq-sz avgqu-sz   await r_await w_await  svctm  %util
sda               0.00     0.00 10832.00    0.00 43328.00     0.00     8.00     1.11    0.10    0.10    0.00   0.07  80.00
sdb               0.00     0.00 11187.00    0.00 44748.00     0.00     8.00     1.13    0.10    0.10    0.00   0.07  79.90
sdc               0.00     0.00 11380.00    0.00 45520.00     0.00     8.00     1.28    0.11    0.11    0.00   0.07  85.10
sdd               0.00     0.00 11174.00    0.00 44696.00     0.00     8.00     1.25    0.11    0.11    0.00   0.07  83.80
sde               0.00     0.00 11310.00    0.00 45240.00     0.00     8.00     1.27    0.11    0.11    0.00   0.08  85.30
sdf               0.00     0.00 11269.00    0.00 45076.00     0.00     8.00     1.26    0.11    0.11    0.00   0.07  84.20
sdg               0.00    74.00    0.00 2330.00     0.00 11592.00     9.95    14.63    5.92    0.00    5.92   0.04  10.30
sdh               0.00     0.00    0.00    0.00     0.00     0.00     0.00     0.00    0.00    0.00    0.00   0.00   0.00
md0               0.00     0.00 67152.00    0.00 268608.00     0.00     8.00     0.00    0.00    0.00    0.00   0.00   0.00

avg-cpu:  %user   %nice %system %iowait  %steal   %idle
           0.51    0.00   15.27   67.18    0.00   17.05

Device:         rrqm/s   wrqm/s     r/s     w/s    rkB/s    wkB/s avgrq-sz avgqu-sz   await r_await w_await  svctm  %util
sda               0.00     0.00 11179.00    0.00 44716.00     0.00     8.00     1.13    0.10    0.10    0.00   0.07  79.20
sdb               0.00     0.00 11325.00    0.00 45300.00     0.00     8.00     1.14    0.10    0.10    0.00   0.07  80.60
sdc               0.00     0.00 11144.00    0.00 44576.00     0.00     8.00     1.25    0.11    0.11    0.00   0.07  83.00
sdd               0.00     0.00 11219.00    0.00 44876.00     0.00     8.00     1.27    0.11    0.11    0.00   0.07  84.10
sde               0.00     0.00 11458.00    0.00 45832.00     0.00     8.00     1.27    0.11    0.11    0.00   0.07  83.80
sdf               0.00     0.00 11527.00    0.00 46108.00     0.00     8.00     1.27    0.11    0.11    0.00   0.07  83.90
sdg               0.00     2.00    0.00  220.00     0.00  1104.00    10.04     0.98    8.29    0.00    8.29   0.05   1.00
sdh               0.00     0.00    0.00    0.00     0.00     0.00     0.00     0.00    0.00    0.00    0.00   0.00   0.00
md0               0.00     0.00 67852.00    0.00 271408.00     0.00     8.00     0.00    0.00    0.00    0.00   0.00   0.00

avg-cpu:  %user   %nice %system %iowait  %steal   %idle
           0.25    0.00   16.16   67.17    0.00   16.41

Device:         rrqm/s   wrqm/s     r/s     w/s    rkB/s    wkB/s avgrq-sz avgqu-sz   await r_await w_await  svctm  %util
sda               0.00     0.00 11208.00    0.00 44832.00     0.00     8.00     1.13    0.10    0.10    0.00   0.07  80.50
sdb               0.00     0.00 11430.00    0.00 45720.00     0.00     8.00     1.17    0.10    0.10    0.00   0.07  80.30
sdc               0.00     0.00 11072.00    0.00 44288.00     0.00     8.00     1.22    0.11    0.11    0.00   0.07  82.80
sdd               0.00     0.00 11399.00    0.00 45596.00     0.00     8.00     1.26    0.11    0.11    0.00   0.07  85.10
sde               0.00     0.00 11440.00    0.00 45760.00     0.00     8.00     1.28    0.11    0.11    0.00   0.07  85.80
sdf               0.00     0.00 11109.00    0.00 44436.00     0.00     8.00     1.23    0.11    0.11    0.00   0.07  83.30
sdg               0.00     0.00    0.00    0.00     0.00     0.00     0.00     0.00    0.00    0.00    0.00   0.00   0.00
sdh               0.00     0.00    0.00    0.00     0.00     0.00     0.00     0.00    0.00    0.00    0.00   0.00   0.00
md0               0.00     0.00 67658.00    0.00 270632.00     0.00     8.00     0.00    0.00    0.00    0.00   0.00   0.00

avg-cpu:  %user   %nice %system %iowait  %steal   %idle
           0.51    0.00   15.44   66.58    0.00   17.47

Device:         rrqm/s   wrqm/s     r/s     w/s    rkB/s    wkB/s avgrq-sz avgqu-sz   await r_await w_await  svctm  %util
sda               0.00     0.00 11269.00    0.00 45076.00     0.00     8.00     1.18    0.10    0.10    0.00   0.07  81.10
sdb               0.00     0.00 11377.00    0.00 45508.00     0.00     8.00     1.12    0.10    0.10    0.00   0.07  79.50
sdc               0.00     0.00 11248.00    0.00 44992.00     0.00     8.00     1.25    0.11    0.11    0.00   0.07  83.50
sdd               0.00     0.00 11046.00    0.00 44184.00     0.00     8.00     1.23    0.11    0.11    0.00   0.08  83.10
sde               0.00     0.00 11318.00    0.00 45272.00     0.00     8.00     1.28    0.11    0.11    0.00   0.08  86.70
sdf               0.00     0.00 11482.00    0.00 45928.00     0.00     8.00     1.28    0.11    0.11    0.00   0.07  84.80
sdg               0.00     0.00    0.00    0.00     0.00     0.00     0.00     0.00    0.00    0.00    0.00   0.00   0.00
sdh               0.00     0.00    0.00    0.00     0.00     0.00     0.00     0.00    0.00    0.00    0.00   0.00   0.00
md0               0.00     0.00 67729.00    0.00 270916.00     0.00     8.00     0.00    0.00    0.00    0.00   0.00   0.00

avg-cpu:  %user   %nice %system %iowait  %steal   %idle
           0.51    0.00   15.23   65.74    0.00   18.53

Device:         rrqm/s   wrqm/s     r/s     w/s    rkB/s    wkB/s avgrq-sz avgqu-sz   await r_await w_await  svctm  %util
sda               0.00     0.00 11337.00    0.00 45348.00     0.00     8.00     1.14    0.10    0.10    0.00   0.07  80.50
sdb               0.00     0.00 11349.00    0.00 45396.00     0.00     8.00     1.17    0.10    0.10    0.00   0.07  81.20
sdc               0.00     0.00 10993.00    0.00 43972.00     0.00     8.00     1.22    0.11    0.11    0.00   0.08  82.90
sdd               0.00     0.00 11128.00    0.00 44512.00     0.00     8.00     1.23    0.11    0.11    0.00   0.07  83.10
sde               0.00     0.00 10931.00    0.00 43724.00     0.00     8.00     1.24    0.11    0.11    0.00   0.08  83.40
sdf               0.00     0.00 11456.00    0.00 45824.00     0.00     8.00     1.28    0.11    0.11    0.00   0.07  85.90
sdg               0.00     0.00    0.00    0.00     0.00     0.00     0.00     0.00    0.00    0.00    0.00   0.00   0.00
sdh               0.00     0.00    0.00    0.00     0.00     0.00     0.00     0.00    0.00    0.00    0.00   0.00   0.00
md0               0.00     0.00 67203.00    0.00 268812.00     0.00     8.00     0.00    0.00    0.00    0.00   0.00   0.00

avg-cpu:  %user   %nice %system %iowait  %steal   %idle
           0.51    0.00   15.44   65.82    0.00   18.23

Device:         rrqm/s   wrqm/s     r/s     w/s    rkB/s    wkB/s avgrq-sz avgqu-sz   await r_await w_await  svctm  %util
sda               0.00     0.00 11288.00    0.00 45152.00     0.00     8.00     1.14    0.10    0.10    0.00   0.07  79.80
sdb               0.00     0.00 11400.00    0.00 45600.00     0.00     8.00     1.14    0.10    0.10    0.00   0.07  80.80
sdc               0.00     0.00 11355.00    0.00 45420.00     0.00     8.00     1.26    0.11    0.11    0.00   0.07  83.00
sdd               0.00     0.00 11296.00    0.00 45184.00     0.00     8.00     1.25    0.11    0.11    0.00   0.07  83.90
sde               0.00     0.00 11041.00    0.00 44164.00     0.00     8.00     1.23    0.11    0.11    0.00   0.08  84.30
sdf               0.00     0.00 11030.00    0.00 44120.00     0.00     8.00     1.25    0.11    0.11    0.00   0.08  84.80
sdg               0.00     0.00    0.00    0.00     0.00     0.00     0.00     0.00    0.00    0.00    0.00   0.00   0.00
sdh               0.00     0.00    0.00    0.00     0.00     0.00     0.00     0.00    0.00    0.00    0.00   0.00   0.00
md0               0.00     0.00 67413.00    0.00 269652.00     0.00     8.00     0.00    0.00    0.00    0.00   0.00   0.00

avg-cpu:  %user   %nice %system %iowait  %steal   %idle
           0.51    0.00   15.52   66.41    0.00   17.56

Device:         rrqm/s   wrqm/s     r/s     w/s    rkB/s    wkB/s avgrq-sz avgqu-sz   await r_await w_await  svctm  %util
sda               0.00     0.00 11280.00    0.00 45120.00     0.00     8.00     1.11    0.10    0.10    0.00   0.07  79.80
sdb               0.00     0.00 11227.00    0.00 44908.00     0.00     8.00     1.14    0.10    0.10    0.00   0.07  80.60
sdc               0.00     0.00 11582.00    0.00 46328.00     0.00     8.00     1.25    0.11    0.11    0.00   0.07  82.10
sdd               0.00     0.00 11441.00    0.00 45764.00     0.00     8.00     1.29    0.11    0.11    0.00   0.07  84.40
sde               0.00     0.00 11288.00    0.00 45152.00     0.00     8.00     1.27    0.11    0.11    0.00   0.07  83.70
sdf               0.00     0.00 10921.00    0.00 43684.00     0.00     8.00     1.21    0.11    0.11    0.00   0.08  82.60
sdg               0.00     1.00    9.00    2.00    36.00    24.00    10.91     0.00    0.09    0.11    0.00   0.09   0.10
sdh               0.00     0.00    0.00    0.00     0.00     0.00     0.00     0.00    0.00    0.00    0.00   0.00   0.00
md0               0.00     0.00 67740.00    0.00 270960.00     0.00     8.00     0.00    0.00    0.00    0.00   0.00   0.00

avg-cpu:  %user   %nice %system %iowait  %steal   %idle
           0.50    0.00   15.87   66.50    0.00   17.13

Device:         rrqm/s   wrqm/s     r/s     w/s    rkB/s    wkB/s avgrq-sz avgqu-sz   await r_await w_await  svctm  %util
sda               0.00     0.00 11427.00    0.00 45708.00     0.00     8.00     1.14    0.10    0.10    0.00   0.07  79.10
sdb               0.00     0.00 10961.00    0.00 43844.00     0.00     8.00     1.09    0.10    0.10    0.00   0.07  78.30
sdc               0.00     0.00 11222.00    0.00 44888.00     0.00     8.00     1.24    0.11    0.11    0.00   0.07  83.80
sdd               0.00     0.00 11116.00    0.00 44464.00     0.00     8.00     1.22    0.11    0.11    0.00   0.08  83.60
sde               0.00     0.00 11424.00    0.00 45696.00     0.00     8.00     1.26    0.11    0.11    0.00   0.07  82.70
sdf               0.00     0.00 11421.00    0.00 45684.00     0.00     8.00     1.28    0.11    0.11    0.00   0.07  83.30
sdg               0.00     0.00    0.00    0.00     0.00     0.00     0.00     0.00    0.00    0.00    0.00   0.00   0.00
sdh               0.00     0.00    0.00    0.00     0.00     0.00     0.00     0.00    0.00    0.00    0.00   0.00   0.00
md0               0.00     0.00 67570.00    0.00 270280.00     0.00     8.00     0.00    0.00    0.00    0.00   0.00   0.00

avg-cpu:  %user   %nice %system %iowait  %steal   %idle
           0.25    0.25   16.20   66.08    0.00   17.22

Device:         rrqm/s   wrqm/s     r/s     w/s    rkB/s    wkB/s avgrq-sz avgqu-sz   await r_await w_await  svctm  %util
sda               0.00     0.00 11303.00    0.00 45212.00     0.00     8.00     1.16    0.10    0.10    0.00   0.07  80.80
sdb               0.00     0.00 11367.00    0.00 45468.00     0.00     8.00     1.13    0.10    0.10    0.00   0.07  79.50
sdc               0.00     0.00 11080.00    0.00 44320.00     0.00     8.00     1.23    0.11    0.11    0.00   0.08  83.80
sdd               0.00     0.00 11272.00    0.00 45088.00     0.00     8.00     1.26    0.11    0.11    0.00   0.07  83.80
sde               0.00     0.00 11502.00    0.00 46008.00     0.00     8.00     1.29    0.11    0.11    0.00   0.08  87.80
sdf               0.00     0.00 11084.00    0.00 44336.00     0.00     8.00     1.25    0.11    0.11    0.00   0.08  84.10
sdg               0.00     0.00   21.00    0.00   144.00     0.00    13.71     0.00    0.05    0.05    0.00   0.05   0.10
sdh               0.00     0.00    0.00    0.00     0.00     0.00     0.00     0.00    0.00    0.00    0.00   0.00   0.00
md0               0.00     0.00 67610.00    0.00 270440.00     0.00     8.00     0.00    0.00    0.00    0.00   0.00   0.00

avg-cpu:  %user   %nice %system %iowait  %steal   %idle
           0.51    0.00   14.62   67.44    0.00   17.44

Device:         rrqm/s   wrqm/s     r/s     w/s    rkB/s    wkB/s avgrq-sz avgqu-sz   await r_await w_await  svctm  %util
sda               0.00     0.00 11065.00    0.00 44260.00     0.00     8.00     1.12    0.10    0.10    0.00   0.07  79.90
sdb               0.00     0.00 11383.00    0.00 45532.00     0.00     8.00     1.16    0.10    0.10    0.00   0.07  82.00
sdc               0.00     0.00 11315.00    0.00 45260.00     0.00     8.00     1.26    0.11    0.11    0.00   0.07  83.80
sdd               0.00     0.00 11229.00    0.00 44916.00     0.00     8.00     1.26    0.11    0.11    0.00   0.07  83.50
sde               0.00     0.00 11397.00    0.00 45588.00     0.00     8.00     1.26    0.11    0.11    0.00   0.07  84.30
sdf               0.00     0.00 11359.00    0.00 45436.00     0.00     8.00     1.28    0.11    0.11    0.00   0.07  84.30
sdg               0.00     0.00    0.00    0.00     0.00     0.00     0.00     0.00    0.00    0.00    0.00   0.00   0.00
sdh               0.00     0.00    0.00    0.00     0.00     0.00     0.00     0.00    0.00    0.00    0.00   0.00   0.00
md0               0.00     0.00 67747.00    0.00 270988.00     0.00     8.00     0.00    0.00    0.00    0.00   0.00   0.00

avg-cpu:  %user   %nice %system %iowait  %steal   %idle
           0.51    0.00   15.01   66.67    0.00   17.81

Device:         rrqm/s   wrqm/s     r/s     w/s    rkB/s    wkB/s avgrq-sz avgqu-sz   await r_await w_await  svctm  %util
sda               0.00     0.00 11425.00    0.00 45700.00     0.00     8.00     1.15    0.10    0.10    0.00   0.07  80.00
sdb               0.00     0.00 11214.00    0.00 44856.00     0.00     8.00     1.13    0.10    0.10    0.00   0.07  79.90
sdc               0.00     0.00 11223.00    0.00 44892.00     0.00     8.00     1.25    0.11    0.11    0.00   0.07  83.20
sdd               0.00     0.00 11272.00    0.00 45088.00     0.00     8.00     1.28    0.11    0.11    0.00   0.08  84.90
sde               0.00     0.00 11474.00    0.00 45896.00     0.00     8.00     1.28    0.11    0.11    0.00   0.07  83.10
sdf               0.00     0.00 11212.00    0.00 44848.00     0.00     8.00     1.25    0.11    0.11    0.00   0.07  84.00
sdg               0.00     0.00    0.00    0.00     0.00     0.00     0.00     0.00    0.00    0.00    0.00   0.00   0.00
sdh               0.00     0.00    0.00    0.00     0.00     0.00     0.00     0.00    0.00    0.00    0.00   0.00   0.00
md0               0.00     0.00 67806.00    0.00 271224.00     0.00     8.00     0.00    0.00    0.00    0.00   0.00   0.00

avg-cpu:  %user   %nice %system %iowait  %steal   %idle
           0.51    0.00   15.05   67.60    0.00   16.84

Device:         rrqm/s   wrqm/s     r/s     w/s    rkB/s    wkB/s avgrq-sz avgqu-sz   await r_await w_await  svctm  %util
sda               0.00     0.00 11099.00    0.00 44400.00     0.00     8.00     1.11    0.10    0.10    0.00   0.07  79.10
sdb               0.00     0.00 11565.00    0.00 46260.00     0.00     8.00     1.16    0.10    0.10    0.00   0.07  80.90
sdc               0.00     0.00 11207.00    0.00 44828.00     0.00     8.00     1.23    0.11    0.11    0.00   0.07  82.90
sdd               0.00     0.00 11204.00    0.00 44816.00     0.00     8.00     1.26    0.11    0.11    0.00   0.08  84.70
sde               0.00     0.00 11368.00    0.00 45472.00     0.00     8.00     1.24    0.11    0.11    0.00   0.07  82.80
sdf               0.00     0.00 11298.00    0.00 45192.00     0.00     8.00     1.27    0.11    0.11    0.00   0.07  84.70
sdg               0.00     1.00    5.00    5.00    20.00    48.00    13.60     0.00    0.10    0.20    0.00   0.10   0.10
sdh               0.00     0.00    0.00    0.00     0.00     0.00     0.00     0.00    0.00    0.00    0.00   0.00   0.00
md0               0.00     0.00 67755.00    0.00 271020.00     0.00     8.00     0.00    0.00    0.00    0.00   0.00   0.00

avg-cpu:  %user   %nice %system %iowait  %steal   %idle
           0.76    0.00   14.97   67.01    0.00   17.26

Device:         rrqm/s   wrqm/s     r/s     w/s    rkB/s    wkB/s avgrq-sz avgqu-sz   await r_await w_await  svctm  %util
sda               0.00     0.00 11233.00    0.00 44928.00     0.00     8.00     1.14    0.10    0.10    0.00   0.07  79.80
sdb               0.00     0.00 11390.00    0.00 45560.00     0.00     8.00     1.15    0.10    0.10    0.00   0.07  79.90
sdc               0.00     0.00 11376.00    0.00 45504.00     0.00     8.00     1.26    0.11    0.11    0.00   0.08  85.40
sdd               0.00     0.00 11096.00    0.00 44384.00     0.00     8.00     1.24    0.11    0.11    0.00   0.08  83.50
sde               0.00     0.00 11485.00    0.00 45940.00     0.00     8.00     1.25    0.11    0.11    0.00   0.07  82.10
sdf               0.00     0.00 11210.00    0.00 44840.00     0.00     8.00     1.25    0.11    0.11    0.00   0.07  83.90
sdg               0.00     0.00    0.00    0.00     0.00     0.00     0.00     0.00    0.00    0.00    0.00   0.00   0.00
sdh               0.00     0.00    0.00    0.00     0.00     0.00     0.00     0.00    0.00    0.00    0.00   0.00   0.00
md0               0.00     0.00 67788.00    0.00 271152.00     0.00     8.00     0.00    0.00    0.00    0.00   0.00   0.00

avg-cpu:  %user   %nice %system %iowait  %steal   %idle
           0.51    0.00   15.48   66.50    0.00   17.51

Device:         rrqm/s   wrqm/s     r/s     w/s    rkB/s    wkB/s avgrq-sz avgqu-sz   await r_await w_await  svctm  %util
sda               0.00     0.00 11271.00    0.00 45084.00     0.00     8.00     1.13    0.10    0.10    0.00   0.07  80.10
sdb               0.00     0.00 11354.00    0.00 45416.00     0.00     8.00     1.13    0.10    0.10    0.00   0.07  80.00
sdc               0.00     0.00 11300.00    0.00 45200.00     0.00     8.00     1.26    0.11    0.11    0.00   0.07  83.30
sdd               0.00     0.00 11289.00    0.00 45156.00     0.00     8.00     1.25    0.11    0.11    0.00   0.07  83.30
sde               0.00     0.00 11252.00    0.00 45008.00     0.00     8.00     1.27    0.11    0.11    0.00   0.08  84.70
sdf               0.00     0.00 11218.00    0.00 44872.00     0.00     8.00     1.24    0.11    0.11    0.00   0.07  82.40
sdg               0.00     0.00    2.00   21.00    32.00   228.00    22.61     0.02    0.74    0.00    0.81   0.04   0.10
sdh               0.00     0.00    0.00    0.00     0.00     0.00     0.00     0.00    0.00    0.00    0.00   0.00   0.00
md0               0.00     0.00 67685.00    0.00 270740.00     0.00     8.00     0.00    0.00    0.00    0.00   0.00   0.00

avg-cpu:  %user   %nice %system %iowait  %steal   %idle
           0.51    0.00   15.48   66.24    0.00   17.77

Device:         rrqm/s   wrqm/s     r/s     w/s    rkB/s    wkB/s avgrq-sz avgqu-sz   await r_await w_await  svctm  %util
sda               0.00     0.00 11474.00    0.00 45896.00     0.00     8.00     1.14    0.10    0.10    0.00   0.07  81.10
sdb               0.00     0.00 11477.00    0.00 45908.00     0.00     8.00     1.18    0.10    0.10    0.00   0.07  80.90
sdc               0.00     0.00 11359.00    0.00 45436.00     0.00     8.00     1.26    0.11    0.11    0.00   0.08  85.30
sdd               0.00     0.00 11102.00    0.00 44408.00     0.00     8.00     1.24    0.11    0.11    0.00   0.08  83.70
sde               0.00     0.00 11365.00    0.00 45460.00     0.00     8.00     1.27    0.11    0.11    0.00   0.07  84.00
sdf               0.00     0.00 11106.00    0.00 44424.00     0.00     8.00     1.22    0.11    0.11    0.00   0.08  83.40
sdg               0.00     0.00    0.00    0.00     0.00     0.00     0.00     0.00    0.00    0.00    0.00   0.00   0.00
sdh               0.00     0.00    0.00    0.00     0.00     0.00     0.00     0.00    0.00    0.00    0.00   0.00   0.00
md0               0.00     0.00 67883.00    0.00 271532.00     0.00     8.00     0.00    0.00    0.00    0.00   0.00   0.00

avg-cpu:  %user   %nice %system %iowait  %steal   %idle
           0.76    0.00   15.44   66.84    0.00   16.96

Device:         rrqm/s   wrqm/s     r/s     w/s    rkB/s    wkB/s avgrq-sz avgqu-sz   await r_await w_await  svctm  %util
sda               0.00     0.00 11483.00    0.00 45932.00     0.00     8.00     1.14    0.10    0.10    0.00   0.07  80.50
sdb               0.00     0.00 11278.00    0.00 45112.00     0.00     8.00     1.12    0.10    0.10    0.00   0.07  78.60
sdc               0.00     0.00 11336.00    0.00 45344.00     0.00     8.00     1.27    0.11    0.11    0.00   0.07  83.80
sdd               0.00     0.00 11332.00    0.00 45328.00     0.00     8.00     1.27    0.11    0.11    0.00   0.07  84.50
sde               0.00     0.00 11349.00    0.00 45396.00     0.00     8.00     1.24    0.11    0.11    0.00   0.07  82.40
sdf               0.00     0.00 11333.00    0.00 45332.00     0.00     8.00     1.26    0.11    0.11    0.00   0.07  84.20
sdg               0.00     0.00    0.00    0.00     0.00     0.00     0.00     0.00    0.00    0.00    0.00   0.00   0.00
sdh               0.00     0.00    0.00    0.00     0.00     0.00     0.00     0.00    0.00    0.00    0.00   0.00   0.00
md0               0.00     0.00 68109.00    0.00 272436.00     0.00     8.00     0.00    0.00    0.00    0.00   0.00   0.00

avg-cpu:  %user   %nice %system %iowait  %steal   %idle
           0.51    0.00   14.80   66.84    0.00   17.86

Device:         rrqm/s   wrqm/s     r/s     w/s    rkB/s    wkB/s avgrq-sz avgqu-sz   await r_await w_await  svctm  %util
sda               0.00     0.00 11199.00    0.00 44796.00     0.00     8.00     1.15    0.10    0.10    0.00   0.07  80.60
sdb               0.00     0.00 11138.00    0.00 44552.00     0.00     8.00     1.11    0.10    0.10    0.00   0.07  79.10
sdc               0.00     0.00 11074.00    0.00 44296.00     0.00     8.00     1.23    0.11    0.11    0.00   0.07  81.60
sdd               0.00     0.00 11343.00    0.00 45372.00     0.00     8.00     1.28    0.11    0.11    0.00   0.07  84.20
sde               0.00     0.00 11275.00    0.00 45100.00     0.00     8.00     1.25    0.11    0.11    0.00   0.07  83.90
sdf               0.00     0.00 11473.00    0.00 45892.00     0.00     8.00     1.28    0.11    0.11    0.00   0.08  86.40
sdg               0.00     0.00    0.00    0.00     0.00     0.00     0.00     0.00    0.00    0.00    0.00   0.00   0.00
sdh               0.00     0.00    0.00    0.00     0.00     0.00     0.00     0.00    0.00    0.00    0.00   0.00   0.00
md0               0.00     0.00 67502.00    0.00 270008.00     0.00     8.00     0.00    0.00    0.00    0.00   0.00   0.00

avg-cpu:  %user   %nice %system %iowait  %steal   %idle
           0.75    0.00   16.04   66.42    0.00   16.79

Device:         rrqm/s   wrqm/s     r/s     w/s    rkB/s    wkB/s avgrq-sz avgqu-sz   await r_await w_await  svctm  %util
sda               0.00     0.00 11145.00    0.00 44580.00     0.00     8.00     1.11    0.10    0.10    0.00   0.07  78.50
sdb               0.00     0.00 11401.00    0.00 45604.00     0.00     8.00     1.15    0.10    0.10    0.00   0.07  80.20
sdc               0.00     0.00 11469.00    0.00 45876.00     0.00     8.00     1.28    0.11    0.11    0.00   0.07  85.20
sdd               0.00     0.00 11495.00    0.00 45980.00     0.00     8.00     1.28    0.11    0.11    0.00   0.07  84.50
sde               0.00     0.00 11118.00    0.00 44472.00     0.00     8.00     1.23    0.11    0.11    0.00   0.08  84.10
sdf               0.00     0.00 11337.00    0.00 45348.00     0.00     8.00     1.25    0.11    0.11    0.00   0.07  83.10
sdg               0.00     0.00    0.00    0.00     0.00     0.00     0.00     0.00    0.00    0.00    0.00   0.00   0.00
sdh               0.00     0.00    0.00    0.00     0.00     0.00     0.00     0.00    0.00    0.00    0.00   0.00   0.00
md0               0.00     0.00 67967.00    0.00 271868.00     0.00     8.00     0.00    0.00    0.00    0.00   0.00   0.00

avg-cpu:  %user   %nice %system %iowait  %steal   %idle
           0.51    0.25   15.91   65.40    0.00   17.93

Device:         rrqm/s   wrqm/s     r/s     w/s    rkB/s    wkB/s avgrq-sz avgqu-sz   await r_await w_await  svctm  %util
sda               0.00     0.00 11276.00    0.00 45104.00     0.00     8.00     1.13    0.10    0.10    0.00   0.07  80.00
sdb               0.00     0.00 11084.00    0.00 44336.00     0.00     8.00     1.13    0.10    0.10    0.00   0.07  79.80
sdc               0.00     0.00 11234.00    0.00 44936.00     0.00     8.00     1.24    0.11    0.11    0.00   0.07  82.80
sdd               0.00     0.00 11262.00    0.00 45048.00     0.00     8.00     1.24    0.11    0.11    0.00   0.07  83.60
sde               0.00     0.00 11346.00    0.00 45384.00     0.00     8.00     1.27    0.11    0.11    0.00   0.07  83.60
sdf               0.00     0.00 11256.00    0.00 45024.00     0.00     8.00     1.26    0.11    0.11    0.00   0.07  84.30
sdg               0.00     0.00    3.00    0.00    12.00     0.00     8.00     0.00    0.00    0.00    0.00   0.00   0.00
sdh               0.00     0.00    0.00    0.00     0.00     0.00     0.00     0.00    0.00    0.00    0.00   0.00   0.00
md0               0.00     0.00 67459.00    0.00 269836.00     0.00     8.00     0.00    0.00    0.00    0.00   0.00   0.00

