Linux 4.17.2 (bench) 	08/03/2018 	_x86_64_	(4 CPU)

avg-cpu:  %user   %nice %system %iowait  %steal   %idle
          10.26    0.02    4.13    2.67    0.00   82.92

Device:         rrqm/s   wrqm/s     r/s     w/s    rkB/s    wkB/s avgrq-sz avgqu-sz   await r_await w_await  svctm  %util
sda              50.28     4.21 1698.14  101.65 21185.86  3110.29    27.00     1.04    0.58    0.26    5.92   0.06  10.92
sdb              50.11     4.17 1698.11  101.79 21175.35  3106.98    26.98     1.04    0.58    0.26    5.85   0.06  10.80
sdc              87.90     4.23 1658.22  101.34 21167.45  3109.42    27.59     1.46    0.83    0.45    7.12   0.08  14.28
sdd              81.39     4.20 1663.91  101.41 21152.45  3105.65    27.48     1.47    0.83    0.44    7.33   0.08  14.37
sde              83.41     4.24 1668.99  101.51 21211.94  3109.86    27.47     1.49    0.84    0.44    7.44   0.08  14.40
sdf              80.54     4.21 1671.10  101.45 21193.30  3106.75    27.42     1.53    0.86    0.44    7.90   0.08  14.43
sdg               0.00     3.17   26.60   73.28   325.11   392.01    14.36     0.44    4.40    0.20    5.93   0.08   0.78
sdh               0.00     0.13    0.02    0.23     2.19     5.02    56.82     0.00    1.15    0.65    1.19   0.21   0.01
md0               0.00     0.00 10499.21  476.26 145168.75 21289.50    30.33     0.00    0.00    0.00    0.00   0.00   0.00

avg-cpu:  %user   %nice %system %iowait  %steal   %idle
           1.62    0.03   18.55   10.29    0.00   69.51

Device:         rrqm/s   wrqm/s     r/s     w/s    rkB/s    wkB/s avgrq-sz avgqu-sz   await r_await w_await  svctm  %util
sda               0.00     0.00 10204.15    0.00 40816.60     0.00     8.00     1.97    0.19    0.19    0.00   0.02  21.31
sdb               0.00     0.00 10470.75    0.00 41883.00     0.00     8.00     2.00    0.19    0.19    0.00   0.02  21.71
sdc               0.00     0.00 10473.55    0.00 41894.20     0.00     8.00     2.73    0.26    0.26    0.00   0.03  29.01
sdd               0.00     0.00 10331.35    0.00 41325.40     0.00     8.00     2.67    0.26    0.26    0.00   0.03  28.56
sde               0.00     0.00 10388.35    0.00 41553.40     0.00     8.00     2.61    0.25    0.25    0.00   0.03  28.46
sdf               0.00     0.00 10172.00    0.00 40688.00     0.00     8.00     2.55    0.25    0.25    0.00   0.03  27.64
sdg               0.00     9.00   76.55  129.00   533.40   645.40    11.47     0.81    3.94    0.13    6.20   0.08   1.56
sdh               0.00     0.00    0.00    0.00     0.00     0.00     0.00     0.00    0.00    0.00    0.00   0.00   0.00
md0               0.00     0.00 62041.25    0.00 248165.00     0.00     8.00     0.00    0.00    0.00    0.00   0.00   0.00

