Linux 4.17.2 (bench) 	08/03/2018 	_x86_64_	(4 CPU)

avg-cpu:  %user   %nice %system %iowait  %steal   %idle
          10.27    0.02    4.13    2.66    0.00   82.93

Device:         rrqm/s   wrqm/s     r/s     w/s    rkB/s    wkB/s avgrq-sz avgqu-sz   await r_await w_await  svctm  %util
sda              50.29     4.21 1695.38  101.72 21164.86  3112.33    27.02     1.04    0.58    0.26    5.92   0.06  10.91
sdb              50.12     4.17 1695.34  101.85 21154.38  3109.02    27.00     1.04    0.58    0.26    5.85   0.06  10.79
sdc              87.93     4.23 1655.43  101.41 21146.48  3111.47    27.62     1.46    0.83    0.45    7.12   0.08  14.26
sdd              81.42     4.20 1661.12  101.48 21131.44  3107.69    27.50     1.47    0.83    0.44    7.33   0.08  14.36
sde              83.43     4.24 1666.20  101.57 21190.94  3111.91    27.50     1.49    0.84    0.44    7.44   0.08  14.38
sdf              80.56     4.21 1668.32  101.52 21172.30  3108.79    27.44     1.53    0.87    0.44    7.90   0.08  14.41
sdg               0.00     3.17   26.58   73.28   325.03   392.01    14.36     0.44    4.40    0.20    5.93   0.08   0.78
sdh               0.00     0.13    0.02    0.23     2.19     5.02    56.82     0.00    1.15    0.65    1.19   0.21   0.01
md0               0.00     0.00 10482.66  476.57 145006.26 21303.51    30.35     0.00    0.00    0.00    0.00   0.00   0.00

avg-cpu:  %user   %nice %system %iowait  %steal   %idle
           0.75    0.00    7.04    0.75    0.00   91.46

Device:         rrqm/s   wrqm/s     r/s     w/s    rkB/s    wkB/s avgrq-sz avgqu-sz   await r_await w_await  svctm  %util
sda               0.00     0.00 5300.00    0.00 21200.00     0.00     8.00     0.62    0.12    0.12    0.00   0.03  17.80
sdb               0.00     0.00 5292.00    0.00 21168.00     0.00     8.00     0.63    0.12    0.12    0.00   0.03  17.50
sdc               0.00     0.00 5287.00    0.00 21148.00     0.00     8.00     0.71    0.13    0.13    0.00   0.04  20.90
sdd               0.00     0.00 5457.00    0.00 21828.00     0.00     8.00     0.71    0.13    0.13    0.00   0.04  20.90
sde               0.00     0.00 5360.00    0.00 21440.00     0.00     8.00     0.76    0.14    0.14    0.00   0.04  21.90
sdf               0.00     0.00 5347.00    0.00 21388.00     0.00     8.00     0.72    0.14    0.14    0.00   0.04  19.80
sdg               0.00     0.00    6.00    0.00    36.00     0.00    12.00     0.00    0.17    0.17    0.00   0.17   0.10
sdh               0.00     0.00    0.00    0.00     0.00     0.00     0.00     0.00    0.00    0.00    0.00   0.00   0.00
md0               0.00     0.00 32049.00    0.00 128196.00     0.00     8.00     0.00    0.00    0.00    0.00   0.00   0.00

avg-cpu:  %user   %nice %system %iowait  %steal   %idle
           0.51    0.00    6.85    8.38    0.00   84.26

Device:         rrqm/s   wrqm/s     r/s     w/s    rkB/s    wkB/s avgrq-sz avgqu-sz   await r_await w_await  svctm  %util
sda               0.00     0.00 5209.00    0.00 20836.00     0.00     8.00     0.56    0.11    0.11    0.00   0.03  17.60
sdb               0.00     0.00 5099.00    0.00 20396.00     0.00     8.00     0.62    0.12    0.12    0.00   0.04  18.50
sdc               0.00     0.00 5185.00    0.00 20740.00     0.00     8.00     0.76    0.15    0.15    0.00   0.04  20.70
sdd               0.00     0.00 5298.00    0.00 21192.00     0.00     8.00     0.70    0.13    0.13    0.00   0.04  19.90
sde               0.00     0.00 5099.00    0.00 20396.00     0.00     8.00     0.68    0.13    0.13    0.00   0.04  19.70
sdf               0.00     0.00 5107.00    0.00 20428.00     0.00     8.00     0.74    0.15    0.15    0.00   0.04  20.70
sdg               0.00     0.00    0.00    5.00     0.00   136.00    54.40     0.00    0.00    0.00    0.00   0.00   0.00
sdh               0.00     0.00    0.00    0.00     0.00     0.00     0.00     0.00    0.00    0.00    0.00   0.00   0.00
md0               0.00     0.00 30998.00    0.00 123992.00     0.00     8.00     0.00    0.00    0.00    0.00   0.00   0.00

avg-cpu:  %user   %nice %system %iowait  %steal   %idle
           0.78    0.00    4.66    0.78    0.00   93.78

Device:         rrqm/s   wrqm/s     r/s     w/s    rkB/s    wkB/s avgrq-sz avgqu-sz   await r_await w_await  svctm  %util
sda               0.00     0.00 5158.00    0.00 20632.00     0.00     8.00     0.61    0.12    0.12    0.00   0.03  17.30
sdb               0.00     0.00 5095.00    0.00 20380.00     0.00     8.00     0.61    0.12    0.12    0.00   0.03  17.40
sdc               0.00     0.00 5225.00    0.00 20900.00     0.00     8.00     0.67    0.13    0.13    0.00   0.04  18.50
sdd               0.00     0.00 5277.00    0.00 21108.00     0.00     8.00     0.73    0.14    0.14    0.00   0.04  20.30
sde               0.00     0.00 5204.00    0.00 20816.00     0.00     8.00     0.73    0.14    0.14    0.00   0.04  20.60
sdf               0.00     0.00 5312.00    0.00 21248.00     0.00     8.00     0.72    0.14    0.14    0.00   0.04  18.70
sdg               0.00     0.00    0.00    0.00     0.00     0.00     0.00     0.00    0.00    0.00    0.00   0.00   0.00
sdh               0.00     0.00    0.00    0.00     0.00     0.00     0.00     0.00    0.00    0.00    0.00   0.00   0.00
md0               0.00     0.00 31276.00    0.00 125104.00     0.00     8.00     0.00    0.00    0.00    0.00   0.00   0.00

avg-cpu:  %user   %nice %system %iowait  %steal   %idle
           0.52    0.00    5.44    1.04    0.00   93.01

Device:         rrqm/s   wrqm/s     r/s     w/s    rkB/s    wkB/s avgrq-sz avgqu-sz   await r_await w_await  svctm  %util
sda               0.00     0.00 5333.00    0.00 21332.00     0.00     8.00     0.64    0.12    0.12    0.00   0.03  18.10
sdb               0.00     0.00 5239.00    0.00 20956.00     0.00     8.00     0.55    0.10    0.10    0.00   0.03  16.50
sdc               0.00     0.00 5125.00    0.00 20500.00     0.00     8.00     0.76    0.15    0.15    0.00   0.04  20.80
sdd               0.00     0.00 5233.00    0.00 20932.00     0.00     8.00     0.70    0.13    0.13    0.00   0.04  19.50
sde               0.00     0.00 5272.00    0.00 21088.00     0.00     8.00     0.71    0.14    0.14    0.00   0.04  19.40
sdf               0.00     0.00 5144.00    0.00 20576.00     0.00     8.00     0.72    0.14    0.14    0.00   0.04  19.70
sdg               0.00     0.00    0.00    0.00     0.00     0.00     0.00     0.00    0.00    0.00    0.00   0.00   0.00
sdh               0.00     0.00    0.00    0.00     0.00     0.00     0.00     0.00    0.00    0.00    0.00   0.00   0.00
md0               0.00     0.00 31342.00    0.00 125368.00     0.00     8.00     0.00    0.00    0.00    0.00   0.00   0.00

avg-cpu:  %user   %nice %system %iowait  %steal   %idle
           0.76    0.00    6.62    8.40    0.00   84.22

Device:         rrqm/s   wrqm/s     r/s     w/s    rkB/s    wkB/s avgrq-sz avgqu-sz   await r_await w_await  svctm  %util
sda               0.00     0.00 5269.00    0.00 21076.00     0.00     8.00     0.58    0.11    0.11    0.00   0.03  17.40
sdb               0.00     0.00 5306.00    0.00 21224.00     0.00     8.00     0.61    0.12    0.12    0.00   0.03  16.90
sdc               0.00     0.00 5260.00    0.00 21040.00     0.00     8.00     0.72    0.14    0.14    0.00   0.04  19.50
sdd               0.00     0.00 5217.00    0.00 20868.00     0.00     8.00     0.73    0.14    0.14    0.00   0.04  19.10
sde               0.00     0.00 5345.00    0.00 21380.00     0.00     8.00     0.67    0.13    0.13    0.00   0.03  18.20
sdf               0.00     0.00 5265.00    0.00 21060.00     0.00     8.00     0.69    0.13    0.13    0.00   0.03  18.40
sdg               0.00     0.00    0.00    0.00     0.00     0.00     0.00     0.00    0.00    0.00    0.00   0.00   0.00
sdh               0.00     0.00    0.00    0.00     0.00     0.00     0.00     0.00    0.00    0.00    0.00   0.00   0.00
md0               0.00     0.00 31661.00    0.00 126644.00     0.00     8.00     0.00    0.00    0.00    0.00   0.00   0.00

avg-cpu:  %user   %nice %system %iowait  %steal   %idle
           0.26    0.00    5.19    0.52    0.00   94.03

Device:         rrqm/s   wrqm/s     r/s     w/s    rkB/s    wkB/s avgrq-sz avgqu-sz   await r_await w_await  svctm  %util
sda               0.00     0.00 5197.00    0.00 20788.00     0.00     8.00     0.59    0.11    0.11    0.00   0.03  16.80
sdb               0.00     0.00 5241.00    0.00 20964.00     0.00     8.00     0.61    0.12    0.12    0.00   0.03  18.30
sdc               0.00     0.00 5297.00    0.00 21188.00     0.00     8.00     0.78    0.15    0.15    0.00   0.04  20.60
sdd               0.00     0.00 5242.00    0.00 20968.00     0.00     8.00     0.69    0.13    0.13    0.00   0.04  18.90
sde               0.00     0.00 5186.00    0.00 20744.00     0.00     8.00     0.67    0.13    0.13    0.00   0.04  19.30
sdf               0.00     0.00 5276.00    0.00 21104.00     0.00     8.00     0.78    0.15    0.15    0.00   0.04  21.60
sdg               0.00     0.00    0.00    0.00     0.00     0.00     0.00     0.00    0.00    0.00    0.00   0.00   0.00
sdh               0.00     0.00    0.00    0.00     0.00     0.00     0.00     0.00    0.00    0.00    0.00   0.00   0.00
md0               0.00     0.00 31441.00    0.00 125764.00     0.00     8.00     0.00    0.00    0.00    0.00   0.00   0.00

avg-cpu:  %user   %nice %system %iowait  %steal   %idle
           0.52    0.00    4.70    0.52    0.00   94.26

Device:         rrqm/s   wrqm/s     r/s     w/s    rkB/s    wkB/s avgrq-sz avgqu-sz   await r_await w_await  svctm  %util
sda               0.00     0.00 5282.00    0.00 21128.00     0.00     8.00     0.62    0.12    0.12    0.00   0.04  19.00
sdb               0.00     0.00 5209.00    0.00 20836.00     0.00     8.00     0.61    0.12    0.12    0.00   0.04  18.30
sdc               0.00     0.00 5247.00    0.00 20988.00     0.00     8.00     0.70    0.13    0.13    0.00   0.04  18.40
sdd               0.00     0.00 5224.00    0.00 20896.00     0.00     8.00     0.62    0.12    0.12    0.00   0.04  18.40
sde               0.00     0.00 5172.00    0.00 20688.00     0.00     8.00     0.81    0.16    0.16    0.00   0.04  20.00
sdf               0.00     0.00 5165.00    0.00 20660.00     0.00     8.00     0.70    0.14    0.14    0.00   0.04  18.80
sdg               0.00     0.00    0.00    0.00     0.00     0.00     0.00     0.00    0.00    0.00    0.00   0.00   0.00
sdh               0.00     0.00    0.00    0.00     0.00     0.00     0.00     0.00    0.00    0.00    0.00   0.00   0.00
md0               0.00     0.00 31297.00    0.00 125188.00     0.00     8.00     0.00    0.00    0.00    0.00   0.00   0.00

avg-cpu:  %user   %nice %system %iowait  %steal   %idle
           0.52    0.00    5.18    0.52    0.00   93.78

Device:         rrqm/s   wrqm/s     r/s     w/s    rkB/s    wkB/s avgrq-sz avgqu-sz   await r_await w_await  svctm  %util
sda               0.00     0.00 5256.00    0.00 21024.00     0.00     8.00     0.54    0.10    0.10    0.00   0.03  15.50
sdb               0.00     0.00 5244.00    0.00 20976.00     0.00     8.00     0.68    0.13    0.13    0.00   0.03  18.20
sdc               0.00     0.00 5181.00    0.00 20724.00     0.00     8.00     0.74    0.14    0.14    0.00   0.04  20.40
sdd               0.00     0.00 5183.00    0.00 20732.00     0.00     8.00     0.77    0.15    0.15    0.00   0.04  21.10
sde               0.00     0.00 5280.00    0.00 21120.00     0.00     8.00     0.67    0.13    0.13    0.00   0.03  18.30
sdf               0.00     0.00 5225.00    0.00 20900.00     0.00     8.00     0.68    0.13    0.13    0.00   0.04  19.80
sdg               0.00     0.00    0.00    0.00     0.00     0.00     0.00     0.00    0.00    0.00    0.00   0.00   0.00
sdh               0.00     0.00    0.00    0.00     0.00     0.00     0.00     0.00    0.00    0.00    0.00   0.00   0.00
md0               0.00     0.00 31369.00    0.00 125476.00     0.00     8.00     0.00    0.00    0.00    0.00   0.00   0.00

avg-cpu:  %user   %nice %system %iowait  %steal   %idle
           0.77    0.00    6.41    4.36    0.00   88.46

Device:         rrqm/s   wrqm/s     r/s     w/s    rkB/s    wkB/s avgrq-sz avgqu-sz   await r_await w_await  svctm  %util
sda               0.00     0.00 5275.00    0.00 21100.00     0.00     8.00     0.62    0.12    0.12    0.00   0.03  17.50
sdb               0.00     0.00 5381.00    0.00 21524.00     0.00     8.00     0.61    0.11    0.11    0.00   0.03  16.40
sdc               0.00     0.00 5199.00    0.00 20796.00     0.00     8.00     0.69    0.13    0.13    0.00   0.04  19.10
sdd               0.00     0.00 5269.00    0.00 21076.00     0.00     8.00     0.68    0.13    0.13    0.00   0.04  19.10
sde               0.00     0.00 5190.00    0.00 20760.00     0.00     8.00     0.77    0.15    0.15    0.00   0.04  20.10
sdf               0.00     0.00 5352.00    0.00 21408.00     0.00     8.00     0.68    0.13    0.13    0.00   0.04  20.00
sdg               0.00     0.00    2.00    0.00     8.00     0.00     8.00     0.00    0.00    0.00    0.00   0.00   0.00
sdh               0.00     0.00    0.00    0.00     0.00     0.00     0.00     0.00    0.00    0.00    0.00   0.00   0.00
md0               0.00     0.00 31670.00    0.00 126680.00     0.00     8.00     0.00    0.00    0.00    0.00   0.00   0.00

avg-cpu:  %user   %nice %system %iowait  %steal   %idle
           0.77    0.00    5.15    0.77    0.00   93.30

Device:         rrqm/s   wrqm/s     r/s     w/s    rkB/s    wkB/s avgrq-sz avgqu-sz   await r_await w_await  svctm  %util
sda               0.00     0.00 5170.00    0.00 20680.00     0.00     8.00     0.68    0.13    0.13    0.00   0.04  18.20
sdb               0.00     0.00 5262.00    0.00 21048.00     0.00     8.00     0.62    0.12    0.12    0.00   0.03  17.40
sdc               0.00     0.00 5240.00    0.00 20960.00     0.00     8.00     0.69    0.13    0.13    0.00   0.03  17.70
sdd               0.00     0.00 5265.00    0.00 21060.00     0.00     8.00     0.70    0.13    0.13    0.00   0.04  19.20
sde               0.00     0.00 5103.00    0.00 20412.00     0.00     8.00     0.76    0.15    0.15    0.00   0.04  20.20
sdf               0.00     0.00 5296.00    0.00 21184.00     0.00     8.00     0.65    0.12    0.12    0.00   0.04  18.60
sdg               0.00     0.00    0.00    0.00     0.00     0.00     0.00     0.00    0.00    0.00    0.00   0.00   0.00
sdh               0.00     0.00    0.00    0.00     0.00     0.00     0.00     0.00    0.00    0.00    0.00   0.00   0.00
md0               0.00     0.00 31333.00    0.00 125332.00     0.00     8.00     0.00    0.00    0.00    0.00   0.00   0.00

avg-cpu:  %user   %nice %system %iowait  %steal   %idle
           0.51    0.00    7.36   13.20    0.00   78.93

Device:         rrqm/s   wrqm/s     r/s     w/s    rkB/s    wkB/s avgrq-sz avgqu-sz   await r_await w_await  svctm  %util
sda               0.00     0.00 5215.00    0.00 20860.00     0.00     8.00     0.60    0.11    0.11    0.00   0.03  17.50
sdb               0.00     0.00 5435.00    0.00 21740.00     0.00     8.00     0.59    0.11    0.11    0.00   0.03  17.60
sdc               0.00     0.00 5344.00    0.00 21376.00     0.00     8.00     0.68    0.13    0.13    0.00   0.03  17.50
sdd               0.00     0.00 5257.00    0.00 21028.00     0.00     8.00     0.72    0.14    0.14    0.00   0.04  20.70
sde               0.00     0.00 5307.00    0.00 21228.00     0.00     8.00     0.68    0.13    0.13    0.00   0.03  18.20
sdf               0.00     0.00 5320.00    0.00 21280.00     0.00     8.00     0.73    0.14    0.14    0.00   0.04  18.80
sdg               0.00     0.00    0.00    0.00     0.00     0.00     0.00     0.00    0.00    0.00    0.00   0.00   0.00
sdh               0.00     0.00    0.00    0.00     0.00     0.00     0.00     0.00    0.00    0.00    0.00   0.00   0.00
md0               0.00     0.00 31876.00    0.00 127504.00     0.00     8.00     0.00    0.00    0.00    0.00   0.00   0.00

avg-cpu:  %user   %nice %system %iowait  %steal   %idle
           0.78    0.00    5.43    4.65    0.00   89.15

Device:         rrqm/s   wrqm/s     r/s     w/s    rkB/s    wkB/s avgrq-sz avgqu-sz   await r_await w_await  svctm  %util
sda               0.00     0.00 5408.00    0.00 21632.00     0.00     8.00     0.64    0.12    0.12    0.00   0.03  18.00
sdb               0.00     0.00 5246.00    0.00 20984.00     0.00     8.00     0.62    0.12    0.12    0.00   0.03  17.20
sdc               0.00     0.00 5286.00    0.00 21144.00     0.00     8.00     0.72    0.14    0.14    0.00   0.04  18.60
sdd               0.00     0.00 5281.00    0.00 21124.00     0.00     8.00     0.76    0.14    0.14    0.00   0.04  20.00
sde               0.00     0.00 5313.00    0.00 21252.00     0.00     8.00     0.66    0.13    0.13    0.00   0.04  18.60
sdf               0.00     0.00 5224.00    0.00 20896.00     0.00     8.00     0.70    0.13    0.13    0.00   0.04  19.80
sdg               0.00     0.00   17.00    0.00   328.00     0.00    38.59     0.01    0.35    0.35    0.00   0.29   0.50
sdh               0.00     0.00    0.00    0.00     0.00     0.00     0.00     0.00    0.00    0.00    0.00   0.00   0.00
md0               0.00     0.00 31758.00    0.00 127032.00     0.00     8.00     0.00    0.00    0.00    0.00   0.00   0.00

avg-cpu:  %user   %nice %system %iowait  %steal   %idle
           0.52    0.00    5.18    0.52    0.00   93.78

Device:         rrqm/s   wrqm/s     r/s     w/s    rkB/s    wkB/s avgrq-sz avgqu-sz   await r_await w_await  svctm  %util
sda               0.00     0.00 5385.00    0.00 21540.00     0.00     8.00     0.63    0.12    0.12    0.00   0.03  17.60
sdb               0.00     0.00 5239.00    0.00 20956.00     0.00     8.00     0.59    0.11    0.11    0.00   0.03  16.70
sdc               0.00     0.00 5249.00    0.00 20996.00     0.00     8.00     0.71    0.14    0.14    0.00   0.04  20.00
sdd               0.00     0.00 5316.00    0.00 21264.00     0.00     8.00     0.72    0.14    0.14    0.00   0.04  20.80
sde               0.00     0.00 5438.00    0.00 21752.00     0.00     8.00     0.74    0.14    0.14    0.00   0.04  20.90
sdf               0.00     0.00 5112.00    0.00 20448.00     0.00     8.00     0.66    0.13    0.13    0.00   0.04  18.60
sdg               0.00     0.00    0.00    0.00     0.00     0.00     0.00     0.00    0.00    0.00    0.00   0.00   0.00
sdh               0.00     0.00    0.00    0.00     0.00     0.00     0.00     0.00    0.00    0.00    0.00   0.00   0.00
md0               0.00     0.00 31739.00    0.00 126956.00     0.00     8.00     0.00    0.00    0.00    0.00   0.00   0.00

avg-cpu:  %user   %nice %system %iowait  %steal   %idle
           0.75    0.00    7.54    0.50    0.00   91.21

Device:         rrqm/s   wrqm/s     r/s     w/s    rkB/s    wkB/s avgrq-sz avgqu-sz   await r_await w_await  svctm  %util
sda               0.00     0.00 5715.00    0.00 22860.00     0.00     8.00     0.65    0.11    0.11    0.00   0.03  18.20
sdb               0.00     0.00 5683.00    0.00 22732.00     0.00     8.00     0.71    0.12    0.12    0.00   0.03  18.70
sdc               0.00     0.00 5727.00    0.00 22908.00     0.00     8.00     0.80    0.14    0.14    0.00   0.04  22.00
sdd               0.00     0.00 5770.00    0.00 23080.00     0.00     8.00     0.84    0.15    0.15    0.00   0.04  22.10
sde               0.00     0.00 5635.00    0.00 22540.00     0.00     8.00     0.73    0.13    0.13    0.00   0.04  20.70
sdf               0.00     0.00 5661.00    0.00 22644.00     0.00     8.00     0.79    0.14    0.14    0.00   0.04  21.20
sdg               0.00     0.00    0.00    0.00     0.00     0.00     0.00     0.00    0.00    0.00    0.00   0.00   0.00
sdh               0.00     0.00    0.00    0.00     0.00     0.00     0.00     0.00    0.00    0.00    0.00   0.00   0.00
md0               0.00     0.00 34192.00    0.00 136768.00     0.00     8.00     0.00    0.00    0.00    0.00   0.00   0.00

avg-cpu:  %user   %nice %system %iowait  %steal   %idle
           0.51    0.00    7.07    0.76    0.00   91.67

Device:         rrqm/s   wrqm/s     r/s     w/s    rkB/s    wkB/s avgrq-sz avgqu-sz   await r_await w_await  svctm  %util
sda               0.00     0.00 5691.00    0.00 22764.00     0.00     8.00     0.62    0.11    0.11    0.00   0.03  18.50
sdb               0.00     0.00 5815.00    0.00 23260.00     0.00     8.00     0.67    0.12    0.12    0.00   0.03  17.90
sdc               0.00     0.00 5656.00    0.00 22624.00     0.00     8.00     0.83    0.15    0.15    0.00   0.04  21.60
sdd               0.00     0.00 5698.00    0.00 22792.00     0.00     8.00     0.72    0.13    0.13    0.00   0.03  19.70
sde               0.00     0.00 5753.00    0.00 23012.00     0.00     8.00     0.85    0.15    0.15    0.00   0.04  22.30
sdf               0.00     0.00 5734.00    0.00 22936.00     0.00     8.00     0.81    0.14    0.14    0.00   0.04  20.80
sdg               0.00     0.00    0.00    0.00     0.00     0.00     0.00     0.00    0.00    0.00    0.00   0.00   0.00
sdh               0.00     0.00    0.00    0.00     0.00     0.00     0.00     0.00    0.00    0.00    0.00   0.00   0.00
md0               0.00     0.00 34349.00    0.00 137396.00     0.00     8.00     0.00    0.00    0.00    0.00   0.00   0.00

avg-cpu:  %user   %nice %system %iowait  %steal   %idle
           0.76    0.00    7.05    0.76    0.00   91.44

Device:         rrqm/s   wrqm/s     r/s     w/s    rkB/s    wkB/s avgrq-sz avgqu-sz   await r_await w_await  svctm  %util
sda               0.00     0.00 5820.00    0.00 23280.00     0.00     8.00     0.64    0.11    0.11    0.00   0.03  17.50
sdb               0.00     0.00 5670.00    0.00 22680.00     0.00     8.00     0.65    0.11    0.11    0.00   0.03  17.80
sdc               0.00     0.00 5693.00    0.00 22772.00     0.00     8.00     0.78    0.14    0.14    0.00   0.04  20.60
sdd               0.00     0.00 5743.00    0.00 22972.00     0.00     8.00     0.73    0.13    0.13    0.00   0.04  22.10
sde               0.00     0.00 5667.00    0.00 22668.00     0.00     8.00     0.78    0.14    0.14    0.00   0.04  20.50
sdf               0.00     0.00 5655.00    0.00 22620.00     0.00     8.00     0.82    0.15    0.15    0.00   0.04  20.40
sdg               0.00     0.00    0.00    0.00     0.00     0.00     0.00     0.00    0.00    0.00    0.00   0.00   0.00
sdh               0.00     0.00    0.00    0.00     0.00     0.00     0.00     0.00    0.00    0.00    0.00   0.00   0.00
md0               0.00     0.00 34246.00    0.00 136984.00     0.00     8.00     0.00    0.00    0.00    0.00   0.00   0.00

avg-cpu:  %user   %nice %system %iowait  %steal   %idle
           0.51    0.00    6.85    0.51    0.00   92.13

Device:         rrqm/s   wrqm/s     r/s     w/s    rkB/s    wkB/s avgrq-sz avgqu-sz   await r_await w_await  svctm  %util
sda               0.00     0.00 5797.00    0.00 23188.00     0.00     8.00     0.73    0.13    0.13    0.00   0.03  20.20
sdb               0.00     0.00 5560.00    0.00 22240.00     0.00     8.00     0.68    0.12    0.12    0.00   0.03  17.10
sdc               0.00     0.00 5633.00    0.00 22532.00     0.00     8.00     0.74    0.13    0.13    0.00   0.04  20.40
sdd               0.00     0.00 5688.00    0.00 22752.00     0.00     8.00     0.81    0.14    0.14    0.00   0.04  21.70
sde               0.00     0.00 5761.00    0.00 23044.00     0.00     8.00     0.75    0.13    0.13    0.00   0.04  20.80
sdf               0.00     0.00 5620.00    0.00 22480.00     0.00     8.00     0.78    0.14    0.14    0.00   0.04  20.70
sdg               0.00     0.00    0.00    0.00     0.00     0.00     0.00     0.00    0.00    0.00    0.00   0.00   0.00
sdh               0.00     0.00    0.00    0.00     0.00     0.00     0.00     0.00    0.00    0.00    0.00   0.00   0.00
md0               0.00     0.00 34065.00    0.00 136260.00     0.00     8.00     0.00    0.00    0.00    0.00   0.00   0.00

avg-cpu:  %user   %nice %system %iowait  %steal   %idle
           0.52    0.00    4.94    0.52    0.00   94.03

Device:         rrqm/s   wrqm/s     r/s     w/s    rkB/s    wkB/s avgrq-sz avgqu-sz   await r_await w_await  svctm  %util
sda               0.00     0.00 5306.00    0.00 21224.00     0.00     8.00     0.69    0.13    0.13    0.00   0.03  18.30
sdb               0.00     0.00 5220.00    0.00 20880.00     0.00     8.00     0.59    0.11    0.11    0.00   0.03  17.30
sdc               0.00     0.00 5240.00    0.00 20960.00     0.00     8.00     0.71    0.14    0.14    0.00   0.04  20.40
sdd               0.00     0.00 5217.00    0.00 20868.00     0.00     8.00     0.74    0.14    0.14    0.00   0.04  19.60
sde               0.00     0.00 5243.00    0.00 20972.00     0.00     8.00     0.75    0.14    0.14    0.00   0.04  20.40
sdf               0.00     0.00 5189.00    0.00 20756.00     0.00     8.00     0.70    0.13    0.13    0.00   0.04  18.40
sdg               0.00     0.00    0.00    0.00     0.00     0.00     0.00     0.00    0.00    0.00    0.00   0.00   0.00
sdh               0.00     0.00    0.00    0.00     0.00     0.00     0.00     0.00    0.00    0.00    0.00   0.00   0.00
md0               0.00     0.00 31406.00    0.00 125624.00     0.00     8.00     0.00    0.00    0.00    0.00   0.00   0.00

avg-cpu:  %user   %nice %system %iowait  %steal   %idle
           0.50    0.25    8.06   13.85    0.00   77.33

Device:         rrqm/s   wrqm/s     r/s     w/s    rkB/s    wkB/s avgrq-sz avgqu-sz   await r_await w_await  svctm  %util
sda               0.00     0.00 5281.00    0.00 21124.00     0.00     8.00     0.61    0.11    0.11    0.00   0.03  16.40
sdb               0.00     0.00 5250.00    0.00 21000.00     0.00     8.00     0.63    0.12    0.12    0.00   0.03  17.70
sdc               0.00     0.00 5327.00    0.00 21308.00     0.00     8.00     0.69    0.13    0.13    0.00   0.04  20.70
sdd               0.00     0.00 5343.00    0.00 21372.00     0.00     8.00     0.78    0.15    0.15    0.00   0.04  21.30
sde               0.00     0.00 5317.00    0.00 21268.00     0.00     8.00     0.70    0.13    0.13    0.00   0.04  19.70
sdf               0.00     0.00 5302.00    0.00 21208.00     0.00     8.00     0.69    0.13    0.13    0.00   0.04  21.20
sdg               0.00     0.00    1.00    0.00     4.00     0.00     8.00     0.00    0.00    0.00    0.00   0.00   0.00
sdh               0.00     0.00    0.00    0.00     0.00     0.00     0.00     0.00    0.00    0.00    0.00   0.00   0.00
md0               0.00     0.00 31823.00    0.00 127292.00     0.00     8.00     0.00    0.00    0.00    0.00   0.00   0.00

avg-cpu:  %user   %nice %system %iowait  %steal   %idle
           0.52    0.00    5.94    1.55    0.00   91.99

Device:         rrqm/s   wrqm/s     r/s     w/s    rkB/s    wkB/s avgrq-sz avgqu-sz   await r_await w_await  svctm  %util
sda               0.00     0.00 5328.00    0.00 21312.00     0.00     8.00     0.56    0.10    0.10    0.00   0.03  16.70
sdb               0.00     0.00 5220.00    0.00 20880.00     0.00     8.00     0.63    0.12    0.12    0.00   0.03  17.70
sdc               0.00     0.00 5096.00    0.00 20384.00     0.00     8.00     0.64    0.13    0.13    0.00   0.04  19.40
sdd               0.00     0.00 5272.00    0.00 21088.00     0.00     8.00     0.74    0.14    0.14    0.00   0.04  21.60
sde               0.00     0.00 5282.00    0.00 21128.00     0.00     8.00     0.79    0.15    0.15    0.00   0.04  19.80
sdf               0.00     0.00 5282.00    0.00 21128.00     0.00     8.00     0.75    0.14    0.14    0.00   0.04  20.00
sdg               0.00     0.00    0.00    0.00     0.00     0.00     0.00     0.00    0.00    0.00    0.00   0.00   0.00
sdh               0.00     0.00    0.00    0.00     0.00     0.00     0.00     0.00    0.00    0.00    0.00   0.00   0.00
md0               0.00     0.00 31481.00    0.00 125924.00     0.00     8.00     0.00    0.00    0.00    0.00   0.00   0.00

