Linux 4.17.2 (bench) 	08/03/2018 	_x86_64_	(4 CPU)

avg-cpu:  %user   %nice %system %iowait  %steal   %idle
          10.26    0.02    4.14    2.68    0.00   82.90

Device:         rrqm/s   wrqm/s     r/s     w/s    rkB/s    wkB/s avgrq-sz avgqu-sz   await r_await w_await  svctm  %util
sda              50.30     4.20 1702.94  101.57 21219.54  3107.78    26.96     1.04    0.58    0.26    5.92   0.06  10.94
sdb              50.13     4.16 1702.91  101.70 21209.06  3104.48    26.95     1.04    0.58    0.26    5.85   0.06  10.82
sdc              87.89     4.22 1663.05  101.26 21201.19  3106.92    27.56     1.46    0.83    0.44    7.12   0.08  14.30
sdd              81.39     4.19 1668.74  101.33 21186.22  3103.15    27.44     1.47    0.83    0.43    7.33   0.08  14.40
sde              83.40     4.24 1673.82  101.42 21245.68  3107.36    27.44     1.49    0.84    0.44    7.44   0.08  14.42
sdf              80.54     4.21 1675.93  101.37 21227.02  3104.25    27.38     1.53    0.86    0.44    7.90   0.08  14.45
sdg               0.00     3.17   26.64   73.28   325.28   392.02    14.36     0.44    4.40    0.20    5.93   0.08   0.78
sdh               0.00     0.13    0.02    0.23     2.19     5.02    56.82     0.00    1.15    0.65    1.19   0.21   0.01
md0               0.00     0.00 10528.16  475.88 145420.82 21272.36    30.30     0.00    0.00    0.00    0.00   0.00   0.00

avg-cpu:  %user   %nice %system %iowait  %steal   %idle
           1.38    0.01   25.19    2.59    0.00   70.84

Device:         rrqm/s   wrqm/s     r/s     w/s    rkB/s    wkB/s avgrq-sz avgqu-sz   await r_await w_await  svctm  %util
sda            1725.85     0.00 18309.05    0.00 80261.20     0.00     8.77     5.09    0.28    0.28    0.00   0.02  36.84
sdb            1773.00     0.00 18512.55    0.00 81271.60     0.00     8.78     5.15    0.28    0.28    0.00   0.02  37.05
sdc            1723.00     0.00 18325.35    0.00 80310.20     0.00     8.76     6.42    0.35    0.35    0.00   0.03  49.51
sdd            1770.00     0.00 18480.05    0.00 81126.60     0.00     8.78     6.52    0.35    0.35    0.00   0.03  49.92
sde            1790.55     0.00 18397.65    0.00 80879.60     0.00     8.79     6.47    0.35    0.35    0.00   0.03  50.26
sdf            1703.60     0.00 18366.35    0.00 80404.40     0.00     8.76     6.43    0.35    0.35    0.00   0.03  49.70
sdg               0.00     3.70   94.80   72.40   398.60   381.60     9.33     0.45    2.70    0.13    6.06   0.09   1.56
sdh               0.00     0.00    0.00    0.00     0.00     0.00     0.00     0.00    0.00    0.00    0.00   0.00   0.00
md0               0.00     0.00 121065.35    0.00 484261.40     0.00     8.00     0.00    0.00    0.00    0.00   0.00   0.00

