Linux 4.17.2 (bench) 	08/03/2018 	_x86_64_	(4 CPU)

avg-cpu:  %user   %nice %system %iowait  %steal   %idle
          10.27    0.02    4.11    2.63    0.00   82.98

Device:         rrqm/s   wrqm/s     r/s     w/s    rkB/s    wkB/s avgrq-sz avgqu-sz   await r_await w_await  svctm  %util
sda              48.18     4.22 1684.55  101.99 21123.90  3120.71    27.14     1.04    0.58    0.26    5.92   0.06  10.86
sdb              48.03     4.18 1684.51  102.13 21113.43  3117.40    27.12     1.04    0.58    0.26    5.85   0.06  10.73
sdc              85.90     4.24 1644.55  101.68 21105.53  3119.85    27.75     1.46    0.84    0.45    7.12   0.08  14.21
sdd              79.36     4.21 1650.26  101.75 21090.43  3116.06    27.63     1.47    0.84    0.44    7.33   0.08  14.30
sde              81.38     4.25 1655.33  101.85 21150.03  3120.29    27.62     1.49    0.85    0.44    7.44   0.08  14.32
sdf              78.51     4.23 1657.46  101.79 21131.40  3117.17    27.57     1.53    0.87    0.44    7.90   0.08  14.36
sdg               0.00     3.17   26.50   73.30   324.77   392.05    14.36     0.44    4.41    0.20    5.93   0.08   0.78
sdh               0.00     0.13    0.02    0.23     2.20     5.04    56.82     0.00    1.15    0.65    1.19   0.21   0.01
md0               0.00     0.00 10405.05  477.86 144740.72 21360.88    30.53     0.00    0.00    0.00    0.00   0.00   0.00

avg-cpu:  %user   %nice %system %iowait  %steal   %idle
           0.77    0.03   14.49   61.61    0.00   23.10

Device:         rrqm/s   wrqm/s     r/s     w/s    rkB/s    wkB/s avgrq-sz avgqu-sz   await r_await w_await  svctm  %util
sda              38.35     0.00 6562.95    0.00 153502.00     0.00    46.78     2.29    0.35    0.35    0.00   0.10  67.63
sdb              33.00     0.00 6599.40    0.00 152282.60     0.00    46.15     2.37    0.36    0.36    0.00   0.10  65.33
sdc              37.85     0.00 6282.45    0.00 150647.00     0.00    47.96     4.15    0.66    0.66    0.00   0.13  80.06
sdd              42.00     0.00 6334.40    0.00 151175.60     0.00    47.73     3.94    0.62    0.62    0.00   0.13  83.43
sde              37.10     0.00 6369.15    0.00 151410.80     0.00    47.55     3.99    0.63    0.63    0.00   0.13  83.60
sdf              38.65     0.00 6403.20    0.00 151659.60     0.00    47.37     3.99    0.62    0.62    0.00   0.13  83.77
sdg               0.00     9.50   95.90  201.10   424.80  1017.40     9.71     1.23    4.13    0.12    6.04   0.07   2.03
sdh               0.00     0.00    0.00    0.00     0.00     0.00     0.00     0.00    0.00    0.00    0.00   0.00   0.00
md0               0.00     0.00 39186.65    0.00 1048420.00     0.00    53.51     0.00    0.00    0.00    0.00   0.00   0.00

