Linux 4.17.2 (bench) 	08/03/2018 	_x86_64_	(4 CPU)

avg-cpu:  %user   %nice %system %iowait  %steal   %idle
          10.26    0.02    4.13    2.67    0.00   82.92

Device:         rrqm/s   wrqm/s     r/s     w/s    rkB/s    wkB/s avgrq-sz avgqu-sz   await r_await w_await  svctm  %util
sda              50.29     4.21 1695.79  101.69 21173.10  3111.62    27.02     1.04    0.58    0.26    5.92   0.06  10.91
sdb              50.12     4.17 1695.76  101.83 21162.63  3108.31    27.00     1.04    0.58    0.26    5.85   0.06  10.79
sdc              87.93     4.23 1655.85  101.38 21154.74  3110.76    27.62     1.46    0.83    0.45    7.12   0.08  14.27
sdd              81.42     4.20 1661.54  101.45 21139.69  3106.98    27.51     1.47    0.83    0.44    7.33   0.08  14.36
sde              83.43     4.24 1666.62  101.55 21199.17  3111.20    27.50     1.49    0.84    0.44    7.44   0.08  14.38
sdf              80.56     4.21 1668.74  101.49 21180.54  3108.09    27.44     1.53    0.87    0.44    7.90   0.08  14.42
sdg               0.00     3.17   26.59   73.28   325.07   392.01    14.36     0.44    4.40    0.20    5.93   0.08   0.78
sdh               0.00     0.13    0.02    0.23     2.19     5.02    56.82     0.00    1.15    0.65    1.19   0.21   0.01
md0               0.00     0.00 10485.16  476.47 145079.30 21298.65    30.36     0.00    0.00    0.00    0.00   0.00   0.00

avg-cpu:  %user   %nice %system %iowait  %steal   %idle
           0.80    0.01   18.48   59.14    0.00   21.57

Device:         rrqm/s   wrqm/s     r/s     w/s    rkB/s    wkB/s avgrq-sz avgqu-sz   await r_await w_await  svctm  %util
sda               0.00     0.00 9304.85    0.00 37255.00     0.00     8.01     0.97    0.10    0.10    0.00   0.07  60.61
sdb               0.00     0.00 9296.05    0.00 37218.60     0.00     8.01     0.97    0.10    0.10    0.00   0.06  60.36
sdc               0.00     0.00 9277.75    0.00 37144.80     0.00     8.01     1.07    0.12    0.12    0.00   0.07  64.19
sdd               0.00     0.00 9276.90    0.00 37139.40     0.00     8.01     1.09    0.12    0.12    0.00   0.07  65.21
sde               0.00     0.00 9271.95    0.00 37126.60     0.00     8.01     1.07    0.12    0.12    0.00   0.07  64.42
sdf               0.00     0.00 9277.70    0.00 37148.20     0.00     8.01     1.08    0.12    0.12    0.00   0.07  64.57
sdg               0.00     0.75  134.20   19.10   544.80   102.60     8.45     0.11    2.04    0.12   15.55   0.11   1.64
sdh               0.00     0.00    0.00    0.00     0.00     0.00     0.00     0.00    0.00    0.00    0.00   0.00   0.00
md0               0.00     0.00 55705.55    0.00 223037.00     0.00     8.01     0.00    0.00    0.00    0.00   0.00   0.00

