Linux 4.17.2 (bench) 	08/03/2018 	_x86_64_	(4 CPU)

avg-cpu:  %user   %nice %system %iowait  %steal   %idle
          10.27    0.02    4.13    2.66    0.00   82.93

Device:         rrqm/s   wrqm/s     r/s     w/s    rkB/s    wkB/s avgrq-sz avgqu-sz   await r_await w_await  svctm  %util
sda              50.29     4.21 1695.22  101.73 21161.67  3112.77    27.02     1.04    0.58    0.26    5.92   0.06  10.91
sdb              50.12     4.17 1695.18  101.87 21151.17  3109.46    27.00     1.04    0.58    0.26    5.85   0.06  10.78
sdc              87.94     4.23 1655.27  101.42 21143.29  3111.90    27.61     1.46    0.83    0.45    7.12   0.08  14.26
sdd              81.43     4.20 1660.96  101.49 21128.23  3108.13    27.50     1.47    0.83    0.44    7.33   0.08  14.36
sde              83.44     4.24 1666.04  101.59 21187.75  3112.34    27.49     1.49    0.84    0.44    7.44   0.08  14.38
sdf              80.57     4.21 1668.16  101.53 21169.11  3109.23    27.44     1.53    0.87    0.44    7.90   0.08  14.41
sdg               0.00     3.17   26.57   73.28   325.01   392.02    14.36     0.44    4.41    0.20    5.93   0.08   0.78
sdh               0.00     0.13    0.02    0.23     2.19     5.02    56.82     0.00    1.15    0.65    1.19   0.21   0.01
md0               0.00     0.00 10481.71  476.64 144979.15 21306.50    30.35     0.00    0.00    0.00    0.00   0.00   0.00

avg-cpu:  %user   %nice %system %iowait  %steal   %idle
           1.31    0.00    4.96    0.52    0.00   93.21

Device:         rrqm/s   wrqm/s     r/s     w/s    rkB/s    wkB/s avgrq-sz avgqu-sz   await r_await w_await  svctm  %util
sda               0.00     0.00 5601.00    0.00 22404.00     0.00     8.00     0.59    0.11    0.11    0.00   0.05  30.70
sdb               0.00     0.00 5594.00    0.00 22376.00     0.00     8.00     0.67    0.12    0.12    0.00   0.06  32.40
sdc               0.00     0.00 5461.00    0.00 21844.00     0.00     8.00     0.64    0.12    0.12    0.00   0.06  33.60
sdd               0.00     0.00 5622.00    0.00 22488.00     0.00     8.00     0.70    0.13    0.13    0.00   0.06  34.80
sde               0.00     0.00 5391.00    0.00 21564.00     0.00     8.00     0.66    0.12    0.12    0.00   0.06  34.30
sdf               0.00     0.00 5361.00    0.00 21444.00     0.00     8.00     0.68    0.13    0.13    0.00   0.06  34.20
sdg               0.00     0.00    0.00    0.00     0.00     0.00     0.00     0.00    0.00    0.00    0.00   0.00   0.00
sdh               0.00     0.00    0.00    0.00     0.00     0.00     0.00     0.00    0.00    0.00    0.00   0.00   0.00
md0               0.00     0.00 33017.00    0.00 132068.00     0.00     8.00     0.00    0.00    0.00    0.00   0.00   0.00

avg-cpu:  %user   %nice %system %iowait  %steal   %idle
           1.52    0.00    8.59    5.56    0.00   84.34

Device:         rrqm/s   wrqm/s     r/s     w/s    rkB/s    wkB/s avgrq-sz avgqu-sz   await r_await w_await  svctm  %util
sda               0.00     0.00 5869.00    0.00 23476.00     0.00     8.00     0.60    0.10    0.10    0.00   0.05  29.80
sdb               0.00     0.00 5964.00    0.00 23856.00     0.00     8.00     0.62    0.10    0.10    0.00   0.05  30.40
sdc               0.00     0.00 5910.00    0.00 23640.00     0.00     8.00     0.77    0.13    0.13    0.00   0.06  35.90
sdd               0.00     0.00 6074.00    0.00 24296.00     0.00     8.00     0.70    0.12    0.12    0.00   0.06  34.30
sde               0.00     0.00 5917.00    0.00 23668.00     0.00     8.00     0.69    0.12    0.12    0.00   0.06  34.80
sdf               0.00     0.00 6063.00    0.00 24252.00     0.00     8.00     0.70    0.11    0.11    0.00   0.06  35.10
sdg               0.00     0.00 1807.00    4.00  7804.00   124.00     8.76     0.22    0.12    0.12    0.00   0.12  20.90
sdh               0.00     0.00    0.00    0.00     0.00     0.00     0.00     0.00    0.00    0.00    0.00   0.00   0.00
md0               0.00     0.00 35797.00    0.00 143188.00     0.00     8.00     0.00    0.00    0.00    0.00   0.00   0.00

