Linux 4.17.2 (bench) 	08/03/2018 	_x86_64_	(4 CPU)

avg-cpu:  %user   %nice %system %iowait  %steal   %idle
          10.26    0.02    4.14    2.68    0.00   82.90

Device:         rrqm/s   wrqm/s     r/s     w/s    rkB/s    wkB/s avgrq-sz avgqu-sz   await r_await w_await  svctm  %util
sda              50.34     4.20 1705.02  101.54 21234.62  3106.94    26.95     1.04    0.58    0.26    5.92   0.06  10.95
sdb              50.17     4.16 1704.99  101.68 21224.16  3103.63    26.93     1.04    0.58    0.26    5.85   0.06  10.83
sdc              87.92     4.22 1665.14  101.23 21216.32  3106.07    27.54     1.46    0.83    0.44    7.12   0.08  14.31
sdd              81.42     4.19 1670.83  101.30 21201.35  3102.31    27.43     1.47    0.83    0.43    7.33   0.08  14.41
sde              83.43     4.24 1675.91  101.40 21260.81  3106.51    27.42     1.49    0.84    0.44    7.44   0.08  14.43
sdf              80.57     4.21 1678.02  101.34 21242.13  3103.41    27.36     1.53    0.86    0.44    7.90   0.08  14.46
sdg               0.00     3.17   26.65   73.28   325.35   392.02    14.36     0.44    4.40    0.20    5.93   0.08   0.78
sdh               0.00     0.13    0.02    0.23     2.19     5.01    56.82     0.00    1.15    0.65    1.19   0.21   0.01
md0               0.00     0.00 10540.91  475.75 145529.72 21266.59    30.28     0.00    0.00    0.00    0.00   0.00   0.00

avg-cpu:  %user   %nice %system %iowait  %steal   %idle
           1.80    0.03   30.40    1.66    0.00   66.12

Device:         rrqm/s   wrqm/s     r/s     w/s    rkB/s    wkB/s avgrq-sz avgqu-sz   await r_await w_await  svctm  %util
sda              11.20     0.00 21469.60    0.00 85923.80     0.00     8.00     5.64    0.26    0.26    0.00   0.02  43.95
sdb              14.30     0.00 21642.60    0.00 86628.60     0.00     8.01     5.64    0.26    0.26    0.00   0.02  43.71
sdc              15.00     0.00 21535.35    0.00 86202.80     0.00     8.01     6.72    0.31    0.31    0.00   0.03  55.89
sdd              15.45     0.00 21531.55    0.00 86189.20     0.00     8.01     6.89    0.32    0.32    0.00   0.03  62.58
sde              11.45     0.00 21556.00    0.00 86270.40     0.00     8.00     6.76    0.31    0.31    0.00   0.03  56.88
sdf              13.80     0.00 21611.35    0.00 86501.20     0.00     8.01     6.90    0.32    0.32    0.00   0.03  56.65
sdg               0.00     0.00    2.80    0.50    46.00     8.80    33.21     0.00    0.20    0.18    0.30   0.17   0.05
sdh               0.00     0.00    0.00    0.00     0.00     0.00     0.00     0.00    0.00    0.00    0.00   0.00   0.00
md0               0.00     0.00 129430.60    0.00 517722.40     0.00     8.00     0.00    0.00    0.00    0.00   0.00   0.00

