Linux 4.17.2 (bench) 	08/03/2018 	_x86_64_	(4 CPU)

avg-cpu:  %user   %nice %system %iowait  %steal   %idle
          10.27    0.02    4.11    2.62    0.00   82.98

Device:         rrqm/s   wrqm/s     r/s     w/s    rkB/s    wkB/s avgrq-sz avgqu-sz   await r_await w_await  svctm  %util
sda              47.37     4.22 1681.38  102.03 21097.44  3121.88    27.16     1.04    0.58    0.26    5.92   0.06  10.84
sdb              47.22     4.18 1681.33  102.17 21086.92  3118.55    27.14     1.04    0.58    0.26    5.85   0.06  10.72
sdc              85.04     4.24 1641.42  101.72 21079.06  3121.01    27.77     1.46    0.84    0.45    7.12   0.08  14.19
sdd              78.50     4.21 1647.13  101.79 21063.97  3117.22    27.65     1.46    0.84    0.44    7.33   0.08  14.29
sde              80.51     4.26 1652.21  101.88 21123.60  3121.45    27.64     1.49    0.85    0.44    7.44   0.08  14.31
sdf              77.64     4.23 1654.34  101.83 21104.94  3118.33    27.59     1.53    0.87    0.44    7.90   0.08  14.34
sdg               0.00     3.17   26.48   73.30   324.66   392.03    14.37     0.44    4.41    0.20    5.93   0.08   0.78
sdh               0.00     0.13    0.02    0.23     2.20     5.04    56.82     0.00    1.15    0.65    1.19   0.21   0.01
md0               0.00     0.00 10381.04  478.04 144558.50 21368.83    30.56     0.00    0.00    0.00    0.00   0.00   0.00

avg-cpu:  %user   %nice %system %iowait  %steal   %idle
           1.53    0.00   14.50   65.90    0.00   18.07

Device:         rrqm/s   wrqm/s     r/s     w/s    rkB/s    wkB/s avgrq-sz avgqu-sz   await r_await w_await  svctm  %util
sda               6.00     0.00 8029.00    0.00 121284.00     0.00    30.21     1.80    0.22    0.22    0.00   0.08  65.10
sdb               8.00     0.00 7800.00    0.00 114544.00     0.00    29.37     1.69    0.22    0.22    0.00   0.08  62.20
sdc              10.00     0.00 7917.00    0.00 121376.00     0.00    30.66     3.06    0.39    0.39    0.00   0.09  73.50
sdd               8.00     0.00 7772.00    0.00 120692.00     0.00    31.06     3.02    0.39    0.39    0.00   0.09  72.50
sde               4.00     0.00 7645.00    0.00 110268.00     0.00    28.85     2.56    0.34    0.34    0.00   0.09  71.40
sdf               5.00     0.00 7915.00    0.00 118932.00     0.00    30.05     2.90    0.37    0.37    0.00   0.09  74.00
sdg               0.00     0.00    3.00    0.00    88.00     0.00    58.67     0.00    0.33    0.33    0.00   0.33   0.10
sdh               0.00     0.00    0.00    0.00     0.00     0.00     0.00     0.00    0.00    0.00    0.00   0.00   0.00
md0               0.00     0.00 47139.00    0.00 774500.00     0.00    32.86     0.00    0.00    0.00    0.00   0.00   0.00

avg-cpu:  %user   %nice %system %iowait  %steal   %idle
           1.78    0.00   14.47   65.99    0.00   17.77

Device:         rrqm/s   wrqm/s     r/s     w/s    rkB/s    wkB/s avgrq-sz avgqu-sz   await r_await w_await  svctm  %util
sda               8.00     0.00 7911.00    0.00 116048.00     0.00    29.34     1.73    0.22    0.22    0.00   0.08  62.90
sdb               9.00     0.00 7856.00    0.00 120456.00     0.00    30.67     1.74    0.22    0.22    0.00   0.08  63.40
sdc               6.00     0.00 7800.00    0.00 116404.00     0.00    29.85     2.69    0.35    0.35    0.00   0.09  72.60
sdd               8.00     0.00 7745.00    0.00 123020.00     0.00    31.77     3.04    0.39    0.39    0.00   0.09  72.30
sde               7.00     0.00 7968.00    0.00 120836.00     0.00    30.33     2.91    0.37    0.37    0.00   0.09  72.90
sdf               6.00     0.00 7950.00    0.00 117644.00     0.00    29.60     2.94    0.37    0.37    0.00   0.09  74.90
sdg               0.00     0.00    0.00    0.00     0.00     0.00     0.00     0.00    0.00    0.00    0.00   0.00   0.00
sdh               0.00     0.00    0.00    0.00     0.00     0.00     0.00     0.00    0.00    0.00    0.00   0.00   0.00
md0               0.00     0.00 47262.00    0.00 784272.00     0.00    33.19     0.00    0.00    0.00    0.00   0.00   0.00

avg-cpu:  %user   %nice %system %iowait  %steal   %idle
           1.54    0.00   14.10   66.67    0.00   17.69

Device:         rrqm/s   wrqm/s     r/s     w/s    rkB/s    wkB/s avgrq-sz avgqu-sz   await r_await w_await  svctm  %util
sda               8.00     0.00 7941.00    0.00 116328.00     0.00    29.30     1.66    0.21    0.21    0.00   0.08  62.20
sdb              10.00     0.00 7783.00    0.00 119792.00     0.00    30.78     1.68    0.21    0.21    0.00   0.08  64.80
sdc              12.00     0.00 8066.00    0.00 119632.00     0.00    29.66     2.87    0.36    0.36    0.00   0.09  75.20
sdd              10.00     0.00 7793.00    0.00 115692.00     0.00    29.69     2.73    0.35    0.35    0.00   0.09  72.70
sde               9.00     0.00 7963.00    0.00 118904.00     0.00    29.86     2.84    0.36    0.36    0.00   0.09  74.10
sdf              11.00     0.00 7855.00    0.00 114016.00     0.00    29.03     2.71    0.35    0.35    0.00   0.09  73.20
sdg               0.00     0.00    0.00    0.00     0.00     0.00     0.00     0.00    0.00    0.00    0.00   0.00   0.00
sdh               0.00     0.00    0.00    0.00     0.00     0.00     0.00     0.00    0.00    0.00    0.00   0.00   0.00
md0               0.00     0.00 47476.00    0.00 773648.00     0.00    32.59     0.00    0.00    0.00    0.00   0.00   0.00

avg-cpu:  %user   %nice %system %iowait  %steal   %idle
           1.52    0.00   15.19   65.32    0.00   17.97

Device:         rrqm/s   wrqm/s     r/s     w/s    rkB/s    wkB/s avgrq-sz avgqu-sz   await r_await w_await  svctm  %util
sda              12.00     0.00 7929.00    0.00 118244.00     0.00    29.83     1.67    0.21    0.21    0.00   0.08  63.50
sdb              12.00     0.00 8079.00    0.00 121560.00     0.00    30.09     1.77    0.22    0.22    0.00   0.08  64.40
sdc              11.00     0.00 7829.00    0.00 113740.00     0.00    29.06     2.56    0.33    0.33    0.00   0.09  71.30
sdd               9.00     0.00 7853.00    0.00 115152.00     0.00    29.33     2.69    0.34    0.34    0.00   0.09  71.90
sde              10.00     0.00 8206.00    0.00 122580.00     0.00    29.88     2.97    0.36    0.36    0.00   0.09  74.30
sdf              10.00     0.00 7902.00    0.00 119620.00     0.00    30.28     2.63    0.33    0.33    0.00   0.09  73.50
sdg               0.00     0.00    0.00    1.00     0.00    16.00    32.00     0.00    0.00    0.00    0.00   0.00   0.00
sdh               0.00     0.00    0.00    0.00     0.00     0.00     0.00     0.00    0.00    0.00    0.00   0.00   0.00
md0               0.00     0.00 47843.00    0.00 781680.00     0.00    32.68     0.00    0.00    0.00    0.00   0.00   0.00

avg-cpu:  %user   %nice %system %iowait  %steal   %idle
           1.79    0.00   14.62   65.90    0.00   17.69

Device:         rrqm/s   wrqm/s     r/s     w/s    rkB/s    wkB/s avgrq-sz avgqu-sz   await r_await w_await  svctm  %util
sda               8.00     0.00 8225.00    0.00 120060.00     0.00    29.19     1.80    0.22    0.22    0.00   0.08  64.30
sdb              11.00     0.00 8106.00    0.00 122880.00     0.00    30.32     1.70    0.21    0.21    0.00   0.08  64.10
sdc              13.00     0.00 8086.00    0.00 120948.00     0.00    29.92     2.98    0.37    0.37    0.00   0.09  73.30
sdd               9.00     0.00 8036.00    0.00 118220.00     0.00    29.42     2.76    0.34    0.34    0.00   0.09  73.70
sde               8.00     0.00 7866.00    0.00 111468.00     0.00    28.34     2.49    0.32    0.32    0.00   0.09  73.30
sdf               8.00     0.00 8231.00    0.00 118044.00     0.00    28.68     2.71    0.33    0.33    0.00   0.09  73.40
sdg               0.00     0.00   39.00    0.00   468.00     0.00    24.00     0.01    0.13    0.13    0.00   0.10   0.40
sdh               0.00     0.00    0.00    0.00     0.00     0.00     0.00     0.00    0.00    0.00    0.00   0.00   0.00
md0               0.00     0.00 48629.00    0.00 777236.00     0.00    31.97     0.00    0.00    0.00    0.00   0.00   0.00

avg-cpu:  %user   %nice %system %iowait  %steal   %idle
           1.52    0.00   15.48   65.74    0.00   17.26

Device:         rrqm/s   wrqm/s     r/s     w/s    rkB/s    wkB/s avgrq-sz avgqu-sz   await r_await w_await  svctm  %util
sda              11.00     0.00 7921.00    0.00 114964.00     0.00    29.03     1.68    0.21    0.21    0.00   0.08  63.30
sdb               7.00     0.00 8155.00    0.00 114616.00     0.00    28.11     1.60    0.20    0.20    0.00   0.08  64.50
sdc              11.00     0.00 7949.00    0.00 114820.00     0.00    28.89     2.75    0.34    0.34    0.00   0.09  73.30
sdd               9.00     0.00 8147.00    0.00 117900.00     0.00    28.94     2.71    0.33    0.33    0.00   0.09  73.10
sde              10.00     0.00 8076.00    0.00 115360.00     0.00    28.57     2.63    0.33    0.33    0.00   0.09  73.60
sdf              14.00     0.00 8250.00    0.00 126680.00     0.00    30.71     3.07    0.37    0.37    0.00   0.09  75.30
sdg               0.00     0.00    0.00    0.00     0.00     0.00     0.00     0.00    0.00    0.00    0.00   0.00   0.00
sdh               0.00     0.00    0.00    0.00     0.00     0.00     0.00     0.00    0.00    0.00    0.00   0.00   0.00
md0               0.00     0.00 48556.00    0.00 775912.00     0.00    31.96     0.00    0.00    0.00    0.00   0.00   0.00

avg-cpu:  %user   %nice %system %iowait  %steal   %idle
           1.27    0.00   15.74   65.48    0.00   17.51

Device:         rrqm/s   wrqm/s     r/s     w/s    rkB/s    wkB/s avgrq-sz avgqu-sz   await r_await w_await  svctm  %util
sda              10.00     0.00 8162.00    0.00 120264.00     0.00    29.47     1.67    0.20    0.20    0.00   0.08  65.00
sdb              10.00     0.00 8052.00    0.00 117708.00     0.00    29.24     1.67    0.21    0.21    0.00   0.08  63.60
sdc              12.00     0.00 8101.00    0.00 119328.00     0.00    29.46     2.83    0.35    0.35    0.00   0.09  73.30
sdd              14.00     0.00 7897.00    0.00 117624.00     0.00    29.79     2.74    0.35    0.35    0.00   0.09  74.80
sde              10.00     0.00 8182.00    0.00 125720.00     0.00    30.73     2.95    0.36    0.36    0.00   0.09  75.60
sdf              10.00     0.00 7992.00    0.00 116180.00     0.00    29.07     2.70    0.34    0.34    0.00   0.09  74.20
sdg               0.00     0.00    0.00    0.00     0.00     0.00     0.00     0.00    0.00    0.00    0.00   0.00   0.00
sdh               0.00     0.00    0.00    0.00     0.00     0.00     0.00     0.00    0.00    0.00    0.00   0.00   0.00
md0               0.00     0.00 48461.00    0.00 788668.00     0.00    32.55     0.00    0.00    0.00    0.00   0.00   0.00

avg-cpu:  %user   %nice %system %iowait  %steal   %idle
           2.02    0.00   15.62   65.24    0.00   17.13

Device:         rrqm/s   wrqm/s     r/s     w/s    rkB/s    wkB/s avgrq-sz avgqu-sz   await r_await w_await  svctm  %util
sda               9.00     0.00 8063.00    0.00 114616.00     0.00    28.43     1.61    0.20    0.20    0.00   0.08  64.70
sdb              13.00     0.00 8310.00    0.00 125308.00     0.00    30.16     1.82    0.22    0.22    0.00   0.08  66.70
sdc              13.00     0.00 8157.00    0.00 120640.00     0.00    29.58     3.02    0.37    0.37    0.00   0.09  74.50
sdd              11.00     0.00 8144.00    0.00 117048.00     0.00    28.74     2.66    0.33    0.33    0.00   0.09  71.30
sde               7.00     0.00 8030.00    0.00 115368.00     0.00    28.73     2.56    0.32    0.32    0.00   0.09  72.50
sdf               9.00     0.00 8223.00    0.00 115404.00     0.00    28.07     2.66    0.32    0.32    0.00   0.09  75.50
sdg               0.00     0.00    0.00    0.00     0.00     0.00     0.00     0.00    0.00    0.00    0.00   0.00   0.00
sdh               0.00     0.00    0.00    0.00     0.00     0.00     0.00     0.00    0.00    0.00    0.00   0.00   0.00
md0               0.00     0.00 48960.00    0.00 775532.00     0.00    31.68     0.00    0.00    0.00    0.00   0.00   0.00

avg-cpu:  %user   %nice %system %iowait  %steal   %idle
           1.53    0.00   15.86   65.47    0.00   17.14

Device:         rrqm/s   wrqm/s     r/s     w/s    rkB/s    wkB/s avgrq-sz avgqu-sz   await r_await w_await  svctm  %util
sda              12.00     0.00 8150.00    0.00 118040.00     0.00    28.97     1.67    0.21    0.21    0.00   0.08  63.70
sdb               9.00     0.00 8152.00    0.00 114972.00     0.00    28.21     1.69    0.21    0.21    0.00   0.08  63.20
sdc              10.00     0.00 8413.00    0.00 123728.00     0.00    29.41     3.00    0.36    0.36    0.00   0.09  75.60
sdd               8.00     0.00 8124.00    0.00 116968.00     0.00    28.80     2.67    0.33    0.33    0.00   0.09  73.80
sde               9.00     0.00 8123.00    0.00 112436.00     0.00    27.68     2.41    0.30    0.30    0.00   0.09  73.10
sdf              12.00     0.00 8143.00    0.00 120376.00     0.00    29.57     2.93    0.36    0.36    0.00   0.09  75.10
sdg               0.00     0.00   22.00    0.00   460.00     0.00    41.82     0.00    0.14    0.14    0.00   0.14   0.30
sdh               0.00     0.00    0.00    0.00     0.00     0.00     0.00     0.00    0.00    0.00    0.00   0.00   0.00
md0               0.00     0.00 49187.00    0.00 778300.00     0.00    31.65     0.00    0.00    0.00    0.00   0.00   0.00

avg-cpu:  %user   %nice %system %iowait  %steal   %idle
           1.51    0.00   17.59   62.56    0.00   18.34

Device:         rrqm/s   wrqm/s     r/s     w/s    rkB/s    wkB/s avgrq-sz avgqu-sz   await r_await w_await  svctm  %util
sda               8.00     0.00 7808.00    0.00 109368.00     0.00    28.01     1.59    0.20    0.20    0.00   0.08  62.10
sdb               4.00     0.00 8096.00    0.00 111460.00     0.00    27.53     1.62    0.20    0.20    0.00   0.08  64.30
sdc               4.00     0.00 8246.00    0.00 119828.00     0.00    29.06     2.83    0.34    0.34    0.00   0.09  73.90
sdd               4.00     0.00 8090.00    0.00 121668.00     0.00    30.08     3.08    0.38    0.38    0.00   0.09  74.00
sde               9.00     0.00 8126.00    0.00 118012.00     0.00    29.05     2.88    0.36    0.36    0.00   0.09  73.70
sdf              10.00     0.00 7883.00    0.00 112304.00     0.00    28.49     2.71    0.34    0.34    0.00   0.09  73.50
sdg               0.00     3.00    6.00    7.00    24.00    64.00    13.54     0.00    0.23    0.00    0.43   0.08   0.10
sdh               0.00     0.00    0.00    0.00     0.00     0.00     0.00     0.00    0.00    0.00    0.00   0.00   0.00
md0               0.00     0.00 48269.00    0.00 755340.00     0.00    31.30     0.00    0.00    0.00    0.00   0.00   0.00

avg-cpu:  %user   %nice %system %iowait  %steal   %idle
           1.26    0.00   18.14   61.96    0.00   18.64

Device:         rrqm/s   wrqm/s     r/s     w/s    rkB/s    wkB/s avgrq-sz avgqu-sz   await r_await w_await  svctm  %util
sda               3.00     0.00 8180.00    0.00 115496.00     0.00    28.24     1.78    0.22    0.22    0.00   0.08  64.90
sdb               2.00     0.00 8499.00    0.00 121624.00     0.00    28.62     1.90    0.22    0.22    0.00   0.08  64.60
sdc               3.00     0.00 8184.00    0.00 118780.00     0.00    29.03     3.05    0.37    0.37    0.00   0.09  73.40
sdd               4.00     0.00 8311.00    0.00 114496.00     0.00    27.55     2.78    0.34    0.34    0.00   0.09  73.40
sde               1.00     0.00 8226.00    0.00 110192.00     0.00    26.79     2.73    0.33    0.33    0.00   0.09  72.30
sdf               3.00     0.00 8099.00    0.00 116508.00     0.00    28.77     2.98    0.37    0.37    0.00   0.09  74.10
sdg               0.00     0.00    0.00    0.00     0.00     0.00     0.00     0.00    0.00    0.00    0.00   0.00   0.00
sdh               0.00     0.00    0.00    0.00     0.00     0.00     0.00     0.00    0.00    0.00    0.00   0.00   0.00
md0               0.00     0.00 49535.00    0.00 744068.00     0.00    30.04     0.00    0.00    0.00    0.00   0.00   0.00

avg-cpu:  %user   %nice %system %iowait  %steal   %idle
           1.53    0.00   17.09   62.76    0.00   18.62

Device:         rrqm/s   wrqm/s     r/s     w/s    rkB/s    wkB/s avgrq-sz avgqu-sz   await r_await w_await  svctm  %util
sda               4.00     0.00 8197.00    0.00 118472.00     0.00    28.91     1.79    0.22    0.22    0.00   0.08  64.30
sdb               2.00     0.00 8305.00    0.00 118280.00     0.00    28.48     1.80    0.22    0.22    0.00   0.08  64.90
sdc               4.00     0.00 8251.00    0.00 117348.00     0.00    28.44     2.92    0.35    0.35    0.00   0.09  71.80
sdd               1.00     0.00 8081.00    0.00 113068.00     0.00    27.98     2.79    0.35    0.35    0.00   0.09  72.60
sde               5.00     0.00 8497.00    0.00 116688.00     0.00    27.47     2.84    0.33    0.33    0.00   0.09  72.60
sdf               3.00     0.00 8304.00    0.00 117140.00     0.00    28.21     2.85    0.34    0.34    0.00   0.09  73.30
sdg               0.00     0.00    0.00    0.00     0.00     0.00     0.00     0.00    0.00    0.00    0.00   0.00   0.00
sdh               0.00     0.00    0.00    0.00     0.00     0.00     0.00     0.00    0.00    0.00    0.00   0.00   0.00
md0               0.00     0.00 49651.00    0.00 756960.00     0.00    30.49     0.00    0.00    0.00    0.00   0.00   0.00

avg-cpu:  %user   %nice %system %iowait  %steal   %idle
           1.53    0.00   17.09   63.27    0.00   18.11

Device:         rrqm/s   wrqm/s     r/s     w/s    rkB/s    wkB/s avgrq-sz avgqu-sz   await r_await w_await  svctm  %util
sda               5.00     0.00 8505.00    0.00 117916.00     0.00    27.73     1.74    0.20    0.20    0.00   0.08  65.90
sdb               4.00     0.00 8344.00    0.00 112948.00     0.00    27.07     1.67    0.20    0.20    0.00   0.08  63.50
sdc               3.00     0.00 8518.00    0.00 115980.00     0.00    27.23     2.90    0.34    0.34    0.00   0.09  72.60
sdd               4.00     0.00 8326.00    0.00 111932.00     0.00    26.89     2.71    0.33    0.33    0.00   0.09  71.60
sde               3.00     0.00 8481.00    0.00 120876.00     0.00    28.51     2.87    0.34    0.34    0.00   0.09  75.20
sdf               2.00     0.00 8459.00    0.00 115872.00     0.00    27.40     2.86    0.34    0.34    0.00   0.09  73.00
sdg               0.00     0.00    0.00    0.00     0.00     0.00     0.00     0.00    0.00    0.00    0.00   0.00   0.00
sdh               0.00     0.00    0.00    0.00     0.00     0.00     0.00     0.00    0.00    0.00    0.00   0.00   0.00
md0               0.00     0.00 50657.00    0.00 749908.00     0.00    29.61     0.00    0.00    0.00    0.00   0.00   0.00

avg-cpu:  %user   %nice %system %iowait  %steal   %idle
           1.77    0.00   17.47   63.04    0.00   17.72

Device:         rrqm/s   wrqm/s     r/s     w/s    rkB/s    wkB/s avgrq-sz avgqu-sz   await r_await w_await  svctm  %util
sda               5.00     0.00 8261.00    0.00 114732.00     0.00    27.78     1.70    0.21    0.21    0.00   0.08  66.00
sdb               5.00     0.00 8335.00    0.00 113980.00     0.00    27.35     1.73    0.21    0.21    0.00   0.08  65.70
sdc               5.00     0.00 8621.00    0.00 118116.00     0.00    27.40     2.86    0.33    0.33    0.00   0.09  74.20
sdd               9.00     0.00 8592.00    0.00 117184.00     0.00    27.28     2.94    0.34    0.34    0.00   0.09  74.40
sde               2.00     0.00 8385.00    0.00 117128.00     0.00    27.94     2.81    0.34    0.34    0.00   0.09  73.60
sdf               5.00     0.00 8577.00    0.00 117236.00     0.00    27.34     2.82    0.33    0.33    0.00   0.09  74.00
sdg               0.00     0.00    0.00    0.00     0.00     0.00     0.00     0.00    0.00    0.00    0.00   0.00   0.00
sdh               0.00     0.00    0.00    0.00     0.00     0.00     0.00     0.00    0.00    0.00    0.00   0.00   0.00
md0               0.00     0.00 50813.00    0.00 757080.00     0.00    29.80     0.00    0.00    0.00    0.00   0.00   0.00

avg-cpu:  %user   %nice %system %iowait  %steal   %idle
           1.51    0.25   18.59   62.81    0.00   16.83

Device:         rrqm/s   wrqm/s     r/s     w/s    rkB/s    wkB/s avgrq-sz avgqu-sz   await r_await w_await  svctm  %util
sda               5.00     0.00 8201.00    0.00 121540.00     0.00    29.64     1.79    0.22    0.22    0.00   0.08  64.90
sdb               5.00     0.00 8281.00    0.00 111732.00     0.00    26.99     1.64    0.20    0.20    0.00   0.08  63.30
sdc               7.00     0.00 8061.00    0.00 112192.00     0.00    27.84     2.68    0.33    0.33    0.00   0.09  70.60
sdd               1.00     0.00 8284.00    0.00 115704.00     0.00    27.93     2.87    0.35    0.35    0.00   0.09  74.00
sde               2.00     0.00 8094.00    0.00 113980.00     0.00    28.16     2.65    0.33    0.33    0.00   0.09  73.60
sdf               8.00     0.00 8169.00    0.00 127472.00     0.00    31.21     3.24    0.40    0.40    0.00   0.09  74.70
sdg               0.00     0.00 1028.00    0.00  4112.00     0.00     8.00     0.11    0.11    0.11    0.00   0.11  11.40
sdh               0.00     0.00    0.00    0.00     0.00     0.00     0.00     0.00    0.00    0.00    0.00   0.00   0.00
md0               0.00     0.00 49108.00    0.00 760628.00     0.00    30.98     0.00    0.00    0.00    0.00   0.00   0.00

avg-cpu:  %user   %nice %system %iowait  %steal   %idle
           1.26    0.00   18.43   62.63    0.00   17.68

Device:         rrqm/s   wrqm/s     r/s     w/s    rkB/s    wkB/s avgrq-sz avgqu-sz   await r_await w_await  svctm  %util
sda               2.00     0.00 8573.00    0.00 116432.00     0.00    27.16     1.80    0.21    0.21    0.00   0.08  67.20
sdb               4.00     0.00 8453.00    0.00 116724.00     0.00    27.62     1.71    0.20    0.20    0.00   0.08  65.30
sdc               4.00     0.00 8579.00    0.00 118240.00     0.00    27.56     3.03    0.35    0.35    0.00   0.09  73.90
sdd               1.00     0.00 8535.00    0.00 118088.00     0.00    27.67     2.87    0.34    0.34    0.00   0.09  74.50
sde               1.00     0.00 8304.00    0.00 110736.00     0.00    26.67     2.54    0.31    0.31    0.00   0.09  70.60
sdf               3.00     0.00 8532.00    0.00 119336.00     0.00    27.97     2.97    0.35    0.35    0.00   0.09  73.30
sdg               0.00     0.00  306.00    0.00  1224.00     0.00     8.00     0.04    0.11    0.11    0.00   0.11   3.50
sdh               0.00     0.00    0.00    0.00     0.00     0.00     0.00     0.00    0.00    0.00    0.00   0.00   0.00
md0               0.00     0.00 50996.00    0.00 754512.00     0.00    29.59     0.00    0.00    0.00    0.00   0.00   0.00

avg-cpu:  %user   %nice %system %iowait  %steal   %idle
           1.77    0.00   17.93   62.88    0.00   17.42

Device:         rrqm/s   wrqm/s     r/s     w/s    rkB/s    wkB/s avgrq-sz avgqu-sz   await r_await w_await  svctm  %util
sda               5.00     0.00 8379.00    0.00 125552.00     0.00    29.97     1.89    0.22    0.22    0.00   0.08  67.10
sdb               3.00     0.00 8283.00    0.00 129020.00     0.00    31.15     1.93    0.23    0.23    0.00   0.08  65.00
sdc               6.00     0.00 8410.00    0.00 116344.00     0.00    27.67     2.89    0.34    0.34    0.00   0.09  71.90
sdd               5.00     0.00 8154.00    0.00 115624.00     0.00    28.36     2.73    0.33    0.33    0.00   0.09  73.80
sde               1.00     0.00 8235.00    0.00 112180.00     0.00    27.24     2.67    0.32    0.32    0.00   0.09  72.70
sdf               4.00     0.00 8393.00    0.00 119848.00     0.00    28.56     2.93    0.35    0.35    0.00   0.09  75.00
sdg               0.00     0.00    0.00    0.00     0.00     0.00     0.00     0.00    0.00    0.00    0.00   0.00   0.00
sdh               0.00     0.00    0.00    0.00     0.00     0.00     0.00     0.00    0.00    0.00    0.00   0.00   0.00
md0               0.00     0.00 49871.00    0.00 776024.00     0.00    31.12     0.00    0.00    0.00    0.00   0.00   0.00

avg-cpu:  %user   %nice %system %iowait  %steal   %idle
           1.51    0.00   18.39   62.22    0.00   17.88

Device:         rrqm/s   wrqm/s     r/s     w/s    rkB/s    wkB/s avgrq-sz avgqu-sz   await r_await w_await  svctm  %util
sda               1.00     0.00 8259.00    0.00 115600.00     0.00    27.99     1.81    0.22    0.22    0.00   0.08  64.60
sdb               3.00     0.00 8247.00    0.00 117040.00     0.00    28.38     1.75    0.21    0.21    0.00   0.08  63.60
sdc               2.00     0.00 8337.00    0.00 121688.00     0.00    29.19     3.15    0.38    0.38    0.00   0.09  75.00
sdd               5.00     0.00 8242.00    0.00 117044.00     0.00    28.40     2.77    0.34    0.34    0.00   0.09  72.40
sde               6.00     0.00 8263.00    0.00 112896.00     0.00    27.33     2.63    0.32    0.32    0.00   0.09  72.40
sdf               2.00     0.00 8298.00    0.00 116604.00     0.00    28.10     2.78    0.34    0.34    0.00   0.09  74.90
sdg               0.00     0.00    0.00    0.00     0.00     0.00     0.00     0.00    0.00    0.00    0.00   0.00   0.00
sdh               0.00     0.00    0.00    0.00     0.00     0.00     0.00     0.00    0.00    0.00    0.00   0.00   0.00
md0               0.00     0.00 49650.00    0.00 754140.00     0.00    30.38     0.00    0.00    0.00    0.00   0.00   0.00

avg-cpu:  %user   %nice %system %iowait  %steal   %idle
           1.54    0.00   16.41   63.59    0.00   18.46

Device:         rrqm/s   wrqm/s     r/s     w/s    rkB/s    wkB/s avgrq-sz avgqu-sz   await r_await w_await  svctm  %util
sda               3.00     0.00 8250.00    0.00 117744.00     0.00    28.54     1.79    0.22    0.22    0.00   0.08  64.10
sdb               5.00     0.00 8121.00    0.00 117484.00     0.00    28.93     1.82    0.22    0.22    0.00   0.08  63.30
sdc               4.00     0.00 8046.00    0.00 116988.00     0.00    29.08     2.84    0.35    0.35    0.00   0.09  72.20
sdd               5.00     0.00 7932.00    0.00 117516.00     0.00    29.63     2.91    0.37    0.37    0.00   0.09  71.90
sde               3.00     0.00 8199.00    0.00 117304.00     0.00    28.61     2.80    0.34    0.34    0.00   0.09  72.30
sdf               6.00     0.00 8012.00    0.00 113348.00     0.00    28.29     2.68    0.33    0.33    0.00   0.09  73.90
sdg               0.00     0.00    0.00    0.00     0.00     0.00     0.00     0.00    0.00    0.00    0.00   0.00   0.00
sdh               0.00     0.00    0.00    0.00     0.00     0.00     0.00     0.00    0.00    0.00    0.00   0.00   0.00
md0               0.00     0.00 48608.00    0.00 757000.00     0.00    31.15     0.00    0.00    0.00    0.00   0.00   0.00

avg-cpu:  %user   %nice %system %iowait  %steal   %idle
           1.77    0.00   17.47   62.53    0.00   18.23

Device:         rrqm/s   wrqm/s     r/s     w/s    rkB/s    wkB/s avgrq-sz avgqu-sz   await r_await w_await  svctm  %util
sda               8.00     0.00 8452.00    0.00 125124.00     0.00    29.61     1.89    0.22    0.22    0.00   0.08  65.60
sdb               9.00     0.00 8119.00    0.00 117420.00     0.00    28.92     1.73    0.21    0.21    0.00   0.08  65.20
sdc               4.00     0.00 8149.00    0.00 114792.00     0.00    28.17     2.71    0.33    0.33    0.00   0.09  71.20
sdd               4.00     0.00 8304.00    0.00 115560.00     0.00    27.83     2.74    0.33    0.33    0.00   0.09  72.70
sde               4.00     0.00 8163.00    0.00 116628.00     0.00    28.57     2.78    0.34    0.34    0.00   0.09  74.00
sdf               4.00     0.00 8466.00    0.00 121572.00     0.00    28.72     2.95    0.35    0.35    0.00   0.09  75.50
sdg               0.00     0.00    0.00    0.00     0.00     0.00     0.00     0.00    0.00    0.00    0.00   0.00   0.00
sdh               0.00     0.00    0.00    0.00     0.00     0.00     0.00     0.00    0.00    0.00    0.00   0.00   0.00
md0               0.00     0.00 49676.00    0.00 767064.00     0.00    30.88     0.00    0.00    0.00    0.00   0.00   0.00

