Linux 4.17.2 (bench) 	08/03/2018 	_x86_64_	(4 CPU)

avg-cpu:  %user   %nice %system %iowait  %steal   %idle
          10.25    0.02    4.19    2.75    0.00   82.79

Device:         rrqm/s   wrqm/s     r/s     w/s    rkB/s    wkB/s avgrq-sz avgqu-sz   await r_await w_await  svctm  %util
sda              54.40     4.18 1737.74  100.94 21437.92  3088.56    26.68     1.05    0.57    0.26    5.92   0.06  11.09
sdb              54.21     4.14 1737.74  101.07 21427.44  3085.28    26.66     1.05    0.57    0.26    5.85   0.06  10.96
sdc              91.94     4.20 1697.91  100.63 21419.66  3087.70    27.25     1.47    0.82    0.44    7.12   0.08  14.47
sdd              85.48     4.17 1703.56  100.70 21404.79  3083.95    27.15     1.48    0.82    0.43    7.33   0.08  14.57
sde              87.47     4.21 1708.63  100.80 21464.04  3088.14    27.14     1.50    0.83    0.44    7.44   0.08  14.59
sdf              84.64     4.18 1710.73  100.74 21445.56  3085.05    27.08     1.54    0.85    0.44    7.90   0.08  14.62
sdg               0.00     3.17   26.91   73.26   326.40   392.03    14.34     0.44    4.39    0.20    5.93   0.08   0.79
sdh               0.00     0.13    0.02    0.23     2.18     4.98    56.82     0.00    1.15    0.65    1.19   0.21   0.01
md0               0.00     0.00 10762.07  472.93 146980.46 21140.79    29.93     0.00    0.00    0.00    0.00   0.00   0.00

avg-cpu:  %user   %nice %system %iowait  %steal   %idle
           0.00    0.00    1.78    1.53    0.00   96.69

Device:         rrqm/s   wrqm/s     r/s     w/s    rkB/s    wkB/s avgrq-sz avgqu-sz   await r_await w_await  svctm  %util
sda              28.00     0.00 1055.00    0.00 24052.00     0.00    45.60     0.18    0.17    0.17    0.00   0.15  15.80
sdb              25.00     0.00 1110.00    0.00 24008.00     0.00    43.26     0.24    0.22    0.22    0.00   0.18  20.00
sdc              23.00     0.00 1128.00    0.00 23400.00     0.00    41.49     0.26    0.23    0.23    0.00   0.19  21.00
sdd              29.00     0.00 1019.00    0.00 25828.00     0.00    50.69     0.25    0.25    0.25    0.00   0.20  20.00
sde              30.00     0.00 1070.00    0.00 22956.00     0.00    42.91     0.24    0.23    0.23    0.00   0.19  20.00
sdf              24.00     0.00 1091.00    0.00 23380.00     0.00    42.86     0.25    0.22    0.22    0.00   0.18  19.90
sdg               0.00     0.00    0.00    0.00     0.00     0.00     0.00     0.00    0.00    0.00    0.00   0.00   0.00
sdh               0.00     0.00    0.00    0.00     0.00     0.00     0.00     0.00    0.00    0.00    0.00   0.00   0.00
md0               0.00     0.00 6628.00    0.00 183836.00     0.00    55.47     0.00    0.00    0.00    0.00   0.00   0.00

avg-cpu:  %user   %nice %system %iowait  %steal   %idle
           0.25    0.00    1.78    1.27    0.00   96.69

Device:         rrqm/s   wrqm/s     r/s     w/s    rkB/s    wkB/s avgrq-sz avgqu-sz   await r_await w_await  svctm  %util
sda              18.00     0.00 1047.00    0.00 20072.00     0.00    38.34     0.17    0.17    0.17    0.00   0.15  15.60
sdb              21.00     0.00 1076.00    0.00 20440.00     0.00    37.99     0.20    0.19    0.19    0.00   0.17  18.30
sdc              19.00     0.00 1066.00    0.00 22276.00     0.00    41.79     0.22    0.21    0.21    0.00   0.18  19.30
sdd              20.00     0.00 1078.00    0.00 20732.00     0.00    38.46     0.23    0.21    0.21    0.00   0.18  19.70
sde              22.00     0.00 1106.00    0.00 21340.00     0.00    38.59     0.21    0.20    0.20    0.00   0.16  18.20
sdf              18.00     0.00 1130.00    0.00 18648.00     0.00    33.01     0.23    0.20    0.20    0.00   0.17  19.20
sdg               0.00     0.00    0.00    0.00     0.00     0.00     0.00     0.00    0.00    0.00    0.00   0.00   0.00
sdh               0.00     0.00    0.00    0.00     0.00     0.00     0.00     0.00    0.00    0.00    0.00   0.00   0.00
md0               0.00     0.00 6622.00    0.00 158960.00     0.00    48.01     0.00    0.00    0.00    0.00   0.00   0.00

