Linux 4.17.2 (bench) 	08/03/2018 	_x86_64_	(4 CPU)

avg-cpu:  %user   %nice %system %iowait  %steal   %idle
          10.27    0.02    4.10    2.62    0.00   83.00

Device:         rrqm/s   wrqm/s     r/s     w/s    rkB/s    wkB/s avgrq-sz avgqu-sz   await r_await w_await  svctm  %util
sda              47.13     4.23 1676.18  102.09 21063.53  3123.79    27.20     1.04    0.58    0.26    5.92   0.06  10.83
sdb              46.98     4.19 1676.14  102.23 21053.03  3120.46    27.19     1.03    0.58    0.26    5.85   0.06  10.70
sdc              84.82     4.25 1636.21  101.78 21045.15  3122.92    27.81     1.45    0.84    0.45    7.12   0.08  14.17
sdd              78.27     4.21 1641.93  101.85 21030.04  3119.13    27.70     1.46    0.84    0.44    7.33   0.08  14.27
sde              80.29     4.26 1647.00  101.95 21089.70  3123.36    27.69     1.48    0.85    0.44    7.44   0.08  14.29
sdf              77.41     4.23 1649.14  101.89 21071.02  3120.23    27.63     1.53    0.87    0.44    7.90   0.08  14.32
sdg               0.00     3.17   26.44   73.30   324.51   392.02    14.37     0.44    4.41    0.20    5.93   0.08   0.78
sdh               0.00     0.13    0.02    0.23     2.20     5.04    56.82     0.00    1.15    0.65    1.19   0.21   0.01
md0               0.00     0.00 10348.34  478.33 144313.37 21381.90    30.61     0.00    0.00    0.00    0.00   0.00   0.00

avg-cpu:  %user   %nice %system %iowait  %steal   %idle
           2.00    0.00   34.25    1.00    0.00   62.75

Device:         rrqm/s   wrqm/s     r/s     w/s    rkB/s    wkB/s avgrq-sz avgqu-sz   await r_await w_await  svctm  %util
sda               3.00     0.00 25285.00    0.00 101152.00     0.00     8.00     7.50    0.30    0.30    0.00   0.02  58.10
sdb               0.00     0.00 25291.00    0.00 101164.00     0.00     8.00     7.26    0.29    0.29    0.00   0.02  57.50
sdc               1.00     0.00 25195.00    0.00 100784.00     0.00     8.00     7.52    0.30    0.30    0.00   0.03  67.20
sdd               0.00     0.00 25360.00    0.00 101440.00     0.00     8.00     7.81    0.31    0.31    0.00   0.03  67.90
sde               2.00     0.00 25601.00    0.00 102412.00     0.00     8.00     8.01    0.31    0.31    0.00   0.03  69.80
sdf               3.00     0.00 25571.00    0.00 102296.00     0.00     8.00     8.15    0.32    0.32    0.00   0.03  68.20
sdg               0.00     0.00    2.00    0.00    20.00     0.00    20.00     0.00    0.00    0.00    0.00   0.00   0.00
sdh               0.00     0.00    0.00    0.00     0.00     0.00     0.00     0.00    0.00    0.00    0.00   0.00   0.00
md0               0.00     0.00 152352.00    0.00 609404.00     0.00     8.00     0.00    0.00    0.00    0.00   0.00   0.00

avg-cpu:  %user   %nice %system %iowait  %steal   %idle
           2.02    0.00   33.75    1.01    0.00   63.22

Device:         rrqm/s   wrqm/s     r/s     w/s    rkB/s    wkB/s avgrq-sz avgqu-sz   await r_await w_await  svctm  %util
sda               0.00     0.00 25830.00    0.00 103320.00     0.00     8.00     7.36    0.28    0.28    0.00   0.02  57.70
sdb               1.00     0.00 25791.00    0.00 103168.00     0.00     8.00     7.06    0.27    0.27    0.00   0.02  57.20
sdc               0.00     0.00 25613.00    0.00 102452.00     0.00     8.00     7.81    0.30    0.30    0.00   0.03  67.50
sdd               0.00     0.00 25693.00    0.00 102772.00     0.00     8.00     8.02    0.31    0.31    0.00   0.03  67.50
sde               1.00     0.00 25652.00    0.00 102612.00     0.00     8.00     7.96    0.31    0.31    0.00   0.03  68.10
sdf               4.00     0.00 25616.00    0.00 102480.00     0.00     8.00     7.88    0.31    0.31    0.00   0.03  68.00
sdg               0.00     0.00    0.00    0.00     0.00     0.00     0.00     0.00    0.00    0.00    0.00   0.00   0.00
sdh               0.00     0.00    0.00    0.00     0.00     0.00     0.00     0.00    0.00    0.00    0.00   0.00   0.00
md0               0.00     0.00 154186.00    0.00 616748.00     0.00     8.00     0.00    0.00    0.00    0.00   0.00   0.00

avg-cpu:  %user   %nice %system %iowait  %steal   %idle
           2.00    0.00   35.50    0.50    0.00   62.00

Device:         rrqm/s   wrqm/s     r/s     w/s    rkB/s    wkB/s avgrq-sz avgqu-sz   await r_await w_await  svctm  %util
sda               4.00     0.00 26220.00    0.00 104896.00     0.00     8.00     7.66    0.29    0.29    0.00   0.02  58.10
sdb               2.00     0.00 26127.00    0.00 104516.00     0.00     8.00     7.32    0.28    0.28    0.00   0.02  56.40
sdc               3.00     0.00 26269.00    0.00 105088.00     0.00     8.00     8.24    0.31    0.31    0.00   0.03  68.40
sdd               2.00     0.00 26362.00    0.00 105456.00     0.00     8.00     8.61    0.33    0.33    0.00   0.03  68.90
sde               1.00     0.00 26149.00    0.00 104600.00     0.00     8.00     8.34    0.32    0.32    0.00   0.03  70.80
sdf               2.00     0.00 26389.00    0.00 105564.00     0.00     8.00     8.47    0.32    0.32    0.00   0.03  69.40
sdg               0.00     0.00    0.00    0.00     0.00     0.00     0.00     0.00    0.00    0.00    0.00   0.00   0.00
sdh               0.00     0.00    0.00    0.00     0.00     0.00     0.00     0.00    0.00    0.00    0.00   0.00   0.00
md0               0.00     0.00 157572.00    0.00 630288.00     0.00     8.00     0.00    0.00    0.00    0.00   0.00   0.00

avg-cpu:  %user   %nice %system %iowait  %steal   %idle
           2.04    0.00   35.11    0.51    0.00   62.34

Device:         rrqm/s   wrqm/s     r/s     w/s    rkB/s    wkB/s avgrq-sz avgqu-sz   await r_await w_await  svctm  %util
sda               1.00     0.00 25872.00    0.00 103492.00     0.00     8.00     7.49    0.29    0.29    0.00   0.02  59.10
sdb               0.00     0.00 26159.00    0.00 104636.00     0.00     8.00     7.70    0.29    0.29    0.00   0.02  57.80
sdc               4.00     0.00 26264.00    0.00 105072.00     0.00     8.00     8.42    0.32    0.32    0.00   0.03  67.20
sdd               1.00     0.00 26098.00    0.00 104396.00     0.00     8.00     8.11    0.31    0.31    0.00   0.03  66.70
sde               1.00     0.00 25901.00    0.00 103612.00     0.00     8.00     8.13    0.31    0.31    0.00   0.03  68.30
sdf               4.00     0.00 26282.00    0.00 105144.00     0.00     8.00     8.43    0.32    0.32    0.00   0.03  70.10
sdg               0.00     0.00   18.00    0.00   120.00     0.00    13.33     0.00    0.06    0.06    0.00   0.06   0.10
sdh               0.00     0.00    0.00    0.00     0.00     0.00     0.00     0.00    0.00    0.00    0.00   0.00   0.00
md0               0.00     0.00 156590.00    0.00 626360.00     0.00     8.00     0.00    0.00    0.00    0.00   0.00   0.00

avg-cpu:  %user   %nice %system %iowait  %steal   %idle
           2.04    0.00   35.62    0.51    0.00   61.83

Device:         rrqm/s   wrqm/s     r/s     w/s    rkB/s    wkB/s avgrq-sz avgqu-sz   await r_await w_await  svctm  %util
sda               1.00     0.00 26411.00    0.00 105648.00     0.00     8.00     7.50    0.28    0.28    0.00   0.02  59.20
sdb               3.00     0.00 26266.00    0.00 105076.00     0.00     8.00     7.44    0.28    0.28    0.00   0.02  56.90
sdc               5.00     0.00 26185.00    0.00 104760.00     0.00     8.00     8.08    0.31    0.31    0.00   0.03  67.40
sdd               2.00     0.00 26160.00    0.00 104648.00     0.00     8.00     8.32    0.32    0.32    0.00   0.03  67.90
sde               5.00     0.00 26197.00    0.00 104804.00     0.00     8.00     8.21    0.31    0.31    0.00   0.03  69.40
sdf               1.00     0.00 26163.00    0.00 104656.00     0.00     8.00     8.28    0.32    0.32    0.00   0.03  70.90
sdg               0.00     0.00    0.00    0.00     0.00     0.00     0.00     0.00    0.00    0.00    0.00   0.00   0.00
sdh               0.00     0.00    0.00    0.00     0.00     0.00     0.00     0.00    0.00    0.00    0.00   0.00   0.00
md0               0.00     0.00 157390.00    0.00 629556.00     0.00     8.00     0.00    0.00    0.00    0.00   0.00   0.00

avg-cpu:  %user   %nice %system %iowait  %steal   %idle
           1.75    0.00   36.91    0.50    0.00   60.85

Device:         rrqm/s   wrqm/s     r/s     w/s    rkB/s    wkB/s avgrq-sz avgqu-sz   await r_await w_await  svctm  %util
sda               4.00     0.00 26170.00    0.00 104696.00     0.00     8.00     7.48    0.29    0.29    0.00   0.02  60.40
sdb               0.00     0.00 26168.00    0.00 104672.00     0.00     8.00     7.62    0.29    0.29    0.00   0.02  58.80
sdc               4.00     0.00 26183.00    0.00 104748.00     0.00     8.00     8.40    0.32    0.32    0.00   0.03  68.30
sdd               0.00     0.00 26193.00    0.00 104772.00     0.00     8.00     8.30    0.32    0.32    0.00   0.03  69.60
sde               0.00     0.00 26175.00    0.00 104700.00     0.00     8.00     8.33    0.32    0.32    0.00   0.03  70.70
sdf               2.00     0.00 26353.00    0.00 105420.00     0.00     8.00     8.60    0.33    0.33    0.00   0.03  70.40
sdg               0.00     0.00    0.00    0.00     0.00     0.00     0.00     0.00    0.00    0.00    0.00   0.00   0.00
sdh               0.00     0.00    0.00    0.00     0.00     0.00     0.00     0.00    0.00    0.00    0.00   0.00   0.00
md0               0.00     0.00 157271.00    0.00 629088.00     0.00     8.00     0.00    0.00    0.00    0.00   0.00   0.00

avg-cpu:  %user   %nice %system %iowait  %steal   %idle
           2.00    0.00   37.75    0.50    0.00   59.75

Device:         rrqm/s   wrqm/s     r/s     w/s    rkB/s    wkB/s avgrq-sz avgqu-sz   await r_await w_await  svctm  %util
sda               2.00     0.00 25963.00    0.00 103860.00     0.00     8.00     7.03    0.27    0.27    0.00   0.02  57.60
sdb               3.00     0.00 26036.00    0.00 104156.00     0.00     8.00     6.95    0.27    0.27    0.00   0.02  56.10
sdc               0.00     0.00 26151.00    0.00 104604.00     0.00     8.00     7.94    0.30    0.30    0.00   0.03  67.20
sdd               6.00     0.00 26124.00    0.00 104520.00     0.00     8.00     8.07    0.31    0.31    0.00   0.03  69.50
sde               1.00     0.00 25962.00    0.00 103852.00     0.00     8.00     8.05    0.31    0.31    0.00   0.03  69.30
sdf               2.00     0.00 26061.00    0.00 104252.00     0.00     8.00     8.06    0.31    0.31    0.00   0.03  67.40
sdg               0.00     0.00    0.00    0.00     0.00     0.00     0.00     0.00    0.00    0.00    0.00   0.00   0.00
sdh               0.00     0.00    0.00    0.00     0.00     0.00     0.00     0.00    0.00    0.00    0.00   0.00   0.00
md0               0.00     0.00 156320.00    0.00 625280.00     0.00     8.00     0.00    0.00    0.00    0.00   0.00   0.00

avg-cpu:  %user   %nice %system %iowait  %steal   %idle
           1.79    0.00   36.06    0.51    0.00   61.64

Device:         rrqm/s   wrqm/s     r/s     w/s    rkB/s    wkB/s avgrq-sz avgqu-sz   await r_await w_await  svctm  %util
sda               7.00     0.00 26191.00    0.00 104792.00     0.00     8.00     7.19    0.27    0.27    0.00   0.02  56.80
sdb               1.00     0.00 26239.00    0.00 104960.00     0.00     8.00     7.34    0.28    0.28    0.00   0.02  55.40
sdc               2.00     0.00 26104.00    0.00 104424.00     0.00     8.00     8.00    0.31    0.31    0.00   0.03  69.00
sdd               2.00     0.00 26169.00    0.00 104684.00     0.00     8.00     8.02    0.31    0.31    0.00   0.03  70.20
sde               1.00     0.00 26112.00    0.00 104452.00     0.00     8.00     8.02    0.31    0.31    0.00   0.03  68.20
sdf               1.00     0.00 26261.00    0.00 105048.00     0.00     8.00     8.02    0.31    0.31    0.00   0.03  67.20
sdg               0.00     0.00    0.00    0.00     0.00     0.00     0.00     0.00    0.00    0.00    0.00   0.00   0.00
sdh               0.00     0.00    0.00    0.00     0.00     0.00     0.00     0.00    0.00    0.00    0.00   0.00   0.00
md0               0.00     0.00 157010.00    0.00 628040.00     0.00     8.00     0.00    0.00    0.00    0.00   0.00   0.00

avg-cpu:  %user   %nice %system %iowait  %steal   %idle
           2.03    0.00   35.95    0.51    0.00   61.52

Device:         rrqm/s   wrqm/s     r/s     w/s    rkB/s    wkB/s avgrq-sz avgqu-sz   await r_await w_await  svctm  %util
sda               2.00     0.00 26416.00    0.00 105672.00     0.00     8.00     7.24    0.27    0.27    0.00   0.02  57.70
sdb               1.00     0.00 26532.00    0.00 106132.00     0.00     8.00     7.24    0.27    0.27    0.00   0.02  56.00
sdc               1.00     0.00 26556.00    0.00 106228.00     0.00     8.00     8.24    0.31    0.31    0.00   0.03  67.40
sdd               0.00     0.00 26253.00    0.00 105012.00     0.00     8.00     8.10    0.31    0.31    0.00   0.03  68.10
sde               2.00     0.00 26451.00    0.00 105812.00     0.00     8.00     8.04    0.30    0.30    0.00   0.03  71.00
sdf               3.00     0.00 26388.00    0.00 105564.00     0.00     8.00     8.24    0.31    0.31    0.00   0.03  70.90
sdg               0.00     0.00    0.00    0.00     0.00     0.00     0.00     0.00    0.00    0.00    0.00   0.00   0.00
sdh               0.00     0.00    0.00    0.00     0.00     0.00     0.00     0.00    0.00    0.00    0.00   0.00   0.00
md0               0.00     0.00 158610.00    0.00 634440.00     0.00     8.00     0.00    0.00    0.00    0.00   0.00   0.00

avg-cpu:  %user   %nice %system %iowait  %steal   %idle
           2.28    0.00   35.79    0.51    0.00   61.42

Device:         rrqm/s   wrqm/s     r/s     w/s    rkB/s    wkB/s avgrq-sz avgqu-sz   await r_await w_await  svctm  %util
sda               1.00     0.00 26625.00    0.00 106504.00     0.00     8.00     7.58    0.28    0.28    0.00   0.02  58.00
sdb               0.00     0.00 26773.00    0.00 107092.00     0.00     8.00     7.45    0.28    0.28    0.00   0.02  57.00
sdc               0.00     0.00 26444.00    0.00 105776.00     0.00     8.00     8.29    0.31    0.31    0.00   0.03  69.00
sdd               2.00     0.00 26231.00    0.00 104932.00     0.00     8.00     7.94    0.30    0.30    0.00   0.03  68.10
sde               1.00     0.00 26561.00    0.00 106248.00     0.00     8.00     8.14    0.31    0.31    0.00   0.03  68.20
sdf               1.00     0.00 26648.00    0.00 106596.00     0.00     8.00     8.18    0.31    0.31    0.00   0.03  68.80
sdg               0.00     3.00    0.00    2.00     0.00    44.00    44.00     0.00    0.00    0.00    0.00   0.00   0.00
sdh               0.00     0.00    0.00    0.00     0.00     0.00     0.00     0.00    0.00    0.00    0.00   0.00   0.00
md0               0.00     0.00 159358.00    0.00 637432.00     0.00     8.00     0.00    0.00    0.00    0.00   0.00   0.00

avg-cpu:  %user   %nice %system %iowait  %steal   %idle
           2.22    0.00   39.41    1.23    0.00   57.14

Device:         rrqm/s   wrqm/s     r/s     w/s    rkB/s    wkB/s avgrq-sz avgqu-sz   await r_await w_await  svctm  %util
sda               2.00     0.00 25485.00    0.00 101948.00     0.00     8.00     6.94    0.27    0.27    0.00   0.02  58.00
sdb               1.00     0.00 25513.00    0.00 102056.00     0.00     8.00     7.03    0.28    0.28    0.00   0.02  57.10
sdc               4.00     0.00 25403.00    0.00 101628.00     0.00     8.00     7.93    0.31    0.31    0.00   0.03  67.40
sdd               0.00     0.00 25334.00    0.00 101336.00     0.00     8.00     7.95    0.31    0.31    0.00   0.03  67.50
sde               1.00     0.00 25294.00    0.00 101180.00     0.00     8.00     7.86    0.31    0.31    0.00   0.03  68.20
sdf               1.00     0.00 25200.00    0.00 100804.00     0.00     8.00     8.06    0.32    0.32    0.00   0.03  69.60
sdg               0.00     8.00    0.00 1455.00     0.00  7444.00    10.23     8.66    5.96    0.00    5.96   0.04   6.40
sdh               0.00     0.00    0.00    0.00     0.00     0.00     0.00     0.00    0.00    0.00    0.00   0.00   0.00
md0               0.00     0.00 152223.00    0.00 608892.00     0.00     8.00     0.00    0.00    0.00    0.00   0.00   0.00

avg-cpu:  %user   %nice %system %iowait  %steal   %idle
           2.02    0.00   37.53    0.50    0.00   59.95

Device:         rrqm/s   wrqm/s     r/s     w/s    rkB/s    wkB/s avgrq-sz avgqu-sz   await r_await w_await  svctm  %util
sda               2.00     0.00 25234.00    0.00 100944.00     0.00     8.00     6.75    0.27    0.27    0.00   0.02  54.30
sdb               6.00     0.00 25206.00    0.00 100848.00     0.00     8.00     6.70    0.27    0.27    0.00   0.02  53.90
sdc               2.00     0.00 25310.00    0.00 101248.00     0.00     8.00     7.56    0.30    0.30    0.00   0.03  63.80
sdd               4.00     0.00 25355.00    0.00 101436.00     0.00     8.00     7.67    0.30    0.30    0.00   0.03  65.80
sde               4.00     0.00 25511.00    0.00 102060.00     0.00     8.00     7.62    0.30    0.30    0.00   0.03  65.80
sdf               2.00     0.00 25137.00    0.00 100556.00     0.00     8.00     7.42    0.30    0.30    0.00   0.03  64.90
sdg               0.00     0.00    0.00    7.00     0.00   144.00    41.14     0.00    0.57    0.00    0.57   0.14   0.10
sdh               0.00     0.00    0.00    0.00     0.00     0.00     0.00     0.00    0.00    0.00    0.00   0.00   0.00
md0               0.00     0.00 151762.00    0.00 607048.00     0.00     8.00     0.00    0.00    0.00    0.00   0.00   0.00

avg-cpu:  %user   %nice %system %iowait  %steal   %idle
           2.01    0.00   38.10    0.25    0.00   59.65

Device:         rrqm/s   wrqm/s     r/s     w/s    rkB/s    wkB/s avgrq-sz avgqu-sz   await r_await w_await  svctm  %util
sda               2.00     0.00 25846.00    0.00 103392.00     0.00     8.00     7.32    0.28    0.28    0.00   0.02  56.60
sdb               0.00     0.00 25207.00    0.00 100828.00     0.00     8.00     7.16    0.28    0.28    0.00   0.02  55.70
sdc               2.00     0.00 25556.00    0.00 102232.00     0.00     8.00     7.84    0.31    0.31    0.00   0.03  66.80
sdd               2.00     0.00 25636.00    0.00 102552.00     0.00     8.00     7.69    0.30    0.30    0.00   0.03  68.50
sde               1.00     0.00 25459.00    0.00 101840.00     0.00     8.00     7.80    0.31    0.31    0.00   0.03  69.60
sdf               0.00     0.00 25433.00    0.00 101732.00     0.00     8.00     7.74    0.30    0.30    0.00   0.03  68.30
sdg               0.00     0.00    0.00    0.00     0.00     0.00     0.00     0.00    0.00    0.00    0.00   0.00   0.00
sdh               0.00     0.00    0.00    0.00     0.00     0.00     0.00     0.00    0.00    0.00    0.00   0.00   0.00
md0               0.00     0.00 153094.00    0.00 612376.00     0.00     8.00     0.00    0.00    0.00    0.00   0.00   0.00

avg-cpu:  %user   %nice %system %iowait  %steal   %idle
           1.76    0.25   37.44    1.76    0.00   58.79

Device:         rrqm/s   wrqm/s     r/s     w/s    rkB/s    wkB/s avgrq-sz avgqu-sz   await r_await w_await  svctm  %util
sda               1.00     0.00 25559.00    0.00 102240.00     0.00     8.00     7.31    0.29    0.29    0.00   0.02  55.80
sdb               3.00     0.00 25378.00    0.00 101528.00     0.00     8.00     7.22    0.28    0.28    0.00   0.02  54.80
sdc               3.00     0.00 25418.00    0.00 101684.00     0.00     8.00     8.02    0.32    0.32    0.00   0.03  68.90
sdd               1.00     0.00 25181.00    0.00 100728.00     0.00     8.00     7.82    0.31    0.31    0.00   0.03  68.40
sde               2.00     0.00 25381.00    0.00 101532.00     0.00     8.00     7.61    0.30    0.30    0.00   0.03  68.60
sdf               2.00     0.00 25541.00    0.00 102172.00     0.00     8.00     7.81    0.31    0.31    0.00   0.03  65.40
sdg               0.00     0.00  841.00    0.00  3364.00     0.00     8.00     0.10    0.12    0.12    0.00   0.12  10.00
sdh               0.00     0.00    0.00    0.00     0.00     0.00     0.00     0.00    0.00    0.00    0.00   0.00   0.00
md0               0.00     0.00 152527.00    0.00 610108.00     0.00     8.00     0.00    0.00    0.00    0.00   0.00   0.00

avg-cpu:  %user   %nice %system %iowait  %steal   %idle
           1.74    0.00   40.30    4.98    0.00   52.99

Device:         rrqm/s   wrqm/s     r/s     w/s    rkB/s    wkB/s avgrq-sz avgqu-sz   await r_await w_await  svctm  %util
sda               0.00     0.00 25929.00    0.00 103716.00     0.00     8.00     7.20    0.28    0.28    0.00   0.02  57.90
sdb               1.00     0.00 25765.00    0.00 103068.00     0.00     8.00     7.29    0.28    0.28    0.00   0.02  56.60
sdc               3.00     0.00 25920.00    0.00 103692.00     0.00     8.00     8.15    0.31    0.31    0.00   0.03  68.10
sdd               2.00     0.00 25561.00    0.00 102252.00     0.00     8.00     8.14    0.32    0.32    0.00   0.03  67.50
sde               0.00     0.00 25692.00    0.00 102768.00     0.00     8.00     8.17    0.32    0.32    0.00   0.03  69.40
sdf               2.00     0.00 25590.00    0.00 102368.00     0.00     8.00     8.40    0.33    0.33    0.00   0.03  70.00
sdg               0.00     0.00 2314.00    0.00  9256.00     0.00     8.00     0.29    0.13    0.13    0.00   0.13  29.40
sdh               0.00     0.00    0.00    0.00     0.00     0.00     0.00     0.00    0.00    0.00    0.00   0.00   0.00
md0               0.00     0.00 154476.00    0.00 617904.00     0.00     8.00     0.00    0.00    0.00    0.00   0.00   0.00

avg-cpu:  %user   %nice %system %iowait  %steal   %idle
           1.79    0.00   37.08    0.51    0.00   60.61

Device:         rrqm/s   wrqm/s     r/s     w/s    rkB/s    wkB/s avgrq-sz avgqu-sz   await r_await w_await  svctm  %util
sda               2.00     0.00 25337.00    0.00 101356.00     0.00     8.00     6.97    0.27    0.27    0.00   0.02  55.60
sdb               2.00     0.00 25227.00    0.00 100912.00     0.00     8.00     7.02    0.28    0.28    0.00   0.02  56.20
sdc               1.00     0.00 25195.00    0.00 100784.00     0.00     8.00     8.09    0.32    0.32    0.00   0.03  67.00
sdd               2.00     0.00 25383.00    0.00 101540.00     0.00     8.00     8.01    0.32    0.32    0.00   0.03  68.90
sde               3.00     0.00 25620.00    0.00 102492.00     0.00     8.00     8.18    0.32    0.32    0.00   0.03  69.10
sdf               3.00     0.00 25284.00    0.00 101148.00     0.00     8.00     8.11    0.32    0.32    0.00   0.03  68.10
sdg               0.00     0.00    0.00    0.00     0.00     0.00     0.00     0.00    0.00    0.00    0.00   0.00   0.00
sdh               0.00     0.00    0.00    0.00     0.00     0.00     0.00     0.00    0.00    0.00    0.00   0.00   0.00
md0               0.00     0.00 151994.00    0.00 607976.00     0.00     8.00     0.00    0.00    0.00    0.00   0.00   0.00

avg-cpu:  %user   %nice %system %iowait  %steal   %idle
           2.26    0.00   37.34    0.50    0.00   59.90

Device:         rrqm/s   wrqm/s     r/s     w/s    rkB/s    wkB/s avgrq-sz avgqu-sz   await r_await w_await  svctm  %util
sda               2.00     0.00 25109.00    0.00 100444.00     0.00     8.00     6.82    0.27    0.27    0.00   0.02  54.60
sdb               0.00     0.00 25189.00    0.00 100756.00     0.00     8.00     6.84    0.27    0.27    0.00   0.02  53.20
sdc               8.00     0.00 25036.00    0.00 100176.00     0.00     8.00     7.64    0.31    0.31    0.00   0.03  65.20
sdd               1.00     0.00 25129.00    0.00 100520.00     0.00     8.00     7.79    0.31    0.31    0.00   0.03  67.00
sde               0.00     0.00 24949.00    0.00 99796.00     0.00     8.00     7.82    0.31    0.31    0.00   0.03  68.10
sdf               1.00     0.00 25377.00    0.00 101512.00     0.00     8.00     7.83    0.31    0.31    0.00   0.03  66.90
sdg               0.00     0.00    0.00    0.00     0.00     0.00     0.00     0.00    0.00    0.00    0.00   0.00   0.00
sdh               0.00     0.00    0.00    0.00     0.00     0.00     0.00     0.00    0.00    0.00    0.00   0.00   0.00
md0               0.00     0.00 150810.00    0.00 603240.00     0.00     8.00     0.00    0.00    0.00    0.00   0.00   0.00

avg-cpu:  %user   %nice %system %iowait  %steal   %idle
           1.74    0.00   38.31    0.25    0.00   59.70

Device:         rrqm/s   wrqm/s     r/s     w/s    rkB/s    wkB/s avgrq-sz avgqu-sz   await r_await w_await  svctm  %util
sda               1.00     0.00 24952.00    0.00 99812.00     0.00     8.00     6.58    0.26    0.26    0.00   0.02  54.90
sdb               1.00     0.00 25266.00    0.00 101068.00     0.00     8.00     6.89    0.27    0.27    0.00   0.02  54.20
sdc               2.00     0.00 25461.00    0.00 101852.00     0.00     8.00     7.94    0.31    0.31    0.00   0.03  66.10
sdd               2.00     0.00 25358.00    0.00 101440.00     0.00     8.00     7.92    0.31    0.31    0.00   0.03  67.70
sde               2.00     0.00 25308.00    0.00 101240.00     0.00     8.00     7.62    0.30    0.30    0.00   0.03  67.10
sdf               2.00     0.00 25380.00    0.00 101528.00     0.00     8.00     7.57    0.30    0.30    0.00   0.03  65.50
sdg               0.00     0.00    0.00    0.00     0.00     0.00     0.00     0.00    0.00    0.00    0.00   0.00   0.00
sdh               0.00     0.00    0.00    0.00     0.00     0.00     0.00     0.00    0.00    0.00    0.00   0.00   0.00
md0               0.00     0.00 151815.00    0.00 607260.00     0.00     8.00     0.00    0.00    0.00    0.00   0.00   0.00

avg-cpu:  %user   %nice %system %iowait  %steal   %idle
           2.23    0.00   39.45    0.50    0.00   57.82

Device:         rrqm/s   wrqm/s     r/s     w/s    rkB/s    wkB/s avgrq-sz avgqu-sz   await r_await w_await  svctm  %util
sda               3.00     0.00 25875.00    0.00 103512.00     0.00     8.00     7.14    0.28    0.28    0.00   0.02  58.20
sdb               2.00     0.00 26031.00    0.00 104132.00     0.00     8.00     7.03    0.27    0.27    0.00   0.02  56.80
sdc               1.00     0.00 25949.00    0.00 103800.00     0.00     8.00     7.79    0.30    0.30    0.00   0.03  67.70
sdd               2.00     0.00 25716.00    0.00 102872.00     0.00     8.00     7.68    0.30    0.30    0.00   0.03  68.60
sde               1.00     0.00 26057.00    0.00 104232.00     0.00     8.00     7.96    0.30    0.30    0.00   0.03  68.70
sdf               1.00     0.00 26030.00    0.00 104124.00     0.00     8.00     7.95    0.30    0.30    0.00   0.03  69.20
sdg               0.00     0.00    0.00    0.00     0.00     0.00     0.00     0.00    0.00    0.00    0.00   0.00   0.00
sdh               0.00     0.00    0.00    0.00     0.00     0.00     0.00     0.00    0.00    0.00    0.00   0.00   0.00
md0               0.00     0.00 155669.00    0.00 622676.00     0.00     8.00     0.00    0.00    0.00    0.00   0.00   0.00

avg-cpu:  %user   %nice %system %iowait  %steal   %idle
           1.99    0.00   39.80    0.25    0.00   57.96

Device:         rrqm/s   wrqm/s     r/s     w/s    rkB/s    wkB/s avgrq-sz avgqu-sz   await r_await w_await  svctm  %util
sda               0.00     0.00 25730.00    0.00 102920.00     0.00     8.00     6.52    0.25    0.25    0.00   0.02  55.90
sdb               0.00     0.00 25886.00    0.00 103548.00     0.00     8.00     6.46    0.25    0.25    0.00   0.02  56.30
sdc               3.00     0.00 26091.00    0.00 104376.00     0.00     8.00     7.88    0.30    0.30    0.00   0.03  69.10
sdd               1.00     0.00 26014.00    0.00 104060.00     0.00     8.00     7.69    0.30    0.30    0.00   0.03  68.00
sde               4.00     0.00 25842.00    0.00 103384.00     0.00     8.00     7.43    0.29    0.29    0.00   0.03  66.10
sdf               5.00     0.00 25653.00    0.00 102632.00     0.00     8.00     7.23    0.28    0.28    0.00   0.03  65.30
sdg               0.00     0.00    1.00    0.00     4.00     0.00     8.00     0.00    0.00    0.00    0.00   0.00   0.00
sdh               0.00     0.00    0.00    0.00     0.00     0.00     0.00     0.00    0.00    0.00    0.00   0.00   0.00
md0               0.00     0.00 155170.00    0.00 620680.00     0.00     8.00     0.00    0.00    0.00    0.00   0.00   0.00

