Linux 4.17.2 (bench) 	08/03/2018 	_x86_64_	(4 CPU)

avg-cpu:  %user   %nice %system %iowait  %steal   %idle
          10.26    0.02    4.15    2.69    0.00   82.89

Device:         rrqm/s   wrqm/s     r/s     w/s    rkB/s    wkB/s avgrq-sz avgqu-sz   await r_await w_await  svctm  %util
sda              50.58     4.20 1709.07  101.49 21261.34  3105.41    26.92     1.04    0.58    0.26    5.92   0.06  10.96
sdb              50.41     4.16 1709.04  101.63 21250.89  3102.11    26.90     1.04    0.58    0.26    5.85   0.06  10.84
sdc              88.15     4.22 1669.20  101.18 21243.06  3104.54    27.51     1.46    0.83    0.45    7.12   0.08  14.33
sdd              81.65     4.19 1674.89  101.25 21228.09  3100.78    27.40     1.47    0.83    0.43    7.33   0.08  14.42
sde              83.66     4.23 1679.97  101.35 21287.55  3104.98    27.39     1.49    0.84    0.44    7.44   0.08  14.45
sdf              80.80     4.20 1682.08  101.29 21268.86  3101.88    27.33     1.54    0.86    0.44    7.90   0.08  14.48
sdg               0.00     3.17   26.68   73.28   325.48   392.04    14.36     0.44    4.40    0.20    5.93   0.08   0.78
sdh               0.00     0.13    0.02    0.23     2.19     5.01    56.82     0.00    1.15    0.65    1.19   0.21   0.01
md0               0.00     0.00 10566.75  475.51 145724.10 21256.11    30.24     0.00    0.00    0.00    0.00   0.00   0.00

avg-cpu:  %user   %nice %system %iowait  %steal   %idle
           4.92    0.03   35.62    0.66    0.00   58.77

Device:         rrqm/s   wrqm/s     r/s     w/s    rkB/s    wkB/s avgrq-sz avgqu-sz   await r_await w_await  svctm  %util
sda            6325.80     0.00 23555.55    0.00 119873.60     0.00    10.18    20.47    0.87    0.87    0.00   0.02  52.98
sdb            6217.95     0.00 23458.00    0.00 119050.00     0.00    10.15    20.42    0.87    0.87    0.00   0.02  53.00
sdc            6493.30     0.00 23348.80    0.00 119719.00     0.00    10.25    25.03    1.07    1.07    0.00   0.03  64.42
sdd            6496.25     0.00 23316.20    0.00 119589.40     0.00    10.26    25.05    1.07    1.07    0.00   0.03  64.44
sde            6480.95     0.00 23318.30    0.00 119541.00     0.00    10.25    25.16    1.08    1.08    0.00   0.03  64.65
sdf            6491.75     0.00 23319.25    0.00 119604.00     0.00    10.26    25.21    1.08    1.08    0.00   0.03  64.85
sdg               0.00     4.35  159.45  128.55   648.60   636.60     8.93     0.80    2.78    0.12    6.08   0.08   2.42
sdh               0.00     0.00    0.00    0.00     0.00     0.00     0.00     0.00    0.00    0.00    0.00   0.00   0.00
md0               0.00     0.00 179344.40    0.00 717377.60     0.00     8.00     0.00    0.00    0.00    0.00   0.00   0.00

