Linux 4.17.2 (bench) 	08/03/2018 	_x86_64_	(4 CPU)

avg-cpu:  %user   %nice %system %iowait  %steal   %idle
          10.27    0.02    4.10    2.62    0.00   83.00

Device:         rrqm/s   wrqm/s     r/s     w/s    rkB/s    wkB/s avgrq-sz avgqu-sz   await r_await w_await  svctm  %util
sda              47.13     4.23 1676.82  102.08 21066.59  3123.59    27.20     1.04    0.58    0.26    5.92   0.06  10.83
sdb              46.98     4.19 1676.77  102.22 21056.10  3120.27    27.18     1.03    0.58    0.26    5.85   0.06  10.71
sdc              84.81     4.25 1636.84  101.77 21048.22  3122.72    27.80     1.45    0.84    0.45    7.12   0.08  14.17
sdd              78.27     4.21 1642.56  101.84 21033.10  3118.93    27.69     1.46    0.84    0.44    7.33   0.08  14.27
sde              80.28     4.26 1647.64  101.94 21092.76  3123.17    27.68     1.48    0.85    0.44    7.44   0.08  14.29
sdf              77.41     4.23 1649.77  101.89 21074.08  3120.04    27.62     1.53    0.87    0.44    7.90   0.08  14.32
sdg               0.00     3.17   26.45   73.30   324.52   392.02    14.37     0.44    4.41    0.20    5.93   0.08   0.78
sdh               0.00     0.13    0.02    0.23     2.20     5.04    56.82     0.00    1.15    0.65    1.19   0.21   0.01
md0               0.00     0.00 10352.14  478.30 144333.75 21380.58    30.60     0.00    0.00    0.00    0.00   0.00   0.00

avg-cpu:  %user   %nice %system %iowait  %steal   %idle
           0.25    0.00    2.28    1.01    0.00   96.46

Device:         rrqm/s   wrqm/s     r/s     w/s    rkB/s    wkB/s avgrq-sz avgqu-sz   await r_await w_await  svctm  %util
sda              67.00     0.00  622.00    0.00 51472.00     0.00   165.50     0.28    0.44    0.44    0.00   0.36  22.30
sdb              64.00     0.00  658.00    0.00 49572.00     0.00   150.67     0.25    0.38    0.38    0.00   0.30  19.60
sdc              59.00     0.00  687.00    0.00 50872.00     0.00   148.10     0.37    0.54    0.54    0.00   0.41  28.10
sdd              61.00     0.00  743.00    0.00 49032.00     0.00   131.98     0.36    0.49    0.49    0.00   0.38  28.40
sde              59.00     0.00  738.00    0.00 48484.00     0.00   131.39     0.38    0.51    0.51    0.00   0.39  28.90
sdf              65.00     0.00  642.00    0.00 52076.00     0.00   162.23     0.39    0.60    0.60    0.00   0.44  28.50
sdg               0.00     0.00    0.00    0.00     0.00     0.00     0.00     0.00    0.00    0.00    0.00   0.00   0.00
sdh               0.00     0.00    0.00    0.00     0.00     0.00     0.00     0.00    0.00    0.00    0.00   0.00   0.00
md0               0.00     0.00 4465.00    0.00 424696.00     0.00   190.23     0.00    0.00    0.00    0.00   0.00   0.00

avg-cpu:  %user   %nice %system %iowait  %steal   %idle
           0.25    0.00    2.53    1.01    0.00   96.21

Device:         rrqm/s   wrqm/s     r/s     w/s    rkB/s    wkB/s avgrq-sz avgqu-sz   await r_await w_await  svctm  %util
sda              88.00     0.00  690.00    0.00 60556.00     0.00   175.52     0.40    0.57    0.57    0.00   0.40  27.40
sdb              91.00     0.00  648.00    0.00 62336.00     0.00   192.40     0.30    0.47    0.47    0.00   0.35  22.60
sdc              91.00     0.00  607.00    0.00 62196.00     0.00   204.93     0.50    0.82    0.82    0.00   0.54  32.60
sdd              92.00     0.00  694.00    0.00 60984.00     0.00   175.75     0.51    0.73    0.73    0.00   0.49  34.00
sde              92.00     0.00  688.00    0.00 61432.00     0.00   178.58     0.52    0.75    0.75    0.00   0.49  34.00
sdf              87.00     0.00  647.00    0.00 62620.00     0.00   193.57     0.50    0.77    0.77    0.00   0.50  32.40
sdg               0.00     0.00    0.00    0.00     0.00     0.00     0.00     0.00    0.00    0.00    0.00   0.00   0.00
sdh               0.00     0.00    0.00    0.00     0.00     0.00     0.00     0.00    0.00    0.00    0.00   0.00   0.00
md0               0.00     0.00 4514.00    0.00 558272.00     0.00   247.35     0.00    0.00    0.00    0.00   0.00   0.00

avg-cpu:  %user   %nice %system %iowait  %steal   %idle
           0.25    0.00    2.53    1.01    0.00   96.20

Device:         rrqm/s   wrqm/s     r/s     w/s    rkB/s    wkB/s avgrq-sz avgqu-sz   await r_await w_await  svctm  %util
sda              83.00     0.00  684.00    0.00 59272.00     0.00   173.31     0.33    0.49    0.49    0.00   0.38  26.30
sdb              83.00     0.00  629.00    0.00 60044.00     0.00   190.92     0.28    0.45    0.45    0.00   0.36  22.40
sdc              88.00     0.00  614.00    0.00 60160.00     0.00   195.96     0.46    0.74    0.74    0.00   0.52  32.00
sdd              82.00     0.00  626.00    0.00 59464.00     0.00   189.98     0.46    0.73    0.73    0.00   0.50  31.60
sde              78.00     0.00  743.00    0.00 57080.00     0.00   153.65     0.44    0.59    0.59    0.00   0.44  33.00
sdf              81.00     0.00  709.00    0.00 57276.00     0.00   161.57     0.43    0.61    0.61    0.00   0.45  32.20
sdg               0.00     0.00    0.00    0.00     0.00     0.00     0.00     0.00    0.00    0.00    0.00   0.00   0.00
sdh               0.00     0.00    0.00    0.00     0.00     0.00     0.00     0.00    0.00    0.00    0.00   0.00   0.00
md0               0.00     0.00 4500.00    0.00 514208.00     0.00   228.54     0.00    0.00    0.00    0.00   0.00   0.00

