Linux 4.17.2 (bench) 	08/03/2018 	_x86_64_	(4 CPU)

avg-cpu:  %user   %nice %system %iowait  %steal   %idle
          10.27    0.02    4.10    2.61    0.00   83.01

Device:         rrqm/s   wrqm/s     r/s     w/s    rkB/s    wkB/s avgrq-sz avgqu-sz   await r_await w_await  svctm  %util
sda              47.07     4.23 1672.92  102.13 21043.83  3125.10    27.23     1.04    0.58    0.26    5.92   0.06  10.81
sdb              46.93     4.19 1672.87  102.27 21033.29  3121.78    27.21     1.03    0.58    0.26    5.85   0.06  10.69
sdc              84.78     4.25 1632.93  101.82 21025.44  3124.23    27.84     1.45    0.84    0.45    7.12   0.08  14.16
sdd              78.23     4.22 1638.65  101.89 21010.38  3120.44    27.73     1.46    0.84    0.44    7.33   0.08  14.25
sde              80.25     4.26 1643.72  101.99 21070.00  3124.67    27.72     1.48    0.85    0.44    7.44   0.08  14.27
sdf              77.37     4.23 1645.86  101.93 21051.33  3121.55    27.66     1.53    0.87    0.44    7.90   0.08  14.31
sdg               0.00     3.17   26.43   73.30   324.44   392.02    14.37     0.44    4.41    0.20    5.93   0.08   0.78
sdh               0.00     0.13    0.02    0.23     2.20     5.04    56.82     0.00    1.15    0.65    1.19   0.21   0.01
md0               0.00     0.00 10328.42  478.53 144177.62 21390.91    30.64     0.00    0.00    0.00    0.00   0.00   0.00

avg-cpu:  %user   %nice %system %iowait  %steal   %idle
           4.65    0.01   20.68    0.58    0.00   74.08

Device:         rrqm/s   wrqm/s     r/s     w/s    rkB/s    wkB/s avgrq-sz avgqu-sz   await r_await w_await  svctm  %util
sda               0.00     0.00 20235.00    0.00 80940.00     0.00     8.00     2.73    0.14    0.14    0.00   0.03  62.86
sdb               0.00     0.00 20290.00    0.00 81160.00     0.00     8.00     2.74    0.13    0.13    0.00   0.03  62.62
sdc               0.00     0.00 20313.15    0.00 81252.60     0.00     8.00     3.29    0.16    0.16    0.00   0.03  64.93
sdd               0.00     0.00 20284.85    0.00 81139.40     0.00     8.00     3.32    0.16    0.16    0.00   0.03  64.72
sde               0.00     0.00 20259.45    0.00 81037.80     0.00     8.00     3.32    0.16    0.16    0.00   0.03  64.78
sdf               0.00     0.00 20217.25    0.00 80869.00     0.00     8.00     3.31    0.16    0.16    0.00   0.03  64.88
sdg               0.00     0.40    0.90  128.45     8.00   648.00    10.14     0.78    5.99    0.17    6.04   0.05   0.60
sdh               0.00     0.00    0.00    0.00     0.00     0.00     0.00     0.00    0.00    0.00    0.00   0.00   0.00
md0               0.00     0.00 121601.20    0.00 486404.80     0.00     8.00     0.00    0.00    0.00    0.00   0.00   0.00

