Linux 4.17.2 (bench) 	08/03/2018 	_x86_64_	(4 CPU)

avg-cpu:  %user   %nice %system %iowait  %steal   %idle
          10.27    0.02    4.10    2.61    0.00   83.00

Device:         rrqm/s   wrqm/s     r/s     w/s    rkB/s    wkB/s avgrq-sz avgqu-sz   await r_await w_await  svctm  %util
sda              47.07     4.23 1673.61  102.13 21045.65  3124.88    27.22     1.04    0.58    0.26    5.92   0.06  10.82
sdb              46.92     4.19 1673.56  102.26 21035.11  3121.56    27.21     1.03    0.58    0.26    5.85   0.06  10.70
sdc              84.77     4.25 1633.62  101.82 21027.26  3124.01    27.83     1.45    0.84    0.45    7.12   0.08  14.16
sdd              78.22     4.22 1639.34  101.89 21012.20  3120.22    27.72     1.46    0.84    0.44    7.33   0.08  14.26
sde              80.24     4.26 1644.41  101.98 21071.83  3124.45    27.71     1.48    0.85    0.44    7.44   0.08  14.28
sdf              77.37     4.23 1646.55  101.93 21053.14  3121.33    27.65     1.53    0.87    0.44    7.90   0.08  14.31
sdg               0.00     3.17   26.43   73.30   324.45   392.02    14.37     0.44    4.41    0.20    5.93   0.08   0.78
sdh               0.00     0.13    0.02    0.23     2.20     5.04    56.82     0.00    1.15    0.65    1.19   0.21   0.01
md0               0.00     0.00 10332.51  478.50 144187.30 21389.41    30.63     0.00    0.00    0.00    0.00   0.00   0.00

avg-cpu:  %user   %nice %system %iowait  %steal   %idle
           4.68    0.00   32.21   38.96    0.00   24.16

Device:         rrqm/s   wrqm/s     r/s     w/s    rkB/s    wkB/s avgrq-sz avgqu-sz   await r_await w_await  svctm  %util
sda               0.00     0.00 18018.00    0.00 75748.00     0.00     8.41     2.47    0.14    0.14    0.00   0.04  64.70
sdb               0.00     0.00 17687.00    0.00 75128.00     0.00     8.50     2.47    0.14    0.14    0.00   0.03  61.10
sdc               0.00     0.00 17816.00    0.00 75784.00     0.00     8.51     2.90    0.16    0.16    0.00   0.04  65.60
sdd               0.00     0.00 17587.00    0.00 74672.00     0.00     8.49     2.87    0.16    0.16    0.00   0.04  66.40
sde               0.00     0.00 17680.00    0.00 74612.00     0.00     8.44     2.91    0.16    0.16    0.00   0.04  68.10
sdf               0.00     0.00 17824.00    0.00 75664.00     0.00     8.49     2.84    0.16    0.16    0.00   0.04  67.40
sdg               0.00     0.00    3.00    0.00    88.00     0.00    58.67     0.00    0.00    0.00    0.00   0.00   0.00
sdh               0.00     0.00    0.00    0.00     0.00     0.00     0.00     0.00    0.00    0.00    0.00   0.00   0.00
md0               0.00     0.00 106613.00    0.00 453044.00     0.00     8.50     0.00    0.00    0.00    0.00   0.00   0.00

avg-cpu:  %user   %nice %system %iowait  %steal   %idle
           4.81    0.00   33.92   38.23    0.00   23.04

Device:         rrqm/s   wrqm/s     r/s     w/s    rkB/s    wkB/s avgrq-sz avgqu-sz   await r_await w_await  svctm  %util
sda               0.00     0.00 17730.00    0.00 75728.00     0.00     8.54     2.58    0.15    0.15    0.00   0.04  65.80
sdb               0.00     0.00 17431.00    0.00 74012.00     0.00     8.49     2.54    0.15    0.15    0.00   0.04  63.80
sdc               0.00     0.00 17570.00    0.00 74752.00     0.00     8.51     3.06    0.17    0.17    0.00   0.04  66.80
sdd               0.00     0.00 17715.00    0.00 76160.00     0.00     8.60     3.02    0.17    0.17    0.00   0.04  67.60
sde               1.00     0.00 17474.00    0.00 73464.00     0.00     8.41     2.92    0.17    0.17    0.00   0.04  67.80
sdf               0.00     0.00 17568.00    0.00 73960.00     0.00     8.42     2.95    0.17    0.17    0.00   0.04  67.50
sdg               0.00    82.00    0.00 2615.00     0.00 12748.00     9.75    15.57    5.95    0.00    5.95   0.04  11.10
sdh               0.00     0.00    0.00    0.00     0.00     0.00     0.00     0.00    0.00    0.00    0.00   0.00   0.00
md0               0.00     0.00 105533.00    0.00 450216.00     0.00     8.53     0.00    0.00    0.00    0.00   0.00   0.00

avg-cpu:  %user   %nice %system %iowait  %steal   %idle
           4.58    0.00   33.59   38.17    0.00   23.66

Device:         rrqm/s   wrqm/s     r/s     w/s    rkB/s    wkB/s avgrq-sz avgqu-sz   await r_await w_await  svctm  %util
sda               0.00     0.00 17795.00    0.00 74884.00     0.00     8.42     2.66    0.15    0.15    0.00   0.04  68.80
sdb               0.00     0.00 17906.00    0.00 74516.00     0.00     8.32     2.63    0.15    0.15    0.00   0.04  65.40
sdc               0.00     0.00 18029.00    0.00 75408.00     0.00     8.37     3.18    0.18    0.18    0.00   0.04  68.40
sdd               0.00     0.00 18041.00    0.00 76512.00     0.00     8.48     3.16    0.18    0.18    0.00   0.04  71.10
sde               0.00     0.00 17748.00    0.00 73808.00     0.00     8.32     2.99    0.17    0.17    0.00   0.04  71.50
sdf               0.00     0.00 18006.00    0.00 76544.00     0.00     8.50     3.15    0.17    0.17    0.00   0.04  71.50
sdg               0.00     0.00    0.00    0.00     0.00     0.00     0.00     0.00    0.00    0.00    0.00   0.00   0.00
sdh               0.00     0.00    0.00    0.00     0.00     0.00     0.00     0.00    0.00    0.00    0.00   0.00   0.00
md0               0.00     0.00 107516.00    0.00 452164.00     0.00     8.41     0.00    0.00    0.00    0.00   0.00   0.00

avg-cpu:  %user   %nice %system %iowait  %steal   %idle
           5.03    0.00   33.42   37.69    0.00   23.87

Device:         rrqm/s   wrqm/s     r/s     w/s    rkB/s    wkB/s avgrq-sz avgqu-sz   await r_await w_await  svctm  %util
sda               0.00     0.00 17266.00    0.00 73104.00     0.00     8.47     2.55    0.15    0.15    0.00   0.04  66.80
sdb               0.00     0.00 17473.00    0.00 73152.00     0.00     8.37     2.61    0.15    0.15    0.00   0.04  65.80
sdc               0.00     0.00 17417.00    0.00 73640.00     0.00     8.46     3.02    0.17    0.17    0.00   0.04  68.00
sdd               1.00     0.00 17767.00    0.00 76188.00     0.00     8.58     3.14    0.18    0.18    0.00   0.04  69.60
sde               0.00     0.00 17459.00    0.00 74540.00     0.00     8.54     3.09    0.18    0.18    0.00   0.04  70.50
sdf               0.00     0.00 17640.00    0.00 75472.00     0.00     8.56     3.08    0.17    0.17    0.00   0.04  71.10
sdg               0.00     0.00    0.00    0.00     0.00     0.00     0.00     0.00    0.00    0.00    0.00   0.00   0.00
sdh               0.00     0.00    0.00    0.00     0.00     0.00     0.00     0.00    0.00    0.00    0.00   0.00   0.00
md0               0.00     0.00 105015.00    0.00 447916.00     0.00     8.53     0.00    0.00    0.00    0.00   0.00   0.00

avg-cpu:  %user   %nice %system %iowait  %steal   %idle
           4.30    0.00   34.18   37.97    0.00   23.54

Device:         rrqm/s   wrqm/s     r/s     w/s    rkB/s    wkB/s avgrq-sz avgqu-sz   await r_await w_await  svctm  %util
sda               0.00     0.00 17714.00    0.00 75404.00     0.00     8.51     2.76    0.16    0.16    0.00   0.04  69.20
sdb               0.00     0.00 17679.00    0.00 75236.00     0.00     8.51     2.75    0.16    0.16    0.00   0.04  67.90
sdc               0.00     0.00 17837.00    0.00 74912.00     0.00     8.40     3.17    0.18    0.18    0.00   0.04  70.00
sdd               0.00     0.00 17632.00    0.00 74696.00     0.00     8.47     3.16    0.18    0.18    0.00   0.04  71.70
sde               0.00     0.00 17727.00    0.00 75152.00     0.00     8.48     3.20    0.18    0.18    0.00   0.04  72.70
sdf               0.00     0.00 17727.00    0.00 74524.00     0.00     8.41     3.02    0.17    0.17    0.00   0.04  71.80
sdg               0.00     0.00    0.00    0.00     0.00     0.00     0.00     0.00    0.00    0.00    0.00   0.00   0.00
sdh               0.00     0.00    0.00    0.00     0.00     0.00     0.00     0.00    0.00    0.00    0.00   0.00   0.00
md0               0.00     0.00 106290.00    0.00 450868.00     0.00     8.48     0.00    0.00    0.00    0.00   0.00   0.00

avg-cpu:  %user   %nice %system %iowait  %steal   %idle
           4.51    0.00   34.34   37.59    0.00   23.56

Device:         rrqm/s   wrqm/s     r/s     w/s    rkB/s    wkB/s avgrq-sz avgqu-sz   await r_await w_await  svctm  %util
sda               0.00     0.00 17834.00    0.00 75300.00     0.00     8.44     2.63    0.15    0.15    0.00   0.04  69.60
sdb               0.00     0.00 18052.00    0.00 75964.00     0.00     8.42     2.69    0.15    0.15    0.00   0.04  67.60
sdc               0.00     0.00 17723.00    0.00 73956.00     0.00     8.35     3.08    0.17    0.17    0.00   0.04  69.00
sdd               0.00     0.00 17910.00    0.00 74936.00     0.00     8.37     3.14    0.18    0.18    0.00   0.04  71.30
sde               0.00     0.00 17918.00    0.00 74964.00     0.00     8.37     3.07    0.17    0.17    0.00   0.04  73.20
sdf               0.00     0.00 18052.00    0.00 75900.00     0.00     8.41     3.13    0.17    0.17    0.00   0.04  71.70
sdg               0.00     0.00    0.00    0.00     0.00     0.00     0.00     0.00    0.00    0.00    0.00   0.00   0.00
sdh               0.00     0.00    0.00    0.00     0.00     0.00     0.00     0.00    0.00    0.00    0.00   0.00   0.00
md0               0.00     0.00 107511.00    0.00 451648.00     0.00     8.40     0.00    0.00    0.00    0.00   0.00   0.00

avg-cpu:  %user   %nice %system %iowait  %steal   %idle
           5.08    0.00   32.99   37.82    0.00   24.11

Device:         rrqm/s   wrqm/s     r/s     w/s    rkB/s    wkB/s avgrq-sz avgqu-sz   await r_await w_await  svctm  %util
sda               0.00     0.00 17255.00    0.00 72548.00     0.00     8.41     2.54    0.15    0.15    0.00   0.04  66.50
sdb               0.00     0.00 17281.00    0.00 73060.00     0.00     8.46     2.51    0.15    0.15    0.00   0.04  63.70
sdc               0.00     0.00 17795.00    0.00 76740.00     0.00     8.62     3.08    0.17    0.17    0.00   0.04  67.00
sdd               0.00     0.00 17370.00    0.00 74016.00     0.00     8.52     2.98    0.17    0.17    0.00   0.04  69.80
sde               0.00     0.00 17415.00    0.00 73828.00     0.00     8.48     2.95    0.17    0.17    0.00   0.04  70.40
sdf               0.00     0.00 17371.00    0.00 73604.00     0.00     8.47     2.92    0.17    0.17    0.00   0.04  69.70
sdg               0.00     1.00   14.00    7.00    56.00    48.00     9.90     0.00    0.14    0.21    0.00   0.14   0.30
sdh               0.00     0.00    0.00    0.00     0.00     0.00     0.00     0.00    0.00    0.00    0.00   0.00   0.00
md0               0.00     0.00 104495.00    0.00 445052.00     0.00     8.52     0.00    0.00    0.00    0.00   0.00   0.00

avg-cpu:  %user   %nice %system %iowait  %steal   %idle
           4.56    0.00   33.42   37.97    0.00   24.05

Device:         rrqm/s   wrqm/s     r/s     w/s    rkB/s    wkB/s avgrq-sz avgqu-sz   await r_await w_await  svctm  %util
sda               0.00     0.00 17517.00    0.00 73944.00     0.00     8.44     2.60    0.15    0.15    0.00   0.04  66.20
sdb               0.00     0.00 17653.00    0.00 75092.00     0.00     8.51     2.67    0.15    0.15    0.00   0.04  65.30
sdc               0.00     0.00 17304.00    0.00 73800.00     0.00     8.53     3.12    0.18    0.18    0.00   0.04  68.80
sdd               0.00     0.00 17525.00    0.00 74856.00     0.00     8.54     3.09    0.18    0.18    0.00   0.04  69.20
sde               0.00     0.00 17574.00    0.00 74508.00     0.00     8.48     3.03    0.17    0.17    0.00   0.04  70.40
sdf               0.00     0.00 17516.00    0.00 74548.00     0.00     8.51     3.05    0.17    0.17    0.00   0.04  69.40
sdg               0.00     0.00    0.00    0.00     0.00     0.00     0.00     0.00    0.00    0.00    0.00   0.00   0.00
sdh               0.00     0.00    0.00    0.00     0.00     0.00     0.00     0.00    0.00    0.00    0.00   0.00   0.00
md0               0.00     0.00 105061.00    0.00 447676.00     0.00     8.52     0.00    0.00    0.00    0.00   0.00   0.00

avg-cpu:  %user   %nice %system %iowait  %steal   %idle
           4.63    0.00   32.65   38.82    0.00   23.91

Device:         rrqm/s   wrqm/s     r/s     w/s    rkB/s    wkB/s avgrq-sz avgqu-sz   await r_await w_await  svctm  %util
sda               1.00     0.00 17594.00    0.00 75792.00     0.00     8.62     2.45    0.14    0.14    0.00   0.04  65.30
sdb               0.00     0.00 17727.00    0.00 76584.00     0.00     8.64     2.61    0.15    0.15    0.00   0.04  64.80
sdc               0.00     0.00 17601.00    0.00 75072.00     0.00     8.53     2.88    0.16    0.16    0.00   0.04  66.30
sdd               0.00     0.00 17315.00    0.00 73772.00     0.00     8.52     2.92    0.17    0.17    0.00   0.04  68.40
sde               0.00     0.00 17430.00    0.00 74068.00     0.00     8.50     2.83    0.16    0.16    0.00   0.04  69.60
sdf               0.00     0.00 17705.00    0.00 76092.00     0.00     8.60     2.99    0.17    0.17    0.00   0.04  71.00
sdg               0.00     0.00    0.00    0.00     0.00     0.00     0.00     0.00    0.00    0.00    0.00   0.00   0.00
sdh               0.00     0.00    0.00    0.00     0.00     0.00     0.00     0.00    0.00    0.00    0.00   0.00   0.00
md0               0.00     0.00 105369.00    0.00 453600.00     0.00     8.61     0.00    0.00    0.00    0.00   0.00   0.00

avg-cpu:  %user   %nice %system %iowait  %steal   %idle
           4.35    0.26   34.53   37.34    0.00   23.53

Device:         rrqm/s   wrqm/s     r/s     w/s    rkB/s    wkB/s avgrq-sz avgqu-sz   await r_await w_await  svctm  %util
sda               0.00     0.00 17307.00    0.00 73792.00     0.00     8.53     2.52    0.15    0.15    0.00   0.04  68.00
sdb               0.00     0.00 17450.00    0.00 73840.00     0.00     8.46     2.70    0.15    0.15    0.00   0.04  65.60
sdc               0.00     0.00 17436.00    0.00 73844.00     0.00     8.47     3.13    0.18    0.18    0.00   0.04  69.10
sdd               0.00     0.00 17433.00    0.00 74292.00     0.00     8.52     3.04    0.17    0.17    0.00   0.04  70.60
sde               0.00     0.00 17545.00    0.00 74844.00     0.00     8.53     3.13    0.18    0.18    0.00   0.04  70.70
sdf               0.00     0.00 17551.00    0.00 75088.00     0.00     8.56     3.02    0.17    0.17    0.00   0.04  71.50
sdg               0.00     0.00 1319.00    0.00  5276.00     0.00     8.00     0.15    0.11    0.11    0.00   0.11  15.10
sdh               0.00     0.00    0.00    0.00     0.00     0.00     0.00     0.00    0.00    0.00    0.00   0.00   0.00
md0               0.00     0.00 104731.00    0.00 446728.00     0.00     8.53     0.00    0.00    0.00    0.00   0.00   0.00

avg-cpu:  %user   %nice %system %iowait  %steal   %idle
           4.56    0.00   33.42   37.72    0.00   24.30

Device:         rrqm/s   wrqm/s     r/s     w/s    rkB/s    wkB/s avgrq-sz avgqu-sz   await r_await w_await  svctm  %util
sda               0.00     0.00 17415.00    0.00 74248.00     0.00     8.53     2.61    0.15    0.15    0.00   0.04  67.70
sdb               0.00     0.00 17401.00    0.00 73744.00     0.00     8.48     2.73    0.16    0.16    0.00   0.04  67.20
sdc               0.00     0.00 17696.00    0.00 75568.00     0.00     8.54     3.21    0.18    0.18    0.00   0.04  69.10
sdd               0.00     0.00 17312.00    0.00 74216.00     0.00     8.57     2.98    0.17    0.17    0.00   0.04  71.70
sde               0.00     0.00 17361.00    0.00 73908.00     0.00     8.51     3.07    0.18    0.18    0.00   0.04  72.00
sdf               0.00     0.00 17350.00    0.00 73916.00     0.00     8.52     3.01    0.17    0.17    0.00   0.04  70.20
sdg               0.00     0.00    0.00    6.00     0.00   140.00    46.67     0.00    0.00    0.00    0.00   0.00   0.00
sdh               0.00     0.00    0.00    0.00     0.00     0.00     0.00     0.00    0.00    0.00    0.00   0.00   0.00
md0               0.00     0.00 104556.00    0.00 446516.00     0.00     8.54     0.00    0.00    0.00    0.00   0.00   0.00

avg-cpu:  %user   %nice %system %iowait  %steal   %idle
           4.49    0.00   34.66   36.91    0.00   23.94

Device:         rrqm/s   wrqm/s     r/s     w/s    rkB/s    wkB/s avgrq-sz avgqu-sz   await r_await w_await  svctm  %util
sda               0.00     0.00 17331.00    0.00 75332.00     0.00     8.69     2.65    0.15    0.15    0.00   0.04  69.00
sdb               0.00     0.00 17448.00    0.00 75256.00     0.00     8.63     2.73    0.16    0.16    0.00   0.04  69.00
sdc               0.00     0.00 17467.00    0.00 74296.00     0.00     8.51     3.17    0.18    0.18    0.00   0.04  71.20
sdd               0.00     0.00 17416.00    0.00 72892.00     0.00     8.37     3.11    0.18    0.18    0.00   0.04  71.50
sde               0.00     0.00 17461.00    0.00 74440.00     0.00     8.53     3.08    0.18    0.18    0.00   0.04  72.20
sdf               0.00     0.00 17386.00    0.00 73456.00     0.00     8.45     3.12    0.18    0.18    0.00   0.04  72.30
sdg               0.00     1.00    0.00    2.00     0.00    36.00    36.00     0.00    0.00    0.00    0.00   0.00   0.00
sdh               0.00     0.00    0.00    0.00     0.00     0.00     0.00     0.00    0.00    0.00    0.00   0.00   0.00
md0               0.00     0.00 104499.00    0.00 446544.00     0.00     8.55     0.00    0.00    0.00    0.00   0.00   0.00

avg-cpu:  %user   %nice %system %iowait  %steal   %idle
           4.53    0.00   33.50   37.28    0.00   24.69

Device:         rrqm/s   wrqm/s     r/s     w/s    rkB/s    wkB/s avgrq-sz avgqu-sz   await r_await w_await  svctm  %util
sda               0.00     0.00 17331.00    0.00 74584.00     0.00     8.61     2.58    0.15    0.15    0.00   0.04  66.90
sdb               0.00     0.00 17276.00    0.00 73444.00     0.00     8.50     2.50    0.14    0.14    0.00   0.04  66.30
sdc               0.00     0.00 17033.00    0.00 72648.00     0.00     8.53     2.83    0.17    0.17    0.00   0.04  67.50
sdd               0.00     0.00 17106.00    0.00 74384.00     0.00     8.70     2.88    0.17    0.17    0.00   0.04  69.50
sde               0.00     0.00 17037.00    0.00 74860.00     0.00     8.79     2.97    0.17    0.17    0.00   0.04  70.70
sdf               0.00     0.00 17379.00    0.00 75032.00     0.00     8.63     2.92    0.17    0.17    0.00   0.04  70.00
sdg               0.00     0.00    0.00    0.00     0.00     0.00     0.00     0.00    0.00    0.00    0.00   0.00   0.00
sdh               0.00     0.00    0.00    0.00     0.00     0.00     0.00     0.00    0.00    0.00    0.00   0.00   0.00
md0               0.00     0.00 103165.00    0.00 446436.00     0.00     8.65     0.00    0.00    0.00    0.00   0.00   0.00

avg-cpu:  %user   %nice %system %iowait  %steal   %idle
           4.58    0.00   32.82   37.40    0.00   25.19

Device:         rrqm/s   wrqm/s     r/s     w/s    rkB/s    wkB/s avgrq-sz avgqu-sz   await r_await w_await  svctm  %util
sda               0.00     0.00 17063.00    0.00 73128.00     0.00     8.57     2.49    0.15    0.15    0.00   0.04  65.10
sdb               0.00     0.00 16898.00    0.00 73136.00     0.00     8.66     2.42    0.14    0.14    0.00   0.04  63.20
sdc               0.00     0.00 17070.00    0.00 73992.00     0.00     8.67     2.95    0.17    0.17    0.00   0.04  66.40
sdd               0.00     0.00 17064.00    0.00 73724.00     0.00     8.64     2.84    0.17    0.17    0.00   0.04  67.50
sde               0.00     0.00 17341.00    0.00 74332.00     0.00     8.57     2.88    0.17    0.17    0.00   0.04  69.00
sdf               0.00     0.00 17197.00    0.00 73860.00     0.00     8.59     2.87    0.17    0.17    0.00   0.04  68.30
sdg               0.00     0.00    0.00    0.00     0.00     0.00     0.00     0.00    0.00    0.00    0.00   0.00   0.00
sdh               0.00     0.00    0.00    0.00     0.00     0.00     0.00     0.00    0.00    0.00    0.00   0.00   0.00
md0               0.00     0.00 102632.00    0.00 443692.00     0.00     8.65     0.00    0.00    0.00    0.00   0.00   0.00

avg-cpu:  %user   %nice %system %iowait  %steal   %idle
           4.58    0.00   33.59   37.15    0.00   24.68

Device:         rrqm/s   wrqm/s     r/s     w/s    rkB/s    wkB/s avgrq-sz avgqu-sz   await r_await w_await  svctm  %util
sda               0.00     0.00 17000.00    0.00 72412.00     0.00     8.52     2.48    0.15    0.15    0.00   0.04  67.50
sdb               0.00     0.00 17110.00    0.00 73368.00     0.00     8.58     2.48    0.14    0.14    0.00   0.04  64.30
sdc               0.00     0.00 17074.00    0.00 73024.00     0.00     8.55     2.99    0.18    0.18    0.00   0.04  69.40
sdd               0.00     0.00 17163.00    0.00 74116.00     0.00     8.64     3.01    0.18    0.18    0.00   0.04  69.70
sde               0.00     0.00 17012.00    0.00 72316.00     0.00     8.50     2.84    0.17    0.17    0.00   0.04  70.80
sdf               0.00     0.00 17248.00    0.00 73784.00     0.00     8.56     2.97    0.17    0.17    0.00   0.04  69.80
sdg               0.00     0.00    0.00    0.00     0.00     0.00     0.00     0.00    0.00    0.00    0.00   0.00   0.00
sdh               0.00     0.00    0.00    0.00     0.00     0.00     0.00     0.00    0.00    0.00    0.00   0.00   0.00
md0               0.00     0.00 102587.00    0.00 439740.00     0.00     8.57     0.00    0.00    0.00    0.00   0.00   0.00

avg-cpu:  %user   %nice %system %iowait  %steal   %idle
           4.55    0.00   35.35   36.36    0.00   23.74

Device:         rrqm/s   wrqm/s     r/s     w/s    rkB/s    wkB/s avgrq-sz avgqu-sz   await r_await w_await  svctm  %util
sda               0.00     0.00 16850.00    0.00 71160.00     0.00     8.45     2.41    0.14    0.14    0.00   0.04  65.60
sdb               0.00     0.00 16994.00    0.00 71960.00     0.00     8.47     2.61    0.15    0.15    0.00   0.04  63.90
sdc               0.00     0.00 17273.00    0.00 73824.00     0.00     8.55     3.08    0.18    0.18    0.00   0.04  68.90
sdd               0.00     0.00 17068.00    0.00 73548.00     0.00     8.62     3.00    0.18    0.18    0.00   0.04  68.80
sde               0.00     0.00 17174.00    0.00 74096.00     0.00     8.63     2.98    0.17    0.17    0.00   0.04  70.80
sdf               0.00     0.00 16991.00    0.00 72336.00     0.00     8.51     2.97    0.18    0.18    0.00   0.04  68.30
sdg               0.00     0.00    0.00    0.00     0.00     0.00     0.00     0.00    0.00    0.00    0.00   0.00   0.00
sdh               0.00     0.00    0.00    0.00     0.00     0.00     0.00     0.00    0.00    0.00    0.00   0.00   0.00
md0               0.00     0.00 102383.00    0.00 438392.00     0.00     8.56     0.00    0.00    0.00    0.00   0.00   0.00

avg-cpu:  %user   %nice %system %iowait  %steal   %idle
           4.75    0.00   35.50   35.25    0.00   24.50

Device:         rrqm/s   wrqm/s     r/s     w/s    rkB/s    wkB/s avgrq-sz avgqu-sz   await r_await w_await  svctm  %util
sda               0.00     0.00 16865.00    0.00 72268.00     0.00     8.57     2.48    0.15    0.15    0.00   0.04  65.60
sdb               0.00     0.00 16895.00    0.00 72248.00     0.00     8.55     2.57    0.15    0.15    0.00   0.04  64.60
sdc               0.00     0.00 16715.00    0.00 71852.00     0.00     8.60     2.90    0.17    0.17    0.00   0.04  67.00
sdd               0.00     0.00 16859.00    0.00 72024.00     0.00     8.54     2.88    0.17    0.17    0.00   0.04  67.20
sde               0.00     0.00 16923.00    0.00 71664.00     0.00     8.47     2.87    0.17    0.17    0.00   0.04  68.60
sdf               0.00     0.00 16963.00    0.00 72496.00     0.00     8.55     2.86    0.17    0.17    0.00   0.04  68.70
sdg               0.00     0.00    0.00    0.00     0.00     0.00     0.00     0.00    0.00    0.00    0.00   0.00   0.00
sdh               0.00     0.00    0.00    0.00     0.00     0.00     0.00     0.00    0.00    0.00    0.00   0.00   0.00
md0               0.00     0.00 101189.00    0.00 433652.00     0.00     8.57     0.00    0.00    0.00    0.00   0.00   0.00

avg-cpu:  %user   %nice %system %iowait  %steal   %idle
           4.87    0.00   34.10   36.92    0.00   24.10

Device:         rrqm/s   wrqm/s     r/s     w/s    rkB/s    wkB/s avgrq-sz avgqu-sz   await r_await w_await  svctm  %util
sda               0.00     0.00 17168.00    0.00 72080.00     0.00     8.40     2.66    0.16    0.16    0.00   0.04  68.00
sdb               0.00     0.00 17072.00    0.00 72048.00     0.00     8.44     2.65    0.15    0.15    0.00   0.04  66.20
sdc               0.00     0.00 17409.00    0.00 73956.00     0.00     8.50     3.08    0.18    0.18    0.00   0.04  67.80
sdd               0.00     0.00 17043.00    0.00 72108.00     0.00     8.46     2.99    0.18    0.18    0.00   0.04  70.20
sde               0.00     0.00 17098.00    0.00 74088.00     0.00     8.67     3.11    0.18    0.18    0.00   0.04  69.90
sdf               0.00     0.00 17194.00    0.00 72820.00     0.00     8.47     2.99    0.17    0.17    0.00   0.04  70.70
sdg               0.00     0.00    0.00    0.00     0.00     0.00     0.00     0.00    0.00    0.00    0.00   0.00   0.00
sdh               0.00     0.00    0.00    0.00     0.00     0.00     0.00     0.00    0.00    0.00    0.00   0.00   0.00
md0               0.00     0.00 103013.00    0.00 438264.00     0.00     8.51     0.00    0.00    0.00    0.00   0.00   0.00

avg-cpu:  %user   %nice %system %iowait  %steal   %idle
           4.85    0.00   35.20   36.48    0.00   23.47

Device:         rrqm/s   wrqm/s     r/s     w/s    rkB/s    wkB/s avgrq-sz avgqu-sz   await r_await w_await  svctm  %util
sda               0.00     0.00 17285.00    0.00 72740.00     0.00     8.42     2.69    0.16    0.16    0.00   0.04  68.80
sdb               0.00     0.00 17313.00    0.00 72812.00     0.00     8.41     2.71    0.16    0.16    0.00   0.04  65.60
sdc               0.00     0.00 17526.00    0.00 73940.00     0.00     8.44     3.20    0.18    0.18    0.00   0.04  69.10
sdd               0.00     0.00 17308.00    0.00 72732.00     0.00     8.40     3.02    0.17    0.17    0.00   0.04  69.50
sde               0.00     0.00 17302.00    0.00 73480.00     0.00     8.49     3.13    0.18    0.18    0.00   0.04  70.30
sdf               0.00     0.00 17412.00    0.00 72968.00     0.00     8.38     2.98    0.17    0.17    0.00   0.04  71.00
sdg               0.00     0.00    0.00    0.00     0.00     0.00     0.00     0.00    0.00    0.00    0.00   0.00   0.00
sdh               0.00     0.00    0.00    0.00     0.00     0.00     0.00     0.00    0.00    0.00    0.00   0.00   0.00
md0               0.00     0.00 104114.00    0.00 438944.00     0.00     8.43     0.00    0.00    0.00    0.00   0.00   0.00

avg-cpu:  %user   %nice %system %iowait  %steal   %idle
           4.52    0.00   35.93   35.93    0.00   23.62

Device:         rrqm/s   wrqm/s     r/s     w/s    rkB/s    wkB/s avgrq-sz avgqu-sz   await r_await w_await  svctm  %util
sda               0.00     0.00 17065.00    0.00 72012.00     0.00     8.44     2.48    0.15    0.15    0.00   0.04  66.20
sdb               1.00     0.00 17422.00    0.00 74220.00     0.00     8.52     2.53    0.15    0.15    0.00   0.04  65.20
sdc               0.00     0.00 17171.00    0.00 73032.00     0.00     8.51     2.92    0.17    0.17    0.00   0.04  67.60
sdd               0.00     0.00 17200.00    0.00 73180.00     0.00     8.51     2.96    0.17    0.17    0.00   0.04  68.50
sde               0.00     0.00 17320.00    0.00 72616.00     0.00     8.39     2.81    0.16    0.16    0.00   0.04  68.80
sdf               0.00     0.00 17220.00    0.00 72916.00     0.00     8.47     2.87    0.17    0.17    0.00   0.04  70.90
sdg               0.00     0.00    3.00    0.00    12.00     0.00     8.00     0.00    0.33    0.33    0.00   0.33   0.10
sdh               0.00     0.00    0.00    0.00     0.00     0.00     0.00     0.00    0.00    0.00    0.00   0.00   0.00
md0               0.00     0.00 103413.00    0.00 439284.00     0.00     8.50     0.00    0.00    0.00    0.00   0.00   0.00

