Linux 4.17.2 (bench) 	08/03/2018 	_x86_64_	(4 CPU)

avg-cpu:  %user   %nice %system %iowait  %steal   %idle
          10.25    0.02    4.18    2.74    0.00   82.81

Device:         rrqm/s   wrqm/s     r/s     w/s    rkB/s    wkB/s avgrq-sz avgqu-sz   await r_await w_await  svctm  %util
sda              53.45     4.18 1727.11  101.07 21367.01  3092.64    26.76     1.05    0.57    0.26    5.92   0.06  11.05
sdb              53.26     4.14 1727.11  101.21 21356.57  3089.36    26.74     1.05    0.57    0.26    5.85   0.06  10.93
sdc              90.98     4.20 1687.29  100.77 21348.80  3091.78    27.34     1.47    0.82    0.44    7.12   0.08  14.42
sdd              84.51     4.17 1692.94  100.83 21333.84  3088.03    27.23     1.47    0.82    0.43    7.33   0.08  14.52
sde              86.51     4.22 1698.02  100.93 21393.18  3092.22    27.22     1.49    0.83    0.44    7.44   0.08  14.54
sdf              83.66     4.19 1700.13  100.88 21374.67  3089.13    27.17     1.54    0.85    0.44    7.90   0.08  14.57
sdg               0.00     3.17   26.84   73.25   326.07   391.99    14.35     0.44    4.39    0.20    5.93   0.08   0.79
sdh               0.00     0.13    0.02    0.23     2.18     4.99    56.82     0.00    1.15    0.65    1.19   0.21   0.01
md0               0.00     0.00 10692.41  473.56 146481.97 21168.75    30.03     0.00    0.00    0.00    0.00   0.00   0.00

avg-cpu:  %user   %nice %system %iowait  %steal   %idle
           0.76    0.25   19.40   62.72    0.00   16.88

Device:         rrqm/s   wrqm/s     r/s     w/s    rkB/s    wkB/s avgrq-sz avgqu-sz   await r_await w_await  svctm  %util
sda               0.00     0.00 10010.00    0.00 40040.00     0.00     8.00     1.05    0.10    0.10    0.00   0.06  63.60
sdb               0.00     0.00 10212.00    0.00 40848.00     0.00     8.00     1.11    0.11    0.11    0.00   0.07  68.40
sdc               0.00     0.00 9900.00    0.00 39608.00     0.00     8.00     1.16    0.12    0.12    0.00   0.07  68.00
sdd               0.00     0.00 10169.00    0.00 40676.00     0.00     8.00     1.17    0.12    0.12    0.00   0.07  69.10
sde               0.00     0.00 9941.00    0.00 39764.00     0.00     8.00     1.15    0.12    0.12    0.00   0.07  68.50
sdf               0.00     0.00 9897.00    0.00 39588.00     0.00     8.00     1.19    0.12    0.12    0.00   0.07  70.80
sdg               0.00     0.00  930.00    0.00  3796.00     0.00     8.16     0.11    0.12    0.12    0.00   0.12  10.90
sdh               0.00     0.00    0.00    0.00     0.00     0.00     0.00     0.00    0.00    0.00    0.00   0.00   0.00
md0               0.00     0.00 60144.00    0.00 240584.00     0.00     8.00     0.00    0.00    0.00    0.00   0.00   0.00

avg-cpu:  %user   %nice %system %iowait  %steal   %idle
           1.02    0.00   17.39   64.71    0.00   16.88

Device:         rrqm/s   wrqm/s     r/s     w/s    rkB/s    wkB/s avgrq-sz avgqu-sz   await r_await w_await  svctm  %util
sda               0.00     0.00 9926.00    0.00 39704.00     0.00     8.00     1.09    0.11    0.11    0.00   0.07  65.70
sdb               0.00     0.00 10086.00    0.00 40344.00     0.00     8.00     1.13    0.11    0.11    0.00   0.07  67.60
sdc               0.00     0.00 9715.00    0.00 38868.00     0.00     8.00     1.12    0.12    0.12    0.00   0.07  69.40
sdd               0.00     0.00 10166.00    0.00 40664.00     0.00     8.00     1.21    0.12    0.12    0.00   0.07  70.60
sde               0.00     0.00 9969.00    0.00 39900.00     0.00     8.00     1.19    0.12    0.12    0.00   0.07  71.20
sdf               0.00     0.00 9848.00    0.00 39392.00     0.00     8.00     1.18    0.12    0.12    0.00   0.07  71.00
sdg               0.00     0.00    0.00    0.00     0.00     0.00     0.00     0.00    0.00    0.00    0.00   0.00   0.00
sdh               0.00     0.00    0.00    0.00     0.00     0.00     0.00     0.00    0.00    0.00    0.00   0.00   0.00
md0               0.00     0.00 59701.00    0.00 238836.00     0.00     8.00     0.00    0.00    0.00    0.00   0.00   0.00

avg-cpu:  %user   %nice %system %iowait  %steal   %idle
           0.77    0.00   18.37   63.52    0.00   17.35

Device:         rrqm/s   wrqm/s     r/s     w/s    rkB/s    wkB/s avgrq-sz avgqu-sz   await r_await w_await  svctm  %util
sda               0.00     0.00 10067.00    0.00 40268.00     0.00     8.00     1.08    0.11    0.11    0.00   0.07  66.60
sdb               0.00     0.00 9959.00    0.00 39836.00     0.00     8.00     1.03    0.10    0.10    0.00   0.07  64.90
sdc               0.00     0.00 10060.00    0.00 40240.00     0.00     8.00     1.25    0.12    0.12    0.00   0.07  71.10
sdd               0.00     0.00 10002.00    0.00 40008.00     0.00     8.00     1.15    0.12    0.12    0.00   0.07  68.10
sde               0.00     0.00 10035.00    0.00 40140.00     0.00     8.00     1.14    0.11    0.11    0.00   0.07  67.70
sdf               0.00     0.00 9873.00    0.00 39500.00     0.00     8.00     1.18    0.12    0.12    0.00   0.07  68.50
sdg               0.00     0.00    0.00    0.00     0.00     0.00     0.00     0.00    0.00    0.00    0.00   0.00   0.00
sdh               0.00     0.00    0.00    0.00     0.00     0.00     0.00     0.00    0.00    0.00    0.00   0.00   0.00
md0               0.00     0.00 60004.00    0.00 240024.00     0.00     8.00     0.00    0.00    0.00    0.00   0.00   0.00

avg-cpu:  %user   %nice %system %iowait  %steal   %idle
           0.51    0.00   19.49   63.80    0.00   16.20

Device:         rrqm/s   wrqm/s     r/s     w/s    rkB/s    wkB/s avgrq-sz avgqu-sz   await r_await w_await  svctm  %util
sda               0.00     0.00 9769.00    0.00 39100.00     0.00     8.00     1.04    0.11    0.11    0.00   0.07  64.70
sdb               0.00     0.00 10167.00    0.00 40668.00     0.00     8.00     1.12    0.11    0.11    0.00   0.07  67.30
sdc               0.00     0.00 10167.00    0.00 40676.00     0.00     8.00     1.18    0.12    0.12    0.00   0.07  71.50
sdd               0.00     0.00 10176.00    0.00 40712.00     0.00     8.00     1.20    0.12    0.12    0.00   0.07  70.50
sde               0.00     0.00 9965.00    0.00 39884.00     0.00     8.00     1.22    0.12    0.12    0.00   0.07  71.00
sdf               0.00     0.00 10160.00    0.00 40640.00     0.00     8.00     1.19    0.12    0.12    0.00   0.07  71.20
sdg               0.00   160.00    0.00 2578.00     0.00 12696.00     9.85    16.07    6.23    0.00    6.23   0.05  11.70
sdh               0.00     0.00    0.00    0.00     0.00     0.00     0.00     0.00    0.00    0.00    0.00   0.00   0.00
md0               0.00     0.00 60399.00    0.00 241660.00     0.00     8.00     0.00    0.00    0.00    0.00   0.00   0.00

avg-cpu:  %user   %nice %system %iowait  %steal   %idle
           0.52    0.00   17.57   64.86    0.00   17.05

Device:         rrqm/s   wrqm/s     r/s     w/s    rkB/s    wkB/s avgrq-sz avgqu-sz   await r_await w_await  svctm  %util
sda               0.00     0.00 9950.00    0.00 39800.00     0.00     8.00     1.08    0.11    0.11    0.00   0.07  67.10
sdb               0.00     0.00 10078.00    0.00 40328.00     0.00     8.00     1.04    0.10    0.10    0.00   0.06  64.20
sdc               0.00     0.00 10064.00    0.00 40272.00     0.00     8.00     1.19    0.12    0.12    0.00   0.07  69.80
sdd               0.00     0.00 10241.00    0.00 40976.00     0.00     8.00     1.23    0.12    0.12    0.00   0.07  72.70
sde               0.00     0.00 10280.00    0.00 41152.00     0.00     8.01     1.21    0.12    0.12    0.00   0.07  71.80
sdf               0.00     0.00 10006.00    0.00 40032.00     0.00     8.00     1.21    0.12    0.12    0.00   0.07  70.00
sdg               0.00     0.00    0.00    0.00     0.00     0.00     0.00     0.00    0.00    0.00    0.00   0.00   0.00
sdh               0.00     0.00    0.00    0.00     0.00     0.00     0.00     0.00    0.00    0.00    0.00   0.00   0.00
md0               0.00     0.00 60623.00    0.00 242576.00     0.00     8.00     0.00    0.00    0.00    0.00   0.00   0.00

avg-cpu:  %user   %nice %system %iowait  %steal   %idle
           0.76    0.00   19.19   62.88    0.00   17.17

Device:         rrqm/s   wrqm/s     r/s     w/s    rkB/s    wkB/s avgrq-sz avgqu-sz   await r_await w_await  svctm  %util
sda               0.00     0.00 10172.00    0.00 40696.00     0.00     8.00     1.07    0.11    0.11    0.00   0.06  66.00
sdb               0.00     0.00 10087.00    0.00 40376.00     0.00     8.01     1.09    0.11    0.11    0.00   0.07  67.20
sdc               0.00     0.00 10069.00    0.00 40284.00     0.00     8.00     1.18    0.12    0.12    0.00   0.07  69.50
sdd               0.00     0.00 10101.00    0.00 40412.00     0.00     8.00     1.22    0.12    0.12    0.00   0.07  72.00
sde               0.00     0.00 10217.00    0.00 40884.00     0.00     8.00     1.20    0.12    0.12    0.00   0.07  70.30
sdf               0.00     0.00 10132.00    0.00 40528.00     0.00     8.00     1.24    0.12    0.12    0.00   0.07  72.80
sdg               0.00     0.00    0.00    0.00     0.00     0.00     0.00     0.00    0.00    0.00    0.00   0.00   0.00
sdh               0.00     0.00    0.00    0.00     0.00     0.00     0.00     0.00    0.00    0.00    0.00   0.00   0.00
md0               0.00     0.00 60780.00    0.00 243196.00     0.00     8.00     0.00    0.00    0.00    0.00   0.00   0.00

avg-cpu:  %user   %nice %system %iowait  %steal   %idle
           0.76    0.00   19.40   62.22    0.00   17.63

Device:         rrqm/s   wrqm/s     r/s     w/s    rkB/s    wkB/s avgrq-sz avgqu-sz   await r_await w_await  svctm  %util
sda               0.00     0.00 10051.00    0.00 40220.00     0.00     8.00     1.10    0.11    0.11    0.00   0.07  66.20
sdb               0.00     0.00 10064.00    0.00 40256.00     0.00     8.00     1.04    0.10    0.10    0.00   0.07  66.40
sdc               0.00     0.00 10095.00    0.00 40404.00     0.00     8.00     1.27    0.13    0.13    0.00   0.07  72.40
sdd               0.00     0.00 10206.00    0.00 40832.00     0.00     8.00     1.20    0.12    0.12    0.00   0.07  68.60
sde               0.00     0.00 10064.00    0.00 40268.00     0.00     8.00     1.12    0.11    0.11    0.00   0.07  67.80
sdf               0.00     0.00 10223.00    0.00 40908.00     0.00     8.00     1.25    0.12    0.12    0.00   0.07  71.60
sdg               0.00     0.00    3.00   10.00    48.00   204.00    38.77     0.01    0.38    0.33    0.40   0.08   0.10
sdh               0.00     0.00    0.00    0.00     0.00     0.00     0.00     0.00    0.00    0.00    0.00   0.00   0.00
md0               0.00     0.00 60701.00    0.00 242880.00     0.00     8.00     0.00    0.00    0.00    0.00   0.00   0.00

avg-cpu:  %user   %nice %system %iowait  %steal   %idle
           0.51    0.00   19.49   63.04    0.00   16.96

Device:         rrqm/s   wrqm/s     r/s     w/s    rkB/s    wkB/s avgrq-sz avgqu-sz   await r_await w_await  svctm  %util
sda               0.00     0.00 10036.00    0.00 40160.00     0.00     8.00     1.09    0.11    0.11    0.00   0.07  65.40
sdb               0.00     0.00 10227.00    0.00 40916.00     0.00     8.00     1.06    0.10    0.10    0.00   0.06  65.40
sdc               0.00     0.00 10146.00    0.00 40600.00     0.00     8.00     1.13    0.11    0.11    0.00   0.07  68.40
sdd               0.00     0.00 10208.00    0.00 40864.00     0.00     8.01     1.14    0.11    0.11    0.00   0.07  68.40
sde               0.00     0.00 9992.00    0.00 39988.00     0.00     8.00     1.15    0.11    0.11    0.00   0.07  68.60
sdf               0.00     0.00 10210.00    0.00 40864.00     0.00     8.00     1.17    0.11    0.11    0.00   0.07  68.30
sdg               0.00     0.00   56.00    1.00   964.00     4.00    33.96     0.01    0.18    0.18    0.00   0.18   1.00
sdh               0.00     0.00    0.00    0.00     0.00     0.00     0.00     0.00    0.00    0.00    0.00   0.00   0.00
md0               0.00     0.00 60817.00    0.00 243384.00     0.00     8.00     0.00    0.00    0.00    0.00   0.00   0.00

avg-cpu:  %user   %nice %system %iowait  %steal   %idle
           0.75    0.00   19.75   61.75    0.00   17.75

Device:         rrqm/s   wrqm/s     r/s     w/s    rkB/s    wkB/s avgrq-sz avgqu-sz   await r_await w_await  svctm  %util
sda               0.00     0.00 10090.00    0.00 40384.00     0.00     8.00     1.03    0.10    0.10    0.00   0.06  63.70
sdb               0.00     0.00 10078.00    0.00 40344.00     0.00     8.01     1.05    0.10    0.10    0.00   0.07  66.00
sdc               0.00     0.00 10143.00    0.00 40580.00     0.00     8.00     1.20    0.12    0.12    0.00   0.07  69.70
sdd               0.00     0.00 10139.00    0.00 40616.00     0.00     8.01     1.13    0.11    0.11    0.00   0.07  66.90
sde               0.00     0.00 10126.00    0.00 40528.00     0.00     8.00     1.13    0.11    0.11    0.00   0.07  67.00
sdf               0.00     0.00 10123.00    0.00 40508.00     0.00     8.00     1.16    0.11    0.11    0.00   0.07  68.20
sdg               0.00     3.00    4.00    6.00    16.00    64.00    16.00     0.00    0.30    0.50    0.17   0.30   0.30
sdh               0.00     0.00    0.00    0.00     0.00     0.00     0.00     0.00    0.00    0.00    0.00   0.00   0.00
md0               0.00     0.00 60702.00    0.00 242972.00     0.00     8.01     0.00    0.00    0.00    0.00   0.00   0.00

avg-cpu:  %user   %nice %system %iowait  %steal   %idle
           0.51    0.00   19.13   62.24    0.00   18.11

Device:         rrqm/s   wrqm/s     r/s     w/s    rkB/s    wkB/s avgrq-sz avgqu-sz   await r_await w_await  svctm  %util
sda               0.00     0.00 10050.00    0.00 40248.00     0.00     8.01     1.15    0.11    0.11    0.00   0.07  67.40
sdb               0.00     0.00 10143.00    0.00 40588.00     0.00     8.00     1.06    0.10    0.10    0.00   0.06  64.30
sdc               0.00     0.00 10051.00    0.00 40228.00     0.00     8.00     1.12    0.11    0.11    0.00   0.07  66.60
sdd               0.00     0.00 10049.00    0.00 40220.00     0.00     8.00     1.11    0.11    0.11    0.00   0.07  66.30
sde               0.00     0.00 9880.00    0.00 39544.00     0.00     8.00     1.14    0.12    0.12    0.00   0.07  68.30
sdf               0.00     0.00 10186.00    0.00 40760.00     0.00     8.00     1.23    0.12    0.12    0.00   0.07  72.10
sdg               0.00     0.00    2.00    0.00     8.00     0.00     8.00     0.00    0.00    0.00    0.00   0.00   0.00
sdh               0.00     0.00    0.00    0.00     0.00     0.00     0.00     0.00    0.00    0.00    0.00   0.00   0.00
md0               0.00     0.00 60359.00    0.00 241588.00     0.00     8.01     0.00    0.00    0.00    0.00   0.00   0.00

avg-cpu:  %user   %nice %system %iowait  %steal   %idle
           0.76    0.00   19.40   61.71    0.00   18.14

Device:         rrqm/s   wrqm/s     r/s     w/s    rkB/s    wkB/s avgrq-sz avgqu-sz   await r_await w_await  svctm  %util
sda               0.00     0.00 10177.00    0.00 40748.00     0.00     8.01     1.05    0.10    0.10    0.00   0.06  63.90
sdb               0.00     0.00 9965.00    0.00 39932.00     0.00     8.01     1.05    0.11    0.11    0.00   0.07  67.00
sdc               0.00     0.00 10110.00    0.00 40492.00     0.00     8.01     1.17    0.12    0.12    0.00   0.07  69.60
sdd               0.00     0.00 9889.00    0.00 39588.00     0.00     8.01     1.22    0.12    0.12    0.00   0.07  69.80
sde               0.00     0.00 10195.00    0.00 40804.00     0.00     8.00     1.16    0.11    0.11    0.00   0.07  69.80
sdf               0.00     0.00 10074.00    0.00 40336.00     0.00     8.01     1.16    0.11    0.11    0.00   0.07  69.50
sdg               0.00     0.00    0.00    0.00     0.00     0.00     0.00     0.00    0.00    0.00    0.00   0.00   0.00
sdh               0.00     0.00    0.00    0.00     0.00     0.00     0.00     0.00    0.00    0.00    0.00   0.00   0.00
md0               0.00     0.00 60411.00    0.00 241904.00     0.00     8.01     0.00    0.00    0.00    0.00   0.00   0.00

avg-cpu:  %user   %nice %system %iowait  %steal   %idle
           0.51    0.00   19.04   62.44    0.00   18.02

Device:         rrqm/s   wrqm/s     r/s     w/s    rkB/s    wkB/s avgrq-sz avgqu-sz   await r_await w_await  svctm  %util
sda               0.00     0.00 10046.00    0.00 40224.00     0.00     8.01     1.01    0.10    0.10    0.00   0.06  62.90
sdb               0.00     0.00 10194.00    0.00 40820.00     0.00     8.01     1.06    0.10    0.10    0.00   0.06  64.50
sdc               0.00     0.00 10114.00    0.00 40528.00     0.00     8.01     1.17    0.12    0.12    0.00   0.07  68.70
sdd               0.00     0.00 10221.00    0.00 40936.00     0.00     8.01     1.14    0.11    0.11    0.00   0.07  66.80
sde               0.00     0.00 10088.00    0.00 40424.00     0.00     8.01     1.15    0.11    0.11    0.00   0.07  67.60
sdf               0.00     0.00 10102.00    0.00 40448.00     0.00     8.01     1.16    0.11    0.11    0.00   0.07  68.70
sdg               0.00     0.00    0.00    0.00     0.00     0.00     0.00     0.00    0.00    0.00    0.00   0.00   0.00
sdh               0.00     0.00    0.00    0.00     0.00     0.00     0.00     0.00    0.00    0.00    0.00   0.00   0.00
md0               0.00     0.00 60757.00    0.00 243348.00     0.00     8.01     0.00    0.00    0.00    0.00   0.00   0.00

avg-cpu:  %user   %nice %system %iowait  %steal   %idle
           0.77    0.00   18.37   62.76    0.00   18.11

Device:         rrqm/s   wrqm/s     r/s     w/s    rkB/s    wkB/s avgrq-sz avgqu-sz   await r_await w_await  svctm  %util
sda               0.00     0.00 10110.00    0.00 40496.00     0.00     8.01     1.03    0.10    0.10    0.00   0.06  64.00
sdb               0.00     0.00 10046.00    0.00 40224.00     0.00     8.01     1.00    0.10    0.10    0.00   0.06  61.90
sdc               0.00     0.00 9909.00    0.00 39680.00     0.00     8.01     1.14    0.12    0.12    0.00   0.07  66.80
sdd               0.00     0.00 10156.00    0.00 40696.00     0.00     8.01     1.14    0.11    0.11    0.00   0.07  67.00
sde               0.00     0.00 9943.00    0.00 39804.00     0.00     8.01     1.14    0.11    0.11    0.00   0.07  67.30
sdf               0.00     0.00 10139.00    0.00 40620.00     0.00     8.01     1.14    0.11    0.11    0.00   0.06  65.20
sdg               0.00     0.00    0.00    0.00     0.00     0.00     0.00     0.00    0.00    0.00    0.00   0.00   0.00
sdh               0.00     0.00    0.00    0.00     0.00     0.00     0.00     0.00    0.00    0.00    0.00   0.00   0.00
md0               0.00     0.00 60307.00    0.00 241536.00     0.00     8.01     0.00    0.00    0.00    0.00   0.00   0.00

avg-cpu:  %user   %nice %system %iowait  %steal   %idle
           0.51    0.00   18.16   63.68    0.00   17.65

Device:         rrqm/s   wrqm/s     r/s     w/s    rkB/s    wkB/s avgrq-sz avgqu-sz   await r_await w_await  svctm  %util
sda               0.00     0.00 10058.00    0.00 40312.00     0.00     8.02     1.11    0.11    0.11    0.00   0.07  67.40
sdb               0.00     0.00 9838.00    0.00 39392.00     0.00     8.01     1.06    0.11    0.11    0.00   0.07  65.60
sdc               0.00     0.00 9946.00    0.00 39824.00     0.00     8.01     1.17    0.12    0.12    0.00   0.07  70.20
sdd               0.00     0.00 9860.00    0.00 39480.00     0.00     8.01     1.22    0.12    0.12    0.00   0.07  71.10
sde               0.00     0.00 9840.00    0.00 39436.00     0.00     8.02     1.19    0.12    0.12    0.00   0.07  69.60
sdf               0.00     0.00 9866.00    0.00 39520.00     0.00     8.01     1.19    0.12    0.12    0.00   0.07  67.90
sdg               0.00     0.00    0.00    0.00     0.00     0.00     0.00     0.00    0.00    0.00    0.00   0.00   0.00
sdh               0.00     0.00    0.00    0.00     0.00     0.00     0.00     0.00    0.00    0.00    0.00   0.00   0.00
md0               0.00     0.00 59413.00    0.00 237984.00     0.00     8.01     0.00    0.00    0.00    0.00   0.00   0.00

avg-cpu:  %user   %nice %system %iowait  %steal   %idle
           0.52    0.00   17.36   63.99    0.00   18.13

Device:         rrqm/s   wrqm/s     r/s     w/s    rkB/s    wkB/s avgrq-sz avgqu-sz   await r_await w_await  svctm  %util
sda               0.00     0.00 10018.00    0.00 40220.00     0.00     8.03     1.06    0.11    0.11    0.00   0.07  65.40
sdb               0.00     0.00 9977.00    0.00 39996.00     0.00     8.02     1.04    0.10    0.10    0.00   0.07  65.10
sdc               0.00     0.00 9979.00    0.00 40020.00     0.00     8.02     1.15    0.12    0.12    0.00   0.07  68.80
sdd               0.00     0.00 9879.00    0.00 39572.00     0.00     8.01     1.15    0.12    0.12    0.00   0.07  68.60
sde               0.00     0.00 9931.00    0.00 39756.00     0.00     8.01     1.19    0.12    0.12    0.00   0.07  68.90
sdf               0.00     0.00 9930.00    0.00 39756.00     0.00     8.01     1.16    0.12    0.12    0.00   0.07  67.40
sdg               0.00     0.00    0.00    0.00     0.00     0.00     0.00     0.00    0.00    0.00    0.00   0.00   0.00
sdh               0.00     0.00    0.00    0.00     0.00     0.00     0.00     0.00    0.00    0.00    0.00   0.00   0.00
md0               0.00     0.00 59708.00    0.00 239308.00     0.00     8.02     0.00    0.00    0.00    0.00   0.00   0.00

avg-cpu:  %user   %nice %system %iowait  %steal   %idle
           0.26    0.00   18.41   63.43    0.00   17.90

Device:         rrqm/s   wrqm/s     r/s     w/s    rkB/s    wkB/s avgrq-sz avgqu-sz   await r_await w_await  svctm  %util
sda               0.00     0.00 9961.00    0.00 39900.00     0.00     8.01     1.04    0.10    0.10    0.00   0.07  65.60
sdb               0.00     0.00 9737.00    0.00 39052.00     0.00     8.02     1.01    0.10    0.10    0.00   0.07  63.80
sdc               0.00     0.00 9799.00    0.00 39288.00     0.00     8.02     1.12    0.12    0.12    0.00   0.07  68.10
sdd               0.00     0.00 10046.00    0.00 40268.00     0.00     8.02     1.22    0.12    0.12    0.00   0.07  71.90
sde               0.00     0.00 9932.00    0.00 39772.00     0.00     8.01     1.19    0.12    0.12    0.00   0.07  70.10
sdf               0.00     0.00 9939.00    0.00 39836.00     0.00     8.02     1.16    0.12    0.12    0.00   0.07  67.70
sdg               0.00     0.00    0.00    0.00     0.00     0.00     0.00     0.00    0.00    0.00    0.00   0.00   0.00
sdh               0.00     0.00    0.00    0.00     0.00     0.00     0.00     0.00    0.00    0.00    0.00   0.00   0.00
md0               0.00     0.00 59419.00    0.00 238140.00     0.00     8.02     0.00    0.00    0.00    0.00   0.00   0.00

avg-cpu:  %user   %nice %system %iowait  %steal   %idle
           0.50    0.00   19.65   60.96    0.00   18.89

Device:         rrqm/s   wrqm/s     r/s     w/s    rkB/s    wkB/s avgrq-sz avgqu-sz   await r_await w_await  svctm  %util
sda               0.00     0.00 9967.00    0.00 39944.00     0.00     8.02     1.01    0.10    0.10    0.00   0.06  63.40
sdb               0.00     0.00 9873.00    0.00 39592.00     0.00     8.02     1.00    0.10    0.10    0.00   0.06  62.80
sdc               0.00     0.00 9974.00    0.00 40060.00     0.00     8.03     1.14    0.11    0.11    0.00   0.07  66.00
sdd               0.00     0.00 9903.00    0.00 39708.00     0.00     8.02     1.10    0.11    0.11    0.00   0.07  66.00
sde               0.00     0.00 10130.00    0.00 40580.00     0.00     8.01     1.15    0.11    0.11    0.00   0.07  67.50
sdf               0.00     0.00 10009.00    0.00 40140.00     0.00     8.02     1.13    0.11    0.11    0.00   0.07  66.80
sdg               0.00     0.00    0.00    0.00     0.00     0.00     0.00     0.00    0.00    0.00    0.00   0.00   0.00
sdh               0.00     0.00    0.00    0.00     0.00     0.00     0.00     0.00    0.00    0.00    0.00   0.00   0.00
md0               0.00     0.00 59857.00    0.00 240040.00     0.00     8.02     0.00    0.00    0.00    0.00   0.00   0.00

avg-cpu:  %user   %nice %system %iowait  %steal   %idle
           0.51    0.00   19.44   61.87    0.00   18.18

Device:         rrqm/s   wrqm/s     r/s     w/s    rkB/s    wkB/s avgrq-sz avgqu-sz   await r_await w_await  svctm  %util
sda               0.00     0.00 9903.00    0.00 39752.00     0.00     8.03     1.04    0.10    0.10    0.00   0.06  64.10
sdb               0.00     0.00 10016.00    0.00 40192.00     0.00     8.03     1.03    0.10    0.10    0.00   0.06  64.90
sdc               0.00     0.00 9947.00    0.00 39896.00     0.00     8.02     1.15    0.12    0.12    0.00   0.07  69.80
sdd               0.00     0.00 10035.00    0.00 40280.00     0.00     8.03     1.16    0.12    0.12    0.00   0.07  67.00
sde               0.00     0.00 9963.00    0.00 39996.00     0.00     8.03     1.22    0.12    0.12    0.00   0.07  71.60
sdf               0.00     0.00 10064.00    0.00 40356.00     0.00     8.02     1.19    0.12    0.12    0.00   0.07  69.00
sdg               0.00     0.00    0.00    0.00     0.00     0.00     0.00     0.00    0.00    0.00    0.00   0.00   0.00
sdh               0.00     0.00    0.00    0.00     0.00     0.00     0.00     0.00    0.00    0.00    0.00   0.00   0.00
md0               0.00     0.00 59925.00    0.00 240464.00     0.00     8.03     0.00    0.00    0.00    0.00   0.00   0.00

avg-cpu:  %user   %nice %system %iowait  %steal   %idle
           1.01    0.00   19.14   60.45    0.00   19.40

Device:         rrqm/s   wrqm/s     r/s     w/s    rkB/s    wkB/s avgrq-sz avgqu-sz   await r_await w_await  svctm  %util
sda               0.00     0.00 10094.00    0.00 40484.00     0.00     8.02     1.04    0.10    0.10    0.00   0.06  62.20
sdb               0.00     0.00 10009.00    0.00 40140.00     0.00     8.02     0.94    0.09    0.09    0.00   0.06  58.30
sdc               0.00     0.00 10016.00    0.00 40140.00     0.00     8.02     1.09    0.11    0.11    0.00   0.07  65.40
sdd               0.00     0.00 10057.00    0.00 40336.00     0.00     8.02     1.07    0.11    0.11    0.00   0.07  65.80
sde               0.00     0.00 10023.00    0.00 40176.00     0.00     8.02     1.10    0.11    0.11    0.00   0.07  66.20
sdf               0.00     0.00 10179.00    0.00 40856.00     0.00     8.03     1.09    0.11    0.11    0.00   0.06  66.10
sdg               0.00     0.00    0.00    0.00     0.00     0.00     0.00     0.00    0.00    0.00    0.00   0.00   0.00
sdh               0.00     0.00    0.00    0.00     0.00     0.00     0.00     0.00    0.00    0.00    0.00   0.00   0.00
md0               0.00     0.00 60380.00    0.00 242156.00     0.00     8.02     0.00    0.00    0.00    0.00   0.00   0.00

avg-cpu:  %user   %nice %system %iowait  %steal   %idle
           0.76    0.25   19.04   60.91    0.00   19.04

Device:         rrqm/s   wrqm/s     r/s     w/s    rkB/s    wkB/s avgrq-sz avgqu-sz   await r_await w_await  svctm  %util
sda               0.00     0.00 10189.00    0.00 40924.00     0.00     8.03     1.11    0.11    0.11    0.00   0.07  68.00
sdb               0.00     0.00 10322.00    0.00 41392.00     0.00     8.02     1.11    0.11    0.11    0.00   0.07  68.60
sdc               0.00     0.00 10049.00    0.00 40300.00     0.00     8.02     1.17    0.12    0.12    0.00   0.07  67.90
sdd               0.00     0.00 9882.00    0.00 39644.00     0.00     8.02     1.13    0.11    0.11    0.00   0.07  70.10
sde               0.00     0.00 10012.00    0.00 40144.00     0.00     8.02     1.11    0.11    0.11    0.00   0.07  67.90
sdf               0.00     0.00 10031.00    0.00 40240.00     0.00     8.02     1.16    0.12    0.12    0.00   0.07  69.10
sdg               0.00     0.00    2.00    0.00     8.00     0.00     8.00     0.00    0.00    0.00    0.00   0.00   0.00
sdh               0.00     0.00    0.00    0.00     0.00     0.00     0.00     0.00    0.00    0.00    0.00   0.00   0.00
md0               0.00     0.00 60480.00    0.00 242640.00     0.00     8.02     0.00    0.00    0.00    0.00   0.00   0.00

