Linux 4.17.2 (bench) 	08/03/2018 	_x86_64_	(4 CPU)

avg-cpu:  %user   %nice %system %iowait  %steal   %idle
          10.26    0.02    4.13    2.67    0.00   82.92

Device:         rrqm/s   wrqm/s     r/s     w/s    rkB/s    wkB/s avgrq-sz avgqu-sz   await r_await w_await  svctm  %util
sda              50.28     4.21 1698.07  101.65 21183.40  3110.40    27.00     1.04    0.58    0.26    5.92   0.06  10.92
sdb              50.11     4.17 1698.04  101.79 21172.91  3107.09    26.98     1.04    0.58    0.26    5.85   0.06  10.80
sdc              87.90     4.23 1658.14  101.34 21165.01  3109.53    27.59     1.46    0.83    0.45    7.12   0.08  14.28
sdd              81.39     4.20 1663.83  101.41 21149.99  3105.76    27.48     1.47    0.83    0.44    7.33   0.08  14.37
sde              83.41     4.24 1668.91  101.51 21209.48  3109.97    27.47     1.49    0.84    0.44    7.44   0.08  14.39
sdf              80.54     4.21 1671.03  101.45 21190.84  3106.86    27.42     1.53    0.86    0.44    7.90   0.08  14.43
sdg               0.00     3.17   26.60   73.28   325.11   392.01    14.36     0.44    4.40    0.20    5.93   0.08   0.78
sdh               0.00     0.13    0.02    0.23     2.19     5.02    56.82     0.00    1.15    0.65    1.19   0.21   0.01
md0               0.00     0.00 10498.76  476.28 145148.36 21290.25    30.33     0.00    0.00    0.00    0.00   0.00   0.00

avg-cpu:  %user   %nice %system %iowait  %steal   %idle
           1.01    0.00    7.59   34.18    0.00   57.22

Device:         rrqm/s   wrqm/s     r/s     w/s    rkB/s    wkB/s avgrq-sz avgqu-sz   await r_await w_await  svctm  %util
sda              71.00     0.00 2126.00    0.00 107248.00     0.00   100.89     0.89    0.42    0.42    0.00   0.16  34.30
sdb              79.00     0.00 1982.00    0.00 107024.00     0.00   108.00     0.89    0.45    0.45    0.00   0.17  33.40
sdc              74.00     0.00 2160.00    0.00 111556.00     0.00   103.29     1.51    0.70    0.70    0.00   0.24  52.20
sdd              85.00     0.00 2165.00    0.00 113532.00     0.00   104.88     1.40    0.65    0.65    0.00   0.24  52.50
sde              77.00     0.00 1883.00    0.00 107908.00     0.00   114.61     1.26    0.67    0.67    0.00   0.27  50.10
sdf              68.00     0.00 1972.00    0.00 104720.00     0.00   106.21     1.35    0.68    0.68    0.00   0.25  48.50
sdg               0.00     0.00    2.00    0.00    84.00     0.00    84.00     0.00    0.50    0.50    0.00   0.50   0.10
sdh               0.00     0.00    0.00    0.00     0.00     0.00     0.00     0.00    0.00    0.00    0.00   0.00   0.00
md0               0.00     0.00 13042.00    0.00 864104.00     0.00   132.51     0.00    0.00    0.00    0.00   0.00   0.00

avg-cpu:  %user   %nice %system %iowait  %steal   %idle
           0.75    0.00    7.48   37.91    0.00   53.87

Device:         rrqm/s   wrqm/s     r/s     w/s    rkB/s    wkB/s avgrq-sz avgqu-sz   await r_await w_await  svctm  %util
sda             131.00     0.00 2483.00    0.00 114484.00     0.00    92.21     0.89    0.36    0.36    0.00   0.14  35.20
sdb             133.00     0.00 2202.00    0.00 116796.00     0.00   106.08     0.91    0.41    0.41    0.00   0.16  36.00
sdc             144.00     0.00 2296.00    0.00 117616.00     0.00   102.45     1.48    0.64    0.64    0.00   0.25  56.30
sdd             143.00     0.00 2331.00    0.00 112416.00     0.00    96.45     1.38    0.59    0.59    0.00   0.23  52.90
sde             135.00     0.00 2146.00    0.00 111564.00     0.00   103.97     1.27    0.59    0.59    0.00   0.25  54.50
sdf             138.00     0.00 2198.00    0.00 116516.00     0.00   106.02     1.33    0.60    0.60    0.00   0.25  55.00
sdg               0.00     0.00    0.00    0.00     0.00     0.00     0.00     0.00    0.00    0.00    0.00   0.00   0.00
sdh               0.00     0.00    0.00    0.00     0.00     0.00     0.00     0.00    0.00    0.00    0.00   0.00   0.00
md0               0.00     0.00 14513.00    0.00 939712.00     0.00   129.50     0.00    0.00    0.00    0.00   0.00   0.00

avg-cpu:  %user   %nice %system %iowait  %steal   %idle
           0.50    0.00    7.04   37.94    0.00   54.52

Device:         rrqm/s   wrqm/s     r/s     w/s    rkB/s    wkB/s avgrq-sz avgqu-sz   await r_await w_await  svctm  %util
sda             140.00     0.00 1959.00    0.00 105932.00     0.00   108.15     0.77    0.40    0.40    0.00   0.17  32.90
sdb             123.00     0.00 2494.00    0.00 108828.00     0.00    87.27     0.89    0.36    0.36    0.00   0.14  36.10
sdc             126.00     0.00 2490.00    0.00 111628.00     0.00    89.66     1.39    0.56    0.56    0.00   0.22  53.60
sdd             134.00     0.00 2171.00    0.00 117496.00     0.00   108.24     1.38    0.64    0.64    0.00   0.25  54.90
sde             147.00     0.00 2359.00    0.00 116772.00     0.00    99.00     1.28    0.55    0.55    0.00   0.23  53.70
sdf             136.00     0.00 2004.00    0.00 112856.00     0.00   112.63     1.27    0.64    0.64    0.00   0.27  53.50
sdg               0.00     0.00    0.00    0.00     0.00     0.00     0.00     0.00    0.00    0.00    0.00   0.00   0.00
sdh               0.00     0.00    0.00    0.00     0.00     0.00     0.00     0.00    0.00    0.00    0.00   0.00   0.00
md0               0.00     0.00 14363.00    0.00 924880.00     0.00   128.79     0.00    0.00    0.00    0.00   0.00   0.00

avg-cpu:  %user   %nice %system %iowait  %steal   %idle
           0.50    0.00    7.04   35.93    0.00   56.53

Device:         rrqm/s   wrqm/s     r/s     w/s    rkB/s    wkB/s avgrq-sz avgqu-sz   await r_await w_await  svctm  %util
sda             166.00     0.00 2213.00    0.00 120156.00     0.00   108.59     0.91    0.41    0.41    0.00   0.17  37.50
sdb             144.00     0.00 2422.00    0.00 116708.00     0.00    96.37     0.95    0.39    0.39    0.00   0.15  37.20
sdc             137.00     0.00 2123.00    0.00 114816.00     0.00   108.16     1.30    0.62    0.62    0.00   0.25  53.90
sdd             148.00     0.00 2393.00    0.00 123524.00     0.00   103.24     1.53    0.64    0.64    0.00   0.25  58.80
sde             153.00     0.00 2114.00    0.00 119832.00     0.00   113.37     1.40    0.66    0.66    0.00   0.27  57.00
sdf             152.00     0.00 2383.00    0.00 122696.00     0.00   102.98     1.39    0.58    0.58    0.00   0.25  59.00
sdg               0.00     0.00    0.00    0.00     0.00     0.00     0.00     0.00    0.00    0.00    0.00   0.00   0.00
sdh               0.00     0.00    0.00    0.00     0.00     0.00     0.00     0.00    0.00    0.00    0.00   0.00   0.00
md0               0.00     0.00 14557.00    0.00 1001040.00     0.00   137.53     0.00    0.00    0.00    0.00   0.00   0.00

avg-cpu:  %user   %nice %system %iowait  %steal   %idle
           0.76    0.00    7.05   37.78    0.00   54.41

Device:         rrqm/s   wrqm/s     r/s     w/s    rkB/s    wkB/s avgrq-sz avgqu-sz   await r_await w_await  svctm  %util
sda             133.00     0.00 2479.00    0.00 113948.00     0.00    91.93     0.93    0.38    0.38    0.00   0.14  34.80
sdb             146.00     0.00 2377.00    0.00 118268.00     0.00    99.51     0.95    0.40    0.40    0.00   0.15  36.70
sdc             124.00     0.00 2444.00    0.00 115492.00     0.00    94.51     1.47    0.60    0.60    0.00   0.22  53.70
sdd             129.00     0.00 2524.00    0.00 114996.00     0.00    91.12     1.39    0.55    0.55    0.00   0.21  53.70
sde             128.00     0.00 2294.00    0.00 108936.00     0.00    94.97     1.25    0.54    0.54    0.00   0.22  51.30
sdf             125.00     0.00 2539.00    0.00 114084.00     0.00    89.87     1.41    0.56    0.56    0.00   0.21  54.00
sdg               0.00     0.00   17.00    0.00   116.00     0.00    13.65     0.00    0.18    0.18    0.00   0.18   0.30
sdh               0.00     0.00    0.00    0.00     0.00     0.00     0.00     0.00    0.00    0.00    0.00   0.00   0.00
md0               0.00     0.00 15579.00    0.00 925852.00     0.00   118.86     0.00    0.00    0.00    0.00   0.00   0.00

avg-cpu:  %user   %nice %system %iowait  %steal   %idle
           0.50    0.00    6.80   37.78    0.00   54.91

Device:         rrqm/s   wrqm/s     r/s     w/s    rkB/s    wkB/s avgrq-sz avgqu-sz   await r_await w_await  svctm  %util
sda             131.00     0.00 2243.00    0.00 113408.00     0.00   101.12     0.93    0.41    0.41    0.00   0.15  34.10
sdb             132.00     0.00 2565.00    0.00 113536.00     0.00    88.53     0.85    0.33    0.33    0.00   0.14  34.80
sdc             135.00     0.00 2075.00    0.00 116204.00     0.00   112.00     1.30    0.62    0.62    0.00   0.26  54.40
sdd             131.00     0.00 2414.00    0.00 112136.00     0.00    92.90     1.33    0.55    0.55    0.00   0.22  53.80
sde             133.00     0.00 2179.00    0.00 111320.00     0.00   102.18     1.24    0.57    0.57    0.00   0.24  52.60
sdf             126.00     0.00 2439.00    0.00 114580.00     0.00    93.96     1.38    0.57    0.57    0.00   0.23  55.90
sdg               0.00     0.00    0.00    0.00     0.00     0.00     0.00     0.00    0.00    0.00    0.00   0.00   0.00
sdh               0.00     0.00    0.00    0.00     0.00     0.00     0.00     0.00    0.00    0.00    0.00   0.00   0.00
md0               0.00     0.00 14798.00    0.00 930916.00     0.00   125.82     0.00    0.00    0.00    0.00   0.00   0.00

avg-cpu:  %user   %nice %system %iowait  %steal   %idle
           0.50    0.00    7.04   36.18    0.00   56.28

Device:         rrqm/s   wrqm/s     r/s     w/s    rkB/s    wkB/s avgrq-sz avgqu-sz   await r_await w_await  svctm  %util
sda             171.00     0.00 2035.00    0.00 123096.00     0.00   120.98     0.90    0.44    0.44    0.00   0.19  37.90
sdb             159.00     0.00 2113.00    0.00 126100.00     0.00   119.36     1.03    0.49    0.49    0.00   0.20  41.70
sdc             162.00     0.00 2049.00    0.00 120488.00     0.00   117.61     1.40    0.68    0.68    0.00   0.28  58.20
sdd             151.00     0.00 2113.00    0.00 119828.00     0.00   113.42     1.35    0.64    0.64    0.00   0.27  56.00
sde             171.00     0.00 2319.00    0.00 127228.00     0.00   109.73     1.53    0.66    0.66    0.00   0.26  59.60
sdf             172.00     0.00 2020.00    0.00 125380.00     0.00   124.14     1.47    0.72    0.72    0.00   0.30  59.90
sdg               0.00     0.00    0.00    0.00     0.00     0.00     0.00     0.00    0.00    0.00    0.00   0.00   0.00
sdh               0.00     0.00    0.00    0.00     0.00     0.00     0.00     0.00    0.00    0.00    0.00   0.00   0.00
md0               0.00     0.00 13783.00    0.00 1049964.00     0.00   152.36     0.00    0.00    0.00    0.00   0.00   0.00

avg-cpu:  %user   %nice %system %iowait  %steal   %idle
           0.76    0.00    6.30   38.79    0.00   54.16

Device:         rrqm/s   wrqm/s     r/s     w/s    rkB/s    wkB/s avgrq-sz avgqu-sz   await r_await w_await  svctm  %util
sda             153.00     0.00 2173.00    0.00 119492.00     0.00   109.98     0.83    0.38    0.38    0.00   0.17  35.90
sdb             142.00     0.00 2297.00    0.00 123276.00     0.00   107.34     1.03    0.45    0.45    0.00   0.18  40.90
sdc             151.00     0.00 2123.00    0.00 119580.00     0.00   112.65     1.36    0.64    0.64    0.00   0.26  54.60
sdd             145.00     0.00 2218.00    0.00 118048.00     0.00   106.45     1.35    0.60    0.60    0.00   0.25  54.80
sde             141.00     0.00 1796.00    0.00 121904.00     0.00   135.75     1.30    0.73    0.73    0.00   0.31  56.50
sdf             149.00     0.00 2151.00    0.00 120744.00     0.00   112.27     1.43    0.67    0.67    0.00   0.27  57.70
sdg               0.00     0.00    0.00    0.00     0.00     0.00     0.00     0.00    0.00    0.00    0.00   0.00   0.00
sdh               0.00     0.00    0.00    0.00     0.00     0.00     0.00     0.00    0.00    0.00    0.00   0.00   0.00
md0               0.00     0.00 13645.00    0.00 1003680.00     0.00   147.11     0.00    0.00    0.00    0.00   0.00   0.00

avg-cpu:  %user   %nice %system %iowait  %steal   %idle
           0.50    0.00    6.80   34.51    0.00   58.19

Device:         rrqm/s   wrqm/s     r/s     w/s    rkB/s    wkB/s avgrq-sz avgqu-sz   await r_await w_await  svctm  %util
sda             121.00     0.00 2297.00    0.00 109124.00     0.00    95.01     0.89    0.39    0.39    0.00   0.15  34.60
sdb             125.00     0.00 2207.00    0.00 110488.00     0.00   100.13     0.96    0.44    0.44    0.00   0.17  36.80
sdc             118.00     0.00 2345.00    0.00 114760.00     0.00    97.88     1.35    0.58    0.58    0.00   0.23  54.00
sdd             136.00     0.00 2295.00    0.00 117276.00     0.00   102.20     1.33    0.59    0.59    0.00   0.25  56.40
sde             129.00     0.00 2425.00    0.00 113840.00     0.00    93.89     1.27    0.53    0.53    0.00   0.22  54.00
sdf             132.00     0.00 2309.00    0.00 110284.00     0.00    95.53     1.29    0.56    0.56    0.00   0.23  52.80
sdg               0.00     2.00    2.00    3.00     8.00    44.00    20.80     0.00    0.00    0.00    0.00   0.00   0.00
sdh               0.00     0.00    0.00    0.00     0.00     0.00     0.00     0.00    0.00    0.00    0.00   0.00   0.00
md0               0.00     0.00 14722.00    0.00 947476.00     0.00   128.72     0.00    0.00    0.00    0.00   0.00   0.00

avg-cpu:  %user   %nice %system %iowait  %steal   %idle
           0.75    0.00    8.04   37.44    0.00   53.77

Device:         rrqm/s   wrqm/s     r/s     w/s    rkB/s    wkB/s avgrq-sz avgqu-sz   await r_await w_await  svctm  %util
sda             147.00     0.00 2140.00    0.00 114708.00     0.00   107.20     0.83    0.39    0.39    0.00   0.17  36.10
sdb             149.00     0.00 2167.00    0.00 116524.00     0.00   107.54     0.91    0.42    0.42    0.00   0.18  38.90
sdc             152.00     0.00 1995.00    0.00 115404.00     0.00   115.69     1.24    0.62    0.62    0.00   0.28  55.80
sdd             147.00     0.00 2184.00    0.00 121136.00     0.00   110.93     1.30    0.59    0.59    0.00   0.26  57.00
sde             148.00     0.00 2211.00    0.00 123880.00     0.00   112.06     1.40    0.63    0.63    0.00   0.26  57.70
sdf             150.00     0.00 2114.00    0.00 118548.00     0.00   112.16     1.35    0.63    0.63    0.00   0.27  56.30
sdg               0.00     3.00    0.00 1444.00     0.00  7452.00    10.32     8.27    5.73    0.00    5.73   0.04   6.30
sdh               0.00     0.00    0.00    0.00     0.00     0.00     0.00     0.00    0.00    0.00    0.00   0.00   0.00
md0               0.00     0.00 13705.00    0.00 1004828.00     0.00   146.64     0.00    0.00    0.00    0.00   0.00   0.00

avg-cpu:  %user   %nice %system %iowait  %steal   %idle
           0.76    0.00    7.09   37.72    0.00   54.43

Device:         rrqm/s   wrqm/s     r/s     w/s    rkB/s    wkB/s avgrq-sz avgqu-sz   await r_await w_await  svctm  %util
sda             141.00     0.00 2321.00    0.00 120060.00     0.00   103.46     0.88    0.38    0.38    0.00   0.16  38.20
sdb             141.00     0.00 2002.00    0.00 116408.00     0.00   116.29     0.90    0.45    0.45    0.00   0.20  39.60
sdc             150.00     0.00 1969.00    0.00 113228.00     0.00   115.01     1.20    0.61    0.61    0.00   0.28  54.30
sdd             136.00     0.00 2318.00    0.00 110608.00     0.00    95.43     1.34    0.58    0.58    0.00   0.23  53.30
sde             135.00     0.00 2507.00    0.00 115068.00     0.00    91.80     1.47    0.59    0.59    0.00   0.22  54.20
sdf             139.00     0.00 2148.00    0.00 118708.00     0.00   110.53     1.27    0.59    0.59    0.00   0.26  56.20
sdg               0.00     0.00    0.00    0.00     0.00     0.00     0.00     0.00    0.00    0.00    0.00   0.00   0.00
sdh               0.00     0.00    0.00    0.00     0.00     0.00     0.00     0.00    0.00    0.00    0.00   0.00   0.00
md0               0.00     0.00 14116.00    0.00 964220.00     0.00   136.61     0.00    0.00    0.00    0.00   0.00   0.00

avg-cpu:  %user   %nice %system %iowait  %steal   %idle
           0.51    0.00    7.32   37.88    0.00   54.29

Device:         rrqm/s   wrqm/s     r/s     w/s    rkB/s    wkB/s avgrq-sz avgqu-sz   await r_await w_await  svctm  %util
sda             143.00     0.00 2324.00    0.00 119360.00     0.00   102.72     0.93    0.40    0.40    0.00   0.16  37.80
sdb             140.00     0.00 2158.00    0.00 109224.00     0.00   101.23     0.90    0.41    0.41    0.00   0.18  38.10
sdc             147.00     0.00 2149.00    0.00 112136.00     0.00   104.36     1.36    0.63    0.63    0.00   0.25  53.90
sdd             139.00     0.00 2162.00    0.00 114944.00     0.00   106.33     1.31    0.60    0.60    0.00   0.26  55.50
sde             140.00     0.00 2171.00    0.00 119264.00     0.00   109.87     1.33    0.61    0.61    0.00   0.26  56.70
sdf             154.00     0.00 2355.00    0.00 120888.00     0.00   102.66     1.47    0.62    0.62    0.00   0.24  57.30
sdg               0.00     0.00    0.00    0.00     0.00     0.00     0.00     0.00    0.00    0.00    0.00   0.00   0.00
sdh               0.00     0.00    0.00    0.00     0.00     0.00     0.00     0.00    0.00    0.00    0.00   0.00   0.00
md0               0.00     0.00 14333.00    0.00 957904.00     0.00   133.66     0.00    0.00    0.00    0.00   0.00   0.00

avg-cpu:  %user   %nice %system %iowait  %steal   %idle
           0.76    0.00    7.81   38.04    0.00   53.40

Device:         rrqm/s   wrqm/s     r/s     w/s    rkB/s    wkB/s avgrq-sz avgqu-sz   await r_await w_await  svctm  %util
sda             135.00     0.00 2201.00    0.00 113248.00     0.00   102.91     0.84    0.38    0.38    0.00   0.16  35.30
sdb             135.00     0.00 2431.00    0.00 112156.00     0.00    92.27     0.93    0.38    0.38    0.00   0.16  38.30
sdc             123.00     0.00 2184.00    0.00 111424.00     0.00   102.04     1.19    0.55    0.55    0.00   0.24  52.60
sdd             132.00     0.00 2303.00    0.00 118872.00     0.00   103.23     1.44    0.63    0.63    0.00   0.24  54.60
sde             134.00     0.00 2330.00    0.00 118480.00     0.00   101.70     1.41    0.61    0.61    0.00   0.24  55.80
sdf             129.00     0.00 2740.00    0.00 118040.00     0.00    86.16     1.58    0.58    0.58    0.00   0.21  56.20
sdg               0.00     0.00    0.00    0.00     0.00     0.00     0.00     0.00    0.00    0.00    0.00   0.00   0.00
sdh               0.00     0.00    0.00    0.00     0.00     0.00     0.00     0.00    0.00    0.00    0.00   0.00   0.00
md0               0.00     0.00 15017.00    0.00 941420.00     0.00   125.38     0.00    0.00    0.00    0.00   0.00   0.00

avg-cpu:  %user   %nice %system %iowait  %steal   %idle
           0.51    0.00    6.87   38.93    0.00   53.69

Device:         rrqm/s   wrqm/s     r/s     w/s    rkB/s    wkB/s avgrq-sz avgqu-sz   await r_await w_await  svctm  %util
sda             143.00     0.00 2088.00    0.00 116636.00     0.00   111.72     0.91    0.43    0.43    0.00   0.17  35.40
sdb             145.00     0.00 2250.00    0.00 116448.00     0.00   103.51     1.10    0.49    0.49    0.00   0.18  39.70
sdc             150.00     0.00 2095.00    0.00 115740.00     0.00   110.49     1.40    0.67    0.67    0.00   0.26  55.00
sdd             154.00     0.00 2133.00    0.00 117984.00     0.00   110.63     1.32    0.62    0.62    0.00   0.27  57.60
sde             145.00     0.00 2122.00    0.00 115852.00     0.00   109.19     1.37    0.64    0.64    0.00   0.25  54.10
sdf             142.00     0.00 2221.00    0.00 112428.00     0.00   101.24     1.37    0.61    0.61    0.00   0.24  53.70
sdg               0.00     0.00    0.00    0.00     0.00     0.00     0.00     0.00    0.00    0.00    0.00   0.00   0.00
sdh               0.00     0.00    0.00    0.00     0.00     0.00     0.00     0.00    0.00    0.00    0.00   0.00   0.00
md0               0.00     0.00 13885.00    0.00 996444.00     0.00   143.53     0.00    0.00    0.00    0.00   0.00   0.00

avg-cpu:  %user   %nice %system %iowait  %steal   %idle
           0.75    0.25    8.50   39.50    0.00   51.00

Device:         rrqm/s   wrqm/s     r/s     w/s    rkB/s    wkB/s avgrq-sz avgqu-sz   await r_await w_await  svctm  %util
sda             133.00     0.00 2043.00    0.00 115028.00     0.00   112.61     0.83    0.41    0.41    0.00   0.17  35.20
sdb             159.00     0.00 2123.00    0.00 119152.00     0.00   112.25     0.99    0.47    0.47    0.00   0.19  40.20
sdc             151.00     0.00 2210.00    0.00 118148.00     0.00   106.92     1.27    0.58    0.58    0.00   0.25  55.10
sdd             144.00     0.00 2051.00    0.00 118280.00     0.00   115.34     1.32    0.64    0.64    0.00   0.27  55.90
sde             144.00     0.00 2041.00    0.00 116380.00     0.00   114.04     1.34    0.66    0.66    0.00   0.27  55.40
sdf             144.00     0.00 2141.00    0.00 112756.00     0.00   105.33     1.33    0.62    0.62    0.00   0.25  53.30
sdg               0.00     0.00 1112.00    0.00  4448.00     0.00     8.00     0.13    0.12    0.12    0.00   0.12  12.90
sdh               0.00     0.00    0.00    0.00     0.00     0.00     0.00     0.00    0.00    0.00    0.00   0.00   0.00
md0               0.00     0.00 13612.00    0.00 965076.00     0.00   141.80     0.00    0.00    0.00    0.00   0.00   0.00

avg-cpu:  %user   %nice %system %iowait  %steal   %idle
           0.50    0.00    8.98   38.65    0.00   51.87

Device:         rrqm/s   wrqm/s     r/s     w/s    rkB/s    wkB/s avgrq-sz avgqu-sz   await r_await w_await  svctm  %util
sda             121.00     0.00 2199.00    0.00 113484.00     0.00   103.21     0.92    0.42    0.42    0.00   0.15  33.50
sdb             131.00     0.00 2035.00    0.00 111816.00     0.00   109.89     0.90    0.45    0.45    0.00   0.18  37.20
sdc             127.00     0.00 2419.00    0.00 118852.00     0.00    98.27     1.41    0.59    0.59    0.00   0.23  55.80
sdd             138.00     0.00 2238.00    0.00 114592.00     0.00   102.41     1.37    0.61    0.61    0.00   0.24  53.60
sde             134.00     0.00 2103.00    0.00 109760.00     0.00   104.38     1.27    0.61    0.61    0.00   0.24  50.90
sdf             127.00     0.00 2204.00    0.00 112712.00     0.00   102.28     1.32    0.61    0.61    0.00   0.24  53.40
sdg               0.00     0.00  731.00    0.00  2924.00     0.00     8.00     0.10    0.14    0.14    0.00   0.14  10.40
sdh               0.00     0.00    0.00    0.00     0.00     0.00     0.00     0.00    0.00    0.00    0.00   0.00   0.00
md0               0.00     0.00 14026.00    0.00 949468.00     0.00   135.39     0.00    0.00    0.00    0.00   0.00   0.00

avg-cpu:  %user   %nice %system %iowait  %steal   %idle
           0.76    0.00    7.34   36.71    0.00   55.19

Device:         rrqm/s   wrqm/s     r/s     w/s    rkB/s    wkB/s avgrq-sz avgqu-sz   await r_await w_await  svctm  %util
sda             144.00     0.00 2338.00    0.00 113604.00     0.00    97.18     0.84    0.36    0.36    0.00   0.15  34.50
sdb             131.00     0.00 2484.00    0.00 114340.00     0.00    92.06     1.02    0.41    0.41    0.00   0.17  41.20
sdc             139.00     0.00 2175.00    0.00 113488.00     0.00   104.36     1.39    0.64    0.64    0.00   0.24  53.00
sdd             140.00     0.00 2261.00    0.00 112164.00     0.00    99.22     1.33    0.59    0.59    0.00   0.24  54.40
sde             141.00     0.00 1996.00    0.00 113992.00     0.00   114.22     1.23    0.61    0.61    0.00   0.27  54.40
sdf             148.00     0.00 2221.00    0.00 112000.00     0.00   100.86     1.29    0.57    0.57    0.00   0.24  52.80
sdg               0.00     0.00    0.00    0.00     0.00     0.00     0.00     0.00    0.00    0.00    0.00   0.00   0.00
sdh               0.00     0.00    0.00    0.00     0.00     0.00     0.00     0.00    0.00    0.00    0.00   0.00   0.00
md0               0.00     0.00 14348.00    0.00 934508.00     0.00   130.26     0.00    0.00    0.00    0.00   0.00   0.00

avg-cpu:  %user   %nice %system %iowait  %steal   %idle
           0.50    0.00    8.50   37.50    0.00   53.50

Device:         rrqm/s   wrqm/s     r/s     w/s    rkB/s    wkB/s avgrq-sz avgqu-sz   await r_await w_await  svctm  %util
sda             131.00     0.00 2294.00    0.00 106280.00     0.00    92.66     0.83    0.36    0.36    0.00   0.14  32.90
sdb             112.00     0.00 1971.00    0.00 106392.00     0.00   107.96     0.90    0.46    0.46    0.00   0.18  35.60
sdc             125.00     0.00 2493.00    0.00 111708.00     0.00    89.62     1.31    0.52    0.52    0.00   0.21  52.30
sdd             136.00     0.00 2232.00    0.00 118156.00     0.00   105.87     1.34    0.60    0.60    0.00   0.25  55.30
sde             125.00     0.00 2312.00    0.00 114792.00     0.00    99.30     1.36    0.59    0.59    0.00   0.24  55.70
sdf             128.00     0.00 2056.00    0.00 110824.00     0.00   107.81     1.24    0.60    0.60    0.00   0.26  53.20
sdg               0.00     0.00    0.00    0.00     0.00     0.00     0.00     0.00    0.00    0.00    0.00   0.00   0.00
sdh               0.00     0.00    0.00    0.00     0.00     0.00     0.00     0.00    0.00    0.00    0.00   0.00   0.00
md0               0.00     0.00 14130.00    0.00 907516.00     0.00   128.45     0.00    0.00    0.00    0.00   0.00   0.00

avg-cpu:  %user   %nice %system %iowait  %steal   %idle
           0.75    0.00    8.04   35.18    0.00   56.03

Device:         rrqm/s   wrqm/s     r/s     w/s    rkB/s    wkB/s avgrq-sz avgqu-sz   await r_await w_await  svctm  %util
sda             158.00     0.00 2125.00    0.00 121764.00     0.00   114.60     0.94    0.44    0.44    0.00   0.17  36.30
sdb             159.00     0.00 1973.00    0.00 122404.00     0.00   124.08     1.00    0.51    0.51    0.00   0.21  42.40
sdc             157.00     0.00 1997.00    0.00 115600.00     0.00   115.77     1.34    0.67    0.67    0.00   0.27  54.80
sdd             148.00     0.00 2057.00    0.00 119876.00     0.00   116.55     1.42    0.69    0.69    0.00   0.28  57.90
sde             162.00     0.00 1914.00    0.00 120472.00     0.00   125.89     1.40    0.73    0.73    0.00   0.30  58.30
sdf             156.00     0.00 2330.00    0.00 124324.00     0.00   106.72     1.55    0.66    0.66    0.00   0.25  58.60
sdg               0.00     0.00    0.00    0.00     0.00     0.00     0.00     0.00    0.00    0.00    0.00   0.00   0.00
sdh               0.00     0.00    0.00    0.00     0.00     0.00     0.00     0.00    0.00    0.00    0.00   0.00   0.00
md0               0.00     0.00 13449.00    0.00 1000680.00     0.00   148.81     0.00    0.00    0.00    0.00   0.00   0.00

avg-cpu:  %user   %nice %system %iowait  %steal   %idle
           0.50    0.00    8.98   36.41    0.00   54.11

Device:         rrqm/s   wrqm/s     r/s     w/s    rkB/s    wkB/s avgrq-sz avgqu-sz   await r_await w_await  svctm  %util
sda             133.00     0.00 2078.00    0.00 111668.00     0.00   107.48     0.76    0.37    0.37    0.00   0.16  33.30
sdb             137.00     0.00 2222.00    0.00 116788.00     0.00   105.12     0.92    0.41    0.41    0.00   0.18  39.40
sdc             147.00     0.00 2359.00    0.00 120400.00     0.00   102.08     1.38    0.58    0.58    0.00   0.24  56.50
sdd             131.00     0.00 2217.00    0.00 116048.00     0.00   104.69     1.38    0.62    0.62    0.00   0.25  55.40
sde             139.00     0.00 2257.00    0.00 118712.00     0.00   105.19     1.33    0.59    0.59    0.00   0.25  57.00
sdf             131.00     0.00 2157.00    0.00 114296.00     0.00   105.98     1.32    0.61    0.61    0.00   0.25  54.80
sdg               0.00     0.00   24.00    5.00   568.00   132.00    48.28     0.01    0.28    0.21    0.60   0.21   0.60
sdh               0.00     0.00    0.00    0.00     0.00     0.00     0.00     0.00    0.00    0.00    0.00   0.00   0.00
md0               0.00     0.00 14199.00    0.00 949832.00     0.00   133.79     0.00    0.00    0.00    0.00   0.00   0.00

