type: aio
filename: /mnt/raid/prefetch/prefetch-2048
I/O mode: DIRECT
workload: RANDOM
duration: 20
queue size: 32
test mode: TEST
file size: 2147483648
file pages: 524288
processed 100640 requests 100625.01 r/s elapsed 1.00
processed 201312 requests 100650.72 r/s elapsed 2.00
processed 301920 requests 100633.73 r/s elapsed 3.00
processed 400352 requests 100082.12 r/s elapsed 4.00
processed 491584 requests 98313.65 r/s elapsed 5.00
processed 584320 requests 97382.09 r/s elapsed 6.00
processed 674272 requests 96322.27 r/s elapsed 7.00
processed 765760 requests 95716.08 r/s elapsed 8.00
processed 858336 requests 95370.19 r/s elapsed 9.00
processed 951936 requests 95193.23 r/s elapsed 10.00
processed 1055072 requests 95915.49 r/s elapsed 11.00
processed 1157984 requests 96495.97 r/s elapsed 12.00
processed 1260864 requests 96988.78 r/s elapsed 13.00
processed 1365568 requests 97540.28 r/s elapsed 14.00
processed 1470336 requests 98020.96 r/s elapsed 15.00
processed 1574944 requests 98432.57 r/s elapsed 16.00
processed 1680672 requests 98862.33 r/s elapsed 17.00
processed 1787264 requests 99292.28 r/s elapsed 18.00
processed 1893088 requests 99634.95 r/s elapsed 19.00
processed 1997504 requests 99874.03 r/s elapsed 20.00
TOTAL: 1997504 requests 99874.03 r/s elapsed 20.00
