type: aio
filename: /mnt/raid/prefetch/prefetch-2048
I/O mode: BUFFERED
workload: SEQUENTIAL
duration: 20
queue size: 1
test mode: WARMUP
file size: 2147483648
file pages: 524288
start probability: 0.100
continue probability: 0.900
processed 143513 requests 143286.46 r/s elapsed 1.00
elapsed 1.00 : warmup interval speed 143286.46 previous 0.00
processed 284625 requests 142234.20 r/s elapsed 2.00
elapsed 2.00 : warmup interval speed 141179.77 previous 143286.46
within 5% of the preceding interval, warmup terminating
TOTAL: 284625 requests 142234.20 r/s elapsed 2.00
