type: aio
filename: /mnt/raid/prefetch/prefetch-2048
I/O mode: BUFFERED
workload: SEQUENTIAL
duration: 20
queue size: 1
test mode: WARMUP
file size: 2147483648
file pages: 524288
start probability: 0.010
continue probability: 0.500
processed 9706 requests 9705.36 r/s elapsed 1.00
elapsed 1.00 : warmup interval speed 9705.36 previous 0.00
processed 20022 requests 10010.64 r/s elapsed 2.00
elapsed 2.00 : warmup interval speed 10315.94 previous 9705.36
processed 31632 requests 10542.47 r/s elapsed 3.00
elapsed 3.00 : warmup interval speed 11605.80 previous 10315.94
processed 43920 requests 10979.94 r/s elapsed 4.00
elapsed 4.00 : warmup interval speed 12293.05 previous 11605.80
processed 56695 requests 11338.95 r/s elapsed 5.00
elapsed 5.00 : warmup interval speed 12774.99 previous 12293.05
within 5% of the preceding interval, warmup terminating
TOTAL: 56695 requests 11338.95 r/s elapsed 5.00
