type: aio
filename: /mnt/raid/prefetch/prefetch-2048
I/O mode: BUFFERED
workload: RANDOM
duration: 20
queue size: 128
test mode: TEST
file size: 2147483648
file pages: 524288
processed 8832 requests 8796.20 r/s elapsed 1.00
processed 17664 requests 8815.22 r/s elapsed 2.00
processed 27008 requests 8996.62 r/s elapsed 3.00
processed 36608 requests 9149.35 r/s elapsed 4.00
processed 46464 requests 9275.31 r/s elapsed 5.01
processed 56320 requests 9384.26 r/s elapsed 6.00
processed 66176 requests 9450.00 r/s elapsed 7.00
processed 76544 requests 9554.91 r/s elapsed 8.01
processed 86656 requests 9617.05 r/s elapsed 9.01
processed 96896 requests 9680.70 r/s elapsed 10.01
processed 107264 requests 9740.75 r/s elapsed 11.01
processed 117888 requests 9819.41 r/s elapsed 12.01
processed 129024 requests 9916.65 r/s elapsed 13.01
processed 140160 requests 10006.42 r/s elapsed 14.01
processed 151680 requests 10111.38 r/s elapsed 15.00
processed 163840 requests 10237.33 r/s elapsed 16.00
processed 176384 requests 10370.19 r/s elapsed 17.01
processed 189056 requests 10501.55 r/s elapsed 18.00
processed 201728 requests 10616.77 r/s elapsed 19.00
processed 214784 requests 10734.96 r/s elapsed 20.01
TOTAL: 214784 requests 10734.96 r/s elapsed 20.01
