type: aio
filename: /mnt/raid/prefetch/prefetch-2048
I/O mode: DIRECT
workload: SEQUENTIAL
duration: 20
queue size: 8
test mode: TEST
file size: 2147483648
file pages: 524288
start probability: 0.010
continue probability: 0.900
processed 31552 requests 31549.07 r/s elapsed 1.00
processed 61008 requests 30501.03 r/s elapsed 2.00
processed 90744 requests 30245.69 r/s elapsed 3.00
processed 120256 requests 30062.57 r/s elapsed 4.00
processed 150880 requests 30174.56 r/s elapsed 5.00
processed 182816 requests 30468.46 r/s elapsed 6.00
processed 214424 requests 30631.61 r/s elapsed 7.00
processed 245920 requests 30739.47 r/s elapsed 8.00
processed 277864 requests 30873.04 r/s elapsed 9.00
processed 309384 requests 30938.00 r/s elapsed 10.00
processed 340912 requests 30991.90 r/s elapsed 11.00
processed 372920 requests 31076.45 r/s elapsed 12.00
processed 404560 requests 31119.65 r/s elapsed 13.00
processed 436720 requests 31194.24 r/s elapsed 14.00
processed 468704 requests 31246.46 r/s elapsed 15.00
processed 500208 requests 31262.48 r/s elapsed 16.00
processed 532304 requests 31311.72 r/s elapsed 17.00
processed 564152 requests 31341.37 r/s elapsed 18.00
processed 595240 requests 31328.29 r/s elapsed 19.00
processed 627496 requests 31374.54 r/s elapsed 20.00
TOTAL: 627496 requests 31374.54 r/s elapsed 20.00
