type: aio
filename: /mnt/raid/prefetch/prefetch-2048
I/O mode: DIRECT
workload: SEQUENTIAL
duration: 20
queue size: 128
test mode: TEST
file size: 2147483648
file pages: 524288
start probability: 0.100
continue probability: 0.900
processed 95360 requests 95326.64 r/s elapsed 1.00
processed 190976 requests 95475.87 r/s elapsed 2.00
processed 284672 requests 94885.04 r/s elapsed 3.00
processed 380928 requests 95196.40 r/s elapsed 4.00
processed 477440 requests 95475.65 r/s elapsed 5.00
processed 574976 requests 95817.24 r/s elapsed 6.00
processed 673024 requests 96145.45 r/s elapsed 7.00
processed 771584 requests 96439.89 r/s elapsed 8.00
processed 869120 requests 96561.90 r/s elapsed 9.00
processed 967680 requests 96761.21 r/s elapsed 10.00
processed 1066880 requests 96979.47 r/s elapsed 11.00
processed 1166592 requests 97212.31 r/s elapsed 12.00
processed 1265280 requests 97328.03 r/s elapsed 13.00
processed 1363584 requests 97393.26 r/s elapsed 14.00
processed 1461760 requests 97449.67 r/s elapsed 15.00
processed 1560704 requests 97543.68 r/s elapsed 16.00
processed 1659008 requests 97584.80 r/s elapsed 17.00
processed 1758592 requests 97697.04 r/s elapsed 18.00
processed 1856896 requests 97725.38 r/s elapsed 19.00
processed 1955328 requests 97765.55 r/s elapsed 20.00
TOTAL: 1955328 requests 97765.55 r/s elapsed 20.00
