type: aio
filename: /mnt/raid/prefetch/prefetch-2048
I/O mode: DIRECT
workload: SEQUENTIAL
duration: 20
queue size: 1
test mode: TEST
file size: 2147483648
file pages: 524288
start probability: 0.100
continue probability: 0.100
processed 8834 requests 8833.48 r/s elapsed 1.00
processed 17456 requests 8727.66 r/s elapsed 2.00
processed 26455 requests 8818.07 r/s elapsed 3.00
processed 35457 requests 8864.15 r/s elapsed 4.00
processed 44448 requests 8889.58 r/s elapsed 5.00
processed 53428 requests 8904.59 r/s elapsed 6.00
processed 62173 requests 8881.76 r/s elapsed 7.00
processed 70803 requests 8850.31 r/s elapsed 8.00
processed 79667 requests 8851.80 r/s elapsed 9.00
processed 88476 requests 8847.59 r/s elapsed 10.00
processed 97258 requests 8841.62 r/s elapsed 11.00
processed 106277 requests 8856.38 r/s elapsed 12.00
processed 115287 requests 8868.21 r/s elapsed 13.00
processed 124012 requests 8857.95 r/s elapsed 14.00
processed 132675 requests 8844.97 r/s elapsed 15.00
processed 141731 requests 8858.15 r/s elapsed 16.00
processed 150401 requests 8847.08 r/s elapsed 17.00
processed 159472 requests 8859.55 r/s elapsed 18.00
processed 168492 requests 8867.97 r/s elapsed 19.00
processed 177506 requests 8875.26 r/s elapsed 20.00
TOTAL: 177506 requests 8875.26 r/s elapsed 20.00
