type: aio
filename: /mnt/raid/prefetch/prefetch-2048
I/O mode: BUFFERED
workload: RANDOM
duration: 20
queue size: 1
test mode: WARMUP
file size: 2147483648
file pages: 524288
processed 8480 requests 8479.78 r/s elapsed 1.00
elapsed 1.00 : warmup interval speed 8479.78 previous 0.00
processed 17123 requests 8561.31 r/s elapsed 2.00
elapsed 2.00 : warmup interval speed 8642.84 previous 8479.78
within 5% of the preceding interval, warmup terminating
TOTAL: 17123 requests 8561.31 r/s elapsed 2.00
