type: aio
filename: /mnt/raid/prefetch/prefetch-2048
I/O mode: BUFFERED
workload: SEQUENTIAL
duration: 20
queue size: 1
test mode: TEST
file size: 2147483648
file pages: 524288
start probability: 0.010
continue probability: 0.100
processed 9480 requests 9479.34 r/s elapsed 1.00
processed 19460 requests 9729.94 r/s elapsed 2.00
processed 29562 requests 9853.98 r/s elapsed 3.00
processed 39822 requests 9955.30 r/s elapsed 4.00
processed 50029 requests 10005.72 r/s elapsed 5.00
processed 60683 requests 10113.74 r/s elapsed 6.00
processed 71571 requests 10224.41 r/s elapsed 7.00
processed 82455 requests 10306.83 r/s elapsed 8.00
processed 93784 requests 10420.33 r/s elapsed 9.00
processed 105423 requests 10542.25 r/s elapsed 10.00
processed 117184 requests 10652.90 r/s elapsed 11.00
processed 129412 requests 10784.23 r/s elapsed 12.00
processed 141855 requests 10911.92 r/s elapsed 13.00
processed 154551 requests 11039.30 r/s elapsed 14.00
processed 168168 requests 11211.04 r/s elapsed 15.00
processed 181947 requests 11371.68 r/s elapsed 16.00
processed 196977 requests 11586.83 r/s elapsed 17.00
processed 212307 requests 11794.80 r/s elapsed 18.00
processed 228785 requests 12041.30 r/s elapsed 19.00
processed 246873 requests 12343.59 r/s elapsed 20.00
TOTAL: 246873 requests 12343.59 r/s elapsed 20.00
