type: aio
filename: /mnt/raid/prefetch/prefetch-2048
I/O mode: DIRECT
workload: RANDOM
duration: 20
queue size: 128
test mode: TEST
file size: 2147483648
file pages: 524288
processed 155392 requests 155308.44 r/s elapsed 1.00
processed 312448 requests 156165.13 r/s elapsed 2.00
processed 469760 requests 156574.61 r/s elapsed 3.00
processed 614016 requests 153482.24 r/s elapsed 4.00
processed 762880 requests 152564.50 r/s elapsed 5.00
processed 910464 requests 151724.33 r/s elapsed 6.00
processed 1060992 requests 151566.60 r/s elapsed 7.00
processed 1210368 requests 151292.77 r/s elapsed 8.00
processed 1360384 requests 151150.00 r/s elapsed 9.00
processed 1510528 requests 151051.47 r/s elapsed 10.00
processed 1661184 requests 151008.02 r/s elapsed 11.00
processed 1811072 requests 150915.36 r/s elapsed 12.00
processed 1961728 requests 150897.91 r/s elapsed 13.00
processed 2112128 requests 150866.13 r/s elapsed 14.00
processed 2271104 requests 151403.19 r/s elapsed 15.00
processed 2423040 requests 151433.43 r/s elapsed 16.00
processed 2574592 requests 151446.11 r/s elapsed 17.00
processed 2727168 requests 151500.28 r/s elapsed 18.00
processed 2879872 requests 151569.82 r/s elapsed 19.00
processed 3044352 requests 152215.64 r/s elapsed 20.00
TOTAL: 3044352 requests 152215.64 r/s elapsed 20.00
