type: aio
filename: /mnt/raid/prefetch/prefetch-2048
I/O mode: BUFFERED
workload: SEQUENTIAL
duration: 20
queue size: 8
test mode: WARMUP
file size: 2147483648
file pages: 524288
start probability: 0.100
continue probability: 0.100
processed 10632 requests 10624.68 r/s elapsed 1.00
elapsed 1.00 : warmup interval speed 10624.68 previous 0.00
processed 21416 requests 10704.56 r/s elapsed 2.00
elapsed 2.00 : warmup interval speed 10784.51 previous 10624.68
within 5% of the preceding interval, warmup terminating
TOTAL: 21416 requests 10704.56 r/s elapsed 2.00
