type: fadvise
filename: /mnt/raid/prefetch/prefetch-2048
I/O mode: BUFFERED
workload: SEQUENTIAL
duration: 20
queue size: 1
test mode: TEST
file size: 2147483648
file pages: 524288
start probability: 0.010
continue probability: 0.500
processed 12546 requests 12545.57 r/s elapsed 1.00
processed 25371 requests 12685.45 r/s elapsed 2.00
processed 38458 requests 12819.30 r/s elapsed 3.00
processed 51717 requests 12929.19 r/s elapsed 4.00
processed 65191 requests 13038.00 r/s elapsed 5.00
processed 78702 requests 13116.84 r/s elapsed 6.00
processed 92566 requests 13223.70 r/s elapsed 7.00
processed 106839 requests 13354.72 r/s elapsed 8.00
processed 121404 requests 13489.29 r/s elapsed 9.00
processed 136309 requests 13630.77 r/s elapsed 10.00
processed 150856 requests 13714.13 r/s elapsed 11.00
processed 165408 requests 13783.84 r/s elapsed 12.00
processed 180184 requests 13860.27 r/s elapsed 13.00
processed 196302 requests 14021.48 r/s elapsed 14.00
processed 212896 requests 14193.01 r/s elapsed 15.00
processed 229096 requests 14318.38 r/s elapsed 16.00
processed 245401 requests 14435.31 r/s elapsed 17.00
processed 262778 requests 14598.74 r/s elapsed 18.00
processed 280864 requests 14782.28 r/s elapsed 19.00
processed 299172 requests 14958.59 r/s elapsed 20.00
TOTAL: 299172 requests 14958.59 r/s elapsed 20.00
