type: fadvise
filename: /mnt/raid/prefetch/prefetch-2048
I/O mode: BUFFERED
workload: SEQUENTIAL
duration: 20
queue size: 128
test mode: TEST
file size: 2147483648
file pages: 524288
start probability: 0.010
continue probability: 0.100
processed 434304 requests 434245.81 r/s elapsed 1.00
processed 885760 requests 442839.04 r/s elapsed 2.00
processed 1349120 requests 449689.58 r/s elapsed 3.00
processed 1822080 requests 455510.43 r/s elapsed 4.00
processed 2300032 requests 460003.64 r/s elapsed 5.00
processed 2779520 requests 463241.44 r/s elapsed 6.00
processed 3258752 requests 465521.24 r/s elapsed 7.00
processed 3739008 requests 467371.15 r/s elapsed 8.00
processed 4219264 requests 468799.71 r/s elapsed 9.00
processed 4700032 requests 469991.54 r/s elapsed 10.00
processed 5181056 requests 471003.81 r/s elapsed 11.00
processed 5662080 requests 471837.72 r/s elapsed 12.00
processed 6143104 requests 472539.77 r/s elapsed 13.00
processed 6623872 requests 473128.10 r/s elapsed 14.00
processed 7104896 requests 473654.18 r/s elapsed 15.00
processed 7586432 requests 474151.94 r/s elapsed 16.00
processed 8067328 requests 474548.34 r/s elapsed 17.00
processed 8548096 requests 474893.17 r/s elapsed 18.00
processed 9029120 requests 475211.84 r/s elapsed 19.00
processed 9510144 requests 475504.32 r/s elapsed 20.00
TOTAL: 9510144 requests 475504.32 r/s elapsed 20.00
