type: fadvise
filename: /mnt/raid/prefetch/prefetch-2048
I/O mode: BUFFERED
workload: RANDOM
duration: 20
queue size: 128
test mode: WARMUP
file size: 2147483648
file pages: 524288
processed 189056 requests 188986.83 r/s elapsed 1.00
elapsed 1.00 : warmup interval speed 188986.83 previous 0.00
processed 433024 requests 216469.90 r/s elapsed 2.00
elapsed 2.00 : warmup interval speed 243962.39 previous 188986.83
processed 763520 requests 254498.61 r/s elapsed 3.00
elapsed 3.00 : warmup interval speed 330593.19 previous 243962.39
processed 1215360 requests 303837.95 r/s elapsed 4.00
elapsed 4.00 : warmup interval speed 451870.73 previous 330593.19
processed 1787520 requests 357500.35 r/s elapsed 5.00
elapsed 5.00 : warmup interval speed 572146.27 previous 451870.73
processed 2453504 requests 408912.63 r/s elapsed 6.00
elapsed 6.00 : warmup interval speed 665972.01 previous 572146.27
processed 3192192 requests 456016.61 r/s elapsed 7.00
elapsed 7.00 : warmup interval speed 738616.35 previous 665972.01
processed 3987840 requests 498474.39 r/s elapsed 8.00
elapsed 8.00 : warmup interval speed 795708.47 previous 738616.35
processed 4820736 requests 535635.25 r/s elapsed 9.00
elapsed 9.00 : warmup interval speed 832941.81 previous 795708.47
within 5% of the preceding interval, warmup terminating
TOTAL: 4820736 requests 535635.25 r/s elapsed 9.00
