type: fadvise
filename: /mnt/raid/prefetch/prefetch-2048
I/O mode: BUFFERED
workload: SEQUENTIAL
duration: 20
queue size: 1024
test mode: TEST
file size: 2147483648
file pages: 524288
start probability: 0.100
continue probability: 0.100
processed 869376 requests 869200.42 r/s elapsed 1.00
processed 1741824 requests 870802.28 r/s elapsed 2.00
processed 2614272 requests 871340.64 r/s elapsed 3.00
processed 3487744 requests 871695.41 r/s elapsed 4.00
processed 4361216 requests 872056.23 r/s elapsed 5.00
processed 5231616 requests 871763.68 r/s elapsed 6.00
processed 6095872 requests 870821.94 r/s elapsed 7.00
processed 6969344 requests 871089.60 r/s elapsed 8.00
processed 7842816 requests 871317.89 r/s elapsed 9.00
processed 8715264 requests 871510.36 r/s elapsed 10.00
processed 9588736 requests 871654.78 r/s elapsed 11.00
processed 10461184 requests 871746.37 r/s elapsed 12.00
processed 11334656 requests 871857.58 r/s elapsed 13.00
processed 12208128 requests 871956.02 r/s elapsed 14.00
processed 13081600 requests 872040.28 r/s elapsed 15.00
processed 13955072 requests 872139.07 r/s elapsed 16.00
processed 14827520 requests 872155.35 r/s elapsed 17.00
processed 15699968 requests 872210.37 r/s elapsed 18.00
processed 16573440 requests 872265.66 r/s elapsed 19.00
processed 17446912 requests 872304.69 r/s elapsed 20.00
TOTAL: 17446912 requests 872304.69 r/s elapsed 20.00
