type: fadvise
filename: /mnt/raid/prefetch/prefetch-2048
I/O mode: BUFFERED
workload: SEQUENTIAL
duration: 20
queue size: 128
test mode: TEST
file size: 2147483648
file pages: 524288
start probability: 0.010
continue probability: 0.500
processed 259584 requests 259549.22 r/s elapsed 1.00
processed 559872 requests 279927.46 r/s elapsed 2.00
processed 924672 requests 308213.73 r/s elapsed 3.00
processed 1340160 requests 335039.33 r/s elapsed 4.00
processed 1792512 requests 358483.90 r/s elapsed 5.00
processed 2270080 requests 378337.71 r/s elapsed 6.00
processed 2786176 requests 398014.68 r/s elapsed 7.00
processed 3320960 requests 415109.62 r/s elapsed 8.00
processed 3883648 requests 431510.50 r/s elapsed 9.00
processed 4472448 requests 447239.70 r/s elapsed 10.00
processed 5080832 requests 461892.22 r/s elapsed 11.00
processed 5700608 requests 475050.23 r/s elapsed 12.00
processed 6324096 requests 486462.60 r/s elapsed 13.00
processed 6950144 requests 496435.24 r/s elapsed 14.00
processed 7577216 requests 505144.47 r/s elapsed 15.00
processed 8204672 requests 512787.96 r/s elapsed 16.00
processed 8832896 requests 519581.08 r/s elapsed 17.00
processed 9460864 requests 525598.45 r/s elapsed 18.00
processed 10088448 requests 530969.47 r/s elapsed 19.00
processed 10715264 requests 535762.42 r/s elapsed 20.00
TOTAL: 10715264 requests 535762.42 r/s elapsed 20.00
