type: fadvise
filename: /mnt/raid/prefetch/prefetch-2048
I/O mode: BUFFERED
workload: RANDOM
duration: 20
queue size: 1
test mode: WARMUP
file size: 2147483648
file pages: 524288
processed 9153 requests 9152.99 r/s elapsed 1.00
elapsed 1.00 : warmup interval speed 9152.99 previous 0.00
processed 18454 requests 9226.73 r/s elapsed 2.00
elapsed 2.00 : warmup interval speed 9300.46 previous 9152.99
within 5% of the preceding interval, warmup terminating
TOTAL: 18454 requests 9226.73 r/s elapsed 2.00
