type: POSIX aio
filename: /mnt/raid/prefetch/prefetch-2048
I/O mode: BUFFERED
workload: SEQUENTIAL
duration: 20
threads: 8
queue size: 32
test mode: TEST
file size: 2147483648
file pages: 524288
start probability: 0.100
continue probability: 0.900
processed 329056 requests 329037.57 r/s elapsed 1.00
processed 659040 requests 329516.54 r/s elapsed 2.00
processed 989216 requests 329730.64 r/s elapsed 3.00
processed 1320736 requests 330179.05 r/s elapsed 4.00
processed 1650528 requests 330104.28 r/s elapsed 5.00
processed 1979808 requests 329965.14 r/s elapsed 6.00
processed 2309024 requests 329858.17 r/s elapsed 7.00
processed 2639008 requests 329872.62 r/s elapsed 8.00
processed 2969472 requests 329938.69 r/s elapsed 9.00
processed 3300128 requests 330009.73 r/s elapsed 10.00
processed 3630784 requests 330069.29 r/s elapsed 11.00
processed 3960128 requests 330008.55 r/s elapsed 12.00
processed 4289280 requests 329943.19 r/s elapsed 13.00
processed 4618496 requests 329891.09 r/s elapsed 14.00
processed 4947840 requests 329854.20 r/s elapsed 15.00
processed 5278112 requests 329880.93 r/s elapsed 16.00
processed 5608128 requests 329888.21 r/s elapsed 17.00
processed 5940480 requests 330025.73 r/s elapsed 18.00
processed 6272800 requests 330147.07 r/s elapsed 19.00
processed 6602880 requests 330142.99 r/s elapsed 20.00
TOTAL: 6602880 requests 330142.99 r/s elapsed 20.00
