type: POSIX aio
filename: /mnt/raid/prefetch/prefetch-2048
I/O mode: BUFFERED
workload: SEQUENTIAL
duration: 20
threads: 1
queue size: 1024
test mode: TEST
file size: 2147483648
file pages: 524288
start probability: 0.010
continue probability: 0.100
processed 10240 requests 10217.35 r/s elapsed 1.00
processed 21504 requests 10281.62 r/s elapsed 2.09
processed 31744 requests 10354.84 r/s elapsed 3.07
processed 41984 requests 10421.62 r/s elapsed 4.03
processed 53248 requests 10558.06 r/s elapsed 5.04
processed 64512 requests 10685.37 r/s elapsed 6.04
processed 75776 requests 10795.76 r/s elapsed 7.02
processed 88064 requests 10921.12 r/s elapsed 8.06
processed 99328 requests 11027.65 r/s elapsed 9.01
processed 112640 requests 11171.87 r/s elapsed 10.08
processed 124928 requests 11287.84 r/s elapsed 11.07
processed 137216 requests 11412.73 r/s elapsed 12.02
processed 150528 requests 11564.34 r/s elapsed 13.02
processed 164864 requests 11746.95 r/s elapsed 14.03
processed 179200 requests 11933.28 r/s elapsed 15.02
processed 194560 requests 12142.12 r/s elapsed 16.02
processed 210944 requests 12364.13 r/s elapsed 17.06
processed 227328 requests 12621.50 r/s elapsed 18.01
processed 245760 requests 12928.56 r/s elapsed 19.01
processed 268288 requests 13403.19 r/s elapsed 20.02
TOTAL: 268288 requests 13403.19 r/s elapsed 20.02
