type: POSIX aio
filename: /mnt/raid/prefetch/prefetch-2048
I/O mode: BUFFERED
workload: SEQUENTIAL
duration: 20
threads: 16
queue size: 128
test mode: WARMUP
file size: 2147483648
file pages: 524288
start probability: 0.100
continue probability: 0.100
processed 11008 requests 10884.55 r/s elapsed 1.01
elapsed 1.01 : warmup interval speed 10884.55 previous 0.00
processed 22144 requests 11027.36 r/s elapsed 2.01
elapsed 2.01 : warmup interval speed 11172.25 previous 10884.55
within 5% of the preceding interval, warmup terminating
TOTAL: 22144 requests 11027.36 r/s elapsed 2.01
