type: POSIX aio
filename: /mnt/raid/prefetch/prefetch-2048
I/O mode: BUFFERED
workload: SEQUENTIAL
duration: 20
threads: 32
queue size: 128
test mode: TEST
file size: 2147483648
file pages: 524288
start probability: 0.010
continue probability: 0.500
processed 304640 requests 304541.02 r/s elapsed 1.00
processed 615808 requests 307879.99 r/s elapsed 2.00
processed 929152 requests 309686.47 r/s elapsed 3.00
processed 1243776 requests 310915.94 r/s elapsed 4.00
processed 1559552 requests 311888.69 r/s elapsed 5.00
processed 1875072 requests 312492.78 r/s elapsed 6.00
processed 2192128 requests 313156.62 r/s elapsed 7.00
processed 2508032 requests 313489.19 r/s elapsed 8.00
processed 2824448 requests 313821.28 r/s elapsed 9.00
processed 3142784 requests 314276.61 r/s elapsed 10.00
processed 3462272 requests 314743.76 r/s elapsed 11.00
processed 3780224 requests 315018.64 r/s elapsed 12.00
processed 4098048 requests 315228.30 r/s elapsed 13.00
processed 4416000 requests 315426.61 r/s elapsed 14.00
processed 4735104 requests 315667.46 r/s elapsed 15.00
processed 5054464 requests 315903.19 r/s elapsed 16.00
processed 5372288 requests 316016.40 r/s elapsed 17.00
processed 5690112 requests 316113.12 r/s elapsed 18.00
processed 6009984 requests 316312.15 r/s elapsed 19.00
processed 6328576 requests 316423.77 r/s elapsed 20.00
TOTAL: 6328576 requests 316423.77 r/s elapsed 20.00
