type: POSIX aio
filename: /mnt/raid/prefetch/prefetch-2048
I/O mode: DIRECT
workload: SEQUENTIAL
duration: 20
threads: 8
queue size: 1024
test mode: TEST
file size: 2147483648
file pages: 524288
start probability: 0.010
continue probability: 0.500
processed 10240 requests 9316.85 r/s elapsed 1.10
processed 19456 requests 9331.78 r/s elapsed 2.08
processed 28672 requests 9335.50 r/s elapsed 3.07
processed 37888 requests 9318.24 r/s elapsed 4.07
processed 47104 requests 9285.13 r/s elapsed 5.07
processed 56320 requests 9306.42 r/s elapsed 6.05
processed 65536 requests 9319.20 r/s elapsed 7.03
processed 74752 requests 9324.25 r/s elapsed 8.02
processed 83968 requests 9319.24 r/s elapsed 9.01
processed 94208 requests 9327.77 r/s elapsed 10.10
processed 103424 requests 9327.36 r/s elapsed 11.09
processed 112640 requests 9327.77 r/s elapsed 12.08
processed 121856 requests 9326.89 r/s elapsed 13.07
processed 131072 requests 9333.58 r/s elapsed 14.04
processed 140288 requests 9339.52 r/s elapsed 15.02
processed 150528 requests 9346.45 r/s elapsed 16.11
processed 159744 requests 9341.79 r/s elapsed 17.10
processed 168960 requests 9342.84 r/s elapsed 18.08
processed 178176 requests 9346.43 r/s elapsed 19.06
processed 187392 requests 9339.59 r/s elapsed 20.06
TOTAL: 187392 requests 9339.59 r/s elapsed 20.06
