type: POSIX aio
filename: /mnt/raid/prefetch/prefetch-2048
I/O mode: BUFFERED
workload: RANDOM
duration: 20
threads: 1
queue size: 8
test mode: WARMUP
file size: 2147483648
file pages: 524288
processed 9192 requests 9184.06 r/s elapsed 1.00
elapsed 1.00 : warmup interval speed 9184.06 previous 0.00
processed 18616 requests 9307.38 r/s elapsed 2.00
elapsed 2.00 : warmup interval speed 9430.89 previous 9184.06
within 5% of the preceding interval, warmup terminating
TOTAL: 18616 requests 9307.38 r/s elapsed 2.00
