type: POSIX aio
filename: /mnt/raid/prefetch/prefetch-2048
I/O mode: BUFFERED
workload: SEQUENTIAL
duration: 20
threads: 8
queue size: 1024
test mode: TEST
file size: 2147483648
file pages: 524288
start probability: 0.010
continue probability: 0.100
processed 10240 requests 10149.61 r/s elapsed 1.01
processed 21504 requests 10307.92 r/s elapsed 2.09
processed 31744 requests 10458.06 r/s elapsed 3.04
processed 43008 requests 10535.80 r/s elapsed 4.08
processed 53248 requests 10633.61 r/s elapsed 5.01
processed 65536 requests 10771.46 r/s elapsed 6.08
processed 76800 requests 10863.33 r/s elapsed 7.07
processed 88064 requests 10952.42 r/s elapsed 8.04
processed 99328 requests 11028.49 r/s elapsed 9.01
processed 111616 requests 11141.02 r/s elapsed 10.02
processed 123904 requests 11243.29 r/s elapsed 11.02
processed 136192 requests 11348.40 r/s elapsed 12.00
processed 149504 requests 11458.80 r/s elapsed 13.05
processed 162816 requests 11611.39 r/s elapsed 14.02
processed 176128 requests 11739.95 r/s elapsed 15.00
processed 190464 requests 11896.95 r/s elapsed 16.01
processed 205824 requests 12075.91 r/s elapsed 17.04
processed 221184 requests 12253.47 r/s elapsed 18.05
processed 237568 requests 12482.95 r/s elapsed 19.03
processed 254976 requests 12734.92 r/s elapsed 20.02
TOTAL: 254976 requests 12734.92 r/s elapsed 20.02
