type: POSIX aio
filename: /mnt/raid/prefetch/prefetch-2048
I/O mode: BUFFERED
workload: RANDOM
duration: 20
threads: 8
queue size: 128
test mode: WARMUP
file size: 2147483648
file pages: 524288
processed 8960 requests 8955.87 r/s elapsed 1.00
elapsed 1.00 : warmup interval speed 8955.87 previous 0.00
processed 18176 requests 9072.49 r/s elapsed 2.00
elapsed 2.00 : warmup interval speed 9188.82 previous 8955.87
within 5% of the preceding interval, warmup terminating
TOTAL: 18176 requests 9072.49 r/s elapsed 2.00
