type: POSIX aio
filename: /mnt/raid/prefetch/prefetch-2048
I/O mode: BUFFERED
workload: SEQUENTIAL
duration: 20
threads: 8
queue size: 128
test mode: TEST
file size: 2147483648
file pages: 524288
start probability: 0.100
continue probability: 0.100
processed 25856 requests 25740.78 r/s elapsed 1.00
processed 39680 requests 19783.61 r/s elapsed 2.01
processed 50560 requests 16805.10 r/s elapsed 3.01
processed 61568 requests 15354.92 r/s elapsed 4.01
processed 104192 requests 20821.96 r/s elapsed 5.00
processed 125568 requests 20885.56 r/s elapsed 6.01
processed 252672 requests 36094.63 r/s elapsed 7.00
processed 536576 requests 67071.19 r/s elapsed 8.00
processed 833024 requests 92556.07 r/s elapsed 9.00
processed 1132928 requests 113288.48 r/s elapsed 10.00
processed 1433600 requests 130323.47 r/s elapsed 11.00
processed 1734272 requests 144518.96 r/s elapsed 12.00
processed 2037376 requests 156719.27 r/s elapsed 13.00
processed 2339968 requests 167139.94 r/s elapsed 14.00
processed 2644352 requests 176289.80 r/s elapsed 15.00
processed 2944768 requests 184045.23 r/s elapsed 16.00
processed 3249152 requests 191125.72 r/s elapsed 17.00
processed 3554048 requests 197444.31 r/s elapsed 18.00
processed 3859200 requests 203112.65 r/s elapsed 19.00
processed 4164480 requests 208222.72 r/s elapsed 20.00
TOTAL: 4164480 requests 208222.72 r/s elapsed 20.00
