type: POSIX aio
filename: /mnt/raid/prefetch/prefetch-2048
I/O mode: DIRECT
workload: SEQUENTIAL
duration: 20
threads: 8
queue size: 32
test mode: TEST
file size: 2147483648
file pages: 524288
start probability: 0.100
continue probability: 0.500
processed 9376 requests 9374.37 r/s elapsed 1.00
processed 18752 requests 9364.34 r/s elapsed 2.00
processed 28128 requests 9366.28 r/s elapsed 3.00
processed 37504 requests 9374.51 r/s elapsed 4.00
processed 46912 requests 9381.04 r/s elapsed 5.00
processed 56320 requests 9385.72 r/s elapsed 6.00
processed 65760 requests 9391.80 r/s elapsed 7.00
processed 75136 requests 9389.97 r/s elapsed 8.00
processed 84448 requests 9381.80 r/s elapsed 9.00
processed 93824 requests 9379.34 r/s elapsed 10.00
processed 103104 requests 9371.17 r/s elapsed 11.00
processed 112512 requests 9373.46 r/s elapsed 12.00
processed 121920 requests 9375.69 r/s elapsed 13.00
processed 131328 requests 9379.82 r/s elapsed 14.00
processed 140704 requests 9379.26 r/s elapsed 15.00
processed 150080 requests 9379.80 r/s elapsed 16.00
processed 159520 requests 9381.95 r/s elapsed 17.00
processed 168864 requests 9381.19 r/s elapsed 18.00
processed 178208 requests 9378.14 r/s elapsed 19.00
processed 187584 requests 9378.97 r/s elapsed 20.00
TOTAL: 187584 requests 9378.97 r/s elapsed 20.00
