type: POSIX aio
filename: /mnt/raid/prefetch/prefetch-2048
I/O mode: BUFFERED
workload: SEQUENTIAL
duration: 20
threads: 32
queue size: 128
test mode: TEST
file size: 2147483648
file pages: 524288
start probability: 0.100
continue probability: 0.500
processed 59776 requests 59523.20 r/s elapsed 1.00
processed 84608 requests 42174.23 r/s elapsed 2.01
processed 142976 requests 47654.17 r/s elapsed 3.00
processed 357760 requests 89432.76 r/s elapsed 4.00
processed 671744 requests 134347.43 r/s elapsed 5.00
processed 995200 requests 165862.19 r/s elapsed 6.00
processed 1323648 requests 189090.11 r/s elapsed 7.00
processed 1655168 requests 206892.09 r/s elapsed 8.00
processed 1987968 requests 220879.74 r/s elapsed 9.00
processed 2320000 requests 231992.76 r/s elapsed 10.00
processed 2651136 requests 241003.93 r/s elapsed 11.00
processed 2983680 requests 248633.35 r/s elapsed 12.00
processed 3315072 requests 255003.32 r/s elapsed 13.00
processed 3649152 requests 260647.22 r/s elapsed 14.00
processed 3982720 requests 265513.85 r/s elapsed 15.00
processed 4316160 requests 269753.95 r/s elapsed 16.00
processed 4650112 requests 273531.41 r/s elapsed 17.00
processed 4983040 requests 276831.23 r/s elapsed 18.00
processed 5317248 requests 279853.10 r/s elapsed 19.00
processed 5650816 requests 282539.23 r/s elapsed 20.00
TOTAL: 5650816 requests 282539.23 r/s elapsed 20.00
