type: POSIX aio
filename: /mnt/raid/prefetch/prefetch-2048
I/O mode: DIRECT
workload: SEQUENTIAL
duration: 20
threads: 8
queue size: 1024
test mode: TEST
file size: 2147483648
file pages: 524288
start probability: 0.010
continue probability: 0.900
processed 14336 requests 13444.42 r/s elapsed 1.07
processed 27648 requests 13403.67 r/s elapsed 2.06
processed 40960 requests 13425.99 r/s elapsed 3.05
processed 54272 requests 13425.06 r/s elapsed 4.04
processed 67584 requests 13444.69 r/s elapsed 5.03
processed 80896 requests 13442.86 r/s elapsed 6.02
processed 94208 requests 13456.30 r/s elapsed 7.00
processed 107520 requests 13434.26 r/s elapsed 8.00
processed 120832 requests 13410.42 r/s elapsed 9.01
processed 134144 requests 13396.11 r/s elapsed 10.01
processed 147456 requests 13352.23 r/s elapsed 11.04
processed 160768 requests 13357.47 r/s elapsed 12.04
processed 174080 requests 13363.67 r/s elapsed 13.03
processed 187392 requests 13361.43 r/s elapsed 14.02
processed 200704 requests 13346.31 r/s elapsed 15.04
processed 214016 requests 13349.71 r/s elapsed 16.03
processed 227328 requests 13360.94 r/s elapsed 17.01
processed 240640 requests 13359.34 r/s elapsed 18.01
processed 253952 requests 13351.05 r/s elapsed 19.02
processed 267264 requests 13344.54 r/s elapsed 20.03
TOTAL: 267264 requests 13344.54 r/s elapsed 20.03
