type: POSIX aio
filename: /mnt/raid/prefetch/prefetch-2048
I/O mode: BUFFERED
workload: SEQUENTIAL
duration: 20
threads: 16
queue size: 32
test mode: WARMUP
file size: 2147483648
file pages: 524288
start probability: 0.010
continue probability: 0.500
processed 10848 requests 10827.32 r/s elapsed 1.00
elapsed 1.00 : warmup interval speed 10827.32 previous 0.00
processed 22624 requests 11292.86 r/s elapsed 2.00
elapsed 2.00 : warmup interval speed 11758.61 previous 10827.32
processed 35040 requests 11672.44 r/s elapsed 3.00
elapsed 3.00 : warmup interval speed 12433.97 previous 11758.61
processed 48576 requests 12139.51 r/s elapsed 4.00
elapsed 4.00 : warmup interval speed 13542.28 previous 12433.97
processed 63072 requests 12612.93 r/s elapsed 5.00
elapsed 5.00 : warmup interval speed 14509.03 previous 13542.28
processed 79936 requests 13319.45 r/s elapsed 6.00
elapsed 6.00 : warmup interval speed 16849.41 previous 14509.03
processed 98336 requests 14046.28 r/s elapsed 7.00
elapsed 7.00 : warmup interval speed 18410.90 previous 16849.41
processed 120704 requests 15083.39 r/s elapsed 8.00
elapsed 8.00 : warmup interval speed 22332.56 previous 18410.90
processed 145952 requests 16216.58 r/s elapsed 9.00
elapsed 9.00 : warmup interval speed 25305.47 previous 22332.56
processed 186816 requests 18681.21 r/s elapsed 10.00
elapsed 10.00 : warmup interval speed 40862.53 previous 25305.47
processed 380544 requests 34594.78 r/s elapsed 11.00
elapsed 11.00 : warmup interval speed 193760.36 previous 40862.53
processed 682016 requests 56834.23 r/s elapsed 12.00
elapsed 12.00 : warmup interval speed 301456.32 previous 193760.36
processed 992256 requests 76327.19 r/s elapsed 13.00
elapsed 13.00 : warmup interval speed 310258.62 previous 301456.32
within 5% of the preceding interval, warmup terminating
TOTAL: 992256 requests 76327.19 r/s elapsed 13.00
