type: POSIX aio
filename: /mnt/raid/prefetch/prefetch-2048
I/O mode: BUFFERED
workload: SEQUENTIAL
duration: 20
threads: 32
queue size: 32
test mode: WARMUP
file size: 2147483648
file pages: 524288
start probability: 0.010
continue probability: 0.900
processed 18464 requests 18460.53 r/s elapsed 1.00
elapsed 1.00 : warmup interval speed 18460.53 previous 0.00
processed 36320 requests 18159.25 r/s elapsed 2.00
elapsed 2.00 : warmup interval speed 17857.88 previous 18460.53
within 5% of the preceding interval, warmup terminating
TOTAL: 36320 requests 18159.25 r/s elapsed 2.00
