type: POSIX aio
filename: /mnt/raid/prefetch/prefetch-2048
I/O mode: BUFFERED
workload: SEQUENTIAL
duration: 20
threads: 8
queue size: 128
test mode: WARMUP
file size: 2147483648
file pages: 524288
start probability: 0.010
continue probability: 0.900
processed 19200 requests 19041.95 r/s elapsed 1.01
elapsed 1.01 : warmup interval speed 19041.95 previous 0.00
processed 37120 requests 18541.98 r/s elapsed 2.00
elapsed 2.00 : warmup interval speed 18034.63 previous 19041.95
within 5% of the preceding interval, warmup terminating
TOTAL: 37120 requests 18541.98 r/s elapsed 2.00
