type: POSIX aio
filename: /mnt/raid/prefetch/prefetch-2048
I/O mode: DIRECT
workload: SEQUENTIAL
duration: 20
threads: 8
queue size: 128
test mode: TEST
file size: 2147483648
file pages: 524288
start probability: 0.010
continue probability: 0.900
processed 13184 requests 13082.69 r/s elapsed 1.01
processed 26368 requests 13160.88 r/s elapsed 2.00
processed 39168 requests 13042.24 r/s elapsed 3.00
processed 51968 requests 12991.49 r/s elapsed 4.00
processed 65152 requests 13013.67 r/s elapsed 5.01
processed 78336 requests 13047.18 r/s elapsed 6.00
processed 91264 requests 13025.96 r/s elapsed 7.01
processed 104192 requests 13019.20 r/s elapsed 8.00
processed 116992 requests 12996.48 r/s elapsed 9.00
processed 130176 requests 13015.97 r/s elapsed 10.00
processed 143616 requests 13045.61 r/s elapsed 11.01
processed 156800 requests 13057.40 r/s elapsed 12.01
processed 169600 requests 13042.27 r/s elapsed 13.00
processed 182400 requests 13024.81 r/s elapsed 14.00
processed 195328 requests 13016.88 r/s elapsed 15.01
processed 208512 requests 13029.19 r/s elapsed 16.00
processed 221568 requests 13033.41 r/s elapsed 17.00
processed 235264 requests 13063.45 r/s elapsed 18.01
processed 247808 requests 13038.86 r/s elapsed 19.01
processed 260352 requests 13011.85 r/s elapsed 20.01
TOTAL: 260352 requests 13011.85 r/s elapsed 20.01
