type: POSIX aio
filename: /mnt/raid/prefetch/prefetch-2048
I/O mode: BUFFERED
workload: RANDOM
duration: 20
threads: 8
queue size: 128
test mode: TEST
file size: 2147483648
file pages: 524288
processed 9728 requests 9649.33 r/s elapsed 1.01
processed 19456 requests 9700.34 r/s elapsed 2.01
processed 29440 requests 9807.86 r/s elapsed 3.00
processed 39680 requests 9893.05 r/s elapsed 4.01
processed 50048 requests 9987.91 r/s elapsed 5.01
processed 60544 requests 10079.69 r/s elapsed 6.01
processed 71296 requests 10171.09 r/s elapsed 7.01
processed 81792 requests 10223.52 r/s elapsed 8.00
processed 92928 requests 10317.88 r/s elapsed 9.01
processed 104320 requests 10425.10 r/s elapsed 10.01
processed 115968 requests 10540.45 r/s elapsed 11.00
processed 127872 requests 10647.66 r/s elapsed 12.01
processed 139904 requests 10760.15 r/s elapsed 13.00
processed 152320 requests 10879.09 r/s elapsed 14.00
processed 164992 requests 10992.96 r/s elapsed 15.01
processed 178176 requests 11131.35 r/s elapsed 16.01
processed 191616 requests 11270.37 r/s elapsed 17.00
processed 205568 requests 11414.40 r/s elapsed 18.01
processed 219904 requests 11570.39 r/s elapsed 19.01
processed 235008 requests 11747.42 r/s elapsed 20.01
TOTAL: 235008 requests 11747.42 r/s elapsed 20.01
