type: POSIX aio
filename: /mnt/raid/prefetch/prefetch-2048
I/O mode: BUFFERED
workload: SEQUENTIAL
duration: 20
threads: 1
queue size: 1
test mode: WARMUP
file size: 2147483648
file pages: 524288
start probability: 0.010
continue probability: 0.100
processed 8997 requests 8996.89 r/s elapsed 1.00
elapsed 1.00 : warmup interval speed 8996.89 previous 0.00
processed 18084 requests 9041.79 r/s elapsed 2.00
elapsed 2.00 : warmup interval speed 9086.68 previous 8996.89
within 5% of the preceding interval, warmup terminating
TOTAL: 18084 requests 9041.79 r/s elapsed 2.00
