type: POSIX aio
filename: /mnt/raid/prefetch/prefetch-2048
I/O mode: BUFFERED
workload: SEQUENTIAL
duration: 20
threads: 8
queue size: 32
test mode: TEST
file size: 2147483648
file pages: 524288
start probability: 0.100
continue probability: 0.500
processed 81472 requests 81407.61 r/s elapsed 1.00
processed 102016 requests 50960.78 r/s elapsed 2.00
processed 316640 requests 105544.73 r/s elapsed 3.00
processed 628192 requests 157046.47 r/s elapsed 4.00
processed 950688 requests 190136.61 r/s elapsed 5.00
processed 1276800 requests 212799.18 r/s elapsed 6.00
processed 1604800 requests 229254.59 r/s elapsed 7.00
processed 1935232 requests 241901.82 r/s elapsed 8.00
processed 2266432 requests 251824.38 r/s elapsed 9.00
processed 2597248 requests 259724.46 r/s elapsed 10.00
processed 2927904 requests 266172.34 r/s elapsed 11.00
processed 3258656 requests 271553.42 r/s elapsed 12.00
processed 3590048 requests 276156.65 r/s elapsed 13.00
processed 3921792 requests 280126.58 r/s elapsed 14.00
processed 4252896 requests 283524.66 r/s elapsed 15.00
processed 4584000 requests 286498.87 r/s elapsed 16.00
processed 4913760 requests 289043.63 r/s elapsed 17.00
processed 5245248 requests 291402.38 r/s elapsed 18.00
processed 5576864 requests 293518.60 r/s elapsed 19.00
processed 5908224 requests 295410.90 r/s elapsed 20.00
TOTAL: 5908224 requests 295410.90 r/s elapsed 20.00
