type: POSIX aio
filename: /mnt/raid/prefetch/prefetch-2048
I/O mode: BUFFERED
workload: SEQUENTIAL
duration: 20
threads: 32
queue size: 32
test mode: TEST
file size: 2147483648
file pages: 524288
start probability: 0.010
continue probability: 0.100
processed 10400 requests 10393.49 r/s elapsed 1.00
processed 20992 requests 10484.19 r/s elapsed 2.00
processed 31872 requests 10623.38 r/s elapsed 3.00
processed 42912 requests 10723.97 r/s elapsed 4.00
processed 54016 requests 10798.46 r/s elapsed 5.00
processed 65312 requests 10884.88 r/s elapsed 6.00
processed 76736 requests 10958.62 r/s elapsed 7.00
processed 88352 requests 11040.84 r/s elapsed 8.00
processed 100256 requests 11139.16 r/s elapsed 9.00
processed 112320 requests 11231.63 r/s elapsed 10.00
processed 124736 requests 11336.40 r/s elapsed 11.00
processed 137408 requests 11449.37 r/s elapsed 12.00
processed 150560 requests 11580.76 r/s elapsed 13.00
processed 163936 requests 11708.10 r/s elapsed 14.00
processed 177888 requests 11858.33 r/s elapsed 15.00
processed 192544 requests 12032.90 r/s elapsed 16.00
processed 208320 requests 12253.43 r/s elapsed 17.00
processed 225216 requests 12510.94 r/s elapsed 18.00
processed 243680 requests 12823.98 r/s elapsed 19.00
processed 263680 requests 13183.79 r/s elapsed 20.00
TOTAL: 263680 requests 13183.79 r/s elapsed 20.00
