type: pthread aio
filename: /mnt/raid/prefetch/prefetch-2048
I/O mode: BUFFERED
workload: SEQUENTIAL
duration: 20
threads: 8
queue size: 1024
test mode: TEST
file size: 2147483648
file pages: 524288
start probability: 0.100
continue probability: 0.500
processed 1076224 requests 1075029.64 r/s elapsed 1.00
processed 2150400 requests 1074814.68 r/s elapsed 2.00
processed 3229696 requests 1076378.76 r/s elapsed 3.00
processed 4312064 requests 1077898.51 r/s elapsed 4.00
processed 5390336 requests 1077309.85 r/s elapsed 5.00
processed 6464512 requests 1076164.93 r/s elapsed 6.01
processed 7534592 requests 1076257.74 r/s elapsed 7.00
processed 8614912 requests 1076772.61 r/s elapsed 8.00
processed 9691136 requests 1076697.18 r/s elapsed 9.00
processed 10767360 requests 1076393.60 r/s elapsed 10.00
processed 11846656 requests 1076915.47 r/s elapsed 11.00
processed 12923904 requests 1076649.36 r/s elapsed 12.00
processed 13997056 requests 1076637.57 r/s elapsed 13.00
processed 15081472 requests 1077204.30 r/s elapsed 14.00
processed 16163840 requests 1077536.89 r/s elapsed 15.00
processed 17255424 requests 1078428.95 r/s elapsed 16.00
processed 18338816 requests 1078719.55 r/s elapsed 17.00
processed 19417088 requests 1078669.64 r/s elapsed 18.00
processed 20498432 requests 1078829.41 r/s elapsed 19.00
processed 21576704 requests 1078766.16 r/s elapsed 20.00
TOTAL: 21576704 requests 1078766.16 r/s elapsed 20.00
