type: pthread fadvise
filename: /mnt/raid/prefetch/prefetch-2048
I/O mode: BUFFERED
workload: SEQUENTIAL
duration: 20
threads: 32
queue size: 32
test mode: WARMUP
file size: 2147483648
file pages: 524288
start probability: 0.010
continue probability: 0.500
processed 113184 requests 113179.59 r/s elapsed 1.00
elapsed 1.00 : warmup interval speed 113179.59 previous 0.00
processed 233312 requests 116652.97 r/s elapsed 2.00
elapsed 2.00 : warmup interval speed 120126.44 previous 113179.59
processed 366208 requests 122063.47 r/s elapsed 3.00
elapsed 3.00 : warmup interval speed 132883.77 previous 120126.44
processed 508096 requests 127018.32 r/s elapsed 4.00
elapsed 4.00 : warmup interval speed 141883.03 previous 132883.77
processed 660352 requests 132068.60 r/s elapsed 5.00
elapsed 5.00 : warmup interval speed 152272.90 previous 141883.03
processed 820320 requests 136716.29 r/s elapsed 6.00
elapsed 6.00 : warmup interval speed 159952.80 previous 152272.90
processed 988512 requests 141215.54 r/s elapsed 7.00
elapsed 7.00 : warmup interval speed 168215.55 previous 159952.80
processed 1164576 requests 145570.14 r/s elapsed 8.00
elapsed 8.00 : warmup interval speed 176050.09 previous 168215.55
within 5% of the preceding interval, warmup terminating
TOTAL: 1164576 requests 145570.14 r/s elapsed 8.00
