type: pthread aio
filename: /mnt/raid/prefetch/prefetch-2048
I/O mode: DIRECT
workload: RANDOM
duration: 20
threads: 1
queue size: 128
test mode: TEST
file size: 2147483648
file pages: 524288
processed 8576 requests 8534.88 r/s elapsed 1.00
processed 17152 requests 8520.35 r/s elapsed 2.01
processed 25856 requests 8611.60 r/s elapsed 3.00
processed 34688 requests 8645.42 r/s elapsed 4.01
processed 43392 requests 8667.73 r/s elapsed 5.01
processed 52352 requests 8715.16 r/s elapsed 6.01
processed 61440 requests 8767.89 r/s elapsed 7.01
processed 70528 requests 8807.48 r/s elapsed 8.01
processed 79616 requests 8839.99 r/s elapsed 9.01
processed 88704 requests 8861.91 r/s elapsed 10.01
processed 97792 requests 8880.92 r/s elapsed 11.01
processed 106880 requests 8898.76 r/s elapsed 12.01
processed 115968 requests 8913.99 r/s elapsed 13.01
processed 125056 requests 8928.52 r/s elapsed 14.01
processed 134144 requests 8940.87 r/s elapsed 15.00
processed 143232 requests 8946.00 r/s elapsed 16.01
processed 152320 requests 8955.37 r/s elapsed 17.01
processed 161408 requests 8964.24 r/s elapsed 18.01
processed 170496 requests 8972.79 r/s elapsed 19.00
processed 179712 requests 8982.14 r/s elapsed 20.01
TOTAL: 179712 requests 8982.14 r/s elapsed 20.01
