type: pthread aio
filename: /mnt/raid/prefetch/prefetch-2048
I/O mode: BUFFERED
workload: SEQUENTIAL
duration: 20
threads: 32
queue size: 1024
test mode: WARMUP
file size: 2147483648
file pages: 524288
start probability: 0.100
continue probability: 0.100
processed 128000 requests 123700.06 r/s elapsed 1.03
elapsed 1.03 : warmup interval speed 123700.06 previous 0.00
processed 247808 requests 109508.75 r/s elapsed 2.26
elapsed 2.26 : warmup interval speed 97552.00 previous 123700.06
within 5% of the preceding interval, warmup terminating
TOTAL: 247808 requests 109508.75 r/s elapsed 2.26
