type: pthread aio
filename: /mnt/raid/prefetch/prefetch-2048
I/O mode: BUFFERED
workload: SEQUENTIAL
duration: 20
threads: 8
queue size: 1024
test mode: TEST
file size: 2147483648
file pages: 524288
start probability: 0.100
continue probability: 0.100
processed 973824 requests 971916.13 r/s elapsed 1.00
processed 1944576 requests 968617.42 r/s elapsed 2.01
processed 2910208 requests 969699.88 r/s elapsed 3.00
processed 3879936 requests 969961.45 r/s elapsed 4.00
processed 4850688 requests 968974.06 r/s elapsed 5.01
processed 5816320 requests 969313.16 r/s elapsed 6.00
processed 6788096 requests 969688.52 r/s elapsed 7.00
processed 7758848 requests 969810.90 r/s elapsed 8.00
processed 8728576 requests 969646.77 r/s elapsed 9.00
processed 9697280 requests 969192.13 r/s elapsed 10.01
processed 10663936 requests 969416.56 r/s elapsed 11.00
processed 11633664 requests 969347.68 r/s elapsed 12.00
processed 12602368 requests 969221.69 r/s elapsed 13.00
processed 13570048 requests 969216.17 r/s elapsed 14.00
processed 14538752 requests 969164.33 r/s elapsed 15.00
processed 15507456 requests 968996.89 r/s elapsed 16.00
processed 16474112 requests 969042.27 r/s elapsed 17.00
processed 17448960 requests 969368.46 r/s elapsed 18.00
processed 18419712 requests 969449.70 r/s elapsed 19.00
processed 19389440 requests 969451.98 r/s elapsed 20.00
TOTAL: 19389440 requests 969451.98 r/s elapsed 20.00
