type: pthread aio
filename: /mnt/raid/prefetch/prefetch-2048
I/O mode: BUFFERED
workload: SEQUENTIAL
duration: 20
threads: 8
queue size: 1024
test mode: TEST
file size: 2147483648
file pages: 524288
start probability: 0.100
continue probability: 0.900
processed 1073152 requests 1072415.25 r/s elapsed 1.00
processed 2151424 requests 1075213.64 r/s elapsed 2.00
processed 3226624 requests 1072165.44 r/s elapsed 3.01
processed 4289536 requests 1071304.66 r/s elapsed 4.00
processed 5356544 requests 1069732.44 r/s elapsed 5.01
processed 6424576 requests 1070721.80 r/s elapsed 6.00
processed 7495680 requests 1070124.71 r/s elapsed 7.00
processed 8562688 requests 1070221.09 r/s elapsed 8.00
processed 9632768 requests 1070100.67 r/s elapsed 9.00
processed 10701824 requests 1070171.38 r/s elapsed 10.00
processed 11772928 requests 1070243.03 r/s elapsed 11.00
processed 12843008 requests 1069751.18 r/s elapsed 12.01
processed 13906944 requests 1069532.01 r/s elapsed 13.00
processed 14980096 requests 1069936.70 r/s elapsed 14.00
processed 16055296 requests 1070312.61 r/s elapsed 15.00
processed 17130496 requests 1070640.01 r/s elapsed 16.00
processed 18201600 requests 1070376.48 r/s elapsed 17.00
processed 19272704 requests 1070658.67 r/s elapsed 18.00
processed 20342784 requests 1070535.14 r/s elapsed 19.00
processed 21410816 requests 1070531.33 r/s elapsed 20.00
TOTAL: 21410816 requests 1070531.33 r/s elapsed 20.00
