type: pthread aio
filename: /mnt/raid/prefetch/prefetch-2048
I/O mode: DIRECT
workload: SEQUENTIAL
duration: 20
threads: 8
queue size: 128
test mode: TEST
file size: 2147483648
file pages: 524288
start probability: 0.100
continue probability: 0.500
processed 63488 requests 63120.39 r/s elapsed 1.01
processed 126336 requests 62884.39 r/s elapsed 2.01
processed 188800 requests 62893.27 r/s elapsed 3.00
processed 251776 requests 62918.75 r/s elapsed 4.00
processed 314624 requests 62807.86 r/s elapsed 5.01
processed 377088 requests 62832.27 r/s elapsed 6.00
processed 439936 requests 62789.38 r/s elapsed 7.01
processed 502400 requests 62727.55 r/s elapsed 8.01
processed 564608 requests 62732.42 r/s elapsed 9.00
processed 627328 requests 62713.63 r/s elapsed 10.00
processed 690176 requests 62738.66 r/s elapsed 11.00
processed 753024 requests 62746.59 r/s elapsed 12.00
processed 816256 requests 62782.59 r/s elapsed 13.00
processed 879872 requests 62842.10 r/s elapsed 14.00
processed 943104 requests 62870.42 r/s elapsed 15.00
processed 1006336 requests 62892.82 r/s elapsed 16.00
processed 1069184 requests 62890.73 r/s elapsed 17.00
processed 1132160 requests 62885.38 r/s elapsed 18.00
processed 1195136 requests 62899.19 r/s elapsed 19.00
processed 1258112 requests 62903.30 r/s elapsed 20.00
TOTAL: 1258112 requests 62903.30 r/s elapsed 20.00
