type: pthread aio
filename: /mnt/raid/prefetch/prefetch-2048
I/O mode: BUFFERED
workload: SEQUENTIAL
duration: 20
threads: 1
queue size: 128
test mode: TEST
file size: 2147483648
file pages: 524288
start probability: 0.100
continue probability: 0.500
processed 64000 requests 59246.92 r/s elapsed 1.08
processed 118528 requests 39694.28 r/s elapsed 2.99
processed 125824 requests 41941.17 r/s elapsed 3.00
processed 476160 requests 119036.96 r/s elapsed 4.00
processed 1134208 requests 226831.53 r/s elapsed 5.00
processed 1830272 requests 305037.76 r/s elapsed 6.00
processed 2531200 requests 361596.38 r/s elapsed 7.00
processed 3232000 requests 403989.45 r/s elapsed 8.00
processed 3931392 requests 436810.75 r/s elapsed 9.00
processed 4633088 requests 463301.67 r/s elapsed 10.00
processed 5336320 requests 485112.68 r/s elapsed 11.00
processed 6038656 requests 503217.85 r/s elapsed 12.00
processed 6741760 requests 518592.38 r/s elapsed 13.00
processed 7445248 requests 531796.52 r/s elapsed 14.00
processed 8146944 requests 543124.02 r/s elapsed 15.00
processed 8849024 requests 553058.95 r/s elapsed 16.00
processed 9549952 requests 561757.39 r/s elapsed 17.00
processed 10250112 requests 569445.29 r/s elapsed 18.00
processed 10949376 requests 576279.16 r/s elapsed 19.00
processed 11650688 requests 582531.95 r/s elapsed 20.00
TOTAL: 11650688 requests 582531.95 r/s elapsed 20.00
