type: pthread aio
filename: /mnt/raid/prefetch/prefetch-2048
I/O mode: BUFFERED
workload: SEQUENTIAL
duration: 20
threads: 8
queue size: 128
test mode: TEST
file size: 2147483648
file pages: 524288
start probability: 0.010
continue probability: 0.500
processed 629888 requests 629864.70 r/s elapsed 1.00
processed 1313152 requests 656523.15 r/s elapsed 2.00
processed 1996800 requests 665584.25 r/s elapsed 3.00
processed 2672000 requests 667998.00 r/s elapsed 4.00
processed 3352704 requests 670520.28 r/s elapsed 5.00
processed 4036480 requests 672703.61 r/s elapsed 6.00
processed 4717440 requests 673897.18 r/s elapsed 7.00
processed 5396224 requests 674509.96 r/s elapsed 8.00
processed 6076928 requests 675186.91 r/s elapsed 9.00
processed 6755840 requests 675580.69 r/s elapsed 10.00
processed 7441664 requests 676507.04 r/s elapsed 11.00
processed 8124928 requests 677074.40 r/s elapsed 12.00
processed 8812288 requests 677851.99 r/s elapsed 13.00
processed 9490048 requests 676615.70 r/s elapsed 14.03
processed 10149248 requests 676558.48 r/s elapsed 15.00
processed 10828160 requests 676745.41 r/s elapsed 16.00
processed 11509888 requests 677036.46 r/s elapsed 17.00
processed 12192000 requests 677327.61 r/s elapsed 18.00
processed 12870272 requests 677375.96 r/s elapsed 19.00
processed 13553664 requests 677680.69 r/s elapsed 20.00
TOTAL: 13553664 requests 677680.69 r/s elapsed 20.00
