type: pthread fadvise
filename: /mnt/raid/prefetch/prefetch-2048
I/O mode: BUFFERED
workload: RANDOM
duration: 20
threads: 1
queue size: 128
test mode: WARMUP
file size: 2147483648
file pages: 524288
processed 173440 requests 173439.83 r/s elapsed 1.00
elapsed 1.00 : warmup interval speed 173439.83 previous 0.00
processed 388224 requests 194057.57 r/s elapsed 2.00
elapsed 2.00 : warmup interval speed 214663.79 previous 173439.83
processed 654848 requests 218259.24 r/s elapsed 3.00
elapsed 3.00 : warmup interval speed 266687.74 previous 214663.79
processed 1021056 requests 255263.62 r/s elapsed 4.00
elapsed 4.00 : warmup interval speed 366323.76 previous 266687.74
processed 1502208 requests 300428.98 r/s elapsed 5.00
elapsed 5.00 : warmup interval speed 481053.87 previous 366323.76
processed 2081152 requests 346850.28 r/s elapsed 6.00
elapsed 6.00 : warmup interval speed 578981.63 previous 481053.87
processed 2775680 requests 396521.35 r/s elapsed 7.00
elapsed 7.00 : warmup interval speed 694575.23 previous 578981.63
processed 3529856 requests 441223.84 r/s elapsed 8.00
elapsed 8.00 : warmup interval speed 754122.46 previous 694575.23
processed 4284032 requests 475999.85 r/s elapsed 9.00
elapsed 9.00 : warmup interval speed 754234.83 previous 754122.46
within 5% of the preceding interval, warmup terminating
TOTAL: 4284032 requests 475999.85 r/s elapsed 9.00
