type: pthread aio
filename: /mnt/raid/prefetch/prefetch-2048
I/O mode: DIRECT
workload: SEQUENTIAL
duration: 20
threads: 8
queue size: 1024
test mode: TEST
file size: 2147483648
file pages: 524288
start probability: 0.100
continue probability: 0.100
processed 67584 requests 66978.65 r/s elapsed 1.01
processed 135168 requests 67243.41 r/s elapsed 2.01
processed 202752 requests 67365.76 r/s elapsed 3.01
processed 270336 requests 67409.19 r/s elapsed 4.01
processed 337920 requests 67470.88 r/s elapsed 5.01
processed 405504 requests 67549.67 r/s elapsed 6.00
processed 473088 requests 67579.92 r/s elapsed 7.00
processed 540672 requests 67565.10 r/s elapsed 8.00
processed 608256 requests 67564.08 r/s elapsed 9.00
processed 675840 requests 67508.14 r/s elapsed 10.01
processed 743424 requests 67440.17 r/s elapsed 11.02
processed 809984 requests 67409.27 r/s elapsed 12.02
processed 876544 requests 67389.91 r/s elapsed 13.01
processed 944128 requests 67363.10 r/s elapsed 14.02
processed 1010688 requests 67321.74 r/s elapsed 15.01
processed 1077248 requests 67320.74 r/s elapsed 16.00
processed 1144832 requests 67298.36 r/s elapsed 17.01
processed 1211392 requests 67268.60 r/s elapsed 18.01
processed 1278976 requests 67272.31 r/s elapsed 19.01
processed 1346560 requests 67280.97 r/s elapsed 20.01
TOTAL: 1346560 requests 67280.97 r/s elapsed 20.01
