type: pthread aio
filename: /mnt/raid/prefetch/prefetch-2048
I/O mode: BUFFERED
workload: RANDOM
duration: 20
threads: 8
queue size: 8
test mode: TEST
file size: 2147483648
file pages: 524288
processed 44424 requests 44417.03 r/s elapsed 1.00
processed 88840 requests 44288.53 r/s elapsed 2.01
processed 132872 requests 44077.74 r/s elapsed 3.01
processed 176312 requests 43901.00 r/s elapsed 4.02
processed 219512 requests 43660.13 r/s elapsed 5.03
processed 262744 requests 43783.01 r/s elapsed 6.00
processed 359024 requests 51288.10 r/s elapsed 7.00
processed 717944 requests 89742.56 r/s elapsed 8.00
processed 1125312 requests 125034.50 r/s elapsed 9.00
processed 1556560 requests 155655.94 r/s elapsed 10.00
processed 2000824 requests 181893.02 r/s elapsed 11.00
processed 2449496 requests 204124.56 r/s elapsed 12.00
processed 2899336 requests 223025.78 r/s elapsed 13.00
processed 3353888 requests 239563.36 r/s elapsed 14.00
processed 3809024 requests 253934.85 r/s elapsed 15.00
processed 4262168 requests 266385.35 r/s elapsed 16.00
processed 4717640 requests 277508.06 r/s elapsed 17.00
processed 5172936 requests 287385.13 r/s elapsed 18.00
processed 5628464 requests 296234.81 r/s elapsed 19.00
processed 6084104 requests 304205.08 r/s elapsed 20.00
TOTAL: 6084104 requests 304205.08 r/s elapsed 20.00
