type: pthread aio
filename: /mnt/raid/prefetch/prefetch-2048
I/O mode: BUFFERED
workload: SEQUENTIAL
duration: 20
threads: 8
queue size: 128
test mode: TEST
file size: 2147483648
file pages: 524288
start probability: 0.100
continue probability: 0.500
processed 202880 requests 202855.45 r/s elapsed 1.00
processed 1138048 requests 569016.03 r/s elapsed 2.00
processed 2168448 requests 722802.75 r/s elapsed 3.00
processed 3221120 requests 805274.36 r/s elapsed 4.00
processed 4280576 requests 856103.56 r/s elapsed 5.00
processed 5341440 requests 890226.79 r/s elapsed 6.00
processed 6402688 requests 914656.91 r/s elapsed 7.00
processed 7456512 requests 932025.90 r/s elapsed 8.00
processed 8517632 requests 946390.52 r/s elapsed 9.00
processed 9579136 requests 957902.01 r/s elapsed 10.00
processed 10640640 requests 967329.59 r/s elapsed 11.00
processed 11702016 requests 975164.18 r/s elapsed 12.00
processed 12763776 requests 981820.77 r/s elapsed 13.00
processed 13825792 requests 987554.53 r/s elapsed 14.00
processed 14886144 requests 992405.23 r/s elapsed 15.00
processed 15947392 requests 996708.51 r/s elapsed 16.00
processed 17009408 requests 1000548.23 r/s elapsed 17.00
processed 18051328 requests 1002836.29 r/s elapsed 18.00
processed 19112576 requests 1005912.93 r/s elapsed 19.00
processed 20174208 requests 1008689.22 r/s elapsed 20.00
TOTAL: 20174208 requests 1008689.22 r/s elapsed 20.00
