type: pthread aio
filename: /mnt/raid/prefetch/prefetch-2048
I/O mode: DIRECT
workload: SEQUENTIAL
duration: 20
threads: 8
queue size: 8
test mode: TEST
file size: 2147483648
file pages: 524288
start probability: 0.010
continue probability: 0.500
processed 36752 requests 36743.70 r/s elapsed 1.00
processed 73960 requests 36972.68 r/s elapsed 2.00
processed 111232 requests 37074.07 r/s elapsed 3.00
processed 148296 requests 37060.02 r/s elapsed 4.00
processed 185368 requests 37072.63 r/s elapsed 5.00
processed 222560 requests 37091.66 r/s elapsed 6.00
processed 259648 requests 37003.07 r/s elapsed 7.02
processed 296024 requests 36948.16 r/s elapsed 8.01
processed 332536 requests 36899.79 r/s elapsed 9.01
processed 369000 requests 36884.76 r/s elapsed 10.00
processed 405832 requests 36893.33 r/s elapsed 11.00
processed 442792 requests 36898.83 r/s elapsed 12.00
processed 479688 requests 36883.67 r/s elapsed 13.01
processed 516608 requests 36900.51 r/s elapsed 14.00
processed 553520 requests 36901.29 r/s elapsed 15.00
processed 590480 requests 36904.20 r/s elapsed 16.00
processed 627376 requests 36892.31 r/s elapsed 17.01
processed 664064 requests 36882.76 r/s elapsed 18.00
processed 700960 requests 36892.35 r/s elapsed 19.00
processed 738144 requests 36906.97 r/s elapsed 20.00
TOTAL: 738144 requests 36906.97 r/s elapsed 20.00
