type: pthread aio
filename: /mnt/raid/prefetch/prefetch-2048
I/O mode: DIRECT
workload: SEQUENTIAL
duration: 20
threads: 16
queue size: 32
test mode: TEST
file size: 2147483648
file pages: 524288
start probability: 0.100
continue probability: 0.100
processed 70048 requests 70034.62 r/s elapsed 1.00
processed 141184 requests 70573.93 r/s elapsed 2.00
processed 212224 requests 70738.74 r/s elapsed 3.00
processed 284032 requests 71000.81 r/s elapsed 4.00
processed 355168 requests 71028.00 r/s elapsed 5.00
processed 426592 requests 71098.31 r/s elapsed 6.00
processed 497696 requests 70991.60 r/s elapsed 7.01
processed 568192 requests 71023.29 r/s elapsed 8.00
processed 639232 requests 71008.12 r/s elapsed 9.00
processed 710112 requests 70430.73 r/s elapsed 10.08
processed 774752 requests 70101.04 r/s elapsed 11.05
processed 841216 requests 69780.44 r/s elapsed 12.06
processed 907168 requests 69562.49 r/s elapsed 13.04
processed 973888 requests 69404.72 r/s elapsed 14.03
processed 1041088 requests 69228.38 r/s elapsed 15.04
processed 1107680 requests 69063.94 r/s elapsed 16.04
processed 1174112 requests 68874.89 r/s elapsed 17.05
processed 1239776 requests 68791.74 r/s elapsed 18.02
processed 1307072 requests 68671.67 r/s elapsed 19.03
processed 1373440 requests 68584.80 r/s elapsed 20.03
TOTAL: 1373440 requests 68584.80 r/s elapsed 20.03
