type: pthread aio
filename: /mnt/raid/prefetch/prefetch-2048
I/O mode: BUFFERED
workload: SEQUENTIAL
duration: 20
threads: 32
queue size: 32
test mode: TEST
file size: 2147483648
file pages: 524288
start probability: 0.010
continue probability: 0.500
processed 59424 requests 59274.98 r/s elapsed 1.00
processed 214400 requests 107200.00 r/s elapsed 2.00
processed 650880 requests 216958.19 r/s elapsed 3.00
processed 1111392 requests 277847.72 r/s elapsed 4.00
processed 1585920 requests 317182.16 r/s elapsed 5.00
processed 2069792 requests 344964.36 r/s elapsed 6.00
processed 2557824 requests 365401.08 r/s elapsed 7.00
processed 3047136 requests 380889.48 r/s elapsed 8.00
processed 3539168 requests 393240.06 r/s elapsed 9.00
processed 4033088 requests 403306.30 r/s elapsed 10.00
processed 4525952 requests 411449.96 r/s elapsed 11.00
processed 5019232 requests 418269.02 r/s elapsed 12.00
processed 5513216 requests 424093.47 r/s elapsed 13.00
processed 6007168 requests 429081.47 r/s elapsed 14.00
processed 6500992 requests 433397.62 r/s elapsed 15.00
processed 6994688 requests 437167.40 r/s elapsed 16.00
processed 7488288 requests 440485.85 r/s elapsed 17.00
processed 7980800 requests 443376.89 r/s elapsed 18.00
processed 8474080 requests 446002.85 r/s elapsed 19.00
processed 8967104 requests 448353.88 r/s elapsed 20.00
TOTAL: 8967104 requests 448353.88 r/s elapsed 20.00
