type: pthread aio
filename: /mnt/raid/prefetch/prefetch-2048
I/O mode: BUFFERED
workload: SEQUENTIAL
duration: 20
threads: 1
queue size: 8
test mode: TEST
file size: 2147483648
file pages: 524288
start probability: 0.010
continue probability: 0.900
processed 45176 requests 35919.56 r/s elapsed 1.26
processed 97000 requests 48152.67 r/s elapsed 2.01
processed 387552 requests 129183.74 r/s elapsed 3.00
processed 882608 requests 220652.00 r/s elapsed 4.00
processed 1391208 requests 278241.54 r/s elapsed 5.00
processed 1909872 requests 318311.84 r/s elapsed 6.00
processed 2431304 requests 347328.50 r/s elapsed 7.00
processed 2954168 requests 369270.95 r/s elapsed 8.00
processed 3476272 requests 386252.02 r/s elapsed 9.00
processed 3997480 requests 399747.72 r/s elapsed 10.00
processed 4518984 requests 410816.32 r/s elapsed 11.00
processed 5042696 requests 420224.63 r/s elapsed 12.00
processed 5565480 requests 428113.65 r/s elapsed 13.00
processed 6089080 requests 434933.94 r/s elapsed 14.00
processed 6611624 requests 440774.55 r/s elapsed 15.00
processed 7135576 requests 445973.47 r/s elapsed 16.00
processed 7659848 requests 450579.16 r/s elapsed 17.00
processed 8184200 requests 454677.70 r/s elapsed 18.00
processed 8707688 requests 458299.37 r/s elapsed 19.00
processed 9230728 requests 461536.22 r/s elapsed 20.00
TOTAL: 9230728 requests 461536.22 r/s elapsed 20.00
