type: pthread fadvise
filename: /mnt/raid/prefetch/prefetch-2048
I/O mode: BUFFERED
workload: SEQUENTIAL
duration: 20
threads: 16
queue size: 1024
test mode: TEST
file size: 2147483648
file pages: 524288
start probability: 0.010
continue probability: 0.500
processed 711680 requests 710596.34 r/s elapsed 1.00
processed 1425408 requests 712487.76 r/s elapsed 2.00
processed 2142208 requests 713960.57 r/s elapsed 3.00
processed 2860032 requests 714969.57 r/s elapsed 4.00
processed 3580928 requests 716137.91 r/s elapsed 5.00
processed 4300800 requests 716702.05 r/s elapsed 6.00
processed 5020672 requests 717231.17 r/s elapsed 7.00
processed 5742592 requests 717702.26 r/s elapsed 8.00
processed 6460416 requests 717782.69 r/s elapsed 9.00
processed 7179264 requests 717923.96 r/s elapsed 10.00
processed 7898112 requests 717508.06 r/s elapsed 11.01
processed 8612864 requests 717675.63 r/s elapsed 12.00
processed 9330688 requests 717732.09 r/s elapsed 13.00
processed 10050560 requests 717839.77 r/s elapsed 14.00
processed 10771456 requests 718069.01 r/s elapsed 15.00
processed 11491328 requests 718151.45 r/s elapsed 16.00
processed 12210176 requests 718221.02 r/s elapsed 17.00
processed 12930048 requests 718332.29 r/s elapsed 18.00
processed 13650944 requests 718429.56 r/s elapsed 19.00
processed 14369792 requests 718464.35 r/s elapsed 20.00
TOTAL: 14369792 requests 718464.35 r/s elapsed 20.00
