type: pthread fadvise
filename: /mnt/raid/prefetch/prefetch-2048
I/O mode: BUFFERED
workload: SEQUENTIAL
duration: 20
threads: 32
queue size: 1024
test mode: TEST
file size: 2147483648
file pages: 524288
start probability: 0.100
continue probability: 0.900
processed 1176576 requests 1176264.29 r/s elapsed 1.00
processed 2354176 requests 1177023.26 r/s elapsed 2.00
processed 3531776 requests 1170766.38 r/s elapsed 3.02
processed 4690944 requests 1172711.96 r/s elapsed 4.00
processed 5869568 requests 1173704.45 r/s elapsed 5.00
processed 7046144 requests 1174313.30 r/s elapsed 6.00
processed 8223744 requests 1174741.02 r/s elapsed 7.00
processed 9402368 requests 1175198.46 r/s elapsed 8.00
processed 10580992 requests 1175535.16 r/s elapsed 9.00
processed 11757568 requests 1175715.30 r/s elapsed 10.00
processed 12935168 requests 1175874.76 r/s elapsed 11.00
processed 14113792 requests 1176129.34 r/s elapsed 12.00
processed 15291392 requests 1176191.17 r/s elapsed 13.00
processed 16467968 requests 1176275.45 r/s elapsed 14.00
processed 17646592 requests 1176412.57 r/s elapsed 15.00
processed 18825216 requests 1176569.09 r/s elapsed 16.00
processed 20002816 requests 1176619.62 r/s elapsed 17.00
processed 21179392 requests 1176625.50 r/s elapsed 18.00
processed 22358016 requests 1176714.21 r/s elapsed 19.00
processed 23534592 requests 1176704.60 r/s elapsed 20.00
TOTAL: 23534592 requests 1176704.60 r/s elapsed 20.00
