type: pthread aio
filename: /mnt/raid/prefetch/prefetch-2048
I/O mode: BUFFERED
workload: RANDOM
duration: 20
threads: 8
queue size: 1024
test mode: TEST
file size: 2147483648
file pages: 524288
processed 844800 requests 844344.90 r/s elapsed 1.00
processed 1694720 requests 846884.05 r/s elapsed 2.00
processed 2544640 requests 847874.18 r/s elapsed 3.00
processed 3394560 requests 848446.98 r/s elapsed 4.00
processed 4245504 requests 849059.88 r/s elapsed 5.00
processed 5097472 requests 849470.64 r/s elapsed 6.00
processed 5947392 requests 849537.38 r/s elapsed 7.00
processed 6799360 requests 849821.10 r/s elapsed 8.00
processed 7651328 requests 850084.18 r/s elapsed 9.00
processed 8503296 requests 850245.00 r/s elapsed 10.00
processed 9353216 requests 850215.69 r/s elapsed 11.00
processed 10209280 requests 850711.51 r/s elapsed 12.00
processed 11060224 requests 850716.05 r/s elapsed 13.00
processed 11913216 requests 850856.36 r/s elapsed 14.00
processed 12763136 requests 850624.12 r/s elapsed 15.00
processed 13611008 requests 850583.27 r/s elapsed 16.00
processed 14461952 requests 850652.37 r/s elapsed 17.00
processed 15318016 requests 850961.37 r/s elapsed 18.00
processed 16172032 requests 851119.80 r/s elapsed 19.00
processed 17029120 requests 851430.80 r/s elapsed 20.00
TOTAL: 17029120 requests 851430.80 r/s elapsed 20.00
