type: pthread fadvise
filename: /mnt/raid/prefetch/prefetch-2048
I/O mode: BUFFERED
workload: SEQUENTIAL
duration: 20
threads: 16
queue size: 32
test mode: TEST
file size: 2147483648
file pages: 524288
start probability: 0.100
continue probability: 0.500
processed 771680 requests 771463.99 r/s elapsed 1.00
processed 1616672 requests 808333.57 r/s elapsed 2.00
processed 2472800 requests 824266.12 r/s elapsed 3.00
processed 3328448 requests 832110.96 r/s elapsed 4.00
processed 4184448 requests 836887.42 r/s elapsed 5.00
processed 5039168 requests 839846.08 r/s elapsed 6.00
processed 5889472 requests 841312.52 r/s elapsed 7.00
processed 6744416 requests 843004.05 r/s elapsed 8.00
processed 7599936 requests 844434.89 r/s elapsed 9.00
processed 8456288 requests 845602.50 r/s elapsed 10.00
processed 9307712 requests 846127.18 r/s elapsed 11.00
processed 10164160 requests 846990.96 r/s elapsed 12.00
processed 11019840 requests 847653.53 r/s elapsed 13.00
processed 11875552 requests 848222.94 r/s elapsed 14.00
processed 12730368 requests 848668.34 r/s elapsed 15.00
processed 13586560 requests 849141.43 r/s elapsed 16.00
processed 14435424 requests 846326.71 r/s elapsed 17.06
processed 15242144 requests 846771.43 r/s elapsed 18.00
processed 16097376 requests 847213.55 r/s elapsed 19.00
processed 16953216 requests 847643.47 r/s elapsed 20.00
TOTAL: 16953216 requests 847643.47 r/s elapsed 20.00
