type: pthread aio
filename: /mnt/raid/prefetch/prefetch-2048
I/O mode: BUFFERED
workload: SEQUENTIAL
duration: 20
threads: 1
queue size: 1024
test mode: WARMUP
file size: 2147483648
file pages: 524288
start probability: 0.100
continue probability: 0.900
processed 143360 requests 142758.13 r/s elapsed 1.00
elapsed 1.00 : warmup interval speed 142758.13 previous 0.00
processed 285696 requests 138906.93 r/s elapsed 2.06
elapsed 2.06 : warmup interval speed 135232.51 previous 142758.13
within 5% of the preceding interval, warmup terminating
TOTAL: 285696 requests 138906.93 r/s elapsed 2.06
