type: pthread fadvise
filename: /mnt/raid/prefetch/prefetch-2048
I/O mode: BUFFERED
workload: SEQUENTIAL
duration: 20
threads: 1
queue size: 8
test mode: WARMUP
file size: 2147483648
file pages: 524288
start probability: 0.010
continue probability: 0.900
processed 36328 requests 36320.15 r/s elapsed 1.00
elapsed 1.00 : warmup interval speed 36320.15 previous 0.00
processed 73864 requests 36930.95 r/s elapsed 2.00
elapsed 2.00 : warmup interval speed 37541.97 previous 36320.15
within 5% of the preceding interval, warmup terminating
TOTAL: 73864 requests 36930.95 r/s elapsed 2.00
