type: pthread fadvise
filename: /mnt/raid/prefetch/prefetch-2048
I/O mode: BUFFERED
workload: SEQUENTIAL
duration: 20
threads: 1
queue size: 8
test mode: TEST
file size: 2147483648
file pages: 524288
start probability: 0.010
continue probability: 0.100
processed 46136 requests 46134.02 r/s elapsed 1.00
processed 97248 requests 48621.20 r/s elapsed 2.00
processed 149744 requests 49871.99 r/s elapsed 3.00
processed 199488 requests 49714.93 r/s elapsed 4.01
processed 248648 requests 49728.27 r/s elapsed 5.00
processed 299560 requests 49924.56 r/s elapsed 6.00
processed 351552 requests 50220.80 r/s elapsed 7.00
processed 408656 requests 51081.28 r/s elapsed 8.00
processed 467168 requests 51907.15 r/s elapsed 9.00
processed 526920 requests 52691.83 r/s elapsed 10.00
processed 589016 requests 53546.34 r/s elapsed 11.00
processed 653008 requests 54417.14 r/s elapsed 12.00
processed 718904 requests 55297.73 r/s elapsed 13.00
processed 787600 requests 56256.62 r/s elapsed 14.00
processed 859400 requests 57293.17 r/s elapsed 15.00
processed 935656 requests 58478.47 r/s elapsed 16.00
processed 1016952 requests 59820.45 r/s elapsed 17.00
processed 1103272 requests 61292.60 r/s elapsed 18.00
processed 1196896 requests 62994.43 r/s elapsed 19.00
processed 1299048 requests 64952.27 r/s elapsed 20.00
TOTAL: 1299048 requests 64952.27 r/s elapsed 20.00
