type: pthread aio
filename: /mnt/raid/prefetch/prefetch-2048
I/O mode: BUFFERED
workload: SEQUENTIAL
duration: 20
threads: 8
queue size: 1024
test mode: WARMUP
file size: 2147483648
file pages: 524288
start probability: 0.010
continue probability: 0.900
processed 41984 requests 41307.79 r/s elapsed 1.02
elapsed 1.02 : warmup interval speed 41307.79 previous 0.00
processed 136192 requests 67905.12 r/s elapsed 2.01
elapsed 2.01 : warmup interval speed 95231.55 previous 41307.79
processed 930816 requests 310236.22 r/s elapsed 3.00
elapsed 3.00 : warmup interval speed 798838.67 previous 95231.55
processed 1891328 requests 472721.15 r/s elapsed 4.00
elapsed 4.00 : warmup interval speed 959943.71 previous 798838.67
processed 2854912 requests 570951.68 r/s elapsed 5.00
elapsed 5.00 : warmup interval speed 964229.07 previous 959943.71
within 5% of the preceding interval, warmup terminating
TOTAL: 2854912 requests 570951.68 r/s elapsed 5.00
