type: pthread aio
filename: /mnt/raid/prefetch/prefetch-2048
I/O mode: DIRECT
workload: SEQUENTIAL
duration: 20
threads: 32
queue size: 128
test mode: TEST
file size: 2147483648
file pages: 524288
start probability: 0.010
continue probability: 0.100
processed 128000 requests 127783.41 r/s elapsed 1.00
processed 255616 requests 127294.11 r/s elapsed 2.01
processed 381952 requests 127208.99 r/s elapsed 3.00
processed 509056 requests 127245.45 r/s elapsed 4.00
processed 637312 requests 127446.98 r/s elapsed 5.00
processed 765568 requests 127576.70 r/s elapsed 6.00
processed 894720 requests 127801.28 r/s elapsed 7.00
processed 1022976 requests 127861.40 r/s elapsed 8.00
processed 1152128 requests 128001.07 r/s elapsed 9.00
processed 1281024 requests 128090.55 r/s elapsed 10.00
processed 1409024 requests 127854.78 r/s elapsed 11.02
processed 1534336 requests 127758.23 r/s elapsed 12.01
processed 1660928 requests 127652.08 r/s elapsed 13.01
processed 1787136 requests 127535.16 r/s elapsed 14.01
processed 1913088 requests 127519.57 r/s elapsed 15.00
processed 2040832 requests 127546.28 r/s elapsed 16.00
processed 2168320 requests 127503.49 r/s elapsed 17.01
processed 2295168 requests 127446.54 r/s elapsed 18.01
processed 2421504 requests 127440.80 r/s elapsed 19.00
processed 2548864 requests 127359.42 r/s elapsed 20.01
TOTAL: 2548864 requests 127359.42 r/s elapsed 20.01
