type: pthread aio
filename: /mnt/raid/prefetch/prefetch-2048
I/O mode: BUFFERED
workload: SEQUENTIAL
duration: 20
threads: 1
queue size: 128
test mode: WARMUP
file size: 2147483648
file pages: 524288
start probability: 0.100
continue probability: 0.900
processed 145536 requests 145204.79 r/s elapsed 1.00
elapsed 1.00 : warmup interval speed 145204.79 previous 0.00
processed 314624 requests 157307.67 r/s elapsed 2.00
elapsed 2.00 : warmup interval speed 169465.23 previous 145204.79
processed 1009920 requests 336622.38 r/s elapsed 3.00
elapsed 3.00 : warmup interval speed 695225.09 previous 169465.23
processed 1745920 requests 436460.14 r/s elapsed 4.00
elapsed 4.00 : warmup interval speed 735981.60 previous 695225.09
processed 2483968 requests 496789.63 r/s elapsed 5.00
elapsed 5.00 : warmup interval speed 738152.82 previous 735981.60
within 5% of the preceding interval, warmup terminating
TOTAL: 2483968 requests 496789.63 r/s elapsed 5.00
