type: pthread aio
filename: /mnt/raid/prefetch/prefetch-2048
I/O mode: BUFFERED
workload: RANDOM
duration: 20
threads: 8
queue size: 128
test mode: WARMUP
file size: 2147483648
file pages: 524288
processed 62208 requests 62128.29 r/s elapsed 1.00
elapsed 1.00 : warmup interval speed 62128.29 previous 0.00
processed 128128 requests 64041.01 r/s elapsed 2.00
elapsed 2.00 : warmup interval speed 65957.27 previous 62128.29
processed 198272 requests 66056.03 r/s elapsed 3.00
elapsed 3.00 : warmup interval speed 70084.08 previous 65957.27
processed 270592 requests 67623.88 r/s elapsed 4.00
elapsed 4.00 : warmup interval speed 72330.56 previous 70084.08
within 5% of the preceding interval, warmup terminating
TOTAL: 270592 requests 67623.88 r/s elapsed 4.00
