type: pthread fadvise
filename: /mnt/raid/prefetch/prefetch-2048
I/O mode: BUFFERED
workload: SEQUENTIAL
duration: 20
threads: 8
queue size: 32
test mode: WARMUP
file size: 2147483648
file pages: 524288
start probability: 0.010
continue probability: 0.500
processed 120000 requests 119988.48 r/s elapsed 1.00
elapsed 1.00 : warmup interval speed 119988.48 previous 0.00
processed 248992 requests 124487.41 r/s elapsed 2.00
elapsed 2.00 : warmup interval speed 128986.58 previous 119988.48
processed 387008 requests 128997.12 r/s elapsed 3.00
elapsed 3.00 : warmup interval speed 138017.24 previous 128986.58
processed 536000 requests 133995.71 r/s elapsed 4.00
elapsed 4.00 : warmup interval speed 148992.15 previous 138017.24
processed 693952 requests 138786.07 r/s elapsed 5.00
elapsed 5.00 : warmup interval speed 157947.58 previous 148992.15
processed 861088 requests 143513.38 r/s elapsed 6.00
elapsed 6.00 : warmup interval speed 167153.05 previous 157947.58
processed 1037952 requests 148276.23 r/s elapsed 7.00
elapsed 7.00 : warmup interval speed 176851.62 previous 167153.05
processed 1224096 requests 153011.83 r/s elapsed 8.00
elapsed 8.00 : warmup interval speed 186165.41 previous 176851.62
processed 1420192 requests 157797.01 r/s elapsed 9.00
elapsed 9.00 : warmup interval speed 196074.24 previous 186165.41
processed 1628288 requests 162826.52 r/s elapsed 10.00
elapsed 10.00 : warmup interval speed 208091.84 previous 196074.24
processed 1852416 requests 168400.54 r/s elapsed 11.00
elapsed 11.00 : warmup interval speed 224145.93 previous 208091.84
processed 2099968 requests 174995.85 r/s elapsed 12.00
elapsed 12.00 : warmup interval speed 247541.60 previous 224145.93
processed 2379488 requests 183036.52 r/s elapsed 13.00
elapsed 13.00 : warmup interval speed 279528.39 previous 247541.60
processed 2707040 requests 193358.18 r/s elapsed 14.00
elapsed 14.00 : warmup interval speed 327532.35 previous 279528.39
processed 3096736 requests 206448.09 r/s elapsed 15.00
elapsed 15.00 : warmup interval speed 389719.77 previous 327532.35
processed 3556448 requests 222277.79 r/s elapsed 16.00
elapsed 16.00 : warmup interval speed 459737.75 previous 389719.77
processed 4079552 requests 239973.05 r/s elapsed 17.00
elapsed 17.00 : warmup interval speed 523089.88 previous 459737.75
processed 4644352 requests 258018.88 r/s elapsed 18.00
elapsed 18.00 : warmup interval speed 564797.18 previous 523089.88
processed 5234048 requests 275475.76 r/s elapsed 19.00
elapsed 19.00 : warmup interval speed 589705.44 previous 564797.18
within 5% of the preceding interval, warmup terminating
TOTAL: 5234048 requests 275475.76 r/s elapsed 19.00
