type: pthread aio
filename: /mnt/raid/prefetch/prefetch-2048
I/O mode: BUFFERED
workload: SEQUENTIAL
duration: 20
threads: 16
queue size: 32
test mode: WARMUP
file size: 2147483648
file pages: 524288
start probability: 0.010
continue probability: 0.100
processed 70560 requests 70528.90 r/s elapsed 1.00
elapsed 1.00 : warmup interval speed 70528.90 previous 0.00
processed 141056 requests 70052.69 r/s elapsed 2.01
elapsed 2.01 : warmup interval speed 69582.45 previous 70528.90
within 5% of the preceding interval, warmup terminating
TOTAL: 141056 requests 70052.69 r/s elapsed 2.01
