type: pthread aio
filename: /mnt/raid/prefetch/prefetch-2048
I/O mode: DIRECT
workload: SEQUENTIAL
duration: 20
threads: 32
queue size: 1024
test mode: TEST
file size: 2147483648
file pages: 524288
start probability: 0.010
continue probability: 0.900
processed 158720 requests 158545.60 r/s elapsed 1.00
processed 316416 requests 158070.95 r/s elapsed 2.00
processed 475136 requests 157609.38 r/s elapsed 3.01
processed 631808 requests 157931.55 r/s elapsed 4.00
processed 790528 requests 158015.37 r/s elapsed 5.00
processed 949248 requests 158159.34 r/s elapsed 6.00
processed 1107968 requests 158054.33 r/s elapsed 7.01
processed 1264640 requests 158016.97 r/s elapsed 8.00
processed 1423360 requests 158070.95 r/s elapsed 9.00
processed 1582080 requests 158157.44 r/s elapsed 10.00
processed 1741824 requests 158290.42 r/s elapsed 11.00
processed 1900544 requests 158343.69 r/s elapsed 12.00
processed 2060288 requests 158448.25 r/s elapsed 13.00
processed 2219008 requests 158481.42 r/s elapsed 14.00
processed 2378752 requests 158546.46 r/s elapsed 15.00
processed 2539520 requests 158663.18 r/s elapsed 16.01
processed 2699264 requests 158763.36 r/s elapsed 17.00
processed 2860032 requests 158853.00 r/s elapsed 18.00
processed 3019776 requests 158909.58 r/s elapsed 19.00
processed 3178496 requests 158903.09 r/s elapsed 20.00
TOTAL: 3178496 requests 158903.09 r/s elapsed 20.00
