type: pthread aio
filename: /mnt/raid/prefetch/prefetch-2048
I/O mode: BUFFERED
workload: RANDOM
duration: 20
threads: 1
queue size: 1
test mode: WARMUP
file size: 2147483648
file pages: 524288
processed 8490 requests 8489.17 r/s elapsed 1.00
elapsed 1.00 : warmup interval speed 8489.17 previous 0.00
processed 17135 requests 8567.44 r/s elapsed 2.00
elapsed 2.00 : warmup interval speed 8645.73 previous 8489.17
within 5% of the preceding interval, warmup terminating
TOTAL: 17135 requests 8567.44 r/s elapsed 2.00
