type: pthread aio
filename: /mnt/raid/prefetch/prefetch-2048
I/O mode: DIRECT
workload: SEQUENTIAL
duration: 20
threads: 32
queue size: 1024
test mode: TEST
file size: 2147483648
file pages: 524288
start probability: 0.010
continue probability: 0.500
processed 154624 requests 153625.28 r/s elapsed 1.01
processed 308224 requests 151217.62 r/s elapsed 2.04
processed 454656 requests 149185.32 r/s elapsed 3.05
processed 596992 requests 148599.70 r/s elapsed 4.02
processed 743424 requests 148377.98 r/s elapsed 5.01
processed 890880 requests 148073.05 r/s elapsed 6.02
processed 1037312 requests 147967.08 r/s elapsed 7.01
processed 1183744 requests 147675.77 r/s elapsed 8.02
processed 1329152 requests 147527.09 r/s elapsed 9.01
processed 1478656 requests 147774.69 r/s elapsed 10.01
processed 1632256 requests 148353.26 r/s elapsed 11.00
processed 1786880 requests 148837.31 r/s elapsed 12.01
processed 1937408 requests 149022.20 r/s elapsed 13.00
processed 2088960 requests 149153.97 r/s elapsed 14.01
processed 2242560 requests 149472.60 r/s elapsed 15.00
processed 2397184 requests 149770.93 r/s elapsed 16.01
processed 2551808 requests 150063.07 r/s elapsed 17.00
processed 2704384 requests 150216.16 r/s elapsed 18.00
processed 2856960 requests 150365.53 r/s elapsed 19.00
processed 3011584 requests 150548.16 r/s elapsed 20.00
TOTAL: 3011584 requests 150548.16 r/s elapsed 20.00
