type: pthread fadvise
filename: /mnt/raid/prefetch/prefetch-2048
I/O mode: BUFFERED
workload: SEQUENTIAL
duration: 20
threads: 32
queue size: 128
test mode: WARMUP
file size: 2147483648
file pages: 524288
start probability: 0.010
continue probability: 0.100
processed 176512 requests 176367.55 r/s elapsed 1.00
elapsed 1.00 : warmup interval speed 176367.55 previous 0.00
processed 388352 requests 194163.67 r/s elapsed 2.00
elapsed 2.00 : warmup interval speed 211986.69 previous 176367.55
processed 634240 requests 211409.60 r/s elapsed 3.00
elapsed 3.00 : warmup interval speed 245906.20 previous 211986.69
processed 914048 requests 228506.63 r/s elapsed 4.00
elapsed 4.00 : warmup interval speed 279796.53 previous 245906.20
processed 1219968 requests 243983.79 r/s elapsed 5.00
elapsed 5.00 : warmup interval speed 305887.27 previous 279796.53
processed 1548928 requests 258149.63 r/s elapsed 6.00
elapsed 6.00 : warmup interval speed 328987.63 previous 305887.27
processed 1896576 requests 270927.93 r/s elapsed 7.00
elapsed 7.00 : warmup interval speed 347585.43 previous 328987.63
processed 2267392 requests 283422.16 r/s elapsed 8.00
elapsed 8.00 : warmup interval speed 370906.87 previous 347585.43
processed 2661376 requests 295702.20 r/s elapsed 9.00
elapsed 9.00 : warmup interval speed 393929.64 previous 370906.87
processed 3080960 requests 308092.61 r/s elapsed 10.00
elapsed 10.00 : warmup interval speed 419617.57 previous 393929.64
processed 3519616 requests 319960.52 r/s elapsed 11.00
elapsed 11.00 : warmup interval speed 438635.38 previous 419617.57
within 5% of the preceding interval, warmup terminating
TOTAL: 3519616 requests 319960.52 r/s elapsed 11.00
