type: pthread fadvise
filename: /mnt/raid/prefetch/prefetch-2048
I/O mode: BUFFERED
workload: SEQUENTIAL
duration: 20
threads: 32
queue size: 128
test mode: TEST
file size: 2147483648
file pages: 524288
start probability: 0.100
continue probability: 0.100
processed 925312 requests 924042.37 r/s elapsed 1.00
processed 1853568 requests 926702.91 r/s elapsed 2.00
processed 2786688 requests 928841.51 r/s elapsed 3.00
processed 3722112 requests 930493.11 r/s elapsed 4.00
processed 4657408 requests 931432.42 r/s elapsed 5.00
processed 5591936 requests 931930.78 r/s elapsed 6.00
processed 6527104 requests 932394.54 r/s elapsed 7.00
processed 7461760 requests 932691.44 r/s elapsed 8.00
processed 8397312 requests 933005.43 r/s elapsed 9.00
processed 9330816 requests 933072.27 r/s elapsed 10.00
processed 10265856 requests 933208.82 r/s elapsed 11.00
processed 11201152 requests 933402.58 r/s elapsed 12.00
processed 12135040 requests 933464.33 r/s elapsed 13.00
processed 13068672 requests 933473.30 r/s elapsed 14.00
processed 14002944 requests 933526.30 r/s elapsed 15.00
processed 14938368 requests 933628.74 r/s elapsed 16.00
processed 15872512 requests 933669.65 r/s elapsed 17.00
processed 16806656 requests 933702.90 r/s elapsed 18.00
processed 17741568 requests 933762.41 r/s elapsed 19.00
processed 18675328 requests 933669.11 r/s elapsed 20.00
TOTAL: 18675328 requests 933669.11 r/s elapsed 20.00
