type: pthread fadvise
filename: /mnt/raid/prefetch/prefetch-2048
I/O mode: BUFFERED
workload: SEQUENTIAL
duration: 20
threads: 8
queue size: 128
test mode: WARMUP
file size: 2147483648
file pages: 524288
start probability: 0.100
continue probability: 0.100
processed 201856 requests 201832.59 r/s elapsed 1.00
elapsed 1.00 : warmup interval speed 201832.59 previous 0.00
processed 461824 requests 230863.17 r/s elapsed 2.00
elapsed 2.00 : warmup interval speed 259888.21 previous 201832.59
processed 804608 requests 268195.16 r/s elapsed 3.00
elapsed 3.00 : warmup interval speed 342900.24 previous 259888.21
processed 1235584 requests 308889.90 r/s elapsed 4.00
elapsed 4.00 : warmup interval speed 430978.15 previous 342900.24
processed 1755136 requests 351024.74 r/s elapsed 5.00
elapsed 5.00 : warmup interval speed 519574.86 previous 430978.15
processed 2364672 requests 394111.87 r/s elapsed 6.00
elapsed 6.00 : warmup interval speed 609556.12 previous 519574.86
processed 3099520 requests 442781.87 r/s elapsed 7.00
elapsed 7.00 : warmup interval speed 734771.58 previous 609556.12
processed 3979008 requests 497372.64 r/s elapsed 8.00
elapsed 8.00 : warmup interval speed 879533.74 previous 734771.58
processed 4944128 requests 549346.82 r/s elapsed 9.00
elapsed 9.00 : warmup interval speed 965160.54 previous 879533.74
processed 5940480 requests 594038.55 r/s elapsed 10.00
elapsed 10.00 : warmup interval speed 996205.56 previous 965160.54
within 5% of the preceding interval, warmup terminating
TOTAL: 5940480 requests 594038.55 r/s elapsed 10.00
