type: pthread aio
filename: /mnt/raid/prefetch/prefetch-2048
I/O mode: BUFFERED
workload: SEQUENTIAL
duration: 20
threads: 1
queue size: 32
test mode: WARMUP
file size: 2147483648
file pages: 524288
start probability: 0.010
continue probability: 0.100
processed 9184 requests 9101.19 r/s elapsed 1.01
elapsed 1.01 : warmup interval speed 9101.19 previous 0.00
processed 18208 requests 9064.52 r/s elapsed 2.01
elapsed 2.01 : warmup interval speed 9027.51 previous 9101.19
within 5% of the preceding interval, warmup terminating
TOTAL: 18208 requests 9064.52 r/s elapsed 2.01
