Linux 4.17.2 (bench) 	08/03/2018 	_x86_64_	(4 CPU)

avg-cpu:  %user   %nice %system %iowait  %steal   %idle
          10.28    0.02    4.03    2.50    0.00   83.17

Device:         rrqm/s   wrqm/s     r/s     w/s    rkB/s    wkB/s avgrq-sz avgqu-sz   await r_await w_await  svctm  %util
sda              43.10     4.26 1631.00  103.06 20819.96  3145.02    27.64     1.03    0.59    0.26    5.91   0.06  10.62
sdb              42.98     4.22 1630.91  103.20 20809.33  3141.67    27.62     1.03    0.59    0.26    5.85   0.06  10.50
sdc              81.06     4.28 1590.74  102.75 20801.49  3144.14    28.28     1.45    0.86    0.45    7.12   0.08  13.95
sdd              74.44     4.25 1596.52  102.82 20786.28  3140.32    28.16     1.46    0.86    0.44    7.32   0.08  14.04
sde              76.49     4.29 1601.63  102.92 20846.53  3144.59    28.15     1.48    0.87    0.44    7.43   0.08  14.06
sdf              73.59     4.26 1603.80  102.86 20827.63  3141.43    28.09     1.52    0.89    0.44    7.90   0.08  14.09
sdg               0.00     3.18   26.10   73.33   323.21   392.02    14.39     0.44    4.43    0.20    5.93   0.08   0.78
sdh               0.00     0.13    0.02    0.24     2.22     5.09    56.82     0.00    1.15    0.65    1.19   0.21   0.01
md0               0.00     0.00 10052.78  482.82 142594.29 21534.66    31.16     0.00    0.00    0.00    0.00   0.00   0.00

avg-cpu:  %user   %nice %system %iowait  %steal   %idle
           0.19    0.01    1.90    0.01    0.00   97.89

Device:         rrqm/s   wrqm/s     r/s     w/s    rkB/s    wkB/s avgrq-sz avgqu-sz   await r_await w_await  svctm  %util
sda               0.00     0.00 1491.65    0.00  5966.60     0.00     8.00     0.15    0.10    0.10    0.00   0.10  15.08
sdb               0.00     0.00 1491.40    0.00  5965.60     0.00     8.00     0.15    0.10    0.10    0.00   0.10  14.94
sdc               0.00     0.00 1452.85    0.00  5811.40     0.00     8.00     0.15    0.10    0.10    0.00   0.10  15.06
sdd               0.00     0.00 1480.95    0.00  5923.80     0.00     8.00     0.16    0.11    0.11    0.00   0.11  15.89
sde               0.00     0.00 1473.20    0.00  5892.80     0.00     8.00     0.17    0.11    0.11    0.00   0.11  16.51
sdf               0.00     0.00 1487.95    0.00  5951.80     0.00     8.00     0.16    0.11    0.11    0.00   0.11  16.00
sdg               0.00     0.05    1.75  128.55    13.20   639.00    10.01     0.78    5.99    0.26    6.07   0.05   0.60
sdh               0.00     0.00    0.00    0.00     0.00     0.00     0.00     0.00    0.00    0.00    0.00   0.00   0.00
md0               0.00     0.00 8878.10    0.00 35512.40     0.00     8.00     0.00    0.00    0.00    0.00   0.00   0.00

