Linux 4.17.2 (bench) 	08/03/2018 	_x86_64_	(4 CPU)

avg-cpu:  %user   %nice %system %iowait  %steal   %idle
          10.29    0.02    4.04    2.53    0.00   83.13

Device:         rrqm/s   wrqm/s     r/s     w/s    rkB/s    wkB/s avgrq-sz avgqu-sz   await r_await w_await  svctm  %util
sda              43.67     4.25 1637.80  102.91 20828.88  3140.45    27.54     1.03    0.59    0.26    5.91   0.06  10.65
sdb              43.54     4.21 1637.72  103.05 20818.30  3137.10    27.52     1.03    0.59    0.26    5.85   0.06  10.53
sdc              81.57     4.27 1597.59  102.60 20810.43  3139.57    28.17     1.45    0.85    0.45    7.12   0.08  13.97
sdd              74.96     4.24 1603.37  102.67 20795.26  3135.76    28.05     1.46    0.85    0.44    7.32   0.08  14.07
sde              77.01     4.28 1608.47  102.77 20855.38  3140.02    28.04     1.48    0.86    0.44    7.43   0.08  14.09
sdf              74.11     4.26 1610.63  102.71 20836.52  3136.87    27.98     1.52    0.89    0.44    7.90   0.08  14.12
sdg               0.00     3.17   26.14   73.32   323.33   391.97    14.38     0.44    4.42    0.20    5.93   0.08   0.78
sdh               0.00     0.13    0.02    0.24     2.22     5.08    56.82     0.00    1.15    0.65    1.19   0.21   0.01
md0               0.00     0.00 10096.94  482.11 142622.12 21503.36    31.03     0.00    0.00    0.00    0.00   0.00   0.00

avg-cpu:  %user   %nice %system %iowait  %steal   %idle
           3.16    0.03   26.39    0.01    0.00   70.40

Device:         rrqm/s   wrqm/s     r/s     w/s    rkB/s    wkB/s avgrq-sz avgqu-sz   await r_await w_await  svctm  %util
sda            8795.25     0.00 25951.50    0.00 138987.00     0.00    10.71    18.69    0.72    0.72    0.00   0.03  70.53
sdb            8825.15     0.00 25874.80    0.00 138799.80     0.00    10.73    19.12    0.74    0.74    0.00   0.03  70.53
sdc            8814.20     0.00 26009.55    0.00 139295.00     0.00    10.71    27.97    1.08    1.08    0.00   0.03  80.73
sdd            8766.95     0.00 25978.30    0.00 138981.00     0.00    10.70    27.67    1.07    1.07    0.00   0.03  78.72
sde            8815.45     0.00 25934.40    0.00 138999.40     0.00    10.72    27.99    1.08    1.08    0.00   0.03  78.92
sdf            8848.60     0.00 25923.45    0.00 139088.20     0.00    10.73    28.46    1.10    1.10    0.00   0.03  79.20
sdg               0.00     0.00    3.90    1.35    47.20    14.80    23.62     0.00    0.25    0.19    0.41   0.22   0.11
sdh               0.00     0.00    0.00    0.00     0.00     0.00     0.00     0.00    0.00    0.00    0.00   0.00   0.00
md0               0.00     0.00 208537.60    0.00 834150.40     0.00     8.00     0.00    0.00    0.00    0.00   0.00   0.00

