Linux 4.17.2 (bench) 	08/03/2018 	_x86_64_	(4 CPU)

avg-cpu:  %user   %nice %system %iowait  %steal   %idle
          10.29    0.02    4.04    2.53    0.00   83.13

Device:         rrqm/s   wrqm/s     r/s     w/s    rkB/s    wkB/s avgrq-sz avgqu-sz   await r_await w_await  svctm  %util
sda              43.67     4.25 1637.80  102.91 20828.88  3140.45    27.54     1.03    0.59    0.26    5.91   0.06  10.65
sdb              43.54     4.21 1637.72  103.05 20818.30  3137.10    27.52     1.03    0.59    0.26    5.85   0.06  10.53
sdc              81.57     4.27 1597.59  102.60 20810.43  3139.57    28.17     1.45    0.85    0.45    7.12   0.08  13.97
sdd              74.96     4.24 1603.37  102.67 20795.26  3135.76    28.05     1.46    0.85    0.44    7.32   0.08  14.07
sde              77.01     4.28 1608.47  102.77 20855.38  3140.02    28.04     1.48    0.86    0.44    7.43   0.08  14.09
sdf              74.11     4.26 1610.63  102.71 20836.52  3136.87    27.98     1.52    0.89    0.44    7.90   0.08  14.12
sdg               0.00     3.17   26.14   73.32   323.33   391.97    14.38     0.44    4.42    0.20    5.93   0.08   0.78
sdh               0.00     0.13    0.02    0.24     2.22     5.08    56.82     0.00    1.15    0.65    1.19   0.21   0.01
md0               0.00     0.00 10096.94  482.11 142622.12 21503.36    31.03     0.00    0.00    0.00    0.00   0.00   0.00

avg-cpu:  %user   %nice %system %iowait  %steal   %idle
           3.24    0.00   25.41    0.00    0.00   71.35

Device:         rrqm/s   wrqm/s     r/s     w/s    rkB/s    wkB/s avgrq-sz avgqu-sz   await r_await w_await  svctm  %util
sda            8588.00     0.00 25329.00    0.00 135600.00     0.00    10.71    18.52    0.73    0.73    0.00   0.03  70.40
sdb            8945.00     0.00 25657.00    0.00 138384.00     0.00    10.79    19.77    0.77    0.77    0.00   0.03  69.30
sdc            8215.00     0.00 25265.00    0.00 133916.00     0.00    10.60    26.68    1.06    1.06    0.00   0.03  76.60
sdd            8614.00     0.00 25655.00    0.00 137032.00     0.00    10.68    27.98    1.09    1.09    0.00   0.03  77.70
sde            8692.00     0.00 25635.00    0.00 137284.00     0.00    10.71    28.27    1.10    1.10    0.00   0.03  77.90
sdf            8856.00     0.00 25415.00    0.00 137060.00     0.00    10.79    30.05    1.18    1.18    0.00   0.03  82.20
sdg               0.00     0.00    8.00    1.00   108.00    12.00    26.67     0.00    0.11    0.12    0.00   0.11   0.10
sdh               0.00     0.00    0.00    0.00     0.00     0.00     0.00     0.00    0.00    0.00    0.00   0.00   0.00
md0               0.00     0.00 205029.00    0.00 820116.00     0.00     8.00     0.00    0.00    0.00    0.00   0.00   0.00

avg-cpu:  %user   %nice %system %iowait  %steal   %idle
           2.93    0.27   28.27    0.00    0.00   68.53

Device:         rrqm/s   wrqm/s     r/s     w/s    rkB/s    wkB/s avgrq-sz avgqu-sz   await r_await w_await  svctm  %util
sda            9045.00     0.00 26455.00    0.00 142048.00     0.00    10.74    19.67    0.74    0.74    0.00   0.03  70.80
sdb            8778.00     0.00 26659.00    0.00 141692.00     0.00    10.63    20.01    0.75    0.75    0.00   0.03  71.70
sdc            9072.00     0.00 26727.00    0.00 143156.00     0.00    10.71    28.76    1.08    1.08    0.00   0.03  79.60
sdd            9036.00     0.00 26661.00    0.00 142796.00     0.00    10.71    28.95    1.09    1.09    0.00   0.03  80.10
sde            8879.00     0.00 26396.00    0.00 141048.00     0.00    10.69    28.48    1.08    1.08    0.00   0.03  79.10
sdf            8727.00     0.00 26137.00    0.00 139456.00     0.00    10.67    28.43    1.09    1.09    0.00   0.03  79.30
sdg               0.00     0.00   19.00    0.00   124.00     0.00    13.05     0.00    0.16    0.16    0.00   0.16   0.30
sdh               0.00     0.00    0.00    0.00     0.00     0.00     0.00     0.00    0.00    0.00    0.00   0.00   0.00
md0               0.00     0.00 212699.00    0.00 850796.00     0.00     8.00     0.00    0.00    0.00    0.00   0.00   0.00

avg-cpu:  %user   %nice %system %iowait  %steal   %idle
           3.22    0.00   27.35    0.00    0.00   69.44

Device:         rrqm/s   wrqm/s     r/s     w/s    rkB/s    wkB/s avgrq-sz avgqu-sz   await r_await w_await  svctm  %util
sda            8904.00     0.00 26740.00    0.00 142596.00     0.00    10.67    19.24    0.72    0.72    0.00   0.03  71.50
sdb            8864.00     0.00 26128.00    0.00 140048.00     0.00    10.72    19.08    0.73    0.73    0.00   0.03  71.40
sdc            8863.00     0.00 26333.00    0.00 140792.00     0.00    10.69    27.53    1.05    1.05    0.00   0.03  79.80
sdd            8966.00     0.00 26721.00    0.00 142700.00     0.00    10.68    29.34    1.10    1.10    0.00   0.03  80.50
sde            8931.00     0.00 26639.00    0.00 142284.00     0.00    10.68    29.07    1.09    1.09    0.00   0.03  80.40
sdf            8857.00     0.00 26255.00    0.00 140420.00     0.00    10.70    28.58    1.09    1.09    0.00   0.03  79.90
sdg               0.00     0.00    0.00    0.00     0.00     0.00     0.00     0.00    0.00    0.00    0.00   0.00   0.00
sdh               0.00     0.00    0.00    0.00     0.00     0.00     0.00     0.00    0.00    0.00    0.00   0.00   0.00
md0               0.00     0.00 212032.00    0.00 848128.00     0.00     8.00     0.00    0.00    0.00    0.00   0.00   0.00

avg-cpu:  %user   %nice %system %iowait  %steal   %idle
           3.52    0.00   26.02    0.00    0.00   70.46

Device:         rrqm/s   wrqm/s     r/s     w/s    rkB/s    wkB/s avgrq-sz avgqu-sz   await r_await w_await  svctm  %util
sda            8934.00     0.00 25947.00    0.00 139456.00     0.00    10.75    18.25    0.70    0.70    0.00   0.03  70.10
sdb            8788.00     0.00 25995.00    0.00 139112.00     0.00    10.70    18.97    0.73    0.73    0.00   0.03  70.20
sdc            8781.00     0.00 26505.00    0.00 141148.00     0.00    10.65    28.56    1.08    1.08    0.00   0.03  80.40
sdd            8655.00     0.00 25909.00    0.00 138260.00     0.00    10.67    26.99    1.04    1.04    0.00   0.03  78.50
sde            8934.00     0.00 26045.00    0.00 139980.00     0.00    10.75    27.87    1.07    1.07    0.00   0.03  78.90
sdf            8901.00     0.00 26049.00    0.00 139828.00     0.00    10.74    28.41    1.09    1.09    0.00   0.03  78.60
sdg               0.00     0.00    0.00    0.00     0.00     0.00     0.00     0.00    0.00    0.00    0.00   0.00   0.00
sdh               0.00     0.00    0.00    0.00     0.00     0.00     0.00     0.00    0.00    0.00    0.00   0.00   0.00
md0               0.00     0.00 209556.00    0.00 838224.00     0.00     8.00     0.00    0.00    0.00    0.00   0.00   0.00

avg-cpu:  %user   %nice %system %iowait  %steal   %idle
           3.23    0.00   26.42    0.00    0.00   70.35

Device:         rrqm/s   wrqm/s     r/s     w/s    rkB/s    wkB/s avgrq-sz avgqu-sz   await r_await w_await  svctm  %util
sda            8827.00     0.00 26342.00    0.00 140680.00     0.00    10.68    18.76    0.71    0.71    0.00   0.03  71.50
sdb            8711.00     0.00 26070.00    0.00 139080.00     0.00    10.67    18.90    0.73    0.73    0.00   0.03  70.60
sdc            9041.00     0.00 26202.00    0.00 140968.00     0.00    10.76    28.11    1.07    1.07    0.00   0.03  81.00
sdd            8935.00     0.00 26087.00    0.00 140088.00     0.00    10.74    27.59    1.06    1.06    0.00   0.03  78.60
sde            8712.00     0.00 25919.00    0.00 138488.00     0.00    10.69    27.70    1.07    1.07    0.00   0.03  79.10
sdf            8921.00     0.00 25921.00    0.00 139384.00     0.00    10.75    28.19    1.09    1.09    0.00   0.03  79.60
sdg               0.00     0.00    0.00    0.00     0.00     0.00     0.00     0.00    0.00    0.00    0.00   0.00   0.00
sdh               0.00     0.00    0.00    0.00     0.00     0.00     0.00     0.00    0.00    0.00    0.00   0.00   0.00
md0               0.00     0.00 209617.00    0.00 838468.00     0.00     8.00     0.00    0.00    0.00    0.00   0.00   0.00

avg-cpu:  %user   %nice %system %iowait  %steal   %idle
           2.70    0.00   27.22    0.00    0.00   70.08

Device:         rrqm/s   wrqm/s     r/s     w/s    rkB/s    wkB/s avgrq-sz avgqu-sz   await r_await w_await  svctm  %util
sda            8879.00     0.00 25984.00    0.00 139492.00     0.00    10.74    18.50    0.71    0.71    0.00   0.03  71.20
sdb            9088.00     0.00 25901.00    0.00 140008.00     0.00    10.81    18.71    0.72    0.72    0.00   0.03  71.30
sdc            8796.00     0.00 25915.00    0.00 138808.00     0.00    10.71    27.64    1.07    1.07    0.00   0.03  82.20
sdd            8793.00     0.00 26387.00    0.00 140760.00     0.00    10.67    28.40    1.08    1.08    0.00   0.03  80.20
sde            8554.00     0.00 25939.00    0.00 137928.00     0.00    10.63    27.78    1.07    1.07    0.00   0.03  79.40
sdf            9085.00     0.00 26232.00    0.00 141252.00     0.00    10.77    28.98    1.10    1.10    0.00   0.03  80.00
sdg               0.00     0.00    0.00    0.00     0.00     0.00     0.00     0.00    0.00    0.00    0.00   0.00   0.00
sdh               0.00     0.00    0.00    0.00     0.00     0.00     0.00     0.00    0.00    0.00    0.00   0.00   0.00
md0               0.00     0.00 209563.00    0.00 838252.00     0.00     8.00     0.00    0.00    0.00    0.00   0.00   0.00

avg-cpu:  %user   %nice %system %iowait  %steal   %idle
           3.49    0.00   26.27    0.00    0.00   70.24

Device:         rrqm/s   wrqm/s     r/s     w/s    rkB/s    wkB/s avgrq-sz avgqu-sz   await r_await w_await  svctm  %util
sda            8720.00     0.00 26174.00    0.00 139600.00     0.00    10.67    18.56    0.71    0.71    0.00   0.03  68.70
sdb            8700.00     0.00 25647.00    0.00 137400.00     0.00    10.71    18.60    0.73    0.73    0.00   0.03  69.50
sdc            8822.00     0.00 26123.00    0.00 139852.00     0.00    10.71    28.10    1.07    1.07    0.00   0.03  80.10
sdd            8919.00     0.00 26050.00    0.00 139916.00     0.00    10.74    27.71    1.07    1.07    0.00   0.03  77.70
sde            8891.00     0.00 26072.00    0.00 139904.00     0.00    10.73    27.98    1.07    1.07    0.00   0.03  78.60
sdf            8848.00     0.00 26082.00    0.00 139712.00     0.00    10.71    28.59    1.09    1.09    0.00   0.03  78.10
sdg               0.00     0.00    0.00    0.00     0.00     0.00     0.00     0.00    0.00    0.00    0.00   0.00   0.00
sdh               0.00     0.00    0.00    0.00     0.00     0.00     0.00     0.00    0.00    0.00    0.00   0.00   0.00
md0               0.00     0.00 208896.00    0.00 835584.00     0.00     8.00     0.00    0.00    0.00    0.00   0.00   0.00

avg-cpu:  %user   %nice %system %iowait  %steal   %idle
           3.17    0.00   25.33    0.26    0.00   71.24

Device:         rrqm/s   wrqm/s     r/s     w/s    rkB/s    wkB/s avgrq-sz avgqu-sz   await r_await w_await  svctm  %util
sda            8546.00     0.00 24618.00    0.00 132656.00     0.00    10.78    15.99    0.65    0.65    0.00   0.03  74.40
sdb            8446.00     0.00 24741.00    0.00 132748.00     0.00    10.73    16.47    0.67    0.67    0.00   0.03  74.30
sdc            8248.00     0.00 24544.00    0.00 131144.00     0.00    10.69    23.14    0.94    0.94    0.00   0.03  82.20
sdd            8207.00     0.00 24455.00    0.00 130640.00     0.00    10.68    21.97    0.90    0.90    0.00   0.03  79.60
sde            8792.00     0.00 24905.00    0.00 134824.00     0.00    10.83    23.96    0.96    0.96    0.00   0.03  81.60
sdf            8475.00     0.00 24659.00    0.00 132568.00     0.00    10.75    23.26    0.95    0.95    0.00   0.03  81.10
sdg               0.00     0.00   43.00    1.00   668.00     4.00    30.55     0.01    0.16    0.16    0.00   0.16   0.70
sdh               0.00     0.00    0.00    0.00     0.00     0.00     0.00     0.00    0.00    0.00    0.00   0.00   0.00
md0               0.00     0.00 198656.00    0.00 794624.00     0.00     8.00     0.00    0.00    0.00    0.00   0.00   0.00

avg-cpu:  %user   %nice %system %iowait  %steal   %idle
           3.28    0.00   25.41    0.00    0.00   71.31

Device:         rrqm/s   wrqm/s     r/s     w/s    rkB/s    wkB/s avgrq-sz avgqu-sz   await r_await w_await  svctm  %util
sda            9027.00     0.00 25765.00    0.00 139164.00     0.00    10.80    18.41    0.72    0.72    0.00   0.03  70.20
sdb            8831.00     0.00 25842.00    0.00 138656.00     0.00    10.73    18.93    0.73    0.73    0.00   0.03  70.30
sdc            8608.00     0.00 25679.00    0.00 137156.00     0.00    10.68    27.00    1.05    1.05    0.00   0.03  80.50
sdd            8799.00     0.00 25924.00    0.00 138804.00     0.00    10.71    27.52    1.06    1.06    0.00   0.03  78.70
sde            8939.00     0.00 26130.00    0.00 140160.00     0.00    10.73    28.27    1.08    1.08    0.00   0.03  79.20
sdf            8992.00     0.00 25735.00    0.00 138860.00     0.00    10.79    27.81    1.08    1.08    0.00   0.03  78.60
sdg               0.00     0.00    0.00    0.00     0.00     0.00     0.00     0.00    0.00    0.00    0.00   0.00   0.00
sdh               0.00     0.00    0.00    0.00     0.00     0.00     0.00     0.00    0.00    0.00    0.00   0.00   0.00
md0               0.00     0.00 208431.00    0.00 833724.00     0.00     8.00     0.00    0.00    0.00    0.00   0.00   0.00

avg-cpu:  %user   %nice %system %iowait  %steal   %idle
           2.97    0.00   26.22    0.00    0.00   70.81

Device:         rrqm/s   wrqm/s     r/s     w/s    rkB/s    wkB/s avgrq-sz avgqu-sz   await r_await w_await  svctm  %util
sda            8580.00     0.00 25308.00    0.00 135512.00     0.00    10.71    18.18    0.72    0.72    0.00   0.03  69.50
sdb            8811.00     0.00 25864.00    0.00 138664.00     0.00    10.72    18.79    0.73    0.73    0.00   0.03  70.00
sdc            8781.00     0.00 25814.00    0.00 138352.00     0.00    10.72    27.86    1.08    1.08    0.00   0.03  80.80
sdd            8553.00     0.00 25820.00    0.00 137556.00     0.00    10.65    27.03    1.05    1.05    0.00   0.03  76.80
sde            8867.00     0.00 25777.00    0.00 138588.00     0.00    10.75    28.04    1.09    1.09    0.00   0.03  78.00
sdf            8923.00     0.00 25921.00    0.00 139360.00     0.00    10.75    28.70    1.11    1.11    0.00   0.03  78.40
sdg               0.00     0.00    0.00    0.00     0.00     0.00     0.00     0.00    0.00    0.00    0.00   0.00   0.00
sdh               0.00     0.00    0.00    0.00     0.00     0.00     0.00     0.00    0.00    0.00    0.00   0.00   0.00
md0               0.00     0.00 207151.00    0.00 828604.00     0.00     8.00     0.00    0.00    0.00    0.00   0.00   0.00

avg-cpu:  %user   %nice %system %iowait  %steal   %idle
           3.51    0.00   25.95    0.00    0.00   70.54

Device:         rrqm/s   wrqm/s     r/s     w/s    rkB/s    wkB/s avgrq-sz avgqu-sz   await r_await w_await  svctm  %util
sda            8790.00     0.00 26455.00    0.00 141024.00     0.00    10.66    19.00    0.72    0.72    0.00   0.03  70.50
sdb            8968.00     0.00 25911.00    0.00 139588.00     0.00    10.77    19.35    0.75    0.75    0.00   0.03  70.50
sdc            8874.00     0.00 26068.00    0.00 139756.00     0.00    10.72    27.68    1.06    1.06    0.00   0.03  80.60
sdd            8882.00     0.00 26137.00    0.00 140060.00     0.00    10.72    28.11    1.07    1.07    0.00   0.03  78.30
sde            8751.00     0.00 25853.00    0.00 138468.00     0.00    10.71    27.53    1.07    1.07    0.00   0.03  78.00
sdf            8747.00     0.00 25871.00    0.00 138508.00     0.00    10.71    28.09    1.09    1.09    0.00   0.03  78.20
sdg               0.00     0.00    0.00    0.00     0.00     0.00     0.00     0.00    0.00    0.00    0.00   0.00   0.00
sdh               0.00     0.00    0.00    0.00     0.00     0.00     0.00     0.00    0.00    0.00    0.00   0.00   0.00
md0               0.00     0.00 209058.00    0.00 836232.00     0.00     8.00     0.00    0.00    0.00    0.00   0.00   0.00

avg-cpu:  %user   %nice %system %iowait  %steal   %idle
           2.95    0.27   27.08    0.00    0.00   69.71

Device:         rrqm/s   wrqm/s     r/s     w/s    rkB/s    wkB/s avgrq-sz avgqu-sz   await r_await w_await  svctm  %util
sda            8682.00     0.00 26091.00    0.00 139092.00     0.00    10.66    19.18    0.74    0.74    0.00   0.03  70.60
sdb            8912.00     0.00 25701.00    0.00 138452.00     0.00    10.77    19.20    0.75    0.75    0.00   0.03  70.50
sdc            8877.00     0.00 25994.00    0.00 139540.00     0.00    10.74    28.11    1.08    1.08    0.00   0.03  80.90
sdd            8680.00     0.00 26072.00    0.00 139048.00     0.00    10.67    27.95    1.08    1.08    0.00   0.03  78.90
sde            8988.00     0.00 25805.00    0.00 139224.00     0.00    10.79    27.99    1.09    1.09    0.00   0.03  78.80
sdf            8557.00     0.00 25591.00    0.00 136616.00     0.00    10.68    27.34    1.07    1.07    0.00   0.03  77.30
sdg               0.00     0.00    7.00    3.00    28.00    36.00    12.80     0.01    1.10    0.43    2.67   1.10   1.10
sdh               0.00     0.00    0.00    0.00     0.00     0.00     0.00     0.00    0.00    0.00    0.00   0.00   0.00
md0               0.00     0.00 207872.00    0.00 831488.00     0.00     8.00     0.00    0.00    0.00    0.00   0.00   0.00

avg-cpu:  %user   %nice %system %iowait  %steal   %idle
           3.24    0.00   26.49    0.00    0.00   70.27

Device:         rrqm/s   wrqm/s     r/s     w/s    rkB/s    wkB/s avgrq-sz avgqu-sz   await r_await w_await  svctm  %util
sda            8526.00     0.00 25917.00    0.00 137744.00     0.00    10.63    18.54    0.71    0.71    0.00   0.03  70.30
sdb            9042.00     0.00 26074.00    0.00 140372.00     0.00    10.77    19.08    0.73    0.73    0.00   0.03  70.40
sdc            8952.00     0.00 26376.00    0.00 141228.00     0.00    10.71    28.38    1.07    1.07    0.00   0.03  82.40
sdd            8675.00     0.00 26127.00    0.00 139192.00     0.00    10.66    27.43    1.05    1.05    0.00   0.03  79.00
sde            8865.00     0.00 26079.00    0.00 139668.00     0.00    10.71    27.99    1.07    1.07    0.00   0.03  79.00
sdf            8848.00     0.00 26187.00    0.00 140096.00     0.00    10.70    28.73    1.10    1.10    0.00   0.03  79.80
sdg               0.00     0.00    0.00    0.00     0.00     0.00     0.00     0.00    0.00    0.00    0.00   0.00   0.00
sdh               0.00     0.00    0.00    0.00     0.00     0.00     0.00     0.00    0.00    0.00    0.00   0.00   0.00
md0               0.00     0.00 209920.00    0.00 839680.00     0.00     8.00     0.00    0.00    0.00    0.00   0.00   0.00

avg-cpu:  %user   %nice %system %iowait  %steal   %idle
           2.98    0.00   25.47    0.00    0.00   71.54

Device:         rrqm/s   wrqm/s     r/s     w/s    rkB/s    wkB/s avgrq-sz avgqu-sz   await r_await w_await  svctm  %util
sda            8779.00     0.00 26047.00    0.00 139332.00     0.00    10.70    19.28    0.74    0.74    0.00   0.03  69.20
sdb            8276.00     0.00 25240.00    0.00 134156.00     0.00    10.63    18.45    0.73    0.73    0.00   0.03  69.30
sdc            8701.00     0.00 25867.00    0.00 138312.00     0.00    10.69    28.62    1.11    1.11    0.00   0.03  81.00
sdd            8629.00     0.00 25356.00    0.00 135944.00     0.00    10.72    26.91    1.06    1.06    0.00   0.03  76.80
sde            8519.00     0.00 25233.00    0.00 135104.00     0.00    10.71    27.13    1.08    1.08    0.00   0.03  76.20
sdf            8752.00     0.00 25577.00    0.00 137328.00     0.00    10.74    28.44    1.11    1.11    0.00   0.03  77.70
sdg               0.00     0.00    0.00    0.00     0.00     0.00     0.00     0.00    0.00    0.00    0.00   0.00   0.00
sdh               0.00     0.00    0.00    0.00     0.00     0.00     0.00     0.00    0.00    0.00    0.00   0.00   0.00
md0               0.00     0.00 204800.00    0.00 819200.00     0.00     8.00     0.00    0.00    0.00    0.00   0.00   0.00

avg-cpu:  %user   %nice %system %iowait  %steal   %idle
           2.97    0.00   26.49    0.00    0.00   70.54

Device:         rrqm/s   wrqm/s     r/s     w/s    rkB/s    wkB/s avgrq-sz avgqu-sz   await r_await w_await  svctm  %util
sda            8804.00     0.00 25825.00    0.00 138516.00     0.00    10.73    18.60    0.72    0.72    0.00   0.03  70.10
sdb            9206.00     0.00 26316.00    0.00 142088.00     0.00    10.80    19.74    0.75    0.75    0.00   0.03  71.10
sdc            8671.00     0.00 26063.00    0.00 138980.00     0.00    10.66    28.48    1.10    1.10    0.00   0.03  80.10
sdd            8967.00     0.00 26175.00    0.00 140580.00     0.00    10.74    28.04    1.07    1.07    0.00   0.03  78.80
sde            8813.00     0.00 25883.00    0.00 138796.00     0.00    10.72    27.74    1.07    1.07    0.00   0.03  78.60
sdf            9181.00     0.00 26096.00    0.00 141144.00     0.00    10.82    28.79    1.10    1.10    0.00   0.03  79.20
sdg               0.00     0.00    0.00    0.00     0.00     0.00     0.00     0.00    0.00    0.00    0.00   0.00   0.00
sdh               0.00     0.00    0.00    0.00     0.00     0.00     0.00     0.00    0.00    0.00    0.00   0.00   0.00
md0               0.00     0.00 209920.00    0.00 839680.00     0.00     8.00     0.00    0.00    0.00    0.00   0.00   0.00

avg-cpu:  %user   %nice %system %iowait  %steal   %idle
           3.22    0.00   26.81    0.00    0.00   69.97

Device:         rrqm/s   wrqm/s     r/s     w/s    rkB/s    wkB/s avgrq-sz avgqu-sz   await r_await w_await  svctm  %util
sda            8906.00     0.00 25547.00    0.00 137812.00     0.00    10.79    18.14    0.71    0.71    0.00   0.03  69.70
sdb            8994.00     0.00 25923.00    0.00 139668.00     0.00    10.78    19.12    0.74    0.74    0.00   0.03  70.50
sdc            9248.00     0.00 26293.00    0.00 142164.00     0.00    10.81    29.43    1.12    1.12    0.00   0.03  82.30
sdd            8691.00     0.00 25738.00    0.00 137724.00     0.00    10.70    27.40    1.07    1.07    0.00   0.03  78.20
sde            8685.00     0.00 25942.00    0.00 138508.00     0.00    10.68    27.78    1.07    1.07    0.00   0.03  78.20
sdf            8878.00     0.00 26058.00    0.00 139724.00     0.00    10.72    28.67    1.10    1.10    0.00   0.03  79.60
sdg               0.00     0.00    1.00   22.00    16.00   244.00    22.61     0.00    0.17    1.00    0.14   0.04   0.10
sdh               0.00     0.00    0.00    0.00     0.00     0.00     0.00     0.00    0.00    0.00    0.00   0.00   0.00
md0               0.00     0.00 208970.00    0.00 835880.00     0.00     8.00     0.00    0.00    0.00    0.00   0.00   0.00

avg-cpu:  %user   %nice %system %iowait  %steal   %idle
           3.23    0.00   26.08    0.00    0.00   70.70

Device:         rrqm/s   wrqm/s     r/s     w/s    rkB/s    wkB/s avgrq-sz avgqu-sz   await r_await w_await  svctm  %util
sda            8920.00     0.00 25774.00    0.00 138756.00     0.00    10.77    18.70    0.72    0.72    0.00   0.03  69.00
sdb            8564.00     0.00 25402.00    0.00 135824.00     0.00    10.69    19.24    0.76    0.76    0.00   0.03  68.90
sdc            8942.00     0.00 25745.00    0.00 138620.00     0.00    10.77    28.30    1.10    1.10    0.00   0.03  81.40
sdd            8758.00     0.00 25840.00    0.00 138304.00     0.00    10.70    27.95    1.08    1.08    0.00   0.03  78.40
sde            9030.00     0.00 25887.00    0.00 139592.00     0.00    10.78    29.11    1.12    1.12    0.00   0.03  78.60
sdf            8804.00     0.00 25872.00    0.00 138696.00     0.00    10.72    28.94    1.12    1.12    0.00   0.03  78.20
sdg               0.00     0.00    0.00    0.00     0.00     0.00     0.00     0.00    0.00    0.00    0.00   0.00   0.00
sdh               0.00     0.00    0.00    0.00     0.00     0.00     0.00     0.00    0.00    0.00    0.00   0.00   0.00
md0               0.00     0.00 207798.00    0.00 831192.00     0.00     8.00     0.00    0.00    0.00    0.00   0.00   0.00

avg-cpu:  %user   %nice %system %iowait  %steal   %idle
           3.26    0.00   25.82    0.00    0.00   70.92

Device:         rrqm/s   wrqm/s     r/s     w/s    rkB/s    wkB/s avgrq-sz avgqu-sz   await r_await w_await  svctm  %util
sda            9026.00     0.00 26369.00    0.00 141584.00     0.00    10.74    19.47    0.74    0.74    0.00   0.03  70.90
sdb            8735.00     0.00 25890.00    0.00 138524.00     0.00    10.70    19.55    0.76    0.76    0.00   0.03  69.90
sdc            8864.00     0.00 25839.00    0.00 138908.00     0.00    10.75    27.65    1.07    1.07    0.00   0.03  81.50
sdd            8994.00     0.00 25958.00    0.00 139864.00     0.00    10.78    28.01    1.08    1.08    0.00   0.03  79.00
sde            8771.00     0.00 26209.00    0.00 139940.00     0.00    10.68    28.99    1.11    1.11    0.00   0.03  79.20
sdf            8784.00     0.00 26042.00    0.00 139320.00     0.00    10.70    29.00    1.12    1.12    0.00   0.03  78.70
sdg               0.00     0.00    0.00    0.00     0.00     0.00     0.00     0.00    0.00    0.00    0.00   0.00   0.00
sdh               0.00     0.00    0.00    0.00     0.00     0.00     0.00     0.00    0.00    0.00    0.00   0.00   0.00
md0               0.00     0.00 209338.00    0.00 837352.00     0.00     8.00     0.00    0.00    0.00    0.00   0.00   0.00

avg-cpu:  %user   %nice %system %iowait  %steal   %idle
           3.22    0.00   26.54    0.00    0.00   70.24

Device:         rrqm/s   wrqm/s     r/s     w/s    rkB/s    wkB/s avgrq-sz avgqu-sz   await r_await w_await  svctm  %util
sda            8718.00     0.00 25926.00    0.00 138592.00     0.00    10.69    19.02    0.73    0.73    0.00   0.03  69.80
sdb            8666.00     0.00 25874.00    0.00 138176.00     0.00    10.68    19.62    0.76    0.76    0.00   0.03  69.40
sdc            8915.00     0.00 26315.00    0.00 140952.00     0.00    10.71    30.31    1.15    1.15    0.00   0.03  80.30
sdd            8654.00     0.00 25867.00    0.00 138116.00     0.00    10.68    28.19    1.09    1.09    0.00   0.03  78.40
sde            8683.00     0.00 25877.00    0.00 138296.00     0.00    10.69    28.36    1.10    1.10    0.00   0.03  78.20
sdf            8971.00     0.00 26174.00    0.00 140592.00     0.00    10.74    29.55    1.13    1.13    0.00   0.03  78.30
sdg               0.00     0.00    0.00    0.00     0.00     0.00     0.00     0.00    0.00    0.00    0.00   0.00   0.00
sdh               0.00     0.00    0.00    0.00     0.00     0.00     0.00     0.00    0.00    0.00    0.00   0.00   0.00
md0               0.00     0.00 208454.00    0.00 833816.00     0.00     8.00     0.00    0.00    0.00    0.00   0.00   0.00

avg-cpu:  %user   %nice %system %iowait  %steal   %idle
           2.96    0.00   27.22    0.00    0.00   69.81

Device:         rrqm/s   wrqm/s     r/s     w/s    rkB/s    wkB/s avgrq-sz avgqu-sz   await r_await w_await  svctm  %util
sda            8704.00     0.00 26417.00    0.00 140484.00     0.00    10.64    19.75    0.75    0.75    0.00   0.03  72.10
sdb            9180.00     0.00 26661.00    0.00 143356.00     0.00    10.75    20.79    0.78    0.78    0.00   0.03  71.60
sdc            9015.00     0.00 26524.00    0.00 142148.00     0.00    10.72    29.11    1.10    1.10    0.00   0.03  81.00
sdd            8939.00     0.00 26627.00    0.00 142236.00     0.00    10.68    29.89    1.12    1.12    0.00   0.03  80.30
sde            9014.00     0.00 26463.00    0.00 141904.00     0.00    10.72    29.83    1.13    1.13    0.00   0.03  81.50
sdf            8871.00     0.00 26595.00    0.00 141840.00     0.00    10.67    30.59    1.15    1.15    0.00   0.03  81.30
sdg               0.00     0.00    0.00    0.00     0.00     0.00     0.00     0.00    0.00    0.00    0.00   0.00   0.00
sdh               0.00     0.00    0.00    0.00     0.00     0.00     0.00     0.00    0.00    0.00    0.00   0.00   0.00
md0               0.00     0.00 213108.00    0.00 852432.00     0.00     8.00     0.00    0.00    0.00    0.00   0.00   0.00

