Linux 4.17.2 (bench) 	08/03/2018 	_x86_64_	(4 CPU)

avg-cpu:  %user   %nice %system %iowait  %steal   %idle
          10.30    0.02    3.96    2.40    0.00   83.32

Device:         rrqm/s   wrqm/s     r/s     w/s    rkB/s    wkB/s avgrq-sz avgqu-sz   await r_await w_await  svctm  %util
sda              38.66     4.30 1586.53  103.98 20511.63  3173.00    28.02     1.02    0.60    0.26    5.91   0.06  10.42
sdb              38.56     4.26 1586.40  104.12 20500.94  3169.61    28.00     1.02    0.60    0.26    5.85   0.06  10.30
sdc              76.78     4.32 1546.11  103.66 20493.17  3172.11    28.69     1.44    0.87    0.45    7.12   0.08  13.71
sdd              70.08     4.28 1551.96  103.73 20477.76  3168.25    28.56     1.45    0.87    0.44    7.32   0.08  13.81
sde              72.17     4.33 1557.13  103.83 20538.78  3172.56    28.55     1.47    0.88    0.45    7.43   0.08  13.83
sdf              69.25     4.30 1559.31  103.78 20519.71  3169.38    28.49     1.51    0.91    0.44    7.90   0.08  13.86
sdg               0.00     3.18   25.74   73.36   321.62   391.97    14.40     0.44    4.44    0.20    5.93   0.08   0.77
sdh               0.00     0.13    0.02    0.24     2.24     5.13    56.82     0.00    1.15    0.65    1.19   0.21   0.01
md0               0.00     0.00 9758.81  487.11 140358.24 21726.21    31.64     0.00    0.00    0.00    0.00   0.00   0.00

avg-cpu:  %user   %nice %system %iowait  %steal   %idle
           0.43    0.01    2.80   13.62    0.00   83.14

Device:         rrqm/s   wrqm/s     r/s     w/s    rkB/s    wkB/s avgrq-sz avgqu-sz   await r_await w_await  svctm  %util
sda               0.05     0.00 1364.35    0.00  6133.20     0.00     8.99     0.14    0.10    0.10    0.00   0.10  14.08
sdb               0.05     0.00 1362.30    0.00  6019.20     0.00     8.84     0.14    0.10    0.10    0.00   0.10  14.20
sdc               0.05     0.00 1363.85    0.00  6089.00     0.00     8.93     0.16    0.12    0.12    0.00   0.12  16.01
sdd               0.00     0.00 1354.15    0.00  5990.60     0.00     8.85     0.15    0.11    0.11    0.00   0.11  15.10
sde               0.00     0.00 1377.55    0.00  6253.00     0.00     9.08     0.16    0.12    0.12    0.00   0.11  15.78
sdf               0.05     0.00 1374.20    0.00  6228.00     0.00     9.06     0.17    0.12    0.12    0.00   0.12  16.26
sdg               0.00     0.10   69.75    0.50   299.60    10.60     8.83     0.01    0.12    0.12    0.50   0.12   0.81
sdh               0.00     0.00    0.00    0.00     0.00     0.00     0.00     0.00    0.00    0.00    0.00   0.00   0.00
md0               0.00     0.00 8196.70    0.00 37103.40     0.00     9.05     0.00    0.00    0.00    0.00   0.00   0.00

