Linux 4.17.2 (bench) 	08/03/2018 	_x86_64_	(4 CPU)

avg-cpu:  %user   %nice %system %iowait  %steal   %idle
          10.28    0.02    4.05    2.55    0.00   83.10

Device:         rrqm/s   wrqm/s     r/s     w/s    rkB/s    wkB/s avgrq-sz avgqu-sz   await r_await w_await  svctm  %util
sda              44.32     4.24 1645.76  102.69 20886.09  3133.74    27.48     1.03    0.59    0.26    5.91   0.06  10.69
sdb              44.19     4.20 1645.68  102.83 20875.48  3130.39    27.46     1.03    0.59    0.26    5.85   0.06  10.57
sdc              82.14     4.26 1605.64  102.38 20867.61  3132.86    28.10     1.45    0.85    0.45    7.12   0.08  14.02
sdd              75.54     4.23 1611.40  102.45 20852.45  3129.05    27.99     1.46    0.85    0.44    7.32   0.08  14.12
sde              77.58     4.28 1616.48  102.55 20912.42  3133.30    27.98     1.48    0.86    0.44    7.43   0.08  14.14
sdf              74.69     4.25 1618.65  102.49 20893.62  3130.16    27.92     1.52    0.88    0.44    7.90   0.08  14.17
sdg               0.00     3.17   26.22   73.31   323.61   391.95    14.38     0.44    4.42    0.20    5.93   0.08   0.78
sdh               0.00     0.13    0.02    0.24     2.21     5.07    56.82     0.00    1.15    0.65    1.19   0.21   0.01
md0               0.00     0.00 10148.63  481.08 143057.86 21457.37    30.95     0.00    0.00    0.00    0.00   0.00   0.00

avg-cpu:  %user   %nice %system %iowait  %steal   %idle
           0.26    0.00    2.05    1.02    0.00   96.68

Device:         rrqm/s   wrqm/s     r/s     w/s    rkB/s    wkB/s avgrq-sz avgqu-sz   await r_await w_await  svctm  %util
sda               0.00     0.00 1276.00    0.00  5420.00     0.00     8.50     0.15    0.12    0.12    0.00   0.12  15.30
sdb               0.00     0.00 1311.00    0.00  5524.00     0.00     8.43     0.14    0.11    0.11    0.00   0.11  14.10
sdc               0.00     0.00 1348.00    0.00  5836.00     0.00     8.66     0.17    0.12    0.12    0.00   0.12  16.70
sdd               0.00     0.00 1310.00    0.00  5572.00     0.00     8.51     0.13    0.10    0.10    0.00   0.10  13.40
sde               0.00     0.00 1379.00    0.00  6016.00     0.00     8.73     0.14    0.10    0.10    0.00   0.10  14.00
sdf               0.00     0.00 1368.00    0.00  6064.00     0.00     8.87     0.19    0.14    0.14    0.00   0.14  18.90
sdg               0.00     0.00    3.00    0.00    88.00     0.00    58.67     0.00    0.33    0.33    0.00   0.00   0.00
sdh               0.00     0.00    0.00    0.00     0.00     0.00     0.00     0.00    0.00    0.00    0.00   0.00   0.00
md0               0.00     0.00 7993.00    0.00 34600.00     0.00     8.66     0.00    0.00    0.00    0.00   0.00   0.00

avg-cpu:  %user   %nice %system %iowait  %steal   %idle
           0.26    0.00    1.79    1.28    0.00   96.68

Device:         rrqm/s   wrqm/s     r/s     w/s    rkB/s    wkB/s avgrq-sz avgqu-sz   await r_await w_await  svctm  %util
sda               0.00     0.00 1335.00    0.00  5836.00     0.00     8.74     0.17    0.12    0.12    0.00   0.12  16.40
sdb               0.00     0.00 1318.00    0.00  5908.00     0.00     8.97     0.15    0.11    0.11    0.00   0.11  14.80
sdc               0.00     0.00 1347.00    0.00  5796.00     0.00     8.61     0.14    0.10    0.10    0.00   0.10  14.00
sdd               0.00     0.00 1401.00    0.00  6328.00     0.00     9.03     0.16    0.11    0.11    0.00   0.11  15.70
sde               0.00     0.00 1294.00    0.00  5584.00     0.00     8.63     0.15    0.12    0.12    0.00   0.12  15.20
sdf               0.00     0.00 1325.00    0.00  5804.00     0.00     8.76     0.17    0.13    0.13    0.00   0.13  17.10
sdg               0.00     0.00    0.00    0.00     0.00     0.00     0.00     0.00    0.00    0.00    0.00   0.00   0.00
sdh               0.00     0.00    0.00    0.00     0.00     0.00     0.00     0.00    0.00    0.00    0.00   0.00   0.00
md0               0.00     0.00 8021.00    0.00 35416.00     0.00     8.83     0.00    0.00    0.00    0.00   0.00   0.00

avg-cpu:  %user   %nice %system %iowait  %steal   %idle
           0.26    0.00    1.53    1.53    0.00   96.68

Device:         rrqm/s   wrqm/s     r/s     w/s    rkB/s    wkB/s avgrq-sz avgqu-sz   await r_await w_await  svctm  %util
sda               0.00     0.00 1358.00    0.00  6200.00     0.00     9.13     0.14    0.11    0.11    0.00   0.11  14.40
sdb               0.00     0.00 1349.00    0.00  6440.00     0.00     9.55     0.14    0.11    0.11    0.00   0.10  14.00
sdc               0.00     0.00 1367.00    0.00  5920.00     0.00     8.66     0.15    0.11    0.11    0.00   0.11  15.20
sdd               0.00     0.00 1393.00    0.00  6052.00     0.00     8.69     0.17    0.13    0.13    0.00   0.13  17.50
sde               0.00     0.00 1321.00    0.00  5644.00     0.00     8.55     0.16    0.12    0.12    0.00   0.12  16.10
sdf               0.00     0.00 1254.00    0.00  5656.00     0.00     9.02     0.16    0.13    0.13    0.00   0.13  16.30
sdg               0.00     0.00    0.00    0.00     0.00     0.00     0.00     0.00    0.00    0.00    0.00   0.00   0.00
sdh               0.00     0.00    0.00    0.00     0.00     0.00     0.00     0.00    0.00    0.00    0.00   0.00   0.00
md0               0.00     0.00 8042.00    0.00 36296.00     0.00     9.03     0.00    0.00    0.00    0.00   0.00   0.00

avg-cpu:  %user   %nice %system %iowait  %steal   %idle
           0.00    0.00    2.05    3.84    0.00   94.12

Device:         rrqm/s   wrqm/s     r/s     w/s    rkB/s    wkB/s avgrq-sz avgqu-sz   await r_await w_await  svctm  %util
sda               0.00     0.00 1388.00    0.00  5896.00     0.00     8.50     0.15    0.11    0.11    0.00   0.11  15.50
sdb               0.00     0.00 1381.00    0.00  5952.00     0.00     8.62     0.14    0.10    0.10    0.00   0.10  14.10
sdc               0.00     0.00 1361.00    0.00  5888.00     0.00     8.65     0.17    0.13    0.13    0.00   0.13  17.50
sdd               0.00     0.00 1262.00    0.00  5904.00     0.00     9.36     0.13    0.10    0.10    0.00   0.10  12.70
sde               0.00     0.00 1292.00    0.00  5672.00     0.00     8.78     0.15    0.11    0.11    0.00   0.11  14.80
sdf               0.00     0.00 1345.00    0.00  5704.00     0.00     8.48     0.17    0.13    0.13    0.00   0.13  17.00
sdg               0.00     0.00    0.00    0.00     0.00     0.00     0.00     0.00    0.00    0.00    0.00   0.00   0.00
sdh               0.00     0.00    0.00    0.00     0.00     0.00     0.00     0.00    0.00    0.00    0.00   0.00   0.00
md0               0.00     0.00 8029.00    0.00 35048.00     0.00     8.73     0.00    0.00    0.00    0.00   0.00   0.00

avg-cpu:  %user   %nice %system %iowait  %steal   %idle
           0.26    0.00    1.54    1.28    0.00   96.92

Device:         rrqm/s   wrqm/s     r/s     w/s    rkB/s    wkB/s avgrq-sz avgqu-sz   await r_await w_await  svctm  %util
sda               0.00     0.00 1409.00    0.00  6204.00     0.00     8.81     0.17    0.12    0.12    0.00   0.12  16.60
sdb               0.00     0.00 1275.00    0.00  5336.00     0.00     8.37     0.13    0.10    0.10    0.00   0.10  13.20
sdc               0.00     0.00 1317.00    0.00  5508.00     0.00     8.36     0.13    0.10    0.10    0.00   0.10  12.90
sdd               0.00     0.00 1317.00    0.00  6108.00     0.00     9.28     0.18    0.14    0.14    0.00   0.14  18.40
sde               0.00     0.00 1331.00    0.00  5916.00     0.00     8.89     0.14    0.10    0.10    0.00   0.10  13.80
sdf               0.00     0.00 1342.00    0.00  5900.00     0.00     8.79     0.18    0.14    0.14    0.00   0.14  18.50
sdg               0.00     0.00    0.00    0.00     0.00     0.00     0.00     0.00    0.00    0.00    0.00   0.00   0.00
sdh               0.00     0.00    0.00    0.00     0.00     0.00     0.00     0.00    0.00    0.00    0.00   0.00   0.00
md0               0.00     0.00 7992.00    0.00 35416.00     0.00     8.86     0.00    0.00    0.00    0.00   0.00   0.00

avg-cpu:  %user   %nice %system %iowait  %steal   %idle
           0.25    0.00    3.30   15.23    0.00   81.22

Device:         rrqm/s   wrqm/s     r/s     w/s    rkB/s    wkB/s avgrq-sz avgqu-sz   await r_await w_await  svctm  %util
sda               0.00     0.00 1429.00    0.00  6204.00     0.00     8.68     0.15    0.11    0.11    0.00   0.11  15.50
sdb               0.00     0.00 1433.00    0.00  6428.00     0.00     8.97     0.16    0.11    0.11    0.00   0.11  15.60
sdc               0.00     0.00 1349.00    0.00  6136.00     0.00     9.10     0.15    0.11    0.11    0.00   0.11  14.40
sdd               0.00     0.00 1334.00    0.00  5644.00     0.00     8.46     0.16    0.12    0.12    0.00   0.12  15.60
sde               0.00     0.00 1365.00    0.00  5844.00     0.00     8.56     0.15    0.11    0.11    0.00   0.11  15.20
sdf               0.00     0.00 1369.00    0.00  5916.00     0.00     8.64     0.17    0.13    0.13    0.00   0.13  17.20
sdg               0.00     0.00 1908.00    0.00  8268.00     0.00     8.67     0.27    0.14    0.14    0.00   0.13  24.10
sdh               0.00     0.00    0.00    0.00     0.00     0.00     0.00     0.00    0.00    0.00    0.00   0.00   0.00
md0               0.00     0.00 8279.00    0.00 36224.00     0.00     8.75     0.00    0.00    0.00    0.00   0.00   0.00

avg-cpu:  %user   %nice %system %iowait  %steal   %idle
           0.26    0.00    2.04    3.06    0.00   94.64

Device:         rrqm/s   wrqm/s     r/s     w/s    rkB/s    wkB/s avgrq-sz avgqu-sz   await r_await w_await  svctm  %util
sda               0.00     0.00 1320.00    0.00  6028.00     0.00     9.13     0.12    0.09    0.09    0.00   0.09  12.10
sdb               0.00     0.00 1314.00    0.00  5604.00     0.00     8.53     0.14    0.11    0.11    0.00   0.11  14.00
sdc               0.00     0.00 1302.00    0.00  5908.00     0.00     9.08     0.16    0.12    0.12    0.00   0.12  16.00
sdd               0.00     0.00 1366.00    0.00  6164.00     0.00     9.02     0.17    0.12    0.12    0.00   0.12  16.70
sde               0.00     0.00 1304.00    0.00  5748.00     0.00     8.82     0.14    0.11    0.11    0.00   0.11  14.00
sdf               0.00     0.00 1433.00    0.00  6180.00     0.00     8.63     0.20    0.14    0.14    0.00   0.13  19.30
sdg               0.00     0.00    0.00    0.00     0.00     0.00     0.00     0.00    0.00    0.00    0.00   0.00   0.00
sdh               0.00     0.00    0.00    0.00     0.00     0.00     0.00     0.00    0.00    0.00    0.00   0.00   0.00
md0               0.00     0.00 8038.00    0.00 35752.00     0.00     8.90     0.00    0.00    0.00    0.00   0.00   0.00

avg-cpu:  %user   %nice %system %iowait  %steal   %idle
           0.26    0.00    1.79    1.53    0.00   96.43

Device:         rrqm/s   wrqm/s     r/s     w/s    rkB/s    wkB/s avgrq-sz avgqu-sz   await r_await w_await  svctm  %util
sda               0.00     0.00 1379.00    0.00  6040.00     0.00     8.76     0.15    0.11    0.11    0.00   0.11  15.30
sdb               0.00     0.00 1322.00    0.00  6000.00     0.00     9.08     0.13    0.10    0.10    0.00   0.10  13.20
sdc               0.00     0.00 1258.00    0.00  5564.00     0.00     8.85     0.16    0.13    0.13    0.00   0.12  15.70
sdd               0.00     0.00 1337.00    0.00  5620.00     0.00     8.41     0.14    0.10    0.10    0.00   0.10  13.70
sde               0.00     0.00 1364.00    0.00  6196.00     0.00     9.09     0.18    0.13    0.13    0.00   0.13  17.70
sdf               0.00     0.00 1359.00    0.00  6292.00     0.00     9.26     0.17    0.12    0.12    0.00   0.12  16.40
sdg               0.00     4.00   11.00    5.00    44.00    60.00    13.00     0.00    0.12    0.18    0.00   0.12   0.20
sdh               0.00     0.00    0.00    0.00     0.00     0.00     0.00     0.00    0.00    0.00    0.00   0.00   0.00
md0               0.00     0.00 8019.00    0.00 36096.00     0.00     9.00     0.00    0.00    0.00    0.00   0.00   0.00

avg-cpu:  %user   %nice %system %iowait  %steal   %idle
           0.26    0.00    1.79    1.28    0.00   96.68

Device:         rrqm/s   wrqm/s     r/s     w/s    rkB/s    wkB/s avgrq-sz avgqu-sz   await r_await w_await  svctm  %util
sda               0.00     0.00 1244.00    0.00  5448.00     0.00     8.76     0.13    0.10    0.10    0.00   0.10  12.90
sdb               0.00     0.00 1270.00    0.00  5756.00     0.00     9.06     0.14    0.11    0.11    0.00   0.11  13.80
sdc               0.00     0.00 1373.00    0.00  5916.00     0.00     8.62     0.15    0.11    0.11    0.00   0.11  15.00
sdd               0.00     0.00 1398.00    0.00  5992.00     0.00     8.57     0.17    0.13    0.13    0.00   0.13  17.50
sde               0.00     0.00 1331.00    0.00  5784.00     0.00     8.69     0.14    0.11    0.11    0.00   0.11  14.50
sdf               0.00     0.00 1384.00    0.00  6112.00     0.00     8.83     0.18    0.13    0.13    0.00   0.13  18.40
sdg               0.00     0.00    0.00    0.00     0.00     0.00     0.00     0.00    0.00    0.00    0.00   0.00   0.00
sdh               0.00     0.00    0.00    0.00     0.00     0.00     0.00     0.00    0.00    0.00    0.00   0.00   0.00
md0               0.00     0.00 8000.00    0.00 35064.00     0.00     8.77     0.00    0.00    0.00    0.00   0.00   0.00

avg-cpu:  %user   %nice %system %iowait  %steal   %idle
           0.25    0.00    2.54   11.42    0.00   85.79

Device:         rrqm/s   wrqm/s     r/s     w/s    rkB/s    wkB/s avgrq-sz avgqu-sz   await r_await w_await  svctm  %util
sda               0.00     0.00 1326.00    0.00  5712.00     0.00     8.62     0.13    0.10    0.10    0.00   0.10  12.70
sdb               0.00     0.00 1374.00    0.00  6280.00     0.00     9.14     0.16    0.12    0.12    0.00   0.12  16.10
sdc               0.00     0.00 1326.00    0.00  5656.00     0.00     8.53     0.17    0.13    0.13    0.00   0.13  16.80
sdd               0.00     0.00 1408.00    0.00  6288.00     0.00     8.93     0.16    0.12    0.12    0.00   0.12  16.20
sde               0.00     0.00 1360.00    0.00  6136.00     0.00     9.02     0.14    0.10    0.10    0.00   0.10  13.50
sdf               0.00     0.00 1351.00    0.00  5884.00     0.00     8.71     0.18    0.13    0.13    0.00   0.13  17.70
sdg               0.00     0.00    0.00    0.00     0.00     0.00     0.00     0.00    0.00    0.00    0.00   0.00   0.00
sdh               0.00     0.00    0.00    0.00     0.00     0.00     0.00     0.00    0.00    0.00    0.00   0.00   0.00
md0               0.00     0.00 8145.00    0.00 36300.00     0.00     8.91     0.00    0.00    0.00    0.00   0.00   0.00

avg-cpu:  %user   %nice %system %iowait  %steal   %idle
           0.26    0.00    2.30    1.02    0.00   96.43

Device:         rrqm/s   wrqm/s     r/s     w/s    rkB/s    wkB/s avgrq-sz avgqu-sz   await r_await w_await  svctm  %util
sda               0.00     0.00 1360.00    0.00  5884.00     0.00     8.65     0.14    0.10    0.10    0.00   0.10  13.60
sdb               0.00     0.00 1376.00    0.00  5972.00     0.00     8.68     0.14    0.10    0.10    0.00   0.10  13.90
sdc               0.00     0.00 1395.00    0.00  6240.00     0.00     8.95     0.16    0.12    0.12    0.00   0.12  16.20
sdd               0.00     0.00 1362.00    0.00  6220.00     0.00     9.13     0.15    0.11    0.11    0.00   0.11  14.60
sde               0.00     0.00 1398.00    0.00  5876.00     0.00     8.41     0.15    0.11    0.11    0.00   0.11  15.50
sdf               0.00     0.00 1392.00    0.00  6076.00     0.00     8.73     0.17    0.12    0.12    0.00   0.12  17.10
sdg               0.00     0.00    0.00    0.00     0.00     0.00     0.00     0.00    0.00    0.00    0.00   0.00   0.00
sdh               0.00     0.00    0.00    0.00     0.00     0.00     0.00     0.00    0.00    0.00    0.00   0.00   0.00
md0               0.00     0.00 8283.00    0.00 36564.00     0.00     8.83     0.00    0.00    0.00    0.00   0.00   0.00

avg-cpu:  %user   %nice %system %iowait  %steal   %idle
           0.26    0.00    1.79    1.28    0.00   96.68

Device:         rrqm/s   wrqm/s     r/s     w/s    rkB/s    wkB/s avgrq-sz avgqu-sz   await r_await w_await  svctm  %util
sda               0.00     0.00 1357.00    0.00  6128.00     0.00     9.03     0.13    0.10    0.10    0.00   0.09  12.80
sdb               0.00     0.00 1444.00    0.00  6204.00     0.00     8.59     0.17    0.12    0.12    0.00   0.12  16.80
sdc               0.00     0.00 1389.00    0.00  6052.00     0.00     8.71     0.18    0.13    0.13    0.00   0.13  18.00
sdd               1.00     0.00 1380.00    0.00  6788.00     0.00     9.84     0.14    0.10    0.10    0.00   0.10  13.60
sde               0.00     0.00 1408.00    0.00  6464.00     0.00     9.18     0.15    0.11    0.11    0.00   0.10  14.60
sdf               0.00     0.00 1425.00    0.00  6668.00     0.00     9.36     0.17    0.12    0.12    0.00   0.12  16.80
sdg               0.00     0.00    0.00    0.00     0.00     0.00     0.00     0.00    0.00    0.00    0.00   0.00   0.00
sdh               0.00     0.00    0.00    0.00     0.00     0.00     0.00     0.00    0.00    0.00    0.00   0.00   0.00
md0               0.00     0.00 8405.00    0.00 38524.00     0.00     9.17     0.00    0.00    0.00    0.00   0.00   0.00

avg-cpu:  %user   %nice %system %iowait  %steal   %idle
           0.26    0.00    2.04    1.28    0.00   96.43

Device:         rrqm/s   wrqm/s     r/s     w/s    rkB/s    wkB/s avgrq-sz avgqu-sz   await r_await w_await  svctm  %util
sda               0.00     0.00 1434.00    0.00  6564.00     0.00     9.15     0.17    0.12    0.12    0.00   0.12  17.20
sdb               0.00     0.00 1366.00    0.00  6732.00     0.00     9.86     0.16    0.12    0.12    0.00   0.11  14.90
sdc               0.00     0.00 1377.00    0.00  6364.00     0.00     9.24     0.17    0.12    0.12    0.00   0.11  15.80
sdd               0.00     0.00 1337.00    0.00  5776.00     0.00     8.64     0.18    0.13    0.13    0.00   0.13  17.50
sde               0.00     0.00 1304.00    0.00  5708.00     0.00     8.75     0.16    0.12    0.12    0.00   0.12  15.90
sdf               0.00     0.00 1271.00    0.00  5436.00     0.00     8.55     0.11    0.09    0.09    0.00   0.09  11.50
sdg               0.00     0.00    0.00    0.00     0.00     0.00     0.00     0.00    0.00    0.00    0.00   0.00   0.00
sdh               0.00     0.00    0.00    0.00     0.00     0.00     0.00     0.00    0.00    0.00    0.00   0.00   0.00
md0               0.00     0.00 8088.00    0.00 36784.00     0.00     9.10     0.00    0.00    0.00    0.00   0.00   0.00

avg-cpu:  %user   %nice %system %iowait  %steal   %idle
           0.26    0.00    1.54    1.28    0.00   96.92

Device:         rrqm/s   wrqm/s     r/s     w/s    rkB/s    wkB/s avgrq-sz avgqu-sz   await r_await w_await  svctm  %util
sda               0.00     0.00 1365.00    0.00  6048.00     0.00     8.86     0.15    0.11    0.11    0.00   0.11  15.20
sdb               0.00     0.00 1328.00    0.00  5620.00     0.00     8.46     0.16    0.12    0.12    0.00   0.12  16.10
sdc               0.00     0.00 1363.00    0.00  5840.00     0.00     8.57     0.20    0.15    0.15    0.00   0.15  20.40
sdd               0.00     0.00 1375.00    0.00  5840.00     0.00     8.49     0.16    0.12    0.12    0.00   0.11  15.80
sde               0.00     0.00 1323.00    0.00  5900.00     0.00     8.92     0.14    0.10    0.10    0.00   0.10  13.40
sdf               1.00     0.00 1318.00    0.00  5860.00     0.00     8.89     0.15    0.11    0.11    0.00   0.11  14.60
sdg               0.00     0.00    0.00    0.00     0.00     0.00     0.00     0.00    0.00    0.00    0.00   0.00   0.00
sdh               0.00     0.00    0.00    0.00     0.00     0.00     0.00     0.00    0.00    0.00    0.00   0.00   0.00
md0               0.00     0.00 8072.00    0.00 35244.00     0.00     8.73     0.00    0.00    0.00    0.00   0.00   0.00

avg-cpu:  %user   %nice %system %iowait  %steal   %idle
           0.00    0.00    1.79    1.28    0.00   96.92

Device:         rrqm/s   wrqm/s     r/s     w/s    rkB/s    wkB/s avgrq-sz avgqu-sz   await r_await w_await  svctm  %util
sda               0.00     0.00 1326.00    0.00  5708.00     0.00     8.61     0.15    0.11    0.11    0.00   0.11  15.00
sdb               0.00     0.00 1359.00    0.00  6012.00     0.00     8.85     0.15    0.11    0.11    0.00   0.11  15.00
sdc               0.00     0.00 1337.00    0.00  5936.00     0.00     8.88     0.18    0.14    0.14    0.00   0.14  18.10
sdd               0.00     0.00 1399.00    0.00  5892.00     0.00     8.42     0.16    0.12    0.12    0.00   0.12  16.40
sde               0.00     0.00 1324.00    0.00  5668.00     0.00     8.56     0.15    0.11    0.11    0.00   0.11  14.70
sdf               0.00     0.00 1359.00    0.00  5708.00     0.00     8.40     0.14    0.10    0.10    0.00   0.10  14.20
sdg               0.00     0.00    0.00    0.00     0.00     0.00     0.00     0.00    0.00    0.00    0.00   0.00   0.00
sdh               0.00     0.00    0.00    0.00     0.00     0.00     0.00     0.00    0.00    0.00    0.00   0.00   0.00
md0               0.00     0.00 8105.00    0.00 35120.00     0.00     8.67     0.00    0.00    0.00    0.00   0.00   0.00

avg-cpu:  %user   %nice %system %iowait  %steal   %idle
           0.50    0.25    3.53   14.86    0.00   80.86

Device:         rrqm/s   wrqm/s     r/s     w/s    rkB/s    wkB/s avgrq-sz avgqu-sz   await r_await w_await  svctm  %util
sda               0.00     0.00 1465.00    0.00  6564.00     0.00     8.96     0.17    0.11    0.11    0.00   0.11  16.50
sdb               0.00     0.00 1389.00    0.00  6056.00     0.00     8.72     0.16    0.11    0.11    0.00   0.11  15.60
sdc               0.00     0.00 1369.00    0.00  5924.00     0.00     8.65     0.16    0.12    0.12    0.00   0.12  16.00
sdd               0.00     0.00 1366.00    0.00  5872.00     0.00     8.60     0.12    0.09    0.09    0.00   0.09  11.80
sde               0.00     0.00 1398.00    0.00  5936.00     0.00     8.49     0.14    0.11    0.11    0.00   0.10  14.50
sdf               0.00     0.00 1429.00    0.00  6392.00     0.00     8.95     0.17    0.12    0.12    0.00   0.12  17.20
sdg               0.00     0.00 1330.00    0.00  5364.00     0.00     8.07     0.16    0.12    0.12    0.00   0.11  15.10
sdh               0.00     0.00    0.00    0.00     0.00     0.00     0.00     0.00    0.00    0.00    0.00   0.00   0.00
md0               0.00     0.00 8415.00    0.00 37052.00     0.00     8.81     0.00    0.00    0.00    0.00   0.00   0.00

avg-cpu:  %user   %nice %system %iowait  %steal   %idle
           0.25    0.00    2.54   21.07    0.00   76.14

Device:         rrqm/s   wrqm/s     r/s     w/s    rkB/s    wkB/s avgrq-sz avgqu-sz   await r_await w_await  svctm  %util
sda               0.00     0.00 1412.00    0.00  6052.00     0.00     8.57     0.17    0.12    0.12    0.00   0.12  16.50
sdb               0.00     0.00 1386.00    0.00  6120.00     0.00     8.83     0.12    0.09    0.09    0.00   0.09  12.50
sdc               0.00     0.00 1384.00    0.00  5940.00     0.00     8.58     0.18    0.13    0.13    0.00   0.13  17.90
sdd               0.00     0.00 1350.00    0.00  5936.00     0.00     8.79     0.15    0.11    0.11    0.00   0.11  15.10
sde               1.00     0.00 1404.00    0.00  6740.00     0.00     9.60     0.16    0.11    0.11    0.00   0.11  15.90
sdf               0.00     0.00 1395.00    0.00  6228.00     0.00     8.93     0.14    0.10    0.10    0.00   0.10  14.20
sdg               0.00     0.00    0.00    0.00     0.00     0.00     0.00     0.00    0.00    0.00    0.00   0.00   0.00
sdh               0.00     0.00    0.00    0.00     0.00     0.00     0.00     0.00    0.00    0.00    0.00   0.00   0.00
md0               0.00     0.00 8333.00    0.00 37388.00     0.00     8.97     0.00    0.00    0.00    0.00   0.00   0.00

avg-cpu:  %user   %nice %system %iowait  %steal   %idle
           0.25    0.00    2.04    6.87    0.00   90.84

Device:         rrqm/s   wrqm/s     r/s     w/s    rkB/s    wkB/s avgrq-sz avgqu-sz   await r_await w_await  svctm  %util
sda               0.00     0.00 1378.00    0.00  6004.00     0.00     8.71     0.17    0.12    0.12    0.00   0.12  16.90
sdb               0.00     0.00 1346.00    0.00  5888.00     0.00     8.75     0.14    0.10    0.10    0.00   0.10  14.10
sdc               0.00     0.00 1345.00    0.00  5748.00     0.00     8.55     0.18    0.14    0.14    0.00   0.14  18.40
sdd               0.00     0.00 1364.00    0.00  6108.00     0.00     8.96     0.15    0.11    0.11    0.00   0.11  14.60
sde               0.00     0.00 1342.00    0.00  5792.00     0.00     8.63     0.15    0.11    0.11    0.00   0.11  14.90
sdf               0.00     0.00 1371.00    0.00  5940.00     0.00     8.67     0.14    0.10    0.10    0.00   0.10  13.50
sdg               0.00     0.00    0.00    0.00     0.00     0.00     0.00     0.00    0.00    0.00    0.00   0.00   0.00
sdh               0.00     0.00    0.00    0.00     0.00     0.00     0.00     0.00    0.00    0.00    0.00   0.00   0.00
md0               0.00     0.00 8146.00    0.00 35588.00     0.00     8.74     0.00    0.00    0.00    0.00   0.00   0.00

avg-cpu:  %user   %nice %system %iowait  %steal   %idle
           0.26    0.00    1.79    1.03    0.00   96.92

Device:         rrqm/s   wrqm/s     r/s     w/s    rkB/s    wkB/s avgrq-sz avgqu-sz   await r_await w_await  svctm  %util
sda               0.00     0.00 1272.00    0.00  5372.00     0.00     8.45     0.14    0.11    0.11    0.00   0.11  14.10
sdb               0.00     0.00 1343.00    0.00  5960.00     0.00     8.88     0.15    0.12    0.12    0.00   0.11  15.30
sdc               0.00     0.00 1338.00    0.00  5796.00     0.00     8.66     0.17    0.13    0.13    0.00   0.13  17.20
sdd               0.00     0.00 1388.00    0.00  6072.00     0.00     8.75     0.15    0.11    0.11    0.00   0.11  15.50
sde               0.00     0.00 1336.00    0.00  5584.00     0.00     8.36     0.15    0.11    0.11    0.00   0.11  14.80
sdf               0.00     0.00 1436.00    0.00  6380.00     0.00     8.89     0.17    0.12    0.12    0.00   0.12  16.70
sdg               0.00     0.00    0.00    0.00     0.00     0.00     0.00     0.00    0.00    0.00    0.00   0.00   0.00
sdh               0.00     0.00    0.00    0.00     0.00     0.00     0.00     0.00    0.00    0.00    0.00   0.00   0.00
md0               0.00     0.00 8113.00    0.00 35196.00     0.00     8.68     0.00    0.00    0.00    0.00   0.00   0.00

avg-cpu:  %user   %nice %system %iowait  %steal   %idle
           0.26    0.00    1.79    1.28    0.00   96.68

Device:         rrqm/s   wrqm/s     r/s     w/s    rkB/s    wkB/s avgrq-sz avgqu-sz   await r_await w_await  svctm  %util
sda               0.00     0.00 1387.00    0.00  6088.00     0.00     8.78     0.15    0.11    0.11    0.00   0.11  15.10
sdb               0.00     0.00 1378.00    0.00  5876.00     0.00     8.53     0.14    0.10    0.10    0.00   0.10  13.80
sdc               0.00     0.00 1333.00    0.00  5768.00     0.00     8.65     0.16    0.12    0.12    0.00   0.12  16.30
sdd               0.00     0.00 1293.00    0.00  5436.00     0.00     8.41     0.14    0.10    0.10    0.00   0.10  13.50
sde               0.00     0.00 1398.00    0.00  6324.00     0.00     9.05     0.17    0.13    0.13    0.00   0.12  17.40
sdf               0.00     0.00 1387.00    0.00  6068.00     0.00     8.75     0.17    0.13    0.13    0.00   0.12  17.20
sdg               0.00     0.00    0.00    0.00     0.00     0.00     0.00     0.00    0.00    0.00    0.00   0.00   0.00
sdh               0.00     0.00    0.00    0.00     0.00     0.00     0.00     0.00    0.00    0.00    0.00   0.00   0.00
md0               0.00     0.00 8175.00    0.00 35572.00     0.00     8.70     0.00    0.00    0.00    0.00   0.00   0.00

