Linux 4.17.2 (bench) 	08/03/2018 	_x86_64_	(4 CPU)

avg-cpu:  %user   %nice %system %iowait  %steal   %idle
          10.29    0.02    4.00    2.46    0.00   83.24

Device:         rrqm/s   wrqm/s     r/s     w/s    rkB/s    wkB/s avgrq-sz avgqu-sz   await r_await w_await  svctm  %util
sda              40.86     4.28 1609.71  103.48 20664.60  3157.71    27.81     1.03    0.60    0.26    5.91   0.06  10.53
sdb              40.75     4.23 1609.60  103.62 20654.01  3154.34    27.79     1.02    0.60    0.26    5.85   0.06  10.41
sdc              78.88     4.30 1569.39  103.16 20646.23  3156.83    28.46     1.44    0.86    0.45    7.12   0.08  13.83
sdd              72.22     4.26 1575.20  103.23 20630.90  3152.99    28.34     1.45    0.86    0.44    7.32   0.08  13.93
sde              74.29     4.31 1580.34  103.33 20691.52  3157.28    28.33     1.47    0.87    0.44    7.43   0.08  13.95
sdf              71.38     4.28 1582.52  103.28 20672.53  3154.11    28.27     1.52    0.90    0.44    7.90   0.08  13.98
sdg               0.00     3.18   25.93   73.34   322.45   391.97    14.39     0.44    4.43    0.20    5.93   0.08   0.77
sdh               0.00     0.13    0.02    0.24     2.23     5.11    56.82     0.00    1.15    0.65    1.19   0.21   0.01
md0               0.00     0.00 9911.35  484.76 141464.54 21621.54    31.37     0.00    0.00    0.00    0.00   0.00   0.00

avg-cpu:  %user   %nice %system %iowait  %steal   %idle
           0.13    0.03   35.64    0.01    0.00   64.19

Device:         rrqm/s   wrqm/s     r/s     w/s    rkB/s    wkB/s avgrq-sz avgqu-sz   await r_await w_await  svctm  %util
sda               0.25     0.00 36829.80    0.00 147320.20     0.00     8.00    19.18    0.52    0.52    0.00   0.03  95.30
sdb               0.65     0.00 36883.25    0.00 147535.60     0.00     8.00    19.75    0.54    0.54    0.00   0.03  95.23
sdc               0.75     0.00 36836.20    0.00 147347.80     0.00     8.00    20.84    0.57    0.57    0.00   0.03  96.17
sdd               0.70     0.00 36837.50    0.00 147352.80     0.00     8.00    21.99    0.60    0.60    0.00   0.03  96.86
sde               0.60     0.00 36845.45    0.00 147384.20     0.00     8.00    22.52    0.61    0.61    0.00   0.03  96.72
sdf               0.65     0.00 36864.45    0.00 147460.40     0.00     8.00    23.02    0.63    0.63    0.00   0.03  97.00
sdg               0.00     0.05    2.05   73.65    13.80   410.40    11.21     0.45    6.07    0.34    6.23   0.05   0.40
sdh               0.00     0.00    0.00    0.00     0.00     0.00     0.00     0.00    0.00    0.00    0.00   0.00   0.00
md0               0.00     0.00 221108.00    0.00 884432.00     0.00     8.00     0.00    0.00    0.00    0.00   0.00   0.00

