Linux 4.17.2 (bench) 	08/03/2018 	_x86_64_	(4 CPU)

avg-cpu:  %user   %nice %system %iowait  %steal   %idle
          10.29    0.02    4.00    2.47    0.00   83.22

Device:         rrqm/s   wrqm/s     r/s     w/s    rkB/s    wkB/s avgrq-sz avgqu-sz   await r_await w_await  svctm  %util
sda              41.50     4.27 1614.33  103.35 20684.29  3153.84    27.76     1.03    0.60    0.26    5.91   0.06  10.55
sdb              41.40     4.23 1614.22  103.49 20673.72  3150.47    27.74     1.02    0.60    0.26    5.85   0.06  10.43
sdc              79.48     4.29 1574.06  103.04 20665.92  3152.96    28.40     1.44    0.86    0.45    7.12   0.08  13.86
sdd              72.83     4.26 1579.86  103.11 20650.61  3149.12    28.28     1.45    0.86    0.44    7.32   0.08  13.95
sde              74.90     4.30 1584.99  103.20 20711.15  3153.40    28.27     1.47    0.87    0.44    7.43   0.08  13.97
sdf              71.99     4.27 1587.16  103.15 20692.15  3150.24    28.21     1.52    0.90    0.44    7.90   0.08  14.00
sdg               0.00     3.18   25.96   73.33   322.53   391.96    14.39     0.44    4.43    0.20    5.93   0.08   0.78
sdh               0.00     0.13    0.02    0.24     2.23     5.10    56.82     0.00    1.15    0.65    1.19   0.21   0.01
md0               0.00     0.00 9942.93  484.17 141598.54 21595.01    31.30     0.00    0.00    0.00    0.00   0.00   0.00

avg-cpu:  %user   %nice %system %iowait  %steal   %idle
           2.26    0.00   14.54    0.25    0.00   82.96

Device:         rrqm/s   wrqm/s     r/s     w/s    rkB/s    wkB/s avgrq-sz avgqu-sz   await r_await w_await  svctm  %util
sda             144.00     0.00  230.00    0.00 77040.00     0.00   669.91     0.42    1.82    1.82    0.00   0.96  22.10
sdb             144.00     0.00  214.00    0.00 76708.00     0.00   716.90     0.43    2.01    2.01    0.00   1.07  22.80
sdc             149.00     0.00  228.00    0.00 75904.00     0.00   665.82     0.88    3.80    3.80    0.00   1.62  36.90
sdd             149.00     0.00  214.00    0.00 75916.00     0.00   709.50     0.92    4.23    4.23    0.00   1.69  36.20
sde             148.00     0.00  187.00    0.00 75224.00     0.00   804.53     0.87    4.61    4.61    0.00   1.92  35.90
sdf             148.00     0.00  207.00    0.00 75976.00     0.00   734.07     0.90    4.31    4.31    0.00   1.77  36.70
sdg               0.00     0.00    3.00    0.00    88.00     0.00    58.67     0.00    0.00    0.00    0.00   0.00   0.00
sdh               0.00     0.00    0.00    0.00     0.00     0.00     0.00     0.00    0.00    0.00    0.00   0.00   0.00
md0               0.00     0.00 2179.00    0.00 689424.00     0.00   632.79     0.00    0.00    0.00    0.00   0.00   0.00

avg-cpu:  %user   %nice %system %iowait  %steal   %idle
           1.01    0.00    6.30   17.13    0.00   75.57

Device:         rrqm/s   wrqm/s     r/s     w/s    rkB/s    wkB/s avgrq-sz avgqu-sz   await r_await w_await  svctm  %util
sda             335.00     0.00  379.00    0.00 173792.00     0.00   917.11     0.89    2.36    2.36    0.00   1.28  48.50
sdb             334.00     0.00  394.00    0.00 174580.00     0.00   886.19     0.95    2.41    2.41    0.00   1.29  50.70
sdc             327.00     0.00  391.00    0.00 174716.00     0.00   893.69     2.06    5.27    5.27    0.00   2.10  82.30
sdd             331.00     0.00  381.00    0.00 175772.00     0.00   922.69     2.04    5.38    5.38    0.00   2.17  82.60
sde             329.00     0.00  388.00    0.00 174656.00     0.00   900.29     2.07    5.31    5.31    0.00   2.14  83.10
sdf             335.00     0.00  396.00    0.00 174592.00     0.00   881.78     2.05    5.18    5.18    0.00   2.11  83.50
sdg               0.00     0.00    0.00    0.00     0.00     0.00     0.00     0.00    0.00    0.00    0.00   0.00   0.00
sdh               0.00     0.00    0.00    0.00     0.00     0.00     0.00     0.00    0.00    0.00    0.00   0.00   0.00
md0               0.00     0.00 4320.00    0.00 1573104.00     0.00   728.29     0.00    0.00    0.00    0.00   0.00   0.00

avg-cpu:  %user   %nice %system %iowait  %steal   %idle
           0.51    0.00    6.57   17.17    0.00   75.76

Device:         rrqm/s   wrqm/s     r/s     w/s    rkB/s    wkB/s avgrq-sz avgqu-sz   await r_await w_await  svctm  %util
sda             326.00     0.00  389.00    0.00 174728.00     0.00   898.34     0.91    2.33    2.33    0.00   1.26  49.10
sdb             335.00     0.00  365.00    0.00 174640.00     0.00   956.93     0.91    2.48    2.48    0.00   1.33  48.70
sdc             333.00     0.00  385.00    0.00 175544.00     0.00   911.92     2.01    5.23    5.23    0.00   2.15  82.80
sdd             332.00     0.00  415.00    0.00 175548.00     0.00   846.01     2.03    4.91    4.91    0.00   2.00  83.00
sde             329.00     0.00  388.00    0.00 176028.00     0.00   907.36     2.02    5.26    5.26    0.00   2.14  82.90
sdf             335.00     0.00  375.00    0.00 175784.00     0.00   937.51     1.96    5.27    5.27    0.00   2.23  83.80
sdg               0.00     0.00    0.00    0.00     0.00     0.00     0.00     0.00    0.00    0.00    0.00   0.00   0.00
sdh               0.00     0.00    0.00    0.00     0.00     0.00     0.00     0.00    0.00    0.00    0.00   0.00   0.00
md0               0.00     0.00 4301.00    0.00 1490416.00     0.00   693.06     0.00    0.00    0.00    0.00   0.00   0.00

avg-cpu:  %user   %nice %system %iowait  %steal   %idle
           0.75    0.00    7.02   15.29    0.00   76.94

Device:         rrqm/s   wrqm/s     r/s     w/s    rkB/s    wkB/s avgrq-sz avgqu-sz   await r_await w_await  svctm  %util
sda             333.00     0.00  400.00    0.00 173884.00     0.00   869.42     0.94    2.33    2.33    0.00   1.24  49.40
sdb             333.00     0.00  393.00    0.00 174196.00     0.00   886.49     0.93    2.36    2.36    0.00   1.26  49.60
sdc             333.00     0.00  375.00    0.00 173812.00     0.00   927.00     1.93    5.12    5.12    0.00   2.19  82.10
sdd             338.00     0.00  381.00    0.00 174152.00     0.00   914.18     2.01    5.26    5.26    0.00   2.16  82.20
sde             335.00     0.00  371.00    0.00 174524.00     0.00   940.83     1.96    5.26    5.26    0.00   2.22  82.20
sdf             330.00     0.00  382.00    0.00 174592.00     0.00   914.09     1.96    5.11    5.11    0.00   2.15  82.20
sdg               0.00     0.00    0.00    0.00     0.00     0.00     0.00     0.00    0.00    0.00    0.00   0.00   0.00
sdh               0.00     0.00    0.00    0.00     0.00     0.00     0.00     0.00    0.00    0.00    0.00   0.00   0.00
md0               0.00     0.00 4316.00    0.00 1472992.00     0.00   682.57     0.00    0.00    0.00    0.00   0.00   0.00

avg-cpu:  %user   %nice %system %iowait  %steal   %idle
           1.00    0.00    6.52    0.25    0.00   92.23

Device:         rrqm/s   wrqm/s     r/s     w/s    rkB/s    wkB/s avgrq-sz avgqu-sz   await r_await w_await  svctm  %util
sda             326.00     0.00  402.00    0.00 172396.00     0.00   857.69     0.93    2.33    2.33    0.00   1.20  48.40
sdb             321.00     0.00  374.00    0.00 172060.00     0.00   920.11     0.94    2.53    2.53    0.00   1.32  49.20
sdc             327.00     0.00  370.00    0.00 172676.00     0.00   933.38     1.93    5.22    5.22    0.00   2.19  80.90
sdd             327.00     0.00  395.00    0.00 172400.00     0.00   872.91     1.96    4.97    4.97    0.00   2.07  81.90
sde             328.00     0.00  363.00    0.00 172356.00     0.00   949.62     1.97    5.42    5.42    0.00   2.23  81.00
sdf             323.00     0.00  378.00    0.00 171332.00     0.00   906.52     1.96    5.15    5.15    0.00   2.14  80.80
sdg               0.00     0.00    1.00    3.00    16.00    44.00    30.00     0.00    0.00    0.00    0.00   0.00   0.00
sdh               0.00     0.00    0.00    0.00     0.00     0.00     0.00     0.00    0.00    0.00    0.00   0.00   0.00
md0               0.00     0.00 4228.00    0.00 1613752.00     0.00   763.36     0.00    0.00    0.00    0.00   0.00   0.00

avg-cpu:  %user   %nice %system %iowait  %steal   %idle
           0.76    0.00    9.32    1.51    0.00   88.41

Device:         rrqm/s   wrqm/s     r/s     w/s    rkB/s    wkB/s avgrq-sz avgqu-sz   await r_await w_await  svctm  %util
sda             331.00     0.00  392.00    0.00 174844.00     0.00   892.06     0.94    2.41    2.41    0.00   1.27  49.60
sdb             328.00     0.00  386.00    0.00 175656.00     0.00   910.13     0.98    2.55    2.55    0.00   1.34  51.70
sdc             338.00     0.00  356.00    0.00 176008.00     0.00   988.81     2.02    5.69    5.69    0.00   2.37  84.20
sdd             331.00     0.00  389.00    0.00 175456.00     0.00   902.09     2.04    5.25    5.25    0.00   2.16  84.20
sde             333.00     0.00  385.00    0.00 174784.00     0.00   907.97     2.01    5.22    5.22    0.00   2.19  84.20
sdf             337.00     0.00  362.00    0.00 176016.00     0.00   972.46     1.99    5.52    5.52    0.00   2.30  83.30
sdg               0.00     2.00   17.00 1441.00   116.00  7388.00    10.29     8.92    6.12    0.18    6.19   0.05   6.90
sdh               0.00     0.00    0.00    0.00     0.00     0.00     0.00     0.00    0.00    0.00    0.00   0.00   0.00
md0               0.00     0.00 4255.00    0.00 1533380.00     0.00   720.74     0.00    0.00    0.00    0.00   0.00   0.00

avg-cpu:  %user   %nice %system %iowait  %steal   %idle
           0.51    0.00    8.33    7.07    0.00   84.09

Device:         rrqm/s   wrqm/s     r/s     w/s    rkB/s    wkB/s avgrq-sz avgqu-sz   await r_await w_await  svctm  %util
sda             318.81     0.00  395.05    0.00 169988.12     0.00   860.59     0.89    2.26    2.26    0.00   1.24  48.91
sdb             319.80     0.00  395.05    0.00 169508.91     0.00   858.17     0.87    2.20    2.20    0.00   1.26  49.80
sdc             322.77     0.00  363.37    0.00 170217.82     0.00   936.89     1.83    5.06    5.06    0.00   2.23  80.89
sdd             319.80     0.00  372.28    0.00 170007.92     0.00   913.34     1.89    5.09    5.09    0.00   2.18  81.29
sde             318.81     0.00  383.17    0.00 170213.86     0.00   888.45     1.93    5.04    5.04    0.00   2.12  81.09
sdf             326.73     0.00  376.24    0.00 170320.79     0.00   905.39     1.91    5.10    5.10    0.00   2.15  80.89
sdg               0.00     0.00   14.85    0.00   439.60     0.00    59.20     0.01    0.40    0.40    0.00   0.20   0.30
sdh               0.00     0.00    0.00    0.00     0.00     0.00     0.00     0.00    0.00    0.00    0.00   0.00   0.00
md0               0.00     0.00 4227.72    0.00 1548312.87     0.00   732.46     0.00    0.00    0.00    0.00   0.00   0.00

avg-cpu:  %user   %nice %system %iowait  %steal   %idle
           0.76    0.00    9.09    0.25    0.00   89.90

Device:         rrqm/s   wrqm/s     r/s     w/s    rkB/s    wkB/s avgrq-sz avgqu-sz   await r_await w_await  svctm  %util
sda             337.00     0.00  370.00    0.00 177580.00     0.00   959.89     0.94    2.55    2.55    0.00   1.31  48.60
sdb             337.00     0.00  362.00    0.00 177852.00     0.00   982.61     0.97    2.70    2.70    0.00   1.40  50.70
sdc             337.00     0.00  391.00    0.00 177284.00     0.00   906.82     2.06    5.27    5.27    0.00   2.16  84.30
sdd             333.00     0.00  391.00    0.00 177016.00     0.00   905.45     2.02    5.18    5.18    0.00   2.16  84.30
sde             337.00     0.00  362.00    0.00 177968.00     0.00   983.25     2.07    5.73    5.73    0.00   2.32  84.10
sdf             335.00     0.00  377.00    0.00 177380.00     0.00   941.01     2.06    5.44    5.44    0.00   2.23  83.90
sdg               0.00     0.00    0.00    0.00     0.00     0.00     0.00     0.00    0.00    0.00    0.00   0.00   0.00
sdh               0.00     0.00    0.00    0.00     0.00     0.00     0.00     0.00    0.00    0.00    0.00   0.00   0.00
md0               0.00     0.00 4250.00    0.00 1566256.00     0.00   737.06     0.00    0.00    0.00    0.00   0.00   0.00

avg-cpu:  %user   %nice %system %iowait  %steal   %idle
           0.25    0.00    8.33    0.25    0.00   91.16

Device:         rrqm/s   wrqm/s     r/s     w/s    rkB/s    wkB/s avgrq-sz avgqu-sz   await r_await w_await  svctm  %util
sda             304.00     0.00  363.00    0.00 162700.00     0.00   896.42     0.84    2.33    2.33    0.00   1.27  46.20
sdb             307.00     0.00  387.00    0.00 162372.00     0.00   839.13     0.84    2.18    2.18    0.00   1.20  46.60
sdc             308.00     0.00  382.00    0.00 162488.00     0.00   850.72     1.70    4.46    4.46    0.00   2.03  77.60
sdd             312.00     0.00  351.00    0.00 162736.00     0.00   927.27     1.73    4.92    4.92    0.00   2.20  77.20
sde             309.00     0.00  372.00    0.00 162760.00     0.00   875.05     1.77    4.76    4.76    0.00   2.08  77.50
sdf             306.00     0.00  375.00    0.00 163280.00     0.00   870.83     1.75    4.71    4.71    0.00   2.05  76.90
sdg               0.00     0.00    0.00    0.00     0.00     0.00     0.00     0.00    0.00    0.00    0.00   0.00   0.00
sdh               0.00     0.00    0.00    0.00     0.00     0.00     0.00     0.00    0.00    0.00    0.00   0.00   0.00
md0               0.00     0.00 4075.00    0.00 1428680.00     0.00   701.19     0.00    0.00    0.00    0.00   0.00   0.00

avg-cpu:  %user   %nice %system %iowait  %steal   %idle
           0.76    0.00    9.32    8.56    0.00   81.36

Device:         rrqm/s   wrqm/s     r/s     w/s    rkB/s    wkB/s avgrq-sz avgqu-sz   await r_await w_await  svctm  %util
sda             329.00     0.00  389.00    0.00 169896.00     0.00   873.50     0.89    2.28    2.28    0.00   1.23  47.80
sdb             323.00     0.00  376.00    0.00 170136.00     0.00   904.98     0.92    2.45    2.45    0.00   1.31  49.20
sdc             327.00     0.00  366.00    0.00 170912.00     0.00   933.95     1.86    5.08    5.08    0.00   2.22  81.30
sdd             324.00     0.00  377.00    0.00 171012.00     0.00   907.23     1.89    5.02    5.02    0.00   2.15  81.20
sde             320.00     0.00  380.00    0.00 170676.00     0.00   898.29     1.93    5.07    5.07    0.00   2.14  81.40
sdf             323.00     0.00  370.00    0.00 170540.00     0.00   921.84     1.88    5.09    5.09    0.00   2.18  80.80
sdg               0.00     0.00    0.00    0.00     0.00     0.00     0.00     0.00    0.00    0.00    0.00   0.00   0.00
sdh               0.00     0.00    0.00    0.00     0.00     0.00     0.00     0.00    0.00    0.00    0.00   0.00   0.00
md0               0.00     0.00 4210.00    0.00 1537700.00     0.00   730.50     0.00    0.00    0.00    0.00   0.00   0.00

avg-cpu:  %user   %nice %system %iowait  %steal   %idle
           0.75    0.00    9.77   16.54    0.00   72.93

Device:         rrqm/s   wrqm/s     r/s     w/s    rkB/s    wkB/s avgrq-sz avgqu-sz   await r_await w_await  svctm  %util
sda             330.00     0.00  381.00    0.00 174492.00     0.00   915.97     0.89    2.35    2.35    0.00   1.28  48.90
sdb             334.00     0.00  390.00    0.00 174208.00     0.00   893.37     0.92    2.37    2.37    0.00   1.28  50.00
sdc             328.00     0.00  387.00    0.00 174660.00     0.00   902.64     1.96    5.08    5.08    0.00   2.14  82.90
sdd             334.00     0.00  385.00    0.00 174516.00     0.00   906.58     1.93    5.02    5.02    0.00   2.14  82.20
sde             329.00     0.00  385.00    0.00 173852.00     0.00   903.13     1.95    5.07    5.07    0.00   2.14  82.40
sdf             332.00     0.00  382.00    0.00 174084.00     0.00   911.43     1.96    5.14    5.14    0.00   2.17  82.90
sdg               0.00     0.00    0.00    0.00     0.00     0.00     0.00     0.00    0.00    0.00    0.00   0.00   0.00
sdh               0.00     0.00    0.00    0.00     0.00     0.00     0.00     0.00    0.00    0.00    0.00   0.00   0.00
md0               0.00     0.00 4291.00    0.00 1492532.00     0.00   695.66     0.00    0.00    0.00    0.00   0.00   0.00

avg-cpu:  %user   %nice %system %iowait  %steal   %idle
           0.76    0.00    9.07   16.62    0.00   73.55

Device:         rrqm/s   wrqm/s     r/s     w/s    rkB/s    wkB/s avgrq-sz avgqu-sz   await r_await w_await  svctm  %util
sda             329.00     0.00  390.00    0.00 175864.00     0.00   901.87     0.93    2.39    2.39    0.00   1.26  49.30
sdb             335.00     0.00  386.00    0.00 175540.00     0.00   909.53     0.95    2.46    2.46    0.00   1.31  50.70
sdc             332.00     0.00  379.00    0.00 174536.00     0.00   921.03     1.99    5.22    5.22    0.00   2.21  83.60
sdd             337.00     0.00  367.00    0.00 174552.00     0.00   951.24     2.00    5.43    5.43    0.00   2.27  83.30
sde             331.00     0.00  388.00    0.00 174596.00     0.00   899.98     2.02    5.20    5.20    0.00   2.15  83.60
sdf             332.00     0.00  386.00    0.00 174424.00     0.00   903.75     2.02    5.21    5.21    0.00   2.15  83.00
sdg               0.00     0.00    0.00    0.00     0.00     0.00     0.00     0.00    0.00    0.00    0.00   0.00   0.00
sdh               0.00     0.00    0.00    0.00     0.00     0.00     0.00     0.00    0.00    0.00    0.00   0.00   0.00
md0               0.00     0.00 4296.00    0.00 1598512.00     0.00   744.19     0.00    0.00    0.00    0.00   0.00   0.00

avg-cpu:  %user   %nice %system %iowait  %steal   %idle
           0.51    0.00    8.08    0.25    0.00   91.16

Device:         rrqm/s   wrqm/s     r/s     w/s    rkB/s    wkB/s avgrq-sz avgqu-sz   await r_await w_await  svctm  %util
sda             308.00     0.00  364.00    0.00 161144.00     0.00   885.41     0.82    2.26    2.26    0.00   1.24  45.10
sdb             302.00     0.00  377.00    0.00 160992.00     0.00   854.07     0.83    2.19    2.19    0.00   1.21  45.70
sdc             308.00     0.00  365.00    0.00 160876.00     0.00   881.51     1.65    4.50    4.50    0.00   2.07  75.40
sdd             310.00     0.00  369.00    0.00 161124.00     0.00   873.30     1.73    4.67    4.67    0.00   2.07  76.40
sde             305.00     0.00  372.00    0.00 160420.00     0.00   862.47     1.71    4.57    4.57    0.00   2.05  76.10
sdf             305.00     0.00  381.00    0.00 160688.00     0.00   843.51     1.71    4.46    4.46    0.00   2.01  76.40
sdg               0.00     0.00    0.00    0.00     0.00     0.00     0.00     0.00    0.00    0.00    0.00   0.00   0.00
sdh               0.00     0.00    0.00    0.00     0.00     0.00     0.00     0.00    0.00    0.00    0.00   0.00   0.00
md0               0.00     0.00 4082.00    0.00 1421560.00     0.00   696.50     0.00    0.00    0.00    0.00   0.00   0.00

avg-cpu:  %user   %nice %system %iowait  %steal   %idle
           0.76    0.00    8.86   15.70    0.00   74.68

Device:         rrqm/s   wrqm/s     r/s     w/s    rkB/s    wkB/s avgrq-sz avgqu-sz   await r_await w_await  svctm  %util
sda             323.00     0.00  402.00    0.00 171368.00     0.00   852.58     0.88    2.18    2.18    0.00   1.22  49.10
sdb             331.00     0.00  365.00    0.00 171088.00     0.00   937.47     0.91    2.48    2.48    0.00   1.37  49.90
sdc             318.00     0.00  384.00    0.00 170516.00     0.00   888.10     1.92    5.01    5.01    0.00   2.12  81.60
sdd             324.00     0.00  372.00    0.00 170616.00     0.00   917.29     1.91    5.14    5.14    0.00   2.20  82.00
sde             325.00     0.00  379.00    0.00 170980.00     0.00   902.27     1.93    5.10    5.10    0.00   2.17  82.20
sdf             322.00     0.00  398.00    0.00 170420.00     0.00   856.38     1.95    4.91    4.91    0.00   2.07  82.20
sdg               0.00     0.00    0.00    0.00     0.00     0.00     0.00     0.00    0.00    0.00    0.00   0.00   0.00
sdh               0.00     0.00    0.00    0.00     0.00     0.00     0.00     0.00    0.00    0.00    0.00   0.00   0.00
md0               0.00     0.00 4238.00    0.00 1462884.00     0.00   690.37     0.00    0.00    0.00    0.00   0.00   0.00

avg-cpu:  %user   %nice %system %iowait  %steal   %idle
           0.50    0.00    9.80   16.58    0.00   73.12

Device:         rrqm/s   wrqm/s     r/s     w/s    rkB/s    wkB/s avgrq-sz avgqu-sz   await r_await w_await  svctm  %util
sda             314.00     0.00  392.00    0.00 172204.00     0.00   878.59     0.95    2.43    2.43    0.00   1.26  49.20
sdb             319.00     0.00  365.00    0.00 173564.00     0.00   951.04     0.96    2.65    2.65    0.00   1.41  51.50
sdc             326.00     0.00  369.00    0.00 174756.00     0.00   947.19     1.98    5.40    5.40    0.00   2.25  83.20
sdd             317.00     0.00  399.00    0.00 174632.00     0.00   875.35     2.02    5.10    5.10    0.00   2.09  83.30
sde             323.00     0.00  359.00    0.00 174040.00     0.00   969.58     1.95    5.45    5.45    0.00   2.31  82.80
sdf             321.00     0.00  378.00    0.00 173776.00     0.00   919.45     1.99    5.29    5.29    0.00   2.19  82.60
sdg               0.00     0.00    0.00    0.00     0.00     0.00     0.00     0.00    0.00    0.00    0.00   0.00   0.00
sdh               0.00     0.00    0.00    0.00     0.00     0.00     0.00     0.00    0.00    0.00    0.00   0.00   0.00
md0               0.00     0.00 4173.00    0.00 1532208.00     0.00   734.34     0.00    0.00    0.00    0.00   0.00   0.00

avg-cpu:  %user   %nice %system %iowait  %steal   %idle
           0.76    0.25   10.61   16.92    0.00   71.46

Device:         rrqm/s   wrqm/s     r/s     w/s    rkB/s    wkB/s avgrq-sz avgqu-sz   await r_await w_await  svctm  %util
sda             352.00     0.00  379.00    0.00 180172.00     0.00   950.78     1.00    2.61    2.61    0.00   1.35  51.30
sdb             349.00     0.00  382.00    0.00 180376.00     0.00   944.38     1.02    2.66    2.66    0.00   1.37  52.30
sdc             350.00     0.00  370.00    0.00 180040.00     0.00   973.19     2.12    5.72    5.72    0.00   2.32  85.70
sdd             347.00     0.00  383.00    0.00 180016.00     0.00   940.03     2.11    5.50    5.50    0.00   2.26  86.60
sde             354.00     0.00  386.00    0.00 180428.00     0.00   934.86     2.17    5.61    5.61    0.00   2.25  86.70
sdf             349.00     0.00  382.00    0.00 180304.00     0.00   944.00     2.09    5.45    5.45    0.00   2.26  86.30
sdg               0.00     0.00 1825.00    0.00  7300.00     0.00     8.00     0.24    0.13    0.13    0.00   0.13  24.10
sdh               0.00     0.00    0.00    0.00     0.00     0.00     0.00     0.00    0.00    0.00    0.00   0.00   0.00
md0               0.00     0.00 4400.00    0.00 1699596.00     0.00   772.54     0.00    0.00    0.00    0.00   0.00   0.00

avg-cpu:  %user   %nice %system %iowait  %steal   %idle
           0.76    0.00    9.32    5.54    0.00   84.38

Device:         rrqm/s   wrqm/s     r/s     w/s    rkB/s    wkB/s avgrq-sz avgqu-sz   await r_await w_await  svctm  %util
sda             314.00     0.00  373.00    0.00 165868.00     0.00   889.37     0.83    2.25    2.25    0.00   1.22  45.60
sdb             307.00     0.00  353.00    0.00 165940.00     0.00   940.17     0.91    2.58    2.58    0.00   1.37  48.50
sdc             314.00     0.00  365.00    0.00 165436.00     0.00   906.50     1.77    4.86    4.86    0.00   2.15  78.60
sdd             309.00     0.00  403.00    0.00 164916.00     0.00   818.44     1.84    4.56    4.56    0.00   1.95  78.40
sde             309.00     0.00  375.00    0.00 165456.00     0.00   882.43     1.84    4.92    4.92    0.00   2.09  78.50
sdf             309.00     0.00  378.00    0.00 165392.00     0.00   875.09     1.79    4.75    4.75    0.00   2.09  79.00
sdg               0.00     0.00    0.00    0.00     0.00     0.00     0.00     0.00    0.00    0.00    0.00   0.00   0.00
sdh               0.00     0.00    0.00    0.00     0.00     0.00     0.00     0.00    0.00    0.00    0.00   0.00   0.00
md0               0.00     0.00 4096.00    0.00 1505364.00     0.00   735.04     0.00    0.00    0.00    0.00   0.00   0.00

avg-cpu:  %user   %nice %system %iowait  %steal   %idle
           0.51    0.00    9.11    1.77    0.00   88.61

Device:         rrqm/s   wrqm/s     r/s     w/s    rkB/s    wkB/s avgrq-sz avgqu-sz   await r_await w_await  svctm  %util
sda             312.00     0.00  365.00    0.00 170944.00     0.00   936.68     0.89    2.43    2.43    0.00   1.34  48.80
sdb             311.00     0.00  353.00    0.00 170604.00     0.00   966.59     0.93    2.63    2.63    0.00   1.44  50.70
sdc             303.00     0.00  363.00    0.00 170964.00     0.00   941.95     1.89    5.20    5.20    0.00   2.25  81.50
sdd             313.00     0.00  348.00    0.00 171372.00     0.00   984.90     1.91    5.48    5.48    0.00   2.34  81.60
sde             305.00     0.00  370.00    0.00 171012.00     0.00   924.39     1.94    5.23    5.23    0.00   2.21  81.80
sdf             305.00     0.00  403.00    0.00 170068.00     0.00   844.01     1.93    4.79    4.79    0.00   2.04  82.40
sdg               0.00    66.00    6.00 1438.00   104.00  7376.00    10.36     8.95    6.20    0.00    6.22   0.05   6.60
sdh               0.00     0.00    0.00    0.00     0.00     0.00     0.00     0.00    0.00    0.00    0.00   0.00   0.00
md0               0.00     0.00 4053.00    0.00 1434704.00     0.00   707.97     0.00    0.00    0.00    0.00   0.00   0.00

avg-cpu:  %user   %nice %system %iowait  %steal   %idle
           0.76    0.00    8.56    0.25    0.00   90.43

Device:         rrqm/s   wrqm/s     r/s     w/s    rkB/s    wkB/s avgrq-sz avgqu-sz   await r_await w_await  svctm  %util
sda             314.00     0.00  395.00    0.00 164928.00     0.00   835.08     0.86    2.19    2.19    0.00   1.18  46.60
sdb             309.00     0.00  388.00    0.00 165340.00     0.00   852.27     0.89    2.29    2.29    0.00   1.25  48.60
sdc             317.00     0.00  352.00    0.00 165680.00     0.00   941.36     1.79    5.06    5.06    0.00   2.22  78.10
sdd             308.00     0.00  389.00    0.00 165080.00     0.00   848.74     1.83    4.71    4.71    0.00   2.03  78.80
sde             314.00     0.00  375.00    0.00 165316.00     0.00   881.69     1.81    4.81    4.81    0.00   2.10  78.80
sdf             313.00     0.00  369.00    0.00 165336.00     0.00   896.13     1.83    4.96    4.96    0.00   2.14  78.80
sdg               0.00     0.00    2.00    0.00     8.00     0.00     8.00     0.00    0.00    0.00    0.00   0.00   0.00
sdh               0.00     0.00    0.00    0.00     0.00     0.00     0.00     0.00    0.00    0.00    0.00   0.00   0.00
md0               0.00     0.00 4143.00    0.00 1497532.00     0.00   722.92     0.00    0.00    0.00    0.00   0.00   0.00

avg-cpu:  %user   %nice %system %iowait  %steal   %idle
           0.50    0.00    8.82    0.25    0.00   90.43

Device:         rrqm/s   wrqm/s     r/s     w/s    rkB/s    wkB/s avgrq-sz avgqu-sz   await r_await w_await  svctm  %util
sda             316.00     0.00  351.00    0.00 164044.00     0.00   934.72     0.84    2.40    2.40    0.00   1.32  46.20
sdb             308.00     0.00  388.00    0.00 163880.00     0.00   844.74     0.91    2.35    2.35    0.00   1.27  49.30
sdc             310.00     0.00  376.00    0.00 163480.00     0.00   869.57     1.79    4.75    4.75    0.00   2.09  78.70
sdd             314.00     0.00  369.00    0.00 163800.00     0.00   887.80     1.79    4.82    4.82    0.00   2.13  78.50
sde             313.00     0.00  382.00    0.00 163632.00     0.00   856.71     1.78    4.63    4.63    0.00   2.08  79.50
sdf             317.00     0.00  355.00    0.00 163584.00     0.00   921.60     1.82    5.09    5.09    0.00   2.25  79.70
sdg               0.00     0.00    1.00    0.00     4.00     0.00     8.00     0.00    0.00    0.00    0.00   0.00   0.00
sdh               0.00     0.00    0.00    0.00     0.00     0.00     0.00     0.00    0.00    0.00    0.00   0.00   0.00
md0               0.00     0.00 4107.00    0.00 1476168.00     0.00   718.85     0.00    0.00    0.00    0.00   0.00   0.00

