Linux 4.17.2 (bench) 	08/03/2018 	_x86_64_	(4 CPU)

avg-cpu:  %user   %nice %system %iowait  %steal   %idle
          10.30    0.02    3.96    2.40    0.00   83.32

Device:         rrqm/s   wrqm/s     r/s     w/s    rkB/s    wkB/s avgrq-sz avgqu-sz   await r_await w_await  svctm  %util
sda              38.65     4.29 1586.47  103.96 20512.26  3172.41    28.02     1.02    0.60    0.26    5.91   0.06  10.42
sdb              38.56     4.25 1586.34  104.10 20501.57  3169.02    28.01     1.02    0.60    0.26    5.85   0.06  10.30
sdc              76.76     4.32 1546.06  103.64 20493.81  3171.52    28.69     1.44    0.87    0.45    7.12   0.08  13.71
sdd              70.07     4.28 1551.91  103.71 20478.41  3167.66    28.56     1.45    0.87    0.44    7.32   0.08  13.81
sde              72.16     4.33 1557.08  103.81 20539.41  3171.97    28.55     1.47    0.88    0.45    7.43   0.08  13.83
sdf              69.24     4.30 1559.26  103.76 20520.35  3168.79    28.49     1.51    0.91    0.44    7.90   0.08  13.86
sdg               0.00     3.18   25.74   73.36   321.63   391.97    14.40     0.44    4.44    0.20    5.93   0.08   0.77
sdh               0.00     0.13    0.02    0.24     2.24     5.13    56.82     0.00    1.15    0.65    1.19   0.21   0.01
md0               0.00     0.00 9758.44  487.02 140366.69 21722.16    31.64     0.00    0.00    0.00    0.00   0.00   0.00

avg-cpu:  %user   %nice %system %iowait  %steal   %idle
           0.19    0.01    2.02    6.28    0.00   91.51

Device:         rrqm/s   wrqm/s     r/s     w/s    rkB/s    wkB/s avgrq-sz avgqu-sz   await r_await w_await  svctm  %util
sda               0.00     0.00 1490.15    0.00  5960.60     0.00     8.00     0.15    0.10    0.10    0.00   0.10  14.74
sdb               0.00     0.00 1508.80    0.00  6035.20     0.00     8.00     0.15    0.10    0.10    0.00   0.10  14.77
sdc               0.00     0.00 1526.15    0.00  6104.60     0.00     8.00     0.16    0.10    0.10    0.00   0.10  15.84
sdd               0.00     0.00 1508.20    0.00  6032.80     0.00     8.00     0.16    0.11    0.11    0.00   0.11  15.89
sde               0.00     0.00 1495.45    0.00  5981.80     0.00     8.00     0.16    0.10    0.10    0.00   0.10  15.58
sdf               0.00     0.00 1514.90    0.00  6059.60     0.00     8.00     0.16    0.11    0.11    0.00   0.11  16.12
sdg               0.00     0.10    5.65    0.40   100.80     4.40    34.78     0.00    0.34    0.28    1.12   0.29   0.18
sdh               0.00     0.00    0.00    0.00     0.00     0.00     0.00     0.00    0.00    0.00    0.00   0.00   0.00
md0               0.00     0.00 9043.75    0.00 36175.00     0.00     8.00     0.00    0.00    0.00    0.00   0.00   0.00

