Linux 4.17.2 (bench) 	08/03/2018 	_x86_64_	(4 CPU)

avg-cpu:  %user   %nice %system %iowait  %steal   %idle
          10.28    0.02    4.04    2.54    0.00   83.12

Device:         rrqm/s   wrqm/s     r/s     w/s    rkB/s    wkB/s avgrq-sz avgqu-sz   await r_await w_await  svctm  %util
sda              44.31     4.25 1641.02  102.81 20843.52  3137.25    27.50     1.03    0.59    0.26    5.91   0.06  10.67
sdb              44.18     4.21 1640.94  102.95 20832.94  3133.91    27.49     1.03    0.59    0.26    5.85   0.06  10.55
sdc              82.17     4.27 1600.85  102.49 20825.09  3136.38    28.13     1.45    0.85    0.45    7.12   0.08  13.99
sdd              75.57     4.24 1606.63  102.56 20809.92  3132.56    28.02     1.46    0.85    0.44    7.32   0.08  14.09
sde              77.61     4.28 1611.71  102.66 20869.95  3136.82    28.01     1.48    0.86    0.44    7.43   0.08  14.11
sdf              74.72     4.25 1613.88  102.61 20851.11  3133.67    27.95     1.52    0.89    0.44    7.90   0.08  14.14
sdg               0.00     3.17   26.17   73.31   323.39   391.94    14.38     0.44    4.42    0.20    5.93   0.08   0.78
sdh               0.00     0.13    0.02    0.24     2.22     5.08    56.82     0.00    1.15    0.65    1.19   0.21   0.01
md0               0.00     0.00 10120.09  481.62 142723.68 21481.45    30.98     0.00    0.00    0.00    0.00   0.00   0.00

avg-cpu:  %user   %nice %system %iowait  %steal   %idle
           0.43    0.01    4.64    4.16    0.00   90.76

Device:         rrqm/s   wrqm/s     r/s     w/s    rkB/s    wkB/s avgrq-sz avgqu-sz   await r_await w_await  svctm  %util
sda               0.00     0.00 5133.40    0.00 20533.60     0.00     8.00     0.58    0.11    0.11    0.00   0.03  16.58
sdb               0.00     0.00 5119.40    0.00 20477.60     0.00     8.00     0.60    0.12    0.12    0.00   0.03  17.02
sdc               0.00     0.00 5171.70    0.00 20686.80     0.00     8.00     0.70    0.14    0.14    0.00   0.04  19.60
sdd               0.00     0.00 5157.20    0.00 20628.80     0.00     8.00     0.68    0.13    0.13    0.00   0.04  19.17
sde               0.00     0.00 5141.00    0.00 20564.00     0.00     8.00     0.69    0.13    0.13    0.00   0.04  19.27
sdf               0.00     0.00 5135.35    0.00 20541.40     0.00     8.00     0.69    0.13    0.13    0.00   0.04  19.35
sdg               0.00     0.15   94.45    0.35   404.40     8.80     8.72     0.01    0.12    0.12    0.57   0.11   1.08
sdh               0.00     0.00    0.00    0.00     0.00     0.00     0.00     0.00    0.00    0.00    0.00   0.00   0.00
md0               0.00     0.00 30858.35    0.00 123433.40     0.00     8.00     0.00    0.00    0.00    0.00   0.00   0.00

