Linux 4.17.2 (bench) 	08/03/2018 	_x86_64_	(4 CPU)

avg-cpu:  %user   %nice %system %iowait  %steal   %idle
          10.29    0.02    4.00    2.47    0.00   83.22

Device:         rrqm/s   wrqm/s     r/s     w/s    rkB/s    wkB/s avgrq-sz avgqu-sz   await r_await w_await  svctm  %util
sda              41.51     4.27 1613.67  103.39 20679.03  3155.14    27.76     1.03    0.60    0.26    5.91   0.06  10.55
sdb              41.40     4.23 1613.56  103.53 20668.46  3151.78    27.74     1.03    0.60    0.26    5.85   0.06  10.42
sdc              79.50     4.29 1573.38  103.08 20660.66  3154.26    28.41     1.44    0.86    0.45    7.12   0.08  13.85
sdd              72.85     4.26 1579.19  103.15 20645.34  3150.42    28.29     1.45    0.86    0.44    7.32   0.08  13.95
sde              74.92     4.30 1584.32  103.25 20705.89  3154.70    28.28     1.47    0.87    0.44    7.43   0.08  13.97
sdf              72.01     4.28 1586.50  103.19 20686.91  3151.54    28.22     1.52    0.90    0.44    7.90   0.08  14.00
sdg               0.00     3.18   25.95   73.34   322.51   391.96    14.39     0.44    4.43    0.20    5.93   0.08   0.78
sdh               0.00     0.13    0.02    0.24     2.23     5.11    56.82     0.00    1.15    0.65    1.19   0.21   0.01
md0               0.00     0.00 9939.02  484.37 141555.24 21603.93    31.31     0.00    0.00    0.00    0.00   0.00   0.00

avg-cpu:  %user   %nice %system %iowait  %steal   %idle
           0.42    0.03    7.03    2.29    0.00   90.23

Device:         rrqm/s   wrqm/s     r/s     w/s    rkB/s    wkB/s avgrq-sz avgqu-sz   await r_await w_await  svctm  %util
sda               0.00     0.00 7369.75    0.00 29479.00     0.00     8.00     0.75    0.10    0.10    0.00   0.07  49.86
sdb               0.00     0.00 7389.45    0.00 29557.80     0.00     8.00     0.76    0.10    0.10    0.00   0.07  50.56
sdc               0.00     0.00 7402.45    0.00 29609.80     0.00     8.00     0.81    0.11    0.11    0.00   0.07  53.91
sdd               0.00     0.00 7371.20    0.00 29484.80     0.00     8.00     0.82    0.11    0.11    0.00   0.07  54.07
sde               0.00     0.00 7365.25    0.00 29461.00     0.00     8.00     0.82    0.11    0.11    0.00   0.07  54.08
sdf               0.00     0.00 7365.05    0.00 29460.20     0.00     8.00     0.82    0.11    0.11    0.00   0.07  54.41
sdg               0.00     0.10    2.65    0.40    26.60     3.40    19.67     0.00    0.11    0.13    0.00   0.10   0.03
sdh               0.00     0.00    0.00    0.00     0.00     0.00     0.00     0.00    0.00    0.00    0.00   0.00   0.00
md0               0.00     0.00 44263.65    0.00 177054.60     0.00     8.00     0.00    0.00    0.00    0.00   0.00   0.00

