Linux 4.17.2 (bench) 	08/03/2018 	_x86_64_	(4 CPU)

avg-cpu:  %user   %nice %system %iowait  %steal   %idle
          10.29    0.02    4.00    2.47    0.00   83.22

Device:         rrqm/s   wrqm/s     r/s     w/s    rkB/s    wkB/s avgrq-sz avgqu-sz   await r_await w_await  svctm  %util
sda              41.51     4.27 1613.76  103.42 20675.21  3155.84    27.76     1.03    0.60    0.26    5.91   0.06  10.54
sdb              41.40     4.23 1613.65  103.56 20664.63  3152.47    27.74     1.03    0.60    0.26    5.85   0.06  10.42
sdc              79.51     4.29 1573.47  103.10 20656.85  3154.95    28.41     1.44    0.86    0.45    7.12   0.08  13.85
sdd              72.86     4.26 1579.27  103.17 20641.52  3151.12    28.28     1.45    0.86    0.44    7.32   0.08  13.94
sde              74.93     4.31 1584.40  103.27 20702.10  3155.40    28.27     1.47    0.87    0.44    7.43   0.08  13.96
sdf              72.02     4.28 1586.58  103.21 20683.11  3152.23    28.21     1.52    0.90    0.44    7.90   0.08  14.00
sdg               0.00     3.18   25.94   73.34   322.48   391.96    14.39     0.44    4.43    0.20    5.93   0.08   0.77
sdh               0.00     0.13    0.02    0.24     2.23     5.11    56.82     0.00    1.15    0.65    1.19   0.21   0.01
md0               0.00     0.00 9939.56  484.48 141517.90 21608.69    31.30     0.00    0.00    0.00    0.00   0.00   0.00

avg-cpu:  %user   %nice %system %iowait  %steal   %idle
           0.26    0.00    1.54    0.77    0.00   97.43

Device:         rrqm/s   wrqm/s     r/s     w/s    rkB/s    wkB/s avgrq-sz avgqu-sz   await r_await w_await  svctm  %util
sda               0.00     0.00 1468.00    0.00  5872.00     0.00     8.00     0.14    0.10    0.10    0.00   0.10  14.30
sdb               0.00     0.00 1560.00    0.00  6240.00     0.00     8.00     0.14    0.09    0.09    0.00   0.09  14.30
sdc               0.00     0.00 1501.00    0.00  6004.00     0.00     8.00     0.16    0.11    0.11    0.00   0.11  15.90
sdd               0.00     0.00 1585.00    0.00  6340.00     0.00     8.00     0.15    0.09    0.09    0.00   0.09  14.80
sde               0.00     0.00 1520.00    0.00  6080.00     0.00     8.00     0.17    0.11    0.11    0.00   0.11  16.70
sdf               0.00     0.00 1428.00    0.00  5712.00     0.00     8.00     0.16    0.11    0.11    0.00   0.11  15.60
sdg               0.00     0.00    3.00    0.00    88.00     0.00    58.67     0.00    0.00    0.00    0.00   0.00   0.00
sdh               0.00     0.00    0.00    0.00     0.00     0.00     0.00     0.00    0.00    0.00    0.00   0.00   0.00
md0               0.00     0.00 9064.00    0.00 36256.00     0.00     8.00     0.00    0.00    0.00    0.00   0.00   0.00

avg-cpu:  %user   %nice %system %iowait  %steal   %idle
           0.26    0.00    1.54    1.03    0.00   97.18

Device:         rrqm/s   wrqm/s     r/s     w/s    rkB/s    wkB/s avgrq-sz avgqu-sz   await r_await w_await  svctm  %util
sda               0.00     0.00 1550.00    0.00  6200.00     0.00     8.00     0.15    0.10    0.10    0.00   0.10  14.80
sdb               0.00     0.00 1536.00    0.00  6144.00     0.00     8.00     0.14    0.09    0.09    0.00   0.09  14.10
sdc               0.00     0.00 1588.00    0.00  6352.00     0.00     8.00     0.16    0.10    0.10    0.00   0.10  16.30
sdd               0.00     0.00 1524.00    0.00  6096.00     0.00     8.00     0.16    0.10    0.10    0.00   0.10  15.70
sde               0.00     0.00 1480.00    0.00  5920.00     0.00     8.00     0.16    0.11    0.11    0.00   0.11  15.80
sdf               0.00     0.00 1465.00    0.00  5860.00     0.00     8.00     0.16    0.11    0.11    0.00   0.11  16.40
sdg               0.00     0.00    0.00    0.00     0.00     0.00     0.00     0.00    0.00    0.00    0.00   0.00   0.00
sdh               0.00     0.00    0.00    0.00     0.00     0.00     0.00     0.00    0.00    0.00    0.00   0.00   0.00
md0               0.00     0.00 9143.00    0.00 36572.00     0.00     8.00     0.00    0.00    0.00    0.00   0.00   0.00

avg-cpu:  %user   %nice %system %iowait  %steal   %idle
           0.51    0.00    1.79    0.77    0.00   96.93

Device:         rrqm/s   wrqm/s     r/s     w/s    rkB/s    wkB/s avgrq-sz avgqu-sz   await r_await w_await  svctm  %util
sda               0.00     0.00 1603.00    0.00  6412.00     0.00     8.00     0.14    0.09    0.09    0.00   0.09  14.50
sdb               0.00     0.00 1499.00    0.00  5996.00     0.00     8.00     0.17    0.11    0.11    0.00   0.11  16.90
sdc               0.00     0.00 1563.00    0.00  6252.00     0.00     8.00     0.14    0.09    0.09    0.00   0.09  14.50
sdd               0.00     0.00 1510.00    0.00  6040.00     0.00     8.00     0.17    0.11    0.11    0.00   0.11  16.90
sde               0.00     0.00 1451.00    0.00  5804.00     0.00     8.00     0.13    0.09    0.09    0.00   0.09  13.10
sdf               0.00     0.00 1511.00    0.00  6044.00     0.00     8.00     0.15    0.10    0.10    0.00   0.10  14.70
sdg               0.00     0.00    0.00    0.00     0.00     0.00     0.00     0.00    0.00    0.00    0.00   0.00   0.00
sdh               0.00     0.00    0.00    0.00     0.00     0.00     0.00     0.00    0.00    0.00    0.00   0.00   0.00
md0               0.00     0.00 9137.00    0.00 36548.00     0.00     8.00     0.00    0.00    0.00    0.00   0.00   0.00

avg-cpu:  %user   %nice %system %iowait  %steal   %idle
           0.51    0.00    2.04    1.02    0.00   96.44

Device:         rrqm/s   wrqm/s     r/s     w/s    rkB/s    wkB/s avgrq-sz avgqu-sz   await r_await w_await  svctm  %util
sda               0.00     0.00 1563.00    0.00  6252.00     0.00     8.00     0.15    0.09    0.09    0.00   0.09  14.80
sdb               0.00     0.00 1485.00    0.00  5940.00     0.00     8.00     0.15    0.10    0.10    0.00   0.10  14.70
sdc               0.00     0.00 1589.00    0.00  6356.00     0.00     8.00     0.17    0.11    0.11    0.00   0.11  17.50
sdd               0.00     0.00 1525.00    0.00  6100.00     0.00     8.00     0.15    0.10    0.10    0.00   0.10  14.90
sde               0.00     0.00 1414.00    0.00  5656.00     0.00     8.00     0.13    0.09    0.09    0.00   0.09  13.40
sdf               0.00     0.00 1557.00    0.00  6228.00     0.00     8.00     0.16    0.10    0.10    0.00   0.10  16.00
sdg               0.00     0.00    0.00    0.00     0.00     0.00     0.00     0.00    0.00    0.00    0.00   0.00   0.00
sdh               0.00     0.00    0.00    0.00     0.00     0.00     0.00     0.00    0.00    0.00    0.00   0.00   0.00
md0               0.00     0.00 9133.00    0.00 36532.00     0.00     8.00     0.00    0.00    0.00    0.00   0.00   0.00

avg-cpu:  %user   %nice %system %iowait  %steal   %idle
           0.51    0.00    1.79    0.77    0.00   96.93

Device:         rrqm/s   wrqm/s     r/s     w/s    rkB/s    wkB/s avgrq-sz avgqu-sz   await r_await w_await  svctm  %util
sda               0.00     0.00 1391.00    0.00  5564.00     0.00     8.00     0.12    0.09    0.09    0.00   0.09  12.20
sdb               0.00     0.00 1543.00    0.00  6172.00     0.00     8.00     0.15    0.10    0.10    0.00   0.10  15.50
sdc               0.00     0.00 1641.00    0.00  6564.00     0.00     8.00     0.17    0.10    0.10    0.00   0.10  16.50
sdd               0.00     0.00 1522.00    0.00  6088.00     0.00     8.00     0.16    0.10    0.10    0.00   0.10  15.70
sde               0.00     0.00 1490.00    0.00  5960.00     0.00     8.00     0.16    0.10    0.10    0.00   0.10  15.60
sdf               0.00     0.00 1507.00    0.00  6028.00     0.00     8.00     0.17    0.11    0.11    0.00   0.11  16.50
sdg               0.00     0.00    0.00    0.00     0.00     0.00     0.00     0.00    0.00    0.00    0.00   0.00   0.00
sdh               0.00     0.00    0.00    0.00     0.00     0.00     0.00     0.00    0.00    0.00    0.00   0.00   0.00
md0               0.00     0.00 9093.00    0.00 36372.00     0.00     8.00     0.00    0.00    0.00    0.00   0.00   0.00

avg-cpu:  %user   %nice %system %iowait  %steal   %idle
           0.26    0.00    1.03    0.78    0.00   97.93

Device:         rrqm/s   wrqm/s     r/s     w/s    rkB/s    wkB/s avgrq-sz avgqu-sz   await r_await w_await  svctm  %util
sda               0.00     0.00 1559.00    0.00  6236.00     0.00     8.00     0.14    0.09    0.09    0.00   0.09  13.80
sdb               0.00     0.00 1503.00    0.00  6012.00     0.00     8.00     0.17    0.11    0.11    0.00   0.11  17.10
sdc               0.00     0.00 1527.00    0.00  6108.00     0.00     8.00     0.14    0.09    0.09    0.00   0.09  13.50
sdd               0.00     0.00 1522.00    0.00  6088.00     0.00     8.00     0.17    0.11    0.11    0.00   0.11  17.00
sde               0.00     0.00 1501.00    0.00  6004.00     0.00     8.00     0.17    0.11    0.11    0.00   0.11  16.90
sdf               0.00     0.00 1529.00    0.00  6116.00     0.00     8.00     0.15    0.10    0.10    0.00   0.10  15.10
sdg               0.00     0.00    0.00    0.00     0.00     0.00     0.00     0.00    0.00    0.00    0.00   0.00   0.00
sdh               0.00     0.00    0.00    0.00     0.00     0.00     0.00     0.00    0.00    0.00    0.00   0.00   0.00
md0               0.00     0.00 9141.00    0.00 36564.00     0.00     8.00     0.00    0.00    0.00    0.00   0.00   0.00

avg-cpu:  %user   %nice %system %iowait  %steal   %idle
           0.51    0.00    1.79    1.02    0.00   96.68

Device:         rrqm/s   wrqm/s     r/s     w/s    rkB/s    wkB/s avgrq-sz avgqu-sz   await r_await w_await  svctm  %util
sda               0.00     0.00 1553.00    0.00  6212.00     0.00     8.00     0.16    0.10    0.10    0.00   0.10  15.90
sdb               0.00     0.00 1478.00    0.00  5912.00     0.00     8.00     0.13    0.09    0.09    0.00   0.09  12.70
sdc               0.00     0.00 1614.00    0.00  6456.00     0.00     8.00     0.17    0.11    0.11    0.00   0.11  17.10
sdd               0.00     0.00 1483.00    0.00  5932.00     0.00     8.00     0.15    0.10    0.10    0.00   0.10  14.90
sde               0.00     0.00 1497.00    0.00  5988.00     0.00     8.00     0.16    0.11    0.11    0.00   0.11  15.80
sdf               0.00     0.00 1462.00    0.00  5848.00     0.00     8.00     0.15    0.10    0.10    0.00   0.10  15.10
sdg               0.00     0.00    0.00    0.00     0.00     0.00     0.00     0.00    0.00    0.00    0.00   0.00   0.00
sdh               0.00     0.00    0.00    0.00     0.00     0.00     0.00     0.00    0.00    0.00    0.00   0.00   0.00
md0               0.00     0.00 9087.00    0.00 36348.00     0.00     8.00     0.00    0.00    0.00    0.00   0.00   0.00

avg-cpu:  %user   %nice %system %iowait  %steal   %idle
           0.77    0.00    1.28    5.12    0.00   92.84

Device:         rrqm/s   wrqm/s     r/s     w/s    rkB/s    wkB/s avgrq-sz avgqu-sz   await r_await w_await  svctm  %util
sda               0.00     0.00 1579.00    0.00  6316.00     0.00     8.00     0.16    0.10    0.10    0.00   0.10  16.20
sdb               0.00     0.00 1514.00    0.00  6056.00     0.00     8.00     0.15    0.10    0.10    0.00   0.10  15.30
sdc               0.00     0.00 1560.00    0.00  6240.00     0.00     8.00     0.19    0.12    0.12    0.00   0.12  18.70
sdd               0.00     0.00 1498.00    0.00  5992.00     0.00     8.00     0.14    0.09    0.09    0.00   0.09  14.10
sde               0.00     0.00 1492.00    0.00  5968.00     0.00     8.00     0.14    0.09    0.09    0.00   0.09  13.50
sdf               0.00     0.00 1484.00    0.00  5936.00     0.00     8.00     0.16    0.11    0.11    0.00   0.11  16.00
sdg               0.00     0.00    0.00    0.00     0.00     0.00     0.00     0.00    0.00    0.00    0.00   0.00   0.00
sdh               0.00     0.00    0.00    0.00     0.00     0.00     0.00     0.00    0.00    0.00    0.00   0.00   0.00
md0               0.00     0.00 9128.00    0.00 36512.00     0.00     8.00     0.00    0.00    0.00    0.00   0.00   0.00

avg-cpu:  %user   %nice %system %iowait  %steal   %idle
           0.00    0.00    1.55    1.03    0.00   97.42

Device:         rrqm/s   wrqm/s     r/s     w/s    rkB/s    wkB/s avgrq-sz avgqu-sz   await r_await w_await  svctm  %util
sda               0.00     0.00 1484.00    0.00  5936.00     0.00     8.00     0.14    0.10    0.10    0.00   0.10  14.30
sdb               0.00     0.00 1453.00    0.00  5812.00     0.00     8.00     0.14    0.10    0.10    0.00   0.10  14.00
sdc               0.00     0.00 1481.00    0.00  5924.00     0.00     8.00     0.14    0.10    0.10    0.00   0.10  14.50
sdd               0.00     0.00 1568.00    0.00  6272.00     0.00     8.00     0.16    0.10    0.10    0.00   0.10  16.10
sde               0.00     0.00 1492.00    0.00  5968.00     0.00     8.00     0.18    0.12    0.12    0.00   0.12  18.10
sdf               0.00     0.00 1516.00    0.00  6064.00     0.00     8.00     0.17    0.12    0.12    0.00   0.11  17.40
sdg               0.00     0.00    4.00    0.00    16.00     0.00     8.00     0.00    0.25    0.25    0.00   0.25   0.10
sdh               0.00     0.00    0.00    0.00     0.00     0.00     0.00     0.00    0.00    0.00    0.00   0.00   0.00
md0               0.00     0.00 8994.00    0.00 35976.00     0.00     8.00     0.00    0.00    0.00    0.00   0.00   0.00

avg-cpu:  %user   %nice %system %iowait  %steal   %idle
           0.51    0.00    1.79    6.14    0.00   91.56

Device:         rrqm/s   wrqm/s     r/s     w/s    rkB/s    wkB/s avgrq-sz avgqu-sz   await r_await w_await  svctm  %util
sda               0.00     0.00 1420.00    0.00  5680.00     0.00     8.00     0.14    0.10    0.10    0.00   0.10  13.60
sdb               0.00     0.00 1492.00    0.00  5968.00     0.00     8.00     0.16    0.11    0.11    0.00   0.11  16.40
sdc               0.00     0.00 1562.00    0.00  6248.00     0.00     8.00     0.16    0.10    0.10    0.00   0.10  15.60
sdd               0.00     0.00 1448.00    0.00  5792.00     0.00     8.00     0.18    0.12    0.12    0.00   0.12  17.90
sde               0.00     0.00 1478.00    0.00  5912.00     0.00     8.00     0.15    0.10    0.10    0.00   0.10  15.20
sdf               0.00     0.00 1558.00    0.00  6232.00     0.00     8.00     0.15    0.09    0.09    0.00   0.09  14.80
sdg               0.00     0.00    0.00    0.00     0.00     0.00     0.00     0.00    0.00    0.00    0.00   0.00   0.00
sdh               0.00     0.00    0.00    0.00     0.00     0.00     0.00     0.00    0.00    0.00    0.00   0.00   0.00
md0               0.00     0.00 8958.00    0.00 35832.00     0.00     8.00     0.00    0.00    0.00    0.00   0.00   0.00

avg-cpu:  %user   %nice %system %iowait  %steal   %idle
           0.25    0.00    2.29   21.12    0.00   76.34

Device:         rrqm/s   wrqm/s     r/s     w/s    rkB/s    wkB/s avgrq-sz avgqu-sz   await r_await w_await  svctm  %util
sda               0.00     0.00 1478.00    0.00  5912.00     0.00     8.00     0.15    0.10    0.10    0.00   0.10  15.10
sdb               0.00     0.00 1487.00    0.00  5948.00     0.00     8.00     0.15    0.10    0.10    0.00   0.10  14.70
sdc               0.00     0.00 1547.00    0.00  6188.00     0.00     8.00     0.17    0.11    0.11    0.00   0.11  16.70
sdd               0.00     0.00 1600.00    0.00  6400.00     0.00     8.00     0.16    0.10    0.10    0.00   0.10  16.20
sde               0.00     0.00 1488.00    0.00  5952.00     0.00     8.00     0.15    0.10    0.10    0.00   0.10  14.90
sdf               0.00     0.00 1506.00    0.00  6024.00     0.00     8.00     0.16    0.11    0.11    0.00   0.11  16.00
sdg               0.00     0.00    0.00    0.00     0.00     0.00     0.00     0.00    0.00    0.00    0.00   0.00   0.00
sdh               0.00     0.00    0.00    0.00     0.00     0.00     0.00     0.00    0.00    0.00    0.00   0.00   0.00
md0               0.00     0.00 9106.00    0.00 36424.00     0.00     8.00     0.00    0.00    0.00    0.00   0.00   0.00

avg-cpu:  %user   %nice %system %iowait  %steal   %idle
           0.51    0.00    1.79    6.63    0.00   91.07

Device:         rrqm/s   wrqm/s     r/s     w/s    rkB/s    wkB/s avgrq-sz avgqu-sz   await r_await w_await  svctm  %util
sda               0.00     0.00 1508.00    0.00  6032.00     0.00     8.00     0.15    0.10    0.10    0.00   0.10  15.30
sdb               0.00     0.00 1453.00    0.00  5812.00     0.00     8.00     0.13    0.09    0.09    0.00   0.09  13.30
sdc               0.00     0.00 1506.00    0.00  6024.00     0.00     8.00     0.15    0.10    0.10    0.00   0.10  14.80
sdd               0.00     0.00 1445.00    0.00  5780.00     0.00     8.00     0.15    0.10    0.10    0.00   0.10  15.10
sde               0.00     0.00 1574.00    0.00  6296.00     0.00     8.00     0.16    0.10    0.10    0.00   0.10  16.00
sdf               0.00     0.00 1556.00    0.00  6224.00     0.00     8.00     0.18    0.12    0.12    0.00   0.12  18.40
sdg               0.00     0.00    0.00    0.00     0.00     0.00     0.00     0.00    0.00    0.00    0.00   0.00   0.00
sdh               0.00     0.00    0.00    0.00     0.00     0.00     0.00     0.00    0.00    0.00    0.00   0.00   0.00
md0               0.00     0.00 9042.00    0.00 36168.00     0.00     8.00     0.00    0.00    0.00    0.00   0.00   0.00

avg-cpu:  %user   %nice %system %iowait  %steal   %idle
           0.51    0.00    1.78    1.02    0.00   96.69

Device:         rrqm/s   wrqm/s     r/s     w/s    rkB/s    wkB/s avgrq-sz avgqu-sz   await r_await w_await  svctm  %util
sda               0.00     0.00 1662.00    0.00  6648.00     0.00     8.00     0.15    0.09    0.09    0.00   0.09  14.80
sdb               0.00     0.00 1548.00    0.00  6192.00     0.00     8.00     0.16    0.10    0.10    0.00   0.10  15.80
sdc               0.00     0.00 1557.00    0.00  6228.00     0.00     8.00     0.16    0.10    0.10    0.00   0.10  15.80
sdd               0.00     0.00 1491.00    0.00  5964.00     0.00     8.00     0.14    0.09    0.09    0.00   0.09  14.00
sde               0.00     0.00 1471.00    0.00  5884.00     0.00     8.00     0.17    0.11    0.11    0.00   0.11  16.70
sdf               0.00     0.00 1473.00    0.00  5892.00     0.00     8.00     0.15    0.10    0.10    0.00   0.10  14.80
sdg               0.00     0.00    0.00    0.00     0.00     0.00     0.00     0.00    0.00    0.00    0.00   0.00   0.00
sdh               0.00     0.00    0.00    0.00     0.00     0.00     0.00     0.00    0.00    0.00    0.00   0.00   0.00
md0               0.00     0.00 9202.00    0.00 36808.00     0.00     8.00     0.00    0.00    0.00    0.00   0.00   0.00

avg-cpu:  %user   %nice %system %iowait  %steal   %idle
           0.26    0.00    1.54    0.77    0.00   97.43

Device:         rrqm/s   wrqm/s     r/s     w/s    rkB/s    wkB/s avgrq-sz avgqu-sz   await r_await w_await  svctm  %util
sda               0.00     0.00 1555.00    0.00  6220.00     0.00     8.00     0.15    0.10    0.10    0.00   0.10  14.90
sdb               0.00     0.00 1573.00    0.00  6292.00     0.00     8.00     0.16    0.10    0.10    0.00   0.10  15.60
sdc               0.00     0.00 1494.00    0.00  5976.00     0.00     8.00     0.15    0.10    0.10    0.00   0.10  15.00
sdd               0.00     0.00 1534.00    0.00  6136.00     0.00     8.00     0.17    0.11    0.11    0.00   0.11  16.70
sde               0.00     0.00 1478.00    0.00  5912.00     0.00     8.00     0.15    0.10    0.10    0.00   0.10  14.70
sdf               0.00     0.00 1500.00    0.00  6000.00     0.00     8.00     0.15    0.10    0.10    0.00   0.10  15.40
sdg               0.00     0.00    0.00    0.00     0.00     0.00     0.00     0.00    0.00    0.00    0.00   0.00   0.00
sdh               0.00     0.00    0.00    0.00     0.00     0.00     0.00     0.00    0.00    0.00    0.00   0.00   0.00
md0               0.00     0.00 9133.00    0.00 36532.00     0.00     8.00     0.00    0.00    0.00    0.00   0.00   0.00

avg-cpu:  %user   %nice %system %iowait  %steal   %idle
           0.51    0.00    1.79    1.02    0.00   96.68

Device:         rrqm/s   wrqm/s     r/s     w/s    rkB/s    wkB/s avgrq-sz avgqu-sz   await r_await w_await  svctm  %util
sda               0.00     0.00 1566.00    0.00  6264.00     0.00     8.00     0.16    0.10    0.10    0.00   0.10  15.70
sdb               0.00     0.00 1495.00    0.00  5980.00     0.00     8.00     0.13    0.09    0.09    0.00   0.09  13.40
sdc               0.00     0.00 1566.00    0.00  6264.00     0.00     8.00     0.17    0.11    0.11    0.00   0.11  17.20
sdd               0.00     0.00 1513.00    0.00  6052.00     0.00     8.00     0.16    0.11    0.11    0.00   0.11  16.20
sde               0.00     0.00 1510.00    0.00  6040.00     0.00     8.00     0.16    0.11    0.11    0.00   0.11  15.90
sdf               0.00     0.00 1487.00    0.00  5948.00     0.00     8.00     0.14    0.09    0.09    0.00   0.09  14.10
sdg               0.00     0.00    0.00    0.00     0.00     0.00     0.00     0.00    0.00    0.00    0.00   0.00   0.00
sdh               0.00     0.00    0.00    0.00     0.00     0.00     0.00     0.00    0.00    0.00    0.00   0.00   0.00
md0               0.00     0.00 9138.00    0.00 36552.00     0.00     8.00     0.00    0.00    0.00    0.00   0.00   0.00

avg-cpu:  %user   %nice %system %iowait  %steal   %idle
           0.51    0.00    1.79    0.77    0.00   96.93

Device:         rrqm/s   wrqm/s     r/s     w/s    rkB/s    wkB/s avgrq-sz avgqu-sz   await r_await w_await  svctm  %util
sda               0.00     0.00 1662.00    0.00  6648.00     0.00     8.00     0.17    0.10    0.10    0.00   0.10  17.40
sdb               0.00     0.00 1465.00    0.00  5860.00     0.00     8.00     0.13    0.09    0.09    0.00   0.09  13.20
sdc               0.00     0.00 1438.00    0.00  5752.00     0.00     8.00     0.15    0.11    0.11    0.00   0.11  15.10
sdd               0.00     0.00 1533.00    0.00  6132.00     0.00     8.00     0.16    0.11    0.11    0.00   0.11  16.30
sde               0.00     0.00 1585.00    0.00  6340.00     0.00     8.00     0.17    0.11    0.11    0.00   0.11  17.10
sdf               0.00     0.00 1448.00    0.00  5792.00     0.00     8.00     0.13    0.09    0.09    0.00   0.09  13.30
sdg               0.00     0.00    0.00    0.00     0.00     0.00     0.00     0.00    0.00    0.00    0.00   0.00   0.00
sdh               0.00     0.00    0.00    0.00     0.00     0.00     0.00     0.00    0.00    0.00    0.00   0.00   0.00
md0               0.00     0.00 9131.00    0.00 36524.00     0.00     8.00     0.00    0.00    0.00    0.00   0.00   0.00

avg-cpu:  %user   %nice %system %iowait  %steal   %idle
           0.26    0.00    1.54    1.03    0.00   97.18

Device:         rrqm/s   wrqm/s     r/s     w/s    rkB/s    wkB/s avgrq-sz avgqu-sz   await r_await w_await  svctm  %util
sda               0.00     0.00 1539.00    0.00  6156.00     0.00     8.00     0.14    0.09    0.09    0.00   0.09  14.40
sdb               0.00     0.00 1474.00    0.00  5896.00     0.00     8.00     0.14    0.09    0.09    0.00   0.09  13.50
sdc               0.00     0.00 1631.00    0.00  6524.00     0.00     8.00     0.17    0.10    0.10    0.00   0.10  16.90
sdd               0.00     0.00 1576.00    0.00  6304.00     0.00     8.00     0.17    0.11    0.11    0.00   0.11  17.50
sde               0.00     0.00 1477.00    0.00  5908.00     0.00     8.00     0.17    0.11    0.11    0.00   0.11  16.60
sdf               0.00     0.00 1452.00    0.00  5808.00     0.00     8.00     0.15    0.10    0.10    0.00   0.10  14.80
sdg               0.00     0.00    0.00    0.00     0.00     0.00     0.00     0.00    0.00    0.00    0.00   0.00   0.00
sdh               0.00     0.00    0.00    0.00     0.00     0.00     0.00     0.00    0.00    0.00    0.00   0.00   0.00
md0               0.00     0.00 9149.00    0.00 36596.00     0.00     8.00     0.00    0.00    0.00    0.00   0.00   0.00

avg-cpu:  %user   %nice %system %iowait  %steal   %idle
           0.51    0.00    2.53   15.95    0.00   81.01

Device:         rrqm/s   wrqm/s     r/s     w/s    rkB/s    wkB/s avgrq-sz avgqu-sz   await r_await w_await  svctm  %util
sda               0.00     0.00 1574.00    0.00  6296.00     0.00     8.00     0.16    0.10    0.10    0.00   0.10  16.40
sdb               0.00     0.00 1446.00    0.00  5784.00     0.00     8.00     0.14    0.10    0.10    0.00   0.10  14.40
sdc               0.00     0.00 1530.00    0.00  6120.00     0.00     8.00     0.15    0.10    0.10    0.00   0.10  14.70
sdd               0.00     0.00 1464.00    0.00  5856.00     0.00     8.00     0.17    0.11    0.11    0.00   0.11  16.60
sde               0.00     0.00 1528.00    0.00  6112.00     0.00     8.00     0.15    0.10    0.10    0.00   0.10  15.40
sdf               0.00     0.00 1629.00    0.00  6516.00     0.00     8.00     0.15    0.09    0.09    0.00   0.09  15.40
sdg               0.00     0.00    0.00    4.00     0.00   128.00    64.00     0.00    0.00    0.00    0.00   0.00   0.00
sdh               0.00     0.00    0.00    0.00     0.00     0.00     0.00     0.00    0.00    0.00    0.00   0.00   0.00
md0               0.00     0.00 9170.00    0.00 36680.00     0.00     8.00     0.00    0.00    0.00    0.00   0.00   0.00

avg-cpu:  %user   %nice %system %iowait  %steal   %idle
           0.26    0.26    2.04    3.57    0.00   93.88

Device:         rrqm/s   wrqm/s     r/s     w/s    rkB/s    wkB/s avgrq-sz avgqu-sz   await r_await w_await  svctm  %util
sda               0.00     0.00 1520.00    0.00  6080.00     0.00     8.00     0.13    0.09    0.09    0.00   0.09  13.40
sdb               0.00     0.00 1500.00    0.00  6000.00     0.00     8.00     0.14    0.09    0.09    0.00   0.09  13.50
sdc               0.00     0.00 1501.00    0.00  6004.00     0.00     8.00     0.17    0.11    0.11    0.00   0.11  16.90
sdd               0.00     0.00 1575.00    0.00  6300.00     0.00     8.00     0.16    0.10    0.10    0.00   0.10  15.80
sde               0.00     0.00 1443.00    0.00  5772.00     0.00     8.00     0.15    0.10    0.10    0.00   0.10  14.90
sdf               0.00     0.00 1539.00    0.00  6156.00     0.00     8.00     0.18    0.12    0.12    0.00   0.12  18.00
sdg               0.00     0.00    2.00    0.00     8.00     0.00     8.00     0.00    0.00    0.00    0.00   0.00   0.00
sdh               0.00     0.00    0.00    0.00     0.00     0.00     0.00     0.00    0.00    0.00    0.00   0.00   0.00
md0               0.00     0.00 9078.00    0.00 36312.00     0.00     8.00     0.00    0.00    0.00    0.00   0.00   0.00

avg-cpu:  %user   %nice %system %iowait  %steal   %idle
           0.51    0.00    1.54    1.03    0.00   96.92

Device:         rrqm/s   wrqm/s     r/s     w/s    rkB/s    wkB/s avgrq-sz avgqu-sz   await r_await w_await  svctm  %util
sda               0.00     0.00 1538.00    0.00  6152.00     0.00     8.00     0.15    0.10    0.10    0.00   0.10  14.90
sdb               0.00     0.00 1574.00    0.00  6296.00     0.00     8.00     0.15    0.10    0.10    0.00   0.10  15.30
sdc               0.00     0.00 1629.00    0.00  6516.00     0.00     8.00     0.18    0.11    0.11    0.00   0.11  18.30
sdd               0.00     0.00 1461.00    0.00  5844.00     0.00     8.00     0.15    0.11    0.11    0.00   0.11  15.40
sde               0.00     0.00 1471.00    0.00  5884.00     0.00     8.00     0.14    0.09    0.09    0.00   0.09  13.90
sdf               0.00     0.00 1450.00    0.00  5800.00     0.00     8.00     0.15    0.10    0.10    0.00   0.10  15.20
sdg               0.00     0.00    0.00    0.00     0.00     0.00     0.00     0.00    0.00    0.00    0.00   0.00   0.00
sdh               0.00     0.00    0.00    0.00     0.00     0.00     0.00     0.00    0.00    0.00    0.00   0.00   0.00
md0               0.00     0.00 9124.00    0.00 36496.00     0.00     8.00     0.00    0.00    0.00    0.00   0.00   0.00

