Linux 4.17.2 (bench) 	08/03/2018 	_x86_64_	(4 CPU)

avg-cpu:  %user   %nice %system %iowait  %steal   %idle
          10.30    0.02    3.97    2.41    0.00   83.31

Device:         rrqm/s   wrqm/s     r/s     w/s    rkB/s    wkB/s avgrq-sz avgqu-sz   await r_await w_await  svctm  %util
sda              38.65     4.29 1590.15  103.83 20542.33  3168.58    27.99     1.02    0.60    0.26    5.91   0.06  10.45
sdb              38.56     4.25 1590.02  103.97 20531.68  3165.20    27.98     1.02    0.60    0.26    5.85   0.06  10.33
sdc              76.72     4.31 1549.79  103.52 20523.94  3167.69    28.66     1.44    0.87    0.45    7.12   0.08  13.74
sdd              70.03     4.28 1555.63  103.59 20508.56  3163.84    28.53     1.45    0.87    0.44    7.32   0.08  13.83
sde              72.11     4.32 1560.79  103.69 20569.43  3168.14    28.52     1.47    0.88    0.45    7.43   0.08  13.85
sdf              69.20     4.29 1562.97  103.63 20550.36  3164.96    28.46     1.51    0.91    0.44    7.90   0.08  13.89
sdg               0.00     3.18   25.78   73.35   321.77   391.94    14.40     0.44    4.44    0.20    5.93   0.08   0.77
sdh               0.00     0.13    0.02    0.24     2.24     5.13    56.82     0.00    1.15    0.65    1.19   0.21   0.01
md0               0.00     0.00 9780.53  486.43 140601.72 21695.93    31.62     0.00    0.00    0.00    0.00   0.00   0.00

avg-cpu:  %user   %nice %system %iowait  %steal   %idle
           0.76    0.03    9.94    1.69    0.00   87.58

Device:         rrqm/s   wrqm/s     r/s     w/s    rkB/s    wkB/s avgrq-sz avgqu-sz   await r_await w_await  svctm  %util
sda               0.00     0.00 9851.90    0.00 39407.60     0.00     8.00     1.48    0.15    0.15    0.00   0.02  21.73
sdb               0.00     0.00 9845.55    0.00 39382.20     0.00     8.00     1.44    0.15    0.15    0.00   0.02  21.24
sdc               0.00     0.00 9825.75    0.00 39303.00     0.00     8.00     1.94    0.20    0.20    0.00   0.03  27.11
sdd               0.00     0.00 9828.80    0.00 39315.20     0.00     8.00     1.89    0.19    0.19    0.00   0.03  26.91
sde               0.00     0.00 9791.85    0.00 39167.40     0.00     8.00     1.95    0.20    0.20    0.00   0.03  26.89
sdf               0.00     0.00 9817.60    0.00 39270.40     0.00     8.00     1.93    0.20    0.20    0.00   0.03  27.18
sdg               0.00     0.00   69.40    0.60   307.60    11.00     9.10     0.01    0.13    0.13    1.17   0.13   0.90
sdh               0.00     0.00    0.00    0.00     0.00     0.00     0.00     0.00    0.00    0.00    0.00   0.00   0.00
md0               0.00     0.00 58962.30    0.00 235849.20     0.00     8.00     0.00    0.00    0.00    0.00   0.00   0.00

