Linux 4.17.2 (bench) 	08/03/2018 	_x86_64_	(4 CPU)

avg-cpu:  %user   %nice %system %iowait  %steal   %idle
          10.29    0.02    4.01    2.48    0.00   83.20

Device:         rrqm/s   wrqm/s     r/s     w/s    rkB/s    wkB/s avgrq-sz avgqu-sz   await r_await w_await  svctm  %util
sda              41.51     4.26 1620.89  103.21 20732.36  3149.68    27.70     1.03    0.60    0.26    5.91   0.06  10.58
sdb              41.40     4.22 1620.78  103.35 20721.78  3146.32    27.69     1.03    0.59    0.26    5.85   0.06  10.46
sdc              79.43     4.28 1580.67  102.90 20713.98  3148.80    28.35     1.44    0.86    0.45    7.12   0.08  13.90
sdd              72.79     4.25 1586.46  102.97 20698.71  3144.97    28.23     1.45    0.86    0.44    7.32   0.08  13.99
sde              74.86     4.30 1591.58  103.07 20759.13  3149.24    28.22     1.47    0.87    0.44    7.43   0.08  14.01
sdf              71.96     4.27 1593.75  103.01 20740.16  3146.09    28.16     1.52    0.89    0.44    7.90   0.08  14.04
sdg               0.00     3.18   26.02   73.33   322.78   391.96    14.39     0.44    4.43    0.20    5.93   0.08   0.78
sdh               0.00     0.13    0.02    0.24     2.23     5.10    56.82     0.00    1.15    0.65    1.19   0.21   0.01
md0               0.00     0.00 9982.32  483.53 141959.55 21566.55    31.25     0.00    0.00    0.00    0.00   0.00   0.00

avg-cpu:  %user   %nice %system %iowait  %steal   %idle
           1.08    0.00   14.91    0.54    0.00   83.47

Device:         rrqm/s   wrqm/s     r/s     w/s    rkB/s    wkB/s avgrq-sz avgqu-sz   await r_await w_await  svctm  %util
sda            1614.00     0.00 18233.00    0.00 79428.00     0.00     8.71     4.71    0.26    0.26    0.00   0.02  38.70
sdb            1318.00     0.00 17719.00    0.00 76148.00     0.00     8.60     4.64    0.26    0.26    0.00   0.02  36.90
sdc            1647.00     0.00 18543.00    0.00 80760.00     0.00     8.71     6.53    0.35    0.35    0.00   0.03  51.80
sdd            1524.00     0.00 17505.00    0.00 76116.00     0.00     8.70     6.59    0.38    0.38    0.00   0.03  50.40
sde            1433.00     0.00 17661.00    0.00 76396.00     0.00     8.65     6.21    0.35    0.35    0.00   0.03  52.30
sdf            1412.00     0.00 17499.00    0.00 75644.00     0.00     8.65     5.98    0.34    0.34    0.00   0.03  50.20
sdg               0.00    17.00   26.00   74.00   416.00  1284.00    34.00     0.14    1.45    0.23    1.88   0.11   1.10
sdh               0.00     0.00    0.00    0.00     0.00     0.00     0.00     0.00    0.00    0.00    0.00   0.00   0.00
md0               0.00     0.00 116064.00    0.00 464256.00     0.00     8.00     0.00    0.00    0.00    0.00   0.00   0.00

