Linux 4.17.2 (bench) 	08/03/2018 	_x86_64_	(4 CPU)

avg-cpu:  %user   %nice %system %iowait  %steal   %idle
          10.30    0.02    3.96    2.40    0.00   83.32

Device:         rrqm/s   wrqm/s     r/s     w/s    rkB/s    wkB/s avgrq-sz avgqu-sz   await r_await w_await  svctm  %util
sda              38.65     4.29 1586.78  103.94 20514.91  3171.68    28.02     1.02    0.60    0.26    5.91   0.06  10.43
sdb              38.56     4.25 1586.65  104.07 20504.23  3168.30    28.00     1.02    0.60    0.26    5.85   0.06  10.31
sdc              76.75     4.31 1546.38  103.62 20496.47  3170.79    28.69     1.44    0.87    0.45    7.12   0.08  13.72
sdd              70.06     4.28 1552.23  103.69 20481.08  3166.94    28.56     1.45    0.87    0.44    7.32   0.08  13.81
sde              72.15     4.33 1557.40  103.79 20542.05  3171.24    28.55     1.47    0.88    0.45    7.43   0.08  13.83
sdf              69.23     4.30 1559.58  103.73 20523.00  3168.06    28.49     1.51    0.91    0.44    7.90   0.08  13.86
sdg               0.00     3.18   25.75   73.36   321.64   391.96    14.40     0.44    4.44    0.20    5.93   0.08   0.77
sdh               0.00     0.13    0.02    0.24     2.24     5.13    56.82     0.00    1.15    0.65    1.19   0.21   0.01
md0               0.00     0.00 9760.30  486.91 140391.52 21717.18    31.64     0.00    0.00    0.00    0.00   0.00   0.00

avg-cpu:  %user   %nice %system %iowait  %steal   %idle
           1.31    0.00    4.45    2.36    0.00   91.88

Device:         rrqm/s   wrqm/s     r/s     w/s    rkB/s    wkB/s avgrq-sz avgqu-sz   await r_await w_await  svctm  %util
sda               0.00     0.00 5702.00    0.00 22808.00     0.00     8.00     0.67    0.12    0.12    0.00   0.06  33.50
sdb               0.00     0.00 5672.00    0.00 22688.00     0.00     8.00     0.57    0.10    0.10    0.00   0.05  29.80
sdc               0.00     0.00 5849.00    0.00 23396.00     0.00     8.00     0.70    0.12    0.12    0.00   0.06  33.90
sdd               0.00     0.00 5694.00    0.00 22776.00     0.00     8.00     0.68    0.12    0.12    0.00   0.06  34.80
sde               0.00     0.00 5753.00    0.00 23012.00     0.00     8.00     0.69    0.12    0.12    0.00   0.06  34.90
sdf               0.00     0.00 5691.00    0.00 22764.00     0.00     8.00     0.74    0.13    0.13    0.00   0.07  37.20
sdg               0.00     0.00    3.00    0.00   100.00     0.00    66.67     0.00    0.67    0.67    0.00   0.33   0.10
sdh               0.00     0.00    0.00    0.00     0.00     0.00     0.00     0.00    0.00    0.00    0.00   0.00   0.00
md0               0.00     0.00 34367.00    0.00 137468.00     0.00     8.00     0.00    0.00    0.00    0.00   0.00   0.00

avg-cpu:  %user   %nice %system %iowait  %steal   %idle
           1.27    0.00    6.85   12.18    0.00   79.70

Device:         rrqm/s   wrqm/s     r/s     w/s    rkB/s    wkB/s avgrq-sz avgqu-sz   await r_await w_await  svctm  %util
sda               0.00     0.00 5669.00    0.00 22676.00     0.00     8.00     0.64    0.11    0.11    0.00   0.06  32.00
sdb               0.00     0.00 5721.00    0.00 22884.00     0.00     8.00     0.62    0.11    0.11    0.00   0.06  31.70
sdc               0.00     0.00 5905.00    0.00 23620.00     0.00     8.00     0.70    0.12    0.12    0.00   0.06  33.60
sdd               0.00     0.00 5795.00    0.00 23180.00     0.00     8.00     0.68    0.12    0.12    0.00   0.06  35.30
sde               0.00     0.00 5807.00    0.00 23228.00     0.00     8.00     0.67    0.12    0.12    0.00   0.06  35.90
sdf               0.00     0.00 5784.00    0.00 23136.00     0.00     8.00     0.70    0.12    0.12    0.00   0.06  35.50
sdg               0.00     0.00    0.00    0.00     0.00     0.00     0.00     0.00    0.00    0.00    0.00   0.00   0.00
sdh               0.00     0.00    0.00    0.00     0.00     0.00     0.00     0.00    0.00    0.00    0.00   0.00   0.00
md0               0.00     0.00 34681.00    0.00 138724.00     0.00     8.00     0.00    0.00    0.00    0.00   0.00   0.00

avg-cpu:  %user   %nice %system %iowait  %steal   %idle
           1.02    0.26    6.89   13.52    0.00   78.32

Device:         rrqm/s   wrqm/s     r/s     w/s    rkB/s    wkB/s avgrq-sz avgqu-sz   await r_await w_await  svctm  %util
sda               0.00     0.00 5891.00    0.00 23564.00     0.00     8.00     0.69    0.12    0.12    0.00   0.06  34.00
sdb               0.00     0.00 5701.00    0.00 22804.00     0.00     8.00     0.68    0.12    0.12    0.00   0.06  34.20
sdc               0.00     0.00 5742.00    0.00 22968.00     0.00     8.00     0.65    0.11    0.11    0.00   0.06  35.20
sdd               0.00     0.00 5713.00    0.00 22852.00     0.00     8.00     0.65    0.11    0.11    0.00   0.06  35.90
sde               0.00     0.00 5888.00    0.00 23552.00     0.00     8.00     0.77    0.13    0.13    0.00   0.07  38.90
sdf               0.00     0.00 5752.00    0.00 23008.00     0.00     8.00     0.67    0.12    0.12    0.00   0.06  34.80
sdg               0.00     0.00  102.00    0.00   624.00     0.00    12.24     0.02    0.16    0.16    0.00   0.14   1.40
sdh               0.00     0.00    0.00    0.00     0.00     0.00     0.00     0.00    0.00    0.00    0.00   0.00   0.00
md0               0.00     0.00 34688.00    0.00 138752.00     0.00     8.00     0.00    0.00    0.00    0.00   0.00   0.00

avg-cpu:  %user   %nice %system %iowait  %steal   %idle
           1.03    0.00    6.19   10.31    0.00   82.47

Device:         rrqm/s   wrqm/s     r/s     w/s    rkB/s    wkB/s avgrq-sz avgqu-sz   await r_await w_await  svctm  %util
sda               0.00     0.00 5581.00    0.00 22324.00     0.00     8.00     0.59    0.11    0.11    0.00   0.05  30.00
sdb               0.00     0.00 5547.00    0.00 22188.00     0.00     8.00     0.59    0.11    0.11    0.00   0.06  31.20
sdc               0.00     0.00 5706.00    0.00 22824.00     0.00     8.00     0.70    0.12    0.12    0.00   0.06  35.40
sdd               0.00     0.00 5830.00    0.00 23320.00     0.00     8.00     0.70    0.12    0.12    0.00   0.06  35.60
sde               0.00     0.00 5816.00    0.00 23264.00     0.00     8.00     0.70    0.12    0.12    0.00   0.06  37.50
sdf               0.00     0.00 5721.00    0.00 22884.00     0.00     8.00     0.75    0.13    0.13    0.00   0.06  36.80
sdg               0.00     0.00    0.00    0.00     0.00     0.00     0.00     0.00    0.00    0.00    0.00   0.00   0.00
sdh               0.00     0.00    0.00    0.00     0.00     0.00     0.00     0.00    0.00    0.00    0.00   0.00   0.00
md0               0.00     0.00 34201.00    0.00 136804.00     0.00     8.00     0.00    0.00    0.00    0.00   0.00   0.00

avg-cpu:  %user   %nice %system %iowait  %steal   %idle
           1.03    0.00    6.15    8.46    0.00   84.36

Device:         rrqm/s   wrqm/s     r/s     w/s    rkB/s    wkB/s avgrq-sz avgqu-sz   await r_await w_await  svctm  %util
sda               0.00     0.00 5398.00    0.00 21592.00     0.00     8.00     0.62    0.12    0.12    0.00   0.06  32.30
sdb               0.00     0.00 5772.00    0.00 23088.00     0.00     8.00     0.63    0.11    0.11    0.00   0.05  30.40
sdc               0.00     0.00 5618.00    0.00 22472.00     0.00     8.00     0.67    0.12    0.12    0.00   0.06  34.40
sdd               0.00     0.00 5747.00    0.00 22988.00     0.00     8.00     0.70    0.12    0.12    0.00   0.06  35.20
sde               0.00     0.00 5730.00    0.00 22920.00     0.00     8.00     0.63    0.11    0.11    0.00   0.06  34.90
sdf               0.00     0.00 5455.00    0.00 21820.00     0.00     8.00     0.69    0.13    0.13    0.00   0.07  36.00
sdg               0.00     0.00    0.00    0.00     0.00     0.00     0.00     0.00    0.00    0.00    0.00   0.00   0.00
sdh               0.00     0.00    0.00    0.00     0.00     0.00     0.00     0.00    0.00    0.00    0.00   0.00   0.00
md0               0.00     0.00 33719.00    0.00 134876.00     0.00     8.00     0.00    0.00    0.00    0.00   0.00   0.00

avg-cpu:  %user   %nice %system %iowait  %steal   %idle
           1.30    0.00    4.69    0.78    0.00   93.23

Device:         rrqm/s   wrqm/s     r/s     w/s    rkB/s    wkB/s avgrq-sz avgqu-sz   await r_await w_await  svctm  %util
sda               0.00     0.00 5734.00    0.00 22936.00     0.00     8.00     0.59    0.10    0.10    0.00   0.06  32.60
sdb               0.00     0.00 5641.00    0.00 22564.00     0.00     8.00     0.59    0.10    0.10    0.00   0.05  30.40
sdc               0.00     0.00 5873.00    0.00 23492.00     0.00     8.00     0.71    0.12    0.12    0.00   0.06  37.60
sdd               0.00     0.00 5781.00    0.00 23124.00     0.00     8.00     0.72    0.12    0.12    0.00   0.06  35.80
sde               0.00     0.00 5687.00    0.00 22748.00     0.00     8.00     0.66    0.12    0.12    0.00   0.06  35.90
sdf               0.00     0.00 5615.00    0.00 22460.00     0.00     8.00     0.73    0.13    0.13    0.00   0.06  35.90
sdg               0.00     0.00    0.00    0.00     0.00     0.00     0.00     0.00    0.00    0.00    0.00   0.00   0.00
sdh               0.00     0.00    0.00    0.00     0.00     0.00     0.00     0.00    0.00    0.00    0.00   0.00   0.00
md0               0.00     0.00 34331.00    0.00 137324.00     0.00     8.00     0.00    0.00    0.00    0.00   0.00   0.00

avg-cpu:  %user   %nice %system %iowait  %steal   %idle
           1.32    0.00    3.96    0.53    0.00   94.20

Device:         rrqm/s   wrqm/s     r/s     w/s    rkB/s    wkB/s avgrq-sz avgqu-sz   await r_await w_await  svctm  %util
sda               0.00     0.00 5705.00    0.00 22820.00     0.00     8.00     0.61    0.11    0.11    0.00   0.06  31.80
sdb               0.00     0.00 5664.00    0.00 22656.00     0.00     8.00     0.57    0.10    0.10    0.00   0.05  30.60
sdc               0.00     0.00 5664.00    0.00 22656.00     0.00     8.00     0.73    0.13    0.13    0.00   0.06  35.20
sdd               0.00     0.00 5618.00    0.00 22472.00     0.00     8.00     0.69    0.12    0.12    0.00   0.06  35.00
sde               0.00     0.00 5713.00    0.00 22852.00     0.00     8.00     0.74    0.13    0.13    0.00   0.07  38.00
sdf               0.00     0.00 5878.00    0.00 23512.00     0.00     8.00     0.68    0.12    0.12    0.00   0.06  33.70
sdg               0.00     0.00    0.00    0.00     0.00     0.00     0.00     0.00    0.00    0.00    0.00   0.00   0.00
sdh               0.00     0.00    0.00    0.00     0.00     0.00     0.00     0.00    0.00    0.00    0.00   0.00   0.00
md0               0.00     0.00 34241.00    0.00 136964.00     0.00     8.00     0.00    0.00    0.00    0.00   0.00   0.00

avg-cpu:  %user   %nice %system %iowait  %steal   %idle
           1.06    0.00    3.69    0.79    0.00   94.46

Device:         rrqm/s   wrqm/s     r/s     w/s    rkB/s    wkB/s avgrq-sz avgqu-sz   await r_await w_await  svctm  %util
sda               0.00     0.00 5716.00    0.00 22864.00     0.00     8.00     0.60    0.11    0.11    0.00   0.05  31.00
sdb               0.00     0.00 5639.00    0.00 22556.00     0.00     8.00     0.60    0.11    0.11    0.00   0.06  31.40
sdc               0.00     0.00 5529.00    0.00 22116.00     0.00     8.00     0.70    0.13    0.13    0.00   0.07  37.80
sdd               0.00     0.00 5598.00    0.00 22392.00     0.00     8.00     0.71    0.13    0.13    0.00   0.07  37.00
sde               0.00     0.00 5629.00    0.00 22516.00     0.00     8.00     0.72    0.13    0.13    0.00   0.07  37.40
sdf               0.00     0.00 5795.00    0.00 23180.00     0.00     8.00     0.68    0.12    0.12    0.00   0.06  35.90
sdg               0.00     0.00    0.00    0.00     0.00     0.00     0.00     0.00    0.00    0.00    0.00   0.00   0.00
sdh               0.00     0.00    0.00    0.00     0.00     0.00     0.00     0.00    0.00    0.00    0.00   0.00   0.00
md0               0.00     0.00 33906.00    0.00 135624.00     0.00     8.00     0.00    0.00    0.00    0.00   0.00   0.00

avg-cpu:  %user   %nice %system %iowait  %steal   %idle
           1.27    0.00    7.11   12.44    0.00   79.19

Device:         rrqm/s   wrqm/s     r/s     w/s    rkB/s    wkB/s avgrq-sz avgqu-sz   await r_await w_await  svctm  %util
sda               0.00     0.00 5647.00    0.00 22588.00     0.00     8.00     0.56    0.10    0.10    0.00   0.06  31.10
sdb               0.00     0.00 5572.00    0.00 22288.00     0.00     8.00     0.62    0.11    0.11    0.00   0.06  31.20
sdc               0.00     0.00 5560.00    0.00 22240.00     0.00     8.00     0.66    0.12    0.12    0.00   0.06  34.20
sdd               0.00     0.00 5583.00    0.00 22332.00     0.00     8.00     0.61    0.11    0.11    0.00   0.06  33.10
sde               0.00     0.00 5516.00    0.00 22064.00     0.00     8.00     0.71    0.13    0.13    0.00   0.06  33.40
sdf               0.00     0.00 5700.00    0.00 22800.00     0.00     8.00     0.66    0.12    0.12    0.00   0.06  33.80
sdg               0.00     0.00   43.00    1.00   680.00     4.00    31.09     0.01    0.18    0.19    0.00   0.18   0.80
sdh               0.00     0.00    0.00    0.00     0.00     0.00     0.00     0.00    0.00    0.00    0.00   0.00   0.00
md0               0.00     0.00 33584.00    0.00 134336.00     0.00     8.00     0.00    0.00    0.00    0.00   0.00   0.00

avg-cpu:  %user   %nice %system %iowait  %steal   %idle
           1.31    0.00    4.46    0.52    0.00   93.70

Device:         rrqm/s   wrqm/s     r/s     w/s    rkB/s    wkB/s avgrq-sz avgqu-sz   await r_await w_await  svctm  %util
sda               0.00     0.00 5381.00    0.00 21524.00     0.00     8.00     0.53    0.10    0.10    0.00   0.06  29.90
sdb               0.00     0.00 5449.00    0.00 21796.00     0.00     8.00     0.62    0.11    0.11    0.00   0.06  33.00
sdc               0.00     0.00 5880.00    0.00 23520.00     0.00     8.00     0.73    0.12    0.12    0.00   0.06  35.00
sdd               0.00     0.00 5701.00    0.00 22804.00     0.00     8.00     0.68    0.12    0.12    0.00   0.06  34.00
sde               0.00     0.00 5525.00    0.00 22100.00     0.00     8.00     0.67    0.12    0.12    0.00   0.06  35.20
sdf               0.00     0.00 5316.00    0.00 21264.00     0.00     8.00     0.69    0.13    0.13    0.00   0.07  36.70
sdg               0.00     0.00    0.00    0.00     0.00     0.00     0.00     0.00    0.00    0.00    0.00   0.00   0.00
sdh               0.00     0.00    0.00    0.00     0.00     0.00     0.00     0.00    0.00    0.00    0.00   0.00   0.00
md0               0.00     0.00 33247.00    0.00 132988.00     0.00     8.00     0.00    0.00    0.00    0.00   0.00   0.00

avg-cpu:  %user   %nice %system %iowait  %steal   %idle
           1.31    0.00    4.70    0.52    0.00   93.47

Device:         rrqm/s   wrqm/s     r/s     w/s    rkB/s    wkB/s avgrq-sz avgqu-sz   await r_await w_await  svctm  %util
sda               0.00     0.00 5522.00    0.00 22088.00     0.00     8.00     0.52    0.09    0.09    0.00   0.05  29.60
sdb               0.00     0.00 5542.00    0.00 22168.00     0.00     8.00     0.55    0.10    0.10    0.00   0.05  28.70
sdc               0.00     0.00 5602.00    0.00 22408.00     0.00     8.00     0.61    0.11    0.11    0.00   0.06  32.80
sdd               0.00     0.00 5596.00    0.00 22384.00     0.00     8.00     0.67    0.12    0.12    0.00   0.06  34.40
sde               0.00     0.00 5500.00    0.00 22000.00     0.00     8.00     0.69    0.13    0.13    0.00   0.07  37.70
sdf               0.00     0.00 5516.00    0.00 22064.00     0.00     8.00     0.69    0.13    0.13    0.00   0.07  35.90
sdg               0.00     0.00    0.00    0.00     0.00     0.00     0.00     0.00    0.00    0.00    0.00   0.00   0.00
sdh               0.00     0.00    0.00    0.00     0.00     0.00     0.00     0.00    0.00    0.00    0.00   0.00   0.00
md0               0.00     0.00 33276.00    0.00 133104.00     0.00     8.00     0.00    0.00    0.00    0.00   0.00   0.00

avg-cpu:  %user   %nice %system %iowait  %steal   %idle
           1.31    0.00    4.19    0.79    0.00   93.72

Device:         rrqm/s   wrqm/s     r/s     w/s    rkB/s    wkB/s avgrq-sz avgqu-sz   await r_await w_await  svctm  %util
sda               0.00     0.00 5637.00    0.00 22548.00     0.00     8.00     0.57    0.10    0.10    0.00   0.05  30.50
sdb               0.00     0.00 5393.00    0.00 21572.00     0.00     8.00     0.64    0.12    0.12    0.00   0.06  32.20
sdc               0.00     0.00 5459.00    0.00 21836.00     0.00     8.00     0.64    0.12    0.12    0.00   0.06  32.80
sdd               0.00     0.00 5496.00    0.00 21984.00     0.00     8.00     0.66    0.12    0.12    0.00   0.06  34.80
sde               0.00     0.00 5603.00    0.00 22412.00     0.00     8.00     0.65    0.12    0.12    0.00   0.06  34.70
sdf               0.00     0.00 5468.00    0.00 21872.00     0.00     8.00     0.68    0.12    0.12    0.00   0.07  35.70
sdg               0.00     0.00    0.00    0.00     0.00     0.00     0.00     0.00    0.00    0.00    0.00   0.00   0.00
sdh               0.00     0.00    0.00    0.00     0.00     0.00     0.00     0.00    0.00    0.00    0.00   0.00   0.00
md0               0.00     0.00 33055.00    0.00 132220.00     0.00     8.00     0.00    0.00    0.00    0.00   0.00   0.00

avg-cpu:  %user   %nice %system %iowait  %steal   %idle
           1.31    0.26    4.70    0.78    0.00   92.95

Device:         rrqm/s   wrqm/s     r/s     w/s    rkB/s    wkB/s avgrq-sz avgqu-sz   await r_await w_await  svctm  %util
sda               0.00     0.00 5368.00    0.00 21472.00     0.00     8.00     0.63    0.12    0.12    0.00   0.06  34.30
sdb               0.00     0.00 5484.00    0.00 21936.00     0.00     8.00     0.57    0.10    0.10    0.00   0.05  29.60
sdc               0.00     0.00 5406.00    0.00 21624.00     0.00     8.00     0.66    0.12    0.12    0.00   0.07  35.50
sdd               0.00     0.00 5333.00    0.00 21332.00     0.00     8.00     0.63    0.12    0.12    0.00   0.06  33.20
sde               0.00     0.00 5407.00    0.00 21628.00     0.00     8.00     0.65    0.12    0.12    0.00   0.06  34.40
sdf               0.00     0.00 5403.00    0.00 21612.00     0.00     8.00     0.66    0.12    0.12    0.00   0.06  34.30
sdg               0.00     0.00    3.00    0.00    12.00     0.00     8.00     0.00    0.00    0.00    0.00   0.00   0.00
sdh               0.00     0.00    0.00    0.00     0.00     0.00     0.00     0.00    0.00    0.00    0.00   0.00   0.00
md0               0.00     0.00 32412.00    0.00 129648.00     0.00     8.00     0.00    0.00    0.00    0.00   0.00   0.00

avg-cpu:  %user   %nice %system %iowait  %steal   %idle
           1.04    0.00    4.70    0.52    0.00   93.73

Device:         rrqm/s   wrqm/s     r/s     w/s    rkB/s    wkB/s avgrq-sz avgqu-sz   await r_await w_await  svctm  %util
sda               0.00     0.00 5616.00    0.00 22464.00     0.00     8.00     0.63    0.11    0.11    0.00   0.06  33.10
sdb               0.00     0.00 5395.00    0.00 21580.00     0.00     8.00     0.55    0.10    0.10    0.00   0.06  31.20
sdc               0.00     0.00 5364.00    0.00 21456.00     0.00     8.00     0.61    0.11    0.11    0.00   0.06  31.30
sdd               0.00     0.00 5418.00    0.00 21672.00     0.00     8.00     0.68    0.13    0.13    0.00   0.07  36.10
sde               0.00     0.00 5409.00    0.00 21636.00     0.00     8.00     0.65    0.12    0.12    0.00   0.06  34.80
sdf               0.00     0.00 5330.00    0.00 21320.00     0.00     8.00     0.69    0.13    0.13    0.00   0.07  35.60
sdg               0.00     0.00    0.00    0.00     0.00     0.00     0.00     0.00    0.00    0.00    0.00   0.00   0.00
sdh               0.00     0.00    0.00    0.00     0.00     0.00     0.00     0.00    0.00    0.00    0.00   0.00   0.00
md0               0.00     0.00 32529.00    0.00 130116.00     0.00     8.00     0.00    0.00    0.00    0.00   0.00   0.00

avg-cpu:  %user   %nice %system %iowait  %steal   %idle
           1.05    0.00    4.20    0.79    0.00   93.96

Device:         rrqm/s   wrqm/s     r/s     w/s    rkB/s    wkB/s avgrq-sz avgqu-sz   await r_await w_await  svctm  %util
sda               0.00     0.00 5451.00    0.00 21804.00     0.00     8.00     0.53    0.10    0.10    0.00   0.05  29.10
sdb               0.00     0.00 5544.00    0.00 22176.00     0.00     8.00     0.56    0.10    0.10    0.00   0.05  29.30
sdc               0.00     0.00 5258.00    0.00 21032.00     0.00     8.00     0.65    0.12    0.12    0.00   0.07  34.50
sdd               0.00     0.00 5556.00    0.00 22224.00     0.00     8.00     0.65    0.12    0.12    0.00   0.06  33.70
sde               0.00     0.00 5249.00    0.00 20996.00     0.00     8.00     0.64    0.12    0.12    0.00   0.06  33.90
sdf               0.00     0.00 5385.00    0.00 21540.00     0.00     8.00     0.59    0.11    0.11    0.00   0.06  31.80
sdg               0.00     0.00    0.00    0.00     0.00     0.00     0.00     0.00    0.00    0.00    0.00   0.00   0.00
sdh               0.00     0.00    0.00    0.00     0.00     0.00     0.00     0.00    0.00    0.00    0.00   0.00   0.00
md0               0.00     0.00 32444.00    0.00 129776.00     0.00     8.00     0.00    0.00    0.00    0.00   0.00   0.00

avg-cpu:  %user   %nice %system %iowait  %steal   %idle
           1.56    0.00    4.94    0.52    0.00   92.99

Device:         rrqm/s   wrqm/s     r/s     w/s    rkB/s    wkB/s avgrq-sz avgqu-sz   await r_await w_await  svctm  %util
sda               0.00     0.00 5192.00    0.00 20768.00     0.00     8.00     0.51    0.10    0.10    0.00   0.05  27.80
sdb               0.00     0.00 5407.00    0.00 21628.00     0.00     8.00     0.61    0.11    0.11    0.00   0.06  31.10
sdc               0.00     0.00 5387.00    0.00 21548.00     0.00     8.00     0.60    0.11    0.11    0.00   0.06  32.10
sdd               0.00     0.00 5258.00    0.00 21032.00     0.00     8.00     0.60    0.11    0.11    0.00   0.07  34.30
sde               0.00     0.00 5508.00    0.00 22032.00     0.00     8.00     0.63    0.11    0.11    0.00   0.06  32.90
sdf               0.00     0.00 5508.00    0.00 22032.00     0.00     8.00     0.61    0.11    0.11    0.00   0.06  33.70
sdg               0.00     0.00    0.00    0.00     0.00     0.00     0.00     0.00    0.00    0.00    0.00   0.00   0.00
sdh               0.00     0.00    0.00    0.00     0.00     0.00     0.00     0.00    0.00    0.00    0.00   0.00   0.00
md0               0.00     0.00 32255.00    0.00 129020.00     0.00     8.00     0.00    0.00    0.00    0.00   0.00   0.00

avg-cpu:  %user   %nice %system %iowait  %steal   %idle
           1.57    0.00    4.18    0.78    0.00   93.47

Device:         rrqm/s   wrqm/s     r/s     w/s    rkB/s    wkB/s avgrq-sz avgqu-sz   await r_await w_await  svctm  %util
sda               0.00     0.00 5413.00    0.00 21652.00     0.00     8.00     0.61    0.11    0.11    0.00   0.06  33.10
sdb               0.00     0.00 5374.00    0.00 21496.00     0.00     8.00     0.61    0.11    0.11    0.00   0.06  32.50
sdc               0.00     0.00 5348.00    0.00 21392.00     0.00     8.00     0.65    0.12    0.12    0.00   0.07  35.50
sdd               0.00     0.00 5329.00    0.00 21316.00     0.00     8.00     0.62    0.12    0.12    0.00   0.06  34.60
sde               0.00     0.00 5410.00    0.00 21640.00     0.00     8.00     0.64    0.12    0.12    0.00   0.07  35.30
sdf               0.00     0.00 5278.00    0.00 21112.00     0.00     8.00     0.59    0.11    0.11    0.00   0.06  32.60
sdg               0.00     0.00    0.00    0.00     0.00     0.00     0.00     0.00    0.00    0.00    0.00   0.00   0.00
sdh               0.00     0.00    0.00    0.00     0.00     0.00     0.00     0.00    0.00    0.00    0.00   0.00   0.00
md0               0.00     0.00 32150.00    0.00 128600.00     0.00     8.00     0.00    0.00    0.00    0.00   0.00   0.00

avg-cpu:  %user   %nice %system %iowait  %steal   %idle
           1.05    0.00    4.45    0.79    0.00   93.72

Device:         rrqm/s   wrqm/s     r/s     w/s    rkB/s    wkB/s avgrq-sz avgqu-sz   await r_await w_await  svctm  %util
sda               0.00     0.00 5386.00    0.00 21544.00     0.00     8.00     0.58    0.11    0.11    0.00   0.06  32.30
sdb               0.00     0.00 5311.00    0.00 21244.00     0.00     8.00     0.53    0.10    0.10    0.00   0.06  31.20
sdc               0.00     0.00 5328.00    0.00 21312.00     0.00     8.00     0.59    0.11    0.11    0.00   0.06  31.40
sdd               0.00     0.00 5100.00    0.00 20400.00     0.00     8.00     0.63    0.12    0.12    0.00   0.07  35.60
sde               0.00     0.00 5416.00    0.00 21664.00     0.00     8.00     0.72    0.13    0.13    0.00   0.07  38.50
sdf               0.00     0.00 5338.00    0.00 21352.00     0.00     8.00     0.62    0.12    0.12    0.00   0.06  34.50
sdg               0.00     0.00    0.00    0.00     0.00     0.00     0.00     0.00    0.00    0.00    0.00   0.00   0.00
sdh               0.00     0.00    0.00    0.00     0.00     0.00     0.00     0.00    0.00    0.00    0.00   0.00   0.00
md0               0.00     0.00 31884.00    0.00 127536.00     0.00     8.00     0.00    0.00    0.00    0.00   0.00   0.00

avg-cpu:  %user   %nice %system %iowait  %steal   %idle
           1.31    0.00    4.20    0.52    0.00   93.96

Device:         rrqm/s   wrqm/s     r/s     w/s    rkB/s    wkB/s avgrq-sz avgqu-sz   await r_await w_await  svctm  %util
sda               0.00     0.00 5266.00    0.00 21064.00     0.00     8.00     0.52    0.10    0.10    0.00   0.06  29.70
sdb               0.00     0.00 5329.00    0.00 21316.00     0.00     8.00     0.53    0.10    0.10    0.00   0.05  29.10
sdc               0.00     0.00 5229.00    0.00 20916.00     0.00     8.00     0.64    0.12    0.12    0.00   0.07  34.30
sdd               0.00     0.00 5220.00    0.00 20880.00     0.00     8.00     0.63    0.12    0.12    0.00   0.06  33.50
sde               0.00     0.00 5199.00    0.00 20796.00     0.00     8.00     0.64    0.12    0.12    0.00   0.06  33.10
sdf               0.00     0.00 5313.00    0.00 21252.00     0.00     8.00     0.69    0.13    0.13    0.00   0.07  36.20
sdg               0.00     0.00    0.00    0.00     0.00     0.00     0.00     0.00    0.00    0.00    0.00   0.00   0.00
sdh               0.00     0.00    0.00    0.00     0.00     0.00     0.00     0.00    0.00    0.00    0.00   0.00   0.00
md0               0.00     0.00 31552.00    0.00 126208.00     0.00     8.00     0.00    0.00    0.00    0.00   0.00   0.00

avg-cpu:  %user   %nice %system %iowait  %steal   %idle
           1.31    0.00    4.45    0.79    0.00   93.46

Device:         rrqm/s   wrqm/s     r/s     w/s    rkB/s    wkB/s avgrq-sz avgqu-sz   await r_await w_await  svctm  %util
sda               0.00     0.00 5145.00    0.00 20580.00     0.00     8.00     0.53    0.10    0.10    0.00   0.06  29.10
sdb               0.00     0.00 5229.00    0.00 20916.00     0.00     8.00     0.54    0.10    0.10    0.00   0.06  29.90
sdc               0.00     0.00 5261.00    0.00 21044.00     0.00     8.00     0.67    0.13    0.13    0.00   0.07  36.20
sdd               0.00     0.00 5176.00    0.00 20704.00     0.00     8.00     0.64    0.12    0.12    0.00   0.07  34.90
sde               0.00     0.00 5111.00    0.00 20444.00     0.00     8.00     0.55    0.11    0.11    0.00   0.06  31.50
sdf               0.00     0.00 5208.00    0.00 20832.00     0.00     8.00     0.59    0.11    0.11    0.00   0.06  31.70
sdg               0.00     0.00    0.00    0.00     0.00     0.00     0.00     0.00    0.00    0.00    0.00   0.00   0.00
sdh               0.00     0.00    0.00    0.00     0.00     0.00     0.00     0.00    0.00    0.00    0.00   0.00   0.00
md0               0.00     0.00 31128.00    0.00 124512.00     0.00     8.00     0.00    0.00    0.00    0.00   0.00   0.00

