Linux 4.17.2 (bench) 	08/03/2018 	_x86_64_	(4 CPU)

avg-cpu:  %user   %nice %system %iowait  %steal   %idle
          10.29    0.02    4.00    2.47    0.00   83.22

Device:         rrqm/s   wrqm/s     r/s     w/s    rkB/s    wkB/s avgrq-sz avgqu-sz   await r_await w_await  svctm  %util
sda              41.51     4.27 1615.20  103.33 20691.80  3153.20    27.75     1.03    0.60    0.26    5.91   0.06  10.56
sdb              41.40     4.23 1615.09  103.47 20681.24  3149.83    27.73     1.02    0.60    0.26    5.85   0.06  10.44
sdc              79.47     4.29 1574.93  103.02 20673.44  3152.31    28.40     1.44    0.86    0.45    7.12   0.08  13.87
sdd              72.83     4.26 1580.73  103.09 20658.14  3148.48    28.28     1.45    0.86    0.44    7.32   0.08  13.96
sde              74.90     4.30 1585.86  103.18 20718.65  3152.76    28.27     1.47    0.87    0.44    7.43   0.08  13.98
sdf              71.99     4.27 1588.04  103.13 20699.66  3149.60    28.20     1.52    0.90    0.44    7.90   0.08  14.01
sdg               0.00     3.18   25.97   73.33   322.58   391.96    14.39     0.44    4.43    0.20    5.93   0.08   0.78
sdh               0.00     0.13    0.02    0.24     2.23     5.10    56.82     0.00    1.15    0.65    1.19   0.21   0.01
md0               0.00     0.00 9948.15  484.07 141660.12 21590.62    31.30     0.00    0.00    0.00    0.00   0.00   0.00

avg-cpu:  %user   %nice %system %iowait  %steal   %idle
           3.37    0.00   15.80    2.33    0.00   78.50

Device:         rrqm/s   wrqm/s     r/s     w/s    rkB/s    wkB/s avgrq-sz avgqu-sz   await r_await w_await  svctm  %util
sda               0.00     0.00 16340.00    0.00 65360.00     0.00     8.00     2.01    0.12    0.12    0.00   0.04  62.60
sdb               0.00     0.00 16328.00    0.00 65312.00     0.00     8.00     2.03    0.12    0.12    0.00   0.04  61.60
sdc               0.00     0.00 16302.00    0.00 65208.00     0.00     8.00     2.13    0.13    0.13    0.00   0.04  65.10
sdd               0.00     0.00 16390.00    0.00 65560.00     0.00     8.00     2.18    0.13    0.13    0.00   0.04  65.90
sde               0.00     0.00 16372.00    0.00 65488.00     0.00     8.00     2.24    0.14    0.14    0.00   0.04  66.70
sdf               0.00     0.00 16158.00    0.00 64632.00     0.00     8.00     2.20    0.14    0.14    0.00   0.04  65.90
sdg               0.00    19.00   36.00   88.00   576.00  1408.00    32.00     0.19    1.52    0.14    2.09   0.10   1.20
sdh               0.00     0.00    0.00    0.00     0.00     0.00     0.00     0.00    0.00    0.00    0.00   0.00   0.00
md0               0.00     0.00 97865.00    0.00 391460.00     0.00     8.00     0.00    0.00    0.00    0.00   0.00   0.00

