Linux 4.17.2 (bench) 	08/03/2018 	_x86_64_	(4 CPU)

avg-cpu:  %user   %nice %system %iowait  %steal   %idle
          10.30    0.02    3.96    2.40    0.00   83.32

Device:         rrqm/s   wrqm/s     r/s     w/s    rkB/s    wkB/s avgrq-sz avgqu-sz   await r_await w_await  svctm  %util
sda              38.66     4.29 1586.44  103.95 20513.90  3172.27    28.02     1.02    0.60    0.26    5.91   0.06  10.42
sdb              38.56     4.25 1586.31  104.09 20503.22  3168.89    28.01     1.02    0.60    0.26    5.85   0.06  10.30
sdc              76.77     4.31 1546.03  103.64 20495.46  3171.38    28.69     1.44    0.87    0.45    7.12   0.08  13.72
sdd              70.07     4.28 1551.88  103.71 20480.06  3167.52    28.57     1.45    0.87    0.44    7.32   0.08  13.81
sde              72.16     4.33 1557.05  103.81 20541.05  3171.83    28.55     1.47    0.88    0.45    7.43   0.08  13.83
sdf              69.24     4.30 1559.23  103.75 20522.00  3168.65    28.49     1.51    0.91    0.44    7.90   0.08  13.86
sdg               0.00     3.18   25.74   73.36   321.63   391.97    14.40     0.44    4.44    0.20    5.93   0.08   0.77
sdh               0.00     0.13    0.02    0.24     2.24     5.13    56.82     0.00    1.15    0.65    1.19   0.21   0.01
md0               0.00     0.00 9758.28  487.00 140382.25 21721.21    31.64     0.00    0.00    0.00    0.00   0.00   0.00

avg-cpu:  %user   %nice %system %iowait  %steal   %idle
           0.26    0.00    2.56    1.03    0.00   96.15

Device:         rrqm/s   wrqm/s     r/s     w/s    rkB/s    wkB/s avgrq-sz avgqu-sz   await r_await w_await  svctm  %util
sda               0.00     0.00 2262.00    0.00  9048.00     0.00     8.00     0.15    0.06    0.06    0.00   0.06  14.60
sdb               0.00     0.00 2157.00    0.00  8628.00     0.00     8.00     0.15    0.07    0.07    0.00   0.07  15.10
sdc               0.00     0.00 2423.00    0.00  9692.00     0.00     8.00     0.15    0.06    0.06    0.00   0.06  14.80
sdd               0.00     0.00 2476.00    0.00  9904.00     0.00     8.00     0.15    0.06    0.06    0.00   0.06  15.40
sde               0.00     0.00 2163.00    0.00  8652.00     0.00     8.00     0.15    0.07    0.07    0.00   0.07  14.60
sdf               0.00     0.00 2237.00    0.00  8948.00     0.00     8.00     0.15    0.07    0.07    0.00   0.07  15.00
sdg               0.00    17.00   19.00   68.00   304.00  1248.00    35.68     0.21    2.47    0.16    3.12   0.11   1.00
sdh               0.00     0.00    0.00    0.00     0.00     0.00     0.00     0.00    0.00    0.00    0.00   0.00   0.00
md0               0.00     0.00 13708.00    0.00 54832.00     0.00     8.00     0.00    0.00    0.00    0.00   0.00   0.00

