Linux 4.17.2 (bench) 	08/03/2018 	_x86_64_	(4 CPU)

avg-cpu:  %user   %nice %system %iowait  %steal   %idle
          10.30    0.02    3.96    2.40    0.00   83.32

Device:         rrqm/s   wrqm/s     r/s     w/s    rkB/s    wkB/s avgrq-sz avgqu-sz   await r_await w_await  svctm  %util
sda              38.66     4.29 1586.62  103.94 20515.08  3171.91    28.02     1.02    0.60    0.26    5.91   0.06  10.43
sdb              38.56     4.25 1586.49  104.08 20504.40  3168.52    28.01     1.02    0.60    0.26    5.85   0.06  10.31
sdc              76.76     4.31 1546.21  103.63 20496.64  3171.02    28.69     1.44    0.87    0.45    7.12   0.08  13.72
sdd              70.07     4.28 1552.06  103.70 20481.25  3167.16    28.57     1.45    0.87    0.44    7.32   0.08  13.81
sde              72.15     4.33 1557.23  103.80 20542.23  3171.47    28.55     1.47    0.88    0.45    7.43   0.08  13.83
sdf              69.23     4.30 1559.41  103.74 20523.18  3168.29    28.49     1.51    0.91    0.44    7.90   0.08  13.86
sdg               0.00     3.18   25.75   73.36   321.64   391.97    14.40     0.44    4.44    0.20    5.93   0.08   0.77
sdh               0.00     0.13    0.02    0.24     2.24     5.13    56.82     0.00    1.15    0.65    1.19   0.21   0.01
md0               0.00     0.00 9759.33  486.94 140393.67 21718.73    31.64     0.00    0.00    0.00    0.00   0.00   0.00

avg-cpu:  %user   %nice %system %iowait  %steal   %idle
           2.04    0.00    8.40   13.23    0.00   76.34

Device:         rrqm/s   wrqm/s     r/s     w/s    rkB/s    wkB/s avgrq-sz avgqu-sz   await r_await w_await  svctm  %util
sda               0.00     0.00 6763.00    0.00 27052.00     0.00     8.00     0.75    0.11    0.11    0.00   0.06  43.20
sdb               0.00     0.00 6970.00    0.00 27880.00     0.00     8.00     0.71    0.10    0.10    0.00   0.06  43.60
sdc               0.00     0.00 7043.00    0.00 28172.00     0.00     8.00     0.83    0.12    0.12    0.00   0.07  48.60
sdd               0.00     0.00 6977.00    0.00 27908.00     0.00     8.00     0.80    0.11    0.11    0.00   0.07  47.30
sde               0.00     0.00 6848.00    0.00 27392.00     0.00     8.00     0.78    0.11    0.11    0.00   0.07  47.90
sdf               0.00     0.00 6922.00    0.00 27688.00     0.00     8.00     0.83    0.12    0.12    0.00   0.07  48.40
sdg               0.00     1.00    0.00   12.00     0.00   164.00    27.33     0.00    0.25    0.00    0.25   0.08   0.10
sdh               0.00     0.00    0.00    0.00     0.00     0.00     0.00     0.00    0.00    0.00    0.00   0.00   0.00
md0               0.00     0.00 41512.00    0.00 166048.00     0.00     8.00     0.00    0.00    0.00    0.00   0.00   0.00

