Linux 4.17.2 (bench) 	08/03/2018 	_x86_64_	(4 CPU)

avg-cpu:  %user   %nice %system %iowait  %steal   %idle
          10.30    0.02    3.96    2.40    0.00   83.32

Device:         rrqm/s   wrqm/s     r/s     w/s    rkB/s    wkB/s avgrq-sz avgqu-sz   await r_await w_await  svctm  %util
sda              38.65     4.30 1586.50  103.97 20511.28  3172.69    28.02     1.02    0.60    0.26    5.91   0.06  10.42
sdb              38.56     4.26 1586.37  104.11 20500.59  3169.31    28.00     1.02    0.60    0.26    5.85   0.06  10.30
sdc              76.77     4.32 1546.08  103.65 20492.82  3171.80    28.69     1.44    0.87    0.45    7.12   0.08  13.71
sdd              70.07     4.28 1551.94  103.72 20477.42  3167.95    28.56     1.45    0.87    0.44    7.32   0.08  13.81
sde              72.16     4.33 1557.10  103.82 20538.44  3172.25    28.55     1.47    0.88    0.45    7.43   0.08  13.83
sdf              69.24     4.30 1559.28  103.77 20519.37  3169.07    28.49     1.51    0.91    0.44    7.90   0.08  13.86
sdg               0.00     3.18   25.74   73.36   321.62   391.97    14.40     0.44    4.44    0.20    5.93   0.08   0.77
sdh               0.00     0.13    0.02    0.24     2.24     5.13    56.82     0.00    1.15    0.65    1.19   0.21   0.01
md0               0.00     0.00 9758.62  487.06 140356.62 21724.10    31.64     0.00    0.00    0.00    0.00   0.00   0.00

avg-cpu:  %user   %nice %system %iowait  %steal   %idle
           0.26    0.26    2.56    1.03    0.00   95.90

Device:         rrqm/s   wrqm/s     r/s     w/s    rkB/s    wkB/s avgrq-sz avgqu-sz   await r_await w_await  svctm  %util
sda               0.00     0.00 2031.00    0.00  8124.00     0.00     8.00     0.15    0.07    0.07    0.00   0.07  15.20
sdb               0.00     0.00 1979.00    0.00  7916.00     0.00     8.00     0.14    0.07    0.07    0.00   0.07  14.30
sdc               0.00     0.00 2384.00    0.00  9536.00     0.00     8.00     0.16    0.07    0.07    0.00   0.07  16.40
sdd               0.00     0.00 1966.00    0.00  7864.00     0.00     8.00     0.13    0.07    0.07    0.00   0.07  12.80
sde               0.00     0.00 2083.00    0.00  8332.00     0.00     8.00     0.16    0.08    0.08    0.00   0.07  15.60
sdf               0.00     0.00 2080.00    0.00  8320.00     0.00     8.00     0.15    0.07    0.07    0.00   0.07  14.80
sdg               0.00     0.00   20.00    0.00   140.00     0.00    14.00     0.00    0.15    0.15    0.00   0.15   0.30
sdh               0.00     0.00    0.00    0.00     0.00     0.00     0.00     0.00    0.00    0.00    0.00   0.00   0.00
md0               0.00     0.00 12524.00    0.00 50096.00     0.00     8.00     0.00    0.00    0.00    0.00   0.00   0.00

avg-cpu:  %user   %nice %system %iowait  %steal   %idle
           0.26    0.00    2.06    3.60    0.00   94.09

Device:         rrqm/s   wrqm/s     r/s     w/s    rkB/s    wkB/s avgrq-sz avgqu-sz   await r_await w_await  svctm  %util
sda               0.00     0.00 2049.00    0.00  8196.00     0.00     8.00     0.16    0.08    0.08    0.00   0.08  15.60
sdb               0.00     0.00 1969.00    0.00  7876.00     0.00     8.00     0.14    0.07    0.07    0.00   0.07  13.50
sdc               0.00     0.00 2120.00    0.00  8480.00     0.00     8.00     0.14    0.07    0.07    0.00   0.07  14.20
sdd               0.00     0.00 2416.00    0.00  9664.00     0.00     8.00     0.16    0.07    0.07    0.00   0.07  15.80
sde               0.00     0.00 2322.00    0.00  9288.00     0.00     8.00     0.17    0.07    0.07    0.00   0.07  17.10
sdf               0.00     0.00 2326.00    0.00  9304.00     0.00     8.00     0.15    0.07    0.07    0.00   0.07  15.20
sdg               0.00     0.00    0.00    0.00     0.00     0.00     0.00     0.00    0.00    0.00    0.00   0.00   0.00
sdh               0.00     0.00    0.00    0.00     0.00     0.00     0.00     0.00    0.00    0.00    0.00   0.00   0.00
md0               0.00     0.00 13203.00    0.00 52812.00     0.00     8.00     0.00    0.00    0.00    0.00   0.00   0.00

avg-cpu:  %user   %nice %system %iowait  %steal   %idle
           0.25    0.00    4.04   19.95    0.00   75.76

Device:         rrqm/s   wrqm/s     r/s     w/s    rkB/s    wkB/s avgrq-sz avgqu-sz   await r_await w_await  svctm  %util
sda               0.00     0.00 1989.00    0.00  7956.00     0.00     8.00     0.13    0.06    0.06    0.00   0.06  12.90
sdb               0.00     0.00 2368.00    0.00  9472.00     0.00     8.00     0.16    0.07    0.07    0.00   0.07  15.70
sdc               0.00     0.00 2319.00    0.00  9276.00     0.00     8.00     0.15    0.07    0.07    0.00   0.07  15.20
sdd               0.00     0.00 2198.00    0.00  8792.00     0.00     8.00     0.14    0.07    0.07    0.00   0.07  14.50
sde               0.00     0.00 2571.00    0.00 10284.00     0.00     8.00     0.17    0.07    0.07    0.00   0.07  17.10
sdf               0.00     0.00 2301.00    0.00  9204.00     0.00     8.00     0.15    0.07    0.07    0.00   0.07  15.30
sdg               0.00     0.00    0.00    0.00     0.00     0.00     0.00     0.00    0.00    0.00    0.00   0.00   0.00
sdh               0.00     0.00    0.00    0.00     0.00     0.00     0.00     0.00    0.00    0.00    0.00   0.00   0.00
md0               0.00     0.00 13748.00    0.00 54992.00     0.00     8.00     0.00    0.00    0.00    0.00   0.00   0.00

avg-cpu:  %user   %nice %system %iowait  %steal   %idle
           0.25    0.00    3.80   20.00    0.00   75.95

Device:         rrqm/s   wrqm/s     r/s     w/s    rkB/s    wkB/s avgrq-sz avgqu-sz   await r_await w_await  svctm  %util
sda               0.00     0.00 2267.00    0.00  9068.00     0.00     8.00     0.15    0.07    0.07    0.00   0.07  14.90
sdb               0.00     0.00 2748.00    0.00 10992.00     0.00     8.00     0.15    0.06    0.06    0.00   0.06  15.40
sdc               0.00     0.00 2343.00    0.00  9372.00     0.00     8.00     0.16    0.07    0.07    0.00   0.07  15.60
sdd               0.00     0.00 2096.00    0.00  8384.00     0.00     8.00     0.15    0.07    0.07    0.00   0.07  14.60
sde               0.00     0.00 2205.00    0.00  8820.00     0.00     8.00     0.15    0.07    0.07    0.00   0.07  15.20
sdf               0.00     0.00 2188.00    0.00  8752.00     0.00     8.00     0.14    0.07    0.07    0.00   0.07  14.40
sdg               0.00     0.00    0.00    0.00     0.00     0.00     0.00     0.00    0.00    0.00    0.00   0.00   0.00
sdh               0.00     0.00    0.00    0.00     0.00     0.00     0.00     0.00    0.00    0.00    0.00   0.00   0.00
md0               0.00     0.00 13844.00    0.00 55376.00     0.00     8.00     0.00    0.00    0.00    0.00   0.00   0.00

avg-cpu:  %user   %nice %system %iowait  %steal   %idle
           0.25    0.00    3.80   20.00    0.00   75.95

Device:         rrqm/s   wrqm/s     r/s     w/s    rkB/s    wkB/s avgrq-sz avgqu-sz   await r_await w_await  svctm  %util
sda               0.00     0.00 2349.00    0.00  9396.00     0.00     8.00     0.15    0.06    0.06    0.00   0.06  15.00
sdb               0.00     0.00 2142.00    0.00  8568.00     0.00     8.00     0.13    0.06    0.06    0.00   0.06  13.20
sdc               0.00     0.00 2272.00    0.00  9088.00     0.00     8.00     0.16    0.07    0.07    0.00   0.07  16.00
sdd               0.00     0.00 2095.00    0.00  8380.00     0.00     8.00     0.14    0.07    0.07    0.00   0.07  13.90
sde               0.00     0.00 2384.00    0.00  9536.00     0.00     8.00     0.16    0.07    0.07    0.00   0.07  16.10
sdf               0.00     0.00 2434.00    0.00  9736.00     0.00     8.00     0.15    0.06    0.06    0.00   0.06  15.40
sdg               0.00     0.00    0.00    0.00     0.00     0.00     0.00     0.00    0.00    0.00    0.00   0.00   0.00
sdh               0.00     0.00    0.00    0.00     0.00     0.00     0.00     0.00    0.00    0.00    0.00   0.00   0.00
md0               0.00     0.00 13678.00    0.00 54712.00     0.00     8.00     0.00    0.00    0.00    0.00   0.00   0.00

avg-cpu:  %user   %nice %system %iowait  %steal   %idle
           0.25    0.00    3.56   14.50    0.00   81.68

Device:         rrqm/s   wrqm/s     r/s     w/s    rkB/s    wkB/s avgrq-sz avgqu-sz   await r_await w_await  svctm  %util
sda               0.00     0.00 2429.00    0.00  9716.00     0.00     8.00     0.14    0.06    0.06    0.00   0.06  14.50
sdb               0.00     0.00 2093.00    0.00  8372.00     0.00     8.00     0.13    0.06    0.06    0.00   0.06  13.10
sdc               0.00     0.00 1950.00    0.00  7800.00     0.00     8.00     0.12    0.06    0.06    0.00   0.06  12.30
sdd               0.00     0.00 2355.00    0.00  9420.00     0.00     8.00     0.16    0.07    0.07    0.00   0.07  15.80
sde               0.00     0.00 2426.00    0.00  9704.00     0.00     8.00     0.17    0.07    0.07    0.00   0.07  16.50
sdf               0.00     0.00 2381.00    0.00  9524.00     0.00     8.00     0.16    0.07    0.07    0.00   0.07  16.10
sdg               0.00     0.00    0.00    0.00     0.00     0.00     0.00     0.00    0.00    0.00    0.00   0.00   0.00
sdh               0.00     0.00    0.00    0.00     0.00     0.00     0.00     0.00    0.00    0.00    0.00   0.00   0.00
md0               0.00     0.00 13634.00    0.00 54536.00     0.00     8.00     0.00    0.00    0.00    0.00   0.00   0.00

avg-cpu:  %user   %nice %system %iowait  %steal   %idle
           0.26    0.00    3.07    0.77    0.00   95.91

Device:         rrqm/s   wrqm/s     r/s     w/s    rkB/s    wkB/s avgrq-sz avgqu-sz   await r_await w_await  svctm  %util
sda               0.00     0.00 2392.00    0.00  9568.00     0.00     8.00     0.15    0.06    0.06    0.00   0.06  15.30
sdb               0.00     0.00 2151.00    0.00  8604.00     0.00     8.00     0.13    0.06    0.06    0.00   0.06  13.10
sdc               0.00     0.00 2322.00    0.00  9288.00     0.00     8.00     0.15    0.06    0.06    0.00   0.06  14.80
sdd               0.00     0.00 2217.00    0.00  8868.00     0.00     8.00     0.14    0.06    0.06    0.00   0.06  14.00
sde               0.00     0.00 2403.00    0.00  9612.00     0.00     8.00     0.15    0.06    0.06    0.00   0.06  14.70
sdf               0.00     0.00 2553.00    0.00 10212.00     0.00     8.00     0.17    0.07    0.07    0.00   0.07  17.20
sdg               0.00     0.00    0.00    0.00     0.00     0.00     0.00     0.00    0.00    0.00    0.00   0.00   0.00
sdh               0.00     0.00    0.00    0.00     0.00     0.00     0.00     0.00    0.00    0.00    0.00   0.00   0.00
md0               0.00     0.00 14038.00    0.00 56152.00     0.00     8.00     0.00    0.00    0.00    0.00   0.00   0.00

avg-cpu:  %user   %nice %system %iowait  %steal   %idle
           0.26    0.00    3.06    7.91    0.00   88.78

Device:         rrqm/s   wrqm/s     r/s     w/s    rkB/s    wkB/s avgrq-sz avgqu-sz   await r_await w_await  svctm  %util
sda               0.00     0.00 2460.00    0.00  9840.00     0.00     8.00     0.15    0.06    0.06    0.00   0.06  15.40
sdb               0.00     0.00 2097.00    0.00  8388.00     0.00     8.00     0.13    0.06    0.06    0.00   0.06  12.90
sdc               0.00     0.00 2861.00    0.00 11444.00     0.00     8.00     0.18    0.06    0.06    0.00   0.06  17.60
sdd               0.00     0.00 2308.00    0.00  9232.00     0.00     8.00     0.16    0.07    0.07    0.00   0.07  15.70
sde               0.00     0.00 2264.00    0.00  9056.00     0.00     8.00     0.16    0.07    0.07    0.00   0.07  15.90
sdf               0.00     0.00 1999.00    0.00  7996.00     0.00     8.00     0.12    0.06    0.06    0.00   0.06  11.60
sdg               0.00     0.00    0.00    0.00     0.00     0.00     0.00     0.00    0.00    0.00    0.00   0.00   0.00
sdh               0.00     0.00    0.00    0.00     0.00     0.00     0.00     0.00    0.00    0.00    0.00   0.00   0.00
md0               0.00     0.00 13989.00    0.00 55956.00     0.00     8.00     0.00    0.00    0.00    0.00   0.00   0.00

avg-cpu:  %user   %nice %system %iowait  %steal   %idle
           0.51    0.00    3.54   18.48    0.00   77.47

Device:         rrqm/s   wrqm/s     r/s     w/s    rkB/s    wkB/s avgrq-sz avgqu-sz   await r_await w_await  svctm  %util
sda               0.00     0.00 2294.00    0.00  9176.00     0.00     8.00     0.16    0.07    0.07    0.00   0.07  16.00
sdb               0.00     0.00 2309.00    0.00  9236.00     0.00     8.00     0.15    0.06    0.06    0.00   0.06  14.60
sdc               0.00     0.00 2365.00    0.00  9460.00     0.00     8.00     0.16    0.07    0.07    0.00   0.07  15.90
sdd               0.00     0.00 2309.00    0.00  9236.00     0.00     8.00     0.15    0.07    0.07    0.00   0.07  15.20
sde               0.00     0.00 2167.00    0.00  8668.00     0.00     8.00     0.14    0.07    0.07    0.00   0.07  14.10
sdf               0.00     0.00 2057.00    0.00  8228.00     0.00     8.00     0.14    0.07    0.07    0.00   0.07  14.30
sdg               0.00     0.00    0.00    0.00     0.00     0.00     0.00     0.00    0.00    0.00    0.00   0.00   0.00
sdh               0.00     0.00    0.00    0.00     0.00     0.00     0.00     0.00    0.00    0.00    0.00   0.00   0.00
md0               0.00     0.00 13500.00    0.00 54000.00     0.00     8.00     0.00    0.00    0.00    0.00   0.00   0.00

avg-cpu:  %user   %nice %system %iowait  %steal   %idle
           0.26    0.00    2.81   11.51    0.00   85.42

Device:         rrqm/s   wrqm/s     r/s     w/s    rkB/s    wkB/s avgrq-sz avgqu-sz   await r_await w_await  svctm  %util
sda               0.00     0.00 2307.00    0.00  9228.00     0.00     8.00     0.14    0.06    0.06    0.00   0.06  14.00
sdb               0.00     0.00 2235.00    0.00  8940.00     0.00     8.00     0.14    0.06    0.06    0.00   0.06  14.30
sdc               0.00     0.00 1762.00    0.00  7048.00     0.00     8.00     0.13    0.07    0.07    0.00   0.07  13.20
sdd               0.00     0.00 2260.00    0.00  9040.00     0.00     8.00     0.16    0.07    0.07    0.00   0.07  15.80
sde               0.00     0.00 2441.00    0.00  9764.00     0.00     8.00     0.17    0.07    0.07    0.00   0.07  16.50
sdf               0.00     0.00 2445.00    0.00  9780.00     0.00     8.00     0.17    0.07    0.07    0.00   0.07  17.00
sdg               0.00     0.00    0.00    0.00     0.00     0.00     0.00     0.00    0.00    0.00    0.00   0.00   0.00
sdh               0.00     0.00    0.00    0.00     0.00     0.00     0.00     0.00    0.00    0.00    0.00   0.00   0.00
md0               0.00     0.00 13451.00    0.00 53804.00     0.00     8.00     0.00    0.00    0.00    0.00   0.00   0.00

avg-cpu:  %user   %nice %system %iowait  %steal   %idle
           0.00    0.26    3.33    5.13    0.00   91.28

Device:         rrqm/s   wrqm/s     r/s     w/s    rkB/s    wkB/s avgrq-sz avgqu-sz   await r_await w_await  svctm  %util
sda               0.00     0.00 2350.00    0.00  9400.00     0.00     8.00     0.14    0.06    0.06    0.00   0.06  14.40
sdb               0.00     0.00 2013.00    0.00  8052.00     0.00     8.00     0.14    0.07    0.07    0.00   0.07  14.10
sdc               0.00     0.00 2512.00    0.00 10048.00     0.00     8.00     0.16    0.06    0.06    0.00   0.06  16.20
sdd               0.00     0.00 2462.00    0.00  9848.00     0.00     8.00     0.17    0.07    0.07    0.00   0.07  17.10
sde               0.00     0.00 2348.00    0.00  9392.00     0.00     8.00     0.16    0.07    0.07    0.00   0.07  15.60
sdf               0.00     0.00 2169.00    0.00  8676.00     0.00     8.00     0.15    0.07    0.07    0.00   0.07  14.70
sdg               0.00     0.00 1323.00    0.00  5292.00     0.00     8.00     0.16    0.12    0.12    0.00   0.12  15.80
sdh               0.00     0.00    0.00    0.00     0.00     0.00     0.00     0.00    0.00    0.00    0.00   0.00   0.00
md0               0.00     0.00 13854.00    0.00 55416.00     0.00     8.00     0.00    0.00    0.00    0.00   0.00   0.00

avg-cpu:  %user   %nice %system %iowait  %steal   %idle
           0.76    0.00    4.03   19.65    0.00   75.57

Device:         rrqm/s   wrqm/s     r/s     w/s    rkB/s    wkB/s avgrq-sz avgqu-sz   await r_await w_await  svctm  %util
sda               0.00     0.00 2434.00    0.00  9736.00     0.00     8.00     0.14    0.06    0.06    0.00   0.06  14.10
sdb               0.00     0.00 2299.00    0.00  9196.00     0.00     8.00     0.14    0.06    0.06    0.00   0.06  13.60
sdc               0.00     0.00 2312.00    0.00  9248.00     0.00     8.00     0.16    0.07    0.07    0.00   0.07  15.90
sdd               0.00     0.00 2466.00    0.00  9864.00     0.00     8.00     0.16    0.07    0.07    0.00   0.07  16.40
sde               0.00     0.00 2062.00    0.00  8248.00     0.00     8.00     0.13    0.06    0.06    0.00   0.06  13.40
sdf               0.00     0.00 2166.00    0.00  8664.00     0.00     8.00     0.14    0.07    0.07    0.00   0.07  14.40
sdg               0.00     0.00    0.00    0.00     0.00     0.00     0.00     0.00    0.00    0.00    0.00   0.00   0.00
sdh               0.00     0.00    0.00    0.00     0.00     0.00     0.00     0.00    0.00    0.00    0.00   0.00   0.00
md0               0.00     0.00 13738.00    0.00 54952.00     0.00     8.00     0.00    0.00    0.00    0.00   0.00   0.00

avg-cpu:  %user   %nice %system %iowait  %steal   %idle
           0.25    0.00    3.31   18.58    0.00   77.86

Device:         rrqm/s   wrqm/s     r/s     w/s    rkB/s    wkB/s avgrq-sz avgqu-sz   await r_await w_await  svctm  %util
sda               0.00     0.00 2137.00    0.00  8548.00     0.00     8.00     0.13    0.06    0.06    0.00   0.06  13.20
sdb               0.00     0.00 2369.00    0.00  9476.00     0.00     8.00     0.14    0.06    0.06    0.00   0.06  14.00
sdc               0.00     0.00 2414.00    0.00  9656.00     0.00     8.00     0.16    0.07    0.07    0.00   0.07  16.40
sdd               0.00     0.00 2277.00    0.00  9108.00     0.00     8.00     0.15    0.07    0.07    0.00   0.07  15.10
sde               0.00     0.00 2368.00    0.00  9472.00     0.00     8.00     0.15    0.07    0.07    0.00   0.07  15.40
sdf               0.00     0.00 2108.00    0.00  8432.00     0.00     8.00     0.15    0.07    0.07    0.00   0.07  15.50
sdg               0.00     0.00    0.00    0.00     0.00     0.00     0.00     0.00    0.00    0.00    0.00   0.00   0.00
sdh               0.00     0.00    0.00    0.00     0.00     0.00     0.00     0.00    0.00    0.00    0.00   0.00   0.00
md0               0.00     0.00 13674.00    0.00 54696.00     0.00     8.00     0.00    0.00    0.00    0.00   0.00   0.00

avg-cpu:  %user   %nice %system %iowait  %steal   %idle
           0.25    0.00    3.31   14.25    0.00   82.19

Device:         rrqm/s   wrqm/s     r/s     w/s    rkB/s    wkB/s avgrq-sz avgqu-sz   await r_await w_await  svctm  %util
sda               0.00     0.00 2313.00    0.00  9252.00     0.00     8.00     0.13    0.06    0.06    0.00   0.06  13.10
sdb               0.00     0.00 1833.00    0.00  7332.00     0.00     8.00     0.12    0.06    0.06    0.00   0.06  11.80
sdc               0.00     0.00 2240.00    0.00  8960.00     0.00     8.00     0.16    0.07    0.07    0.00   0.07  16.00
sdd               0.00     0.00 2204.00    0.00  8816.00     0.00     8.00     0.15    0.07    0.07    0.00   0.07  14.80
sde               0.00     0.00 2609.00    0.00 10436.00     0.00     8.00     0.17    0.07    0.07    0.00   0.07  17.50
sdf               0.00     0.00 2448.00    0.00  9792.00     0.00     8.00     0.16    0.07    0.07    0.00   0.07  16.30
sdg               0.00     0.00    0.00    0.00     0.00     0.00     0.00     0.00    0.00    0.00    0.00   0.00   0.00
sdh               0.00     0.00    0.00    0.00     0.00     0.00     0.00     0.00    0.00    0.00    0.00   0.00   0.00
md0               0.00     0.00 13646.00    0.00 54584.00     0.00     8.00     0.00    0.00    0.00    0.00   0.00   0.00

avg-cpu:  %user   %nice %system %iowait  %steal   %idle
           0.26    0.00    2.56    0.77    0.00   96.41

Device:         rrqm/s   wrqm/s     r/s     w/s    rkB/s    wkB/s avgrq-sz avgqu-sz   await r_await w_await  svctm  %util
sda               0.00     0.00 2081.00    0.00  8324.00     0.00     8.00     0.13    0.06    0.06    0.00   0.06  13.20
sdb               0.00     0.00 2132.00    0.00  8528.00     0.00     8.00     0.14    0.07    0.07    0.00   0.07  14.40
sdc               0.00     0.00 2391.00    0.00  9564.00     0.00     8.00     0.15    0.06    0.06    0.00   0.06  14.80
sdd               0.00     0.00 2609.00    0.00 10436.00     0.00     8.00     0.16    0.06    0.06    0.00   0.06  16.30
sde               0.00     0.00 2605.00    0.00 10420.00     0.00     8.00     0.16    0.06    0.06    0.00   0.06  16.40
sdf               0.00     0.00 2105.00    0.00  8420.00     0.00     8.00     0.14    0.07    0.07    0.00   0.07  14.50
sdg               0.00     0.00    0.00    0.00     0.00     0.00     0.00     0.00    0.00    0.00    0.00   0.00   0.00
sdh               0.00     0.00    0.00    0.00     0.00     0.00     0.00     0.00    0.00    0.00    0.00   0.00   0.00
md0               0.00     0.00 13923.00    0.00 55692.00     0.00     8.00     0.00    0.00    0.00    0.00   0.00   0.00

avg-cpu:  %user   %nice %system %iowait  %steal   %idle
           0.26    0.00    2.32    0.77    0.00   96.65

Device:         rrqm/s   wrqm/s     r/s     w/s    rkB/s    wkB/s avgrq-sz avgqu-sz   await r_await w_await  svctm  %util
sda               0.00     0.00 2052.00    0.00  8208.00     0.00     8.00     0.13    0.06    0.06    0.00   0.06  13.20
sdb               0.00     0.00 2602.00    0.00 10408.00     0.00     8.00     0.16    0.06    0.06    0.00   0.06  15.80
sdc               0.00     0.00 2549.00    0.00 10196.00     0.00     8.00     0.17    0.07    0.07    0.00   0.07  16.60
sdd               0.00     0.00 2142.00    0.00  8568.00     0.00     8.00     0.14    0.07    0.07    0.00   0.07  14.30
sde               0.00     0.00 2135.00    0.00  8540.00     0.00     8.00     0.14    0.07    0.07    0.00   0.07  14.20
sdf               0.00     0.00 2353.00    0.00  9412.00     0.00     8.00     0.16    0.07    0.07    0.00   0.07  16.30
sdg               0.00     0.00    1.00    6.00    16.00   148.00    46.86     0.01    0.71    0.00    0.83   0.14   0.10
sdh               0.00     0.00    0.00    0.00     0.00     0.00     0.00     0.00    0.00    0.00    0.00   0.00   0.00
md0               0.00     0.00 13833.00    0.00 55332.00     0.00     8.00     0.00    0.00    0.00    0.00   0.00   0.00

avg-cpu:  %user   %nice %system %iowait  %steal   %idle
           0.26    0.00    2.31    0.77    0.00   96.66

Device:         rrqm/s   wrqm/s     r/s     w/s    rkB/s    wkB/s avgrq-sz avgqu-sz   await r_await w_await  svctm  %util
sda               0.00     0.00 2446.00    0.00  9784.00     0.00     8.00     0.15    0.06    0.06    0.00   0.06  15.10
sdb               0.00     0.00 2466.00    0.00  9864.00     0.00     8.00     0.16    0.07    0.07    0.00   0.07  16.10
sdc               0.00     0.00 2328.00    0.00  9312.00     0.00     8.00     0.16    0.07    0.07    0.00   0.07  15.70
sdd               0.00     0.00 2038.00    0.00  8152.00     0.00     8.00     0.14    0.07    0.07    0.00   0.07  13.60
sde               0.00     0.00 2204.00    0.00  8816.00     0.00     8.00     0.14    0.07    0.07    0.00   0.07  14.40
sdf               0.00     0.00 2360.00    0.00  9440.00     0.00     8.00     0.16    0.07    0.07    0.00   0.07  15.90
sdg               0.00     0.00    0.00    1.00     0.00     4.00     8.00     0.00    0.00    0.00    0.00   0.00   0.00
sdh               0.00     0.00    0.00    0.00     0.00     0.00     0.00     0.00    0.00    0.00    0.00   0.00   0.00
md0               0.00     0.00 13843.00    0.00 55372.00     0.00     8.00     0.00    0.00    0.00    0.00   0.00   0.00

avg-cpu:  %user   %nice %system %iowait  %steal   %idle
           0.26    0.00    2.56    1.02    0.00   96.16

Device:         rrqm/s   wrqm/s     r/s     w/s    rkB/s    wkB/s avgrq-sz avgqu-sz   await r_await w_await  svctm  %util
sda               0.00     0.00 2299.00    0.00  9196.00     0.00     8.00     0.15    0.06    0.06    0.00   0.06  14.70
sdb               0.00     0.00 2304.00    0.00  9216.00     0.00     8.00     0.15    0.07    0.07    0.00   0.07  15.10
sdc               0.00     0.00 2200.00    0.00  8800.00     0.00     8.00     0.15    0.07    0.07    0.00   0.07  15.30
sdd               0.00     0.00 2105.00    0.00  8420.00     0.00     8.00     0.14    0.07    0.07    0.00   0.07  14.00
sde               0.00     0.00 2513.00    0.00 10052.00     0.00     8.00     0.17    0.07    0.07    0.00   0.07  16.80
sdf               0.00     0.00 2199.00    0.00  8796.00     0.00     8.00     0.15    0.07    0.07    0.00   0.07  15.10
sdg               0.00     0.00    0.00    0.00     0.00     0.00     0.00     0.00    0.00    0.00    0.00   0.00   0.00
sdh               0.00     0.00    0.00    0.00     0.00     0.00     0.00     0.00    0.00    0.00    0.00   0.00   0.00
md0               0.00     0.00 13620.00    0.00 54480.00     0.00     8.00     0.00    0.00    0.00    0.00   0.00   0.00

avg-cpu:  %user   %nice %system %iowait  %steal   %idle
           0.26    0.00    2.31    0.77    0.00   96.66

Device:         rrqm/s   wrqm/s     r/s     w/s    rkB/s    wkB/s avgrq-sz avgqu-sz   await r_await w_await  svctm  %util
sda               0.00     0.00 2012.00    0.00  8048.00     0.00     8.00     0.12    0.06    0.06    0.00   0.06  11.60
sdb               0.00     0.00 2169.00    0.00  8676.00     0.00     8.00     0.15    0.07    0.07    0.00   0.07  15.10
sdc               0.00     0.00 2307.00    0.00  9228.00     0.00     8.00     0.15    0.07    0.07    0.00   0.07  15.20
sdd               0.00     0.00 2533.00    0.00 10132.00     0.00     8.00     0.16    0.06    0.06    0.00   0.06  15.70
sde               0.00     0.00 2250.00    0.00  9000.00     0.00     8.00     0.16    0.07    0.07    0.00   0.07  16.40
sdf               0.00     0.00 2368.00    0.00  9472.00     0.00     8.00     0.16    0.07    0.07    0.00   0.07  16.20
sdg               0.00     0.00    0.00    0.00     0.00     0.00     0.00     0.00    0.00    0.00    0.00   0.00   0.00
sdh               0.00     0.00    0.00    0.00     0.00     0.00     0.00     0.00    0.00    0.00    0.00   0.00   0.00
md0               0.00     0.00 13638.00    0.00 54552.00     0.00     8.00     0.00    0.00    0.00    0.00   0.00   0.00

avg-cpu:  %user   %nice %system %iowait  %steal   %idle
           0.26    0.00    2.81    0.77    0.00   96.16

Device:         rrqm/s   wrqm/s     r/s     w/s    rkB/s    wkB/s avgrq-sz avgqu-sz   await r_await w_await  svctm  %util
sda               0.00     0.00 2432.00    0.00  9728.00     0.00     8.00     0.15    0.06    0.06    0.00   0.06  15.50
sdb               0.00     0.00 2193.00    0.00  8772.00     0.00     8.00     0.14    0.06    0.06    0.00   0.06  13.50
sdc               0.00     0.00 2260.00    0.00  9040.00     0.00     8.00     0.15    0.07    0.07    0.00   0.07  15.20
sdd               0.00     0.00 2443.00    0.00  9772.00     0.00     8.00     0.16    0.07    0.07    0.00   0.07  16.30
sde               0.00     0.00 2321.00    0.00  9284.00     0.00     8.00     0.15    0.07    0.07    0.00   0.07  15.10
sdf               0.00     0.00 2181.00    0.00  8724.00     0.00     8.00     0.14    0.07    0.07    0.00   0.07  14.20
sdg               0.00     0.00    0.00    0.00     0.00     0.00     0.00     0.00    0.00    0.00    0.00   0.00   0.00
sdh               0.00     0.00    0.00    0.00     0.00     0.00     0.00     0.00    0.00    0.00    0.00   0.00   0.00
md0               0.00     0.00 13830.00    0.00 55320.00     0.00     8.00     0.00    0.00    0.00    0.00   0.00   0.00

