Linux 4.17.2 (bench) 	08/03/2018 	_x86_64_	(4 CPU)

avg-cpu:  %user   %nice %system %iowait  %steal   %idle
          10.30    0.02    3.95    2.37    0.00   83.36

Device:         rrqm/s   wrqm/s     r/s     w/s    rkB/s    wkB/s avgrq-sz avgqu-sz   await r_await w_await  svctm  %util
sda              37.45     4.30 1577.10  104.15 20492.31  3178.26    28.16     1.02    0.61    0.26    5.91   0.06  10.38
sdb              37.35     4.26 1576.96  104.29 20481.58  3174.87    28.14     1.02    0.61    0.26    5.85   0.06  10.26
sdc              75.63     4.32 1536.60  103.83 20473.77  3177.37    28.84     1.44    0.88    0.46    7.12   0.08  13.68
sdd              68.92     4.29 1542.46  103.91 20458.34  3173.51    28.71     1.45    0.88    0.44    7.32   0.08  13.77
sde              71.01     4.34 1547.65  104.00 20519.49  3177.82    28.70     1.47    0.89    0.45    7.43   0.08  13.79
sdf              68.09     4.31 1549.83  103.95 20500.36  3174.63    28.63     1.51    0.91    0.45    7.90   0.08  13.82
sdg               0.00     3.18   25.69   73.38   321.50   392.02    14.40     0.44    4.45    0.20    5.93   0.08   0.77
sdh               0.00     0.13    0.02    0.24     2.25     5.14    56.82     0.00    1.15    0.65    1.19   0.21   0.01
md0               0.00     0.00 9694.95  487.92 140270.83 21762.24    31.82     0.00    0.00    0.00    0.00   0.00   0.00

avg-cpu:  %user   %nice %system %iowait  %steal   %idle
          24.93    0.01    1.78    5.60    0.00   67.67

Device:         rrqm/s   wrqm/s     r/s     w/s    rkB/s    wkB/s avgrq-sz avgqu-sz   await r_await w_await  svctm  %util
sda               0.00     0.00 1546.60    0.00  6186.40     0.00     8.00     0.15    0.10    0.10    0.00   0.10  14.79
sdb               0.00     0.00 1543.25    0.00  6173.00     0.00     8.00     0.15    0.10    0.10    0.00   0.10  14.72
sdc               0.00     0.00 1542.75    0.00  6171.00     0.00     8.00     0.16    0.10    0.10    0.00   0.10  16.16
sdd               0.00     0.00 1566.90    0.00  6267.60     0.00     8.00     0.16    0.10    0.10    0.00   0.10  16.07
sde               0.00     0.00 1538.65    0.00  6154.60     0.00     8.00     0.16    0.10    0.10    0.00   0.10  16.01
sdf               0.00     0.00 1553.30    0.00  6213.20     0.00     8.00     0.16    0.10    0.10    0.00   0.10  16.10
sdg               0.00     4.10    1.90  131.75    14.20   709.00    10.82     0.80    6.00    0.45    6.08   0.05   0.70
sdh               0.00     0.00    0.00    0.00     0.00     0.00     0.00     0.00    0.00    0.00    0.00   0.00   0.00
md0               0.00     0.00 9291.55    0.00 37166.20     0.00     8.00     0.00    0.00    0.00    0.00   0.00   0.00

