Linux 4.17.2 (bench) 	08/03/2018 	_x86_64_	(4 CPU)

avg-cpu:  %user   %nice %system %iowait  %steal   %idle
          10.29    0.02    4.00    2.47    0.00   83.22

Device:         rrqm/s   wrqm/s     r/s     w/s    rkB/s    wkB/s avgrq-sz avgqu-sz   await r_await w_await  svctm  %util
sda              41.51     4.27 1613.90  103.38 20678.83  3154.89    27.76     1.03    0.60    0.26    5.91   0.06  10.55
sdb              41.40     4.23 1613.79  103.52 20668.26  3151.53    27.74     1.02    0.60    0.26    5.85   0.06  10.43
sdc              79.49     4.29 1573.61  103.07 20660.47  3154.01    28.41     1.44    0.86    0.45    7.12   0.08  13.85
sdd              72.85     4.26 1579.42  103.14 20645.15  3150.17    28.28     1.45    0.86    0.44    7.32   0.08  13.95
sde              74.92     4.30 1584.55  103.24 20705.69  3154.45    28.27     1.47    0.87    0.44    7.43   0.08  13.97
sdf              72.01     4.28 1586.72  103.18 20686.71  3151.29    28.21     1.52    0.90    0.44    7.90   0.08  14.00
sdg               0.00     3.18   25.95   73.33   322.51   391.96    14.39     0.44    4.43    0.20    5.93   0.08   0.78
sdh               0.00     0.13    0.02    0.24     2.23     5.11    56.82     0.00    1.15    0.65    1.19   0.21   0.01
md0               0.00     0.00 9940.36  484.33 141552.68 21602.23    31.30     0.00    0.00    0.00    0.00   0.00   0.00

avg-cpu:  %user   %nice %system %iowait  %steal   %idle
          24.94    0.00    2.27   21.66    0.00   51.13

Device:         rrqm/s   wrqm/s     r/s     w/s    rkB/s    wkB/s avgrq-sz avgqu-sz   await r_await w_await  svctm  %util
sda               0.00     0.00 1512.00    0.00  6572.00     0.00     8.69     0.15    0.10    0.10    0.00   0.10  15.30
sdb               0.00     0.00 1530.00    0.00  6616.00     0.00     8.65     0.14    0.09    0.09    0.00   0.09  13.50
sdc               0.00     0.00 1532.00    0.00  6572.00     0.00     8.58     0.17    0.11    0.11    0.00   0.11  16.90
sdd               0.00     0.00 1561.00    0.00  6580.00     0.00     8.43     0.17    0.11    0.11    0.00   0.11  16.60
sde               0.00     0.00 1450.00    0.00  6156.00     0.00     8.49     0.17    0.12    0.12    0.00   0.11  16.50
sdf               0.00     0.00 1447.00    0.00  6404.00     0.00     8.85     0.14    0.10    0.10    0.00   0.10  14.00
sdg               0.00     0.00    7.00    0.00   104.00     0.00    29.71     0.00    0.14    0.14    0.00   0.00   0.00
sdh               0.00     0.00    0.00    0.00     0.00     0.00     0.00     0.00    0.00    0.00    0.00   0.00   0.00
md0               0.00     0.00 9034.00    0.00 38980.00     0.00     8.63     0.00    0.00    0.00    0.00   0.00   0.00

avg-cpu:  %user   %nice %system %iowait  %steal   %idle
          24.69    0.00    2.52   10.08    0.00   62.72

Device:         rrqm/s   wrqm/s     r/s     w/s    rkB/s    wkB/s avgrq-sz avgqu-sz   await r_await w_await  svctm  %util
sda               0.00     0.00 1588.00    0.00  6868.00     0.00     8.65     0.14    0.09    0.09    0.00   0.09  14.20
sdb               0.00     0.00 1503.00    0.00  6436.00     0.00     8.56     0.15    0.10    0.10    0.00   0.10  14.80
sdc               0.00     0.00 1478.00    0.00  6296.00     0.00     8.52     0.16    0.11    0.11    0.00   0.11  16.20
sdd               0.00     0.00 1447.00    0.00  6132.00     0.00     8.48     0.14    0.10    0.10    0.00   0.10  14.40
sde               0.00     0.00 1523.00    0.00  6644.00     0.00     8.72     0.17    0.11    0.11    0.00   0.11  17.10
sdf               0.00     0.00 1545.00    0.00  6660.00     0.00     8.62     0.17    0.11    0.11    0.00   0.11  17.00
sdg               0.00     0.00    0.00    0.00     0.00     0.00     0.00     0.00    0.00    0.00    0.00   0.00   0.00
sdh               0.00     0.00    0.00    0.00     0.00     0.00     0.00     0.00    0.00    0.00    0.00   0.00   0.00
md0               0.00     0.00 9084.00    0.00 39112.00     0.00     8.61     0.00    0.00    0.00    0.00   0.00   0.00

avg-cpu:  %user   %nice %system %iowait  %steal   %idle
          24.75    0.00    2.27   21.97    0.00   51.01

Device:         rrqm/s   wrqm/s     r/s     w/s    rkB/s    wkB/s avgrq-sz avgqu-sz   await r_await w_await  svctm  %util
sda               0.00     0.00 1501.00    0.00  6364.00     0.00     8.48     0.14    0.10    0.10    0.00   0.10  14.30
sdb               0.00     0.00 1573.00    0.00  6996.00     0.00     8.90     0.16    0.10    0.10    0.00   0.10  15.60
sdc               0.00     0.00 1477.00    0.00  6456.00     0.00     8.74     0.16    0.11    0.11    0.00   0.11  15.60
sdd               0.00     0.00 1459.00    0.00  6212.00     0.00     8.52     0.17    0.12    0.12    0.00   0.12  17.40
sde               0.00     0.00 1501.00    0.00  6584.00     0.00     8.77     0.14    0.09    0.09    0.00   0.09  14.20
sdf               0.00     0.00 1538.00    0.00  6524.00     0.00     8.48     0.15    0.10    0.10    0.00   0.10  15.40
sdg               0.00     0.00    0.00    0.00     0.00     0.00     0.00     0.00    0.00    0.00    0.00   0.00   0.00
sdh               0.00     0.00    0.00    0.00     0.00     0.00     0.00     0.00    0.00    0.00    0.00   0.00   0.00
md0               0.00     0.00 9049.00    0.00 39264.00     0.00     8.68     0.00    0.00    0.00    0.00   0.00   0.00

avg-cpu:  %user   %nice %system %iowait  %steal   %idle
          24.81    0.00    2.28   21.77    0.00   51.14

Device:         rrqm/s   wrqm/s     r/s     w/s    rkB/s    wkB/s avgrq-sz avgqu-sz   await r_await w_await  svctm  %util
sda               0.00     0.00 1521.00    0.00  6468.00     0.00     8.50     0.14    0.09    0.09    0.00   0.09  14.40
sdb               0.00     0.00 1519.00    0.00  6668.00     0.00     8.78     0.13    0.08    0.08    0.00   0.08  12.60
sdc               0.00     0.00 1440.00    0.00  6608.00     0.00     9.18     0.17    0.12    0.12    0.00   0.12  17.50
sdd               0.00     0.00 1509.00    0.00  6420.00     0.00     8.51     0.17    0.12    0.12    0.00   0.12  17.40
sde               0.00     0.00 1516.00    0.00  6724.00     0.00     8.87     0.15    0.10    0.10    0.00   0.10  15.00
sdf               0.00     0.00 1514.00    0.00  6736.00     0.00     8.90     0.15    0.10    0.10    0.00   0.10  15.30
sdg               0.00     0.00    0.00    0.00     0.00     0.00     0.00     0.00    0.00    0.00    0.00   0.00   0.00
sdh               0.00     0.00    0.00    0.00     0.00     0.00     0.00     0.00    0.00    0.00    0.00   0.00   0.00
md0               0.00     0.00 9019.00    0.00 39912.00     0.00     8.85     0.00    0.00    0.00    0.00   0.00   0.00

avg-cpu:  %user   %nice %system %iowait  %steal   %idle
          24.75    0.00    2.27   10.61    0.00   62.37

Device:         rrqm/s   wrqm/s     r/s     w/s    rkB/s    wkB/s avgrq-sz avgqu-sz   await r_await w_await  svctm  %util
sda               0.00     0.00 1528.00    0.00  6328.00     0.00     8.28     0.15    0.10    0.10    0.00   0.10  14.80
sdb               0.00     0.00 1521.00    0.00  6800.00     0.00     8.94     0.16    0.11    0.11    0.00   0.11  16.10
sdc               0.00     0.00 1573.00    0.00  6996.00     0.00     8.90     0.18    0.11    0.11    0.00   0.11  17.50
sdd               0.00     0.00 1507.00    0.00  6668.00     0.00     8.85     0.16    0.11    0.11    0.00   0.11  16.00
sde               0.00     0.00 1461.00    0.00  6204.00     0.00     8.49     0.14    0.10    0.10    0.00   0.10  13.90
sdf               0.00     0.00 1477.00    0.00  6400.00     0.00     8.67     0.15    0.10    0.10    0.00   0.10  15.10
sdg               0.00     0.00    0.00    0.00     0.00     0.00     0.00     0.00    0.00    0.00    0.00   0.00   0.00
sdh               0.00     0.00    0.00    0.00     0.00     0.00     0.00     0.00    0.00    0.00    0.00   0.00   0.00
md0               0.00     0.00 9067.00    0.00 39560.00     0.00     8.73     0.00    0.00    0.00    0.00   0.00   0.00

avg-cpu:  %user   %nice %system %iowait  %steal   %idle
          25.00    0.00    2.02    3.54    0.00   69.44

Device:         rrqm/s   wrqm/s     r/s     w/s    rkB/s    wkB/s avgrq-sz avgqu-sz   await r_await w_await  svctm  %util
sda               0.00     0.00 1581.00    0.00  6976.00     0.00     8.82     0.14    0.09    0.09    0.00   0.09  14.10
sdb               0.00     0.00 1505.00    0.00  6656.00     0.00     8.85     0.16    0.11    0.11    0.00   0.11  16.20
sdc               0.00     0.00 1497.00    0.00  6704.00     0.00     8.96     0.15    0.10    0.10    0.00   0.10  15.40
sdd               0.00     0.00 1523.00    0.00  6876.00     0.00     9.03     0.16    0.11    0.11    0.00   0.11  16.10
sde               0.00     0.00 1500.00    0.00  6288.00     0.00     8.38     0.14    0.10    0.10    0.00   0.09  14.20
sdf               0.00     0.00 1517.00    0.00  6472.00     0.00     8.53     0.17    0.11    0.11    0.00   0.11  16.90
sdg               0.00     0.00    0.00    0.00     0.00     0.00     0.00     0.00    0.00    0.00    0.00   0.00   0.00
sdh               0.00     0.00    0.00    0.00     0.00     0.00     0.00     0.00    0.00    0.00    0.00   0.00   0.00
md0               0.00     0.00 9123.00    0.00 40152.00     0.00     8.80     0.00    0.00    0.00    0.00   0.00   0.00

avg-cpu:  %user   %nice %system %iowait  %steal   %idle
          24.81    0.25    2.28    6.08    0.00   66.58

Device:         rrqm/s   wrqm/s     r/s     w/s    rkB/s    wkB/s avgrq-sz avgqu-sz   await r_await w_await  svctm  %util
sda               0.00     0.00 1505.00    0.00  6636.00     0.00     8.82     0.14    0.09    0.09    0.00   0.09  13.70
sdb               0.00     0.00 1507.00    0.00  6528.00     0.00     8.66     0.14    0.09    0.09    0.00   0.09  14.30
sdc               0.00     0.00 1454.00    0.00  6284.00     0.00     8.64     0.17    0.11    0.11    0.00   0.11  16.30
sdd               0.00     0.00 1552.00    0.00  7020.00     0.00     9.05     0.17    0.11    0.11    0.00   0.11  16.80
sde               1.00     0.00 1555.00    0.00  7124.00     0.00     9.16     0.16    0.10    0.10    0.00   0.10  16.00
sdf               1.00     0.00 1500.00    0.00  6484.00     0.00     8.65     0.16    0.10    0.10    0.00   0.10  15.60
sdg               0.00     0.00   40.00    0.00   472.00     0.00    23.60     0.01    0.17    0.17    0.00   0.12   0.50
sdh               0.00     0.00    0.00    0.00     0.00     0.00     0.00     0.00    0.00    0.00    0.00   0.00   0.00
md0               0.00     0.00 9074.00    0.00 40444.00     0.00     8.91     0.00    0.00    0.00    0.00   0.00   0.00

avg-cpu:  %user   %nice %system %iowait  %steal   %idle
          24.94    0.00    2.27   21.66    0.00   51.13

Device:         rrqm/s   wrqm/s     r/s     w/s    rkB/s    wkB/s avgrq-sz avgqu-sz   await r_await w_await  svctm  %util
sda               0.00     0.00 1526.00    0.00  6688.00     0.00     8.77     0.13    0.09    0.09    0.00   0.09  13.30
sdb               0.00     0.00 1491.00    0.00  6228.00     0.00     8.35     0.14    0.10    0.10    0.00   0.09  14.10
sdc               0.00     0.00 1420.00    0.00  6076.00     0.00     8.56     0.14    0.10    0.10    0.00   0.09  13.40
sdd               0.00     0.00 1556.00    0.00  6588.00     0.00     8.47     0.18    0.12    0.12    0.00   0.12  18.20
sde               0.00     0.00 1559.00    0.00  6952.00     0.00     8.92     0.18    0.12    0.12    0.00   0.12  18.00
sdf               0.00     0.00 1517.00    0.00  6620.00     0.00     8.73     0.17    0.11    0.11    0.00   0.11  17.00
sdg               0.00     0.00    0.00    0.00     0.00     0.00     0.00     0.00    0.00    0.00    0.00   0.00   0.00
sdh               0.00     0.00    0.00    0.00     0.00     0.00     0.00     0.00    0.00    0.00    0.00   0.00   0.00
md0               0.00     0.00 9070.00    0.00 39456.00     0.00     8.70     0.00    0.00    0.00    0.00   0.00   0.00

avg-cpu:  %user   %nice %system %iowait  %steal   %idle
          24.62    0.00    2.03    0.51    0.00   72.84

Device:         rrqm/s   wrqm/s     r/s     w/s    rkB/s    wkB/s avgrq-sz avgqu-sz   await r_await w_await  svctm  %util
sda               0.00     0.00 1502.00    0.00  6472.00     0.00     8.62     0.14    0.10    0.10    0.00   0.10  14.40
sdb               0.00     0.00 1494.00    0.00  6384.00     0.00     8.55     0.14    0.10    0.10    0.00   0.10  14.50
sdc               0.00     0.00 1467.00    0.00  6416.00     0.00     8.75     0.16    0.11    0.11    0.00   0.11  15.70
sdd               0.00     0.00 1498.00    0.00  6820.00     0.00     9.11     0.15    0.10    0.10    0.00   0.10  14.70
sde               0.00     0.00 1596.00    0.00  7168.00     0.00     8.98     0.17    0.10    0.10    0.00   0.10  16.60
sdf               0.00     0.00 1564.00    0.00  6908.00     0.00     8.83     0.17    0.11    0.11    0.00   0.11  17.00
sdg               0.00     0.00    0.00    0.00     0.00     0.00     0.00     0.00    0.00    0.00    0.00   0.00   0.00
sdh               0.00     0.00    0.00    0.00     0.00     0.00     0.00     0.00    0.00    0.00    0.00   0.00   0.00
md0               0.00     0.00 9121.00    0.00 40328.00     0.00     8.84     0.00    0.00    0.00    0.00   0.00   0.00

avg-cpu:  %user   %nice %system %iowait  %steal   %idle
          24.75    0.00    2.27    0.51    0.00   72.47

Device:         rrqm/s   wrqm/s     r/s     w/s    rkB/s    wkB/s avgrq-sz avgqu-sz   await r_await w_await  svctm  %util
sda               0.00     0.00 1477.00    0.00  6400.00     0.00     8.67     0.13    0.09    0.09    0.00   0.09  13.10
sdb               0.00     0.00 1472.00    0.00  6376.00     0.00     8.66     0.14    0.10    0.10    0.00   0.10  14.10
sdc               0.00     0.00 1479.00    0.00  6312.00     0.00     8.54     0.14    0.10    0.10    0.00   0.10  14.40
sdd               0.00     0.00 1575.00    0.00  6988.00     0.00     8.87     0.16    0.10    0.10    0.00   0.10  15.70
sde               0.00     0.00 1595.00    0.00  6852.00     0.00     8.59     0.17    0.11    0.11    0.00   0.11  17.50
sdf               0.00     0.00 1504.00    0.00  6332.00     0.00     8.42     0.17    0.12    0.12    0.00   0.12  17.30
sdg               0.00     0.00    0.00    0.00     0.00     0.00     0.00     0.00    0.00    0.00    0.00   0.00   0.00
sdh               0.00     0.00    0.00    0.00     0.00     0.00     0.00     0.00    0.00    0.00    0.00   0.00   0.00
md0               0.00     0.00 9102.00    0.00 39308.00     0.00     8.64     0.00    0.00    0.00    0.00   0.00   0.00

avg-cpu:  %user   %nice %system %iowait  %steal   %idle
          24.87    0.00    1.78    0.76    0.00   72.59

Device:         rrqm/s   wrqm/s     r/s     w/s    rkB/s    wkB/s avgrq-sz avgqu-sz   await r_await w_await  svctm  %util
sda               0.00     0.00 1460.00    0.00  6564.00     0.00     8.99     0.15    0.10    0.10    0.00   0.10  14.50
sdb               0.00     0.00 1573.00    0.00  6748.00     0.00     8.58     0.16    0.10    0.10    0.00   0.10  16.20
sdc               0.00     0.00 1576.00    0.00  7104.00     0.00     9.02     0.18    0.11    0.11    0.00   0.11  17.60
sdd               0.00     0.00 1496.00    0.00  6784.00     0.00     9.07     0.15    0.10    0.10    0.00   0.09  14.20
sde               0.00     0.00 1501.00    0.00  6832.00     0.00     9.10     0.16    0.11    0.11    0.00   0.11  16.10
sdf               0.00     0.00 1493.00    0.00  6612.00     0.00     8.86     0.14    0.10    0.10    0.00   0.10  14.30
sdg               0.00     1.00    2.00   16.00    32.00   224.00    28.44     0.00    0.22    0.00    0.25   0.06   0.10
sdh               0.00     0.00    0.00    0.00     0.00     0.00     0.00     0.00    0.00    0.00    0.00   0.00   0.00
md0               0.00     0.00 9099.00    0.00 41064.00     0.00     9.03     0.00    0.00    0.00    0.00   0.00   0.00

avg-cpu:  %user   %nice %system %iowait  %steal   %idle
          25.00    0.00    1.77    0.76    0.00   72.47

Device:         rrqm/s   wrqm/s     r/s     w/s    rkB/s    wkB/s avgrq-sz avgqu-sz   await r_await w_await  svctm  %util
sda               0.00     0.00 1490.00    0.00  6392.00     0.00     8.58     0.17    0.11    0.11    0.00   0.11  16.40
sdb               0.00     0.00 1505.00    0.00  6736.00     0.00     8.95     0.13    0.09    0.09    0.00   0.09  13.20
sdc               0.00     0.00 1528.00    0.00  7104.00     0.00     9.30     0.17    0.11    0.11    0.00   0.11  16.80
sdd               0.00     0.00 1560.00    0.00  6780.00     0.00     8.69     0.16    0.10    0.10    0.00   0.10  16.20
sde               0.00     0.00 1483.00    0.00  6792.00     0.00     9.16     0.16    0.11    0.11    0.00   0.11  15.80
sdf               0.00     0.00 1531.00    0.00  6748.00     0.00     8.82     0.16    0.11    0.11    0.00   0.10  16.00
sdg               0.00     0.00    0.00    0.00     0.00     0.00     0.00     0.00    0.00    0.00    0.00   0.00   0.00
sdh               0.00     0.00    0.00    0.00     0.00     0.00     0.00     0.00    0.00    0.00    0.00   0.00   0.00
md0               0.00     0.00 9098.00    0.00 40728.00     0.00     8.95     0.00    0.00    0.00    0.00   0.00   0.00

avg-cpu:  %user   %nice %system %iowait  %steal   %idle
          24.68    0.00    2.04    0.51    0.00   72.77

Device:         rrqm/s   wrqm/s     r/s     w/s    rkB/s    wkB/s avgrq-sz avgqu-sz   await r_await w_await  svctm  %util
sda               0.00     0.00 1473.00    0.00  6448.00     0.00     8.75     0.14    0.10    0.10    0.00   0.10  14.40
sdb               0.00     0.00 1516.00    0.00  6776.00     0.00     8.94     0.14    0.10    0.10    0.00   0.10  14.50
sdc               0.00     0.00 1533.00    0.00  6712.00     0.00     8.76     0.14    0.09    0.09    0.00   0.09  14.50
sdd               0.00     0.00 1514.00    0.00  6448.00     0.00     8.52     0.16    0.11    0.11    0.00   0.10  15.70
sde               0.00     0.00 1501.00    0.00  7184.00     0.00     9.57     0.17    0.11    0.11    0.00   0.11  17.00
sdf               0.00     0.00 1571.00    0.00  6952.00     0.00     8.85     0.16    0.10    0.10    0.00   0.10  15.80
sdg               0.00     0.00    0.00    0.00     0.00     0.00     0.00     0.00    0.00    0.00    0.00   0.00   0.00
sdh               0.00     0.00    0.00    0.00     0.00     0.00     0.00     0.00    0.00    0.00    0.00   0.00   0.00
md0               0.00     0.00 9107.00    0.00 40812.00     0.00     8.96     0.00    0.00    0.00    0.00   0.00   0.00

avg-cpu:  %user   %nice %system %iowait  %steal   %idle
          24.62    0.00    2.76   13.32    0.00   59.30

Device:         rrqm/s   wrqm/s     r/s     w/s    rkB/s    wkB/s avgrq-sz avgqu-sz   await r_await w_await  svctm  %util
sda               0.00     0.00 1490.00    0.00  6352.00     0.00     8.53     0.13    0.09    0.09    0.00   0.09  13.20
sdb               0.00     0.00 1522.00    0.00  6796.00     0.00     8.93     0.14    0.10    0.10    0.00   0.09  14.40
sdc               0.00     0.00 1490.00    0.00  6708.00     0.00     9.00     0.16    0.11    0.11    0.00   0.10  15.50
sdd               0.00     0.00 1532.00    0.00  6756.00     0.00     8.82     0.15    0.10    0.10    0.00   0.10  15.50
sde               0.00     0.00 1507.00    0.00  6680.00     0.00     8.87     0.17    0.11    0.11    0.00   0.11  16.40
sdf               0.00     0.00 1528.00    0.00  6548.00     0.00     8.57     0.16    0.11    0.11    0.00   0.11  16.10
sdg               0.00     0.00    1.00    3.00     4.00    28.00    16.00     0.00    0.00    0.00    0.00   0.00   0.00
sdh               0.00     0.00    0.00    0.00     0.00     0.00     0.00     0.00    0.00    0.00    0.00   0.00   0.00
md0               0.00     0.00 9068.00    0.00 40068.00     0.00     8.84     0.00    0.00    0.00    0.00   0.00   0.00

avg-cpu:  %user   %nice %system %iowait  %steal   %idle
          24.62    0.00    2.76   21.86    0.00   50.75

Device:         rrqm/s   wrqm/s     r/s     w/s    rkB/s    wkB/s avgrq-sz avgqu-sz   await r_await w_await  svctm  %util
sda               0.00     0.00 1468.00    0.00  6188.00     0.00     8.43     0.16    0.11    0.11    0.00   0.11  15.90
sdb               0.00     0.00 1503.00    0.00  6640.00     0.00     8.84     0.15    0.10    0.10    0.00   0.10  14.60
sdc               0.00     0.00 1526.00    0.00  6756.00     0.00     8.85     0.16    0.11    0.11    0.00   0.11  16.10
sdd               0.00     0.00 1515.00    0.00  6592.00     0.00     8.70     0.15    0.10    0.10    0.00   0.10  14.60
sde               0.00     0.00 1517.00    0.00  6516.00     0.00     8.59     0.14    0.09    0.09    0.00   0.09  13.60
sdf               0.00     0.00 1535.00    0.00  6636.00     0.00     8.65     0.17    0.11    0.11    0.00   0.11  17.20
sdg               0.00     0.00    0.00    0.00     0.00     0.00     0.00     0.00    0.00    0.00    0.00   0.00   0.00
sdh               0.00     0.00    0.00    0.00     0.00     0.00     0.00     0.00    0.00    0.00    0.00   0.00   0.00
md0               0.00     0.00 9064.00    0.00 39456.00     0.00     8.71     0.00    0.00    0.00    0.00   0.00   0.00

avg-cpu:  %user   %nice %system %iowait  %steal   %idle
          24.62    0.00    2.76   18.09    0.00   54.52

Device:         rrqm/s   wrqm/s     r/s     w/s    rkB/s    wkB/s avgrq-sz avgqu-sz   await r_await w_await  svctm  %util
sda               0.00     0.00 1483.00    0.00  6468.00     0.00     8.72     0.15    0.10    0.10    0.00   0.10  15.10
sdb               0.00     0.00 1499.00    0.00  6488.00     0.00     8.66     0.14    0.09    0.09    0.00   0.09  13.50
sdc               0.00     0.00 1540.00    0.00  6552.00     0.00     8.51     0.16    0.11    0.11    0.00   0.11  16.20
sdd               0.00     0.00 1511.00    0.00  6656.00     0.00     8.81     0.15    0.10    0.10    0.00   0.10  14.70
sde               0.00     0.00 1582.00    0.00  7004.00     0.00     8.85     0.16    0.10    0.10    0.00   0.10  16.10
sdf               0.00     0.00 1448.00    0.00  6164.00     0.00     8.51     0.16    0.11    0.11    0.00   0.11  16.00
sdg               0.00     0.00    0.00    0.00     0.00     0.00     0.00     0.00    0.00    0.00    0.00   0.00   0.00
sdh               0.00     0.00    0.00    0.00     0.00     0.00     0.00     0.00    0.00    0.00    0.00   0.00   0.00
md0               0.00     0.00 9063.00    0.00 39460.00     0.00     8.71     0.00    0.00    0.00    0.00   0.00   0.00

avg-cpu:  %user   %nice %system %iowait  %steal   %idle
          24.75    0.25    2.53   16.41    0.00   56.06

Device:         rrqm/s   wrqm/s     r/s     w/s    rkB/s    wkB/s avgrq-sz avgqu-sz   await r_await w_await  svctm  %util
sda               0.00     0.00 1532.00    0.00  6916.00     0.00     9.03     0.15    0.10    0.10    0.00   0.10  15.10
sdb               0.00     0.00 1482.00    0.00  6460.00     0.00     8.72     0.16    0.11    0.11    0.00   0.11  15.80
sdc               0.00     0.00 1541.00    0.00  6712.00     0.00     8.71     0.15    0.10    0.10    0.00   0.10  15.20
sdd               0.00     0.00 1484.00    0.00  6228.00     0.00     8.39     0.17    0.12    0.12    0.00   0.12  17.40
sde               0.00     0.00 1498.00    0.00  6428.00     0.00     8.58     0.14    0.09    0.09    0.00   0.09  14.00
sdf               0.00     0.00 1494.00    0.00  6428.00     0.00     8.61     0.16    0.11    0.11    0.00   0.10  15.60
sdg               0.00     0.00    5.00    0.00    20.00     0.00     8.00     0.00    0.00    0.00    0.00   0.00   0.00
sdh               0.00     0.00    0.00    0.00     0.00     0.00     0.00     0.00    0.00    0.00    0.00   0.00   0.00
md0               0.00     0.00 9031.00    0.00 39204.00     0.00     8.68     0.00    0.00    0.00    0.00   0.00   0.00

avg-cpu:  %user   %nice %system %iowait  %steal   %idle
          24.75    0.00    2.53   21.72    0.00   51.01

Device:         rrqm/s   wrqm/s     r/s     w/s    rkB/s    wkB/s avgrq-sz avgqu-sz   await r_await w_await  svctm  %util
sda               0.00     0.00 1514.00    0.00  6532.00     0.00     8.63     0.15    0.10    0.10    0.00   0.10  14.70
sdb               0.00     0.00 1462.00    0.00  6640.00     0.00     9.08     0.15    0.11    0.11    0.00   0.10  15.10
sdc               0.00     0.00 1479.00    0.00  6976.00     0.00     9.43     0.15    0.10    0.10    0.00   0.10  14.40
sdd               0.00     0.00 1541.00    0.00  7584.00     0.00     9.84     0.18    0.12    0.12    0.00   0.11  17.30
sde               0.00     0.00 1573.00    0.00  7752.00     0.00     9.86     0.16    0.10    0.10    0.00   0.10  15.10
sdf               0.00     0.00 1455.00    0.00  6768.00     0.00     9.30     0.16    0.11    0.11    0.00   0.10  15.20
sdg               0.00     0.00    0.00    0.00     0.00     0.00     0.00     0.00    0.00    0.00    0.00   0.00   0.00
sdh               0.00     0.00    0.00    0.00     0.00     0.00     0.00     0.00    0.00    0.00    0.00   0.00   0.00
md0               0.00     0.00 9025.00    0.00 42964.00     0.00     9.52     0.00    0.00    0.00    0.00   0.00   0.00

avg-cpu:  %user   %nice %system %iowait  %steal   %idle
          24.75    0.00    2.78   16.41    0.00   56.06

Device:         rrqm/s   wrqm/s     r/s     w/s    rkB/s    wkB/s avgrq-sz avgqu-sz   await r_await w_await  svctm  %util
sda               0.00     0.00 1527.00    0.00  6532.00     0.00     8.56     0.16    0.10    0.10    0.00   0.10  15.90
sdb               0.00     0.00 1477.00    0.00  6456.00     0.00     8.74     0.13    0.09    0.09    0.00   0.09  12.90
sdc               0.00     0.00 1485.00    0.00  6408.00     0.00     8.63     0.16    0.11    0.11    0.00   0.10  15.50
sdd               0.00     0.00 1536.00    0.00  6956.00     0.00     9.06     0.16    0.10    0.10    0.00   0.10  15.80
sde               0.00     0.00 1510.00    0.00  6532.00     0.00     8.65     0.17    0.11    0.11    0.00   0.11  17.10
sdf               0.00     0.00 1529.00    0.00  6488.00     0.00     8.49     0.15    0.10    0.10    0.00   0.10  15.00
sdg               0.00   172.00    0.00 2539.00     0.00 12716.00    10.02    15.69    6.12    0.00    6.12   0.04  11.30
sdh               0.00     0.00    0.00    0.00     0.00     0.00     0.00     0.00    0.00    0.00    0.00   0.00   0.00
md0               0.00     0.00 9065.00    0.00 39548.00     0.00     8.73     0.00    0.00    0.00    0.00   0.00   0.00

avg-cpu:  %user   %nice %system %iowait  %steal   %idle
          24.81    0.00    2.28    0.51    0.00   72.41

Device:         rrqm/s   wrqm/s     r/s     w/s    rkB/s    wkB/s avgrq-sz avgqu-sz   await r_await w_await  svctm  %util
sda               0.00     0.00 1609.00    0.00  7784.00     0.00     9.68     0.16    0.10    0.10    0.00   0.10  15.50
sdb               0.00     0.00 1547.00    0.00  6968.00     0.00     9.01     0.16    0.10    0.10    0.00   0.10  15.40
sdc               0.00     0.00 1564.00    0.00  6996.00     0.00     8.95     0.17    0.11    0.11    0.00   0.11  16.50
sdd               0.00     0.00 1481.00    0.00  6396.00     0.00     8.64     0.14    0.09    0.09    0.00   0.09  13.60
sde               0.00     0.00 1460.00    0.00  6408.00     0.00     8.78     0.15    0.10    0.10    0.00   0.10  15.00
sdf               0.00     0.00 1492.00    0.00  7320.00     0.00     9.81     0.17    0.12    0.12    0.00   0.11  16.50
sdg               0.00     0.00    0.00    0.00     0.00     0.00     0.00     0.00    0.00    0.00    0.00   0.00   0.00
sdh               0.00     0.00    0.00    0.00     0.00     0.00     0.00     0.00    0.00    0.00    0.00   0.00   0.00
md0               0.00     0.00 9152.00    0.00 41944.00     0.00     9.17     0.00    0.00    0.00    0.00   0.00   0.00

