Linux 4.17.2 (bench) 	08/03/2018 	_x86_64_	(4 CPU)

avg-cpu:  %user   %nice %system %iowait  %steal   %idle
          10.30    0.02    3.97    2.42    0.00   83.29

Device:         rrqm/s   wrqm/s     r/s     w/s    rkB/s    wkB/s avgrq-sz avgqu-sz   await r_await w_await  svctm  %util
sda              38.69     4.29 1594.67  103.75 20579.41  3166.09    27.96     1.02    0.60    0.26    5.91   0.06  10.47
sdb              38.60     4.25 1594.54  103.89 20568.78  3162.71    27.95     1.02    0.60    0.26    5.85   0.06  10.35
sdc              76.73     4.31 1554.33  103.44 20561.03  3165.21    28.62     1.44    0.87    0.45    7.12   0.08  13.77
sdd              70.05     4.27 1560.17  103.51 20545.62  3161.36    28.50     1.45    0.87    0.44    7.32   0.08  13.86
sde              72.13     4.32 1565.33  103.61 20606.43  3165.65    28.49     1.47    0.88    0.44    7.43   0.08  13.88
sdf              69.22     4.29 1567.50  103.55 20587.41  3162.48    28.43     1.51    0.90    0.44    7.90   0.08  13.91
sdg               0.00     3.18   25.82   73.35   321.96   391.97    14.40     0.44    4.44    0.20    5.93   0.08   0.77
sdh               0.00     0.13    0.02    0.24     2.24     5.12    56.82     0.00    1.15    0.65    1.19   0.21   0.01
md0               0.00     0.00 9807.92  486.05 140882.35 21678.91    31.58     0.00    0.00    0.00    0.00   0.00   0.00

avg-cpu:  %user   %nice %system %iowait  %steal   %idle
          23.87    0.00    3.02    2.26    0.00   70.85

Device:         rrqm/s   wrqm/s     r/s     w/s    rkB/s    wkB/s avgrq-sz avgqu-sz   await r_await w_await  svctm  %util
sda              30.00     0.00 1136.00    0.00 26040.00     0.00    45.85     0.19    0.17    0.17    0.00   0.15  16.50
sdb              31.00     0.00 1233.00    0.00 25472.00     0.00    41.32     0.19    0.15    0.15    0.00   0.14  17.10
sdc              24.00     0.00 1222.00    0.00 25628.00     0.00    41.94     0.26    0.21    0.21    0.00   0.18  21.90
sdd              30.00     0.00 1165.00    0.00 26632.00     0.00    45.72     0.25    0.22    0.22    0.00   0.20  22.80
sde              32.00     0.00 1108.00    0.00 27276.00     0.00    49.23     0.25    0.22    0.22    0.00   0.20  21.70
sdf              26.00     0.00 1222.00    0.00 25224.00     0.00    41.28     0.26    0.21    0.21    0.00   0.19  22.90
sdg               0.00     0.00    0.00    4.00     0.00   124.00    62.00     0.00    0.00    0.00    0.00   0.00   0.00
sdh               0.00     0.00    0.00    0.00     0.00     0.00     0.00     0.00    0.00    0.00    0.00   0.00   0.00
md0               0.00     0.00 7258.00    0.00 198444.00     0.00    54.68     0.00    0.00    0.00    0.00   0.00   0.00

avg-cpu:  %user   %nice %system %iowait  %steal   %idle
          23.81    0.00    2.76    2.01    0.00   71.43

Device:         rrqm/s   wrqm/s     r/s     w/s    rkB/s    wkB/s avgrq-sz avgqu-sz   await r_await w_await  svctm  %util
sda              15.00     0.00 1169.00    0.00 16944.00     0.00    28.99     0.15    0.13    0.13    0.00   0.12  14.60
sdb              16.00     0.00 1241.00    0.00 18292.00     0.00    29.48     0.15    0.13    0.13    0.00   0.12  15.00
sdc              17.00     0.00 1244.00    0.00 18336.00     0.00    29.48     0.20    0.16    0.16    0.00   0.15  18.40
sdd              15.00     0.00 1237.00    0.00 18344.00     0.00    29.66     0.21    0.17    0.17    0.00   0.16  19.80
sde              16.00     0.00 1209.00    0.00 19724.00     0.00    32.63     0.20    0.17    0.17    0.00   0.15  18.70
sdf              17.00     0.00 1234.00    0.00 19724.00     0.00    31.97     0.21    0.17    0.17    0.00   0.16  20.00
sdg               0.00     0.00    0.00    0.00     0.00     0.00     0.00     0.00    0.00    0.00    0.00   0.00   0.00
sdh               0.00     0.00    0.00    0.00     0.00     0.00     0.00     0.00    0.00    0.00    0.00   0.00   0.00
md0               0.00     0.00 7430.00    0.00 140968.00     0.00    37.95     0.00    0.00    0.00    0.00   0.00   0.00

