Linux 4.17.2 (bench) 	08/03/2018 	_x86_64_	(4 CPU)

avg-cpu:  %user   %nice %system %iowait  %steal   %idle
          10.28    0.02    4.04    2.54    0.00   83.12

Device:         rrqm/s   wrqm/s     r/s     w/s    rkB/s    wkB/s avgrq-sz avgqu-sz   await r_await w_await  svctm  %util
sda              44.31     4.25 1641.10  102.80 20846.62  3137.00    27.51     1.03    0.59    0.26    5.91   0.06  10.67
sdb              44.18     4.21 1641.01  102.94 20836.03  3133.66    27.49     1.03    0.59    0.26    5.85   0.06  10.55
sdc              82.17     4.27 1600.94  102.49 20828.19  3136.12    28.14     1.45    0.85    0.45    7.12   0.08  13.99
sdd              75.57     4.24 1606.71  102.56 20813.02  3132.31    28.02     1.46    0.85    0.44    7.32   0.08  14.09
sde              77.61     4.28 1611.79  102.65 20873.04  3136.57    28.01     1.48    0.86    0.44    7.43   0.08  14.11
sdf              74.72     4.25 1613.96  102.60 20854.20  3133.42    27.95     1.52    0.89    0.44    7.90   0.08  14.14
sdg               0.00     3.17   26.17   73.31   323.40   391.94    14.38     0.44    4.42    0.20    5.93   0.08   0.78
sdh               0.00     0.13    0.02    0.24     2.22     5.08    56.82     0.00    1.15    0.65    1.19   0.21   0.01
md0               0.00     0.00 10120.57  481.58 142751.43 21479.73    30.98     0.00    0.00    0.00    0.00   0.00   0.00

avg-cpu:  %user   %nice %system %iowait  %steal   %idle
          10.62    0.00   28.24    0.00    0.00   61.14

Device:         rrqm/s   wrqm/s     r/s     w/s    rkB/s    wkB/s avgrq-sz avgqu-sz   await r_await w_await  svctm  %util
sda               0.00     0.00   19.00    0.00   440.00     0.00    46.32     0.00    0.21    0.21    0.00   0.16   0.30
sdb               0.00     0.00   21.00    0.00   688.00     0.00    65.52     0.01    0.38    0.38    0.00   0.24   0.50
sdc               0.00     0.00   26.00    0.00   704.00     0.00    54.15     0.01    0.23    0.23    0.00   0.15   0.40
sdd               0.00     0.00   23.00    0.00   916.00     0.00    79.65     0.01    0.48    0.48    0.00   0.26   0.60
sde               0.00     0.00   18.00    0.00   352.00     0.00    39.11     0.01    0.33    0.33    0.00   0.28   0.50
sdf               0.00     0.00   20.00    0.00   628.00     0.00    62.80     0.01    0.45    0.45    0.00   0.30   0.60
sdg               0.00     0.00    3.00    0.00   100.00     0.00    66.67     0.00    0.33    0.33    0.00   0.33   0.10
sdh               0.00     0.00    0.00    0.00     0.00     0.00     0.00     0.00    0.00    0.00    0.00   0.00   0.00
md0               0.00     0.00  127.00    0.00  4132.00     0.00    65.07     0.00    0.00    0.00    0.00   0.00   0.00

avg-cpu:  %user   %nice %system %iowait  %steal   %idle
          16.54    0.00   19.34    5.85    0.00   58.27

Device:         rrqm/s   wrqm/s     r/s     w/s    rkB/s    wkB/s avgrq-sz avgqu-sz   await r_await w_await  svctm  %util
sda             204.00     0.00  305.00    0.00 115352.00     0.00   756.41     0.60    1.94    1.94    0.00   1.10  33.70
sdb             211.00     0.00  279.00    0.00 115972.00     0.00   831.34     0.59    2.13    2.13    0.00   1.20  33.60
sdc             214.00     0.00  248.00    0.00 115264.00     0.00   929.55     1.11    4.44    4.44    0.00   2.19  54.40
sdd             209.00     0.00  289.00    0.00 115016.00     0.00   795.96     1.15    3.93    3.93    0.00   1.89  54.60
sde             210.00     0.00  274.00    0.00 114920.00     0.00   838.83     1.11    3.99    3.99    0.00   1.99  54.40
sdf             213.00     0.00  262.00    0.00 114924.00     0.00   877.28     1.12    4.22    4.22    0.00   2.10  55.00
sdg               0.00     0.00    0.00    0.00     0.00     0.00     0.00     0.00    0.00    0.00    0.00   0.00   0.00
sdh               0.00     0.00    0.00    0.00     0.00     0.00     0.00     0.00    0.00    0.00    0.00   0.00   0.00
md0               0.00     0.00 2927.00    0.00 1027460.00     0.00   702.06     0.00    0.00    0.00    0.00   0.00   0.00

avg-cpu:  %user   %nice %system %iowait  %steal   %idle
          16.24    0.00   19.80    6.09    0.00   57.87

Device:         rrqm/s   wrqm/s     r/s     w/s    rkB/s    wkB/s avgrq-sz avgqu-sz   await r_await w_await  svctm  %util
sda             300.00     0.00  329.00    0.00 158092.00     0.00   961.05     0.84    2.57    2.57    0.00   1.37  45.00
sdb             288.00     0.00  364.00    0.00 158212.00     0.00   869.30     0.87    2.38    2.38    0.00   1.26  45.70
sdc             297.00     0.00  348.00    0.00 158508.00     0.00   910.97     1.60    4.61    4.61    0.00   2.14  74.50
sdd             296.00     0.00  351.00    0.00 158260.00     0.00   901.77     1.64    4.69    4.69    0.00   2.15  75.60
sde             289.00     0.00  364.00    0.00 158464.00     0.00   870.68     1.65    4.56    4.56    0.00   2.09  75.90
sdf             298.00     0.00  337.00    0.00 158532.00     0.00   940.84     1.63    4.87    4.87    0.00   2.22  74.90
sdg               0.00     1.00   11.00    3.00    44.00    28.00    10.29     0.00    0.29    0.27    0.33   0.29   0.40
sdh               0.00     0.00    0.00    0.00     0.00     0.00     0.00     0.00    0.00    0.00    0.00   0.00   0.00
md0               0.00     0.00 3854.00    0.00 1431992.00     0.00   743.12     0.00    0.00    0.00    0.00   0.00   0.00

avg-cpu:  %user   %nice %system %iowait  %steal   %idle
          17.79    0.00   17.79    7.02    0.00   57.39

Device:         rrqm/s   wrqm/s     r/s     w/s    rkB/s    wkB/s avgrq-sz avgqu-sz   await r_await w_await  svctm  %util
sda             270.00     0.00  335.00    0.00 147456.00     0.00   880.33     0.74    2.22    2.22    0.00   1.26  42.30
sdb             268.00     0.00  336.00    0.00 147528.00     0.00   878.14     0.77    2.29    2.29    0.00   1.28  42.90
sdc             269.00     0.00  349.00    0.00 147332.00     0.00   844.31     1.43    4.10    4.10    0.00   1.99  69.60
sdd             266.00     0.00  366.00    0.00 146868.00     0.00   802.56     1.45    3.97    3.97    0.00   1.92  70.30
sde             268.00     0.00  358.00    0.00 146824.00     0.00   820.25     1.41    3.91    3.91    0.00   1.94  69.60
sdf             272.00     0.00  322.00    0.00 147100.00     0.00   913.66     1.42    4.39    4.39    0.00   2.16  69.40
sdg               0.00     0.00    0.00    0.00     0.00     0.00     0.00     0.00    0.00    0.00    0.00   0.00   0.00
sdh               0.00     0.00    0.00    0.00     0.00     0.00     0.00     0.00    0.00    0.00    0.00   0.00   0.00
md0               0.00     0.00 3681.00    0.00 1289360.00     0.00   700.55     0.00    0.00    0.00    0.00   0.00   0.00

avg-cpu:  %user   %nice %system %iowait  %steal   %idle
          16.20    0.00   20.00    5.32    0.00   58.48

Device:         rrqm/s   wrqm/s     r/s     w/s    rkB/s    wkB/s avgrq-sz avgqu-sz   await r_await w_await  svctm  %util
sda             303.00     0.00  384.00    0.00 162676.00     0.00   847.27     0.83    2.17    2.17    0.00   1.18  45.30
sdb             310.00     0.00  351.00    0.00 162868.00     0.00   928.02     0.83    2.36    2.36    0.00   1.27  44.60
sdc             306.00     0.00  350.00    0.00 164036.00     0.00   937.35     1.68    4.81    4.81    0.00   2.17  76.00
sdd             308.00     0.00  366.00    0.00 163788.00     0.00   895.02     1.68    4.61    4.61    0.00   2.09  76.40
sde             311.00     0.00  336.00    0.00 164748.00     0.00   980.64     1.72    5.12    5.12    0.00   2.29  76.80
sdf             312.00     0.00  354.00    0.00 164396.00     0.00   928.79     1.73    4.90    4.90    0.00   2.16  76.60
sdg               0.00     0.00    0.00    0.00     0.00     0.00     0.00     0.00    0.00    0.00    0.00   0.00   0.00
sdh               0.00     0.00    0.00    0.00     0.00     0.00     0.00     0.00    0.00    0.00    0.00   0.00   0.00
md0               0.00     0.00 3987.00    0.00 1542104.00     0.00   773.57     0.00    0.00    0.00    0.00   0.00   0.00

avg-cpu:  %user   %nice %system %iowait  %steal   %idle
          17.01    0.25   18.78    6.09    0.00   57.87

Device:         rrqm/s   wrqm/s     r/s     w/s    rkB/s    wkB/s avgrq-sz avgqu-sz   await r_await w_await  svctm  %util
sda             284.00     0.00  373.00    0.00 151572.00     0.00   812.72     0.76    2.02    2.02    0.00   1.13  42.00
sdb             283.00     0.00  364.00    0.00 152024.00     0.00   835.30     0.78    2.13    2.13    0.00   1.18  43.00
sdc             284.00     0.00  360.00    0.00 151500.00     0.00   841.67     1.50    4.16    4.16    0.00   1.96  70.60
sdd             286.00     0.00  333.00    0.00 151388.00     0.00   909.24     1.53    4.59    4.59    0.00   2.11  70.20
sde             284.00     0.00  336.00    0.00 151148.00     0.00   899.69     1.53    4.52    4.52    0.00   2.11  70.80
sdf             279.00     0.00  364.00    0.00 150860.00     0.00   828.90     1.54    4.22    4.22    0.00   1.95  71.00
sdg               0.00     0.00   39.00    0.00   468.00     0.00    24.00     0.00    0.10    0.10    0.00   0.05   0.20
sdh               0.00     0.00    0.00    0.00     0.00     0.00     0.00     0.00    0.00    0.00    0.00   0.00   0.00
md0               0.00     0.00 3850.00    0.00 1369000.00     0.00   711.17     0.00    0.00    0.00    0.00   0.00   0.00

avg-cpu:  %user   %nice %system %iowait  %steal   %idle
          17.17    0.00   18.69    6.82    0.00   57.32

Device:         rrqm/s   wrqm/s     r/s     w/s    rkB/s    wkB/s avgrq-sz avgqu-sz   await r_await w_await  svctm  %util
sda             303.00     0.00  345.00    0.00 160468.00     0.00   930.25     0.81    2.36    2.36    0.00   1.30  45.00
sdb             299.00     0.00  372.00    0.00 160008.00     0.00   860.26     0.87    2.35    2.35    0.00   1.26  46.80
sdc             299.00     0.00  340.00    0.00 160716.00     0.00   945.39     1.62    4.74    4.74    0.00   2.20  74.70
sdd             301.00     0.00  342.00    0.00 160836.00     0.00   940.56     1.67    4.87    4.87    0.00   2.19  74.80
sde             292.00     0.00  378.00    0.00 160056.00     0.00   846.86     1.64    4.32    4.32    0.00   1.98  74.90
sdf             297.00     0.00  352.00    0.00 159988.00     0.00   909.02     1.62    4.60    4.60    0.00   2.14  75.20
sdg               0.00     0.00    0.00    0.00     0.00     0.00     0.00     0.00    0.00    0.00    0.00   0.00   0.00
sdh               0.00     0.00    0.00    0.00     0.00     0.00     0.00     0.00    0.00    0.00    0.00   0.00   0.00
md0               0.00     0.00 3908.00    0.00 1383136.00     0.00   707.85     0.00    0.00    0.00    0.00   0.00   0.00

avg-cpu:  %user   %nice %system %iowait  %steal   %idle
          16.58    0.00   20.66    6.89    0.00   55.87

Device:         rrqm/s   wrqm/s     r/s     w/s    rkB/s    wkB/s avgrq-sz avgqu-sz   await r_await w_await  svctm  %util
sda             302.00     0.00  360.00    0.00 159276.00     0.00   884.87     0.81    2.26    2.26    0.00   1.23  44.40
sdb             296.00     0.00  380.00    0.00 159392.00     0.00   838.91     0.86    2.26    2.26    0.00   1.21  45.80
sdc             298.00     0.00  349.00    0.00 159348.00     0.00   913.17     1.63    4.66    4.66    0.00   2.15  75.00
sdd             303.00     0.00  335.00    0.00 159524.00     0.00   952.38     1.62    4.85    4.85    0.00   2.24  75.10
sde             301.00     0.00  359.00    0.00 159384.00     0.00   887.93     1.63    4.53    4.53    0.00   2.10  75.30
sdf             299.00     0.00  361.00    0.00 159780.00     0.00   885.21     1.62    4.48    4.48    0.00   2.08  75.20
sdg               0.00    70.00    0.00 1424.00     0.00  7448.00    10.46     8.67    6.09    0.00    6.09   0.05   6.50
sdh               0.00     0.00    0.00    0.00     0.00     0.00     0.00     0.00    0.00    0.00    0.00   0.00   0.00
md0               0.00     0.00 3944.00    0.00 1472024.00     0.00   746.46     0.00    0.00    0.00    0.00   0.00   0.00

avg-cpu:  %user   %nice %system %iowait  %steal   %idle
          17.47    0.00   19.49    6.08    0.00   56.96

Device:         rrqm/s   wrqm/s     r/s     w/s    rkB/s    wkB/s avgrq-sz avgqu-sz   await r_await w_await  svctm  %util
sda             289.00     0.00  345.00    0.00 153976.00     0.00   892.61     0.79    2.28    2.28    0.00   1.23  42.40
sdb             286.00     0.00  369.00    0.00 153744.00     0.00   833.30     0.82    2.22    2.22    0.00   1.21  44.70
sdc             289.00     0.00  346.00    0.00 153996.00     0.00   890.15     1.56    4.52    4.52    0.00   2.13  73.60
sdd             290.00     0.00  355.00    0.00 154092.00     0.00   868.12     1.55    4.39    4.39    0.00   2.07  73.40
sde             284.00     0.00  361.00    0.00 153852.00     0.00   852.37     1.56    4.35    4.35    0.00   2.05  74.00
sdf             289.00     0.00  357.00    0.00 154120.00     0.00   863.42     1.55    4.37    4.37    0.00   2.06  73.70
sdg               0.00     0.00    1.00    0.00     4.00     0.00     8.00     0.00    0.00    0.00    0.00   0.00   0.00
sdh               0.00     0.00    0.00    0.00     0.00     0.00     0.00     0.00    0.00    0.00    0.00   0.00   0.00
md0               0.00     0.00 3868.00    0.00 1391704.00     0.00   719.60     0.00    0.00    0.00    0.00   0.00   0.00

avg-cpu:  %user   %nice %system %iowait  %steal   %idle
          16.84    0.00   20.15    5.10    0.00   57.91

Device:         rrqm/s   wrqm/s     r/s     w/s    rkB/s    wkB/s avgrq-sz avgqu-sz   await r_await w_await  svctm  %util
sda             299.00     0.00  338.00    0.00 160604.00     0.00   950.32     0.84    2.48    2.48    0.00   1.31  44.40
sdb             302.00     0.00  334.00    0.00 160472.00     0.00   960.91     0.87    2.60    2.60    0.00   1.37  45.90
sdc             299.00     0.00  351.00    0.00 161360.00     0.00   919.43     1.70    4.88    4.88    0.00   2.15  75.40
sdd             297.00     0.00  351.00    0.00 161260.00     0.00   918.86     1.72    4.92    4.92    0.00   2.17  76.10
sde             298.00     0.00  354.00    0.00 160836.00     0.00   908.68     1.69    4.79    4.79    0.00   2.14  75.60
sdf             298.00     0.00  360.00    0.00 161088.00     0.00   894.93     1.70    4.75    4.75    0.00   2.11  75.90
sdg               0.00     0.00    0.00    5.00     0.00   132.00    52.80     0.00    0.00    0.00    0.00   0.00   0.00
sdh               0.00     0.00    0.00    0.00     0.00     0.00     0.00     0.00    0.00    0.00    0.00   0.00   0.00
md0               0.00     0.00 3864.00    0.00 1453828.00     0.00   752.50     0.00    0.00    0.00    0.00   0.00   0.00

avg-cpu:  %user   %nice %system %iowait  %steal   %idle
          17.74    0.00   19.02    5.40    0.00   57.84

Device:         rrqm/s   wrqm/s     r/s     w/s    rkB/s    wkB/s avgrq-sz avgqu-sz   await r_await w_await  svctm  %util
sda             279.00     0.00  343.00    0.00 150284.00     0.00   876.29     0.74    2.16    2.16    0.00   1.24  42.70
sdb             276.00     0.00  376.00    0.00 150164.00     0.00   798.74     0.79    2.10    2.10    0.00   1.17  43.90
sdc             279.00     0.00  333.00    0.00 150252.00     0.00   902.41     1.45    4.36    4.36    0.00   2.11  70.40
sdd             279.00     0.00  341.00    0.00 150308.00     0.00   881.57     1.48    4.33    4.33    0.00   2.08  70.90
sde             273.00     0.00  367.00    0.00 150976.00     0.00   822.76     1.46    3.99    3.99    0.00   1.94  71.30
sdf             279.00     0.00  330.00    0.00 151244.00     0.00   916.63     1.43    4.33    4.33    0.00   2.13  70.20
sdg               0.00     0.00    0.00    0.00     0.00     0.00     0.00     0.00    0.00    0.00    0.00   0.00   0.00
sdh               0.00     0.00    0.00    0.00     0.00     0.00     0.00     0.00    0.00    0.00    0.00   0.00   0.00
md0               0.00     0.00 3757.00    0.00 1365656.00     0.00   726.99     0.00    0.00    0.00    0.00   0.00   0.00

avg-cpu:  %user   %nice %system %iowait  %steal   %idle
          16.75    0.00   20.81    4.82    0.00   57.61

Device:         rrqm/s   wrqm/s     r/s     w/s    rkB/s    wkB/s avgrq-sz avgqu-sz   await r_await w_await  svctm  %util
sda             306.00     0.00  369.00    0.00 162200.00     0.00   879.13     0.82    2.23    2.23    0.00   1.25  46.20
sdb             306.00     0.00  374.00    0.00 162172.00     0.00   867.23     0.87    2.32    2.32    0.00   1.26  47.20
sdc             306.00     0.00  363.00    0.00 161756.00     0.00   891.22     1.75    4.79    4.79    0.00   2.10  76.40
sdd             308.00     0.00  338.00    0.00 161668.00     0.00   956.62     1.72    5.06    5.06    0.00   2.27  76.60
sde             309.00     0.00  355.00    0.00 161408.00     0.00   909.34     1.70    4.75    4.75    0.00   2.14  76.00
sdf             300.00     0.00  369.00    0.00 161208.00     0.00   873.76     1.70    4.59    4.59    0.00   2.08  76.60
sdg               0.00     0.00    0.00    0.00     0.00     0.00     0.00     0.00    0.00    0.00    0.00   0.00   0.00
sdh               0.00     0.00    0.00    0.00     0.00     0.00     0.00     0.00    0.00    0.00    0.00   0.00   0.00
md0               0.00     0.00 4009.00    0.00 1564616.00     0.00   780.55     0.00    0.00    0.00    0.00   0.00   0.00

avg-cpu:  %user   %nice %system %iowait  %steal   %idle
          17.60    0.00   19.90    5.10    0.00   57.40

Device:         rrqm/s   wrqm/s     r/s     w/s    rkB/s    wkB/s avgrq-sz avgqu-sz   await r_await w_await  svctm  %util
sda             289.00     0.00  368.00    0.00 154412.00     0.00   839.20     0.81    2.21    2.21    0.00   1.16  42.80
sdb             289.00     0.00  339.00    0.00 154748.00     0.00   912.97     0.81    2.39    2.39    0.00   1.29  43.70
sdc             295.00     0.00  334.00    0.00 155896.00     0.00   933.51     1.57    4.71    4.71    0.00   2.17  72.60
sdd             290.00     0.00  363.00    0.00 156064.00     0.00   859.86     1.59    4.38    4.38    0.00   2.01  73.10
sde             289.00     0.00  369.00    0.00 155420.00     0.00   842.38     1.54    4.20    4.20    0.00   1.97  72.60
sdf             293.00     0.00  327.00    0.00 155092.00     0.00   948.57     1.56    4.75    4.75    0.00   2.20  72.10
sdg               0.00     0.00    0.00    0.00     0.00     0.00     0.00     0.00    0.00    0.00    0.00   0.00   0.00
sdh               0.00     0.00    0.00    0.00     0.00     0.00     0.00     0.00    0.00    0.00    0.00   0.00   0.00
md0               0.00     0.00 3853.00    0.00 1390872.00     0.00   721.97     0.00    0.00    0.00    0.00   0.00   0.00

avg-cpu:  %user   %nice %system %iowait  %steal   %idle
          16.12    0.00   22.92    5.29    0.00   55.67

Device:         rrqm/s   wrqm/s     r/s     w/s    rkB/s    wkB/s avgrq-sz avgqu-sz   await r_await w_await  svctm  %util
sda             305.00     0.00  354.00    0.00 161644.00     0.00   913.24     0.81    2.29    2.29    0.00   1.28  45.40
sdb             305.00     0.00  371.00    0.00 161728.00     0.00   871.85     0.83    2.24    2.24    0.00   1.26  46.80
sdc             310.00     0.00  352.00    0.00 161996.00     0.00   920.43     1.62    4.62    4.62    0.00   2.17  76.40
sdd             307.00     0.00  358.00    0.00 161940.00     0.00   904.69     1.61    4.51    4.51    0.00   2.12  76.00
sde             307.00     0.00  358.00    0.00 161816.00     0.00   904.00     1.58    4.44    4.44    0.00   2.13  76.40
sdf             309.00     0.00  352.00    0.00 162476.00     0.00   923.16     1.63    4.65    4.65    0.00   2.17  76.50
sdg               0.00     0.00    0.00    0.00     0.00     0.00     0.00     0.00    0.00    0.00    0.00   0.00   0.00
sdh               0.00     0.00    0.00    0.00     0.00     0.00     0.00     0.00    0.00    0.00    0.00   0.00   0.00
md0               0.00     0.00 3988.00    0.00 1532272.00     0.00   768.44     0.00    0.00    0.00    0.00   0.00   0.00

avg-cpu:  %user   %nice %system %iowait  %steal   %idle
          16.62    0.00   22.42    5.29    0.00   55.67

Device:         rrqm/s   wrqm/s     r/s     w/s    rkB/s    wkB/s avgrq-sz avgqu-sz   await r_await w_await  svctm  %util
sda             313.00     0.00  355.00    0.00 165628.00     0.00   933.12     0.84    2.36    2.36    0.00   1.32  47.00
sdb             313.00     0.00  362.00    0.00 165400.00     0.00   913.81     0.87    2.40    2.40    0.00   1.31  47.60
sdc             306.00     0.00  387.00    0.00 164244.00     0.00   848.81     1.77    4.56    4.56    0.00   2.02  78.30
sdd             311.00     0.00  347.00    0.00 164644.00     0.00   948.96     1.74    5.03    5.03    0.00   2.25  78.20
sde             310.00     0.00  353.00    0.00 164392.00     0.00   931.40     1.74    4.92    4.92    0.00   2.21  78.10
sdf             307.00     0.00  375.00    0.00 164516.00     0.00   877.42     1.71    4.56    4.56    0.00   2.08  78.10
sdg               0.00     0.00    0.00    0.00     0.00     0.00     0.00     0.00    0.00    0.00    0.00   0.00   0.00
sdh               0.00     0.00    0.00    0.00     0.00     0.00     0.00     0.00    0.00    0.00    0.00   0.00   0.00
md0               0.00     0.00 4031.00    0.00 1434828.00     0.00   711.90     0.00    0.00    0.00    0.00   0.00   0.00

avg-cpu:  %user   %nice %system %iowait  %steal   %idle
          16.41    0.00   22.56   10.00    0.00   51.03

Device:         rrqm/s   wrqm/s     r/s     w/s    rkB/s    wkB/s avgrq-sz avgqu-sz   await r_await w_await  svctm  %util
sda             318.00     0.00  350.00    0.00 164524.00     0.00   940.14     0.87    2.46    2.46    0.00   1.32  46.10
sdb             313.00     0.00  360.00    0.00 164252.00     0.00   912.51     0.91    2.51    2.51    0.00   1.32  47.70
sdc             312.00     0.00  357.00    0.00 164708.00     0.00   922.73     1.76    4.91    4.91    0.00   2.18  77.80
sdd             315.00     0.00  350.00    0.00 164548.00     0.00   940.27     1.77    5.04    5.04    0.00   2.23  78.20
sde             311.00     0.00  356.00    0.00 164584.00     0.00   924.63     1.78    4.99    4.99    0.00   2.19  78.10
sdf             314.00     0.00  354.00    0.00 165064.00     0.00   932.56     1.75    4.92    4.92    0.00   2.20  78.00
sdg               0.00    84.00 1835.00 1208.00  7340.00  6208.00     8.90     7.46    2.29    0.12    5.58   0.09  28.00
sdh               0.00     0.00    0.00    0.00     0.00     0.00     0.00     0.00    0.00    0.00    0.00   0.00   0.00
md0               0.00     0.00 4018.00    0.00 1512580.00     0.00   752.90     0.00    0.00    0.00    0.00   0.00   0.00

avg-cpu:  %user   %nice %system %iowait  %steal   %idle
          17.17    0.00   21.21    6.82    0.00   54.80

Device:         rrqm/s   wrqm/s     r/s     w/s    rkB/s    wkB/s avgrq-sz avgqu-sz   await r_await w_await  svctm  %util
sda             270.00     0.00  325.00    0.00 156660.00     0.00   964.06     0.83    2.58    2.58    0.00   1.34  43.70
sdb             274.00     0.00  332.00    0.00 156996.00     0.00   945.76     0.82    2.49    2.49    0.00   1.36  45.10
sdc             270.00     0.00  336.00    0.00 156140.00     0.00   929.40     1.58    4.71    4.71    0.00   2.22  74.70
sdd             269.00     0.00  342.00    0.00 156112.00     0.00   912.94     1.61    4.72    4.72    0.00   2.18  74.50
sde             274.00     0.00  323.00    0.00 156412.00     0.00   968.50     1.60    4.97    4.97    0.00   2.30  74.30
sdf             270.00     0.00  337.00    0.00 155556.00     0.00   923.18     1.62    4.80    4.80    0.00   2.20  74.30
sdg               0.00     3.00    2.00  212.00     8.00  1152.00    10.84     1.10    7.41    1.50    7.47   0.06   1.20
sdh               0.00     0.00    0.00    0.00     0.00     0.00     0.00     0.00    0.00    0.00    0.00   0.00   0.00
md0               0.00     0.00 3616.00    0.00 1237736.00     0.00   684.59     0.00    0.00    0.00    0.00   0.00   0.00

avg-cpu:  %user   %nice %system %iowait  %steal   %idle
          17.97    0.00   20.00    6.58    0.00   55.44

Device:         rrqm/s   wrqm/s     r/s     w/s    rkB/s    wkB/s avgrq-sz avgqu-sz   await r_await w_await  svctm  %util
sda             263.00     0.00  380.00    0.00 146824.00     0.00   772.76     0.78    2.07    2.07    0.00   1.12  42.70
sdb             261.00     0.00  379.00    0.00 146312.00     0.00   772.09     0.78    2.07    2.07    0.00   1.15  43.60
sdc             265.00     0.00  366.00    0.00 147472.00     0.00   805.86     1.45    3.98    3.98    0.00   1.93  70.60
sdd             265.00     0.00  338.00    0.00 148148.00     0.00   876.62     1.44    4.29    4.29    0.00   2.08  70.30
sde             256.00     0.00  355.00    0.00 147704.00     0.00   832.14     1.45    4.11    4.11    0.00   1.98  70.40
sdf             265.00     0.00  338.00    0.00 148440.00     0.00   878.34     1.48    4.41    4.41    0.00   2.07  70.10
sdg               0.00     0.00    0.00    0.00     0.00     0.00     0.00     0.00    0.00    0.00    0.00   0.00   0.00
sdh               0.00     0.00    0.00    0.00     0.00     0.00     0.00     0.00    0.00    0.00    0.00   0.00   0.00
md0               0.00     0.00 3729.00    0.00 1223868.00     0.00   656.41     0.00    0.00    0.00    0.00   0.00   0.00

avg-cpu:  %user   %nice %system %iowait  %steal   %idle
          17.81    0.00   19.34    7.38    0.00   55.47

Device:         rrqm/s   wrqm/s     r/s     w/s    rkB/s    wkB/s avgrq-sz avgqu-sz   await r_await w_await  svctm  %util
sda             258.00     0.00  344.00    0.00 148620.00     0.00   864.07     0.78    2.27    2.27    0.00   1.22  42.10
sdb             259.00     0.00  325.00    0.00 149708.00     0.00   921.28     0.79    2.43    2.43    0.00   1.34  43.70
sdc             264.00     0.00  320.00    0.00 150056.00     0.00   937.85     1.41    4.40    4.40    0.00   2.22  70.90
sdd             260.00     0.00  327.00    0.00 150092.00     0.00   917.99     1.44    4.41    4.41    0.00   2.17  71.10
sde             261.00     0.00  330.00    0.00 149668.00     0.00   907.08     1.48    4.48    4.48    0.00   2.17  71.70
sdf             259.00     0.00  330.00    0.00 149552.00     0.00   906.38     1.44    4.37    4.37    0.00   2.16  71.30
sdg               0.00     0.00    0.00    0.00     0.00     0.00     0.00     0.00    0.00    0.00    0.00   0.00   0.00
sdh               0.00     0.00    0.00    0.00     0.00     0.00     0.00     0.00    0.00    0.00    0.00   0.00   0.00
md0               0.00     0.00 3535.00    0.00 1257228.00     0.00   711.30     0.00    0.00    0.00    0.00   0.00   0.00

avg-cpu:  %user   %nice %system %iowait  %steal   %idle
          17.47    0.00   21.27    5.57    0.00   55.70

Device:         rrqm/s   wrqm/s     r/s     w/s    rkB/s    wkB/s avgrq-sz avgqu-sz   await r_await w_await  svctm  %util
sda             294.00     0.00  342.00    0.00 154804.00     0.00   905.29     0.77    2.25    2.25    0.00   1.25  42.60
sdb             284.00     0.00  376.00    0.00 154328.00     0.00   820.89     0.82    2.18    2.18    0.00   1.20  45.00
sdc             289.00     0.00  359.00    0.00 153688.00     0.00   856.20     1.52    4.23    4.23    0.00   2.02  72.40
sdd             293.00     0.00  346.00    0.00 153628.00     0.00   888.02     1.53    4.42    4.42    0.00   2.08  72.10
sde             293.00     0.00  346.00    0.00 153608.00     0.00   887.91     1.49    4.30    4.30    0.00   2.09  72.20
sdf             293.00     0.00  338.00    0.00 153988.00     0.00   911.17     1.50    4.43    4.43    0.00   2.13  72.10
sdg               0.00     0.00    1.00    0.00     4.00     0.00     8.00     0.00    0.00    0.00    0.00   0.00   0.00
sdh               0.00     0.00    0.00    0.00     0.00     0.00     0.00     0.00    0.00    0.00    0.00   0.00   0.00
md0               0.00     0.00 3871.00    0.00 1350640.00     0.00   697.82     0.00    0.00    0.00    0.00   0.00   0.00

