Linux 4.17.2 (bench) 	08/03/2018 	_x86_64_	(4 CPU)

avg-cpu:  %user   %nice %system %iowait  %steal   %idle
          10.29    0.02    4.00    2.46    0.00   83.22

Device:         rrqm/s   wrqm/s     r/s     w/s    rkB/s    wkB/s avgrq-sz avgqu-sz   await r_await w_await  svctm  %util
sda              41.27     4.27 1612.90  103.44 20673.90  3156.56    27.77     1.03    0.60    0.26    5.91   0.06  10.54
sdb              41.16     4.23 1612.80  103.58 20663.32  3153.20    27.75     1.03    0.60    0.26    5.85   0.06  10.42
sdc              79.27     4.29 1572.60  103.13 20655.55  3155.68    28.42     1.44    0.86    0.45    7.12   0.08  13.85
sdd              72.62     4.26 1578.40  103.20 20640.21  3151.84    28.30     1.45    0.86    0.44    7.32   0.08  13.94
sde              74.70     4.31 1583.54  103.29 20700.82  3156.13    28.29     1.47    0.87    0.44    7.43   0.08  13.96
sdf              71.79     4.28 1585.72  103.24 20681.83  3152.96    28.22     1.52    0.90    0.44    7.90   0.08  13.99
sdg               0.00     3.18   25.94   73.34   322.46   391.96    14.39     0.44    4.43    0.20    5.93   0.08   0.77
sdh               0.00     0.13    0.02    0.24     2.23     5.11    56.82     0.00    1.15    0.65    1.19   0.21   0.01
md0               0.00     0.00 9932.97  484.59 141514.01 21613.68    31.32     0.00    0.00    0.00    0.00   0.00   0.00

avg-cpu:  %user   %nice %system %iowait  %steal   %idle
          24.81    0.01    2.12    6.96    0.00   66.09

Device:         rrqm/s   wrqm/s     r/s     w/s    rkB/s    wkB/s avgrq-sz avgqu-sz   await r_await w_await  svctm  %util
sda               0.00     0.00 1513.10    0.00  6052.40     0.00     8.00     0.15    0.10    0.10    0.00   0.10  14.77
sdb               0.00     0.00 1520.05    0.00  6080.20     0.00     8.00     0.15    0.10    0.10    0.00   0.10  14.58
sdc               0.00     0.00 1524.15    0.00  6096.60     0.00     8.00     0.16    0.10    0.10    0.00   0.10  15.60
sdd               0.00     0.00 1538.85    0.00  6155.40     0.00     8.00     0.16    0.10    0.10    0.00   0.10  15.81
sde               0.00     0.00 1522.80    0.00  6091.20     0.00     8.00     0.16    0.10    0.10    0.00   0.10  15.54
sdf               0.00     0.00 1536.65    0.00  6146.60     0.00     8.00     0.16    0.10    0.10    0.00   0.10  15.80
sdg               0.00     5.65   72.10  136.05   348.00   707.40    10.14     0.77    3.70    0.12    5.59   0.07   1.51
sdh               0.00     0.00    0.00    0.00     0.00     0.00     0.00     0.00    0.00    0.00    0.00   0.00   0.00
md0               0.00     0.00 9155.65    0.00 36622.60     0.00     8.00     0.00    0.00    0.00    0.00   0.00   0.00

