Linux 4.17.2 (bench) 	08/03/2018 	_x86_64_	(4 CPU)

avg-cpu:  %user   %nice %system %iowait  %steal   %idle
          10.29    0.02    3.99    2.45    0.00   83.24

Device:         rrqm/s   wrqm/s     r/s     w/s    rkB/s    wkB/s avgrq-sz avgqu-sz   await r_await w_await  svctm  %util
sda              40.69     4.28 1608.11  103.51 20661.42  3158.59    27.83     1.03    0.60    0.26    5.91   0.06  10.52
sdb              40.58     4.24 1608.00  103.65 20650.81  3155.22    27.82     1.02    0.60    0.26    5.85   0.06  10.40
sdc              78.72     4.30 1567.77  103.19 20643.03  3157.70    28.49     1.44    0.86    0.45    7.12   0.08  13.83
sdd              72.06     4.26 1573.59  103.26 20627.71  3153.86    28.36     1.45    0.86    0.44    7.32   0.08  13.92
sde              74.14     4.31 1578.73  103.36 20688.35  3158.15    28.35     1.47    0.87    0.45    7.43   0.08  13.94
sdf              71.23     4.28 1580.91  103.30 20669.34  3154.98    28.29     1.52    0.90    0.44    7.90   0.08  13.97
sdg               0.00     3.18   25.92   73.34   322.42   391.98    14.39     0.44    4.43    0.20    5.93   0.08   0.77
sdh               0.00     0.13    0.02    0.24     2.23     5.11    56.82     0.00    1.15    0.65    1.19   0.21   0.01
md0               0.00     0.00 9900.74  484.90 141450.25 21627.52    31.40     0.00    0.00    0.00    0.00   0.00   0.00

avg-cpu:  %user   %nice %system %iowait  %steal   %idle
          24.49    0.00    3.28   10.35    0.00   61.87

Device:         rrqm/s   wrqm/s     r/s     w/s    rkB/s    wkB/s avgrq-sz avgqu-sz   await r_await w_await  svctm  %util
sda               0.00     0.00 2221.00    0.00  8884.00     0.00     8.00     0.14    0.06    0.06    0.00   0.06  14.40
sdb               0.00     0.00 2072.00    0.00  8288.00     0.00     8.00     0.13    0.06    0.06    0.00   0.06  13.30
sdc               0.00     0.00 2346.00    0.00  9384.00     0.00     8.00     0.17    0.07    0.07    0.00   0.07  16.60
sdd               0.00     0.00 2029.00    0.00  8116.00     0.00     8.00     0.14    0.07    0.07    0.00   0.07  13.90
sde               0.00     0.00 1999.00    0.00  7996.00     0.00     8.00     0.14    0.07    0.07    0.00   0.07  14.40
sdf               0.00     0.00 2398.00    0.00  9592.00     0.00     8.00     0.16    0.07    0.07    0.00   0.07  15.70
sdg               0.00     0.00    9.00    7.00    96.00   104.00    25.00     0.02    3.81    0.78    7.71   0.44   0.70
sdh               0.00     0.00    0.00    0.00     0.00     0.00     0.00     0.00    0.00    0.00    0.00   0.00   0.00
md0               0.00     0.00 13069.00    0.00 52276.00     0.00     8.00     0.00    0.00    0.00    0.00   0.00   0.00

avg-cpu:  %user   %nice %system %iowait  %steal   %idle
          24.69    0.00    3.53   16.37    0.00   55.42

Device:         rrqm/s   wrqm/s     r/s     w/s    rkB/s    wkB/s avgrq-sz avgqu-sz   await r_await w_await  svctm  %util
sda               0.00     0.00 2512.00    0.00 10048.00     0.00     8.00     0.18    0.07    0.07    0.00   0.07  17.80
sdb               0.00     0.00 2532.00    0.00 10128.00     0.00     8.00     0.16    0.06    0.06    0.00   0.06  15.90
sdc               0.00     0.00 2321.00    0.00  9284.00     0.00     8.00     0.14    0.06    0.06    0.00   0.06  14.30
sdd               0.00     0.00 1971.00    0.00  7884.00     0.00     8.00     0.13    0.07    0.07    0.00   0.07  13.10
sde               0.00     0.00 2238.00    0.00  8952.00     0.00     8.00     0.15    0.07    0.07    0.00   0.07  15.30
sdf               0.00     0.00 2203.00    0.00  8812.00     0.00     8.00     0.14    0.06    0.06    0.00   0.06  13.90
sdg               0.00     0.00    0.00    0.00     0.00     0.00     0.00     0.00    0.00    0.00    0.00   0.00   0.00
sdh               0.00     0.00    0.00    0.00     0.00     0.00     0.00     0.00    0.00    0.00    0.00   0.00   0.00
md0               0.00     0.00 13775.00    0.00 55100.00     0.00     8.00     0.00    0.00    0.00    0.00   0.00   0.00

avg-cpu:  %user   %nice %system %iowait  %steal   %idle
          24.75    0.00    3.28   16.41    0.00   55.56

Device:         rrqm/s   wrqm/s     r/s     w/s    rkB/s    wkB/s avgrq-sz avgqu-sz   await r_await w_await  svctm  %util
sda               0.00     0.00 2195.00    0.00  8780.00     0.00     8.00     0.15    0.07    0.07    0.00   0.07  15.10
sdb               0.00     0.00 2292.00    0.00  9168.00     0.00     8.00     0.15    0.07    0.07    0.00   0.07  15.10
sdc               0.00     0.00 2265.00    0.00  9060.00     0.00     8.00     0.15    0.07    0.07    0.00   0.07  15.10
sdd               0.00     0.00 2372.00    0.00  9488.00     0.00     8.00     0.15    0.06    0.06    0.00   0.06  15.30
sde               0.00     0.00 2138.00    0.00  8552.00     0.00     8.00     0.16    0.07    0.07    0.00   0.07  15.90
sdf               0.00     0.00 2076.00    0.00  8304.00     0.00     8.00     0.16    0.08    0.08    0.00   0.08  15.60
sdg               0.00     0.00    0.00    0.00     0.00     0.00     0.00     0.00    0.00    0.00    0.00   0.00   0.00
sdh               0.00     0.00    0.00    0.00     0.00     0.00     0.00     0.00    0.00    0.00    0.00   0.00   0.00
md0               0.00     0.00 13340.00    0.00 53360.00     0.00     8.00     0.00    0.00    0.00    0.00   0.00   0.00

avg-cpu:  %user   %nice %system %iowait  %steal   %idle
          24.62    0.00    3.77   18.84    0.00   52.76

Device:         rrqm/s   wrqm/s     r/s     w/s    rkB/s    wkB/s avgrq-sz avgqu-sz   await r_await w_await  svctm  %util
sda               0.00     0.00 2405.00    0.00  9620.00     0.00     8.00     0.16    0.07    0.07    0.00   0.07  15.70
sdb               0.00     0.00 2324.00    0.00  9296.00     0.00     8.00     0.15    0.06    0.06    0.00   0.06  14.60
sdc               0.00     0.00 2155.00    0.00  8620.00     0.00     8.00     0.15    0.07    0.07    0.00   0.07  15.20
sdd               0.00     0.00 2047.00    0.00  8188.00     0.00     8.00     0.15    0.07    0.07    0.00   0.07  14.80
sde               0.00     0.00 2205.00    0.00  8820.00     0.00     8.00     0.15    0.07    0.07    0.00   0.07  15.50
sdf               0.00     0.00 2158.00    0.00  8632.00     0.00     8.00     0.15    0.07    0.07    0.00   0.07  15.30
sdg               0.00     0.00    0.00    0.00     0.00     0.00     0.00     0.00    0.00    0.00    0.00   0.00   0.00
sdh               0.00     0.00    0.00    0.00     0.00     0.00     0.00     0.00    0.00    0.00    0.00   0.00   0.00
md0               0.00     0.00 13291.00    0.00 53164.00     0.00     8.00     0.00    0.00    0.00    0.00   0.00   0.00

avg-cpu:  %user   %nice %system %iowait  %steal   %idle
          24.56    0.00    3.76   17.79    0.00   53.88

Device:         rrqm/s   wrqm/s     r/s     w/s    rkB/s    wkB/s avgrq-sz avgqu-sz   await r_await w_await  svctm  %util
sda               0.00     0.00 1843.00    0.00  7372.00     0.00     8.00     0.13    0.07    0.07    0.00   0.07  13.10
sdb               0.00     0.00 2168.00    0.00  8672.00     0.00     8.00     0.14    0.06    0.06    0.00   0.06  13.90
sdc               0.00     0.00 2454.00    0.00  9816.00     0.00     8.00     0.16    0.06    0.06    0.00   0.06  15.90
sdd               0.00     0.00 2282.00    0.00  9128.00     0.00     8.00     0.16    0.07    0.07    0.00   0.07  16.10
sde               0.00     0.00 2259.00    0.00  9036.00     0.00     8.00     0.16    0.07    0.07    0.00   0.07  16.20
sdf               0.00     0.00 2521.00    0.00 10084.00     0.00     8.00     0.17    0.07    0.07    0.00   0.07  16.50
sdg               0.00     0.00    0.00    0.00     0.00     0.00     0.00     0.00    0.00    0.00    0.00   0.00   0.00
sdh               0.00     0.00    0.00    0.00     0.00     0.00     0.00     0.00    0.00    0.00    0.00   0.00   0.00
md0               0.00     0.00 13527.00    0.00 54108.00     0.00     8.00     0.00    0.00    0.00    0.00   0.00   0.00

avg-cpu:  %user   %nice %system %iowait  %steal   %idle
          24.43    0.25    4.03   18.14    0.00   53.15

Device:         rrqm/s   wrqm/s     r/s     w/s    rkB/s    wkB/s avgrq-sz avgqu-sz   await r_await w_await  svctm  %util
sda               0.00     0.00 2203.00    0.00  8812.00     0.00     8.00     0.15    0.07    0.07    0.00   0.07  14.70
sdb               0.00     0.00 2592.00    0.00 10368.00     0.00     8.00     0.17    0.06    0.06    0.00   0.06  16.80
sdc               0.00     0.00 2202.00    0.00  8808.00     0.00     8.00     0.14    0.07    0.07    0.00   0.07  14.40
sdd               0.00     0.00 2099.00    0.00  8396.00     0.00     8.00     0.14    0.07    0.07    0.00   0.07  14.30
sde               0.00     0.00 2310.00    0.00  9240.00     0.00     8.00     0.16    0.07    0.07    0.00   0.07  15.70
sdf               0.00     0.00 2009.00    0.00  8036.00     0.00     8.00     0.15    0.08    0.08    0.00   0.08  15.40
sdg               0.00     0.00   18.00    0.00   132.00     0.00    14.67     0.00    0.22    0.22    0.00   0.22   0.40
sdh               0.00     0.00    0.00    0.00     0.00     0.00     0.00     0.00    0.00    0.00    0.00   0.00   0.00
md0               0.00     0.00 13416.00    0.00 53664.00     0.00     8.00     0.00    0.00    0.00    0.00   0.00   0.00

avg-cpu:  %user   %nice %system %iowait  %steal   %idle
          24.81    0.00    3.76   14.79    0.00   56.64

Device:         rrqm/s   wrqm/s     r/s     w/s    rkB/s    wkB/s avgrq-sz avgqu-sz   await r_await w_await  svctm  %util
sda               0.00     0.00 2442.00    0.00  9768.00     0.00     8.00     0.16    0.07    0.07    0.00   0.07  15.90
sdb               0.00     0.00 2154.00    0.00  8616.00     0.00     8.00     0.13    0.06    0.06    0.00   0.06  13.00
sdc               0.00     0.00 2159.00    0.00  8636.00     0.00     8.00     0.14    0.07    0.07    0.00   0.07  14.30
sdd               0.00     0.00 2268.00    0.00  9072.00     0.00     8.00     0.15    0.07    0.07    0.00   0.07  15.00
sde               0.00     0.00 2130.00    0.00  8520.00     0.00     8.00     0.15    0.07    0.07    0.00   0.07  15.20
sdf               0.00     0.00 2324.00    0.00  9296.00     0.00     8.00     0.17    0.07    0.07    0.00   0.07  16.60
sdg               0.00     0.00    0.00    0.00     0.00     0.00     0.00     0.00    0.00    0.00    0.00   0.00   0.00
sdh               0.00     0.00    0.00    0.00     0.00     0.00     0.00     0.00    0.00    0.00    0.00   0.00   0.00
md0               0.00     0.00 13477.00    0.00 53908.00     0.00     8.00     0.00    0.00    0.00    0.00   0.00   0.00

avg-cpu:  %user   %nice %system %iowait  %steal   %idle
          24.37    0.00    4.02   17.09    0.00   54.52

Device:         rrqm/s   wrqm/s     r/s     w/s    rkB/s    wkB/s avgrq-sz avgqu-sz   await r_await w_await  svctm  %util
sda               0.00     0.00 2317.00    0.00  9268.00     0.00     8.00     0.14    0.06    0.06    0.00   0.06  14.20
sdb               0.00     0.00 2033.00    0.00  8132.00     0.00     8.00     0.12    0.06    0.06    0.00   0.06  12.30
sdc               0.00     0.00 2272.00    0.00  9088.00     0.00     8.00     0.15    0.07    0.07    0.00   0.07  15.40
sdd               0.00     0.00 2420.00    0.00  9680.00     0.00     8.00     0.15    0.06    0.06    0.00   0.06  15.30
sde               0.00     0.00 2432.00    0.00  9728.00     0.00     8.00     0.16    0.07    0.07    0.00   0.07  16.00
sdf               0.00     0.00 2246.00    0.00  8984.00     0.00     8.00     0.16    0.07    0.07    0.00   0.07  16.40
sdg               0.00     0.00    0.00    0.00     0.00     0.00     0.00     0.00    0.00    0.00    0.00   0.00   0.00
sdh               0.00     0.00    0.00    0.00     0.00     0.00     0.00     0.00    0.00    0.00    0.00   0.00   0.00
md0               0.00     0.00 13720.00    0.00 54880.00     0.00     8.00     0.00    0.00    0.00    0.00   0.00   0.00

avg-cpu:  %user   %nice %system %iowait  %steal   %idle
          24.49    0.00    3.79   17.42    0.00   54.29

Device:         rrqm/s   wrqm/s     r/s     w/s    rkB/s    wkB/s avgrq-sz avgqu-sz   await r_await w_await  svctm  %util
sda               0.00     0.00 2097.00    0.00  8388.00     0.00     8.00     0.14    0.07    0.07    0.00   0.07  14.10
sdb               0.00     0.00 2157.00    0.00  8628.00     0.00     8.00     0.14    0.06    0.06    0.00   0.06  14.00
sdc               0.00     0.00 2230.00    0.00  8920.00     0.00     8.00     0.15    0.07    0.07    0.00   0.07  14.90
sdd               0.00     0.00 2081.00    0.00  8324.00     0.00     8.00     0.15    0.07    0.07    0.00   0.07  14.80
sde               0.00     0.00 2378.00    0.00  9512.00     0.00     8.00     0.16    0.07    0.07    0.00   0.07  15.70
sdf               0.00     0.00 2449.00    0.00  9796.00     0.00     8.00     0.16    0.07    0.07    0.00   0.07  16.40
sdg               0.00     0.00    0.00    0.00     0.00     0.00     0.00     0.00    0.00    0.00    0.00   0.00   0.00
sdh               0.00     0.00    0.00    0.00     0.00     0.00     0.00     0.00    0.00    0.00    0.00   0.00   0.00
md0               0.00     0.00 13392.00    0.00 53568.00     0.00     8.00     0.00    0.00    0.00    0.00   0.00   0.00

avg-cpu:  %user   %nice %system %iowait  %steal   %idle
          24.87    0.00    3.52   17.34    0.00   54.27

Device:         rrqm/s   wrqm/s     r/s     w/s    rkB/s    wkB/s avgrq-sz avgqu-sz   await r_await w_await  svctm  %util
sda               0.00     0.00 2178.00    0.00  8712.00     0.00     8.00     0.15    0.07    0.07    0.00   0.07  14.80
sdb               0.00     0.00 2239.00    0.00  8956.00     0.00     8.00     0.15    0.07    0.07    0.00   0.07  14.90
sdc               0.00     0.00 2381.00    0.00  9524.00     0.00     8.00     0.16    0.07    0.07    0.00   0.07  15.60
sdd               0.00     0.00 2154.00    0.00  8616.00     0.00     8.00     0.16    0.07    0.07    0.00   0.07  15.60
sde               0.00     0.00 2546.00    0.00 10184.00     0.00     8.00     0.17    0.06    0.06    0.00   0.06  16.50
sdf               0.00     0.00 1974.00    0.00  7896.00     0.00     8.00     0.15    0.07    0.07    0.00   0.07  14.60
sdg               0.00     0.00    0.00    0.00     0.00     0.00     0.00     0.00    0.00    0.00    0.00   0.00   0.00
sdh               0.00     0.00    0.00    0.00     0.00     0.00     0.00     0.00    0.00    0.00    0.00   0.00   0.00
md0               0.00     0.00 13472.00    0.00 53888.00     0.00     8.00     0.00    0.00    0.00    0.00   0.00   0.00

avg-cpu:  %user   %nice %system %iowait  %steal   %idle
          24.62    0.00    3.77   18.34    0.00   53.27

Device:         rrqm/s   wrqm/s     r/s     w/s    rkB/s    wkB/s avgrq-sz avgqu-sz   await r_await w_await  svctm  %util
sda               0.00     0.00 2210.00    0.00  8840.00     0.00     8.00     0.13    0.06    0.06    0.00   0.06  13.10
sdb               0.00     0.00 2265.00    0.00  9060.00     0.00     8.00     0.15    0.07    0.07    0.00   0.07  15.50
sdc               0.00     0.00 2320.00    0.00  9280.00     0.00     8.00     0.17    0.07    0.07    0.00   0.07  16.60
sdd               0.00     0.00 2106.00    0.00  8424.00     0.00     8.00     0.14    0.07    0.07    0.00   0.07  13.80
sde               0.00     0.00 2212.00    0.00  8848.00     0.00     8.00     0.15    0.07    0.07    0.00   0.07  14.70
sdf               0.00     0.00 2419.00    0.00  9676.00     0.00     8.00     0.17    0.07    0.07    0.00   0.07  17.30
sdg               0.00     0.00    0.00    0.00     0.00     0.00     0.00     0.00    0.00    0.00    0.00   0.00   0.00
sdh               0.00     0.00    0.00    0.00     0.00     0.00     0.00     0.00    0.00    0.00    0.00   0.00   0.00
md0               0.00     0.00 13534.00    0.00 54136.00     0.00     8.00     0.00    0.00    0.00    0.00   0.00   0.00

avg-cpu:  %user   %nice %system %iowait  %steal   %idle
          24.69    0.00    3.53   17.88    0.00   53.90

Device:         rrqm/s   wrqm/s     r/s     w/s    rkB/s    wkB/s avgrq-sz avgqu-sz   await r_await w_await  svctm  %util
sda               0.00     0.00 1950.00    0.00  7800.00     0.00     8.00     0.13    0.07    0.07    0.00   0.07  12.90
sdb               0.00     0.00 2035.00    0.00  8140.00     0.00     8.00     0.13    0.06    0.06    0.00   0.06  12.70
sdc               0.00     0.00 2295.00    0.00  9180.00     0.00     8.00     0.16    0.07    0.07    0.00   0.07  15.60
sdd               0.00     0.00 2331.00    0.00  9324.00     0.00     8.00     0.16    0.07    0.07    0.00   0.07  16.30
sde               0.00     0.00 2512.00    0.00 10048.00     0.00     8.00     0.17    0.07    0.07    0.00   0.07  17.00
sdf               0.00     0.00 2468.00    0.00  9872.00     0.00     8.00     0.17    0.07    0.07    0.00   0.07  17.10
sdg               0.00     0.00    0.00    0.00     0.00     0.00     0.00     0.00    0.00    0.00    0.00   0.00   0.00
sdh               0.00     0.00    0.00    0.00     0.00     0.00     0.00     0.00    0.00    0.00    0.00   0.00   0.00
md0               0.00     0.00 13588.00    0.00 54352.00     0.00     8.00     0.00    0.00    0.00    0.00   0.00   0.00

avg-cpu:  %user   %nice %system %iowait  %steal   %idle
          24.62    0.00    3.77   15.83    0.00   55.78

Device:         rrqm/s   wrqm/s     r/s     w/s    rkB/s    wkB/s avgrq-sz avgqu-sz   await r_await w_await  svctm  %util
sda               0.00     0.00 2180.00    0.00  8720.00     0.00     8.00     0.14    0.07    0.07    0.00   0.07  14.40
sdb               0.00     0.00 2093.00    0.00  8372.00     0.00     8.00     0.13    0.06    0.06    0.00   0.06  13.30
sdc               0.00     0.00 2197.00    0.00  8788.00     0.00     8.00     0.16    0.07    0.07    0.00   0.07  15.80
sdd               0.00     0.00 2516.00    0.00 10064.00     0.00     8.00     0.17    0.07    0.07    0.00   0.07  16.90
sde               0.00     0.00 2084.00    0.00  8336.00     0.00     8.00     0.15    0.07    0.07    0.00   0.07  15.10
sdf               0.00     0.00 2121.00    0.00  8484.00     0.00     8.00     0.15    0.07    0.07    0.00   0.07  15.00
sdg               0.00     0.00    7.00    3.00    28.00    36.00    12.80     0.01    1.10    0.43    2.67   1.10   1.10
sdh               0.00     0.00    0.00    0.00     0.00     0.00     0.00     0.00    0.00    0.00    0.00   0.00   0.00
md0               0.00     0.00 13194.00    0.00 52776.00     0.00     8.00     0.00    0.00    0.00    0.00   0.00   0.00

avg-cpu:  %user   %nice %system %iowait  %steal   %idle
          24.69    0.00    3.53   17.88    0.00   53.90

Device:         rrqm/s   wrqm/s     r/s     w/s    rkB/s    wkB/s avgrq-sz avgqu-sz   await r_await w_await  svctm  %util
sda               0.00     0.00 2202.00    0.00  8808.00     0.00     8.00     0.14    0.06    0.06    0.00   0.06  13.60
sdb               0.00     0.00 2205.00    0.00  8820.00     0.00     8.00     0.14    0.07    0.07    0.00   0.07  14.40
sdc               0.00     0.00 2101.00    0.00  8404.00     0.00     8.00     0.17    0.08    0.08    0.00   0.08  16.60
sdd               0.00     0.00 2410.00    0.00  9640.00     0.00     8.00     0.15    0.06    0.06    0.00   0.06  14.90
sde               0.00     0.00 2179.00    0.00  8716.00     0.00     8.00     0.15    0.07    0.07    0.00   0.07  15.10
sdf               0.00     0.00 2322.00    0.00  9288.00     0.00     8.00     0.17    0.07    0.07    0.00   0.07  16.50
sdg               0.00     0.00    0.00    0.00     0.00     0.00     0.00     0.00    0.00    0.00    0.00   0.00   0.00
sdh               0.00     0.00    0.00    0.00     0.00     0.00     0.00     0.00    0.00    0.00    0.00   0.00   0.00
md0               0.00     0.00 13417.00    0.00 53668.00     0.00     8.00     0.00    0.00    0.00    0.00   0.00   0.00

avg-cpu:  %user   %nice %system %iowait  %steal   %idle
          24.62    0.00    3.77   18.84    0.00   52.76

Device:         rrqm/s   wrqm/s     r/s     w/s    rkB/s    wkB/s avgrq-sz avgqu-sz   await r_await w_await  svctm  %util
sda               0.00     0.00 2380.00    0.00  9520.00     0.00     8.00     0.14    0.06    0.06    0.00   0.06  14.30
sdb               0.00     0.00 2189.00    0.00  8756.00     0.00     8.00     0.15    0.07    0.07    0.00   0.07  14.60
sdc               0.00     0.00 2105.00    0.00  8420.00     0.00     8.00     0.14    0.07    0.07    0.00   0.07  14.40
sdd               0.00     0.00 2239.00    0.00  8956.00     0.00     8.00     0.14    0.06    0.06    0.00   0.06  14.10
sde               0.00     0.00 2324.00    0.00  9296.00     0.00     8.00     0.16    0.07    0.07    0.00   0.07  15.60
sdf               0.00     0.00 2464.00    0.00  9856.00     0.00     8.00     0.17    0.07    0.07    0.00   0.07  16.90
sdg               0.00     0.00    0.00    0.00     0.00     0.00     0.00     0.00    0.00    0.00    0.00   0.00   0.00
sdh               0.00     0.00    0.00    0.00     0.00     0.00     0.00     0.00    0.00    0.00    0.00   0.00   0.00
md0               0.00     0.00 13700.00    0.00 54800.00     0.00     8.00     0.00    0.00    0.00    0.00   0.00   0.00

avg-cpu:  %user   %nice %system %iowait  %steal   %idle
          24.81    0.25    3.29   16.46    0.00   55.19

Device:         rrqm/s   wrqm/s     r/s     w/s    rkB/s    wkB/s avgrq-sz avgqu-sz   await r_await w_await  svctm  %util
sda               0.00     0.00 2278.00    0.00  9112.00     0.00     8.00     0.15    0.07    0.07    0.00   0.07  15.00
sdb               0.00     0.00 2226.00    0.00  8904.00     0.00     8.00     0.15    0.07    0.07    0.00   0.07  14.60
sdc               0.00     0.00 2113.00    0.00  8452.00     0.00     8.00     0.15    0.07    0.07    0.00   0.07  14.60
sdd               0.00     0.00 2367.00    0.00  9468.00     0.00     8.00     0.17    0.07    0.07    0.00   0.07  16.70
sde               0.00     0.00 2315.00    0.00  9260.00     0.00     8.00     0.16    0.07    0.07    0.00   0.07  16.30
sdf               0.00     0.00 1942.00    0.00  7768.00     0.00     8.00     0.14    0.07    0.07    0.00   0.07  14.10
sdg               0.00     0.00    3.00    0.00    12.00     0.00     8.00     0.00    0.33    0.33    0.00   0.33   0.10
sdh               0.00     0.00    0.00    0.00     0.00     0.00     0.00     0.00    0.00    0.00    0.00   0.00   0.00
md0               0.00     0.00 13244.00    0.00 52976.00     0.00     8.00     0.00    0.00    0.00    0.00   0.00   0.00

avg-cpu:  %user   %nice %system %iowait  %steal   %idle
          24.49    0.00    3.79    9.34    0.00   62.37

Device:         rrqm/s   wrqm/s     r/s     w/s    rkB/s    wkB/s avgrq-sz avgqu-sz   await r_await w_await  svctm  %util
sda               0.00     0.00 2168.00    0.00  8672.00     0.00     8.00     0.13    0.06    0.06    0.00   0.06  13.20
sdb               0.00     0.00 2260.00    0.00  9040.00     0.00     8.00     0.15    0.07    0.07    0.00   0.07  14.80
sdc               0.00     0.00 2227.00    0.00  8908.00     0.00     8.00     0.17    0.08    0.08    0.00   0.08  16.80
sdd               0.00     0.00 2300.00    0.00  9200.00     0.00     8.00     0.17    0.07    0.07    0.00   0.07  16.60
sde               0.00     0.00 2221.00    0.00  8884.00     0.00     8.00     0.15    0.07    0.07    0.00   0.07  15.00
sdf               0.00     0.00 2042.00    0.00  8168.00     0.00     8.00     0.14    0.07    0.07    0.00   0.07  13.60
sdg               0.00     0.00    0.00    0.00     0.00     0.00     0.00     0.00    0.00    0.00    0.00   0.00   0.00
sdh               0.00     0.00    0.00    0.00     0.00     0.00     0.00     0.00    0.00    0.00    0.00   0.00   0.00
md0               0.00     0.00 13215.00    0.00 52860.00     0.00     8.00     0.00    0.00    0.00    0.00   0.00   0.00

avg-cpu:  %user   %nice %system %iowait  %steal   %idle
          24.62    0.00    3.77   11.56    0.00   60.05

Device:         rrqm/s   wrqm/s     r/s     w/s    rkB/s    wkB/s avgrq-sz avgqu-sz   await r_await w_await  svctm  %util
sda               0.00     0.00 2218.00    0.00  8872.00     0.00     8.00     0.15    0.07    0.07    0.00   0.07  14.60
sdb               0.00     0.00 2192.00    0.00  8768.00     0.00     8.00     0.14    0.06    0.06    0.00   0.06  13.60
sdc               0.00     0.00 2122.00    0.00  8488.00     0.00     8.00     0.14    0.07    0.07    0.00   0.07  14.20
sdd               0.00     0.00 2279.00    0.00  9116.00     0.00     8.00     0.16    0.07    0.07    0.00   0.07  16.20
sde               0.00     0.00 2185.00    0.00  8740.00     0.00     8.00     0.15    0.07    0.07    0.00   0.07  15.00
sdf               0.00     0.00 2233.00    0.00  8932.00     0.00     8.00     0.16    0.07    0.07    0.00   0.07  15.60
sdg               0.00     0.00    0.00    0.00     0.00     0.00     0.00     0.00    0.00    0.00    0.00   0.00   0.00
sdh               0.00     0.00    0.00    0.00     0.00     0.00     0.00     0.00    0.00    0.00    0.00   0.00   0.00
md0               0.00     0.00 13229.00    0.00 52916.00     0.00     8.00     0.00    0.00    0.00    0.00   0.00   0.00

avg-cpu:  %user   %nice %system %iowait  %steal   %idle
          24.49    0.00    3.79   10.10    0.00   61.62

Device:         rrqm/s   wrqm/s     r/s     w/s    rkB/s    wkB/s avgrq-sz avgqu-sz   await r_await w_await  svctm  %util
sda               0.00     0.00 2237.00    0.00  8948.00     0.00     8.00     0.14    0.06    0.06    0.00   0.06  14.10
sdb               0.00     0.00 2312.00    0.00  9248.00     0.00     8.00     0.14    0.06    0.06    0.00   0.06  13.80
sdc               0.00     0.00 2099.00    0.00  8396.00     0.00     8.00     0.15    0.07    0.07    0.00   0.07  14.90
sdd               0.00     0.00 2303.00    0.00  9212.00     0.00     8.00     0.15    0.07    0.07    0.00   0.07  15.30
sde               0.00     0.00 2265.00    0.00  9060.00     0.00     8.00     0.15    0.07    0.07    0.00   0.07  14.80
sdf               0.00     0.00 2381.00    0.00  9524.00     0.00     8.00     0.15    0.06    0.06    0.00   0.06  15.40
sdg               0.00     0.00    0.00    0.00     0.00     0.00     0.00     0.00    0.00    0.00    0.00   0.00   0.00
sdh               0.00     0.00    0.00    0.00     0.00     0.00     0.00     0.00    0.00    0.00    0.00   0.00   0.00
md0               0.00     0.00 13598.00    0.00 54392.00     0.00     8.00     0.00    0.00    0.00    0.00   0.00   0.00

avg-cpu:  %user   %nice %system %iowait  %steal   %idle
          25.00    0.00    3.28    8.84    0.00   62.88

Device:         rrqm/s   wrqm/s     r/s     w/s    rkB/s    wkB/s avgrq-sz avgqu-sz   await r_await w_await  svctm  %util
sda               0.00     0.00 2433.00    0.00  9732.00     0.00     8.00     0.15    0.06    0.06    0.00   0.06  15.20
sdb               0.00     0.00 2204.00    0.00  8816.00     0.00     8.00     0.14    0.06    0.06    0.00   0.06  14.00
sdc               0.00     0.00 2313.00    0.00  9252.00     0.00     8.00     0.15    0.07    0.07    0.00   0.07  15.30
sdd               0.00     0.00 1948.00    0.00  7792.00     0.00     8.00     0.14    0.07    0.07    0.00   0.07  14.10
sde               0.00     0.00 2219.00    0.00  8876.00     0.00     8.00     0.15    0.07    0.07    0.00   0.07  15.20
sdf               0.00     0.00 2204.00    0.00  8816.00     0.00     8.00     0.16    0.07    0.07    0.00   0.07  16.00
sdg               0.00     0.00    0.00    0.00     0.00     0.00     0.00     0.00    0.00    0.00    0.00   0.00   0.00
sdh               0.00     0.00    0.00    0.00     0.00     0.00     0.00     0.00    0.00    0.00    0.00   0.00   0.00
md0               0.00     0.00 13320.00    0.00 53280.00     0.00     8.00     0.00    0.00    0.00    0.00   0.00   0.00

