Linux 4.17.2 (bench) 	08/03/2018 	_x86_64_	(4 CPU)

avg-cpu:  %user   %nice %system %iowait  %steal   %idle
          10.28    0.02    4.03    2.50    0.00   83.16

Device:         rrqm/s   wrqm/s     r/s     w/s    rkB/s    wkB/s avgrq-sz avgqu-sz   await r_await w_await  svctm  %util
sda              43.17     4.26 1632.00  103.02 20818.11  3143.66    27.62     1.03    0.59    0.26    5.91   0.06  10.63
sdb              43.04     4.22 1631.91  103.16 20807.49  3140.31    27.60     1.03    0.59    0.26    5.85   0.06  10.51
sdc              81.11     4.28 1591.75  102.70 20799.65  3142.78    28.26     1.45    0.85    0.45    7.12   0.08  13.95
sdd              74.49     4.24 1597.54  102.77 20784.45  3138.96    28.14     1.46    0.86    0.44    7.32   0.08  14.05
sde              76.54     4.29 1602.65  102.87 20844.66  3143.23    28.13     1.48    0.87    0.44    7.43   0.08  14.07
sdf              73.64     4.26 1604.81  102.82 20825.78  3140.08    28.07     1.52    0.89    0.44    7.90   0.08  14.10
sdg               0.00     3.18   26.12   73.33   323.24   392.00    14.38     0.44    4.43    0.20    5.93   0.08   0.78
sdh               0.00     0.13    0.02    0.24     2.22     5.09    56.82     0.00    1.15    0.65    1.19   0.21   0.01
md0               0.00     0.00 10059.16  482.61 142575.55 21525.35    31.13     0.00    0.00    0.00    0.00   0.00   0.00

avg-cpu:  %user   %nice %system %iowait  %steal   %idle
          24.25    0.00    3.00    9.25    0.00   63.50

Device:         rrqm/s   wrqm/s     r/s     w/s    rkB/s    wkB/s avgrq-sz avgqu-sz   await r_await w_await  svctm  %util
sda               0.00     0.00 1531.00    0.00  6124.00     0.00     8.00     0.16    0.10    0.10    0.00   0.10  15.60
sdb               0.00     0.00 1515.00    0.00  6060.00     0.00     8.00     0.14    0.10    0.10    0.00   0.10  14.40
sdc               0.00     0.00 1489.00    0.00  5956.00     0.00     8.00     0.14    0.09    0.09    0.00   0.09  14.10
sdd               0.00     0.00 1516.00    0.00  6064.00     0.00     8.00     0.15    0.10    0.10    0.00   0.10  14.70
sde               0.00     0.00 1472.00    0.00  5888.00     0.00     8.00     0.16    0.11    0.11    0.00   0.11  16.40
sdf               0.00     0.00 1530.00    0.00  6120.00     0.00     8.00     0.17    0.11    0.11    0.00   0.11  17.00
sdg               0.00     0.00    6.00   30.00    96.00   420.00    28.67     0.02    3.81    1.17    4.33   0.19   0.70
sdh               0.00     0.00    0.00    0.00     0.00     0.00     0.00     0.00    0.00    0.00    0.00   0.00   0.00
md0               0.00     0.00 9055.00    0.00 36220.00     0.00     8.00     0.00    0.00    0.00    0.00   0.00   0.00

avg-cpu:  %user   %nice %system %iowait  %steal   %idle
          24.56    0.00    3.01    2.76    0.00   69.67

Device:         rrqm/s   wrqm/s     r/s     w/s    rkB/s    wkB/s avgrq-sz avgqu-sz   await r_await w_await  svctm  %util
sda               0.00     0.00 1458.00    0.00  5832.00     0.00     8.00     0.16    0.11    0.11    0.00   0.11  16.00
sdb               0.00     0.00 1469.00    0.00  5876.00     0.00     8.00     0.14    0.10    0.10    0.00   0.10  14.30
sdc               0.00     0.00 1579.00    0.00  6316.00     0.00     8.00     0.15    0.10    0.10    0.00   0.10  15.50
sdd               0.00     0.00 1506.00    0.00  6024.00     0.00     8.00     0.15    0.10    0.10    0.00   0.10  15.20
sde               0.00     0.00 1521.00    0.00  6084.00     0.00     8.00     0.17    0.11    0.11    0.00   0.11  16.90
sdf               0.00     0.00 1504.00    0.00  6016.00     0.00     8.00     0.16    0.11    0.11    0.00   0.11  15.80
sdg               0.00     0.00    0.00    0.00     0.00     0.00     0.00     0.00    0.00    0.00    0.00   0.00   0.00
sdh               0.00     0.00    0.00    0.00     0.00     0.00     0.00     0.00    0.00    0.00    0.00   0.00   0.00
md0               0.00     0.00 9037.00    0.00 36148.00     0.00     8.00     0.00    0.00    0.00    0.00   0.00   0.00

avg-cpu:  %user   %nice %system %iowait  %steal   %idle
          24.81    0.00    3.01    7.77    0.00   64.41

Device:         rrqm/s   wrqm/s     r/s     w/s    rkB/s    wkB/s avgrq-sz avgqu-sz   await r_await w_await  svctm  %util
sda               0.00     0.00 1552.00    0.00  6208.00     0.00     8.00     0.14    0.09    0.09    0.00   0.09  14.50
sdb               0.00     0.00 1538.00    0.00  6152.00     0.00     8.00     0.15    0.10    0.10    0.00   0.10  15.20
sdc               0.00     0.00 1530.00    0.00  6120.00     0.00     8.00     0.16    0.10    0.10    0.00   0.10  15.80
sdd               0.00     0.00 1547.00    0.00  6188.00     0.00     8.00     0.15    0.10    0.10    0.00   0.10  15.50
sde               0.00     0.00 1494.00    0.00  5976.00     0.00     8.00     0.19    0.13    0.13    0.00   0.13  19.00
sdf               0.00     0.00 1493.00    0.00  5972.00     0.00     8.00     0.13    0.09    0.09    0.00   0.09  13.40
sdg               0.00     0.00    1.00   14.00    16.00   104.00    16.00     0.00    0.27    0.00    0.29   0.07   0.10
sdh               0.00     0.00    0.00    0.00     0.00     0.00     0.00     0.00    0.00    0.00    0.00   0.00   0.00
md0               0.00     0.00 9154.00    0.00 36616.00     0.00     8.00     0.00    0.00    0.00    0.00   0.00   0.00

avg-cpu:  %user   %nice %system %iowait  %steal   %idle
          24.56    0.00    3.01    3.76    0.00   68.67

Device:         rrqm/s   wrqm/s     r/s     w/s    rkB/s    wkB/s avgrq-sz avgqu-sz   await r_await w_await  svctm  %util
sda               0.00     0.00 1539.00    0.00  6156.00     0.00     8.00     0.15    0.10    0.10    0.00   0.10  15.50
sdb               0.00     0.00 1495.00    0.00  5980.00     0.00     8.00     0.16    0.11    0.11    0.00   0.11  15.70
sdc               0.00     0.00 1484.00    0.00  5936.00     0.00     8.00     0.14    0.09    0.09    0.00   0.09  13.80
sdd               0.00     0.00 1569.00    0.00  6276.00     0.00     8.00     0.18    0.11    0.11    0.00   0.11  17.60
sde               0.00     0.00 1502.00    0.00  6008.00     0.00     8.00     0.15    0.10    0.10    0.00   0.10  15.20
sdf               0.00     0.00 1533.00    0.00  6132.00     0.00     8.00     0.14    0.09    0.09    0.00   0.09  14.30
sdg               0.00     0.00    0.00    0.00     0.00     0.00     0.00     0.00    0.00    0.00    0.00   0.00   0.00
sdh               0.00     0.00    0.00    0.00     0.00     0.00     0.00     0.00    0.00    0.00    0.00   0.00   0.00
md0               0.00     0.00 9122.00    0.00 36488.00     0.00     8.00     0.00    0.00    0.00    0.00   0.00   0.00

avg-cpu:  %user   %nice %system %iowait  %steal   %idle
          24.87    0.00    2.76    4.27    0.00   68.09

Device:         rrqm/s   wrqm/s     r/s     w/s    rkB/s    wkB/s avgrq-sz avgqu-sz   await r_await w_await  svctm  %util
sda               0.00     0.00 1501.00    0.00  6004.00     0.00     8.00     0.14    0.10    0.10    0.00   0.09  14.20
sdb               0.00     0.00 1570.00    0.00  6280.00     0.00     8.00     0.16    0.10    0.10    0.00   0.10  16.10
sdc               0.00     0.00 1520.00    0.00  6080.00     0.00     8.00     0.14    0.09    0.09    0.00   0.09  14.30
sdd               0.00     0.00 1543.00    0.00  6172.00     0.00     8.00     0.16    0.10    0.10    0.00   0.10  15.80
sde               0.00     0.00 1550.00    0.00  6200.00     0.00     8.00     0.17    0.11    0.11    0.00   0.11  16.70
sdf               0.00     0.00 1513.00    0.00  6052.00     0.00     8.00     0.16    0.11    0.11    0.00   0.11  16.40
sdg               0.00     0.00    0.00    0.00     0.00     0.00     0.00     0.00    0.00    0.00    0.00   0.00   0.00
sdh               0.00     0.00    0.00    0.00     0.00     0.00     0.00     0.00    0.00    0.00    0.00   0.00   0.00
md0               0.00     0.00 9197.00    0.00 36788.00     0.00     8.00     0.00    0.00    0.00    0.00   0.00   0.00

avg-cpu:  %user   %nice %system %iowait  %steal   %idle
          24.50    0.25    3.25    7.50    0.00   64.50

Device:         rrqm/s   wrqm/s     r/s     w/s    rkB/s    wkB/s avgrq-sz avgqu-sz   await r_await w_await  svctm  %util
sda               0.00     0.00 1517.00    0.00  6068.00     0.00     8.00     0.15    0.10    0.10    0.00   0.10  14.90
sdb               0.00     0.00 1582.00    0.00  6328.00     0.00     8.00     0.17    0.10    0.10    0.00   0.10  16.50
sdc               0.00     0.00 1536.00    0.00  6144.00     0.00     8.00     0.16    0.11    0.11    0.00   0.11  16.40
sdd               0.00     0.00 1515.00    0.00  6060.00     0.00     8.00     0.16    0.10    0.10    0.00   0.10  15.70
sde               0.00     0.00 1516.00    0.00  6064.00     0.00     8.00     0.16    0.10    0.10    0.00   0.10  15.70
sdf               0.00     0.00 1513.00    0.00  6052.00     0.00     8.00     0.14    0.09    0.09    0.00   0.09  13.50
sdg               0.00     0.00   21.00    0.00   132.00     0.00    12.57     0.00    0.05    0.05    0.00   0.05   0.10
sdh               0.00     0.00    0.00    0.00     0.00     0.00     0.00     0.00    0.00    0.00    0.00   0.00   0.00
md0               0.00     0.00 9179.00    0.00 36716.00     0.00     8.00     0.00    0.00    0.00    0.00   0.00   0.00

avg-cpu:  %user   %nice %system %iowait  %steal   %idle
          24.75    0.00    3.25   11.25    0.00   60.75

Device:         rrqm/s   wrqm/s     r/s     w/s    rkB/s    wkB/s avgrq-sz avgqu-sz   await r_await w_await  svctm  %util
sda               0.00     0.00 1600.00    0.00  6400.00     0.00     8.00     0.15    0.09    0.09    0.00   0.09  15.10
sdb               0.00     0.00 1541.00    0.00  6164.00     0.00     8.00     0.15    0.10    0.10    0.00   0.10  15.40
sdc               0.00     0.00 1544.00    0.00  6176.00     0.00     8.00     0.17    0.11    0.11    0.00   0.11  17.10
sdd               0.00     0.00 1549.00    0.00  6196.00     0.00     8.00     0.16    0.10    0.10    0.00   0.10  15.90
sde               0.00     0.00 1513.00    0.00  6052.00     0.00     8.00     0.18    0.12    0.12    0.00   0.12  17.90
sdf               0.00     0.00 1541.00    0.00  6164.00     0.00     8.00     0.13    0.08    0.08    0.00   0.08  12.80
sdg               0.00     0.00    0.00    0.00     0.00     0.00     0.00     0.00    0.00    0.00    0.00   0.00   0.00
sdh               0.00     0.00    0.00    0.00     0.00     0.00     0.00     0.00    0.00    0.00    0.00   0.00   0.00
md0               0.00     0.00 9288.00    0.00 37152.00     0.00     8.00     0.00    0.00    0.00    0.00   0.00   0.00

avg-cpu:  %user   %nice %system %iowait  %steal   %idle
          24.44    0.00    4.20   10.86    0.00   60.49

Device:         rrqm/s   wrqm/s     r/s     w/s    rkB/s    wkB/s avgrq-sz avgqu-sz   await r_await w_await  svctm  %util
sda               0.00     0.00 1492.00    0.00  5968.00     0.00     8.00     0.16    0.11    0.11    0.00   0.11  15.70
sdb               0.00     0.00 1539.00    0.00  6156.00     0.00     8.00     0.15    0.10    0.10    0.00   0.10  15.20
sdc               0.00     0.00 1520.00    0.00  6080.00     0.00     8.00     0.15    0.10    0.10    0.00   0.10  15.40
sdd               0.00     0.00 1533.00    0.00  6132.00     0.00     8.00     0.16    0.11    0.11    0.00   0.11  16.20
sde               0.00     0.00 1599.00    0.00  6396.00     0.00     8.00     0.14    0.09    0.09    0.00   0.09  14.20
sdf               0.00     0.00 1590.00    0.00  6360.00     0.00     8.00     0.17    0.11    0.11    0.00   0.11  16.80
sdg               0.00     0.00    0.00    0.00     0.00     0.00     0.00     0.00    0.00    0.00    0.00   0.00   0.00
sdh               0.00     0.00    0.00    0.00     0.00     0.00     0.00     0.00    0.00    0.00    0.00   0.00   0.00
md0               0.00     0.00 9273.00    0.00 37092.00     0.00     8.00     0.00    0.00    0.00    0.00   0.00   0.00

avg-cpu:  %user   %nice %system %iowait  %steal   %idle
          24.81    0.00    2.76    8.02    0.00   64.41

Device:         rrqm/s   wrqm/s     r/s     w/s    rkB/s    wkB/s avgrq-sz avgqu-sz   await r_await w_await  svctm  %util
sda               0.00     0.00 1518.00    0.00  6072.00     0.00     8.00     0.14    0.09    0.09    0.00   0.09  13.50
sdb               0.00     0.00 1581.00    0.00  6324.00     0.00     8.00     0.15    0.09    0.09    0.00   0.09  14.70
sdc               0.00     0.00 1523.00    0.00  6092.00     0.00     8.00     0.17    0.11    0.11    0.00   0.11  16.70
sdd               0.00     0.00 1560.00    0.00  6240.00     0.00     8.00     0.18    0.12    0.12    0.00   0.12  18.00
sde               0.00     0.00 1500.00    0.00  6000.00     0.00     8.00     0.17    0.11    0.11    0.00   0.11  16.90
sdf               0.00     0.00 1518.00    0.00  6072.00     0.00     8.00     0.14    0.09    0.09    0.00   0.09  14.10
sdg               0.00     0.00    0.00    0.00     0.00     0.00     0.00     0.00    0.00    0.00    0.00   0.00   0.00
sdh               0.00     0.00    0.00    0.00     0.00     0.00     0.00     0.00    0.00    0.00    0.00   0.00   0.00
md0               0.00     0.00 9201.00    0.00 36804.00     0.00     8.00     0.00    0.00    0.00    0.00   0.00   0.00

avg-cpu:  %user   %nice %system %iowait  %steal   %idle
          24.75    0.00    3.00   10.25    0.00   62.00

Device:         rrqm/s   wrqm/s     r/s     w/s    rkB/s    wkB/s avgrq-sz avgqu-sz   await r_await w_await  svctm  %util
sda               0.00     0.00 1636.00    0.00  6544.00     0.00     8.00     0.15    0.09    0.09    0.00   0.09  14.80
sdb               0.00     0.00 1559.00    0.00  6236.00     0.00     8.00     0.16    0.11    0.11    0.00   0.11  16.40
sdc               0.00     0.00 1561.00    0.00  6244.00     0.00     8.00     0.16    0.11    0.11    0.00   0.11  16.40
sdd               0.00     0.00 1531.00    0.00  6124.00     0.00     8.00     0.16    0.10    0.10    0.00   0.10  15.80
sde               0.00     0.00 1557.00    0.00  6228.00     0.00     8.00     0.16    0.10    0.10    0.00   0.10  16.00
sdf               0.00     0.00 1450.00    0.00  5800.00     0.00     8.00     0.14    0.10    0.10    0.00   0.10  14.30
sdg               0.00     0.00    0.00    0.00     0.00     0.00     0.00     0.00    0.00    0.00    0.00   0.00   0.00
sdh               0.00     0.00    0.00    0.00     0.00     0.00     0.00     0.00    0.00    0.00    0.00   0.00   0.00
md0               0.00     0.00 9293.00    0.00 37172.00     0.00     8.00     0.00    0.00    0.00    0.00   0.00   0.00

avg-cpu:  %user   %nice %system %iowait  %steal   %idle
          24.57    0.00    3.72   16.38    0.00   55.33

Device:         rrqm/s   wrqm/s     r/s     w/s    rkB/s    wkB/s avgrq-sz avgqu-sz   await r_await w_await  svctm  %util
sda               0.00     0.00 1568.00    0.00  6272.00     0.00     8.00     0.16    0.10    0.10    0.00   0.10  16.00
sdb               0.00     0.00 1553.00    0.00  6212.00     0.00     8.00     0.13    0.08    0.08    0.00   0.08  13.20
sdc               0.00     0.00 1471.00    0.00  5884.00     0.00     8.00     0.15    0.10    0.10    0.00   0.10  15.00
sdd               0.00     0.00 1509.00    0.00  6036.00     0.00     8.00     0.15    0.10    0.10    0.00   0.10  15.00
sde               0.00     0.00 1544.00    0.00  6176.00     0.00     8.00     0.16    0.11    0.11    0.00   0.11  16.30
sdf               0.00     0.00 1603.00    0.00  6412.00     0.00     8.00     0.18    0.11    0.11    0.00   0.11  18.40
sdg               0.00     0.00    0.00    0.00     0.00     0.00     0.00     0.00    0.00    0.00    0.00   0.00   0.00
sdh               0.00     0.00    0.00    0.00     0.00     0.00     0.00     0.00    0.00    0.00    0.00   0.00   0.00
md0               0.00     0.00 9248.00    0.00 36992.00     0.00     8.00     0.00    0.00    0.00    0.00   0.00   0.00

avg-cpu:  %user   %nice %system %iowait  %steal   %idle
          24.75    0.00    3.00   14.25    0.00   58.00

Device:         rrqm/s   wrqm/s     r/s     w/s    rkB/s    wkB/s avgrq-sz avgqu-sz   await r_await w_await  svctm  %util
sda               0.00     0.00 1536.00    0.00  6144.00     0.00     8.00     0.15    0.10    0.10    0.00   0.10  15.10
sdb               0.00     0.00 1508.00    0.00  6032.00     0.00     8.00     0.14    0.09    0.09    0.00   0.09  13.70
sdc               0.00     0.00 1488.00    0.00  5952.00     0.00     8.00     0.16    0.11    0.11    0.00   0.11  16.30
sdd               0.00     0.00 1476.00    0.00  5904.00     0.00     8.00     0.15    0.10    0.10    0.00   0.10  14.60
sde               0.00     0.00 1600.00    0.00  6400.00     0.00     8.00     0.18    0.12    0.12    0.00   0.12  18.40
sdf               0.00     0.00 1564.00    0.00  6256.00     0.00     8.00     0.15    0.10    0.10    0.00   0.10  15.20
sdg               0.00     0.00    0.00    0.00     0.00     0.00     0.00     0.00    0.00    0.00    0.00   0.00   0.00
sdh               0.00     0.00    0.00    0.00     0.00     0.00     0.00     0.00    0.00    0.00    0.00   0.00   0.00
md0               0.00     0.00 9171.00    0.00 36684.00     0.00     8.00     0.00    0.00    0.00    0.00   0.00   0.00

avg-cpu:  %user   %nice %system %iowait  %steal   %idle
          24.26    0.00    4.21   14.36    0.00   57.18

Device:         rrqm/s   wrqm/s     r/s     w/s    rkB/s    wkB/s avgrq-sz avgqu-sz   await r_await w_await  svctm  %util
sda               0.00     0.00 1566.00    0.00  6264.00     0.00     8.00     0.16    0.10    0.10    0.00   0.10  16.20
sdb               0.00     0.00 1535.00    0.00  6140.00     0.00     8.00     0.13    0.08    0.08    0.00   0.08  12.90
sdc               0.00     0.00 1582.00    0.00  6328.00     0.00     8.00     0.18    0.11    0.11    0.00   0.11  18.00
sdd               0.00     0.00 1468.00    0.00  5872.00     0.00     8.00     0.15    0.10    0.10    0.00   0.10  14.70
sde               0.00     0.00 1548.00    0.00  6192.00     0.00     8.00     0.16    0.11    0.11    0.00   0.11  16.30
sdf               0.00     0.00 1524.00    0.00  6096.00     0.00     8.00     0.15    0.10    0.10    0.00   0.10  14.80
sdg               0.00     0.00    0.00    0.00     0.00     0.00     0.00     0.00    0.00    0.00    0.00   0.00   0.00
sdh               0.00     0.00    0.00    0.00     0.00     0.00     0.00     0.00    0.00    0.00    0.00   0.00   0.00
md0               0.00     0.00 9224.00    0.00 36896.00     0.00     8.00     0.00    0.00    0.00    0.00   0.00   0.00

avg-cpu:  %user   %nice %system %iowait  %steal   %idle
          24.26    0.00    4.46   15.84    0.00   55.45

Device:         rrqm/s   wrqm/s     r/s     w/s    rkB/s    wkB/s avgrq-sz avgqu-sz   await r_await w_await  svctm  %util
sda               0.00     0.00 1518.00    0.00  6072.00     0.00     8.00     0.15    0.10    0.10    0.00   0.10  14.80
sdb               0.00     0.00 1519.00    0.00  6076.00     0.00     8.00     0.14    0.09    0.09    0.00   0.09  14.00
sdc               0.00     0.00 1551.00    0.00  6204.00     0.00     8.00     0.16    0.10    0.10    0.00   0.10  15.80
sdd               0.00     0.00 1620.00    0.00  6480.00     0.00     8.00     0.16    0.10    0.10    0.00   0.10  15.70
sde               0.00     0.00 1560.00    0.00  6240.00     0.00     8.00     0.15    0.09    0.09    0.00   0.09  14.60
sdf               0.00     0.00 1472.00    0.00  5888.00     0.00     8.00     0.17    0.12    0.12    0.00   0.12  17.20
sdg               0.00     0.00    0.00    0.00     0.00     0.00     0.00     0.00    0.00    0.00    0.00   0.00   0.00
sdh               0.00     0.00    0.00    0.00     0.00     0.00     0.00     0.00    0.00    0.00    0.00   0.00   0.00
md0               0.00     0.00 9239.00    0.00 36956.00     0.00     8.00     0.00    0.00    0.00    0.00   0.00   0.00

avg-cpu:  %user   %nice %system %iowait  %steal   %idle
          24.81    0.00    2.76   14.29    0.00   58.15

Device:         rrqm/s   wrqm/s     r/s     w/s    rkB/s    wkB/s avgrq-sz avgqu-sz   await r_await w_await  svctm  %util
sda               0.00     0.00 1570.00    0.00  6280.00     0.00     8.00     0.17    0.11    0.11    0.00   0.11  16.60
sdb               0.00     0.00 1573.00    0.00  6292.00     0.00     8.00     0.15    0.09    0.09    0.00   0.09  14.80
sdc               0.00     0.00 1550.00    0.00  6200.00     0.00     8.00     0.16    0.10    0.10    0.00   0.10  15.60
sdd               0.00     0.00 1555.00    0.00  6220.00     0.00     8.00     0.16    0.10    0.10    0.00   0.10  15.90
sde               0.00     0.00 1501.00    0.00  6004.00     0.00     8.00     0.17    0.11    0.11    0.00   0.11  16.70
sdf               0.00     0.00 1523.00    0.00  6092.00     0.00     8.00     0.14    0.09    0.09    0.00   0.09  14.40
sdg               0.00     1.00    5.00    2.00    20.00    36.00    16.00     0.01    1.14    0.00    4.00   1.14   0.80
sdh               0.00     0.00    0.00    0.00     0.00     0.00     0.00     0.00    0.00    0.00    0.00   0.00   0.00
md0               0.00     0.00 9272.00    0.00 37088.00     0.00     8.00     0.00    0.00    0.00    0.00   0.00   0.00

avg-cpu:  %user   %nice %system %iowait  %steal   %idle
          24.81    0.00    3.26   13.78    0.00   58.15

Device:         rrqm/s   wrqm/s     r/s     w/s    rkB/s    wkB/s avgrq-sz avgqu-sz   await r_await w_await  svctm  %util
sda               0.00     0.00 1543.00    0.00  6172.00     0.00     8.00     0.16    0.11    0.11    0.00   0.11  16.40
sdb               0.00     0.00 1440.00    0.00  5760.00     0.00     8.00     0.13    0.09    0.09    0.00   0.09  12.70
sdc               0.00     0.00 1539.00    0.00  6156.00     0.00     8.00     0.17    0.11    0.11    0.00   0.11  17.50
sdd               0.00     0.00 1553.00    0.00  6212.00     0.00     8.00     0.16    0.10    0.10    0.00   0.10  15.70
sde               0.00     0.00 1574.00    0.00  6296.00     0.00     8.00     0.14    0.09    0.09    0.00   0.09  14.10
sdf               0.00     0.00 1485.00    0.00  5940.00     0.00     8.00     0.18    0.12    0.12    0.00   0.12  17.70
sdg               0.00     0.00    3.00    0.00    12.00     0.00     8.00     0.00    0.00    0.00    0.00   0.00   0.00
sdh               0.00     0.00    0.00    0.00     0.00     0.00     0.00     0.00    0.00    0.00    0.00   0.00   0.00
md0               0.00     0.00 9135.00    0.00 36540.00     0.00     8.00     0.00    0.00    0.00    0.00   0.00   0.00

avg-cpu:  %user   %nice %system %iowait  %steal   %idle
          24.50    0.00    3.96   15.84    0.00   55.69

Device:         rrqm/s   wrqm/s     r/s     w/s    rkB/s    wkB/s avgrq-sz avgqu-sz   await r_await w_await  svctm  %util
sda               0.00     0.00 1592.00    0.00  6368.00     0.00     8.00     0.16    0.10    0.10    0.00   0.10  16.30
sdb               0.00     0.00 1565.00    0.00  6260.00     0.00     8.00     0.16    0.10    0.10    0.00   0.10  15.80
sdc               0.00     0.00 1516.00    0.00  6064.00     0.00     8.00     0.16    0.10    0.10    0.00   0.10  15.70
sdd               0.00     0.00 1506.00    0.00  6024.00     0.00     8.00     0.17    0.11    0.11    0.00   0.11  17.20
sde               0.00     0.00 1491.00    0.00  5964.00     0.00     8.00     0.16    0.11    0.11    0.00   0.11  16.30
sdf               0.00     0.00 1489.00    0.00  5956.00     0.00     8.00     0.12    0.08    0.08    0.00   0.08  12.40
sdg               0.00     0.00    0.00    0.00     0.00     0.00     0.00     0.00    0.00    0.00    0.00   0.00   0.00
sdh               0.00     0.00    0.00    0.00     0.00     0.00     0.00     0.00    0.00    0.00    0.00   0.00   0.00
md0               0.00     0.00 9158.00    0.00 36632.00     0.00     8.00     0.00    0.00    0.00    0.00   0.00   0.00

avg-cpu:  %user   %nice %system %iowait  %steal   %idle
          24.44    0.00    3.49   15.71    0.00   56.36

Device:         rrqm/s   wrqm/s     r/s     w/s    rkB/s    wkB/s avgrq-sz avgqu-sz   await r_await w_await  svctm  %util
sda               0.00     0.00 1547.00    0.00  6188.00     0.00     8.00     0.15    0.10    0.10    0.00   0.10  15.10
sdb               0.00     0.00 1498.00    0.00  5992.00     0.00     8.00     0.16    0.11    0.11    0.00   0.11  16.10
sdc               0.00     0.00 1516.00    0.00  6064.00     0.00     8.00     0.16    0.10    0.10    0.00   0.10  15.80
sdd               0.00     0.00 1626.00    0.00  6504.00     0.00     8.00     0.17    0.11    0.11    0.00   0.11  17.20
sde               0.00     0.00 1513.00    0.00  6052.00     0.00     8.00     0.14    0.09    0.09    0.00   0.09  14.30
sdf               0.00     0.00 1530.00    0.00  6120.00     0.00     8.00     0.15    0.10    0.10    0.00   0.10  14.70
sdg               0.00     0.00    0.00    0.00     0.00     0.00     0.00     0.00    0.00    0.00    0.00   0.00   0.00
sdh               0.00     0.00    0.00    0.00     0.00     0.00     0.00     0.00    0.00    0.00    0.00   0.00   0.00
md0               0.00     0.00 9230.00    0.00 36920.00     0.00     8.00     0.00    0.00    0.00    0.00   0.00   0.00

avg-cpu:  %user   %nice %system %iowait  %steal   %idle
          24.50    0.00    3.96   16.58    0.00   54.95

Device:         rrqm/s   wrqm/s     r/s     w/s    rkB/s    wkB/s avgrq-sz avgqu-sz   await r_await w_await  svctm  %util
sda               0.00     0.00 1433.00    0.00  5732.00     0.00     8.00     0.13    0.09    0.09    0.00   0.09  13.30
sdb               0.00     0.00 1552.00    0.00  6208.00     0.00     8.00     0.15    0.10    0.10    0.00   0.10  14.80
sdc               0.00     0.00 1549.00    0.00  6196.00     0.00     8.00     0.16    0.10    0.10    0.00   0.10  15.90
sdd               0.00     0.00 1560.00    0.00  6240.00     0.00     8.00     0.15    0.10    0.10    0.00   0.10  15.50
sde               0.00     0.00 1572.00    0.00  6288.00     0.00     8.00     0.18    0.11    0.11    0.00   0.11  17.80
sdf               0.00     0.00 1554.00    0.00  6216.00     0.00     8.00     0.16    0.10    0.10    0.00   0.10  15.60
sdg               0.00     0.00    0.00    0.00     0.00     0.00     0.00     0.00    0.00    0.00    0.00   0.00   0.00
sdh               0.00     0.00    0.00    0.00     0.00     0.00     0.00     0.00    0.00    0.00    0.00   0.00   0.00
md0               0.00     0.00 9221.00    0.00 36884.00     0.00     8.00     0.00    0.00    0.00    0.00   0.00   0.00

avg-cpu:  %user   %nice %system %iowait  %steal   %idle
          24.62    0.00    3.52   13.32    0.00   58.54

Device:         rrqm/s   wrqm/s     r/s     w/s    rkB/s    wkB/s avgrq-sz avgqu-sz   await r_await w_await  svctm  %util
sda               0.00     0.00 1551.00    0.00  6204.00     0.00     8.00     0.12    0.08    0.08    0.00   0.08  12.30
sdb               0.00     0.00 1497.00    0.00  5988.00     0.00     8.00     0.14    0.10    0.10    0.00   0.10  14.30
sdc               0.00     0.00 1602.00    0.00  6408.00     0.00     8.00     0.17    0.11    0.11    0.00   0.11  17.30
sdd               0.00     0.00 1568.00    0.00  6272.00     0.00     8.00     0.15    0.10    0.10    0.00   0.10  15.40
sde               0.00     0.00 1473.00    0.00  5892.00     0.00     8.00     0.15    0.10    0.10    0.00   0.10  15.40
sdf               0.00     0.00 1464.00    0.00  5856.00     0.00     8.00     0.17    0.11    0.11    0.00   0.11  16.80
sdg               0.00     0.00    0.00 2563.00     0.00 12684.00     9.90    15.99    6.24    0.00    6.24   0.04  11.50
sdh               0.00     0.00    0.00    0.00     0.00     0.00     0.00     0.00    0.00    0.00    0.00   0.00   0.00
md0               0.00     0.00 9155.00    0.00 36620.00     0.00     8.00     0.00    0.00    0.00    0.00   0.00   0.00

