Linux 4.17.2 (bench) 	08/03/2018 	_x86_64_	(4 CPU)

avg-cpu:  %user   %nice %system %iowait  %steal   %idle
          10.29    0.02    4.00    2.47    0.00   83.22

Device:         rrqm/s   wrqm/s     r/s     w/s    rkB/s    wkB/s avgrq-sz avgqu-sz   await r_await w_await  svctm  %util
sda              41.50     4.27 1614.30  103.36 20682.53  3154.01    27.75     1.03    0.60    0.26    5.91   0.06  10.55
sdb              41.40     4.23 1614.19  103.50 20671.96  3150.64    27.74     1.02    0.60    0.26    5.85   0.06  10.43
sdc              79.48     4.29 1574.03  103.04 20664.16  3153.12    28.40     1.44    0.86    0.45    7.12   0.08  13.86
sdd              72.83     4.26 1579.83  103.11 20648.85  3149.29    28.28     1.45    0.86    0.44    7.32   0.08  13.95
sde              74.90     4.30 1584.96  103.21 20709.40  3153.57    28.27     1.47    0.87    0.44    7.43   0.08  13.97
sdf              71.99     4.27 1587.13  103.15 20690.40  3150.41    28.21     1.52    0.90    0.44    7.90   0.08  14.00
sdg               0.00     3.18   25.96   73.33   322.53   391.96    14.39     0.44    4.43    0.20    5.93   0.08   0.78
sdh               0.00     0.13    0.02    0.24     2.23     5.10    56.82     0.00    1.15    0.65    1.19   0.21   0.01
md0               0.00     0.00 9942.74  484.20 141582.72 21596.16    31.30     0.00    0.00    0.00    0.00   0.00   0.00

avg-cpu:  %user   %nice %system %iowait  %steal   %idle
          21.77    0.25    7.59   16.96    0.00   53.42

Device:         rrqm/s   wrqm/s     r/s     w/s    rkB/s    wkB/s avgrq-sz avgqu-sz   await r_await w_await  svctm  %util
sda              69.00     0.00 1107.00    0.00 67504.00     0.00   121.96     0.68    0.62    0.62    0.00   0.22  24.90
sdb              73.00     0.00 1039.00    0.00 67660.00     0.00   130.24     0.68    0.65    0.65    0.00   0.22  23.30
sdc              68.00     0.00 1049.00    0.00 64400.00     0.00   122.78     0.89    0.85    0.85    0.00   0.33  34.30
sdd              72.00     0.00 1134.00    0.00 67924.00     0.00   119.80     1.16    1.02    1.02    0.00   0.30  34.50
sde              69.00     0.00 1158.00    0.00 67036.00     0.00   115.78     1.07    0.93    0.93    0.00   0.31  35.60
sdf              70.00     0.00 1192.00    0.00 68156.00     0.00   114.36     1.15    0.96    0.96    0.00   0.32  38.60
sdg               0.00     0.00   28.00    0.00   296.00     0.00    21.14     0.00    0.07    0.07    0.00   0.07   0.20
sdh               0.00     0.00    0.00    0.00     0.00     0.00     0.00     0.00    0.00    0.00    0.00   0.00   0.00
md0               0.00     0.00 7101.00    0.00 527248.00     0.00   148.50     0.00    0.00    0.00    0.00   0.00   0.00

avg-cpu:  %user   %nice %system %iowait  %steal   %idle
          24.06    0.00    3.51   21.30    0.00   51.13

Device:         rrqm/s   wrqm/s     r/s     w/s    rkB/s    wkB/s avgrq-sz avgqu-sz   await r_await w_await  svctm  %util
sda              68.00     0.00  703.00    0.00 53952.00     0.00   153.49     0.24    0.34    0.34    0.00   0.29  20.10
sdb              74.00     0.00  697.00    0.00 55248.00     0.00   158.53     0.25    0.36    0.36    0.00   0.30  20.90
sdc              66.00     0.00  735.00    0.00 52032.00     0.00   141.58     0.37    0.50    0.50    0.00   0.39  28.80
sdd              67.00     0.00  772.00    0.00 51448.00     0.00   133.28     0.37    0.49    0.49    0.00   0.38  29.10
sde              67.00     0.00  723.00    0.00 52208.00     0.00   144.42     0.39    0.54    0.54    0.00   0.40  29.10
sdf              60.00     0.00  798.00    0.00 52732.00     0.00   132.16     0.42    0.53    0.53    0.00   0.41  32.50
sdg               0.00     0.00    0.00    0.00     0.00     0.00     0.00     0.00    0.00    0.00    0.00   0.00   0.00
sdh               0.00     0.00    0.00    0.00     0.00     0.00     0.00     0.00    0.00    0.00    0.00   0.00   0.00
md0               0.00     0.00 4832.00    0.00 426228.00     0.00   176.42     0.00    0.00    0.00    0.00   0.00   0.00

avg-cpu:  %user   %nice %system %iowait  %steal   %idle
          24.24    0.00    3.03   21.21    0.00   51.52

Device:         rrqm/s   wrqm/s     r/s     w/s    rkB/s    wkB/s avgrq-sz avgqu-sz   await r_await w_await  svctm  %util
sda              84.00     0.00  620.00    0.00 61356.00     0.00   197.92     0.28    0.45    0.45    0.00   0.35  21.40
sdb              78.00     0.00  717.00    0.00 61008.00     0.00   170.18     0.29    0.41    0.41    0.00   0.31  22.30
sdc              80.00     0.00  708.00    0.00 60256.00     0.00   170.21     0.45    0.63    0.63    0.00   0.47  33.00
sdd              78.00     0.00  716.00    0.00 61228.00     0.00   171.03     0.45    0.63    0.63    0.00   0.46  32.80
sde              78.00     0.00  727.00    0.00 59268.00     0.00   163.05     0.44    0.61    0.61    0.00   0.44  31.90
sdf              83.00     0.00  686.00    0.00 62400.00     0.00   181.92     0.49    0.71    0.71    0.00   0.53  36.60
sdg               0.00     0.00    0.00    0.00     0.00     0.00     0.00     0.00    0.00    0.00    0.00   0.00   0.00
sdh               0.00     0.00    0.00    0.00     0.00     0.00     0.00     0.00    0.00    0.00    0.00   0.00   0.00
md0               0.00     0.00 4660.00    0.00 518564.00     0.00   222.56     0.00    0.00    0.00    0.00   0.00   0.00

avg-cpu:  %user   %nice %system %iowait  %steal   %idle
          23.87    0.00    3.52    4.52    0.00   68.09

Device:         rrqm/s   wrqm/s     r/s     w/s    rkB/s    wkB/s avgrq-sz avgqu-sz   await r_await w_await  svctm  %util
sda              84.00     0.00  710.00    0.00 60740.00     0.00   171.10     0.31    0.44    0.44    0.00   0.34  23.80
sdb              89.00     0.00  705.00    0.00 61072.00     0.00   173.25     0.29    0.41    0.41    0.00   0.33  23.10
sdc              90.00     0.00  661.00    0.00 63372.00     0.00   191.75     0.47    0.71    0.71    0.00   0.49  32.50
sdd              92.00     0.00  654.00    0.00 63004.00     0.00   192.67     0.51    0.77    0.77    0.00   0.52  34.00
sde              91.00     0.00  611.00    0.00 62876.00     0.00   205.81     0.51    0.83    0.83    0.00   0.55  33.70
sdf              86.00     0.00  692.00    0.00 61020.00     0.00   176.36     0.53    0.76    0.76    0.00   0.52  35.80
sdg               0.00     0.00    0.00    0.00     0.00     0.00     0.00     0.00    0.00    0.00    0.00   0.00   0.00
sdh               0.00     0.00    0.00    0.00     0.00     0.00     0.00     0.00    0.00    0.00    0.00   0.00   0.00
md0               0.00     0.00 4559.00    0.00 531300.00     0.00   233.08     0.00    0.00    0.00    0.00   0.00   0.00

avg-cpu:  %user   %nice %system %iowait  %steal   %idle
          23.80    0.00    3.54    3.04    0.00   69.62

Device:         rrqm/s   wrqm/s     r/s     w/s    rkB/s    wkB/s avgrq-sz avgqu-sz   await r_await w_await  svctm  %util
sda             110.00     0.00  664.00    0.00 71164.00     0.00   214.35     0.38    0.57    0.57    0.00   0.40  26.70
sdb             108.00     0.00  739.00    0.00 70412.00     0.00   190.56     0.38    0.51    0.51    0.00   0.37  27.40
sdc             110.00     0.00  640.00    0.00 71408.00     0.00   223.15     0.56    0.87    0.87    0.00   0.57  36.80
sdd             112.00     0.00  644.00    0.00 71944.00     0.00   223.43     0.58    0.89    0.89    0.00   0.61  39.10
sde             118.00     0.00  600.00    0.00 73384.00     0.00   244.61     0.56    0.92    0.92    0.00   0.63  38.00
sdf             119.00     0.00  619.00    0.00 72816.00     0.00   235.27     0.59    0.95    0.95    0.00   0.65  40.00
sdg               0.00     0.00    0.00    0.00     0.00     0.00     0.00     0.00    0.00    0.00    0.00   0.00   0.00
sdh               0.00     0.00    0.00    0.00     0.00     0.00     0.00     0.00    0.00    0.00    0.00   0.00   0.00
md0               0.00     0.00 4586.00    0.00 599196.00     0.00   261.32     0.00    0.00    0.00    0.00   0.00   0.00

avg-cpu:  %user   %nice %system %iowait  %steal   %idle
          24.49    0.00    2.53    2.27    0.00   70.71

Device:         rrqm/s   wrqm/s     r/s     w/s    rkB/s    wkB/s avgrq-sz avgqu-sz   await r_await w_await  svctm  %util
sda              83.00     0.00  691.00    0.00 56788.00     0.00   164.36     0.30    0.43    0.43    0.00   0.32  22.20
sdb              74.00     0.00  760.00    0.00 58224.00     0.00   153.22     0.32    0.43    0.43    0.00   0.31  23.80
sdc              87.00     0.00  639.00    0.00 61476.00     0.00   192.41     0.47    0.74    0.74    0.00   0.50  31.70
sdd              87.00     0.00  616.00    0.00 62268.00     0.00   202.17     0.47    0.77    0.77    0.00   0.53  32.60
sde              80.00     0.00  658.00    0.00 58988.00     0.00   179.29     0.46    0.70    0.70    0.00   0.48  31.80
sdf              89.00     0.00  668.00    0.00 59932.00     0.00   179.44     0.50    0.77    0.77    0.00   0.54  36.40
sdg               0.00     0.00    0.00    0.00     0.00     0.00     0.00     0.00    0.00    0.00    0.00   0.00   0.00
sdh               0.00     0.00    0.00    0.00     0.00     0.00     0.00     0.00    0.00    0.00    0.00   0.00   0.00
md0               0.00     0.00 4528.00    0.00 492668.00     0.00   217.61     0.00    0.00    0.00    0.00   0.00   0.00

avg-cpu:  %user   %nice %system %iowait  %steal   %idle
          24.31    0.00    3.51   21.05    0.00   51.13

Device:         rrqm/s   wrqm/s     r/s     w/s    rkB/s    wkB/s avgrq-sz avgqu-sz   await r_await w_await  svctm  %util
sda              87.00     0.00  713.00    0.00 61196.00     0.00   171.66     0.28    0.39    0.39    0.00   0.31  22.40
sdb              81.00     0.00  717.00    0.00 60616.00     0.00   169.08     0.27    0.38    0.38    0.00   0.31  22.20
sdc              83.00     0.00  736.00    0.00 60664.00     0.00   164.85     0.44    0.59    0.59    0.00   0.45  32.80
sdd              88.00     0.00  714.00    0.00 62192.00     0.00   174.21     0.43    0.61    0.61    0.00   0.47  33.30
sde              84.00     0.00  771.00    0.00 61948.00     0.00   160.70     0.44    0.57    0.57    0.00   0.44  33.60
sdf              86.00     0.00  702.00    0.00 61180.00     0.00   174.30     0.44    0.62    0.62    0.00   0.49  34.40
sdg               0.00     0.00    0.00    0.00     0.00     0.00     0.00     0.00    0.00    0.00    0.00   0.00   0.00
sdh               0.00     0.00    0.00    0.00     0.00     0.00     0.00     0.00    0.00    0.00    0.00   0.00   0.00
md0               0.00     0.00 4863.00    0.00 499228.00     0.00   205.32     0.00    0.00    0.00    0.00   0.00   0.00

avg-cpu:  %user   %nice %system %iowait  %steal   %idle
          23.99    0.00    3.03    5.81    0.00   67.17

Device:         rrqm/s   wrqm/s     r/s     w/s    rkB/s    wkB/s avgrq-sz avgqu-sz   await r_await w_await  svctm  %util
sda              77.00     0.00  733.00    0.00 55292.00     0.00   150.86     0.29    0.39    0.39    0.00   0.29  21.30
sdb              73.00     0.00  761.00    0.00 55496.00     0.00   145.85     0.30    0.40    0.40    0.00   0.30  22.60
sdc              72.00     0.00  734.00    0.00 55448.00     0.00   151.08     0.44    0.60    0.60    0.00   0.42  30.60
sdd              79.00     0.00  692.00    0.00 57648.00     0.00   166.61     0.44    0.64    0.64    0.00   0.45  31.10
sde              84.00     0.00  652.00    0.00 56972.00     0.00   174.76     0.45    0.70    0.70    0.00   0.46  29.90
sdf              81.00     0.00  672.00    0.00 56756.00     0.00   168.92     0.50    0.75    0.75    0.00   0.50  33.30
sdg               0.00     0.00    0.00    0.00     0.00     0.00     0.00     0.00    0.00    0.00    0.00   0.00   0.00
sdh               0.00     0.00    0.00    0.00     0.00     0.00     0.00     0.00    0.00    0.00    0.00   0.00   0.00
md0               0.00     0.00 4714.00    0.00 484944.00     0.00   205.75     0.00    0.00    0.00    0.00   0.00   0.00

avg-cpu:  %user   %nice %system %iowait  %steal   %idle
          24.24    0.00    3.03   14.39    0.00   58.33

Device:         rrqm/s   wrqm/s     r/s     w/s    rkB/s    wkB/s avgrq-sz avgqu-sz   await r_await w_await  svctm  %util
sda             107.00     0.00  652.00    0.00 72864.00     0.00   223.51     0.38    0.58    0.58    0.00   0.40  26.30
sdb             112.00     0.00  694.00    0.00 73136.00     0.00   210.77     0.37    0.53    0.53    0.00   0.37  25.60
sdc             106.00     0.00  653.00    0.00 71108.00     0.00   217.79     0.63    0.97    0.97    0.00   0.58  37.90
sdd             107.00     0.00  650.00    0.00 72568.00     0.00   223.29     0.61    0.94    0.94    0.00   0.58  37.60
sde             111.00     0.00  655.00    0.00 71808.00     0.00   219.26     0.62    0.95    0.95    0.00   0.59  38.40
sdf             107.00     0.00  706.00    0.00 70076.00     0.00   198.52     0.66    0.93    0.93    0.00   0.58  40.60
sdg               0.00     0.00    0.00    0.00     0.00     0.00     0.00     0.00    0.00    0.00    0.00   0.00   0.00
sdh               0.00     0.00    0.00    0.00     0.00     0.00     0.00     0.00    0.00    0.00    0.00   0.00   0.00
md0               0.00     0.00 4655.00    0.00 619440.00     0.00   266.14     0.00    0.00    0.00    0.00   0.00   0.00

avg-cpu:  %user   %nice %system %iowait  %steal   %idle
          24.24    0.00    3.03   21.21    0.00   51.52

Device:         rrqm/s   wrqm/s     r/s     w/s    rkB/s    wkB/s avgrq-sz avgqu-sz   await r_await w_await  svctm  %util
sda              66.00     0.00  734.00    0.00 55116.00     0.00   150.18     0.27    0.37    0.37    0.00   0.30  21.90
sdb              62.00     0.00  823.00    0.00 52748.00     0.00   128.18     0.28    0.34    0.34    0.00   0.27  21.90
sdc              72.00     0.00  620.00    0.00 57556.00     0.00   185.66     0.40    0.64    0.64    0.00   0.48  29.70
sdd              75.00     0.00  707.00    0.00 56952.00     0.00   161.11     0.42    0.59    0.59    0.00   0.43  30.50
sde              72.00     0.00  721.00    0.00 56832.00     0.00   157.65     0.42    0.59    0.59    0.00   0.43  31.30
sdf              78.00     0.00  741.00    0.00 55732.00     0.00   150.42     0.45    0.61    0.61    0.00   0.46  34.10
sdg               0.00     0.00    0.00    0.00     0.00     0.00     0.00     0.00    0.00    0.00    0.00   0.00   0.00
sdh               0.00     0.00    0.00    0.00     0.00     0.00     0.00     0.00    0.00    0.00    0.00   0.00   0.00
md0               0.00     0.00 4772.00    0.00 454132.00     0.00   190.33     0.00    0.00    0.00    0.00   0.00   0.00

avg-cpu:  %user   %nice %system %iowait  %steal   %idle
          24.12    0.00    3.77    8.04    0.00   64.07

Device:         rrqm/s   wrqm/s     r/s     w/s    rkB/s    wkB/s avgrq-sz avgqu-sz   await r_await w_await  svctm  %util
sda              86.00     0.00  633.00    0.00 62856.00     0.00   198.60     0.29    0.46    0.46    0.00   0.37  23.30
sdb              89.00     0.00  664.00    0.00 61864.00     0.00   186.34     0.29    0.43    0.43    0.00   0.34  22.30
sdc              90.00     0.00  600.00    0.00 63576.00     0.00   211.92     0.44    0.74    0.74    0.00   0.56  33.30
sdd              94.00     0.00  609.00    0.00 63020.00     0.00   206.96     0.44    0.72    0.72    0.00   0.54  33.00
sde              87.00     0.00  702.00    0.00 61104.00     0.00   174.09     0.44    0.62    0.62    0.00   0.48  33.80
sdf              84.00     0.00  718.00    0.00 61504.00     0.00   171.32     0.47    0.65    0.65    0.00   0.51  36.60
sdg               0.00     3.00    6.00    2.00    24.00    44.00    17.00     0.00    0.00    0.00    0.00   0.00   0.00
sdh               0.00     0.00    0.00    0.00     0.00     0.00     0.00     0.00    0.00    0.00    0.00   0.00   0.00
md0               0.00     0.00 4456.00    0.00 526548.00     0.00   236.33     0.00    0.00    0.00    0.00   0.00   0.00

avg-cpu:  %user   %nice %system %iowait  %steal   %idle
          24.12    0.00    3.27    3.02    0.00   69.60

Device:         rrqm/s   wrqm/s     r/s     w/s    rkB/s    wkB/s avgrq-sz avgqu-sz   await r_await w_await  svctm  %util
sda              94.00     0.00  711.00    0.00 67100.00     0.00   188.75     0.33    0.46    0.46    0.00   0.33  23.20
sdb              96.00     0.00  688.00    0.00 67304.00     0.00   195.65     0.34    0.49    0.49    0.00   0.35  24.20
sdc             104.00     0.00  621.00    0.00 69892.00     0.00   225.10     0.51    0.82    0.82    0.00   0.58  36.00
sdd             105.00     0.00  624.00    0.00 68268.00     0.00   218.81     0.50    0.80    0.80    0.00   0.55  34.60
sde             107.00     0.00  612.00    0.00 67852.00     0.00   221.74     0.51    0.83    0.83    0.00   0.55  33.80
sdf              99.00     0.00  705.00    0.00 67928.00     0.00   192.70     0.57    0.81    0.81    0.00   0.55  38.50
sdg               0.00     0.00    0.00    0.00     0.00     0.00     0.00     0.00    0.00    0.00    0.00   0.00   0.00
sdh               0.00     0.00    0.00    0.00     0.00     0.00     0.00     0.00    0.00    0.00    0.00   0.00   0.00
md0               0.00     0.00 4565.00    0.00 603400.00     0.00   264.36     0.00    0.00    0.00    0.00   0.00   0.00

avg-cpu:  %user   %nice %system %iowait  %steal   %idle
          23.74    0.00    3.79    3.03    0.00   69.44

Device:         rrqm/s   wrqm/s     r/s     w/s    rkB/s    wkB/s avgrq-sz avgqu-sz   await r_await w_await  svctm  %util
sda              95.00     0.00  680.00    0.00 65160.00     0.00   191.65     0.33    0.48    0.48    0.00   0.35  23.70
sdb              97.00     0.00  631.00    0.00 64832.00     0.00   205.49     0.33    0.52    0.52    0.00   0.37  23.10
sdc              94.00     0.00  723.00    0.00 64668.00     0.00   178.89     0.53    0.74    0.74    0.00   0.48  34.90
sdd              98.00     0.00  699.00    0.00 66792.00     0.00   191.11     0.57    0.81    0.81    0.00   0.52  36.20
sde             104.00     0.00  686.00    0.00 65380.00     0.00   190.61     0.55    0.80    0.80    0.00   0.51  35.10
sdf              97.00     0.00  653.00    0.00 65932.00     0.00   201.94     0.61    0.93    0.93    0.00   0.59  38.80
sdg               0.00     0.00    0.00    0.00     0.00     0.00     0.00     0.00    0.00    0.00    0.00   0.00   0.00
sdh               0.00     0.00    0.00    0.00     0.00     0.00     0.00     0.00    0.00    0.00    0.00   0.00   0.00
md0               0.00     0.00 4658.00    0.00 525904.00     0.00   225.81     0.00    0.00    0.00    0.00   0.00   0.00

avg-cpu:  %user   %nice %system %iowait  %steal   %idle
          24.43    0.00    3.02    2.02    0.00   70.53

Device:         rrqm/s   wrqm/s     r/s     w/s    rkB/s    wkB/s avgrq-sz avgqu-sz   await r_await w_await  svctm  %util
sda              81.00     0.00  675.00    0.00 59832.00     0.00   177.28     0.28    0.41    0.41    0.00   0.33  22.40
sdb              84.00     0.00  646.00    0.00 60412.00     0.00   187.03     0.28    0.43    0.43    0.00   0.35  22.70
sdc              90.00     0.00  604.00    0.00 61424.00     0.00   203.39     0.43    0.71    0.71    0.00   0.51  31.00
sdd              79.00     0.00  739.00    0.00 58740.00     0.00   158.97     0.45    0.61    0.61    0.00   0.42  31.40
sde              73.00     0.00  675.00    0.00 59048.00     0.00   174.96     0.43    0.64    0.64    0.00   0.47  31.50
sdf              81.00     0.00  708.00    0.00 58420.00     0.00   165.03     0.47    0.66    0.66    0.00   0.50  35.10
sdg               0.00     0.00    0.00    0.00     0.00     0.00     0.00     0.00    0.00    0.00    0.00   0.00   0.00
sdh               0.00     0.00    0.00    0.00     0.00     0.00     0.00     0.00    0.00    0.00    0.00   0.00   0.00
md0               0.00     0.00 4535.00    0.00 501136.00     0.00   221.01     0.00    0.00    0.00    0.00   0.00   0.00

avg-cpu:  %user   %nice %system %iowait  %steal   %idle
          23.68    0.00    3.53    2.27    0.00   70.53

Device:         rrqm/s   wrqm/s     r/s     w/s    rkB/s    wkB/s avgrq-sz avgqu-sz   await r_await w_await  svctm  %util
sda              74.00     0.00  735.00    0.00 58240.00     0.00   158.48     0.30    0.40    0.40    0.00   0.31  22.70
sdb              75.00     0.00  758.00    0.00 55312.00     0.00   145.94     0.28    0.37    0.37    0.00   0.29  22.00
sdc              82.00     0.00  710.00    0.00 59292.00     0.00   167.02     0.43    0.61    0.61    0.00   0.47  33.30
sdd              84.00     0.00  660.00    0.00 58520.00     0.00   177.33     0.42    0.63    0.63    0.00   0.47  31.10
sde              77.00     0.00  740.00    0.00 58196.00     0.00   157.29     0.43    0.58    0.58    0.00   0.43  31.50
sdf              76.00     0.00  735.00    0.00 57048.00     0.00   155.23     0.43    0.58    0.58    0.00   0.43  31.70
sdg               0.00     0.00    0.00    0.00     0.00     0.00     0.00     0.00    0.00    0.00    0.00   0.00   0.00
sdh               0.00     0.00    0.00    0.00     0.00     0.00     0.00     0.00    0.00    0.00    0.00   0.00   0.00
md0               0.00     0.00 4805.00    0.00 488664.00     0.00   203.40     0.00    0.00    0.00    0.00   0.00   0.00

avg-cpu:  %user   %nice %system %iowait  %steal   %idle
          24.18    0.00    3.27    2.27    0.00   70.28

Device:         rrqm/s   wrqm/s     r/s     w/s    rkB/s    wkB/s avgrq-sz avgqu-sz   await r_await w_await  svctm  %util
sda              77.00     0.00  739.00    0.00 58136.00     0.00   157.34     0.27    0.37    0.37    0.00   0.31  22.80
sdb              73.00     0.00  731.00    0.00 56508.00     0.00   154.60     0.27    0.37    0.37    0.00   0.31  22.60
sdc              77.00     0.00  718.00    0.00 56656.00     0.00   157.82     0.42    0.58    0.58    0.00   0.45  32.40
sdd              80.00     0.00  733.00    0.00 55668.00     0.00   151.89     0.40    0.55    0.55    0.00   0.41  30.10
sde              79.00     0.00  676.00    0.00 58100.00     0.00   171.89     0.42    0.63    0.63    0.00   0.47  31.60
sdf              77.00     0.00  667.00    0.00 58612.00     0.00   175.75     0.42    0.63    0.63    0.00   0.47  31.10
sdg               0.00     0.00    1.00    2.00     4.00    20.00    16.00     0.00    0.00    0.00    0.00   0.00   0.00
sdh               0.00     0.00    0.00    0.00     0.00     0.00     0.00     0.00    0.00    0.00    0.00   0.00   0.00
md0               0.00     0.00 4727.00    0.00 476940.00     0.00   201.79     0.00    0.00    0.00    0.00   0.00   0.00

avg-cpu:  %user   %nice %system %iowait  %steal   %idle
          24.18    0.00    3.27    2.52    0.00   70.03

Device:         rrqm/s   wrqm/s     r/s     w/s    rkB/s    wkB/s avgrq-sz avgqu-sz   await r_await w_await  svctm  %util
sda              90.00     0.00  646.00    0.00 61332.00     0.00   189.88     0.31    0.48    0.48    0.00   0.35  22.30
sdb              83.00     0.00  699.00    0.00 59164.00     0.00   169.28     0.32    0.46    0.46    0.00   0.33  23.00
sdc              80.00     0.00  774.00    0.00 56028.00     0.00   144.78     0.50    0.64    0.64    0.00   0.44  34.30
sdd              78.00     0.00  796.00    0.00 56320.00     0.00   141.51     0.48    0.59    0.59    0.00   0.42  33.40
sde              81.00     0.00  739.00    0.00 58900.00     0.00   159.40     0.48    0.64    0.64    0.00   0.45  33.20
sdf              89.00     0.00  701.00    0.00 60096.00     0.00   171.46     0.50    0.68    0.68    0.00   0.48  33.30
sdg               0.00     0.00    0.00    0.00     0.00     0.00     0.00     0.00    0.00    0.00    0.00   0.00   0.00
sdh               0.00     0.00    0.00    0.00     0.00     0.00     0.00     0.00    0.00    0.00    0.00   0.00   0.00
md0               0.00     0.00 4864.00    0.00 499848.00     0.00   205.53     0.00    0.00    0.00    0.00   0.00   0.00

avg-cpu:  %user   %nice %system %iowait  %steal   %idle
          23.80    0.00    3.29    3.80    0.00   69.11

Device:         rrqm/s   wrqm/s     r/s     w/s    rkB/s    wkB/s avgrq-sz avgqu-sz   await r_await w_await  svctm  %util
sda              95.00     0.00  702.00    0.00 64932.00     0.00   184.99     0.33    0.46    0.46    0.00   0.34  24.20
sdb              97.00     0.00  672.00    0.00 66676.00     0.00   198.44     0.32    0.47    0.47    0.00   0.35  23.80
sdc              99.00     0.00  651.00    0.00 68552.00     0.00   210.61     0.53    0.83    0.83    0.00   0.60  38.90
sdd             100.00     0.00  615.00    0.00 69100.00     0.00   224.72     0.51    0.85    0.85    0.00   0.58  35.60
sde              99.00     0.00  663.00    0.00 67812.00     0.00   204.56     0.53    0.82    0.82    0.00   0.54  35.70
sdf             103.00     0.00  630.00    0.00 68788.00     0.00   218.37     0.52    0.85    0.85    0.00   0.56  35.20
sdg               0.00     0.00    0.00    0.00     0.00     0.00     0.00     0.00    0.00    0.00    0.00   0.00   0.00
sdh               0.00     0.00    0.00    0.00     0.00     0.00     0.00     0.00    0.00    0.00    0.00   0.00   0.00
md0               0.00     0.00 4519.00    0.00 557600.00     0.00   246.78     0.00    0.00    0.00    0.00   0.00   0.00

avg-cpu:  %user   %nice %system %iowait  %steal   %idle
          23.81    0.00    4.26   20.80    0.00   51.13

Device:         rrqm/s   wrqm/s     r/s     w/s    rkB/s    wkB/s avgrq-sz avgqu-sz   await r_await w_await  svctm  %util
sda              95.00     0.00  686.00    0.00 65260.00     0.00   190.26     0.32    0.47    0.47    0.00   0.36  24.70
sdb              96.00     0.00  716.00    0.00 66564.00     0.00   185.93     0.32    0.45    0.45    0.00   0.34  24.70
sdc              95.00     0.00  666.00    0.00 64852.00     0.00   194.75     0.53    0.79    0.79    0.00   0.55  36.70
sdd              96.00     0.00  751.00    0.00 65844.00     0.00   175.35     0.51    0.68    0.68    0.00   0.47  35.20
sde              96.00     0.00  705.00    0.00 66216.00     0.00   187.85     0.50    0.71    0.71    0.00   0.51  35.70
sdf              96.00     0.00  647.00    0.00 67356.00     0.00   208.21     0.53    0.81    0.81    0.00   0.55  35.30
sdg               0.00     0.00    0.00    0.00     0.00     0.00     0.00     0.00    0.00    0.00    0.00   0.00   0.00
sdh               0.00     0.00    0.00    0.00     0.00     0.00     0.00     0.00    0.00    0.00    0.00   0.00   0.00
md0               0.00     0.00 4745.00    0.00 549992.00     0.00   231.82     0.00    0.00    0.00    0.00   0.00   0.00

avg-cpu:  %user   %nice %system %iowait  %steal   %idle
          24.24    0.00    3.79    2.78    0.00   69.19

Device:         rrqm/s   wrqm/s     r/s     w/s    rkB/s    wkB/s avgrq-sz avgqu-sz   await r_await w_await  svctm  %util
sda              83.00     0.00  680.00    0.00 60576.00     0.00   178.16     0.30    0.45    0.45    0.00   0.35  23.60
sdb              86.00     0.00  655.00    0.00 60476.00     0.00   184.66     0.29    0.45    0.45    0.00   0.34  22.50
sdc              82.00     0.00  703.00    0.00 59716.00     0.00   169.89     0.49    0.70    0.70    0.00   0.50  35.50
sdd              79.00     0.00  725.00    0.00 59296.00     0.00   163.58     0.47    0.64    0.64    0.00   0.46  33.20
sde              85.00     0.00  688.00    0.00 59156.00     0.00   171.97     0.46    0.66    0.66    0.00   0.49  33.40
sdf              85.00     0.00  689.00    0.00 58844.00     0.00   170.81     0.45    0.65    0.65    0.00   0.46  31.80
sdg               0.00     0.00    1.00    8.00    16.00   160.00    39.11     0.00    0.44    0.00    0.50   0.11   0.10
sdh               0.00     0.00    0.00    0.00     0.00     0.00     0.00     0.00    0.00    0.00    0.00   0.00   0.00
md0               0.00     0.00 4641.00    0.00 489056.00     0.00   210.75     0.00    0.00    0.00    0.00   0.00   0.00

