Linux 4.17.2 (bench) 	08/03/2018 	_x86_64_	(4 CPU)

avg-cpu:  %user   %nice %system %iowait  %steal   %idle
          10.28    0.02    4.05    2.55    0.00   83.11

Device:         rrqm/s   wrqm/s     r/s     w/s    rkB/s    wkB/s avgrq-sz avgqu-sz   await r_await w_await  svctm  %util
sda              44.32     4.24 1644.50  102.71 20880.19  3134.21    27.49     1.03    0.59    0.26    5.91   0.06  10.69
sdb              44.19     4.20 1644.42  102.85 20869.58  3130.87    27.47     1.03    0.59    0.26    5.85   0.06  10.57
sdc              82.14     4.26 1604.38  102.40 20861.70  3133.33    28.12     1.45    0.85    0.45    7.12   0.08  14.02
sdd              75.55     4.23 1610.14  102.47 20846.55  3129.52    28.00     1.46    0.85    0.44    7.32   0.08  14.11
sde              77.59     4.28 1615.22  102.56 20906.52  3133.78    27.99     1.48    0.86    0.44    7.43   0.08  14.13
sdf              74.70     4.25 1617.39  102.51 20887.72  3130.63    27.93     1.52    0.88    0.44    7.90   0.08  14.16
sdg               0.00     3.17   26.21   73.30   323.57   391.94    14.38     0.44    4.42    0.20    5.93   0.08   0.78
sdh               0.00     0.13    0.02    0.24     2.21     5.07    56.82     0.00    1.15    0.65    1.19   0.21   0.01
md0               0.00     0.00 10141.09  481.16 143016.81 21460.62    30.97     0.00    0.00    0.00    0.00   0.00   0.00

avg-cpu:  %user   %nice %system %iowait  %steal   %idle
          18.25    0.00   15.50    8.75    0.00   57.50

Device:         rrqm/s   wrqm/s     r/s     w/s    rkB/s    wkB/s avgrq-sz avgqu-sz   await r_await w_await  svctm  %util
sda             321.00     0.00  360.00    0.00 168184.00     0.00   934.36     0.90    2.49    2.49    0.00   1.34  48.40
sdb             313.00     0.00  383.00    0.00 168000.00     0.00   877.28     0.95    2.46    2.46    0.00   1.27  48.80
sdc             315.00     0.00  387.00    0.00 167972.00     0.00   868.07     1.83    4.73    4.73    0.00   2.07  80.00
sdd             320.00     0.00  359.00    0.00 167524.00     0.00   933.28     1.82    5.03    5.03    0.00   2.21  79.20
sde             321.00     0.00  362.00    0.00 166836.00     0.00   921.75     1.82    4.99    4.99    0.00   2.21  79.90
sdf             313.00     0.00  375.00    0.00 167116.00     0.00   891.29     1.81    4.78    4.78    0.00   2.13  79.90
sdg               0.00     0.00    0.00    4.00     0.00   124.00    62.00     0.00    0.00    0.00    0.00   0.00   0.00
sdh               0.00     0.00    0.00    0.00     0.00     0.00     0.00     0.00    0.00    0.00    0.00   0.00   0.00
md0               0.00     0.00 4142.00    0.00 1537704.00     0.00   742.49     0.00    0.00    0.00    0.00   0.00   0.00

