Linux 4.17.2 (bench) 	08/03/2018 	_x86_64_	(4 CPU)

avg-cpu:  %user   %nice %system %iowait  %steal   %idle
          10.29    0.02    3.98    2.42    0.00   83.29

Device:         rrqm/s   wrqm/s     r/s     w/s    rkB/s    wkB/s avgrq-sz avgqu-sz   await r_await w_await  svctm  %util
sda              38.89     4.28 1597.00  103.71 20604.78  3164.89    27.95     1.02    0.60    0.26    5.91   0.06  10.48
sdb              38.80     4.24 1596.87  103.85 20594.15  3161.52    27.94     1.02    0.60    0.26    5.85   0.06  10.36
sdc              76.92     4.30 1556.68  103.40 20586.42  3164.01    28.61     1.44    0.87    0.45    7.12   0.08  13.78
sdd              70.24     4.27 1562.51  103.47 20571.00  3160.16    28.49     1.45    0.87    0.44    7.32   0.08  13.87
sde              72.32     4.32 1567.66  103.57 20631.76  3164.46    28.48     1.47    0.88    0.44    7.43   0.08  13.89
sdf              69.41     4.29 1569.84  103.51 20612.75  3161.28    28.41     1.51    0.90    0.44    7.90   0.08  13.92
sdg               0.00     3.18   25.85   73.35   322.09   391.98    14.40     0.44    4.44    0.20    5.93   0.08   0.77
sdh               0.00     0.13    0.02    0.24     2.24     5.12    56.82     0.00    1.15    0.65    1.19   0.21   0.01
md0               0.00     0.00 9823.21  485.87 141079.19 21670.72    31.57     0.00    0.00    0.00    0.00   0.00   0.00

avg-cpu:  %user   %nice %system %iowait  %steal   %idle
          24.43    0.00    3.02    9.57    0.00   62.97

Device:         rrqm/s   wrqm/s     r/s     w/s    rkB/s    wkB/s avgrq-sz avgqu-sz   await r_await w_await  svctm  %util
sda               0.00     0.00 1518.00    0.00  6076.00     0.00     8.01     0.14    0.09    0.09    0.00   0.09  13.80
sdb               0.00     0.00 1437.00    0.00  5748.00     0.00     8.00     0.13    0.09    0.09    0.00   0.09  13.30
sdc               0.00     0.00 1443.00    0.00  5772.00     0.00     8.00     0.14    0.10    0.10    0.00   0.10  14.30
sdd               0.00     0.00 1414.00    0.00  5656.00     0.00     8.00     0.16    0.12    0.12    0.00   0.12  16.40
sde               0.00     0.00 1492.00    0.00  5968.00     0.00     8.00     0.16    0.11    0.11    0.00   0.11  16.20
sdf               0.00     0.00 1482.00    0.00  5928.00     0.00     8.00     0.16    0.11    0.11    0.00   0.11  16.00
sdg               0.00     0.00    2.00    0.00    84.00     0.00    84.00     0.00    0.50    0.50    0.00   0.50   0.10
sdh               0.00     0.00    0.00    0.00     0.00     0.00     0.00     0.00    0.00    0.00    0.00   0.00   0.00
md0               0.00     0.00 8787.00    0.00 35152.00     0.00     8.00     0.00    0.00    0.00    0.00   0.00   0.00

avg-cpu:  %user   %nice %system %iowait  %steal   %idle
          24.49    0.00    3.03   10.86    0.00   61.62

Device:         rrqm/s   wrqm/s     r/s     w/s    rkB/s    wkB/s avgrq-sz avgqu-sz   await r_await w_await  svctm  %util
sda               0.00     0.00 1434.00    0.00  5736.00     0.00     8.00     0.11    0.07    0.07    0.00   0.07  10.60
sdb               0.00     0.00 1471.00    0.00  5884.00     0.00     8.00     0.15    0.10    0.10    0.00   0.10  15.30
sdc               0.00     0.00 1600.00    0.00  6400.00     0.00     8.00     0.18    0.11    0.11    0.00   0.11  17.80
sdd               0.00     0.00 1454.00    0.00  5816.00     0.00     8.00     0.16    0.11    0.11    0.00   0.11  16.00
sde               0.00     0.00 1399.00    0.00  5596.00     0.00     8.00     0.15    0.10    0.10    0.00   0.10  14.60
sdf               0.00     0.00 1510.00    0.00  6040.00     0.00     8.00     0.16    0.11    0.11    0.00   0.11  16.10
sdg               0.00     0.00    0.00    0.00     0.00     0.00     0.00     0.00    0.00    0.00    0.00   0.00   0.00
sdh               0.00     0.00    0.00    0.00     0.00     0.00     0.00     0.00    0.00    0.00    0.00   0.00   0.00
md0               0.00     0.00 8868.00    0.00 35472.00     0.00     8.00     0.00    0.00    0.00    0.00   0.00   0.00

avg-cpu:  %user   %nice %system %iowait  %steal   %idle
          24.49    0.00    2.78    8.08    0.00   64.65

Device:         rrqm/s   wrqm/s     r/s     w/s    rkB/s    wkB/s avgrq-sz avgqu-sz   await r_await w_await  svctm  %util
sda               0.00     0.00 1469.00    0.00  5876.00     0.00     8.00     0.15    0.10    0.10    0.00   0.10  14.60
sdb               0.00     0.00 1497.00    0.00  5988.00     0.00     8.00     0.13    0.09    0.09    0.00   0.09  12.80
sdc               0.00     0.00 1416.00    0.00  5672.00     0.00     8.01     0.17    0.12    0.12    0.00   0.12  17.10
sdd               0.00     0.00 1492.00    0.00  5968.00     0.00     8.00     0.18    0.12    0.12    0.00   0.12  17.60
sde               0.00     0.00 1479.00    0.00  5916.00     0.00     8.00     0.15    0.10    0.10    0.00   0.10  15.20
sdf               0.00     0.00 1451.00    0.00  5804.00     0.00     8.00     0.13    0.09    0.09    0.00   0.09  12.90
sdg               0.00     0.00    0.00    0.00     0.00     0.00     0.00     0.00    0.00    0.00    0.00   0.00   0.00
sdh               0.00     0.00    0.00    0.00     0.00     0.00     0.00     0.00    0.00    0.00    0.00   0.00   0.00
md0               0.00     0.00 8804.00    0.00 35224.00     0.00     8.00     0.00    0.00    0.00    0.00   0.00   0.00

avg-cpu:  %user   %nice %system %iowait  %steal   %idle
          24.69    0.00    2.77   10.33    0.00   62.22

Device:         rrqm/s   wrqm/s     r/s     w/s    rkB/s    wkB/s avgrq-sz avgqu-sz   await r_await w_await  svctm  %util
sda               0.00     0.00 1443.00    0.00  5772.00     0.00     8.00     0.12    0.08    0.08    0.00   0.08  11.70
sdb               0.00     0.00 1525.00    0.00  6100.00     0.00     8.00     0.16    0.10    0.10    0.00   0.10  15.60
sdc               0.00     0.00 1465.00    0.00  5860.00     0.00     8.00     0.16    0.11    0.11    0.00   0.11  16.30
sdd               0.00     0.00 1535.00    0.00  6140.00     0.00     8.00     0.17    0.11    0.11    0.00   0.11  16.60
sde               0.00     0.00 1439.00    0.00  5756.00     0.00     8.00     0.15    0.10    0.10    0.00   0.10  14.70
sdf               0.00     0.00 1471.00    0.00  5884.00     0.00     8.00     0.16    0.11    0.11    0.00   0.11  16.00
sdg               0.00     0.00    0.00    0.00     0.00     0.00     0.00     0.00    0.00    0.00    0.00   0.00   0.00
sdh               0.00     0.00    0.00    0.00     0.00     0.00     0.00     0.00    0.00    0.00    0.00   0.00   0.00
md0               0.00     0.00 8879.00    0.00 35516.00     0.00     8.00     0.00    0.00    0.00    0.00   0.00   0.00

avg-cpu:  %user   %nice %system %iowait  %steal   %idle
          24.75    0.00    2.53   10.10    0.00   62.63

Device:         rrqm/s   wrqm/s     r/s     w/s    rkB/s    wkB/s avgrq-sz avgqu-sz   await r_await w_await  svctm  %util
sda               0.00     0.00 1507.00    0.00  6028.00     0.00     8.00     0.13    0.09    0.09    0.00   0.09  13.10
sdb               0.00     0.00 1511.00    0.00  6044.00     0.00     8.00     0.15    0.10    0.10    0.00   0.10  14.60
sdc               0.00     0.00 1493.00    0.00  5972.00     0.00     8.00     0.17    0.11    0.11    0.00   0.11  16.80
sdd               0.00     0.00 1437.00    0.00  5748.00     0.00     8.00     0.16    0.11    0.11    0.00   0.11  15.60
sde               0.00     0.00 1428.00    0.00  5712.00     0.00     8.00     0.16    0.11    0.11    0.00   0.11  16.10
sdf               0.00     0.00 1481.00    0.00  5932.00     0.00     8.01     0.15    0.10    0.10    0.00   0.10  15.10
sdg               0.00     0.00    0.00    0.00     0.00     0.00     0.00     0.00    0.00    0.00    0.00   0.00   0.00
sdh               0.00     0.00    0.00    0.00     0.00     0.00     0.00     0.00    0.00    0.00    0.00   0.00   0.00
md0               0.00     0.00 8857.00    0.00 35436.00     0.00     8.00     0.00    0.00    0.00    0.00   0.00   0.00

avg-cpu:  %user   %nice %system %iowait  %steal   %idle
          24.49    0.00    2.78   12.88    0.00   59.85

Device:         rrqm/s   wrqm/s     r/s     w/s    rkB/s    wkB/s avgrq-sz avgqu-sz   await r_await w_await  svctm  %util
sda               0.00     0.00 1427.00    0.00  5708.00     0.00     8.00     0.12    0.09    0.09    0.00   0.09  12.30
sdb               0.00     0.00 1521.00    0.00  6084.00     0.00     8.00     0.16    0.10    0.10    0.00   0.10  15.90
sdc               0.00     0.00 1453.00    0.00  5812.00     0.00     8.00     0.16    0.11    0.11    0.00   0.11  16.40
sdd               0.00     0.00 1434.00    0.00  5736.00     0.00     8.00     0.15    0.10    0.10    0.00   0.10  15.00
sde               0.00     0.00 1486.00    0.00  5944.00     0.00     8.00     0.15    0.10    0.10    0.00   0.10  15.20
sdf               0.00     0.00 1537.00    0.00  6156.00     0.00     8.01     0.16    0.11    0.11    0.00   0.11  16.30
sdg               0.00     0.00    0.00    0.00     0.00     0.00     0.00     0.00    0.00    0.00    0.00   0.00   0.00
sdh               0.00     0.00    0.00    0.00     0.00     0.00     0.00     0.00    0.00    0.00    0.00   0.00   0.00
md0               0.00     0.00 8859.00    0.00 35444.00     0.00     8.00     0.00    0.00    0.00    0.00   0.00   0.00

avg-cpu:  %user   %nice %system %iowait  %steal   %idle
          24.49    0.00    2.78    8.08    0.00   64.65

Device:         rrqm/s   wrqm/s     r/s     w/s    rkB/s    wkB/s avgrq-sz avgqu-sz   await r_await w_await  svctm  %util
sda               0.00     0.00 1401.00    0.00  5612.00     0.00     8.01     0.14    0.10    0.10    0.00   0.10  13.50
sdb               0.00     0.00 1519.00    0.00  6084.00     0.00     8.01     0.15    0.10    0.10    0.00   0.10  15.30
sdc               0.00     0.00 1481.00    0.00  5924.00     0.00     8.00     0.15    0.10    0.10    0.00   0.10  15.10
sdd               0.00     0.00 1440.00    0.00  5760.00     0.00     8.00     0.15    0.11    0.11    0.00   0.11  15.30
sde               0.00     0.00 1452.00    0.00  5808.00     0.00     8.00     0.16    0.11    0.11    0.00   0.11  16.10
sdf               0.00     0.00 1458.00    0.00  5840.00     0.00     8.01     0.16    0.11    0.11    0.00   0.11  15.70
sdg               0.00     0.00    0.00    0.00     0.00     0.00     0.00     0.00    0.00    0.00    0.00   0.00   0.00
sdh               0.00     0.00    0.00    0.00     0.00     0.00     0.00     0.00    0.00    0.00    0.00   0.00   0.00
md0               0.00     0.00 8750.00    0.00 35024.00     0.00     8.01     0.00    0.00    0.00    0.00   0.00   0.00

avg-cpu:  %user   %nice %system %iowait  %steal   %idle
          24.69    0.00    2.77   10.08    0.00   62.47

Device:         rrqm/s   wrqm/s     r/s     w/s    rkB/s    wkB/s avgrq-sz avgqu-sz   await r_await w_await  svctm  %util
sda               0.00     0.00 1452.00    0.00  5816.00     0.00     8.01     0.12    0.08    0.08    0.00   0.08  12.20
sdb               0.00     0.00 1439.00    0.00  5772.00     0.00     8.02     0.15    0.10    0.10    0.00   0.10  14.90
sdc               0.00     0.00 1533.00    0.00  6148.00     0.00     8.02     0.17    0.11    0.11    0.00   0.11  17.10
sdd               0.00     0.00 1409.00    0.00  5644.00     0.00     8.01     0.16    0.12    0.12    0.00   0.12  16.30
sde               0.00     0.00 1511.00    0.00  6044.00     0.00     8.00     0.14    0.09    0.09    0.00   0.09  13.80
sdf               0.00     0.00 1485.00    0.00  5940.00     0.00     8.00     0.16    0.11    0.11    0.00   0.11  15.90
sdg               0.00     0.00    0.00    0.00     0.00     0.00     0.00     0.00    0.00    0.00    0.00   0.00   0.00
sdh               0.00     0.00    0.00    0.00     0.00     0.00     0.00     0.00    0.00    0.00    0.00   0.00   0.00
md0               0.00     0.00 8829.00    0.00 35364.00     0.00     8.01     0.00    0.00    0.00    0.00   0.00   0.00

avg-cpu:  %user   %nice %system %iowait  %steal   %idle
          24.43    0.00    3.02   10.08    0.00   62.47

Device:         rrqm/s   wrqm/s     r/s     w/s    rkB/s    wkB/s avgrq-sz avgqu-sz   await r_await w_await  svctm  %util
sda               0.00     0.00 1486.00    0.00  5944.00     0.00     8.00     0.14    0.09    0.09    0.00   0.09  14.00
sdb               0.00     0.00 1472.00    0.00  5888.00     0.00     8.00     0.14    0.10    0.10    0.00   0.10  14.40
sdc               0.00     0.00 1425.00    0.00  5736.00     0.00     8.05     0.13    0.09    0.09    0.00   0.09  12.80
sdd               0.00     0.00 1488.00    0.00  5952.00     0.00     8.00     0.16    0.11    0.11    0.00   0.11  15.80
sde               0.00     0.00 1459.00    0.00  5844.00     0.00     8.01     0.16    0.11    0.11    0.00   0.11  15.80
sdf               0.00     0.00 1519.00    0.00  6076.00     0.00     8.00     0.16    0.11    0.11    0.00   0.11  16.20
sdg               0.00     0.00    0.00    0.00     0.00     0.00     0.00     0.00    0.00    0.00    0.00   0.00   0.00
sdh               0.00     0.00    0.00    0.00     0.00     0.00     0.00     0.00    0.00    0.00    0.00   0.00   0.00
md0               0.00     0.00 8849.00    0.00 35440.00     0.00     8.01     0.00    0.00    0.00    0.00   0.00   0.00

avg-cpu:  %user   %nice %system %iowait  %steal   %idle
          24.87    0.00    2.54   10.15    0.00   62.44

Device:         rrqm/s   wrqm/s     r/s     w/s    rkB/s    wkB/s avgrq-sz avgqu-sz   await r_await w_await  svctm  %util
sda               0.00     0.00 1452.00    0.00  5852.00     0.00     8.06     0.13    0.09    0.09    0.00   0.09  12.90
sdb               0.00     0.00 1488.00    0.00  5964.00     0.00     8.02     0.14    0.09    0.09    0.00   0.09  13.60
sdc               0.00     0.00 1514.00    0.00  6056.00     0.00     8.00     0.16    0.11    0.11    0.00   0.11  16.20
sdd               0.00     0.00 1519.00    0.00  6084.00     0.00     8.01     0.16    0.10    0.10    0.00   0.10  15.60
sde               0.00     0.00 1446.00    0.00  5792.00     0.00     8.01     0.16    0.11    0.11    0.00   0.11  15.60
sdf               0.00     0.00 1483.00    0.00  5932.00     0.00     8.00     0.17    0.12    0.12    0.00   0.12  17.10
sdg               0.00     0.00    5.00    0.00    20.00     0.00     8.00     0.00    0.40    0.40    0.00   0.40   0.20
sdh               0.00     0.00    0.00    0.00     0.00     0.00     0.00     0.00    0.00    0.00    0.00   0.00   0.00
md0               0.00     0.00 8902.00    0.00 35680.00     0.00     8.02     0.00    0.00    0.00    0.00   0.00   0.00

avg-cpu:  %user   %nice %system %iowait  %steal   %idle
          24.43    0.00    3.02    1.01    0.00   71.54

Device:         rrqm/s   wrqm/s     r/s     w/s    rkB/s    wkB/s avgrq-sz avgqu-sz   await r_await w_await  svctm  %util
sda               0.00     0.00 1431.00    0.00  5740.00     0.00     8.02     0.14    0.10    0.10    0.00   0.10  14.20
sdb               0.00     0.00 1443.00    0.00  5796.00     0.00     8.03     0.13    0.09    0.09    0.00   0.09  13.30
sdc               0.00     0.00 1433.00    0.00  5740.00     0.00     8.01     0.18    0.12    0.12    0.00   0.12  17.60
sdd               0.00     0.00 1411.00    0.00  5644.00     0.00     8.00     0.14    0.10    0.10    0.00   0.10  14.20
sde               0.00     0.00 1478.00    0.00  5916.00     0.00     8.01     0.16    0.11    0.11    0.00   0.11  16.20
sdf               0.00     0.00 1433.00    0.00  5752.00     0.00     8.03     0.14    0.10    0.10    0.00   0.10  14.30
sdg               0.00     0.00    0.00    0.00     0.00     0.00     0.00     0.00    0.00    0.00    0.00   0.00   0.00
sdh               0.00     0.00    0.00    0.00     0.00     0.00     0.00     0.00    0.00    0.00    0.00   0.00   0.00
md0               0.00     0.00 8628.00    0.00 34584.00     0.00     8.02     0.00    0.00    0.00    0.00   0.00   0.00

avg-cpu:  %user   %nice %system %iowait  %steal   %idle
          24.81    0.00    2.28    1.01    0.00   71.90

Device:         rrqm/s   wrqm/s     r/s     w/s    rkB/s    wkB/s avgrq-sz avgqu-sz   await r_await w_await  svctm  %util
sda               0.00     0.00 1428.00    0.00  5720.00     0.00     8.01     0.14    0.09    0.09    0.00   0.09  13.50
sdb               0.00     0.00 1524.00    0.00  6112.00     0.00     8.02     0.15    0.10    0.10    0.00   0.10  15.30
sdc               0.00     0.00 1481.00    0.00  5924.00     0.00     8.00     0.14    0.10    0.10    0.00   0.10  14.10
sdd               0.00     0.00 1383.00    0.00  5556.00     0.00     8.03     0.12    0.09    0.09    0.00   0.09  12.30
sde               0.00     0.00 1425.00    0.00  5716.00     0.00     8.02     0.18    0.13    0.13    0.00   0.13  18.20
sdf               0.00     0.00 1457.00    0.00  5828.00     0.00     8.00     0.16    0.11    0.11    0.00   0.11  16.30
sdg               0.00     0.00    0.00    0.00     0.00     0.00     0.00     0.00    0.00    0.00    0.00   0.00   0.00
sdh               0.00     0.00    0.00    0.00     0.00     0.00     0.00     0.00    0.00    0.00    0.00   0.00   0.00
md0               0.00     0.00 8699.00    0.00 34860.00     0.00     8.01     0.00    0.00    0.00    0.00   0.00   0.00

avg-cpu:  %user   %nice %system %iowait  %steal   %idle
          24.87    0.00    2.03    1.02    0.00   72.08

Device:         rrqm/s   wrqm/s     r/s     w/s    rkB/s    wkB/s avgrq-sz avgqu-sz   await r_await w_await  svctm  %util
sda               0.00     0.00 1445.00    0.00  5796.00     0.00     8.02     0.13    0.09    0.09    0.00   0.09  13.30
sdb               0.00     0.00 1489.00    0.00  5980.00     0.00     8.03     0.14    0.10    0.10    0.00   0.10  14.50
sdc               0.00     0.00 1440.00    0.00  5760.00     0.00     8.00     0.16    0.11    0.11    0.00   0.11  16.40
sdd               0.00     0.00 1480.00    0.00  5940.00     0.00     8.03     0.17    0.11    0.11    0.00   0.11  16.50
sde               0.00     0.00 1398.00    0.00  5628.00     0.00     8.05     0.15    0.10    0.10    0.00   0.10  14.50
sdf               0.00     0.00 1506.00    0.00  6040.00     0.00     8.02     0.16    0.11    0.11    0.00   0.11  16.20
sdg               0.00     0.00    0.00    0.00     0.00     0.00     0.00     0.00    0.00    0.00    0.00   0.00   0.00
sdh               0.00     0.00    0.00    0.00     0.00     0.00     0.00     0.00    0.00    0.00    0.00   0.00   0.00
md0               0.00     0.00 8757.00    0.00 35140.00     0.00     8.03     0.00    0.00    0.00    0.00   0.00   0.00

avg-cpu:  %user   %nice %system %iowait  %steal   %idle
          24.87    0.00    2.03    1.02    0.00   72.08

Device:         rrqm/s   wrqm/s     r/s     w/s    rkB/s    wkB/s avgrq-sz avgqu-sz   await r_await w_await  svctm  %util
sda               0.00     0.00 1460.00    0.00  5848.00     0.00     8.01     0.16    0.11    0.11    0.00   0.11  15.80
sdb               0.00     0.00 1471.00    0.00  5892.00     0.00     8.01     0.14    0.10    0.10    0.00   0.10  14.20
sdc               0.00     0.00 1425.00    0.00  5700.00     0.00     8.00     0.14    0.10    0.10    0.00   0.10  13.70
sdd               0.00     0.00 1506.00    0.00  6024.00     0.00     8.00     0.16    0.11    0.11    0.00   0.11  16.20
sde               0.00     0.00 1501.00    0.00  6028.00     0.00     8.03     0.15    0.10    0.10    0.00   0.10  14.90
sdf               0.00     0.00 1479.00    0.00  5916.00     0.00     8.00     0.16    0.11    0.11    0.00   0.11  15.80
sdg               0.00     0.00    0.00    0.00     0.00     0.00     0.00     0.00    0.00    0.00    0.00   0.00   0.00
sdh               0.00     0.00    0.00    0.00     0.00     0.00     0.00     0.00    0.00    0.00    0.00   0.00   0.00
md0               0.00     0.00 8843.00    0.00 35412.00     0.00     8.01     0.00    0.00    0.00    0.00   0.00   0.00

avg-cpu:  %user   %nice %system %iowait  %steal   %idle
          24.81    0.00    2.53    1.01    0.00   71.65

Device:         rrqm/s   wrqm/s     r/s     w/s    rkB/s    wkB/s avgrq-sz avgqu-sz   await r_await w_await  svctm  %util
sda               0.00     0.00 1494.00    0.00  5984.00     0.00     8.01     0.13    0.09    0.09    0.00   0.09  13.00
sdb               0.00     0.00 1492.00    0.00  5976.00     0.00     8.01     0.15    0.10    0.10    0.00   0.10  14.60
sdc               0.00     0.00 1395.00    0.00  5588.00     0.00     8.01     0.14    0.10    0.10    0.00   0.10  14.10
sdd               0.00     0.00 1464.00    0.00  5872.00     0.00     8.02     0.17    0.12    0.12    0.00   0.12  17.20
sde               0.00     0.00 1447.00    0.00  5788.00     0.00     8.00     0.16    0.11    0.11    0.00   0.11  16.30
sdf               0.00     0.00 1412.00    0.00  5648.00     0.00     8.00     0.13    0.09    0.09    0.00   0.09  13.20
sdg               0.00     0.00    0.00    0.00     0.00     0.00     0.00     0.00    0.00    0.00    0.00   0.00   0.00
sdh               0.00     0.00    0.00    0.00     0.00     0.00     0.00     0.00    0.00    0.00    0.00   0.00   0.00
md0               0.00     0.00 8704.00    0.00 34856.00     0.00     8.01     0.00    0.00    0.00    0.00   0.00   0.00

avg-cpu:  %user   %nice %system %iowait  %steal   %idle
          24.49    0.00    2.53    1.01    0.00   71.97

Device:         rrqm/s   wrqm/s     r/s     w/s    rkB/s    wkB/s avgrq-sz avgqu-sz   await r_await w_await  svctm  %util
sda               0.00     0.00 1481.00    0.00  5924.00     0.00     8.00     0.14    0.09    0.09    0.00   0.09  13.50
sdb               0.00     0.00 1451.00    0.00  5828.00     0.00     8.03     0.14    0.09    0.09    0.00   0.09  13.70
sdc               0.00     0.00 1469.00    0.00  5884.00     0.00     8.01     0.15    0.10    0.10    0.00   0.10  15.10
sdd               0.00     0.00 1474.00    0.00  5912.00     0.00     8.02     0.14    0.10    0.10    0.00   0.10  14.40
sde               0.00     0.00 1487.00    0.00  5964.00     0.00     8.02     0.15    0.10    0.10    0.00   0.10  15.30
sdf               0.00     0.00 1471.00    0.00  5884.00     0.00     8.00     0.17    0.12    0.12    0.00   0.12  17.20
sdg               0.00     0.00    0.00    0.00     0.00     0.00     0.00     0.00    0.00    0.00    0.00   0.00   0.00
sdh               0.00     0.00    0.00    0.00     0.00     0.00     0.00     0.00    0.00    0.00    0.00   0.00   0.00
md0               0.00     0.00 8832.00    0.00 35392.00     0.00     8.01     0.00    0.00    0.00    0.00   0.00   0.00

avg-cpu:  %user   %nice %system %iowait  %steal   %idle
          24.75    0.00    2.53    1.01    0.00   71.72

Device:         rrqm/s   wrqm/s     r/s     w/s    rkB/s    wkB/s avgrq-sz avgqu-sz   await r_await w_await  svctm  %util
sda               0.00     0.00 1494.00    0.00  6016.00     0.00     8.05     0.14    0.09    0.09    0.00   0.09  13.90
sdb               0.00     0.00 1462.00    0.00  5884.00     0.00     8.05     0.15    0.10    0.10    0.00   0.10  15.20
sdc               0.00     0.00 1486.00    0.00  6004.00     0.00     8.08     0.15    0.10    0.10    0.00   0.10  14.80
sdd               0.00     0.00 1425.00    0.00  5716.00     0.00     8.02     0.13    0.09    0.09    0.00   0.09  12.90
sde               0.00     0.00 1406.00    0.00  5648.00     0.00     8.03     0.16    0.11    0.11    0.00   0.11  15.70
sdf               0.00     0.00 1517.00    0.00  6068.00     0.00     8.00     0.17    0.11    0.11    0.00   0.11  17.10
sdg               0.00     0.00    0.00    0.00     0.00     0.00     0.00     0.00    0.00    0.00    0.00   0.00   0.00
sdh               0.00     0.00    0.00    0.00     0.00     0.00     0.00     0.00    0.00    0.00    0.00   0.00   0.00
md0               0.00     0.00 8791.00    0.00 35340.00     0.00     8.04     0.00    0.00    0.00    0.00   0.00   0.00

avg-cpu:  %user   %nice %system %iowait  %steal   %idle
          24.68    0.00    2.04    1.02    0.00   72.26

Device:         rrqm/s   wrqm/s     r/s     w/s    rkB/s    wkB/s avgrq-sz avgqu-sz   await r_await w_await  svctm  %util
sda               0.00     0.00 1474.00    0.00  5904.00     0.00     8.01     0.15    0.10    0.10    0.00   0.10  15.10
sdb               0.00     0.00 1486.00    0.00  5984.00     0.00     8.05     0.14    0.09    0.09    0.00   0.09  13.90
sdc               0.00     0.00 1496.00    0.00  5988.00     0.00     8.01     0.15    0.10    0.10    0.00   0.10  15.50
sdd               0.00     0.00 1434.00    0.00  5752.00     0.00     8.02     0.16    0.11    0.11    0.00   0.11  16.40
sde               0.00     0.00 1438.00    0.00  5760.00     0.00     8.01     0.15    0.10    0.10    0.00   0.10  14.70
sdf               0.00     0.00 1454.00    0.00  5816.00     0.00     8.00     0.16    0.11    0.11    0.00   0.11  15.80
sdg               0.00     0.00    0.00    0.00     0.00     0.00     0.00     0.00    0.00    0.00    0.00   0.00   0.00
sdh               0.00     0.00    0.00    0.00     0.00     0.00     0.00     0.00    0.00    0.00    0.00   0.00   0.00
md0               0.00     0.00 8783.00    0.00 35208.00     0.00     8.02     0.00    0.00    0.00    0.00   0.00   0.00

avg-cpu:  %user   %nice %system %iowait  %steal   %idle
          24.94    0.00    2.04    1.02    0.00   72.01

Device:         rrqm/s   wrqm/s     r/s     w/s    rkB/s    wkB/s avgrq-sz avgqu-sz   await r_await w_await  svctm  %util
sda               0.00     0.00 1439.00    0.00  5764.00     0.00     8.01     0.14    0.10    0.10    0.00   0.10  14.00
sdb               0.00     0.00 1400.00    0.00  5640.00     0.00     8.06     0.14    0.10    0.10    0.00   0.10  14.10
sdc               0.00     0.00 1443.00    0.00  5796.00     0.00     8.03     0.17    0.12    0.12    0.00   0.12  16.70
sdd               0.00     0.00 1396.00    0.00  5600.00     0.00     8.02     0.14    0.10    0.10    0.00   0.10  14.30
sde               0.00     0.00 1482.00    0.00  5952.00     0.00     8.03     0.16    0.11    0.11    0.00   0.11  15.70
sdf               0.00     0.00 1454.00    0.00  5816.00     0.00     8.00     0.16    0.11    0.11    0.00   0.11  16.30
sdg               0.00     1.00    4.00    2.00    16.00    20.00    12.00     0.00    0.00    0.00    0.00   0.00   0.00
sdh               0.00     0.00    0.00    0.00     0.00     0.00     0.00     0.00    0.00    0.00    0.00   0.00   0.00
md0               0.00     0.00 8613.00    0.00 34564.00     0.00     8.03     0.00    0.00    0.00    0.00   0.00   0.00

avg-cpu:  %user   %nice %system %iowait  %steal   %idle
          24.68    0.25    2.29    1.53    0.00   71.25

Device:         rrqm/s   wrqm/s     r/s     w/s    rkB/s    wkB/s avgrq-sz avgqu-sz   await r_await w_await  svctm  %util
sda               0.00     0.00 1494.00    0.00  5992.00     0.00     8.02     0.15    0.10    0.10    0.00   0.10  15.50
sdb               0.00     0.00 1478.00    0.00  5920.00     0.00     8.01     0.16    0.11    0.11    0.00   0.11  15.90
sdc               0.00     0.00 1413.00    0.00  5704.00     0.00     8.07     0.14    0.10    0.10    0.00   0.10  14.20
sdd               0.00     0.00 1526.00    0.00  6112.00     0.00     8.01     0.18    0.12    0.12    0.00   0.12  18.10
sde               0.00     0.00 1462.00    0.00  5896.00     0.00     8.07     0.14    0.09    0.09    0.00   0.09  13.80
sdf               0.00     0.00 1456.00    0.00  5856.00     0.00     8.04     0.14    0.10    0.10    0.00   0.10  14.40
sdg               0.00     0.00    6.00    0.00    24.00     0.00     8.00     0.00    0.33    0.33    0.00   0.33   0.20
sdh               0.00     0.00    0.00    0.00     0.00     0.00     0.00     0.00    0.00    0.00    0.00   0.00   0.00
md0               0.00     0.00 8828.00    0.00 35476.00     0.00     8.04     0.00    0.00    0.00    0.00   0.00   0.00

