Linux 4.17.2 (bench) 	08/03/2018 	_x86_64_	(4 CPU)

avg-cpu:  %user   %nice %system %iowait  %steal   %idle
          10.29    0.02    3.99    2.45    0.00   83.24

Device:         rrqm/s   wrqm/s     r/s     w/s    rkB/s    wkB/s avgrq-sz avgqu-sz   await r_await w_await  svctm  %util
sda              40.56     4.28 1607.82  103.51 20660.28  3158.71    27.84     1.03    0.60    0.26    5.91   0.06  10.52
sdb              40.45     4.24 1607.70  103.65 20649.67  3155.34    27.82     1.02    0.60    0.26    5.85   0.06  10.40
sdc              78.59     4.30 1567.48  103.20 20641.90  3157.83    28.49     1.44    0.86    0.45    7.12   0.08  13.83
sdd              71.94     4.26 1573.29  103.27 20626.57  3153.99    28.37     1.45    0.86    0.44    7.32   0.08  13.92
sde              74.01     4.31 1578.44  103.36 20687.21  3158.27    28.36     1.47    0.87    0.45    7.43   0.08  13.94
sdf              71.10     4.28 1580.61  103.31 20668.21  3155.11    28.30     1.52    0.90    0.44    7.90   0.08  13.97
sdg               0.00     3.18   25.92   73.34   322.42   391.98    14.39     0.44    4.43    0.20    5.93   0.08   0.77
sdh               0.00     0.13    0.02    0.24     2.23     5.11    56.82     0.00    1.15    0.65    1.19   0.21   0.01
md0               0.00     0.00 9898.20  484.92 141444.12 21628.38    31.41     0.00    0.00    0.00    0.00   0.00   0.00

avg-cpu:  %user   %nice %system %iowait  %steal   %idle
          24.37    0.00    2.51   11.56    0.00   61.56

Device:         rrqm/s   wrqm/s     r/s     w/s    rkB/s    wkB/s avgrq-sz avgqu-sz   await r_await w_await  svctm  %util
sda               0.00     0.00 1583.00    0.00  6332.00     0.00     8.00     0.15    0.10    0.10    0.00   0.10  15.20
sdb               0.00     0.00 1489.00    0.00  5956.00     0.00     8.00     0.13    0.09    0.09    0.00   0.09  13.10
sdc               0.00     0.00 1483.00    0.00  5932.00     0.00     8.00     0.17    0.11    0.11    0.00   0.11  17.00
sdd               0.00     0.00 1455.00    0.00  5820.00     0.00     8.00     0.14    0.10    0.10    0.00   0.10  14.10
sde               0.00     0.00 1449.00    0.00  5796.00     0.00     8.00     0.13    0.09    0.09    0.00   0.09  13.30
sdf               0.00     0.00 1628.00    0.00  6512.00     0.00     8.00     0.17    0.10    0.10    0.00   0.10  16.70
sdg               0.00     0.00   20.00   36.00   384.00   744.00    40.29     0.05    4.73    0.45    7.11   0.20   1.10
sdh               0.00     0.00    0.00    0.00     0.00     0.00     0.00     0.00    0.00    0.00    0.00   0.00   0.00
md0               0.00     0.00 9088.00    0.00 36352.00     0.00     8.00     0.00    0.00    0.00    0.00   0.00   0.00

avg-cpu:  %user   %nice %system %iowait  %steal   %idle
          24.69    0.00    3.24   15.46    0.00   56.61

Device:         rrqm/s   wrqm/s     r/s     w/s    rkB/s    wkB/s avgrq-sz avgqu-sz   await r_await w_await  svctm  %util
sda               0.00     0.00 1617.00    0.00  6468.00     0.00     8.00     0.15    0.09    0.09    0.00   0.09  15.00
sdb               0.00     0.00 1478.00    0.00  5912.00     0.00     8.00     0.12    0.08    0.08    0.00   0.08  12.00
sdc               0.00     0.00 1490.00    0.00  5960.00     0.00     8.00     0.16    0.11    0.11    0.00   0.11  16.00
sdd               0.00     0.00 1572.00    0.00  6288.00     0.00     8.00     0.16    0.10    0.10    0.00   0.10  16.40
sde               0.00     0.00 1639.00    0.00  6556.00     0.00     8.00     0.17    0.10    0.10    0.00   0.10  16.50
sdf               0.00     0.00 1610.00    0.00  6440.00     0.00     8.00     0.16    0.10    0.10    0.00   0.10  16.00
sdg               0.00     0.00    0.00    0.00     0.00     0.00     0.00     0.00    0.00    0.00    0.00   0.00   0.00
sdh               0.00     0.00    0.00    0.00     0.00     0.00     0.00     0.00    0.00    0.00    0.00   0.00   0.00
md0               0.00     0.00 9406.00    0.00 37624.00     0.00     8.00     0.00    0.00    0.00    0.00   0.00   0.00

avg-cpu:  %user   %nice %system %iowait  %steal   %idle
          24.69    0.00    2.52   16.88    0.00   55.92

Device:         rrqm/s   wrqm/s     r/s     w/s    rkB/s    wkB/s avgrq-sz avgqu-sz   await r_await w_await  svctm  %util
sda               0.00     0.00 1583.00    0.00  6332.00     0.00     8.00     0.15    0.09    0.09    0.00   0.09  14.80
sdb               0.00     0.00 1650.00    0.00  6600.00     0.00     8.00     0.15    0.09    0.09    0.00   0.09  15.50
sdc               0.00     0.00 1570.00    0.00  6280.00     0.00     8.00     0.16    0.10    0.10    0.00   0.10  15.70
sdd               0.00     0.00 1546.00    0.00  6184.00     0.00     8.00     0.17    0.11    0.11    0.00   0.11  16.80
sde               0.00     0.00 1605.00    0.00  6420.00     0.00     8.00     0.16    0.10    0.10    0.00   0.10  16.30
sdf               0.00     0.00 1468.00    0.00  5872.00     0.00     8.00     0.14    0.10    0.10    0.00   0.10  14.00
sdg               0.00     0.00    0.00    0.00     0.00     0.00     0.00     0.00    0.00    0.00    0.00   0.00   0.00
sdh               0.00     0.00    0.00    0.00     0.00     0.00     0.00     0.00    0.00    0.00    0.00   0.00   0.00
md0               0.00     0.00 9423.00    0.00 37692.00     0.00     8.00     0.00    0.00    0.00    0.00   0.00   0.00

avg-cpu:  %user   %nice %system %iowait  %steal   %idle
          24.75    0.00    2.02   15.66    0.00   57.58

Device:         rrqm/s   wrqm/s     r/s     w/s    rkB/s    wkB/s avgrq-sz avgqu-sz   await r_await w_await  svctm  %util
sda               0.00     0.00 1615.00    0.00  6460.00     0.00     8.00     0.15    0.09    0.09    0.00   0.09  14.80
sdb               0.00     0.00 1626.00    0.00  6504.00     0.00     8.00     0.15    0.09    0.09    0.00   0.09  14.60
sdc               0.00     0.00 1567.00    0.00  6268.00     0.00     8.00     0.17    0.11    0.11    0.00   0.11  16.80
sdd               0.00     0.00 1545.00    0.00  6180.00     0.00     8.00     0.16    0.10    0.10    0.00   0.10  15.70
sde               0.00     0.00 1483.00    0.00  5932.00     0.00     8.00     0.16    0.11    0.11    0.00   0.11  15.80
sdf               0.00     0.00 1537.00    0.00  6148.00     0.00     8.00     0.17    0.11    0.11    0.00   0.11  16.80
sdg               0.00     0.00    0.00    0.00     0.00     0.00     0.00     0.00    0.00    0.00    0.00   0.00   0.00
sdh               0.00     0.00    0.00    0.00     0.00     0.00     0.00     0.00    0.00    0.00    0.00   0.00   0.00
md0               0.00     0.00 9372.00    0.00 37488.00     0.00     8.00     0.00    0.00    0.00    0.00   0.00   0.00

avg-cpu:  %user   %nice %system %iowait  %steal   %idle
          24.87    0.00    2.76   15.83    0.00   56.53

Device:         rrqm/s   wrqm/s     r/s     w/s    rkB/s    wkB/s avgrq-sz avgqu-sz   await r_await w_await  svctm  %util
sda               0.00     0.00 1526.00    0.00  6104.00     0.00     8.00     0.14    0.09    0.09    0.00   0.09  14.10
sdb               0.00     0.00 1513.00    0.00  6052.00     0.00     8.00     0.14    0.10    0.10    0.00   0.10  14.40
sdc               0.00     0.00 1662.00    0.00  6648.00     0.00     8.00     0.19    0.12    0.12    0.00   0.12  19.20
sdd               0.00     0.00 1514.00    0.00  6056.00     0.00     8.00     0.14    0.09    0.09    0.00   0.09  13.90
sde               0.00     0.00 1575.00    0.00  6300.00     0.00     8.00     0.16    0.10    0.10    0.00   0.10  15.70
sdf               0.00     0.00 1545.00    0.00  6180.00     0.00     8.00     0.16    0.10    0.10    0.00   0.10  15.90
sdg               0.00     0.00    0.00    0.00     0.00     0.00     0.00     0.00    0.00    0.00    0.00   0.00   0.00
sdh               0.00     0.00    0.00    0.00     0.00     0.00     0.00     0.00    0.00    0.00    0.00   0.00   0.00
md0               0.00     0.00 9335.00    0.00 37340.00     0.00     8.00     0.00    0.00    0.00    0.00   0.00   0.00

avg-cpu:  %user   %nice %system %iowait  %steal   %idle
          24.75    0.00    2.02   15.40    0.00   57.83

Device:         rrqm/s   wrqm/s     r/s     w/s    rkB/s    wkB/s avgrq-sz avgqu-sz   await r_await w_await  svctm  %util
sda               0.00     0.00 1605.00    0.00  6420.00     0.00     8.00     0.16    0.10    0.10    0.00   0.10  16.30
sdb               0.00     0.00 1455.00    0.00  5820.00     0.00     8.00     0.14    0.10    0.10    0.00   0.10  14.10
sdc               0.00     0.00 1440.00    0.00  5760.00     0.00     8.00     0.15    0.11    0.11    0.00   0.11  15.40
sdd               0.00     0.00 1609.00    0.00  6436.00     0.00     8.00     0.16    0.10    0.10    0.00   0.10  16.20
sde               0.00     0.00 1621.00    0.00  6484.00     0.00     8.00     0.15    0.09    0.09    0.00   0.09  15.20
sdf               0.00     0.00 1641.00    0.00  6564.00     0.00     8.00     0.17    0.11    0.11    0.00   0.10  17.20
sdg               0.00     0.00    0.00    0.00     0.00     0.00     0.00     0.00    0.00    0.00    0.00   0.00   0.00
sdh               0.00     0.00    0.00    0.00     0.00     0.00     0.00     0.00    0.00    0.00    0.00   0.00   0.00
md0               0.00     0.00 9373.00    0.00 37492.00     0.00     8.00     0.00    0.00    0.00    0.00   0.00   0.00

avg-cpu:  %user   %nice %system %iowait  %steal   %idle
          24.62    0.00    3.27   13.32    0.00   58.79

Device:         rrqm/s   wrqm/s     r/s     w/s    rkB/s    wkB/s avgrq-sz avgqu-sz   await r_await w_await  svctm  %util
sda               0.00     0.00 1546.00    0.00  6184.00     0.00     8.00     0.16    0.10    0.10    0.00   0.10  15.70
sdb               0.00     0.00 1467.00    0.00  5868.00     0.00     8.00     0.14    0.10    0.10    0.00   0.10  14.00
sdc               0.00     0.00 1554.00    0.00  6216.00     0.00     8.00     0.16    0.10    0.10    0.00   0.10  16.10
sdd               0.00     0.00 1520.00    0.00  6080.00     0.00     8.00     0.14    0.09    0.09    0.00   0.09  14.30
sde               0.00     0.00 1616.00    0.00  6464.00     0.00     8.00     0.15    0.09    0.09    0.00   0.09  14.60
sdf               0.00     0.00 1542.00    0.00  6168.00     0.00     8.00     0.17    0.11    0.11    0.00   0.11  16.90
sdg               0.00     0.00   16.00    0.00   112.00     0.00    14.00     0.00    0.06    0.06    0.00   0.06   0.10
sdh               0.00     0.00    0.00    0.00     0.00     0.00     0.00     0.00    0.00    0.00    0.00   0.00   0.00
md0               0.00     0.00 9244.00    0.00 36976.00     0.00     8.00     0.00    0.00    0.00    0.00   0.00   0.00

avg-cpu:  %user   %nice %system %iowait  %steal   %idle
          24.87    0.00    2.51   15.58    0.00   57.04

Device:         rrqm/s   wrqm/s     r/s     w/s    rkB/s    wkB/s avgrq-sz avgqu-sz   await r_await w_await  svctm  %util
sda               0.00     0.00 1499.00    0.00  5996.00     0.00     8.00     0.15    0.10    0.10    0.00   0.10  14.90
sdb               0.00     0.00 1627.00    0.00  6508.00     0.00     8.00     0.16    0.10    0.10    0.00   0.10  15.60
sdc               0.00     0.00 1614.00    0.00  6456.00     0.00     8.00     0.15    0.10    0.10    0.00   0.10  15.50
sdd               0.00     0.00 1582.00    0.00  6328.00     0.00     8.00     0.16    0.10    0.10    0.00   0.10  16.10
sde               0.00     0.00 1529.00    0.00  6116.00     0.00     8.00     0.16    0.10    0.10    0.00   0.10  15.90
sdf               0.00     0.00 1502.00    0.00  6008.00     0.00     8.00     0.15    0.10    0.10    0.00   0.10  14.90
sdg               0.00     0.00    0.00    0.00     0.00     0.00     0.00     0.00    0.00    0.00    0.00   0.00   0.00
sdh               0.00     0.00    0.00    0.00     0.00     0.00     0.00     0.00    0.00    0.00    0.00   0.00   0.00
md0               0.00     0.00 9352.00    0.00 37408.00     0.00     8.00     0.00    0.00    0.00    0.00   0.00   0.00

avg-cpu:  %user   %nice %system %iowait  %steal   %idle
          24.75    0.00    3.00   19.25    0.00   53.00

Device:         rrqm/s   wrqm/s     r/s     w/s    rkB/s    wkB/s avgrq-sz avgqu-sz   await r_await w_await  svctm  %util
sda               0.00     0.00 1537.00    0.00  6148.00     0.00     8.00     0.15    0.10    0.10    0.00   0.10  15.10
sdb               0.00     0.00 1673.00    0.00  6692.00     0.00     8.00     0.15    0.09    0.09    0.00   0.09  15.20
sdc               0.00     0.00 1495.00    0.00  5980.00     0.00     8.00     0.15    0.10    0.10    0.00   0.10  14.70
sdd               0.00     0.00 1606.00    0.00  6424.00     0.00     8.00     0.16    0.10    0.10    0.00   0.10  15.70
sde               0.00     0.00 1591.00    0.00  6364.00     0.00     8.00     0.16    0.10    0.10    0.00   0.10  15.60
sdf               0.00     0.00 1570.00    0.00  6280.00     0.00     8.00     0.16    0.10    0.10    0.00   0.10  16.20
sdg               0.00     0.00    0.00    0.00     0.00     0.00     0.00     0.00    0.00    0.00    0.00   0.00   0.00
sdh               0.00     0.00    0.00    0.00     0.00     0.00     0.00     0.00    0.00    0.00    0.00   0.00   0.00
md0               0.00     0.00 9472.00    0.00 37888.00     0.00     8.00     0.00    0.00    0.00    0.00   0.00   0.00

avg-cpu:  %user   %nice %system %iowait  %steal   %idle
          23.87    0.00    3.27    6.78    0.00   66.08

Device:         rrqm/s   wrqm/s     r/s     w/s    rkB/s    wkB/s avgrq-sz avgqu-sz   await r_await w_await  svctm  %util
sda               0.00     0.00 1513.00    0.00  6052.00     0.00     8.00     0.16    0.10    0.10    0.00   0.10  15.70
sdb               0.00     0.00 1537.00    0.00  6148.00     0.00     8.00     0.14    0.09    0.09    0.00   0.09  13.70
sdc               0.00     0.00 1513.00    0.00  6052.00     0.00     8.00     0.15    0.10    0.10    0.00   0.10  15.00
sdd               0.00     0.00 1558.00    0.00  6232.00     0.00     8.00     0.17    0.11    0.11    0.00   0.11  16.70
sde               0.00     0.00 1519.00    0.00  6076.00     0.00     8.00     0.17    0.11    0.11    0.00   0.11  16.60
sdf               0.00     0.00 1449.00    0.00  5796.00     0.00     8.00     0.14    0.10    0.10    0.00   0.10  14.20
sdg               0.00    31.00    0.00 1423.00     0.00  7188.00    10.10     8.84    5.89    0.00    5.89   0.04   6.40
sdh               0.00     0.00    0.00    0.00     0.00     0.00     0.00     0.00    0.00    0.00    0.00   0.00   0.00
md0               0.00     0.00 9089.00    0.00 36356.00     0.00     8.00     0.00    0.00    0.00    0.00   0.00   0.00

avg-cpu:  %user   %nice %system %iowait  %steal   %idle
          23.93    0.00    2.77    1.51    0.00   71.79

Device:         rrqm/s   wrqm/s     r/s     w/s    rkB/s    wkB/s avgrq-sz avgqu-sz   await r_await w_await  svctm  %util
sda               0.00     0.00 1456.00    0.00  5824.00     0.00     8.00     0.15    0.10    0.10    0.00   0.10  15.20
sdb               0.00     0.00 1560.00    0.00  6240.00     0.00     8.00     0.15    0.10    0.10    0.00   0.10  15.40
sdc               0.00     0.00 1462.00    0.00  5848.00     0.00     8.00     0.15    0.10    0.10    0.00   0.10  15.30
sdd               0.00     0.00 1559.00    0.00  6236.00     0.00     8.00     0.16    0.10    0.10    0.00   0.10  15.70
sde               0.00     0.00 1458.00    0.00  5832.00     0.00     8.00     0.15    0.10    0.10    0.00   0.10  15.10
sdf               0.00     0.00 1537.00    0.00  6148.00     0.00     8.00     0.15    0.10    0.10    0.00   0.10  15.30
sdg               0.00    36.00   19.00 1152.00    76.00  5748.00     9.95     7.51    6.80    0.95    6.90   0.05   6.40
sdh               0.00     0.00    0.00    0.00     0.00     0.00     0.00     0.00    0.00    0.00    0.00   0.00   0.00
md0               0.00     0.00 9033.00    0.00 36132.00     0.00     8.00     0.00    0.00    0.00    0.00   0.00   0.00

avg-cpu:  %user   %nice %system %iowait  %steal   %idle
          23.37    0.00    3.27    1.01    0.00   72.36

Device:         rrqm/s   wrqm/s     r/s     w/s    rkB/s    wkB/s avgrq-sz avgqu-sz   await r_await w_await  svctm  %util
sda               0.00     0.00 1510.00    0.00  6040.00     0.00     8.00     0.16    0.10    0.10    0.00   0.10  15.60
sdb               0.00     0.00 1457.00    0.00  5828.00     0.00     8.00     0.12    0.08    0.08    0.00   0.08  12.10
sdc               0.00     0.00 1546.00    0.00  6184.00     0.00     8.00     0.17    0.11    0.11    0.00   0.11  16.80
sdd               0.00     0.00 1474.00    0.00  5896.00     0.00     8.00     0.16    0.11    0.11    0.00   0.11  16.30
sde               0.00     0.00 1464.00    0.00  5856.00     0.00     8.00     0.16    0.11    0.11    0.00   0.11  15.70
sdf               0.00     0.00 1458.00    0.00  5832.00     0.00     8.00     0.14    0.10    0.10    0.00   0.10  14.50
sdg               0.00     0.00    0.00    0.00     0.00     0.00     0.00     0.00    0.00    0.00    0.00   0.00   0.00
sdh               0.00     0.00    0.00    0.00     0.00     0.00     0.00     0.00    0.00    0.00    0.00   0.00   0.00
md0               0.00     0.00 8909.00    0.00 35636.00     0.00     8.00     0.00    0.00    0.00    0.00   0.00   0.00

avg-cpu:  %user   %nice %system %iowait  %steal   %idle
          23.62    0.00    3.02    1.01    0.00   72.36

Device:         rrqm/s   wrqm/s     r/s     w/s    rkB/s    wkB/s avgrq-sz avgqu-sz   await r_await w_await  svctm  %util
sda               0.00     0.00 1488.00    0.00  5952.00     0.00     8.00     0.14    0.10    0.10    0.00   0.10  14.20
sdb               0.00     0.00 1437.00    0.00  5748.00     0.00     8.00     0.14    0.10    0.10    0.00   0.10  14.20
sdc               0.00     0.00 1530.00    0.00  6120.00     0.00     8.00     0.16    0.10    0.10    0.00   0.10  15.70
sdd               0.00     0.00 1491.00    0.00  5964.00     0.00     8.00     0.15    0.10    0.10    0.00   0.10  15.50
sde               0.00     0.00 1514.00    0.00  6056.00     0.00     8.00     0.15    0.10    0.10    0.00   0.10  15.50
sdf               0.00     0.00 1481.00    0.00  5924.00     0.00     8.00     0.17    0.11    0.11    0.00   0.11  16.50
sdg               0.00     0.00    0.00    0.00     0.00     0.00     0.00     0.00    0.00    0.00    0.00   0.00   0.00
sdh               0.00     0.00    0.00    0.00     0.00     0.00     0.00     0.00    0.00    0.00    0.00   0.00   0.00
md0               0.00     0.00 8940.00    0.00 35760.00     0.00     8.00     0.00    0.00    0.00    0.00   0.00   0.00

avg-cpu:  %user   %nice %system %iowait  %steal   %idle
          24.69    0.00    2.27    4.28    0.00   68.77

Device:         rrqm/s   wrqm/s     r/s     w/s    rkB/s    wkB/s avgrq-sz avgqu-sz   await r_await w_await  svctm  %util
sda               0.00     0.00 1407.00    0.00  5628.00     0.00     8.00     0.12    0.09    0.09    0.00   0.09  12.10
sdb               0.00     0.00 1586.00    0.00  6344.00     0.00     8.00     0.16    0.10    0.10    0.00   0.10  15.70
sdc               0.00     0.00 1487.00    0.00  5948.00     0.00     8.00     0.15    0.10    0.10    0.00   0.10  14.90
sdd               0.00     0.00 1574.00    0.00  6296.00     0.00     8.00     0.18    0.11    0.11    0.00   0.11  17.80
sde               0.00     0.00 1428.00    0.00  5712.00     0.00     8.00     0.16    0.11    0.11    0.00   0.11  15.60
sdf               0.00     0.00 1571.00    0.00  6284.00     0.00     8.00     0.17    0.11    0.11    0.00   0.11  16.60
sdg               0.00     0.00    0.00    0.00     0.00     0.00     0.00     0.00    0.00    0.00    0.00   0.00   0.00
sdh               0.00     0.00    0.00    0.00     0.00     0.00     0.00     0.00    0.00    0.00    0.00   0.00   0.00
md0               0.00     0.00 9054.00    0.00 36216.00     0.00     8.00     0.00    0.00    0.00    0.00   0.00   0.00

avg-cpu:  %user   %nice %system %iowait  %steal   %idle
          24.81    0.00    2.03    6.08    0.00   67.09

Device:         rrqm/s   wrqm/s     r/s     w/s    rkB/s    wkB/s avgrq-sz avgqu-sz   await r_await w_await  svctm  %util
sda               0.00     0.00 1410.00    0.00  5640.00     0.00     8.00     0.14    0.10    0.10    0.00   0.10  13.90
sdb               0.00     0.00 1622.00    0.00  6488.00     0.00     8.00     0.15    0.09    0.09    0.00   0.09  15.40
sdc               0.00     0.00 1556.00    0.00  6224.00     0.00     8.00     0.16    0.11    0.11    0.00   0.11  16.40
sdd               0.00     0.00 1536.00    0.00  6144.00     0.00     8.00     0.16    0.10    0.10    0.00   0.10  16.00
sde               0.00     0.00 1541.00    0.00  6164.00     0.00     8.00     0.14    0.09    0.09    0.00   0.09  14.00
sdf               0.00     0.00 1481.00    0.00  5924.00     0.00     8.00     0.16    0.11    0.11    0.00   0.11  16.20
sdg               0.00     0.00    0.00    0.00     0.00     0.00     0.00     0.00    0.00    0.00    0.00   0.00   0.00
sdh               0.00     0.00    0.00    0.00     0.00     0.00     0.00     0.00    0.00    0.00    0.00   0.00   0.00
md0               0.00     0.00 9146.00    0.00 36584.00     0.00     8.00     0.00    0.00    0.00    0.00   0.00   0.00

avg-cpu:  %user   %nice %system %iowait  %steal   %idle
          25.00    0.00    2.02    4.80    0.00   68.18

Device:         rrqm/s   wrqm/s     r/s     w/s    rkB/s    wkB/s avgrq-sz avgqu-sz   await r_await w_await  svctm  %util
sda               0.00     0.00 1508.00    0.00  6032.00     0.00     8.00     0.15    0.10    0.10    0.00   0.10  14.70
sdb               0.00     0.00 1515.00    0.00  6060.00     0.00     8.00     0.14    0.09    0.09    0.00   0.09  14.20
sdc               0.00     0.00 1567.00    0.00  6268.00     0.00     8.00     0.15    0.10    0.10    0.00   0.10  15.20
sdd               0.00     0.00 1591.00    0.00  6364.00     0.00     8.00     0.18    0.11    0.11    0.00   0.11  17.90
sde               0.00     0.00 1431.00    0.00  5724.00     0.00     8.00     0.15    0.10    0.10    0.00   0.10  14.70
sdf               0.00     0.00 1532.00    0.00  6128.00     0.00     8.00     0.16    0.11    0.11    0.00   0.11  16.30
sdg               0.00     0.00    0.00    0.00     0.00     0.00     0.00     0.00    0.00    0.00    0.00   0.00   0.00
sdh               0.00     0.00    0.00    0.00     0.00     0.00     0.00     0.00    0.00    0.00    0.00   0.00   0.00
md0               0.00     0.00 9143.00    0.00 36572.00     0.00     8.00     0.00    0.00    0.00    0.00   0.00   0.00

avg-cpu:  %user   %nice %system %iowait  %steal   %idle
          24.69    0.25    2.52    6.05    0.00   66.50

Device:         rrqm/s   wrqm/s     r/s     w/s    rkB/s    wkB/s avgrq-sz avgqu-sz   await r_await w_await  svctm  %util
sda               0.00     0.00 1661.00    0.00  6644.00     0.00     8.00     0.17    0.10    0.10    0.00   0.10  17.30
sdb               0.00     0.00 1483.00    0.00  5932.00     0.00     8.00     0.15    0.10    0.10    0.00   0.10  14.80
sdc               0.00     0.00 1501.00    0.00  6004.00     0.00     8.00     0.15    0.10    0.10    0.00   0.10  15.40
sdd               0.00     0.00 1543.00    0.00  6172.00     0.00     8.00     0.15    0.10    0.10    0.00   0.10  15.10
sde               0.00     0.00 1485.00    0.00  5940.00     0.00     8.00     0.16    0.11    0.11    0.00   0.11  16.10
sdf               0.00     0.00 1449.00    0.00  5796.00     0.00     8.00     0.14    0.09    0.09    0.00   0.09  13.50
sdg               0.00     0.00    3.00    0.00    12.00     0.00     8.00     0.00    0.00    0.00    0.00   0.00   0.00
sdh               0.00     0.00    0.00    0.00     0.00     0.00     0.00     0.00    0.00    0.00    0.00   0.00   0.00
md0               0.00     0.00 9122.00    0.00 36488.00     0.00     8.00     0.00    0.00    0.00    0.00   0.00   0.00

avg-cpu:  %user   %nice %system %iowait  %steal   %idle
          25.06    0.00    2.03    0.76    0.00   72.15

Device:         rrqm/s   wrqm/s     r/s     w/s    rkB/s    wkB/s avgrq-sz avgqu-sz   await r_await w_await  svctm  %util
sda               0.00     0.00 1504.00    0.00  6016.00     0.00     8.00     0.16    0.11    0.11    0.00   0.11  15.80
sdb               0.00     0.00 1489.00    0.00  5956.00     0.00     8.00     0.14    0.09    0.09    0.00   0.09  13.80
sdc               0.00     0.00 1454.00    0.00  5816.00     0.00     8.00     0.16    0.11    0.11    0.00   0.11  15.80
sdd               0.00     0.00 1464.00    0.00  5856.00     0.00     8.00     0.14    0.10    0.10    0.00   0.10  14.40
sde               0.00     0.00 1521.00    0.00  6084.00     0.00     8.00     0.15    0.10    0.10    0.00   0.10  15.30
sdf               0.00     0.00 1472.00    0.00  5888.00     0.00     8.00     0.16    0.11    0.11    0.00   0.11  16.40
sdg               0.00     0.00    0.00    0.00     0.00     0.00     0.00     0.00    0.00    0.00    0.00   0.00   0.00
sdh               0.00     0.00    0.00    0.00     0.00     0.00     0.00     0.00    0.00    0.00    0.00   0.00   0.00
md0               0.00     0.00 8904.00    0.00 35616.00     0.00     8.00     0.00    0.00    0.00    0.00   0.00   0.00

avg-cpu:  %user   %nice %system %iowait  %steal   %idle
          24.62    0.00    2.76    5.78    0.00   66.83

Device:         rrqm/s   wrqm/s     r/s     w/s    rkB/s    wkB/s avgrq-sz avgqu-sz   await r_await w_await  svctm  %util
sda               0.00     0.00 1543.00    0.00  6172.00     0.00     8.00     0.15    0.10    0.10    0.00   0.10  15.00
sdb               0.00     0.00 1478.00    0.00  5912.00     0.00     8.00     0.14    0.09    0.09    0.00   0.09  13.50
sdc               0.00     0.00 1514.00    0.00  6056.00     0.00     8.00     0.17    0.11    0.11    0.00   0.11  16.50
sdd               0.00     0.00 1495.00    0.00  5980.00     0.00     8.00     0.15    0.10    0.10    0.00   0.10  14.80
sde               0.00     0.00 1518.00    0.00  6072.00     0.00     8.00     0.14    0.09    0.09    0.00   0.09  13.60
sdf               0.00     0.00 1513.00    0.00  6052.00     0.00     8.00     0.17    0.11    0.11    0.00   0.11  16.70
sdg               0.00     0.00    0.00    0.00     0.00     0.00     0.00     0.00    0.00    0.00    0.00   0.00   0.00
sdh               0.00     0.00    0.00    0.00     0.00     0.00     0.00     0.00    0.00    0.00    0.00   0.00   0.00
md0               0.00     0.00 9061.00    0.00 36244.00     0.00     8.00     0.00    0.00    0.00    0.00   0.00   0.00

avg-cpu:  %user   %nice %system %iowait  %steal   %idle
          24.75    0.00    2.27   10.61    0.00   62.37

Device:         rrqm/s   wrqm/s     r/s     w/s    rkB/s    wkB/s avgrq-sz avgqu-sz   await r_await w_await  svctm  %util
sda               0.00     0.00 1507.00    0.00  6028.00     0.00     8.00     0.14    0.09    0.09    0.00   0.09  13.70
sdb               0.00     0.00 1437.00    0.00  5748.00     0.00     8.00     0.15    0.10    0.10    0.00   0.10  14.80
sdc               0.00     0.00 1614.00    0.00  6456.00     0.00     8.00     0.14    0.09    0.09    0.00   0.09  14.40
sdd               0.00     0.00 1594.00    0.00  6376.00     0.00     8.00     0.17    0.11    0.11    0.00   0.11  17.30
sde               0.00     0.00 1575.00    0.00  6300.00     0.00     8.00     0.16    0.10    0.10    0.00   0.10  16.20
sdf               0.00     0.00 1504.00    0.00  6016.00     0.00     8.00     0.17    0.11    0.11    0.00   0.11  16.60
sdg               0.00     0.00    0.00    0.00     0.00     0.00     0.00     0.00    0.00    0.00    0.00   0.00   0.00
sdh               0.00     0.00    0.00    0.00     0.00     0.00     0.00     0.00    0.00    0.00    0.00   0.00   0.00
md0               0.00     0.00 9232.00    0.00 36928.00     0.00     8.00     0.00    0.00    0.00    0.00   0.00   0.00

