Linux 4.17.2 (bench) 	08/03/2018 	_x86_64_	(4 CPU)

avg-cpu:  %user   %nice %system %iowait  %steal   %idle
          10.30    0.02    3.95    2.37    0.00   83.36

Device:         rrqm/s   wrqm/s     r/s     w/s    rkB/s    wkB/s avgrq-sz avgqu-sz   await r_await w_await  svctm  %util
sda              37.49     4.30 1577.18  104.14 20491.46  3177.96    28.16     1.02    0.61    0.26    5.91   0.06  10.39
sdb              37.39     4.26 1577.05  104.28 20480.73  3174.57    28.14     1.02    0.61    0.26    5.85   0.06  10.26
sdc              75.66     4.32 1536.69  103.82 20472.93  3177.07    28.83     1.44    0.88    0.46    7.12   0.08  13.68
sdd              68.96     4.29 1542.55  103.90 20457.50  3173.21    28.71     1.45    0.88    0.44    7.32   0.08  13.77
sde              71.04     4.34 1547.74  103.99 20518.63  3177.52    28.69     1.47    0.89    0.45    7.43   0.08  13.79
sdf              68.12     4.31 1549.92  103.94 20499.51  3174.33    28.63     1.51    0.91    0.45    7.90   0.08  13.82
sdg               0.00     3.18   25.70   73.38   321.50   392.02    14.40     0.44    4.45    0.20    5.93   0.08   0.77
sdh               0.00     0.13    0.02    0.24     2.25     5.14    56.82     0.00    1.15    0.65    1.19   0.21   0.01
md0               0.00     0.00 9695.68  487.87 140264.08 21760.17    31.82     0.00    0.00    0.00    0.00   0.00   0.00

avg-cpu:  %user   %nice %system %iowait  %steal   %idle
          23.53    0.01    5.53    5.19    0.00   65.74

Device:         rrqm/s   wrqm/s     r/s     w/s    rkB/s    wkB/s avgrq-sz avgqu-sz   await r_await w_await  svctm  %util
sda               0.00     0.00 2223.95    0.00  8895.80     0.00     8.00     0.15    0.07    0.07    0.00   0.07  14.73
sdb               0.00     0.00 2152.20    0.00  8608.80     0.00     8.00     0.14    0.07    0.07    0.00   0.07  14.33
sdc               0.00     0.00 2163.70    0.00  8654.80     0.00     8.00     0.15    0.07    0.07    0.00   0.07  15.01
sdd               0.00     0.00 2225.90    0.00  8903.60     0.00     8.00     0.15    0.07    0.07    0.00   0.07  15.50
sde               0.00     0.00 2173.20    0.00  8692.80     0.00     8.00     0.15    0.07    0.07    0.00   0.07  14.91
sdf               0.00     0.00 2190.55    0.00  8762.20     0.00     8.00     0.15    0.07    0.07    0.00   0.07  15.03
sdg               0.00     3.50   68.70  129.05   295.20   649.00     9.55     0.81    4.08    0.12    6.19   0.07   1.36
sdh               0.00     0.00    0.00    0.00     0.00     0.00     0.00     0.00    0.00    0.00    0.00   0.00   0.00
md0               0.00     0.00 13129.55    0.00 52518.20     0.00     8.00     0.00    0.00    0.00    0.00   0.00   0.00

