Linux 4.17.2 (bench) 	08/03/2018 	_x86_64_	(4 CPU)

avg-cpu:  %user   %nice %system %iowait  %steal   %idle
          10.29    0.02    4.02    2.49    0.00   83.18

Device:         rrqm/s   wrqm/s     r/s     w/s    rkB/s    wkB/s avgrq-sz avgqu-sz   await r_await w_await  svctm  %util
sda              41.76     4.26 1626.77  103.13 20776.11  3147.13    27.66     1.03    0.59    0.26    5.91   0.06  10.60
sdb              41.65     4.22 1626.66  103.27 20765.53  3143.78    27.64     1.03    0.59    0.26    5.85   0.06  10.48
sdc              79.66     4.28 1586.57  102.82 20757.71  3146.25    28.30     1.45    0.86    0.45    7.12   0.08  13.92
sdd              73.02     4.25 1592.37  102.89 20742.48  3142.43    28.18     1.45    0.86    0.44    7.32   0.08  14.02
sde              75.09     4.29 1597.48  102.98 20802.82  3146.70    28.17     1.47    0.87    0.44    7.43   0.08  14.04
sdf              72.18     4.26 1599.64  102.93 20783.88  3143.54    28.11     1.52    0.89    0.44    7.90   0.08  14.07
sdg               0.00     3.18   26.06   73.33   322.98   392.00    14.39     0.44    4.43    0.20    5.93   0.08   0.78
sdh               0.00     0.13    0.02    0.24     2.22     5.09    56.82     0.00    1.15    0.65    1.19   0.21   0.01
md0               0.00     0.00 10019.23  483.14 142278.55 21549.10    31.20     0.00    0.00    0.00    0.00   0.00   0.00

avg-cpu:  %user   %nice %system %iowait  %steal   %idle
          24.37    0.00    3.02   13.32    0.00   59.30

Device:         rrqm/s   wrqm/s     r/s     w/s    rkB/s    wkB/s avgrq-sz avgqu-sz   await r_await w_await  svctm  %util
sda               1.00     0.00 1312.00    0.00 21152.00     0.00    32.24     0.20    0.15    0.15    0.00   0.14  18.70
sdb               4.00     0.00 1326.00    0.00 22688.00     0.00    34.22     0.19    0.14    0.14    0.00   0.13  17.30
sdc               7.00     0.00 1100.00    0.00 18184.00     0.00    33.06     0.18    0.16    0.16    0.00   0.14  15.90
sdd               4.00     0.00 1207.00    0.00 19500.00     0.00    32.31     0.20    0.17    0.17    0.00   0.16  18.90
sde               0.00     0.00 1199.00    0.00 18656.00     0.00    31.12     0.20    0.16    0.16    0.00   0.15  18.40
sdf               0.00     0.00 1278.00    0.00 20316.00     0.00    31.79     0.23    0.18    0.18    0.00   0.16  20.40
sdg               0.00    17.00   16.00   67.00   256.00  1260.00    36.53     0.21    2.49    0.06    3.07   0.07   0.60
sdh               0.00     0.00    0.00    0.00     0.00     0.00     0.00     0.00    0.00    0.00    0.00   0.00   0.00
md0               0.00     0.00 7435.00    0.00 135732.00     0.00    36.51     0.00    0.00    0.00    0.00   0.00   0.00

avg-cpu:  %user   %nice %system %iowait  %steal   %idle
          24.43    0.00    2.52    1.01    0.00   72.04

Device:         rrqm/s   wrqm/s     r/s     w/s    rkB/s    wkB/s avgrq-sz avgqu-sz   await r_await w_await  svctm  %util
sda               8.00     0.00 1113.00    0.00 20752.00     0.00    37.29     0.17    0.16    0.16    0.00   0.14  16.00
sdb               9.00     0.00 1131.00    0.00 22276.00     0.00    39.39     0.17    0.15    0.15    0.00   0.14  16.00
sdc              10.00     0.00 1127.00    0.00 22564.00     0.00    40.04     0.20    0.18    0.18    0.00   0.17  18.70
sdd               9.00     0.00 1151.00    0.00 25048.00     0.00    43.52     0.23    0.20    0.20    0.00   0.18  20.80
sde               9.00     0.00 1192.00    0.00 24056.00     0.00    40.36     0.23    0.20    0.20    0.00   0.18  21.00
sdf              10.00     0.00 1151.00    0.00 23392.00     0.00    40.65     0.21    0.18    0.18    0.00   0.17  19.20
sdg               0.00     0.00    0.00    0.00     0.00     0.00     0.00     0.00    0.00    0.00    0.00   0.00   0.00
sdh               0.00     0.00    0.00    0.00     0.00     0.00     0.00     0.00    0.00    0.00    0.00   0.00   0.00
md0               0.00     0.00 6920.00    0.00 161432.00     0.00    46.66     0.00    0.00    0.00    0.00   0.00   0.00

