Linux 4.17.2 (bench) 	08/03/2018 	_x86_64_	(4 CPU)

avg-cpu:  %user   %nice %system %iowait  %steal   %idle
          10.30    0.02    3.95    2.38    0.00   83.35

Device:         rrqm/s   wrqm/s     r/s     w/s    rkB/s    wkB/s avgrq-sz avgqu-sz   await r_await w_await  svctm  %util
sda              37.65     4.30 1579.98  104.08 20494.73  3176.01    28.11     1.02    0.61    0.26    5.91   0.06  10.40
sdb              37.55     4.26 1579.85  104.22 20484.03  3172.63    28.09     1.02    0.61    0.26    5.85   0.06  10.28
sdc              75.81     4.32 1539.52  103.76 20476.24  3175.13    28.79     1.44    0.87    0.45    7.12   0.08  13.69
sdd              69.10     4.29 1545.38  103.83 20460.80  3171.26    28.66     1.45    0.88    0.44    7.32   0.08  13.78
sde              71.19     4.33 1550.56  103.93 20521.91  3175.57    28.65     1.47    0.89    0.45    7.43   0.08  13.80
sdf              68.26     4.30 1552.74  103.87 20502.80  3172.39    28.58     1.51    0.91    0.44    7.90   0.08  13.83
sdg               0.00     3.18   25.71   73.37   321.53   392.00    14.40     0.44    4.44    0.20    5.93   0.08   0.77
sdh               0.00     0.13    0.02    0.24     2.24     5.14    56.82     0.00    1.15    0.65    1.19   0.21   0.01
md0               0.00     0.00 9713.48  487.57 140273.22 21746.86    31.77     0.00    0.00    0.00    0.00   0.00   0.00

avg-cpu:  %user   %nice %system %iowait  %steal   %idle
          24.86    0.01    1.77    3.17    0.00   70.19

Device:         rrqm/s   wrqm/s     r/s     w/s    rkB/s    wkB/s avgrq-sz avgqu-sz   await r_await w_await  svctm  %util
sda               0.00     0.00 1542.65    0.00  6170.60     0.00     8.00     0.14    0.09    0.09    0.00   0.09  14.48
sdb               0.00     0.00 1533.10    0.00  6132.40     0.00     8.00     0.15    0.10    0.10    0.00   0.10  14.82
sdc               0.00     0.00 1540.40    0.00  6161.60     0.00     8.00     0.16    0.11    0.11    0.00   0.11  16.27
sdd               0.00     0.00 1532.00    0.00  6128.00     0.00     8.00     0.18    0.12    0.12    0.00   0.12  17.63
sde               0.00     0.00 1524.80    0.00  6099.20     0.00     8.00     0.16    0.10    0.10    0.00   0.10  15.65
sdf               0.00     0.00 1539.60    0.00  6158.40     0.00     8.00     0.16    0.10    0.10    0.00   0.10  15.74
sdg               0.00     0.05   77.20    1.65   344.00    16.40     9.14     0.01    0.14    0.12    0.79   0.12   0.97
sdh               0.00     0.00    0.00    0.00     0.00     0.00     0.00     0.00    0.00    0.00    0.00   0.00   0.00
md0               0.00     0.00 9212.65    0.00 36850.60     0.00     8.00     0.00    0.00    0.00    0.00   0.00   0.00

