Linux 4.17.2 (bench) 	08/03/2018 	_x86_64_	(4 CPU)

avg-cpu:  %user   %nice %system %iowait  %steal   %idle
          10.28    0.02    4.04    2.53    0.00   83.12

Device:         rrqm/s   wrqm/s     r/s     w/s    rkB/s    wkB/s avgrq-sz avgqu-sz   await r_await w_await  svctm  %util
sda              44.31     4.25 1640.47  102.85 20837.35  3138.60    27.51     1.03    0.59    0.26    5.91   0.06  10.66
sdb              44.19     4.21 1640.39  102.99 20826.76  3135.25    27.49     1.03    0.59    0.26    5.85   0.06  10.54
sdc              82.19     4.27 1600.29  102.54 20818.90  3137.72    28.14     1.45    0.85    0.45    7.12   0.08  13.99
sdd              75.59     4.24 1606.06  102.61 20803.75  3133.90    28.02     1.46    0.85    0.44    7.32   0.08  14.08
sde              77.63     4.28 1611.15  102.71 20863.78  3138.16    28.01     1.48    0.86    0.44    7.43   0.08  14.10
sdf              74.74     4.25 1613.32  102.65 20844.96  3135.02    27.95     1.52    0.89    0.44    7.90   0.08  14.13
sdg               0.00     3.17   26.16   73.31   323.36   391.96    14.38     0.44    4.42    0.20    5.93   0.08   0.78
sdh               0.00     0.13    0.02    0.24     2.22     5.08    56.82     0.00    1.15    0.65    1.19   0.21   0.01
md0               0.00     0.00 10116.82  481.83 142670.31 21490.67    30.98     0.00    0.00    0.00    0.00   0.00   0.00

avg-cpu:  %user   %nice %system %iowait  %steal   %idle
          23.48    0.01    5.31    8.68    0.00   62.51

Device:         rrqm/s   wrqm/s     r/s     w/s    rkB/s    wkB/s avgrq-sz avgqu-sz   await r_await w_await  svctm  %util
sda              86.70     0.00  690.05    0.00 61791.60     0.00   179.09     0.34    0.49    0.49    0.00   0.33  22.75
sdb              86.35     0.00  685.80    0.00 61611.60     0.00   179.68     0.34    0.50    0.50    0.00   0.33  22.70
sdc              85.40     0.00  682.80    0.00 61969.40     0.00   181.52     0.53    0.77    0.77    0.00   0.48  32.93
sdd              86.65     0.00  684.45    0.00 61762.00     0.00   180.47     0.53    0.77    0.77    0.00   0.49  33.36
sde              87.85     0.00  665.50    0.00 61935.20     0.00   186.13     0.53    0.80    0.80    0.00   0.50  33.11
sdf              86.70     0.00  684.60    0.00 61584.20     0.00   179.91     0.54    0.78    0.78    0.00   0.48  33.18
sdg               0.00     0.00    1.20    0.35    20.80     7.00    35.87     0.00    0.29    0.38    0.00   0.29   0.04
sdh               0.00     0.00    0.00    0.00     0.00     0.00     0.00     0.00    0.00    0.00    0.00   0.00   0.00
md0               0.00     0.00 4612.95    0.00 522278.40     0.00   226.44     0.00    0.00    0.00    0.00   0.00   0.00

