Linux 4.17.2 (bench) 	08/03/2018 	_x86_64_	(4 CPU)

avg-cpu:  %user   %nice %system %iowait  %steal   %idle
          10.29    0.02    4.02    2.49    0.00   83.18

Device:         rrqm/s   wrqm/s     r/s     w/s    rkB/s    wkB/s avgrq-sz avgqu-sz   await r_await w_await  svctm  %util
sda              42.22     4.26 1628.14  103.11 20791.27  3146.52    27.65     1.03    0.59    0.26    5.91   0.06  10.61
sdb              42.12     4.22 1628.03  103.25 20780.66  3143.16    27.64     1.03    0.59    0.26    5.85   0.06  10.49
sdc              80.15     4.28 1587.90  102.80 20772.83  3145.64    28.29     1.45    0.86    0.45    7.12   0.08  13.93
sdd              73.52     4.25 1593.70  102.87 20757.61  3141.81    28.17     1.45    0.86    0.44    7.32   0.08  14.02
sde              75.59     4.29 1598.81  102.96 20817.91  3146.08    28.16     1.47    0.87    0.44    7.43   0.08  14.05
sdf              72.68     4.26 1600.97  102.91 20799.00  3142.93    28.10     1.52    0.89    0.44    7.90   0.08  14.08
sdg               0.00     3.18   26.07   73.33   323.05   392.00    14.39     0.44    4.43    0.20    5.93   0.08   0.78
sdh               0.00     0.13    0.02    0.24     2.22     5.09    56.82     0.00    1.15    0.65    1.19   0.21   0.01
md0               0.00     0.00 10030.25  483.05 142384.32 21544.89    31.19     0.00    0.00    0.00    0.00   0.00   0.00

avg-cpu:  %user   %nice %system %iowait  %steal   %idle
          24.69    0.00    2.52    1.51    0.00   71.28

Device:         rrqm/s   wrqm/s     r/s     w/s    rkB/s    wkB/s avgrq-sz avgqu-sz   await r_await w_await  svctm  %util
sda              20.00     0.00 1217.00    0.00 20948.00     0.00    34.43     0.19    0.16    0.16    0.00   0.14  17.10
sdb              20.00     0.00 1191.00    0.00 20292.00     0.00    34.08     0.20    0.16    0.16    0.00   0.14  17.20
sdc              21.00     0.00 1123.00    0.00 21188.00     0.00    37.73     0.23    0.21    0.21    0.00   0.17  19.00
sdd              23.00     0.00 1090.00    0.00 23316.00     0.00    42.78     0.25    0.23    0.23    0.00   0.18  19.80
sde              26.00     0.00 1137.00    0.00 22540.00     0.00    39.65     0.25    0.22    0.22    0.00   0.18  20.30
sdf              21.00     0.00 1122.00    0.00 21304.00     0.00    37.98     0.23    0.21    0.21    0.00   0.17  19.20
sdg               0.00     0.00    0.00    1.00     0.00    12.00    24.00     0.00    0.00    0.00    0.00   0.00   0.00
sdh               0.00     0.00    0.00    0.00     0.00     0.00     0.00     0.00    0.00    0.00    0.00   0.00   0.00
md0               0.00     0.00 7012.00    0.00 174916.00     0.00    49.89     0.00    0.00    0.00    0.00   0.00   0.00

avg-cpu:  %user   %nice %system %iowait  %steal   %idle
          24.24    0.00    2.78    1.52    0.00   71.46

Device:         rrqm/s   wrqm/s     r/s     w/s    rkB/s    wkB/s avgrq-sz avgqu-sz   await r_await w_await  svctm  %util
sda              14.00     0.00 1160.00    0.00 18744.00     0.00    32.32     0.17    0.14    0.14    0.00   0.14  16.10
sdb              15.00     0.00 1240.00    0.00 18624.00     0.00    30.04     0.17    0.14    0.14    0.00   0.13  16.40
sdc              15.00     0.00 1193.00    0.00 17548.00     0.00    29.42     0.18    0.15    0.15    0.00   0.14  17.20
sdd              18.00     0.00 1167.00    0.00 17988.00     0.00    30.83     0.19    0.16    0.16    0.00   0.15  18.00
sde              18.00     0.00 1131.00    0.00 18224.00     0.00    32.23     0.19    0.17    0.17    0.00   0.16  17.90
sdf              16.00     0.00 1189.00    0.00 18476.00     0.00    31.08     0.20    0.17    0.17    0.00   0.16  18.50
sdg               0.00     0.00    0.00    0.00     0.00     0.00     0.00     0.00    0.00    0.00    0.00   0.00   0.00
sdh               0.00     0.00    0.00    0.00     0.00     0.00     0.00     0.00    0.00    0.00    0.00   0.00   0.00
md0               0.00     0.00 7184.00    0.00 145104.00     0.00    40.40     0.00    0.00    0.00    0.00   0.00   0.00

