Linux 4.17.2 (bench) 	08/03/2018 	_x86_64_	(4 CPU)

avg-cpu:  %user   %nice %system %iowait  %steal   %idle
          10.29    0.02    3.98    2.42    0.00   83.29

Device:         rrqm/s   wrqm/s     r/s     w/s    rkB/s    wkB/s avgrq-sz avgqu-sz   await r_await w_await  svctm  %util
sda              38.89     4.28 1596.80  103.72 20604.38  3164.98    27.96     1.02    0.60    0.26    5.91   0.06  10.48
sdb              38.80     4.24 1596.67  103.86 20593.74  3161.61    27.94     1.02    0.60    0.26    5.85   0.06  10.35
sdc              76.92     4.31 1556.48  103.40 20586.01  3164.10    28.62     1.44    0.87    0.45    7.12   0.08  13.78
sdd              70.24     4.27 1562.31  103.47 20570.59  3160.25    28.49     1.45    0.87    0.44    7.32   0.08  13.87
sde              72.32     4.32 1567.46  103.57 20631.36  3164.54    28.48     1.47    0.88    0.44    7.43   0.08  13.89
sdf              69.41     4.29 1569.64  103.51 20612.34  3161.37    28.42     1.51    0.90    0.44    7.90   0.08  13.92
sdg               0.00     3.18   25.85   73.35   322.09   391.98    14.40     0.44    4.44    0.20    5.93   0.08   0.77
sdh               0.00     0.13    0.02    0.24     2.24     5.12    56.82     0.00    1.15    0.65    1.19   0.21   0.01
md0               0.00     0.00 9822.01  485.88 141077.25 21671.33    31.58     0.00    0.00    0.00    0.00   0.00   0.00

avg-cpu:  %user   %nice %system %iowait  %steal   %idle
          23.56    0.25    4.01    1.25    0.00   70.93

Device:         rrqm/s   wrqm/s     r/s     w/s    rkB/s    wkB/s avgrq-sz avgqu-sz   await r_await w_await  svctm  %util
sda               0.00     0.00 1606.00    0.00  6424.00     0.00     8.00     0.15    0.09    0.09    0.00   0.09  15.20
sdb               0.00     0.00 1492.00    0.00  5968.00     0.00     8.00     0.14    0.10    0.10    0.00   0.10  14.30
sdc               0.00     0.00 1497.00    0.00  5988.00     0.00     8.00     0.16    0.11    0.11    0.00   0.11  16.30
sdd               0.00     0.00 1473.00    0.00  5892.00     0.00     8.00     0.16    0.11    0.11    0.00   0.11  16.00
sde               0.00     0.00 1526.00    0.00  6104.00     0.00     8.00     0.15    0.10    0.10    0.00   0.10  15.20
sdf               0.00     0.00 1482.00    0.00  5928.00     0.00     8.00     0.15    0.10    0.10    0.00   0.10  14.90
sdg               0.00     0.00 1366.00    0.00  5772.00     0.00     8.45     0.16    0.12    0.12    0.00   0.11  15.50
sdh               0.00     0.00    0.00    0.00     0.00     0.00     0.00     0.00    0.00    0.00    0.00   0.00   0.00
md0               0.00     0.00 9075.00    0.00 36300.00     0.00     8.00     0.00    0.00    0.00    0.00   0.00   0.00

avg-cpu:  %user   %nice %system %iowait  %steal   %idle
          23.56    0.00    3.01    1.00    0.00   72.43

Device:         rrqm/s   wrqm/s     r/s     w/s    rkB/s    wkB/s avgrq-sz avgqu-sz   await r_await w_await  svctm  %util
sda               0.00     0.00 1493.00    0.00  5972.00     0.00     8.00     0.14    0.09    0.09    0.00   0.09  14.00
sdb               0.00     0.00 1516.00    0.00  6064.00     0.00     8.00     0.16    0.11    0.11    0.00   0.11  16.10
sdc               0.00     0.00 1566.00    0.00  6264.00     0.00     8.00     0.17    0.11    0.11    0.00   0.11  17.10
sdd               0.00     0.00 1523.00    0.00  6092.00     0.00     8.00     0.14    0.10    0.10    0.00   0.10  14.50
sde               0.00     0.00 1494.00    0.00  5976.00     0.00     8.00     0.14    0.10    0.10    0.00   0.10  14.40
sdf               0.00     0.00 1558.00    0.00  6232.00     0.00     8.00     0.16    0.11    0.11    0.00   0.11  16.40
sdg               0.00     0.00    0.00    0.00     0.00     0.00     0.00     0.00    0.00    0.00    0.00   0.00   0.00
sdh               0.00     0.00    0.00    0.00     0.00     0.00     0.00     0.00    0.00    0.00    0.00   0.00   0.00
md0               0.00     0.00 9151.00    0.00 36604.00     0.00     8.00     0.00    0.00    0.00    0.00   0.00   0.00

