Linux 4.17.2 (bench) 	08/03/2018 	_x86_64_	(4 CPU)

avg-cpu:  %user   %nice %system %iowait  %steal   %idle
          10.30    0.02    3.95    2.37    0.00   83.37

Device:         rrqm/s   wrqm/s     r/s     w/s    rkB/s    wkB/s avgrq-sz avgqu-sz   await r_await w_await  svctm  %util
sda              37.41     4.30 1576.83  104.17 20493.31  3178.77    28.16     1.02    0.61    0.26    5.91   0.06  10.38
sdb              37.31     4.26 1576.70  104.31 20482.59  3175.38    28.15     1.02    0.61    0.26    5.85   0.06  10.26
sdc              75.60     4.32 1536.33  103.85 20474.79  3177.88    28.84     1.44    0.88    0.46    7.12   0.08  13.68
sdd              68.89     4.29 1542.19  103.92 20459.36  3174.01    28.71     1.45    0.88    0.44    7.32   0.08  13.77
sde              70.98     4.34 1547.38  104.02 20520.51  3178.33    28.70     1.47    0.89    0.45    7.43   0.08  13.79
sdf              68.05     4.31 1549.56  103.96 20501.37  3175.14    28.64     1.51    0.91    0.45    7.90   0.08  13.82
sdg               0.00     3.18   25.69   73.38   321.50   392.03    14.40     0.44    4.45    0.20    5.93   0.08   0.77
sdh               0.00     0.13    0.02    0.24     2.25     5.14    56.82     0.00    1.15    0.65    1.19   0.21   0.01
md0               0.00     0.00 9693.12  488.00 140279.66 21765.70    31.83     0.00    0.00    0.00    0.00   0.00   0.00

avg-cpu:  %user   %nice %system %iowait  %steal   %idle
          24.02    0.02    5.46    9.25    0.00   61.24

Device:         rrqm/s   wrqm/s     r/s     w/s    rkB/s    wkB/s avgrq-sz avgqu-sz   await r_await w_await  svctm  %util
sda               0.00     0.00 1512.10    0.00  6048.40     0.00     8.00     0.14    0.10    0.10    0.00   0.10  14.38
sdb               0.00     0.00 1531.85    0.00  6127.40     0.00     8.00     0.15    0.10    0.10    0.00   0.10  14.61
sdc               0.00     0.00 1511.65    0.00  6046.60     0.00     8.00     0.15    0.10    0.10    0.00   0.10  15.20
sdd               0.00     0.00 1500.20    0.00  6000.80     0.00     8.00     0.16    0.10    0.10    0.00   0.10  15.64
sde               0.00     0.00 1518.10    0.00  6072.40     0.00     8.00     0.16    0.10    0.10    0.00   0.10  15.54
sdf               0.00     0.00 1512.65    0.00  6050.60     0.00     8.00     0.15    0.10    0.10    0.00   0.10  15.45
sdg               0.00     0.05    2.20    1.85    16.00    37.60    26.47     0.00    2.60    0.30    5.35   0.25   0.10
sdh               0.00     0.00    0.00    0.00     0.00     0.00     0.00     0.00    0.00    0.00    0.00   0.00   0.00
md0               0.00     0.00 9086.60    0.00 36346.40     0.00     8.00     0.00    0.00    0.00    0.00   0.00   0.00

