Linux 4.17.2 (bench) 	08/03/2018 	_x86_64_	(4 CPU)

avg-cpu:  %user   %nice %system %iowait  %steal   %idle
          10.29    0.02    4.00    2.46    0.00   83.23

Device:         rrqm/s   wrqm/s     r/s     w/s    rkB/s    wkB/s avgrq-sz avgqu-sz   await r_await w_await  svctm  %util
sda              41.15     4.27 1611.63  103.45 20670.11  3156.96    27.79     1.03    0.60    0.26    5.91   0.06  10.53
sdb              41.04     4.23 1611.52  103.59 20659.54  3153.60    27.77     1.02    0.60    0.26    5.85   0.06  10.41
sdc              79.16     4.29 1571.32  103.14 20651.76  3156.08    28.44     1.44    0.86    0.45    7.12   0.08  13.84
sdd              72.51     4.26 1577.13  103.21 20636.42  3152.24    28.31     1.45    0.86    0.44    7.32   0.08  13.93
sde              74.58     4.31 1582.27  103.31 20697.04  3156.53    28.30     1.47    0.87    0.44    7.43   0.08  13.96
sdf              71.67     4.28 1584.44  103.25 20678.04  3153.36    28.24     1.52    0.90    0.44    7.90   0.08  13.99
sdg               0.00     3.18   25.94   73.34   322.46   391.97    14.39     0.44    4.43    0.20    5.93   0.08   0.77
sdh               0.00     0.13    0.02    0.24     2.23     5.11    56.82     0.00    1.15    0.65    1.19   0.21   0.01
md0               0.00     0.00 9924.63  484.65 141493.51 21616.41    31.34     0.00    0.00    0.00    0.00   0.00   0.00

avg-cpu:  %user   %nice %system %iowait  %steal   %idle
          22.98    0.00    3.54    1.01    0.00   72.47

Device:         rrqm/s   wrqm/s     r/s     w/s    rkB/s    wkB/s avgrq-sz avgqu-sz   await r_await w_await  svctm  %util
sda               0.00     0.00 2188.00    0.00  8752.00     0.00     8.00     0.14    0.06    0.06    0.00   0.06  13.70
sdb               0.00     0.00 2061.00    0.00  8244.00     0.00     8.00     0.14    0.07    0.07    0.00   0.07  14.20
sdc               0.00     0.00 1998.00    0.00  7992.00     0.00     8.00     0.14    0.07    0.07    0.00   0.07  14.30
sdd               0.00     0.00 2277.00    0.00  9108.00     0.00     8.00     0.19    0.08    0.08    0.00   0.08  18.80
sde               0.00     0.00 2271.00    0.00  9084.00     0.00     8.00     0.15    0.07    0.07    0.00   0.07  15.30
sdf               0.00     0.00 2193.00    0.00  8772.00     0.00     8.00     0.15    0.07    0.07    0.00   0.07  15.20
sdg               0.00     0.00    3.00    0.00    60.00     0.00    40.00     0.00    0.00    0.00    0.00   0.00   0.00
sdh               0.00     0.00    0.00    0.00     0.00     0.00     0.00     0.00    0.00    0.00    0.00   0.00   0.00
md0               0.00     0.00 12990.00    0.00 51960.00     0.00     8.00     0.00    0.00    0.00    0.00   0.00   0.00

avg-cpu:  %user   %nice %system %iowait  %steal   %idle
          23.12    0.00    3.77    1.01    0.00   72.11

Device:         rrqm/s   wrqm/s     r/s     w/s    rkB/s    wkB/s avgrq-sz avgqu-sz   await r_await w_await  svctm  %util
sda               0.00     0.00 2488.00    0.00  9952.00     0.00     8.00     0.14    0.06    0.06    0.00   0.06  14.50
sdb               0.00     0.00 2382.00    0.00  9528.00     0.00     8.00     0.15    0.07    0.07    0.00   0.07  15.50
sdc               0.00     0.00 2172.00    0.00  8688.00     0.00     8.00     0.15    0.07    0.07    0.00   0.07  15.30
sdd               0.00     0.00 1917.00    0.00  7668.00     0.00     8.00     0.16    0.09    0.09    0.00   0.09  16.40
sde               0.00     0.00 2092.00    0.00  8368.00     0.00     8.00     0.14    0.07    0.07    0.00   0.07  14.20
sdf               0.00     0.00 2165.00    0.00  8660.00     0.00     8.00     0.15    0.07    0.07    0.00   0.07  15.20
sdg               0.00     0.00    0.00    0.00     0.00     0.00     0.00     0.00    0.00    0.00    0.00   0.00   0.00
sdh               0.00     0.00    0.00    0.00     0.00     0.00     0.00     0.00    0.00    0.00    0.00   0.00   0.00
md0               0.00     0.00 13215.00    0.00 52860.00     0.00     8.00     0.00    0.00    0.00    0.00   0.00   0.00

avg-cpu:  %user   %nice %system %iowait  %steal   %idle
          23.37    0.00    3.52    1.01    0.00   72.11

Device:         rrqm/s   wrqm/s     r/s     w/s    rkB/s    wkB/s avgrq-sz avgqu-sz   await r_await w_await  svctm  %util
sda               0.00     0.00 1909.00    0.00  7636.00     0.00     8.00     0.14    0.07    0.07    0.00   0.07  14.00
sdb               0.00     0.00 2200.00    0.00  8800.00     0.00     8.00     0.14    0.06    0.06    0.00   0.06  13.80
sdc               0.00     0.00 2168.00    0.00  8672.00     0.00     8.00     0.14    0.07    0.07    0.00   0.07  14.10
sdd               0.00     0.00 2208.00    0.00  8832.00     0.00     8.00     0.18    0.08    0.08    0.00   0.08  18.20
sde               0.00     0.00 2322.00    0.00  9288.00     0.00     8.00     0.15    0.06    0.06    0.00   0.06  14.70
sdf               0.00     0.00 2372.00    0.00  9488.00     0.00     8.00     0.16    0.07    0.07    0.00   0.07  16.20
sdg               0.00     0.00    0.00    0.00     0.00     0.00     0.00     0.00    0.00    0.00    0.00   0.00   0.00
sdh               0.00     0.00    0.00    0.00     0.00     0.00     0.00     0.00    0.00    0.00    0.00   0.00   0.00
md0               0.00     0.00 13179.00    0.00 52716.00     0.00     8.00     0.00    0.00    0.00    0.00   0.00   0.00

avg-cpu:  %user   %nice %system %iowait  %steal   %idle
          23.48    0.00    3.03    1.26    0.00   72.22

Device:         rrqm/s   wrqm/s     r/s     w/s    rkB/s    wkB/s avgrq-sz avgqu-sz   await r_await w_await  svctm  %util
sda               0.00     0.00 2102.00    0.00  8408.00     0.00     8.00     0.13    0.06    0.06    0.00   0.06  12.90
sdb               0.00     0.00 2129.00    0.00  8516.00     0.00     8.00     0.14    0.07    0.07    0.00   0.07  14.10
sdc               0.00     0.00 2116.00    0.00  8464.00     0.00     8.00     0.14    0.07    0.07    0.00   0.07  14.50
sdd               0.00     0.00 2293.00    0.00  9172.00     0.00     8.00     0.19    0.08    0.08    0.00   0.08  19.10
sde               0.00     0.00 2060.00    0.00  8240.00     0.00     8.00     0.15    0.07    0.07    0.00   0.07  14.70
sdf               0.00     0.00 2246.00    0.00  8984.00     0.00     8.00     0.16    0.07    0.07    0.00   0.07  15.60
sdg               0.00     1.00    5.00    1.00    20.00    20.00    13.33     0.00    0.00    0.00    0.00   0.00   0.00
sdh               0.00     0.00    0.00    0.00     0.00     0.00     0.00     0.00    0.00    0.00    0.00   0.00   0.00
md0               0.00     0.00 12946.00    0.00 51784.00     0.00     8.00     0.00    0.00    0.00    0.00   0.00   0.00

avg-cpu:  %user   %nice %system %iowait  %steal   %idle
          24.81    0.00    2.30    0.77    0.00   72.12

Device:         rrqm/s   wrqm/s     r/s     w/s    rkB/s    wkB/s avgrq-sz avgqu-sz   await r_await w_await  svctm  %util
sda               0.00     0.00 2132.00    0.00  8528.00     0.00     8.00     0.15    0.07    0.07    0.00   0.07  14.90
sdb               0.00     0.00 2023.00    0.00  8092.00     0.00     8.00     0.14    0.07    0.07    0.00   0.07  13.50
sdc               0.00     0.00 2184.00    0.00  8736.00     0.00     8.00     0.15    0.07    0.07    0.00   0.07  15.50
sdd               0.00     0.00 2095.00    0.00  8380.00     0.00     8.00     0.17    0.08    0.08    0.00   0.08  17.50
sde               0.00     0.00 2199.00    0.00  8796.00     0.00     8.00     0.15    0.07    0.07    0.00   0.07  15.20
sdf               0.00     0.00 2215.00    0.00  8860.00     0.00     8.00     0.15    0.07    0.07    0.00   0.07  15.40
sdg               0.00     0.00    0.00    0.00     0.00     0.00     0.00     0.00    0.00    0.00    0.00   0.00   0.00
sdh               0.00     0.00    0.00    0.00     0.00     0.00     0.00     0.00    0.00    0.00    0.00   0.00   0.00
md0               0.00     0.00 12851.00    0.00 51404.00     0.00     8.00     0.00    0.00    0.00    0.00   0.00   0.00

avg-cpu:  %user   %nice %system %iowait  %steal   %idle
          25.06    0.00    2.53    2.53    0.00   69.87

Device:         rrqm/s   wrqm/s     r/s     w/s    rkB/s    wkB/s avgrq-sz avgqu-sz   await r_await w_await  svctm  %util
sda               0.00     0.00 2217.00    0.00  8868.00     0.00     8.00     0.14    0.06    0.06    0.00   0.06  14.20
sdb               0.00     0.00 2084.00    0.00  8336.00     0.00     8.00     0.13    0.06    0.06    0.00   0.06  13.40
sdc               0.00     0.00 2210.00    0.00  8840.00     0.00     8.00     0.15    0.07    0.07    0.00   0.07  15.40
sdd               0.00     0.00 2114.00    0.00  8456.00     0.00     8.00     0.18    0.08    0.08    0.00   0.08  17.60
sde               0.00     0.00 2139.00    0.00  8556.00     0.00     8.00     0.15    0.07    0.07    0.00   0.07  14.90
sdf               0.00     0.00 2115.00    0.00  8460.00     0.00     8.00     0.15    0.07    0.07    0.00   0.07  15.00
sdg               0.00     0.00    0.00    0.00     0.00     0.00     0.00     0.00    0.00    0.00    0.00   0.00   0.00
sdh               0.00     0.00    0.00    0.00     0.00     0.00     0.00     0.00    0.00    0.00    0.00   0.00   0.00
md0               0.00     0.00 12876.00    0.00 51504.00     0.00     8.00     0.00    0.00    0.00    0.00   0.00   0.00

avg-cpu:  %user   %nice %system %iowait  %steal   %idle
          24.74    0.00    2.55    1.02    0.00   71.68

Device:         rrqm/s   wrqm/s     r/s     w/s    rkB/s    wkB/s avgrq-sz avgqu-sz   await r_await w_await  svctm  %util
sda               0.00     0.00 2169.00    0.00  8676.00     0.00     8.00     0.13    0.06    0.06    0.00   0.06  13.40
sdb               0.00     0.00 2016.00    0.00  8064.00     0.00     8.00     0.12    0.06    0.06    0.00   0.06  11.80
sdc               0.00     0.00 2299.00    0.00  9196.00     0.00     8.00     0.15    0.07    0.07    0.00   0.07  15.00
sdd               0.00     0.00 2238.00    0.00  8952.00     0.00     8.00     0.19    0.09    0.09    0.00   0.08  19.00
sde               0.00     0.00 2404.00    0.00  9616.00     0.00     8.00     0.16    0.07    0.07    0.00   0.07  16.40
sdf               0.00     0.00 1891.00    0.00  7564.00     0.00     8.00     0.13    0.07    0.07    0.00   0.07  13.00
sdg               0.00     0.00    0.00    0.00     0.00     0.00     0.00     0.00    0.00    0.00    0.00   0.00   0.00
sdh               0.00     0.00    0.00    0.00     0.00     0.00     0.00     0.00    0.00    0.00    0.00   0.00   0.00
md0               0.00     0.00 13018.00    0.00 52072.00     0.00     8.00     0.00    0.00    0.00    0.00   0.00   0.00

avg-cpu:  %user   %nice %system %iowait  %steal   %idle
          24.81    0.00    2.78    1.27    0.00   71.14

Device:         rrqm/s   wrqm/s     r/s     w/s    rkB/s    wkB/s avgrq-sz avgqu-sz   await r_await w_await  svctm  %util
sda               0.00     0.00 2351.00    0.00  9404.00     0.00     8.00     0.14    0.06    0.06    0.00   0.06  14.30
sdb               0.00     0.00 2121.00    0.00  8484.00     0.00     8.00     0.14    0.07    0.07    0.00   0.07  13.90
sdc               0.00     0.00 2045.00    0.00  8180.00     0.00     8.00     0.15    0.07    0.07    0.00   0.07  14.60
sdd               0.00     0.00 2114.00    0.00  8456.00     0.00     8.00     0.17    0.08    0.08    0.00   0.08  17.30
sde               0.00     0.00 2328.00    0.00  9312.00     0.00     8.00     0.15    0.07    0.07    0.00   0.07  15.40
sdf               0.00     0.00 2018.00    0.00  8072.00     0.00     8.00     0.15    0.07    0.07    0.00   0.07  14.70
sdg               0.00     0.00   21.00    0.00   252.00     0.00    24.00     0.01    0.24    0.24    0.00   0.10   0.20
sdh               0.00     0.00    0.00    0.00     0.00     0.00     0.00     0.00    0.00    0.00    0.00   0.00   0.00
md0               0.00     0.00 12976.00    0.00 51904.00     0.00     8.00     0.00    0.00    0.00    0.00   0.00   0.00

avg-cpu:  %user   %nice %system %iowait  %steal   %idle
          24.94    0.00    3.82   10.18    0.00   61.07

Device:         rrqm/s   wrqm/s     r/s     w/s    rkB/s    wkB/s avgrq-sz avgqu-sz   await r_await w_await  svctm  %util
sda               0.00     0.00 2077.00    0.00  8308.00     0.00     8.00     0.13    0.06    0.06    0.00   0.06  13.00
sdb               0.00     0.00 2176.00    0.00  8704.00     0.00     8.00     0.14    0.06    0.06    0.00   0.06  13.90
sdc               0.00     0.00 2069.00    0.00  8276.00     0.00     8.00     0.14    0.07    0.07    0.00   0.07  14.00
sdd               0.00     0.00 2312.00    0.00  9248.00     0.00     8.00     0.17    0.08    0.08    0.00   0.08  17.40
sde               0.00     0.00 1928.00    0.00  7712.00     0.00     8.00     0.12    0.06    0.06    0.00   0.06  12.10
sdf               0.00     0.00 2531.00    0.00 10124.00     0.00     8.00     0.17    0.07    0.07    0.00   0.07  16.70
sdg               0.00     0.00 1894.00    0.00  8068.00     0.00     8.52     0.23    0.12    0.12    0.00   0.11  21.30
sdh               0.00     0.00    0.00    0.00     0.00     0.00     0.00     0.00    0.00    0.00    0.00   0.00   0.00
md0               0.00     0.00 13094.00    0.00 52376.00     0.00     8.00     0.00    0.00    0.00    0.00   0.00   0.00

avg-cpu:  %user   %nice %system %iowait  %steal   %idle
          24.87    0.00    2.79    2.28    0.00   70.05

Device:         rrqm/s   wrqm/s     r/s     w/s    rkB/s    wkB/s avgrq-sz avgqu-sz   await r_await w_await  svctm  %util
sda               0.00     0.00 2213.00    0.00  8852.00     0.00     8.00     0.15    0.07    0.07    0.00   0.07  15.40
sdb               0.00     0.00 1862.00    0.00  7448.00     0.00     8.00     0.12    0.06    0.06    0.00   0.06  11.90
sdc               0.00     0.00 2297.00    0.00  9188.00     0.00     8.00     0.15    0.07    0.07    0.00   0.06  14.90
sdd               0.00     0.00 2200.00    0.00  8800.00     0.00     8.00     0.15    0.07    0.07    0.00   0.07  14.70
sde               0.00     0.00 2327.00    0.00  9308.00     0.00     8.00     0.16    0.07    0.07    0.00   0.07  15.80
sdf               0.00     0.00 2485.00    0.00  9940.00     0.00     8.00     0.17    0.07    0.07    0.00   0.07  16.50
sdg               0.00     0.00    0.00    0.00     0.00     0.00     0.00     0.00    0.00    0.00    0.00   0.00   0.00
sdh               0.00     0.00    0.00    0.00     0.00     0.00     0.00     0.00    0.00    0.00    0.00   0.00   0.00
md0               0.00     0.00 13384.00    0.00 53536.00     0.00     8.00     0.00    0.00    0.00    0.00   0.00   0.00

avg-cpu:  %user   %nice %system %iowait  %steal   %idle
          24.68    0.00    2.54    1.02    0.00   71.76

Device:         rrqm/s   wrqm/s     r/s     w/s    rkB/s    wkB/s avgrq-sz avgqu-sz   await r_await w_await  svctm  %util
sda               0.00     0.00 2094.00    0.00  8376.00     0.00     8.00     0.14    0.07    0.07    0.00   0.07  14.00
sdb               0.00     0.00 2272.00    0.00  9088.00     0.00     8.00     0.15    0.07    0.07    0.00   0.07  15.00
sdc               0.00     0.00 2015.00    0.00  8060.00     0.00     8.00     0.14    0.07    0.07    0.00   0.07  13.60
sdd               0.00     0.00 2199.00    0.00  8796.00     0.00     8.00     0.15    0.07    0.07    0.00   0.07  15.30
sde               0.00     0.00 2348.00    0.00  9392.00     0.00     8.00     0.17    0.07    0.07    0.00   0.07  16.50
sdf               0.00     0.00 2339.00    0.00  9356.00     0.00     8.00     0.16    0.07    0.07    0.00   0.07  15.80
sdg               0.00     0.00    0.00    0.00     0.00     0.00     0.00     0.00    0.00    0.00    0.00   0.00   0.00
sdh               0.00     0.00    0.00    0.00     0.00     0.00     0.00     0.00    0.00    0.00    0.00   0.00   0.00
md0               0.00     0.00 13270.00    0.00 53080.00     0.00     8.00     0.00    0.00    0.00    0.00   0.00   0.00

avg-cpu:  %user   %nice %system %iowait  %steal   %idle
          25.06    0.00    2.78    3.04    0.00   69.11

Device:         rrqm/s   wrqm/s     r/s     w/s    rkB/s    wkB/s avgrq-sz avgqu-sz   await r_await w_await  svctm  %util
sda               0.00     0.00 2245.00    0.00  8980.00     0.00     8.00     0.15    0.07    0.07    0.00   0.07  15.00
sdb               0.00     0.00 2537.00    0.00 10148.00     0.00     8.00     0.15    0.06    0.06    0.00   0.06  15.00
sdc               0.00     0.00 2267.00    0.00  9068.00     0.00     8.00     0.16    0.07    0.07    0.00   0.07  16.00
sdd               0.00     0.00 2164.00    0.00  8656.00     0.00     8.00     0.15    0.07    0.07    0.00   0.07  14.70
sde               0.00     0.00 2074.00    0.00  8296.00     0.00     8.00     0.14    0.07    0.07    0.00   0.07  13.90
sdf               0.00     0.00 2141.00    0.00  8564.00     0.00     8.00     0.16    0.07    0.07    0.00   0.07  15.60
sdg               0.00     0.00    0.00    0.00     0.00     0.00     0.00     0.00    0.00    0.00    0.00   0.00   0.00
sdh               0.00     0.00    0.00    0.00     0.00     0.00     0.00     0.00    0.00    0.00    0.00   0.00   0.00
md0               0.00     0.00 13425.00    0.00 53700.00     0.00     8.00     0.00    0.00    0.00    0.00   0.00   0.00

avg-cpu:  %user   %nice %system %iowait  %steal   %idle
          24.74    0.00    2.30    2.55    0.00   70.41

Device:         rrqm/s   wrqm/s     r/s     w/s    rkB/s    wkB/s avgrq-sz avgqu-sz   await r_await w_await  svctm  %util
sda               0.00     0.00 2077.00    0.00  8308.00     0.00     8.00     0.14    0.07    0.07    0.00   0.07  13.80
sdb               0.00     0.00 2243.00    0.00  8972.00     0.00     8.00     0.13    0.06    0.06    0.00   0.06  12.90
sdc               0.00     0.00 2279.00    0.00  9116.00     0.00     8.00     0.16    0.07    0.07    0.00   0.07  16.10
sdd               0.00     0.00 2020.00    0.00  8080.00     0.00     8.00     0.15    0.07    0.07    0.00   0.07  14.80
sde               0.00     0.00 2138.00    0.00  8552.00     0.00     8.00     0.15    0.07    0.07    0.00   0.07  15.50
sdf               0.00     0.00 2447.00    0.00  9788.00     0.00     8.00     0.17    0.07    0.07    0.00   0.07  16.70
sdg               0.00     0.00    0.00    0.00     0.00     0.00     0.00     0.00    0.00    0.00    0.00   0.00   0.00
sdh               0.00     0.00    0.00    0.00     0.00     0.00     0.00     0.00    0.00    0.00    0.00   0.00   0.00
md0               0.00     0.00 13203.00    0.00 52812.00     0.00     8.00     0.00    0.00    0.00    0.00   0.00   0.00

avg-cpu:  %user   %nice %system %iowait  %steal   %idle
          24.94    0.00    2.54    1.27    0.00   71.25

Device:         rrqm/s   wrqm/s     r/s     w/s    rkB/s    wkB/s avgrq-sz avgqu-sz   await r_await w_await  svctm  %util
sda               0.00     0.00 2375.00    0.00  9500.00     0.00     8.00     0.16    0.07    0.07    0.00   0.07  16.00
sdb               0.00     0.00 2386.00    0.00  9544.00     0.00     8.00     0.16    0.07    0.07    0.00   0.07  15.70
sdc               0.00     0.00 2412.00    0.00  9648.00     0.00     8.00     0.17    0.07    0.07    0.00   0.07  16.80
sdd               0.00     0.00 2127.00    0.00  8508.00     0.00     8.00     0.15    0.07    0.07    0.00   0.07  15.00
sde               0.00     0.00 1997.00    0.00  7988.00     0.00     8.00     0.13    0.07    0.07    0.00   0.07  13.40
sdf               0.00     0.00 2091.00    0.00  8364.00     0.00     8.00     0.14    0.07    0.07    0.00   0.07  13.80
sdg               0.00     0.00    7.00    6.00    28.00    56.00    12.92     0.00    0.31    0.29    0.33   0.23   0.30
sdh               0.00     0.00    0.00    0.00     0.00     0.00     0.00     0.00    0.00    0.00    0.00   0.00   0.00
md0               0.00     0.00 13390.00    0.00 53560.00     0.00     8.00     0.00    0.00    0.00    0.00   0.00   0.00

avg-cpu:  %user   %nice %system %iowait  %steal   %idle
          24.87    0.00    2.79    4.57    0.00   67.77

Device:         rrqm/s   wrqm/s     r/s     w/s    rkB/s    wkB/s avgrq-sz avgqu-sz   await r_await w_await  svctm  %util
sda               0.00     0.00 1950.00    0.00  7800.00     0.00     8.00     0.13    0.07    0.07    0.00   0.07  12.70
sdb               0.00     0.00 2120.00    0.00  8480.00     0.00     8.00     0.14    0.06    0.06    0.00   0.06  13.60
sdc               0.00     0.00 2232.00    0.00  8928.00     0.00     8.00     0.14    0.06    0.06    0.00   0.06  14.40
sdd               0.00     0.00 2643.00    0.00 10572.00     0.00     8.00     0.19    0.07    0.07    0.00   0.07  19.10
sde               0.00     0.00 2138.00    0.00  8552.00     0.00     8.00     0.14    0.07    0.07    0.00   0.07  14.30
sdf               0.00     0.00 2269.00    0.00  9076.00     0.00     8.00     0.16    0.07    0.07    0.00   0.07  16.00
sdg               0.00     0.00    0.00    0.00     0.00     0.00     0.00     0.00    0.00    0.00    0.00   0.00   0.00
sdh               0.00     0.00    0.00    0.00     0.00     0.00     0.00     0.00    0.00    0.00    0.00   0.00   0.00
md0               0.00     0.00 13352.00    0.00 53408.00     0.00     8.00     0.00    0.00    0.00    0.00   0.00   0.00

avg-cpu:  %user   %nice %system %iowait  %steal   %idle
          25.06    0.00    2.30    0.77    0.00   71.87

Device:         rrqm/s   wrqm/s     r/s     w/s    rkB/s    wkB/s avgrq-sz avgqu-sz   await r_await w_await  svctm  %util
sda               0.00     0.00 2224.00    0.00  8896.00     0.00     8.00     0.14    0.06    0.06    0.00   0.06  14.20
sdb               0.00     0.00 2001.00    0.00  8004.00     0.00     8.00     0.13    0.07    0.07    0.00   0.07  13.40
sdc               0.00     0.00 2425.00    0.00  9700.00     0.00     8.00     0.17    0.07    0.07    0.00   0.07  17.50
sdd               0.00     0.00 2701.00    0.00 10804.00     0.00     8.00     0.17    0.06    0.06    0.00   0.06  17.40
sde               0.00     0.00 2203.00    0.00  8812.00     0.00     8.00     0.15    0.07    0.07    0.00   0.07  14.90
sdf               0.00     0.00 2151.00    0.00  8604.00     0.00     8.00     0.14    0.06    0.06    0.00   0.06  13.60
sdg               0.00     0.00    0.00    0.00     0.00     0.00     0.00     0.00    0.00    0.00    0.00   0.00   0.00
sdh               0.00     0.00    0.00    0.00     0.00     0.00     0.00     0.00    0.00    0.00    0.00   0.00   0.00
md0               0.00     0.00 13705.00    0.00 54820.00     0.00     8.00     0.00    0.00    0.00    0.00   0.00   0.00

avg-cpu:  %user   %nice %system %iowait  %steal   %idle
          25.06    0.00    2.53    1.01    0.00   71.39

Device:         rrqm/s   wrqm/s     r/s     w/s    rkB/s    wkB/s avgrq-sz avgqu-sz   await r_await w_await  svctm  %util
sda               0.00     0.00 2146.00    0.00  8584.00     0.00     8.00     0.15    0.07    0.07    0.00   0.07  15.00
sdb               0.00     0.00 2160.00    0.00  8640.00     0.00     8.00     0.14    0.07    0.07    0.00   0.07  14.50
sdc               0.00     0.00 2131.00    0.00  8524.00     0.00     8.00     0.14    0.07    0.07    0.00   0.07  14.00
sdd               0.00     0.00 2357.00    0.00  9428.00     0.00     8.00     0.17    0.07    0.07    0.00   0.07  16.80
sde               0.00     0.00 2268.00    0.00  9072.00     0.00     8.00     0.15    0.07    0.07    0.00   0.07  14.90
sdf               0.00     0.00 2013.00    0.00  8052.00     0.00     8.00     0.14    0.07    0.07    0.00   0.07  14.30
sdg               0.00     0.00    0.00    0.00     0.00     0.00     0.00     0.00    0.00    0.00    0.00   0.00   0.00
sdh               0.00     0.00    0.00    0.00     0.00     0.00     0.00     0.00    0.00    0.00    0.00   0.00   0.00
md0               0.00     0.00 13074.00    0.00 52296.00     0.00     8.00     0.00    0.00    0.00    0.00   0.00   0.00

avg-cpu:  %user   %nice %system %iowait  %steal   %idle
          24.87    0.25    2.54    4.31    0.00   68.02

Device:         rrqm/s   wrqm/s     r/s     w/s    rkB/s    wkB/s avgrq-sz avgqu-sz   await r_await w_await  svctm  %util
sda               0.00     0.00 2038.00    0.00  8152.00     0.00     8.00     0.13    0.06    0.06    0.00   0.06  12.80
sdb               0.00     0.00 2058.00    0.00  8232.00     0.00     8.00     0.14    0.07    0.07    0.00   0.07  13.90
sdc               0.00     0.00 2096.00    0.00  8384.00     0.00     8.00     0.15    0.07    0.07    0.00   0.07  15.00
sdd               0.00     0.00 2285.00    0.00  9140.00     0.00     8.00     0.15    0.06    0.06    0.00   0.06  14.60
sde               0.00     0.00 2412.00    0.00  9648.00     0.00     8.00     0.16    0.07    0.07    0.00   0.07  16.40
sdf               0.00     0.00 2517.00    0.00 10068.00     0.00     8.00     0.17    0.07    0.07    0.00   0.07  17.30
sdg               0.00     0.00    1.00    0.00     4.00     0.00     8.00     0.00    0.00    0.00    0.00   0.00   0.00
sdh               0.00     0.00    0.00    0.00     0.00     0.00     0.00     0.00    0.00    0.00    0.00   0.00   0.00
md0               0.00     0.00 13404.00    0.00 53616.00     0.00     8.00     0.00    0.00    0.00    0.00   0.00   0.00

avg-cpu:  %user   %nice %system %iowait  %steal   %idle
          24.68    0.00    3.05    0.76    0.00   71.50

Device:         rrqm/s   wrqm/s     r/s     w/s    rkB/s    wkB/s avgrq-sz avgqu-sz   await r_await w_await  svctm  %util
sda               0.00     0.00 2361.00    0.00  9444.00     0.00     8.00     0.15    0.07    0.07    0.00   0.07  15.50
sdb               0.00     0.00 2256.00    0.00  9024.00     0.00     8.00     0.14    0.06    0.06    0.00   0.06  14.30
sdc               0.00     0.00 2279.00    0.00  9116.00     0.00     8.00     0.15    0.06    0.06    0.00   0.06  14.60
sdd               0.00     0.00 2227.00    0.00  8908.00     0.00     8.00     0.15    0.07    0.07    0.00   0.07  15.00
sde               0.00     0.00 2033.00    0.00  8132.00     0.00     8.00     0.15    0.07    0.07    0.00   0.07  14.80
sdf               0.00     0.00 2289.00    0.00  9156.00     0.00     8.00     0.15    0.07    0.07    0.00   0.06  14.80
sdg               0.00     0.00    1.00    0.00     4.00     0.00     8.00     0.00    0.00    0.00    0.00   0.00   0.00
sdh               0.00     0.00    0.00    0.00     0.00     0.00     0.00     0.00    0.00    0.00    0.00   0.00   0.00
md0               0.00     0.00 13448.00    0.00 53792.00     0.00     8.00     0.00    0.00    0.00    0.00   0.00   0.00

avg-cpu:  %user   %nice %system %iowait  %steal   %idle
          25.00    0.00    2.30    0.77    0.00   71.94

Device:         rrqm/s   wrqm/s     r/s     w/s    rkB/s    wkB/s avgrq-sz avgqu-sz   await r_await w_await  svctm  %util
sda               0.00     0.00 2069.00    0.00  8276.00     0.00     8.00     0.14    0.07    0.07    0.00   0.07  14.20
sdb               0.00     0.00 2198.00    0.00  8792.00     0.00     8.00     0.14    0.07    0.07    0.00   0.07  14.40
sdc               0.00     0.00 2179.00    0.00  8716.00     0.00     8.00     0.15    0.07    0.07    0.00   0.07  14.80
sdd               0.00     0.00 2328.00    0.00  9312.00     0.00     8.00     0.16    0.07    0.07    0.00   0.07  15.80
sde               0.00     0.00 2193.00    0.00  8772.00     0.00     8.00     0.15    0.07    0.07    0.00   0.07  14.60
sdf               0.00     0.00 2443.00    0.00  9772.00     0.00     8.00     0.17    0.07    0.07    0.00   0.07  16.50
sdg               0.00     0.00    0.00    0.00     0.00     0.00     0.00     0.00    0.00    0.00    0.00   0.00   0.00
sdh               0.00     0.00    0.00    0.00     0.00     0.00     0.00     0.00    0.00    0.00    0.00   0.00   0.00
md0               0.00     0.00 13408.00    0.00 53632.00     0.00     8.00     0.00    0.00    0.00    0.00   0.00   0.00

