Linux 4.17.2 (bench) 	08/03/2018 	_x86_64_	(4 CPU)

avg-cpu:  %user   %nice %system %iowait  %steal   %idle
          10.30    0.02    3.96    2.40    0.00   83.32

Device:         rrqm/s   wrqm/s     r/s     w/s    rkB/s    wkB/s avgrq-sz avgqu-sz   await r_await w_await  svctm  %util
sda              38.66     4.29 1586.48  103.95 20515.38  3172.10    28.03     1.02    0.60    0.26    5.91   0.06  10.43
sdb              38.56     4.25 1586.35  104.09 20504.70  3168.72    28.01     1.02    0.60    0.26    5.85   0.06  10.30
sdc              76.76     4.31 1546.07  103.63 20496.94  3171.21    28.69     1.44    0.87    0.45    7.12   0.08  13.72
sdd              70.07     4.28 1551.92  103.70 20481.54  3167.35    28.57     1.45    0.87    0.44    7.32   0.08  13.81
sde              72.16     4.33 1557.09  103.80 20542.53  3171.66    28.56     1.47    0.88    0.45    7.43   0.08  13.83
sdf              69.24     4.30 1559.27  103.75 20523.47  3168.48    28.49     1.51    0.91    0.44    7.90   0.08  13.86
sdg               0.00     3.18   25.75   73.36   321.64   391.97    14.40     0.44    4.44    0.20    5.93   0.08   0.77
sdh               0.00     0.13    0.02    0.24     2.24     5.13    56.82     0.00    1.15    0.65    1.19   0.21   0.01
md0               0.00     0.00 9758.52  486.97 140396.49 21720.05    31.65     0.00    0.00    0.00    0.00   0.00   0.00

avg-cpu:  %user   %nice %system %iowait  %steal   %idle
          24.07    0.00    4.71   16.13    0.00   55.09

Device:         rrqm/s   wrqm/s     r/s     w/s    rkB/s    wkB/s avgrq-sz avgqu-sz   await r_await w_await  svctm  %util
sda               0.00     0.00 1476.00    0.00  5904.00     0.00     8.00     0.14    0.09    0.09    0.00   0.09  13.90
sdb               0.00     0.00 1513.00    0.00  6052.00     0.00     8.00     0.16    0.11    0.11    0.00   0.11  16.10
sdc               0.00     0.00 1492.00    0.00  5968.00     0.00     8.00     0.14    0.09    0.09    0.00   0.09  14.00
sdd               0.00     0.00 1460.00    0.00  5840.00     0.00     8.00     0.15    0.10    0.10    0.00   0.10  15.20
sde               0.00     0.00 1504.00    0.00  6016.00     0.00     8.00     0.16    0.10    0.10    0.00   0.10  15.70
sdf               0.00     0.00 1557.00    0.00  6228.00     0.00     8.00     0.14    0.09    0.09    0.00   0.09  14.10
sdg               0.00     0.00   19.00    0.00   412.00     0.00    43.37     0.00    0.21    0.21    0.00   0.16   0.30
sdh               0.00     0.00    0.00    0.00     0.00     0.00     0.00     0.00    0.00    0.00    0.00   0.00   0.00
md0               0.00     0.00 9004.00    0.00 36016.00     0.00     8.00     0.00    0.00    0.00    0.00   0.00   0.00

avg-cpu:  %user   %nice %system %iowait  %steal   %idle
          24.19    0.00    4.49   18.45    0.00   52.87

Device:         rrqm/s   wrqm/s     r/s     w/s    rkB/s    wkB/s avgrq-sz avgqu-sz   await r_await w_await  svctm  %util
sda               0.00     0.00 1519.80    0.00  6079.21     0.00     8.00     0.15    0.10    0.10    0.00   0.10  15.45
sdb               0.00     0.00 1478.22    0.00  5912.87     0.00     8.00     0.14    0.09    0.09    0.00   0.09  13.96
sdc               0.00     0.00 1450.50    0.00  5801.98     0.00     8.00     0.14    0.10    0.10    0.00   0.10  14.46
sdd               0.00     0.00 1611.88    0.00  6447.52     0.00     8.00     0.17    0.10    0.10    0.00   0.10  16.63
sde               0.00     0.00 1420.79    0.00  5683.17     0.00     8.00     0.14    0.10    0.10    0.00   0.10  14.26
sdf               0.00     0.00 1450.50    0.00  5801.98     0.00     8.00     0.16    0.11    0.11    0.00   0.11  16.14
sdg               0.00     0.00    0.00    0.00     0.00     0.00     0.00     0.00    0.00    0.00    0.00   0.00   0.00
sdh               0.00     0.00    0.00    0.00     0.00     0.00     0.00     0.00    0.00    0.00    0.00   0.00   0.00
md0               0.00     0.00 8930.69    0.00 35722.77     0.00     8.00     0.00    0.00    0.00    0.00   0.00   0.00

avg-cpu:  %user   %nice %system %iowait  %steal   %idle
          24.56    0.00    3.51   18.55    0.00   53.38

Device:         rrqm/s   wrqm/s     r/s     w/s    rkB/s    wkB/s avgrq-sz avgqu-sz   await r_await w_await  svctm  %util
sda               0.00     0.00 1512.00    0.00  6048.00     0.00     8.00     0.15    0.10    0.10    0.00   0.10  14.70
sdb               0.00     0.00 1430.00    0.00  5720.00     0.00     8.00     0.15    0.10    0.10    0.00   0.10  14.80
sdc               0.00     0.00 1586.00    0.00  6344.00     0.00     8.00     0.15    0.10    0.10    0.00   0.10  15.10
sdd               0.00     0.00 1475.00    0.00  5908.00     0.00     8.01     0.14    0.10    0.10    0.00   0.10  14.50
sde               0.00     0.00 1468.00    0.00  5872.00     0.00     8.00     0.17    0.11    0.11    0.00   0.11  16.50
sdf               0.00     0.00 1542.00    0.00  6176.00     0.00     8.01     0.17    0.11    0.11    0.00   0.11  16.80
sdg               0.00     0.00    0.00    0.00     0.00     0.00     0.00     0.00    0.00    0.00    0.00   0.00   0.00
sdh               0.00     0.00    0.00    0.00     0.00     0.00     0.00     0.00    0.00    0.00    0.00   0.00   0.00
md0               0.00     0.00 9014.00    0.00 36072.00     0.00     8.00     0.00    0.00    0.00    0.00   0.00   0.00

avg-cpu:  %user   %nice %system %iowait  %steal   %idle
          24.32    0.00    4.47   18.61    0.00   52.61

Device:         rrqm/s   wrqm/s     r/s     w/s    rkB/s    wkB/s avgrq-sz avgqu-sz   await r_await w_await  svctm  %util
sda               0.00     0.00 1580.00    0.00  6320.00     0.00     8.00     0.15    0.10    0.10    0.00   0.10  15.50
sdb               0.00     0.00 1491.00    0.00  5972.00     0.00     8.01     0.13    0.08    0.08    0.00   0.08  12.60
sdc               0.00     0.00 1508.00    0.00  6032.00     0.00     8.00     0.15    0.10    0.10    0.00   0.10  14.90
sdd               0.00     0.00 1519.00    0.00  6076.00     0.00     8.00     0.17    0.11    0.11    0.00   0.11  16.70
sde               0.00     0.00 1470.00    0.00  5880.00     0.00     8.00     0.16    0.11    0.11    0.00   0.11  16.10
sdf               0.00     0.00 1465.00    0.00  5860.00     0.00     8.00     0.17    0.11    0.11    0.00   0.11  16.70
sdg               0.00     0.00    0.00    0.00     0.00     0.00     0.00     0.00    0.00    0.00    0.00   0.00   0.00
sdh               0.00     0.00    0.00    0.00     0.00     0.00     0.00     0.00    0.00    0.00    0.00   0.00   0.00
md0               0.00     0.00 9033.00    0.00 36140.00     0.00     8.00     0.00    0.00    0.00    0.00   0.00   0.00

avg-cpu:  %user   %nice %system %iowait  %steal   %idle
          24.25    0.00    4.25   17.50    0.00   54.00

Device:         rrqm/s   wrqm/s     r/s     w/s    rkB/s    wkB/s avgrq-sz avgqu-sz   await r_await w_await  svctm  %util
sda               0.00     0.00 1458.00    0.00  5832.00     0.00     8.00     0.15    0.11    0.11    0.00   0.11  15.40
sdb               0.00     0.00 1514.00    0.00  6056.00     0.00     8.00     0.14    0.09    0.09    0.00   0.09  13.70
sdc               0.00     0.00 1431.00    0.00  5724.00     0.00     8.00     0.13    0.09    0.09    0.00   0.09  13.30
sdd               0.00     0.00 1553.00    0.00  6212.00     0.00     8.00     0.16    0.10    0.10    0.00   0.10  15.70
sde               0.00     0.00 1565.00    0.00  6260.00     0.00     8.00     0.16    0.10    0.10    0.00   0.10  15.70
sdf               0.00     0.00 1494.00    0.00  5976.00     0.00     8.00     0.17    0.11    0.11    0.00   0.11  16.50
sdg               0.00     0.00    0.00    0.00     0.00     0.00     0.00     0.00    0.00    0.00    0.00   0.00   0.00
sdh               0.00     0.00    0.00    0.00     0.00     0.00     0.00     0.00    0.00    0.00    0.00   0.00   0.00
md0               0.00     0.00 9015.00    0.00 36060.00     0.00     8.00     0.00    0.00    0.00    0.00   0.00   0.00

avg-cpu:  %user   %nice %system %iowait  %steal   %idle
          24.25    0.00    4.25   16.00    0.00   55.50

Device:         rrqm/s   wrqm/s     r/s     w/s    rkB/s    wkB/s avgrq-sz avgqu-sz   await r_await w_await  svctm  %util
sda               0.00     0.00 1421.00    0.00  5684.00     0.00     8.00     0.14    0.10    0.10    0.00   0.10  14.20
sdb               0.00     0.00 1496.00    0.00  5984.00     0.00     8.00     0.14    0.09    0.09    0.00   0.09  13.90
sdc               0.00     0.00 1451.00    0.00  5804.00     0.00     8.00     0.16    0.11    0.11    0.00   0.11  15.70
sdd               0.00     0.00 1602.00    0.00  6432.00     0.00     8.03     0.15    0.10    0.10    0.00   0.09  15.20
sde               0.00     0.00 1510.00    0.00  6048.00     0.00     8.01     0.16    0.11    0.11    0.00   0.11  16.40
sdf               0.00     0.00 1540.00    0.00  6160.00     0.00     8.00     0.16    0.11    0.11    0.00   0.11  16.20
sdg               0.00     0.00    0.00    0.00     0.00     0.00     0.00     0.00    0.00    0.00    0.00   0.00   0.00
sdh               0.00     0.00    0.00    0.00     0.00     0.00     0.00     0.00    0.00    0.00    0.00   0.00   0.00
md0               0.00     0.00 9019.00    0.00 36108.00     0.00     8.01     0.00    0.00    0.00    0.00   0.00   0.00

avg-cpu:  %user   %nice %system %iowait  %steal   %idle
          24.50    0.00    3.75   16.25    0.00   55.50

Device:         rrqm/s   wrqm/s     r/s     w/s    rkB/s    wkB/s avgrq-sz avgqu-sz   await r_await w_await  svctm  %util
sda               0.00     0.00 1452.00    0.00  5808.00     0.00     8.00     0.14    0.09    0.09    0.00   0.09  13.50
sdb               0.00     0.00 1507.00    0.00  6028.00     0.00     8.00     0.16    0.11    0.11    0.00   0.11  16.00
sdc               0.00     0.00 1575.00    0.00  6300.00     0.00     8.00     0.16    0.10    0.10    0.00   0.10  15.70
sdd               0.00     0.00 1510.00    0.00  6040.00     0.00     8.00     0.15    0.10    0.10    0.00   0.10  14.60
sde               0.00     0.00 1505.00    0.00  6036.00     0.00     8.02     0.16    0.11    0.11    0.00   0.11  16.10
sdf               0.00     0.00 1469.00    0.00  5876.00     0.00     8.00     0.15    0.10    0.10    0.00   0.10  14.70
sdg               0.00     1.00   17.00    4.00    68.00    28.00     9.14     0.00    0.19    0.18    0.25   0.14   0.30
sdh               0.00     0.00    0.00    0.00     0.00     0.00     0.00     0.00    0.00    0.00    0.00   0.00   0.00
md0               0.00     0.00 9019.00    0.00 36092.00     0.00     8.00     0.00    0.00    0.00    0.00   0.00   0.00

avg-cpu:  %user   %nice %system %iowait  %steal   %idle
          24.94    0.00    3.53   18.64    0.00   52.90

Device:         rrqm/s   wrqm/s     r/s     w/s    rkB/s    wkB/s avgrq-sz avgqu-sz   await r_await w_await  svctm  %util
sda               0.00     0.00 1561.00    0.00  6244.00     0.00     8.00     0.17    0.11    0.11    0.00   0.11  16.70
sdb               0.00     0.00 1548.00    0.00  6192.00     0.00     8.00     0.13    0.08    0.08    0.00   0.08  12.80
sdc               0.00     0.00 1517.00    0.00  6068.00     0.00     8.00     0.16    0.10    0.10    0.00   0.10  15.80
sdd               0.00     0.00 1419.00    0.00  5676.00     0.00     8.00     0.16    0.11    0.11    0.00   0.11  16.00
sde               0.00     0.00 1487.00    0.00  5964.00     0.00     8.02     0.17    0.12    0.12    0.00   0.12  17.30
sdf               0.00     0.00 1442.00    0.00  5776.00     0.00     8.01     0.14    0.10    0.10    0.00   0.10  14.00
sdg               0.00     0.00   45.00    0.00   492.00     0.00    21.87     0.01    0.20    0.20    0.00   0.16   0.70
sdh               0.00     0.00    0.00    0.00     0.00     0.00     0.00     0.00    0.00    0.00    0.00   0.00   0.00
md0               0.00     0.00 8974.00    0.00 35920.00     0.00     8.01     0.00    0.00    0.00    0.00   0.00   0.00

avg-cpu:  %user   %nice %system %iowait  %steal   %idle
          24.25    0.00    4.00   18.25    0.00   53.50

Device:         rrqm/s   wrqm/s     r/s     w/s    rkB/s    wkB/s avgrq-sz avgqu-sz   await r_await w_await  svctm  %util
sda               0.00     0.00 1596.00    0.00  6384.00     0.00     8.00     0.15    0.10    0.10    0.00   0.10  15.20
sdb               0.00     0.00 1568.00    0.00  6280.00     0.00     8.01     0.16    0.10    0.10    0.00   0.10  16.40
sdc               0.00     0.00 1454.00    0.00  5824.00     0.00     8.01     0.16    0.11    0.11    0.00   0.11  15.60
sdd               0.00     0.00 1493.00    0.00  5972.00     0.00     8.00     0.15    0.10    0.10    0.00   0.10  15.10
sde               0.00     0.00 1449.00    0.00  5796.00     0.00     8.00     0.14    0.09    0.09    0.00   0.09  13.50
sdf               0.00     0.00 1477.00    0.00  5924.00     0.00     8.02     0.15    0.10    0.10    0.00   0.10  15.40
sdg               0.00     0.00    0.00    0.00     0.00     0.00     0.00     0.00    0.00    0.00    0.00   0.00   0.00
sdh               0.00     0.00    0.00    0.00     0.00     0.00     0.00     0.00    0.00    0.00    0.00   0.00   0.00
md0               0.00     0.00 9037.00    0.00 36180.00     0.00     8.01     0.00    0.00    0.00    0.00   0.00   0.00

avg-cpu:  %user   %nice %system %iowait  %steal   %idle
          24.44    0.00    3.99   18.45    0.00   53.12

Device:         rrqm/s   wrqm/s     r/s     w/s    rkB/s    wkB/s avgrq-sz avgqu-sz   await r_await w_await  svctm  %util
sda               0.00     0.00 1514.00    0.00  6056.00     0.00     8.00     0.15    0.10    0.10    0.00   0.10  14.90
sdb               0.00     0.00 1498.00    0.00  5992.00     0.00     8.00     0.13    0.09    0.09    0.00   0.09  13.00
sdc               0.00     0.00 1496.00    0.00  5992.00     0.00     8.01     0.16    0.11    0.11    0.00   0.11  16.00
sdd               0.00     0.00 1527.00    0.00  6108.00     0.00     8.00     0.16    0.10    0.10    0.00   0.10  16.00
sde               0.00     0.00 1497.00    0.00  5988.00     0.00     8.00     0.16    0.11    0.11    0.00   0.11  15.80
sdf               0.00     0.00 1482.00    0.00  5928.00     0.00     8.00     0.17    0.11    0.11    0.00   0.11  16.70
sdg               0.00     0.00    0.00    0.00     0.00     0.00     0.00     0.00    0.00    0.00    0.00   0.00   0.00
sdh               0.00     0.00    0.00    0.00     0.00     0.00     0.00     0.00    0.00    0.00    0.00   0.00   0.00
md0               0.00     0.00 9013.00    0.00 36060.00     0.00     8.00     0.00    0.00    0.00    0.00   0.00   0.00

avg-cpu:  %user   %nice %system %iowait  %steal   %idle
          24.50    0.00    4.00   18.00    0.00   53.50

Device:         rrqm/s   wrqm/s     r/s     w/s    rkB/s    wkB/s avgrq-sz avgqu-sz   await r_await w_await  svctm  %util
sda               0.00     0.00 1572.00    0.00  6296.00     0.00     8.01     0.17    0.11    0.11    0.00   0.11  17.10
sdb               0.00     0.00 1408.00    0.00  5640.00     0.00     8.01     0.14    0.10    0.10    0.00   0.10  13.60
sdc               0.00     0.00 1466.00    0.00  5864.00     0.00     8.00     0.16    0.11    0.11    0.00   0.11  16.40
sdd               0.00     0.00 1566.00    0.00  6296.00     0.00     8.04     0.14    0.09    0.09    0.00   0.09  14.20
sde               0.00     0.00 1486.00    0.00  5960.00     0.00     8.02     0.15    0.10    0.10    0.00   0.10  14.90
sdf               0.00     0.00 1508.00    0.00  6064.00     0.00     8.04     0.15    0.10    0.10    0.00   0.10  15.00
sdg               0.00     0.00    0.00    0.00     0.00     0.00     0.00     0.00    0.00    0.00    0.00   0.00   0.00
sdh               0.00     0.00    0.00    0.00     0.00     0.00     0.00     0.00    0.00    0.00    0.00   0.00   0.00
md0               0.00     0.00 9007.00    0.00 36124.00     0.00     8.02     0.00    0.00    0.00    0.00   0.00   0.00

avg-cpu:  %user   %nice %system %iowait  %steal   %idle
          24.31    0.00    3.76   18.55    0.00   53.38

Device:         rrqm/s   wrqm/s     r/s     w/s    rkB/s    wkB/s avgrq-sz avgqu-sz   await r_await w_await  svctm  %util
sda               0.00     0.00 1503.00    0.00  6028.00     0.00     8.02     0.14    0.10    0.10    0.00   0.10  14.50
sdb               0.00     0.00 1467.00    0.00  5868.00     0.00     8.00     0.14    0.09    0.09    0.00   0.09  13.70
sdc               0.00     0.00 1554.00    0.00  6224.00     0.00     8.01     0.16    0.10    0.10    0.00   0.10  15.90
sdd               0.00     0.00 1496.00    0.00  6008.00     0.00     8.03     0.16    0.10    0.10    0.00   0.10  15.60
sde               0.00     0.00 1518.00    0.00  6072.00     0.00     8.00     0.17    0.11    0.11    0.00   0.11  17.30
sdf               0.00     0.00 1456.00    0.00  5832.00     0.00     8.01     0.15    0.10    0.10    0.00   0.10  14.90
sdg               0.00     1.00    0.00    2.00     0.00    36.00    36.00     0.00    0.00    0.00    0.00   0.00   0.00
sdh               0.00     0.00    0.00    0.00     0.00     0.00     0.00     0.00    0.00    0.00    0.00   0.00   0.00
md0               0.00     0.00 8994.00    0.00 36032.00     0.00     8.01     0.00    0.00    0.00    0.00   0.00   0.00

avg-cpu:  %user   %nice %system %iowait  %steal   %idle
          24.56    0.00    3.76   18.55    0.00   53.13

Device:         rrqm/s   wrqm/s     r/s     w/s    rkB/s    wkB/s avgrq-sz avgqu-sz   await r_await w_await  svctm  %util
sda               0.00     0.00 1477.00    0.00  5928.00     0.00     8.03     0.15    0.10    0.10    0.00   0.10  14.90
sdb               0.00     0.00 1475.00    0.00  5900.00     0.00     8.00     0.14    0.09    0.09    0.00   0.09  13.80
sdc               0.00     0.00 1486.00    0.00  5952.00     0.00     8.01     0.15    0.10    0.10    0.00   0.10  15.40
sdd               0.00     0.00 1511.00    0.00  6064.00     0.00     8.03     0.16    0.11    0.11    0.00   0.11  16.10
sde               0.00     0.00 1535.00    0.00  6156.00     0.00     8.02     0.15    0.10    0.10    0.00   0.10  15.40
sdf               0.00     0.00 1512.00    0.00  6068.00     0.00     8.03     0.15    0.10    0.10    0.00   0.10  15.50
sdg               0.00     0.00    0.00    0.00     0.00     0.00     0.00     0.00    0.00    0.00    0.00   0.00   0.00
sdh               0.00     0.00    0.00    0.00     0.00     0.00     0.00     0.00    0.00    0.00    0.00   0.00   0.00
md0               0.00     0.00 8995.00    0.00 36064.00     0.00     8.02     0.00    0.00    0.00    0.00   0.00   0.00

avg-cpu:  %user   %nice %system %iowait  %steal   %idle
          24.50    0.00    4.00   17.75    0.00   53.75

Device:         rrqm/s   wrqm/s     r/s     w/s    rkB/s    wkB/s avgrq-sz avgqu-sz   await r_await w_await  svctm  %util
sda               0.00     0.00 1537.00    0.00  6148.00     0.00     8.00     0.15    0.10    0.10    0.00   0.10  15.40
sdb               0.00     0.00 1508.00    0.00  6040.00     0.00     8.01     0.14    0.09    0.09    0.00   0.09  14.30
sdc               0.00     0.00 1417.00    0.00  5684.00     0.00     8.02     0.15    0.11    0.11    0.00   0.11  14.90
sdd               0.00     0.00 1547.00    0.00  6204.00     0.00     8.02     0.17    0.11    0.11    0.00   0.11  16.80
sde               0.00     0.00 1441.00    0.00  5780.00     0.00     8.02     0.15    0.11    0.11    0.00   0.11  15.50
sdf               0.00     0.00 1544.00    0.00  6204.00     0.00     8.04     0.15    0.10    0.10    0.00   0.10  15.40
sdg               0.00     0.00    0.00    0.00     0.00     0.00     0.00     0.00    0.00    0.00    0.00   0.00   0.00
sdh               0.00     0.00    0.00    0.00     0.00     0.00     0.00     0.00    0.00    0.00    0.00   0.00   0.00
md0               0.00     0.00 8994.00    0.00 36060.00     0.00     8.02     0.00    0.00    0.00    0.00   0.00   0.00

avg-cpu:  %user   %nice %system %iowait  %steal   %idle
          24.31    0.00    4.01   17.54    0.00   54.14

Device:         rrqm/s   wrqm/s     r/s     w/s    rkB/s    wkB/s avgrq-sz avgqu-sz   await r_await w_await  svctm  %util
sda               0.00     0.00 1496.00    0.00  6008.00     0.00     8.03     0.14    0.10    0.10    0.00   0.10  14.40
sdb               0.00     0.00 1540.00    0.00  6168.00     0.00     8.01     0.14    0.09    0.09    0.00   0.09  13.60
sdc               0.00     0.00 1512.00    0.00  6080.00     0.00     8.04     0.17    0.11    0.11    0.00   0.11  17.20
sdd               0.00     0.00 1488.00    0.00  5960.00     0.00     8.01     0.15    0.10    0.10    0.00   0.10  14.60
sde               0.00     0.00 1483.00    0.00  5948.00     0.00     8.02     0.16    0.11    0.11    0.00   0.11  16.10
sdf               0.00     0.00 1484.00    0.00  5952.00     0.00     8.02     0.15    0.10    0.10    0.00   0.10  15.30
sdg               0.00     0.00    0.00    0.00     0.00     0.00     0.00     0.00    0.00    0.00    0.00   0.00   0.00
sdh               0.00     0.00    0.00    0.00     0.00     0.00     0.00     0.00    0.00    0.00    0.00   0.00   0.00
md0               0.00     0.00 9003.00    0.00 36116.00     0.00     8.02     0.00    0.00    0.00    0.00   0.00   0.00

avg-cpu:  %user   %nice %system %iowait  %steal   %idle
          24.57    0.00    4.22   17.62    0.00   53.60

Device:         rrqm/s   wrqm/s     r/s     w/s    rkB/s    wkB/s avgrq-sz avgqu-sz   await r_await w_await  svctm  %util
sda               0.00     0.00 1500.00    0.00  6008.00     0.00     8.01     0.13    0.09    0.09    0.00   0.09  12.90
sdb               0.00     0.00 1527.00    0.00  6140.00     0.00     8.04     0.15    0.10    0.10    0.00   0.10  15.00
sdc               0.00     0.00 1464.00    0.00  5868.00     0.00     8.02     0.14    0.10    0.10    0.00   0.10  14.20
sdd               0.00     0.00 1493.00    0.00  5988.00     0.00     8.02     0.17    0.12    0.12    0.00   0.12  17.30
sde               0.00     0.00 1503.00    0.00  6012.00     0.00     8.00     0.15    0.10    0.10    0.00   0.10  15.00
sdf               0.00     0.00 1507.00    0.00  6032.00     0.00     8.01     0.16    0.11    0.11    0.00   0.11  15.90
sdg               0.00     0.00    0.00    0.00     0.00     0.00     0.00     0.00    0.00    0.00    0.00   0.00   0.00
sdh               0.00     0.00    0.00    0.00     0.00     0.00     0.00     0.00    0.00    0.00    0.00   0.00   0.00
md0               0.00     0.00 8994.00    0.00 36048.00     0.00     8.02     0.00    0.00    0.00    0.00   0.00   0.00

avg-cpu:  %user   %nice %system %iowait  %steal   %idle
          23.88    0.00    4.98   17.91    0.00   53.23

Device:         rrqm/s   wrqm/s     r/s     w/s    rkB/s    wkB/s avgrq-sz avgqu-sz   await r_await w_await  svctm  %util
sda               0.00     0.00 1439.00    0.00  5756.00     0.00     8.00     0.14    0.09    0.09    0.00   0.09  13.50
sdb               0.00     0.00 1485.00    0.00  5968.00     0.00     8.04     0.14    0.09    0.09    0.00   0.09  13.80
sdc               0.00     0.00 1448.00    0.00  5812.00     0.00     8.03     0.14    0.10    0.10    0.00   0.10  14.10
sdd               0.00     0.00 1523.00    0.00  6092.00     0.00     8.00     0.16    0.10    0.10    0.00   0.10  15.80
sde               0.00     0.00 1474.00    0.00  5920.00     0.00     8.03     0.14    0.10    0.10    0.00   0.10  14.40
sdf               0.00     0.00 1610.00    0.00  6472.00     0.00     8.04     0.18    0.11    0.11    0.00   0.11  17.70
sdg               0.00     0.00    0.00  202.00     0.00  1036.00    10.26     0.84    2.20    0.00    2.20   0.03   0.60
sdh               0.00     0.00    0.00    0.00     0.00     0.00     0.00     0.00    0.00    0.00    0.00   0.00   0.00
md0               0.00     0.00 8980.00    0.00 36024.00     0.00     8.02     0.00    0.00    0.00    0.00   0.00   0.00

avg-cpu:  %user   %nice %system %iowait  %steal   %idle
          24.63    0.25    4.48   12.69    0.00   57.96

Device:         rrqm/s   wrqm/s     r/s     w/s    rkB/s    wkB/s avgrq-sz avgqu-sz   await r_await w_await  svctm  %util
sda               0.00     0.00 1461.00    0.00  5860.00     0.00     8.02     0.14    0.09    0.09    0.00   0.09  13.60
sdb               0.00     0.00 1500.00    0.00  6016.00     0.00     8.02     0.15    0.10    0.10    0.00   0.10  14.90
sdc               0.00     0.00 1496.00    0.00  5984.00     0.00     8.00     0.14    0.09    0.09    0.00   0.09  13.90
sdd               0.00     0.00 1532.00    0.00  6144.00     0.00     8.02     0.16    0.10    0.10    0.00   0.10  16.00
sde               0.00     0.00 1530.00    0.00  6128.00     0.00     8.01     0.16    0.11    0.11    0.00   0.11  16.30
sdf               0.00     0.00 1504.00    0.00  6056.00     0.00     8.05     0.16    0.11    0.11    0.00   0.11  16.40
sdg               0.00     3.00    6.00 1239.00    24.00  6468.00    10.43     8.05    6.79    0.83    6.82   0.05   6.10
sdh               0.00     0.00    0.00    0.00     0.00     0.00     0.00     0.00    0.00    0.00    0.00   0.00   0.00
md0               0.00     0.00 9024.00    0.00 36204.00     0.00     8.02     0.00    0.00    0.00    0.00   0.00   0.00

avg-cpu:  %user   %nice %system %iowait  %steal   %idle
          24.31    0.00    4.01   17.29    0.00   54.39

Device:         rrqm/s   wrqm/s     r/s     w/s    rkB/s    wkB/s avgrq-sz avgqu-sz   await r_await w_await  svctm  %util
sda               0.00     0.00 1505.00    0.00  6044.00     0.00     8.03     0.14    0.09    0.09    0.00   0.09  13.60
sdb               0.00     0.00 1451.00    0.00  5828.00     0.00     8.03     0.14    0.10    0.10    0.00   0.10  14.50
sdc               0.00     0.00 1508.00    0.00  6056.00     0.00     8.03     0.16    0.11    0.11    0.00   0.11  16.40
sdd               0.00     0.00 1527.00    0.00  6116.00     0.00     8.01     0.17    0.11    0.11    0.00   0.11  16.70
sde               0.00     0.00 1492.00    0.00  5972.00     0.00     8.01     0.15    0.10    0.10    0.00   0.10  14.80
sdf               0.00     0.00 1518.00    0.00  6104.00     0.00     8.04     0.14    0.09    0.09    0.00   0.09  14.10
sdg               0.00     0.00    0.00    0.00     0.00     0.00     0.00     0.00    0.00    0.00    0.00   0.00   0.00
sdh               0.00     0.00    0.00    0.00     0.00     0.00     0.00     0.00    0.00    0.00    0.00   0.00   0.00
md0               0.00     0.00 8999.00    0.00 36116.00     0.00     8.03     0.00    0.00    0.00    0.00   0.00   0.00

avg-cpu:  %user   %nice %system %iowait  %steal   %idle
          23.89    0.00    5.42   17.98    0.00   52.71

Device:         rrqm/s   wrqm/s     r/s     w/s    rkB/s    wkB/s avgrq-sz avgqu-sz   await r_await w_await  svctm  %util
sda               0.00     0.00 1499.00    0.00  6012.00     0.00     8.02     0.14    0.09    0.09    0.00   0.09  13.70
sdb               0.00     0.00 1535.00    0.00  6172.00     0.00     8.04     0.14    0.09    0.09    0.00   0.09  14.50
sdc               0.00     0.00 1479.00    0.00  5932.00     0.00     8.02     0.15    0.10    0.10    0.00   0.10  14.90
sdd               0.00     0.00 1473.00    0.00  5940.00     0.00     8.07     0.16    0.11    0.11    0.00   0.11  15.60
sde               0.00     0.00 1472.00    0.00  5904.00     0.00     8.02     0.17    0.11    0.11    0.00   0.11  16.90
sdf               0.00     0.00 1519.00    0.00  6116.00     0.00     8.05     0.14    0.09    0.09    0.00   0.09  14.20
sdg               0.00     0.00    0.00    0.00     0.00     0.00     0.00     0.00    0.00    0.00    0.00   0.00   0.00
sdh               0.00     0.00    0.00    0.00     0.00     0.00     0.00     0.00    0.00    0.00    0.00   0.00   0.00
md0               0.00     0.00 8978.00    0.00 36080.00     0.00     8.04     0.00    0.00    0.00    0.00   0.00   0.00

