Linux 4.17.2 (bench) 	08/03/2018 	_x86_64_	(4 CPU)

avg-cpu:  %user   %nice %system %iowait  %steal   %idle
          10.29    0.02    4.01    2.49    0.00   83.19

Device:         rrqm/s   wrqm/s     r/s     w/s    rkB/s    wkB/s avgrq-sz avgqu-sz   await r_await w_await  svctm  %util
sda              41.54     4.26 1622.00  103.19 20743.22  3149.09    27.70     1.03    0.59    0.26    5.91   0.06  10.59
sdb              41.44     4.22 1621.89  103.33 20732.65  3145.73    27.68     1.03    0.59    0.26    5.85   0.06  10.47
sdc              79.46     4.28 1581.79  102.88 20724.84  3148.21    28.34     1.44    0.86    0.45    7.12   0.08  13.90
sdd              72.82     4.25 1587.58  102.95 20709.57  3144.38    28.22     1.45    0.86    0.44    7.32   0.08  14.00
sde              74.89     4.30 1592.70  103.05 20769.96  3148.65    28.21     1.47    0.87    0.44    7.43   0.08  14.02
sdf              71.99     4.27 1594.87  102.99 20751.01  3145.49    28.15     1.52    0.89    0.44    7.90   0.08  14.05
sdg               0.00     3.18   26.03   73.33   322.83   391.97    14.39     0.44    4.43    0.20    5.93   0.08   0.78
sdh               0.00     0.13    0.02    0.24     2.23     5.10    56.82     0.00    1.15    0.65    1.19   0.21   0.01
md0               0.00     0.00 9989.25  483.44 142040.99 21562.49    31.24     0.00    0.00    0.00    0.00   0.00   0.00

avg-cpu:  %user   %nice %system %iowait  %steal   %idle
          22.81    0.00    5.51    2.01    0.00   69.67

Device:         rrqm/s   wrqm/s     r/s     w/s    rkB/s    wkB/s avgrq-sz avgqu-sz   await r_await w_await  svctm  %util
sda               2.00     0.00 2114.00    0.00 52812.00     0.00    49.96     1.63    0.77    0.77    0.00   0.11  23.80
sdb               2.00     0.00 2236.00    0.00 52892.00     0.00    47.31     1.56    0.70    0.70    0.00   0.10  22.60
sdc               5.00     0.00 2310.00    0.00 54960.00     0.00    47.58     3.14    1.36    1.36    0.00   0.14  33.40
sdd               3.00     0.00 2282.00    0.00 54640.00     0.00    47.89     3.08    1.34    1.34    0.00   0.14  32.50
sde               8.00     0.00 2267.00    0.00 56212.00     0.00    49.59     3.27    1.44    1.44    0.00   0.15  33.70
sdf               1.00     0.00 2178.00    0.00 51960.00     0.00    47.71     2.83    1.30    1.30    0.00   0.14  31.20
sdg               0.00     0.00    3.00    0.00   100.00     0.00    66.67     0.00    0.33    0.33    0.00   0.33   0.10
sdh               0.00     0.00    0.00    0.00     0.00     0.00     0.00     0.00    0.00    0.00    0.00   0.00   0.00
md0               0.00     0.00 13409.00    0.00 344740.00     0.00    51.42     0.00    0.00    0.00    0.00   0.00   0.00

avg-cpu:  %user   %nice %system %iowait  %steal   %idle
          23.23    0.00    3.54    2.27    0.00   70.96

Device:         rrqm/s   wrqm/s     r/s     w/s    rkB/s    wkB/s avgrq-sz avgqu-sz   await r_await w_await  svctm  %util
sda              26.00     0.00 1580.00    0.00 40184.00     0.00    50.87     0.72    0.46    0.46    0.00   0.13  19.80
sdb              22.00     0.00 1574.00    0.00 37160.00     0.00    47.22     0.69    0.44    0.44    0.00   0.14  21.40
sdc              23.00     0.00 1623.00    0.00 38092.00     0.00    46.94     1.19    0.73    0.73    0.00   0.17  27.30
sdd              26.00     0.00 1486.00    0.00 39116.00     0.00    52.65     1.30    0.87    0.87    0.00   0.18  26.40
sde              23.00     0.00 1628.00    0.00 38572.00     0.00    47.39     1.27    0.78    0.78    0.00   0.16  26.70
sdf              23.00     0.00 1560.00    0.00 37252.00     0.00    47.76     1.26    0.81    0.81    0.00   0.17  26.80
sdg               0.00     0.00    0.00    0.00     0.00     0.00     0.00     0.00    0.00    0.00    0.00   0.00   0.00
sdh               0.00     0.00    0.00    0.00     0.00     0.00     0.00     0.00    0.00    0.00    0.00   0.00   0.00
md0               0.00     0.00 9594.00    0.00 275216.00     0.00    57.37     0.00    0.00    0.00    0.00   0.00   0.00

avg-cpu:  %user   %nice %system %iowait  %steal   %idle
          23.62    0.00    3.02    2.51    0.00   70.85

Device:         rrqm/s   wrqm/s     r/s     w/s    rkB/s    wkB/s avgrq-sz avgqu-sz   await r_await w_await  svctm  %util
sda              15.00     0.00 1204.00    0.00 20232.00     0.00    33.61     0.17    0.15    0.15    0.00   0.14  16.70
sdb              18.00     0.00 1253.00    0.00 20940.00     0.00    33.42     0.17    0.14    0.14    0.00   0.13  16.60
sdc              17.00     0.00 1219.00    0.00 19860.00     0.00    32.58     0.22    0.18    0.18    0.00   0.16  20.00
sdd              16.00     0.00 1282.00    0.00 21228.00     0.00    33.12     0.22    0.17    0.17    0.00   0.16  20.70
sde              18.00     0.00 1192.00    0.00 22088.00     0.00    37.06     0.23    0.19    0.19    0.00   0.18  21.20
sdf              17.00     0.00 1186.00    0.00 20840.00     0.00    35.14     0.21    0.18    0.18    0.00   0.16  18.90
sdg               0.00     0.00    0.00    0.00     0.00     0.00     0.00     0.00    0.00    0.00    0.00   0.00   0.00
sdh               0.00     0.00    0.00    0.00     0.00     0.00     0.00     0.00    0.00    0.00    0.00   0.00   0.00
md0               0.00     0.00 7438.00    0.00 148448.00     0.00    39.92     0.00    0.00    0.00    0.00   0.00   0.00

avg-cpu:  %user   %nice %system %iowait  %steal   %idle
          23.99    0.00    2.53    2.02    0.00   71.46

Device:         rrqm/s   wrqm/s     r/s     w/s    rkB/s    wkB/s avgrq-sz avgqu-sz   await r_await w_await  svctm  %util
sda              21.00     0.00 1190.00    0.00 23464.00     0.00    39.44     0.18    0.15    0.15    0.00   0.15  17.30
sdb              21.00     0.00 1200.00    0.00 23036.00     0.00    38.39     0.18    0.15    0.15    0.00   0.14  17.30
sdc              24.00     0.00 1154.00    0.00 21952.00     0.00    38.05     0.23    0.20    0.20    0.00   0.19  21.40
sdd              22.00     0.00 1209.00    0.00 21532.00     0.00    35.62     0.22    0.18    0.18    0.00   0.17  20.10
sde              19.00     0.00 1167.00    0.00 22016.00     0.00    37.73     0.21    0.18    0.18    0.00   0.17  19.70
sdf              20.00     0.00 1177.00    0.00 21828.00     0.00    37.09     0.21    0.18    0.18    0.00   0.17  19.80
sdg               0.00     0.00    0.00    0.00     0.00     0.00     0.00     0.00    0.00    0.00    0.00   0.00   0.00
sdh               0.00     0.00    0.00    0.00     0.00     0.00     0.00     0.00    0.00    0.00    0.00   0.00   0.00
md0               0.00     0.00 7224.00    0.00 166936.00     0.00    46.22     0.00    0.00    0.00    0.00   0.00   0.00

avg-cpu:  %user   %nice %system %iowait  %steal   %idle
          23.75    0.00    3.00    2.25    0.00   71.00

Device:         rrqm/s   wrqm/s     r/s     w/s    rkB/s    wkB/s avgrq-sz avgqu-sz   await r_await w_await  svctm  %util
sda              23.00     0.00 1215.00    0.00 21508.00     0.00    35.40     0.19    0.15    0.15    0.00   0.14  16.70
sdb              17.00     0.00 1253.00    0.00 19660.00     0.00    31.38     0.20    0.16    0.16    0.00   0.14  17.50
sdc              21.00     0.00 1129.00    0.00 21236.00     0.00    37.62     0.23    0.21    0.21    0.00   0.18  20.00
sdd              22.00     0.00 1183.00    0.00 22452.00     0.00    37.96     0.25    0.21    0.21    0.00   0.18  21.30
sde              19.00     0.00 1156.00    0.00 23120.00     0.00    40.00     0.25    0.22    0.22    0.00   0.18  20.50
sdf              24.00     0.00 1210.00    0.00 23096.00     0.00    38.18     0.24    0.20    0.20    0.00   0.17  20.10
sdg               0.00     0.00    0.00    0.00     0.00     0.00     0.00     0.00    0.00    0.00    0.00   0.00   0.00
sdh               0.00     0.00    0.00    0.00     0.00     0.00     0.00     0.00    0.00    0.00    0.00   0.00   0.00
md0               0.00     0.00 7272.00    0.00 160160.00     0.00    44.05     0.00    0.00    0.00    0.00   0.00   0.00

avg-cpu:  %user   %nice %system %iowait  %steal   %idle
          23.87    0.00    2.76    1.76    0.00   71.61

Device:         rrqm/s   wrqm/s     r/s     w/s    rkB/s    wkB/s avgrq-sz avgqu-sz   await r_await w_await  svctm  %util
sda               5.00     0.00 1264.00    0.00 12740.00     0.00    20.16     0.15    0.12    0.12    0.00   0.12  14.70
sdb               6.00     0.00 1225.00    0.00 15988.00     0.00    26.10     0.16    0.13    0.13    0.00   0.13  15.70
sdc               8.00     0.00 1224.00    0.00 16508.00     0.00    26.97     0.18    0.15    0.15    0.00   0.14  17.60
sdd              10.00     0.00 1169.00    0.00 17844.00     0.00    30.53     0.19    0.16    0.16    0.00   0.16  18.50
sde               6.00     0.00 1293.00    0.00 13252.00     0.00    20.50     0.18    0.14    0.14    0.00   0.13  17.20
sdf               3.00     0.00 1296.00    0.00 12340.00     0.00    19.04     0.16    0.12    0.12    0.00   0.12  15.90
sdg               0.00     0.00    0.00    0.00     0.00     0.00     0.00     0.00    0.00    0.00    0.00   0.00   0.00
sdh               0.00     0.00    0.00    0.00     0.00     0.00     0.00     0.00    0.00    0.00    0.00   0.00   0.00
md0               0.00     0.00 7509.00    0.00 110280.00     0.00    29.37     0.00    0.00    0.00    0.00   0.00   0.00

avg-cpu:  %user   %nice %system %iowait  %steal   %idle
          23.68    0.00    2.77    2.52    0.00   71.03

Device:         rrqm/s   wrqm/s     r/s     w/s    rkB/s    wkB/s avgrq-sz avgqu-sz   await r_await w_await  svctm  %util
sda              23.00     0.00 1162.00    0.00 23380.00     0.00    40.24     0.19    0.17    0.17    0.00   0.15  16.90
sdb              22.00     0.00 1253.00    0.00 24404.00     0.00    38.95     0.20    0.16    0.16    0.00   0.14  17.50
sdc              30.00     0.00 1199.00    0.00 27124.00     0.00    45.24     0.25    0.21    0.21    0.00   0.19  22.70
sdd              32.00     0.00 1098.00    0.00 25732.00     0.00    46.87     0.24    0.22    0.22    0.00   0.19  20.90
sde              30.00     0.00 1138.00    0.00 25076.00     0.00    44.07     0.25    0.22    0.22    0.00   0.18  21.00
sdf              28.00     0.00 1162.00    0.00 24436.00     0.00    42.06     0.26    0.22    0.22    0.00   0.19  22.50
sdg               0.00     0.00    0.00    0.00     0.00     0.00     0.00     0.00    0.00    0.00    0.00   0.00   0.00
sdh               0.00     0.00    0.00    0.00     0.00     0.00     0.00     0.00    0.00    0.00    0.00   0.00   0.00
md0               0.00     0.00 7176.00    0.00 204728.00     0.00    57.06     0.00    0.00    0.00    0.00   0.00   0.00

avg-cpu:  %user   %nice %system %iowait  %steal   %idle
          23.56    0.00    3.26    2.01    0.00   71.18

Device:         rrqm/s   wrqm/s     r/s     w/s    rkB/s    wkB/s avgrq-sz avgqu-sz   await r_await w_await  svctm  %util
sda              14.00     0.00 1202.00    0.00 17648.00     0.00    29.36     0.17    0.14    0.14    0.00   0.13  15.80
sdb              18.00     0.00 1166.00    0.00 18952.00     0.00    32.51     0.17    0.14    0.14    0.00   0.14  16.00
sdc              15.00     0.00 1255.00    0.00 17828.00     0.00    28.41     0.20    0.16    0.16    0.00   0.15  18.80
sdd              12.00     0.00 1246.00    0.00 18228.00     0.00    29.26     0.21    0.17    0.17    0.00   0.16  19.80
sde              14.00     0.00 1244.00    0.00 18052.00     0.00    29.02     0.20    0.16    0.16    0.00   0.16  19.50
sdf              14.00     0.00 1225.00    0.00 18116.00     0.00    29.58     0.20    0.16    0.16    0.00   0.15  18.50
sdg               0.00     0.00    0.00    0.00     0.00     0.00     0.00     0.00    0.00    0.00    0.00   0.00   0.00
sdh               0.00     0.00    0.00    0.00     0.00     0.00     0.00     0.00    0.00    0.00    0.00   0.00   0.00
md0               0.00     0.00 7427.00    0.00 138440.00     0.00    37.28     0.00    0.00    0.00    0.00   0.00   0.00

avg-cpu:  %user   %nice %system %iowait  %steal   %idle
          24.12    0.00    2.51    2.51    0.00   70.85

Device:         rrqm/s   wrqm/s     r/s     w/s    rkB/s    wkB/s avgrq-sz avgqu-sz   await r_await w_await  svctm  %util
sda              21.00     0.00 1154.00    0.00 21624.00     0.00    37.48     0.18    0.16    0.16    0.00   0.14  16.40
sdb              19.00     0.00 1206.00    0.00 22388.00     0.00    37.13     0.19    0.16    0.16    0.00   0.15  18.20
sdc              22.00     0.00 1163.00    0.00 22848.00     0.00    39.29     0.23    0.20    0.20    0.00   0.17  20.00
sdd              24.00     0.00 1140.00    0.00 22020.00     0.00    38.63     0.23    0.20    0.20    0.00   0.17  19.20
sde              26.00     0.00 1150.00    0.00 25908.00     0.00    45.06     0.25    0.22    0.22    0.00   0.19  21.70
sdf              26.00     0.00 1158.00    0.00 23908.00     0.00    41.29     0.23    0.20    0.20    0.00   0.17  19.70
sdg               0.00     0.00    0.00    0.00     0.00     0.00     0.00     0.00    0.00    0.00    0.00   0.00   0.00
sdh               0.00     0.00    0.00    0.00     0.00     0.00     0.00     0.00    0.00    0.00    0.00   0.00   0.00
md0               0.00     0.00 7108.00    0.00 190888.00     0.00    53.71     0.00    0.00    0.00    0.00   0.00   0.00

avg-cpu:  %user   %nice %system %iowait  %steal   %idle
          23.93    0.25    2.77    1.76    0.00   71.28

Device:         rrqm/s   wrqm/s     r/s     w/s    rkB/s    wkB/s avgrq-sz avgqu-sz   await r_await w_await  svctm  %util
sda              10.00     0.00 1197.00    0.00 15884.00     0.00    26.54     0.15    0.12    0.12    0.00   0.12  14.40
sdb               9.00     0.00 1225.00    0.00 15396.00     0.00    25.14     0.17    0.13    0.13    0.00   0.13  16.10
sdc              11.00     0.00 1196.00    0.00 16044.00     0.00    26.83     0.18    0.15    0.15    0.00   0.14  17.20
sdd              13.00     0.00 1204.00    0.00 16284.00     0.00    27.05     0.18    0.15    0.15    0.00   0.15  17.90
sde              11.00     0.00 1268.00    0.00 16228.00     0.00    25.60     0.18    0.14    0.14    0.00   0.14  17.60
sdf              11.00     0.00 1242.00    0.00 17500.00     0.00    28.18     0.19    0.15    0.15    0.00   0.15  18.10
sdg               0.00     0.00    1.00    0.00     4.00     0.00     8.00     0.00    0.00    0.00    0.00   0.00   0.00
sdh               0.00     0.00    0.00    0.00     0.00     0.00     0.00     0.00    0.00    0.00    0.00   0.00   0.00
md0               0.00     0.00 7397.00    0.00 122440.00     0.00    33.11     0.00    0.00    0.00    0.00   0.00   0.00

avg-cpu:  %user   %nice %system %iowait  %steal   %idle
          23.62    0.00    3.02    2.26    0.00   71.11

Device:         rrqm/s   wrqm/s     r/s     w/s    rkB/s    wkB/s avgrq-sz avgqu-sz   await r_await w_await  svctm  %util
sda              27.00     0.00 1122.00    0.00 26380.00     0.00    47.02     0.20    0.18    0.18    0.00   0.16  17.50
sdb              27.00     0.00 1231.00    0.00 23396.00     0.00    38.01     0.20    0.16    0.16    0.00   0.14  16.90
sdc              28.00     0.00 1148.00    0.00 23216.00     0.00    40.45     0.24    0.21    0.21    0.00   0.18  20.50
sdd              23.00     0.00 1264.00    0.00 22124.00     0.00    35.01     0.24    0.19    0.19    0.00   0.16  20.40
sde              22.00     0.00 1220.00    0.00 23516.00     0.00    38.55     0.25    0.21    0.21    0.00   0.17  21.10
sdf              26.00     0.00 1198.00    0.00 24764.00     0.00    41.34     0.25    0.21    0.21    0.00   0.17  20.70
sdg               0.00     0.00    0.00    0.00     0.00     0.00     0.00     0.00    0.00    0.00    0.00   0.00   0.00
sdh               0.00     0.00    0.00    0.00     0.00     0.00     0.00     0.00    0.00    0.00    0.00   0.00   0.00
md0               0.00     0.00 7335.00    0.00 184052.00     0.00    50.18     0.00    0.00    0.00    0.00   0.00   0.00

avg-cpu:  %user   %nice %system %iowait  %steal   %idle
          24.43    0.00    2.27    5.29    0.00   68.01

Device:         rrqm/s   wrqm/s     r/s     w/s    rkB/s    wkB/s avgrq-sz avgqu-sz   await r_await w_await  svctm  %util
sda              24.00     0.00 1178.00    0.00 23372.00     0.00    39.68     0.20    0.17    0.17    0.00   0.15  18.20
sdb              27.00     0.00 1118.00    0.00 25492.00     0.00    45.60     0.18    0.16    0.16    0.00   0.15  16.60
sdc              28.00     0.00 1187.00    0.00 26096.00     0.00    43.97     0.26    0.22    0.22    0.00   0.19  22.30
sdd              26.00     0.00 1121.00    0.00 26248.00     0.00    46.83     0.25    0.23    0.23    0.00   0.19  20.80
sde              29.00     0.00 1134.00    0.00 26300.00     0.00    46.38     0.25    0.22    0.22    0.00   0.19  21.40
sdf              29.00     0.00 1227.00    0.00 24020.00     0.00    39.15     0.26    0.21    0.21    0.00   0.18  21.60
sdg               0.00     0.00    0.00    0.00     0.00     0.00     0.00     0.00    0.00    0.00    0.00   0.00   0.00
sdh               0.00     0.00    0.00    0.00     0.00     0.00     0.00     0.00    0.00    0.00    0.00   0.00   0.00
md0               0.00     0.00 7129.00    0.00 203124.00     0.00    56.99     0.00    0.00    0.00    0.00   0.00   0.00

avg-cpu:  %user   %nice %system %iowait  %steal   %idle
          24.37    0.00    3.27    8.79    0.00   63.57

Device:         rrqm/s   wrqm/s     r/s     w/s    rkB/s    wkB/s avgrq-sz avgqu-sz   await r_await w_await  svctm  %util
sda              29.00     0.00 1157.00    0.00 24424.00     0.00    42.22     0.19    0.17    0.17    0.00   0.14  16.50
sdb              25.00     0.00 1249.00    0.00 22364.00     0.00    35.81     0.20    0.16    0.16    0.00   0.14  17.60
sdc              21.00     0.00 1233.00    0.00 20624.00     0.00    33.45     0.25    0.20    0.20    0.00   0.17  20.80
sdd              20.00     0.00 1217.00    0.00 21048.00     0.00    34.59     0.24    0.20    0.20    0.00   0.16  19.70
sde              23.00     0.00 1191.00    0.00 24584.00     0.00    41.28     0.27    0.22    0.22    0.00   0.19  22.30
sdf              29.00     0.00 1176.00    0.00 24424.00     0.00    41.54     0.25    0.21    0.21    0.00   0.17  20.30
sdg               0.00     0.00    0.00    0.00     0.00     0.00     0.00     0.00    0.00    0.00    0.00   0.00   0.00
sdh               0.00     0.00    0.00    0.00     0.00     0.00     0.00     0.00    0.00    0.00    0.00   0.00   0.00
md0               0.00     0.00 7370.00    0.00 182164.00     0.00    49.43     0.00    0.00    0.00    0.00   0.00   0.00

avg-cpu:  %user   %nice %system %iowait  %steal   %idle
          25.00    0.00    2.02   11.11    0.00   61.87

Device:         rrqm/s   wrqm/s     r/s     w/s    rkB/s    wkB/s avgrq-sz avgqu-sz   await r_await w_await  svctm  %util
sda              27.00     0.00 1160.00    0.00 23072.00     0.00    39.78     0.18    0.15    0.15    0.00   0.15  16.90
sdb              26.00     0.00 1157.00    0.00 22888.00     0.00    39.56     0.19    0.16    0.16    0.00   0.15  17.40
sdc              23.00     0.00 1151.00    0.00 22108.00     0.00    38.42     0.24    0.21    0.21    0.00   0.18  20.80
sdd              26.00     0.00 1153.00    0.00 24092.00     0.00    41.79     0.24    0.21    0.21    0.00   0.19  21.50
sde              23.00     0.00 1133.00    0.00 24164.00     0.00    42.65     0.24    0.21    0.21    0.00   0.18  20.70
sdf              21.00     0.00 1227.00    0.00 23340.00     0.00    38.04     0.23    0.19    0.19    0.00   0.18  21.60
sdg               0.00     0.00    0.00    0.00     0.00     0.00     0.00     0.00    0.00    0.00    0.00   0.00   0.00
sdh               0.00     0.00    0.00    0.00     0.00     0.00     0.00     0.00    0.00    0.00    0.00   0.00   0.00
md0               0.00     0.00 7126.00    0.00 186008.00     0.00    52.21     0.00    0.00    0.00    0.00   0.00   0.00

avg-cpu:  %user   %nice %system %iowait  %steal   %idle
          24.24    0.00    2.78   10.86    0.00   62.12

Device:         rrqm/s   wrqm/s     r/s     w/s    rkB/s    wkB/s avgrq-sz avgqu-sz   await r_await w_await  svctm  %util
sda              35.00     0.00 1195.00    0.00 29780.00     0.00    49.84     0.23    0.20    0.20    0.00   0.16  19.20
sdb              37.00     0.00 1212.00    0.00 28760.00     0.00    47.46     0.23    0.19    0.19    0.00   0.15  18.40
sdc              35.00     0.00 1164.00    0.00 28644.00     0.00    49.22     0.34    0.29    0.29    0.00   0.20  22.90
sdd              36.00     0.00 1179.00    0.00 30300.00     0.00    51.40     0.32    0.27    0.27    0.00   0.21  24.30
sde              40.00     0.00 1093.00    0.00 29872.00     0.00    54.66     0.31    0.29    0.29    0.00   0.22  23.80
sdf              37.00     0.00 1197.00    0.00 29180.00     0.00    48.76     0.30    0.25    0.25    0.00   0.19  23.00
sdg               0.00     0.00    0.00    0.00     0.00     0.00     0.00     0.00    0.00    0.00    0.00   0.00   0.00
sdh               0.00     0.00    0.00    0.00     0.00     0.00     0.00     0.00    0.00    0.00    0.00   0.00   0.00
md0               0.00     0.00 7260.00    0.00 234336.00     0.00    64.56     0.00    0.00    0.00    0.00   0.00   0.00

avg-cpu:  %user   %nice %system %iowait  %steal   %idle
          24.37    0.00    2.76   10.55    0.00   62.31

Device:         rrqm/s   wrqm/s     r/s     w/s    rkB/s    wkB/s avgrq-sz avgqu-sz   await r_await w_await  svctm  %util
sda              26.00     0.00 1094.00    0.00 24940.00     0.00    45.59     0.17    0.16    0.16    0.00   0.15  16.20
sdb              22.00     0.00 1202.00    0.00 21724.00     0.00    36.15     0.18    0.15    0.15    0.00   0.14  16.70
sdc              21.00     0.00 1206.00    0.00 23400.00     0.00    38.81     0.23    0.19    0.19    0.00   0.18  21.20
sdd              28.00     0.00 1193.00    0.00 25272.00     0.00    42.37     0.23    0.20    0.20    0.00   0.18  21.20
sde              25.00     0.00 1140.00    0.00 24424.00     0.00    42.85     0.24    0.21    0.21    0.00   0.19  21.30
sdf              21.00     0.00 1151.00    0.00 22876.00     0.00    39.75     0.23    0.20    0.20    0.00   0.18  20.50
sdg               0.00     0.00    0.00    0.00     0.00     0.00     0.00     0.00    0.00    0.00    0.00   0.00   0.00
sdh               0.00     0.00    0.00    0.00     0.00     0.00     0.00     0.00    0.00    0.00    0.00   0.00   0.00
md0               0.00     0.00 7129.00    0.00 187160.00     0.00    52.51     0.00    0.00    0.00    0.00   0.00   0.00

avg-cpu:  %user   %nice %system %iowait  %steal   %idle
          24.75    0.00    2.53    7.58    0.00   65.15

Device:         rrqm/s   wrqm/s     r/s     w/s    rkB/s    wkB/s avgrq-sz avgqu-sz   await r_await w_await  svctm  %util
sda               8.00     0.00 1231.00    0.00 15800.00     0.00    25.67     0.15    0.12    0.12    0.00   0.12  14.50
sdb               9.00     0.00 1232.00    0.00 15368.00     0.00    24.95     0.16    0.13    0.13    0.00   0.13  16.10
sdc              12.00     0.00 1227.00    0.00 17060.00     0.00    27.81     0.18    0.14    0.14    0.00   0.14  17.40
sdd              11.00     0.00 1222.00    0.00 18596.00     0.00    30.44     0.19    0.15    0.15    0.00   0.15  18.10
sde              10.00     0.00 1242.00    0.00 16944.00     0.00    27.29     0.19    0.15    0.15    0.00   0.15  18.40
sdf               8.00     0.00 1240.00    0.00 15312.00     0.00    24.70     0.19    0.15    0.15    0.00   0.14  17.60
sdg               0.00     0.00    0.00    0.00     0.00     0.00     0.00     0.00    0.00    0.00    0.00   0.00   0.00
sdh               0.00     0.00    0.00    0.00     0.00     0.00     0.00     0.00    0.00    0.00    0.00   0.00   0.00
md0               0.00     0.00 7453.00    0.00 122620.00     0.00    32.90     0.00    0.00    0.00    0.00   0.00   0.00

avg-cpu:  %user   %nice %system %iowait  %steal   %idle
          24.75    0.00    2.75    9.00    0.00   63.50

Device:         rrqm/s   wrqm/s     r/s     w/s    rkB/s    wkB/s avgrq-sz avgqu-sz   await r_await w_await  svctm  %util
sda              21.00     0.00 1137.00    0.00 24412.00     0.00    42.94     0.18    0.16    0.16    0.00   0.15  16.50
sdb              24.00     0.00 1185.00    0.00 20360.00     0.00    34.36     0.17    0.14    0.14    0.00   0.13  15.90
sdc              26.00     0.00 1241.00    0.00 22276.00     0.00    35.90     0.23    0.19    0.19    0.00   0.17  20.70
sdd              22.00     0.00 1228.00    0.00 22088.00     0.00    35.97     0.24    0.19    0.19    0.00   0.17  20.70
sde              22.00     0.00 1191.00    0.00 22188.00     0.00    37.26     0.23    0.20    0.20    0.00   0.17  20.10
sdf              24.00     0.00 1234.00    0.00 21180.00     0.00    34.33     0.24    0.20    0.20    0.00   0.17  20.50
sdg               0.00     0.00    0.00    0.00     0.00     0.00     0.00     0.00    0.00    0.00    0.00   0.00   0.00
sdh               0.00     0.00    0.00    0.00     0.00     0.00     0.00     0.00    0.00    0.00    0.00   0.00   0.00
md0               0.00     0.00 7355.00    0.00 169956.00     0.00    46.22     0.00    0.00    0.00    0.00   0.00   0.00

avg-cpu:  %user   %nice %system %iowait  %steal   %idle
          24.37    0.00    3.02    8.79    0.00   63.82

Device:         rrqm/s   wrqm/s     r/s     w/s    rkB/s    wkB/s avgrq-sz avgqu-sz   await r_await w_await  svctm  %util
sda              11.00     0.00 1180.00    0.00 17548.00     0.00    29.74     0.15    0.13    0.13    0.00   0.13  15.00
sdb              12.00     0.00 1264.00    0.00 17100.00     0.00    27.06     0.17    0.13    0.13    0.00   0.13  16.30
sdc              13.00     0.00 1157.00    0.00 16428.00     0.00    28.40     0.18    0.16    0.16    0.00   0.15  17.40
sdd              11.00     0.00 1240.00    0.00 17872.00     0.00    28.83     0.19    0.16    0.16    0.00   0.15  18.40
sde              11.00     0.00 1230.00    0.00 18284.00     0.00    29.73     0.19    0.16    0.16    0.00   0.15  18.60
sdf              12.00     0.00 1216.00    0.00 18992.00     0.00    31.24     0.19    0.16    0.16    0.00   0.15  18.80
sdg               0.00     1.00    1.00    2.00     4.00    20.00    16.00     0.00    0.00    0.00    0.00   0.00   0.00
sdh               0.00     0.00    0.00    0.00     0.00     0.00     0.00     0.00    0.00    0.00    0.00   0.00   0.00
md0               0.00     0.00 7357.00    0.00 130372.00     0.00    35.44     0.00    0.00    0.00    0.00   0.00   0.00

avg-cpu:  %user   %nice %system %iowait  %steal   %idle
          24.69    0.25    2.77   13.35    0.00   58.94

Device:         rrqm/s   wrqm/s     r/s     w/s    rkB/s    wkB/s avgrq-sz avgqu-sz   await r_await w_await  svctm  %util
sda              33.00     0.00 1090.00    0.00 28204.00     0.00    51.75     0.20    0.19    0.19    0.00   0.16  17.80
sdb              33.00     0.00 1184.00    0.00 26272.00     0.00    44.38     0.21    0.18    0.18    0.00   0.16  18.40
sdc              31.00     0.00 1169.00    0.00 26840.00     0.00    45.92     0.25    0.22    0.22    0.00   0.18  21.60
sdd              30.00     0.00 1182.00    0.00 25668.00     0.00    43.43     0.27    0.23    0.23    0.00   0.19  22.60
sde              30.00     0.00 1207.00    0.00 25452.00     0.00    42.17     0.25    0.21    0.21    0.00   0.18  22.10
sdf              32.00     0.00 1152.00    0.00 27288.00     0.00    47.38     0.25    0.21    0.21    0.00   0.19  21.50
sdg               0.00     0.00    3.00    0.00    12.00     0.00     8.00     0.00    0.33    0.33    0.00   0.33   0.10
sdh               0.00     0.00    0.00    0.00     0.00     0.00     0.00     0.00    0.00    0.00    0.00   0.00   0.00
md0               0.00     0.00 7172.00    0.00 206068.00     0.00    57.46     0.00    0.00    0.00    0.00   0.00   0.00

