Linux 4.17.2 (bench) 	08/03/2018 	_x86_64_	(4 CPU)

avg-cpu:  %user   %nice %system %iowait  %steal   %idle
          10.28    0.02    4.06    2.56    0.00   83.08

Device:         rrqm/s   wrqm/s     r/s     w/s    rkB/s    wkB/s avgrq-sz avgqu-sz   await r_await w_await  svctm  %util
sda              45.01     4.24 1654.94  102.56 20952.42  3129.81    27.40     1.03    0.59    0.26    5.91   0.06  10.73
sdb              44.89     4.20 1654.87  102.70 20941.81  3126.47    27.39     1.03    0.59    0.26    5.85   0.06  10.61
sdc              82.83     4.26 1614.83  102.25 20933.90  3128.94    28.03     1.45    0.85    0.45    7.12   0.08  14.07
sdd              76.24     4.23 1620.59  102.32 20918.80  3125.13    27.91     1.46    0.85    0.44    7.32   0.08  14.16
sde              78.28     4.27 1625.65  102.42 20978.64  3129.38    27.90     1.48    0.86    0.44    7.43   0.08  14.18
sdf              75.40     4.24 1627.81  102.36 20959.88  3126.24    27.84     1.52    0.88    0.44    7.90   0.08  14.21
sdg               0.00     3.17   26.29   73.31   323.96   391.98    14.38     0.44    4.42    0.20    5.93   0.08   0.78
sdh               0.00     0.13    0.02    0.23     2.21     5.06    56.82     0.00    1.15    0.65    1.19   0.21   0.01
md0               0.00     0.00 10208.06  480.48 143525.52 21430.49    30.87     0.00    0.00    0.00    0.00   0.00   0.00

avg-cpu:  %user   %nice %system %iowait  %steal   %idle
          24.42    0.01    2.82    8.84    0.00   63.92

Device:         rrqm/s   wrqm/s     r/s     w/s    rkB/s    wkB/s avgrq-sz avgqu-sz   await r_await w_await  svctm  %util
sda              19.20     0.00 1221.30    0.00 22846.80     0.00    37.41     0.27    0.22    0.22    0.00   0.14  16.99
sdb              20.45     0.00 1208.25    0.00 23064.60     0.00    38.18     0.26    0.22    0.22    0.00   0.14  16.50
sdc              20.20     0.00 1203.95    0.00 22968.20     0.00    38.15     0.40    0.33    0.33    0.00   0.17  20.57
sdd              19.75     0.00 1229.25    0.00 22688.80     0.00    36.91     0.41    0.33    0.33    0.00   0.17  20.55
sde              19.45     0.00 1216.90    0.00 22710.00     0.00    37.32     0.42    0.34    0.34    0.00   0.17  20.29
sdf              18.85     0.00 1230.15    0.00 22252.60     0.00    36.18     0.40    0.33    0.33    0.00   0.16  20.23
sdg               0.00     0.05   67.00    0.60   272.40    10.00     8.36     0.01    0.11    0.11    0.33   0.11   0.76
sdh               0.00     0.00    0.00    0.00     0.00     0.00     0.00     0.00    0.00    0.00    0.00   0.00   0.00
md0               0.00     0.00 7427.80    0.00 173061.20     0.00    46.60     0.00    0.00    0.00    0.00   0.00   0.00

