Linux 4.17.2 (bench) 	08/03/2018 	_x86_64_	(4 CPU)

avg-cpu:  %user   %nice %system %iowait  %steal   %idle
          10.29    0.02    4.00    2.47    0.00   83.22

Device:         rrqm/s   wrqm/s     r/s     w/s    rkB/s    wkB/s avgrq-sz avgqu-sz   await r_await w_await  svctm  %util
sda              41.51     4.27 1613.93  103.38 20678.61  3154.81    27.76     1.03    0.60    0.26    5.91   0.06  10.55
sdb              41.40     4.23 1613.82  103.52 20668.05  3151.45    27.74     1.02    0.60    0.26    5.85   0.06  10.43
sdc              79.49     4.29 1573.65  103.07 20660.25  3153.93    28.41     1.44    0.86    0.45    7.12   0.08  13.85
sdd              72.84     4.26 1579.45  103.14 20644.94  3150.09    28.28     1.45    0.86    0.44    7.32   0.08  13.95
sde              74.91     4.30 1584.58  103.24 20705.48  3154.37    28.27     1.47    0.87    0.44    7.43   0.08  13.97
sdf              72.00     4.28 1586.76  103.18 20686.49  3151.21    28.21     1.52    0.90    0.44    7.90   0.08  14.00
sdg               0.00     3.18   25.95   73.33   322.51   391.96    14.39     0.44    4.43    0.20    5.93   0.08   0.78
sdh               0.00     0.13    0.02    0.24     2.23     5.11    56.82     0.00    1.15    0.65    1.19   0.21   0.01
md0               0.00     0.00 9940.56  484.32 141550.96 21601.68    31.30     0.00    0.00    0.00    0.00   0.00   0.00

avg-cpu:  %user   %nice %system %iowait  %steal   %idle
          23.75    0.00    3.00    0.75    0.00   72.50

Device:         rrqm/s   wrqm/s     r/s     w/s    rkB/s    wkB/s avgrq-sz avgqu-sz   await r_await w_await  svctm  %util
sda               0.00     0.00 1404.00    0.00  6544.00     0.00     9.32     0.15    0.11    0.11    0.00   0.11  15.30
sdb               0.00     0.00 1515.00    0.00  6384.00     0.00     8.43     0.14    0.10    0.10    0.00   0.10  14.50
sdc               0.00     0.00 1512.00    0.00  6572.00     0.00     8.69     0.16    0.11    0.11    0.00   0.11  15.90
sdd               0.00     0.00 1441.00    0.00  6108.00     0.00     8.48     0.16    0.11    0.11    0.00   0.11  16.30
sde               0.00     0.00 1498.00    0.00  6696.00     0.00     8.94     0.17    0.12    0.12    0.00   0.12  17.50
sdf               0.00     0.00 1471.00    0.00  6680.00     0.00     9.08     0.14    0.10    0.10    0.00   0.10  14.10
sdg               0.00    17.00   10.00   84.00   160.00  1332.00    31.74     0.18    1.97    0.10    2.19   0.06   0.60
sdh               0.00     0.00    0.00    0.00     0.00     0.00     0.00     0.00    0.00    0.00    0.00   0.00   0.00
md0               0.00     0.00 8838.00    0.00 39256.00     0.00     8.88     0.00    0.00    0.00    0.00   0.00   0.00

