Linux 4.17.2 (bench) 	08/03/2018 	_x86_64_	(4 CPU)

avg-cpu:  %user   %nice %system %iowait  %steal   %idle
          10.29    0.02    4.00    2.47    0.00   83.22

Device:         rrqm/s   wrqm/s     r/s     w/s    rkB/s    wkB/s avgrq-sz avgqu-sz   await r_await w_await  svctm  %util
sda              41.51     4.27 1613.78  103.42 20676.26  3156.08    27.76     1.03    0.60    0.26    5.91   0.06  10.54
sdb              41.41     4.23 1613.67  103.56 20665.67  3152.72    27.74     1.03    0.60    0.26    5.85   0.06  10.42
sdc              79.51     4.29 1573.48  103.11 20657.90  3155.20    28.41     1.44    0.86    0.45    7.12   0.08  13.85
sdd              72.86     4.26 1579.29  103.18 20642.56  3151.36    28.28     1.45    0.86    0.44    7.32   0.08  13.94
sde              74.93     4.31 1584.42  103.28 20703.15  3155.65    28.27     1.47    0.87    0.44    7.43   0.08  13.96
sdf              72.02     4.28 1586.60  103.22 20684.16  3152.48    28.21     1.52    0.90    0.44    7.90   0.08  14.00
sdg               0.00     3.18   25.94   73.34   322.47   391.96    14.39     0.44    4.43    0.20    5.93   0.08   0.77
sdh               0.00     0.13    0.02    0.24     2.23     5.11    56.82     0.00    1.15    0.65    1.19   0.21   0.01
md0               0.00     0.00 9939.69  484.51 141525.42 21610.40    31.30     0.00    0.00    0.00    0.00   0.00   0.00

avg-cpu:  %user   %nice %system %iowait  %steal   %idle
          23.81    0.00    6.52   13.03    0.00   56.64

Device:         rrqm/s   wrqm/s     r/s     w/s    rkB/s    wkB/s avgrq-sz avgqu-sz   await r_await w_await  svctm  %util
sda               0.00     0.00 1352.00    0.00  5408.00     0.00     8.00     0.14    0.10    0.10    0.00   0.10  13.80
sdb               0.00     0.00 1342.00    0.00  5368.00     0.00     8.00     0.13    0.10    0.10    0.00   0.10  13.10
sdc               0.00     0.00 1424.00    0.00  5696.00     0.00     8.00     0.14    0.10    0.10    0.00   0.10  14.50
sdd               0.00     0.00 1342.00    0.00  5368.00     0.00     8.00     0.14    0.11    0.11    0.00   0.11  14.10
sde               0.00     0.00 1443.00    0.00  5772.00     0.00     8.00     0.14    0.10    0.10    0.00   0.10  14.30
sdf               0.00     0.00 1417.00    0.00  5668.00     0.00     8.00     0.14    0.10    0.10    0.00   0.10  14.10
sdg               0.00     0.00    0.00    0.00     0.00     0.00     0.00     0.00    0.00    0.00    0.00   0.00   0.00
sdh               0.00     0.00    0.00    0.00     0.00     0.00     0.00     0.00    0.00    0.00    0.00   0.00   0.00
md0               0.00     0.00 8315.00    0.00 33260.00     0.00     8.00     0.00    0.00    0.00    0.00   0.00   0.00

