Linux 4.17.2 (bench) 	08/03/2018 	_x86_64_	(4 CPU)

avg-cpu:  %user   %nice %system %iowait  %steal   %idle
          10.28    0.02    4.06    2.56    0.00   83.08

Device:         rrqm/s   wrqm/s     r/s     w/s    rkB/s    wkB/s avgrq-sz avgqu-sz   await r_await w_await  svctm  %util
sda              44.55     4.24 1653.51  102.58 20937.12  3130.42    27.41     1.03    0.59    0.26    5.91   0.06  10.72
sdb              44.43     4.20 1653.43  102.72 20926.54  3127.08    27.39     1.03    0.59    0.26    5.85   0.06  10.60
sdc              82.34     4.26 1613.43  102.27 20918.65  3129.55    28.03     1.45    0.85    0.45    7.12   0.08  14.06
sdd              75.75     4.23 1619.19  102.34 20903.50  3125.74    27.92     1.46    0.85    0.44    7.32   0.08  14.15
sde              77.79     4.27 1624.26  102.44 20963.40  3129.99    27.91     1.48    0.86    0.44    7.43   0.08  14.17
sdf              74.90     4.24 1626.42  102.38 20944.59  3126.85    27.85     1.52    0.88    0.44    7.90   0.08  14.20
sdg               0.00     3.17   26.28   73.30   323.88   391.97    14.38     0.44    4.42    0.20    5.93   0.08   0.78
sdh               0.00     0.13    0.02    0.24     2.21     5.07    56.82     0.00    1.15    0.65    1.19   0.21   0.01
md0               0.00     0.00 10196.69  480.57 143419.03 21434.68    30.88     0.00    0.00    0.00    0.00   0.00   0.00

avg-cpu:  %user   %nice %system %iowait  %steal   %idle
          24.69    0.00    2.52    8.82    0.00   63.98

Device:         rrqm/s   wrqm/s     r/s     w/s    rkB/s    wkB/s avgrq-sz avgqu-sz   await r_await w_await  svctm  %util
sda               4.00     0.00 1295.00    0.00 25308.00     0.00    39.09     0.22    0.17    0.17    0.00   0.15  18.80
sdb               5.00     0.00 1175.00    0.00 21820.00     0.00    37.14     0.19    0.16    0.16    0.00   0.14  16.10
sdc               5.00     0.00 1225.00    0.00 21268.00     0.00    34.72     0.25    0.20    0.20    0.00   0.16  20.20
sdd               1.00     0.00 1290.00    0.00 20964.00     0.00    32.50     0.24    0.19    0.19    0.00   0.15  19.00
sde               0.00     0.00 1310.00    0.00 22948.00     0.00    35.04     0.24    0.18    0.18    0.00   0.15  20.20
sdf               3.00     0.00 1219.00    0.00 22212.00     0.00    36.44     0.24    0.20    0.20    0.00   0.16  19.50
sdg               0.00     0.00    4.00    7.00   104.00   152.00    46.55     0.00    0.09    0.25    0.00   0.09   0.10
sdh               0.00     0.00    0.00    0.00     0.00     0.00     0.00     0.00    0.00    0.00    0.00   0.00   0.00
md0               0.00     0.00 7534.00    0.00 150608.00     0.00    39.98     0.00    0.00    0.00    0.00   0.00   0.00

avg-cpu:  %user   %nice %system %iowait  %steal   %idle
          24.49    0.00    2.53    9.09    0.00   63.89

Device:         rrqm/s   wrqm/s     r/s     w/s    rkB/s    wkB/s avgrq-sz avgqu-sz   await r_await w_await  svctm  %util
sda               2.00     0.00 1197.00    0.00 21464.00     0.00    35.86     0.18    0.15    0.15    0.00   0.13  15.40
sdb               4.00     0.00 1258.00    0.00 24440.00     0.00    38.86     0.22    0.17    0.17    0.00   0.14  17.60
sdc               5.00     0.00 1287.00    0.00 25796.00     0.00    40.09     0.28    0.21    0.21    0.00   0.18  22.80
sdd               5.00     0.00 1215.00    0.00 20380.00     0.00    33.55     0.22    0.18    0.18    0.00   0.16  19.10
sde               2.00     0.00 1289.00    0.00 20756.00     0.00    32.20     0.24    0.19    0.19    0.00   0.15  19.80
sdf               3.00     0.00 1252.00    0.00 22992.00     0.00    36.73     0.24    0.19    0.19    0.00   0.16  20.20
sdg               0.00     0.00    0.00    0.00     0.00     0.00     0.00     0.00    0.00    0.00    0.00   0.00   0.00
sdh               0.00     0.00    0.00    0.00     0.00     0.00     0.00     0.00    0.00    0.00    0.00   0.00   0.00
md0               0.00     0.00 7519.00    0.00 152448.00     0.00    40.55     0.00    0.00    0.00    0.00   0.00   0.00

avg-cpu:  %user   %nice %system %iowait  %steal   %idle
          24.81    0.00    2.03    8.86    0.00   64.30

Device:         rrqm/s   wrqm/s     r/s     w/s    rkB/s    wkB/s avgrq-sz avgqu-sz   await r_await w_await  svctm  %util
sda               5.00     0.00 1254.00    0.00 22100.00     0.00    35.25     0.17    0.13    0.13    0.00   0.12  15.50
sdb               6.00     0.00 1199.00    0.00 20792.00     0.00    34.68     0.18    0.15    0.15    0.00   0.14  16.70
sdc               7.00     0.00 1199.00    0.00 20596.00     0.00    34.36     0.21    0.17    0.17    0.00   0.16  19.10
sdd               4.00     0.00 1237.00    0.00 20572.00     0.00    33.26     0.21    0.17    0.17    0.00   0.16  19.30
sde               3.00     0.00 1262.00    0.00 19900.00     0.00    31.54     0.22    0.17    0.17    0.00   0.15  19.40
sdf               3.00     0.00 1224.00    0.00 18652.00     0.00    30.48     0.20    0.17    0.17    0.00   0.16  19.10
sdg               0.00     0.00    0.00    0.00     0.00     0.00     0.00     0.00    0.00    0.00    0.00   0.00   0.00
sdh               0.00     0.00    0.00    0.00     0.00     0.00     0.00     0.00    0.00    0.00    0.00   0.00   0.00
md0               0.00     0.00 7403.00    0.00 141868.00     0.00    38.33     0.00    0.00    0.00    0.00   0.00   0.00

avg-cpu:  %user   %nice %system %iowait  %steal   %idle
          24.43    0.00    2.52    9.82    0.00   63.22

Device:         rrqm/s   wrqm/s     r/s     w/s    rkB/s    wkB/s avgrq-sz avgqu-sz   await r_await w_await  svctm  %util
sda               5.00     0.00 1138.00    0.00 21020.00     0.00    36.94     0.17    0.15    0.15    0.00   0.14  15.90
sdb               5.00     0.00 1202.00    0.00 20648.00     0.00    34.36     0.16    0.13    0.13    0.00   0.12  14.90
sdc               4.00     0.00 1294.00    0.00 21764.00     0.00    33.64     0.23    0.18    0.18    0.00   0.16  21.30
sdd               3.00     0.00 1196.00    0.00 20544.00     0.00    34.35     0.21    0.18    0.18    0.00   0.16  19.10
sde               6.00     0.00 1257.00    0.00 22064.00     0.00    35.11     0.20    0.16    0.16    0.00   0.15  19.30
sdf               6.00     0.00 1225.00    0.00 23080.00     0.00    37.68     0.25    0.20    0.20    0.00   0.18  22.20
sdg               0.00     0.00    0.00    0.00     0.00     0.00     0.00     0.00    0.00    0.00    0.00   0.00   0.00
sdh               0.00     0.00    0.00    0.00     0.00     0.00     0.00     0.00    0.00    0.00    0.00   0.00   0.00
md0               0.00     0.00 7340.00    0.00 145332.00     0.00    39.60     0.00    0.00    0.00    0.00   0.00   0.00

avg-cpu:  %user   %nice %system %iowait  %steal   %idle
          24.56    0.00    2.03    6.84    0.00   66.58

Device:         rrqm/s   wrqm/s     r/s     w/s    rkB/s    wkB/s avgrq-sz avgqu-sz   await r_await w_await  svctm  %util
sda               7.00     0.00 1181.00    0.00 20832.00     0.00    35.28     0.17    0.14    0.14    0.00   0.13  15.60
sdb               5.00     0.00 1247.00    0.00 20420.00     0.00    32.75     0.18    0.15    0.15    0.00   0.13  16.60
sdc               3.00     0.00 1188.00    0.00 19180.00     0.00    32.29     0.21    0.17    0.17    0.00   0.16  19.10
sdd               6.00     0.00 1230.00    0.00 22236.00     0.00    36.16     0.21    0.17    0.17    0.00   0.16  19.60
sde               5.00     0.00 1262.00    0.00 22068.00     0.00    34.97     0.21    0.17    0.17    0.00   0.16  19.80
sdf               5.00     0.00 1193.00    0.00 23548.00     0.00    39.48     0.22    0.18    0.18    0.00   0.17  20.40
sdg               0.00     0.00    0.00    0.00     0.00     0.00     0.00     0.00    0.00    0.00    0.00   0.00   0.00
sdh               0.00     0.00    0.00    0.00     0.00     0.00     0.00     0.00    0.00    0.00    0.00   0.00   0.00
md0               0.00     0.00 7333.00    0.00 147168.00     0.00    40.14     0.00    0.00    0.00    0.00   0.00   0.00

avg-cpu:  %user   %nice %system %iowait  %steal   %idle
          24.43    0.00    2.52    7.56    0.00   65.49

Device:         rrqm/s   wrqm/s     r/s     w/s    rkB/s    wkB/s avgrq-sz avgqu-sz   await r_await w_await  svctm  %util
sda               4.00     0.00 1235.00    0.00 20536.00     0.00    33.26     0.17    0.14    0.14    0.00   0.13  16.00
sdb               4.00     0.00 1190.00    0.00 20720.00     0.00    34.82     0.18    0.15    0.15    0.00   0.13  16.00
sdc               4.00     0.00 1296.00    0.00 21328.00     0.00    32.91     0.22    0.17    0.17    0.00   0.16  20.20
sdd               2.00     0.00 1238.00    0.00 18748.00     0.00    30.29     0.19    0.16    0.16    0.00   0.14  17.60
sde               2.00     0.00 1257.00    0.00 20636.00     0.00    32.83     0.21    0.17    0.17    0.00   0.16  20.10
sdf               4.00     0.00 1192.00    0.00 20956.00     0.00    35.16     0.22    0.18    0.18    0.00   0.17  20.60
sdg               0.00     0.00    0.00    0.00     0.00     0.00     0.00     0.00    0.00    0.00    0.00   0.00   0.00
sdh               0.00     0.00    0.00    0.00     0.00     0.00     0.00     0.00    0.00    0.00    0.00   0.00   0.00
md0               0.00     0.00 7428.00    0.00 134880.00     0.00    36.32     0.00    0.00    0.00    0.00   0.00   0.00

avg-cpu:  %user   %nice %system %iowait  %steal   %idle
          23.87    0.00    2.51    1.51    0.00   72.11

Device:         rrqm/s   wrqm/s     r/s     w/s    rkB/s    wkB/s avgrq-sz avgqu-sz   await r_await w_await  svctm  %util
sda               3.00     0.00 1251.00    0.00 20584.00     0.00    32.91     0.18    0.14    0.14    0.00   0.14  17.10
sdb               3.00     0.00 1186.00    0.00 19800.00     0.00    33.39     0.16    0.13    0.13    0.00   0.12  14.10
sdc               7.00     0.00 1269.00    0.00 23184.00     0.00    36.54     0.22    0.17    0.17    0.00   0.16  19.70
sdd               5.00     0.00 1163.00    0.00 20892.00     0.00    35.93     0.21    0.18    0.18    0.00   0.17  19.40
sde               3.00     0.00 1290.00    0.00 21244.00     0.00    32.94     0.24    0.19    0.19    0.00   0.17  22.10
sdf               4.00     0.00 1243.00    0.00 18624.00     0.00    29.97     0.20    0.16    0.16    0.00   0.15  18.40
sdg               0.00     0.00    0.00    0.00     0.00     0.00     0.00     0.00    0.00    0.00    0.00   0.00   0.00
sdh               0.00     0.00    0.00    0.00     0.00     0.00     0.00     0.00    0.00    0.00    0.00   0.00   0.00
md0               0.00     0.00 7426.00    0.00 141920.00     0.00    38.22     0.00    0.00    0.00    0.00   0.00   0.00

avg-cpu:  %user   %nice %system %iowait  %steal   %idle
          23.62    0.00    3.27    1.01    0.00   72.11

Device:         rrqm/s   wrqm/s     r/s     w/s    rkB/s    wkB/s avgrq-sz avgqu-sz   await r_await w_await  svctm  %util
sda               1.00     0.00 1213.00    0.00 19236.00     0.00    31.72     0.17    0.14    0.14    0.00   0.13  16.00
sdb               2.00     0.00 1298.00    0.00 21752.00     0.00    33.52     0.21    0.16    0.16    0.00   0.14  18.20
sdc               3.00     0.00 1258.00    0.00 19176.00     0.00    30.49     0.23    0.19    0.19    0.00   0.17  21.00
sdd               0.00     0.00 1231.00    0.00 19012.00     0.00    30.89     0.22    0.18    0.18    0.00   0.16  19.10
sde               1.00     0.00 1206.00    0.00 18596.00     0.00    30.84     0.19    0.16    0.16    0.00   0.14  17.20
sdf               2.00     0.00 1179.00    0.00 17456.00     0.00    29.61     0.20    0.17    0.17    0.00   0.15  17.70
sdg               0.00     0.00    0.00    0.00     0.00     0.00     0.00     0.00    0.00    0.00    0.00   0.00   0.00
sdh               0.00     0.00    0.00    0.00     0.00     0.00     0.00     0.00    0.00    0.00    0.00   0.00   0.00
md0               0.00     0.00 7395.00    0.00 127144.00     0.00    34.39     0.00    0.00    0.00    0.00   0.00   0.00

avg-cpu:  %user   %nice %system %iowait  %steal   %idle
          24.49    0.00    2.53    2.53    0.00   70.45

Device:         rrqm/s   wrqm/s     r/s     w/s    rkB/s    wkB/s avgrq-sz avgqu-sz   await r_await w_await  svctm  %util
sda               0.00     0.00 1298.00    0.00 24876.00     0.00    38.33     0.25    0.19    0.19    0.00   0.15  19.30
sdb               1.00     0.00 1261.00    0.00 23748.00     0.00    37.67     0.22    0.17    0.17    0.00   0.12  15.20
sdc               2.00     0.00 1199.00    0.00 22552.00     0.00    37.62     0.28    0.23    0.23    0.00   0.17  20.30
sdd               2.00     0.00 1238.00    0.00 21052.00     0.00    34.01     0.26    0.21    0.21    0.00   0.17  20.60
sde               1.00     0.00 1212.00    0.00 21968.00     0.00    36.25     0.25    0.20    0.20    0.00   0.15  18.70
sdf               3.00     0.00 1315.00    0.00 26192.00     0.00    39.84     0.27    0.20    0.20    0.00   0.15  19.50
sdg               0.00     0.00    0.00    0.00     0.00     0.00     0.00     0.00    0.00    0.00    0.00   0.00   0.00
sdh               0.00     0.00    0.00    0.00     0.00     0.00     0.00     0.00    0.00    0.00    0.00   0.00   0.00
md0               0.00     0.00 7532.00    0.00 156448.00     0.00    41.54     0.00    0.00    0.00    0.00   0.00   0.00

avg-cpu:  %user   %nice %system %iowait  %steal   %idle
          24.69    0.25    2.52    1.26    0.00   71.28

Device:         rrqm/s   wrqm/s     r/s     w/s    rkB/s    wkB/s avgrq-sz avgqu-sz   await r_await w_await  svctm  %util
sda               1.00     0.00 1269.00    0.00 24928.00     0.00    39.29     0.22    0.17    0.17    0.00   0.14  17.80
sdb               1.00     0.00 1272.00    0.00 20084.00     0.00    31.58     0.20    0.16    0.16    0.00   0.13  16.80
sdc               2.00     0.00 1219.00    0.00 19176.00     0.00    31.46     0.22    0.18    0.18    0.00   0.15  18.10
sdd               0.00     0.00 1255.00    0.00 19740.00     0.00    31.46     0.27    0.21    0.21    0.00   0.17  21.30
sde               1.00     0.00 1209.00    0.00 20424.00     0.00    33.79     0.25    0.20    0.20    0.00   0.16  19.30
sdf               1.00     0.00 1279.00    0.00 22948.00     0.00    35.88     0.25    0.19    0.19    0.00   0.15  19.60
sdg               0.00     0.00    3.00    0.00    12.00     0.00     8.00     0.00    0.00    0.00    0.00   0.00   0.00
sdh               0.00     0.00    0.00    0.00     0.00     0.00     0.00     0.00    0.00    0.00    0.00   0.00   0.00
md0               0.00     0.00 7509.00    0.00 140500.00     0.00    37.42     0.00    0.00    0.00    0.00   0.00   0.00

avg-cpu:  %user   %nice %system %iowait  %steal   %idle
          24.69    0.00    2.52    4.79    0.00   68.01

Device:         rrqm/s   wrqm/s     r/s     w/s    rkB/s    wkB/s avgrq-sz avgqu-sz   await r_await w_await  svctm  %util
sda               7.00     0.00 1223.00    0.00 23248.00     0.00    38.02     0.21    0.17    0.17    0.00   0.14  16.70
sdb               1.00     0.00 1108.00    0.00 22744.00     0.00    41.05     0.19    0.17    0.17    0.00   0.15  16.60
sdc               5.00     0.00 1189.00    0.00 21136.00     0.00    35.55     0.24    0.20    0.20    0.00   0.16  19.30
sdd               6.00     0.00 1130.00    0.00 24244.00     0.00    42.91     0.24    0.22    0.22    0.00   0.18  19.90
sde               5.00     0.00 1284.00    0.00 27600.00     0.00    42.99     0.29    0.22    0.22    0.00   0.17  22.20
sdf               5.00     0.00 1269.00    0.00 26236.00     0.00    41.35     0.28    0.22    0.22    0.00   0.17  21.00
sdg               0.00     0.00    0.00    0.00     0.00     0.00     0.00     0.00    0.00    0.00    0.00   0.00   0.00
sdh               0.00     0.00    0.00    0.00     0.00     0.00     0.00     0.00    0.00    0.00    0.00   0.00   0.00
md0               0.00     0.00 7235.00    0.00 168684.00     0.00    46.63     0.00    0.00    0.00    0.00   0.00   0.00

avg-cpu:  %user   %nice %system %iowait  %steal   %idle
          24.81    0.00    2.03    2.03    0.00   71.14

Device:         rrqm/s   wrqm/s     r/s     w/s    rkB/s    wkB/s avgrq-sz avgqu-sz   await r_await w_await  svctm  %util
sda               2.00     0.00 1184.00    0.00 23012.00     0.00    38.87     0.20    0.17    0.17    0.00   0.14  16.50
sdb               3.00     0.00 1218.00    0.00 20876.00     0.00    34.28     0.18    0.15    0.15    0.00   0.13  15.90
sdc               1.00     0.00 1241.00    0.00 21408.00     0.00    34.50     0.24    0.19    0.19    0.00   0.16  20.20
sdd               1.00     0.00 1282.00    0.00 21316.00     0.00    33.25     0.24    0.18    0.18    0.00   0.16  20.70
sde               1.00     0.00 1226.00    0.00 20380.00     0.00    33.25     0.22    0.18    0.18    0.00   0.16  19.40
sdf               2.00     0.00 1212.00    0.00 20468.00     0.00    33.78     0.21    0.17    0.17    0.00   0.15  17.90
sdg               0.00     0.00    0.00    0.00     0.00     0.00     0.00     0.00    0.00    0.00    0.00   0.00   0.00
sdh               0.00     0.00    0.00    0.00     0.00     0.00     0.00     0.00    0.00    0.00    0.00   0.00   0.00
md0               0.00     0.00 7372.00    0.00 140820.00     0.00    38.20     0.00    0.00    0.00    0.00   0.00   0.00

avg-cpu:  %user   %nice %system %iowait  %steal   %idle
          24.75    0.00    2.27    9.60    0.00   63.38

Device:         rrqm/s   wrqm/s     r/s     w/s    rkB/s    wkB/s avgrq-sz avgqu-sz   await r_await w_await  svctm  %util
sda               2.00     0.00 1262.00    0.00 23092.00     0.00    36.60     0.20    0.16    0.16    0.00   0.14  17.50
sdb               8.00     0.00 1218.00    0.00 24776.00     0.00    40.68     0.19    0.16    0.16    0.00   0.13  16.10
sdc               6.00     0.00 1177.00    0.00 23568.00     0.00    40.05     0.26    0.22    0.22    0.00   0.18  21.60
sdd               4.00     0.00 1336.00    0.00 24264.00     0.00    36.32     0.23    0.18    0.18    0.00   0.15  19.70
sde               1.00     0.00 1285.00    0.00 21856.00     0.00    34.02     0.25    0.20    0.20    0.00   0.16  20.80
sdf               3.00     0.00 1223.00    0.00 20996.00     0.00    34.34     0.23    0.19    0.19    0.00   0.15  18.90
sdg               0.00     0.00    0.00    0.00     0.00     0.00     0.00     0.00    0.00    0.00    0.00   0.00   0.00
sdh               0.00     0.00    0.00    0.00     0.00     0.00     0.00     0.00    0.00    0.00    0.00   0.00   0.00
md0               0.00     0.00 7522.00    0.00 155600.00     0.00    41.37     0.00    0.00    0.00    0.00   0.00   0.00

avg-cpu:  %user   %nice %system %iowait  %steal   %idle
          24.62    0.00    2.51   12.06    0.00   60.80

Device:         rrqm/s   wrqm/s     r/s     w/s    rkB/s    wkB/s avgrq-sz avgqu-sz   await r_await w_await  svctm  %util
sda               4.00     0.00 1191.00    0.00 19348.00     0.00    32.49     0.18    0.15    0.15    0.00   0.13  15.10
sdb               2.00     0.00 1201.00    0.00 19160.00     0.00    31.91     0.20    0.17    0.17    0.00   0.14  16.30
sdc               0.00     0.00 1260.00    0.00 19232.00     0.00    30.53     0.22    0.17    0.17    0.00   0.15  18.30
sdd               1.00     0.00 1272.00    0.00 21828.00     0.00    34.32     0.25    0.20    0.20    0.00   0.17  21.20
sde               3.00     0.00 1281.00    0.00 23564.00     0.00    36.79     0.27    0.21    0.21    0.00   0.16  21.10
sdf               3.00     0.00 1341.00    0.00 23728.00     0.00    35.39     0.26    0.19    0.19    0.00   0.16  21.20
sdg               0.00     0.00    0.00    0.00     0.00     0.00     0.00     0.00    0.00    0.00    0.00   0.00   0.00
sdh               0.00     0.00    0.00    0.00     0.00     0.00     0.00     0.00    0.00    0.00    0.00   0.00   0.00
md0               0.00     0.00 7560.00    0.00 141556.00     0.00    37.45     0.00    0.00    0.00    0.00   0.00   0.00

avg-cpu:  %user   %nice %system %iowait  %steal   %idle
          24.37    0.00    2.76   11.56    0.00   61.31

Device:         rrqm/s   wrqm/s     r/s     w/s    rkB/s    wkB/s avgrq-sz avgqu-sz   await r_await w_await  svctm  %util
sda               2.00     0.00 1286.00    0.00 21828.00     0.00    33.95     0.21    0.17    0.17    0.00   0.14  18.20
sdb               5.00     0.00 1241.00    0.00 22296.00     0.00    35.93     0.18    0.15    0.15    0.00   0.13  15.60
sdc               2.00     0.00 1261.00    0.00 20908.00     0.00    33.16     0.22    0.18    0.18    0.00   0.15  19.00
sdd               2.00     0.00 1203.00    0.00 20372.00     0.00    33.87     0.20    0.17    0.17    0.00   0.14  16.70
sde               1.00     0.00 1236.00    0.00 24836.00     0.00    40.19     0.25    0.21    0.21    0.00   0.17  20.80
sdf               3.00     0.00 1273.00    0.00 20384.00     0.00    32.03     0.23    0.18    0.18    0.00   0.16  20.20
sdg               0.00     0.00    0.00    0.00     0.00     0.00     0.00     0.00    0.00    0.00    0.00   0.00   0.00
sdh               0.00     0.00    0.00    0.00     0.00     0.00     0.00     0.00    0.00    0.00    0.00   0.00   0.00
md0               0.00     0.00 7515.00    0.00 147960.00     0.00    39.38     0.00    0.00    0.00    0.00   0.00   0.00

avg-cpu:  %user   %nice %system %iowait  %steal   %idle
          24.49    0.00    2.78   11.36    0.00   61.36

Device:         rrqm/s   wrqm/s     r/s     w/s    rkB/s    wkB/s avgrq-sz avgqu-sz   await r_await w_await  svctm  %util
sda               1.00     0.00 1325.00    0.00 26172.00     0.00    39.50     0.25    0.19    0.19    0.00   0.14  18.60
sdb               2.00     0.00 1235.00    0.00 23988.00     0.00    38.85     0.23    0.19    0.19    0.00   0.14  16.90
sdc               2.00     0.00 1194.00    0.00 20708.00     0.00    34.69     0.25    0.21    0.21    0.00   0.14  17.00
sdd               2.00     0.00 1351.00    0.00 24408.00     0.00    36.13     0.31    0.23    0.23    0.00   0.15  20.90
sde               4.00     0.00 1288.00    0.00 24432.00     0.00    37.94     0.29    0.23    0.23    0.00   0.16  20.50
sdf               4.00     0.00 1343.00    0.00 24992.00     0.00    37.22     0.28    0.21    0.21    0.00   0.15  20.70
sdg               0.00     0.00    0.00    0.00     0.00     0.00     0.00     0.00    0.00    0.00    0.00   0.00   0.00
sdh               0.00     0.00    0.00    0.00     0.00     0.00     0.00     0.00    0.00    0.00    0.00   0.00   0.00
md0               0.00     0.00 7751.00    0.00 161608.00     0.00    41.70     0.00    0.00    0.00    0.00   0.00   0.00

avg-cpu:  %user   %nice %system %iowait  %steal   %idle
          24.49    0.00    2.78   12.63    0.00   60.10

Device:         rrqm/s   wrqm/s     r/s     w/s    rkB/s    wkB/s avgrq-sz avgqu-sz   await r_await w_await  svctm  %util
sda               0.00     0.00 1315.00    0.00 23028.00     0.00    35.02     0.23    0.18    0.18    0.00   0.13  17.00
sdb               0.00     0.00 1301.00    0.00 21180.00     0.00    32.56     0.23    0.17    0.17    0.00   0.13  17.10
sdc               0.00     0.00 1277.00    0.00 19760.00     0.00    30.95     0.24    0.19    0.19    0.00   0.15  18.80
sdd               0.00     0.00 1416.00    0.00 23300.00     0.00    32.91     0.28    0.19    0.19    0.00   0.14  20.20
sde               3.00     0.00 1335.00    0.00 21548.00     0.00    32.28     0.28    0.21    0.21    0.00   0.16  21.20
sdf               0.00     0.00 1276.00    0.00 24704.00     0.00    38.72     0.28    0.22    0.22    0.00   0.15  19.40
sdg               0.00     0.00    0.00    0.00     0.00     0.00     0.00     0.00    0.00    0.00    0.00   0.00   0.00
sdh               0.00     0.00    0.00    0.00     0.00     0.00     0.00     0.00    0.00    0.00    0.00   0.00   0.00
md0               0.00     0.00 7923.00    0.00 144352.00     0.00    36.44     0.00    0.00    0.00    0.00   0.00   0.00

avg-cpu:  %user   %nice %system %iowait  %steal   %idle
          24.69    0.00    2.27   12.85    0.00   60.20

Device:         rrqm/s   wrqm/s     r/s     w/s    rkB/s    wkB/s avgrq-sz avgqu-sz   await r_await w_await  svctm  %util
sda               1.00     0.00 1287.00    0.00 21468.00     0.00    33.36     0.20    0.15    0.15    0.00   0.13  16.20
sdb               1.00     0.00 1227.00    0.00 19872.00     0.00    32.39     0.18    0.15    0.15    0.00   0.12  15.00
sdc               0.00     0.00 1351.00    0.00 20632.00     0.00    30.54     0.26    0.19    0.19    0.00   0.15  20.60
sdd               0.00     0.00 1224.00    0.00 23356.00     0.00    38.16     0.23    0.19    0.19    0.00   0.15  18.70
sde               1.00     0.00 1367.00    0.00 22112.00     0.00    32.35     0.29    0.21    0.21    0.00   0.15  21.00
sdf               0.00     0.00 1325.00    0.00 19012.00     0.00    28.70     0.23    0.17    0.17    0.00   0.14  19.00
sdg               0.00     0.00    2.00    3.00     8.00    20.00    11.20     0.00    0.00    0.00    0.00   0.00   0.00
sdh               0.00     0.00    0.00    0.00     0.00     0.00     0.00     0.00    0.00    0.00    0.00   0.00   0.00
md0               0.00     0.00 7784.00    0.00 136228.00     0.00    35.00     0.00    0.00    0.00    0.00   0.00   0.00

avg-cpu:  %user   %nice %system %iowait  %steal   %idle
          24.18    0.00    3.02   16.62    0.00   56.17

Device:         rrqm/s   wrqm/s     r/s     w/s    rkB/s    wkB/s avgrq-sz avgqu-sz   await r_await w_await  svctm  %util
sda               0.00     0.00 1288.00    0.00 23160.00     0.00    35.96     0.22    0.17    0.17    0.00   0.13  17.10
sdb               2.00     0.00 1349.00    0.00 24732.00     0.00    36.67     0.20    0.15    0.15    0.00   0.11  14.90
sdc               3.00     0.00 1296.00    0.00 23696.00     0.00    36.57     0.29    0.22    0.22    0.00   0.17  21.50
sdd               1.00     0.00 1327.00    0.00 23260.00     0.00    35.06     0.28    0.21    0.21    0.00   0.16  20.80
sde               2.00     0.00 1290.00    0.00 23588.00     0.00    36.57     0.27    0.21    0.21    0.00   0.15  19.80
sdf               1.00     0.00 1302.00    0.00 22700.00     0.00    34.87     0.26    0.20    0.20    0.00   0.15  19.40
sdg               0.00     0.00    0.00    0.00     0.00     0.00     0.00     0.00    0.00    0.00    0.00   0.00   0.00
sdh               0.00     0.00    0.00    0.00     0.00     0.00     0.00     0.00    0.00    0.00    0.00   0.00   0.00
md0               0.00     0.00 7861.00    0.00 155564.00     0.00    39.58     0.00    0.00    0.00    0.00   0.00   0.00

avg-cpu:  %user   %nice %system %iowait  %steal   %idle
          24.75    0.00    2.53    9.85    0.00   62.88

Device:         rrqm/s   wrqm/s     r/s     w/s    rkB/s    wkB/s avgrq-sz avgqu-sz   await r_await w_await  svctm  %util
sda               1.00     0.00 1321.00    0.00 22444.00     0.00    33.98     0.23    0.17    0.17    0.00   0.14  17.90
sdb               1.00     0.00 1313.00    0.00 20868.00     0.00    31.79     0.24    0.18    0.18    0.00   0.14  18.70
sdc               1.00     0.00 1237.00    0.00 20132.00     0.00    32.55     0.23    0.18    0.18    0.00   0.15  18.90
sdd               2.00     0.00 1352.00    0.00 22572.00     0.00    33.39     0.27    0.20    0.20    0.00   0.14  18.50
sde               1.00     0.00 1272.00    0.00 20112.00     0.00    31.62     0.23    0.18    0.18    0.00   0.15  18.50
sdf               0.00     0.00 1303.00    0.00 21288.00     0.00    32.68     0.27    0.20    0.20    0.00   0.16  20.60
sdg               0.00     0.00    2.00    0.00     8.00     0.00     8.00     0.00    0.00    0.00    0.00   0.00   0.00
sdh               0.00     0.00    0.00    0.00     0.00     0.00     0.00     0.00    0.00    0.00    0.00   0.00   0.00
md0               0.00     0.00 7804.00    0.00 140316.00     0.00    35.96     0.00    0.00    0.00    0.00   0.00   0.00

