Linux 4.17.2 (bench) 	08/03/2018 	_x86_64_	(4 CPU)

avg-cpu:  %user   %nice %system %iowait  %steal   %idle
          10.29    0.02    4.00    2.47    0.00   83.22

Device:         rrqm/s   wrqm/s     r/s     w/s    rkB/s    wkB/s avgrq-sz avgqu-sz   await r_await w_await  svctm  %util
sda              41.51     4.27 1613.69  103.40 20677.89  3155.25    27.76     1.03    0.60    0.26    5.91   0.06  10.54
sdb              41.40     4.23 1613.58  103.54 20667.32  3151.89    27.74     1.03    0.60    0.26    5.85   0.06  10.42
sdc              79.50     4.29 1573.40  103.08 20659.53  3154.37    28.41     1.44    0.86    0.45    7.12   0.08  13.85
sdd              72.85     4.26 1579.20  103.15 20644.20  3150.53    28.29     1.45    0.86    0.44    7.32   0.08  13.95
sde              74.92     4.30 1584.33  103.25 20704.76  3154.82    28.28     1.47    0.87    0.44    7.43   0.08  13.97
sdf              72.01     4.28 1586.51  103.20 20685.77  3151.65    28.21     1.52    0.90    0.44    7.90   0.08  14.00
sdg               0.00     3.18   25.95   73.34   322.50   391.96    14.39     0.44    4.43    0.20    5.93   0.08   0.78
sdh               0.00     0.13    0.02    0.24     2.23     5.11    56.82     0.00    1.15    0.65    1.19   0.21   0.01
md0               0.00     0.00 9939.10  484.39 141544.39 21604.71    31.30     0.00    0.00    0.00    0.00   0.00   0.00

avg-cpu:  %user   %nice %system %iowait  %steal   %idle
          18.04    0.00   16.75    3.61    0.00   61.60

Device:         rrqm/s   wrqm/s     r/s     w/s    rkB/s    wkB/s avgrq-sz avgqu-sz   await r_await w_await  svctm  %util
sda             227.00     0.00  267.00    0.00 119916.00     0.00   898.25     0.65    2.46    2.46    0.00   1.28  34.30
sdb             227.00     0.00  272.00    0.00 119976.00     0.00   882.18     0.67    2.46    2.46    0.00   1.29  35.00
sdc             223.00     0.00  267.00    0.00 119460.00     0.00   894.83     1.16    4.33    4.33    0.00   2.17  58.00
sdd             228.00     0.00  253.00    0.00 119768.00     0.00   946.78     1.13    4.46    4.46    0.00   2.28  57.60
sde             228.00     0.00  252.00    0.00 119624.00     0.00   949.40     1.13    4.48    4.48    0.00   2.30  57.90
sdf             226.00     0.00  263.00    0.00 119412.00     0.00   908.08     1.16    4.41    4.41    0.00   2.19  57.70
sdg               0.00    18.00   36.00   90.00   576.00  1396.00    31.30     0.22    1.73    0.17    2.36   0.10   1.30
sdh               0.00     0.00    0.00    0.00     0.00     0.00     0.00     0.00    0.00    0.00    0.00   0.00   0.00
md0               0.00     0.00 2931.00    0.00 963668.00     0.00   657.57     0.00    0.00    0.00    0.00   0.00   0.00

