Linux 4.17.2 (bench) 	08/03/2018 	_x86_64_	(4 CPU)

avg-cpu:  %user   %nice %system %iowait  %steal   %idle
          10.29    0.02    4.00    2.47    0.00   83.22

Device:         rrqm/s   wrqm/s     r/s     w/s    rkB/s    wkB/s avgrq-sz avgqu-sz   await r_await w_await  svctm  %util
sda              41.51     4.27 1613.77  103.42 20675.60  3155.95    27.76     1.03    0.60    0.26    5.91   0.06  10.54
sdb              41.40     4.23 1613.66  103.56 20665.01  3152.58    27.74     1.03    0.60    0.26    5.85   0.06  10.42
sdc              79.51     4.29 1573.47  103.11 20657.24  3155.06    28.41     1.44    0.86    0.45    7.12   0.08  13.85
sdd              72.86     4.26 1579.28  103.18 20641.91  3151.23    28.28     1.45    0.86    0.44    7.32   0.08  13.94
sde              74.93     4.31 1584.41  103.27 20702.49  3155.51    28.27     1.47    0.87    0.44    7.43   0.08  13.96
sdf              72.02     4.28 1586.59  103.22 20683.50  3152.34    28.21     1.52    0.90    0.44    7.90   0.08  14.00
sdg               0.00     3.18   25.94   73.34   322.47   391.96    14.39     0.44    4.43    0.20    5.93   0.08   0.77
sdh               0.00     0.13    0.02    0.24     2.23     5.11    56.82     0.00    1.15    0.65    1.19   0.21   0.01
md0               0.00     0.00 9939.62  484.49 141520.69 21609.44    31.30     0.00    0.00    0.00    0.00   0.00   0.00

avg-cpu:  %user   %nice %system %iowait  %steal   %idle
          24.57    0.01    2.91    7.68    0.00   64.83

Device:         rrqm/s   wrqm/s     r/s     w/s    rkB/s    wkB/s avgrq-sz avgqu-sz   await r_await w_await  svctm  %util
sda               0.05     0.00 1436.55    0.00  6386.80     0.00     8.89     0.14    0.10    0.10    0.00   0.10  13.93
sdb               0.10     0.00 1433.65    0.00  6434.20     0.00     8.98     0.14    0.10    0.10    0.00   0.10  13.97
sdc               0.05     0.00 1445.25    0.00  6368.80     0.00     8.81     0.16    0.11    0.11    0.00   0.11  15.44
sdd               0.05     0.00 1451.80    0.00  6532.20     0.00     9.00     0.15    0.11    0.11    0.00   0.10  15.16
sde               0.00     0.00 1427.75    0.00  6241.60     0.00     8.74     0.15    0.11    0.11    0.00   0.11  15.11
sdf               0.00     0.00 1456.65    0.00  6441.00     0.00     8.84     0.15    0.10    0.10    0.00   0.10  15.03
sdg               0.00     0.00   68.75    0.75   295.00    11.20     8.81     0.01    0.12    0.12    0.33   0.11   0.80
sdh               0.00     0.00    0.00    0.00     0.00     0.00     0.00     0.00    0.00    0.00    0.00   0.00   0.00
md0               0.00     0.00 8651.95    0.00 38625.00     0.00     8.93     0.00    0.00    0.00    0.00   0.00   0.00

