Linux 4.17.2 (bench) 	08/03/2018 	_x86_64_	(4 CPU)

avg-cpu:  %user   %nice %system %iowait  %steal   %idle
          10.29    0.02    4.00    2.47    0.00   83.21

Device:         rrqm/s   wrqm/s     r/s     w/s    rkB/s    wkB/s avgrq-sz avgqu-sz   await r_await w_await  svctm  %util
sda              41.50     4.27 1616.07  103.31 20693.67  3152.70    27.74     1.03    0.60    0.26    5.91   0.06  10.56
sdb              41.40     4.23 1615.96  103.45 20683.10  3149.33    27.72     1.02    0.60    0.26    5.85   0.06  10.44
sdc              79.46     4.29 1575.81  103.00 20675.29  3151.81    28.39     1.44    0.86    0.45    7.12   0.08  13.87
sdd              72.82     4.26 1581.61  103.07 20659.99  3147.98    28.26     1.45    0.86    0.44    7.32   0.08  13.96
sde              74.89     4.30 1586.73  103.17 20720.51  3152.26    28.25     1.47    0.87    0.44    7.43   0.08  13.98
sdf              71.98     4.27 1588.91  103.11 20701.51  3149.10    28.19     1.52    0.90    0.44    7.90   0.08  14.01
sdg               0.00     3.18   25.98   73.33   322.60   391.96    14.39     0.44    4.43    0.20    5.93   0.08   0.78
sdh               0.00     0.13    0.02    0.24     2.23     5.10    56.82     0.00    1.15    0.65    1.19   0.21   0.01
md0               0.00     0.00 9953.33  483.99 141668.92 21587.20    31.28     0.00    0.00    0.00    0.00   0.00   0.00

avg-cpu:  %user   %nice %system %iowait  %steal   %idle
          24.49    0.03    3.05    6.06    0.00   66.37

Device:         rrqm/s   wrqm/s     r/s     w/s    rkB/s    wkB/s avgrq-sz avgqu-sz   await r_await w_await  svctm  %util
sda               3.20     0.00 1290.90    0.00 22578.80     0.00    34.98     0.21    0.16    0.16    0.00   0.14  17.58
sdb               3.20     0.00 1285.95    0.00 22406.40     0.00    34.85     0.20    0.16    0.16    0.00   0.13  16.88
sdc               2.50     0.00 1299.90    0.00 22380.00     0.00    34.43     0.25    0.19    0.19    0.00   0.16  20.53
sdd               2.70     0.00 1302.90    0.00 22614.00     0.00    34.71     0.25    0.19    0.19    0.00   0.16  20.38
sde               2.55     0.00 1285.75    0.00 22158.00     0.00    34.47     0.25    0.19    0.19    0.00   0.16  20.38
sdf               2.95     0.00 1296.30    0.00 22136.00     0.00    34.15     0.25    0.19    0.19    0.00   0.15  19.70
sdg               0.00     2.65    2.35  123.25    27.20   622.00    10.34     0.71    5.68    0.17    5.79   0.05   0.57
sdh               0.00     0.00    0.00    0.00     0.00     0.00     0.00     0.00    0.00    0.00    0.00   0.00   0.00
md0               0.00     0.00 7779.00    0.00 150306.60     0.00    38.64     0.00    0.00    0.00    0.00   0.00   0.00

