Linux 4.17.2 (bench) 	08/03/2018 	_x86_64_	(4 CPU)

avg-cpu:  %user   %nice %system %iowait  %steal   %idle
          10.29    0.02    4.04    2.53    0.00   83.13

Device:         rrqm/s   wrqm/s     r/s     w/s    rkB/s    wkB/s avgrq-sz avgqu-sz   await r_await w_await  svctm  %util
sda              44.08     4.25 1639.88  102.88 20835.09  3139.61    27.51     1.03    0.59    0.26    5.91   0.06  10.66
sdb              43.95     4.21 1639.80  103.02 20824.49  3136.26    27.50     1.03    0.59    0.26    5.85   0.06  10.54
sdc              81.97     4.27 1599.69  102.57 20816.64  3138.73    28.15     1.45    0.85    0.45    7.12   0.08  13.98
sdd              75.36     4.24 1605.46  102.64 20801.48  3134.92    28.03     1.46    0.85    0.44    7.32   0.08  14.08
sde              77.40     4.28 1610.56  102.74 20861.55  3139.18    28.02     1.48    0.86    0.44    7.43   0.08  14.10
sdf              74.51     4.25 1612.72  102.68 20842.70  3136.03    27.96     1.52    0.89    0.44    7.90   0.08  14.13
sdg               0.00     3.17   26.15   73.31   323.34   391.96    14.38     0.44    4.42    0.20    5.93   0.08   0.78
sdh               0.00     0.13    0.02    0.24     2.22     5.08    56.82     0.00    1.15    0.65    1.19   0.21   0.01
md0               0.00     0.00 10111.88  481.99 142654.56 21497.61    30.99     0.00    0.00    0.00    0.00   0.00   0.00

avg-cpu:  %user   %nice %system %iowait  %steal   %idle
          24.87    0.00    2.51   21.86    0.00   50.75

Device:         rrqm/s   wrqm/s     r/s     w/s    rkB/s    wkB/s avgrq-sz avgqu-sz   await r_await w_await  svctm  %util
sda               0.00     0.00 1646.00    0.00  6584.00     0.00     8.00     0.17    0.10    0.10    0.00   0.10  16.50
sdb               0.00     0.00 1510.00    0.00  6040.00     0.00     8.00     0.14    0.10    0.10    0.00   0.10  14.50
sdc               0.00     0.00 1462.00    0.00  5848.00     0.00     8.00     0.15    0.10    0.10    0.00   0.10  14.90
sdd               0.00     0.00 1439.00    0.00  5756.00     0.00     8.00     0.14    0.10    0.10    0.00   0.10  14.50
sde               0.00     0.00 1577.00    0.00  6308.00     0.00     8.00     0.17    0.11    0.11    0.00   0.11  17.30
sdf               0.00     0.00 1519.00    0.00  6076.00     0.00     8.00     0.15    0.10    0.10    0.00   0.10  15.50
sdg               0.00     0.00   19.00    0.00   356.00     0.00    37.47     0.01    0.32    0.32    0.00   0.32   0.60
sdh               0.00     0.00    0.00    0.00     0.00     0.00     0.00     0.00    0.00    0.00    0.00   0.00   0.00
md0               0.00     0.00 9154.00    0.00 36616.00     0.00     8.00     0.00    0.00    0.00    0.00   0.00   0.00

avg-cpu:  %user   %nice %system %iowait  %steal   %idle
          24.87    0.00    2.51   21.86    0.00   50.75

Device:         rrqm/s   wrqm/s     r/s     w/s    rkB/s    wkB/s avgrq-sz avgqu-sz   await r_await w_await  svctm  %util
sda               0.00     0.00 1566.00    0.00  6264.00     0.00     8.00     0.15    0.10    0.10    0.00   0.10  15.30
sdb               0.00     0.00 1571.00    0.00  6284.00     0.00     8.00     0.15    0.10    0.10    0.00   0.10  15.10
sdc               0.00     0.00 1499.00    0.00  5996.00     0.00     8.00     0.15    0.10    0.10    0.00   0.10  15.10
sdd               0.00     0.00 1596.00    0.00  6384.00     0.00     8.00     0.16    0.10    0.10    0.00   0.10  15.80
sde               0.00     0.00 1490.00    0.00  5960.00     0.00     8.00     0.15    0.10    0.10    0.00   0.10  15.40
sdf               0.00     0.00 1536.00    0.00  6144.00     0.00     8.00     0.15    0.10    0.10    0.00   0.10  15.40
sdg               0.00     0.00    0.00    0.00     0.00     0.00     0.00     0.00    0.00    0.00    0.00   0.00   0.00
sdh               0.00     0.00    0.00    0.00     0.00     0.00     0.00     0.00    0.00    0.00    0.00   0.00   0.00
md0               0.00     0.00 9259.00    0.00 37036.00     0.00     8.00     0.00    0.00    0.00    0.00   0.00   0.00

avg-cpu:  %user   %nice %system %iowait  %steal   %idle
          24.37    0.00    2.76   22.11    0.00   50.75

Device:         rrqm/s   wrqm/s     r/s     w/s    rkB/s    wkB/s avgrq-sz avgqu-sz   await r_await w_await  svctm  %util
sda               0.00     0.00 1585.00    0.00  6340.00     0.00     8.00     0.15    0.09    0.09    0.00   0.09  14.80
sdb               0.00     0.00 1609.00    0.00  6436.00     0.00     8.00     0.16    0.10    0.10    0.00   0.10  15.60
sdc               0.00     0.00 1478.00    0.00  5912.00     0.00     8.00     0.14    0.09    0.09    0.00   0.09  14.00
sdd               0.00     0.00 1531.00    0.00  6124.00     0.00     8.00     0.16    0.10    0.10    0.00   0.10  15.90
sde               0.00     0.00 1565.00    0.00  6260.00     0.00     8.00     0.16    0.10    0.10    0.00   0.10  16.10
sdf               0.00     0.00 1484.00    0.00  5936.00     0.00     8.00     0.15    0.10    0.10    0.00   0.10  15.40
sdg               0.00     0.00    0.00    0.00     0.00     0.00     0.00     0.00    0.00    0.00    0.00   0.00   0.00
sdh               0.00     0.00    0.00    0.00     0.00     0.00     0.00     0.00    0.00    0.00    0.00   0.00   0.00
md0               0.00     0.00 9252.00    0.00 37008.00     0.00     8.00     0.00    0.00    0.00    0.00   0.00   0.00

avg-cpu:  %user   %nice %system %iowait  %steal   %idle
          24.69    0.00    2.52   21.91    0.00   50.88

Device:         rrqm/s   wrqm/s     r/s     w/s    rkB/s    wkB/s avgrq-sz avgqu-sz   await r_await w_await  svctm  %util
sda               0.00     0.00 1531.00    0.00  6124.00     0.00     8.00     0.15    0.10    0.10    0.00   0.10  15.00
sdb               0.00     0.00 1552.00    0.00  6208.00     0.00     8.00     0.15    0.10    0.10    0.00   0.09  14.70
sdc               0.00     0.00 1536.00    0.00  6144.00     0.00     8.00     0.15    0.10    0.10    0.00   0.10  15.10
sdd               0.00     0.00 1549.00    0.00  6196.00     0.00     8.00     0.16    0.11    0.11    0.00   0.11  16.40
sde               0.00     0.00 1527.00    0.00  6108.00     0.00     8.00     0.15    0.10    0.10    0.00   0.10  15.40
sdf               0.00     0.00 1578.00    0.00  6312.00     0.00     8.00     0.16    0.10    0.10    0.00   0.10  15.90
sdg               0.00     0.00    0.00    0.00     0.00     0.00     0.00     0.00    0.00    0.00    0.00   0.00   0.00
sdh               0.00     0.00    0.00    0.00     0.00     0.00     0.00     0.00    0.00    0.00    0.00   0.00   0.00
md0               0.00     0.00 9273.00    0.00 37092.00     0.00     8.00     0.00    0.00    0.00    0.00   0.00   0.00

avg-cpu:  %user   %nice %system %iowait  %steal   %idle
          25.00    0.00    1.77    8.08    0.00   65.15

Device:         rrqm/s   wrqm/s     r/s     w/s    rkB/s    wkB/s avgrq-sz avgqu-sz   await r_await w_await  svctm  %util
sda               0.00     0.00 1544.00    0.00  6176.00     0.00     8.00     0.16    0.10    0.10    0.00   0.10  15.80
sdb               0.00     0.00 1525.00    0.00  6100.00     0.00     8.00     0.14    0.09    0.09    0.00   0.09  13.70
sdc               0.00     0.00 1545.00    0.00  6180.00     0.00     8.00     0.16    0.10    0.10    0.00   0.10  15.80
sdd               0.00     0.00 1537.00    0.00  6148.00     0.00     8.00     0.16    0.10    0.10    0.00   0.10  15.80
sde               0.00     0.00 1517.00    0.00  6068.00     0.00     8.00     0.15    0.10    0.10    0.00   0.10  15.50
sdf               0.00     0.00 1544.00    0.00  6176.00     0.00     8.00     0.15    0.10    0.10    0.00   0.10  15.40
sdg               0.00     0.00    0.00    0.00     0.00     0.00     0.00     0.00    0.00    0.00    0.00   0.00   0.00
sdh               0.00     0.00    0.00    0.00     0.00     0.00     0.00     0.00    0.00    0.00    0.00   0.00   0.00
md0               0.00     0.00 9212.00    0.00 36848.00     0.00     8.00     0.00    0.00    0.00    0.00   0.00   0.00

avg-cpu:  %user   %nice %system %iowait  %steal   %idle
          24.75    0.00    2.02    9.34    0.00   63.89

Device:         rrqm/s   wrqm/s     r/s     w/s    rkB/s    wkB/s avgrq-sz avgqu-sz   await r_await w_await  svctm  %util
sda               0.00     0.00 1551.00    0.00  6204.00     0.00     8.00     0.16    0.10    0.10    0.00   0.10  15.60
sdb               0.00     0.00 1617.00    0.00  6468.00     0.00     8.00     0.15    0.09    0.09    0.00   0.09  15.20
sdc               0.00     0.00 1558.00    0.00  6232.00     0.00     8.00     0.16    0.10    0.10    0.00   0.10  16.20
sdd               0.00     0.00 1432.00    0.00  5728.00     0.00     8.00     0.14    0.10    0.10    0.00   0.10  14.50
sde               0.00     0.00 1565.00    0.00  6260.00     0.00     8.00     0.16    0.10    0.10    0.00   0.10  15.70
sdf               0.00     0.00 1534.00    0.00  6136.00     0.00     8.00     0.16    0.10    0.10    0.00   0.10  15.80
sdg               0.00     0.00    0.00    0.00     0.00     0.00     0.00     0.00    0.00    0.00    0.00   0.00   0.00
sdh               0.00     0.00    0.00    0.00     0.00     0.00     0.00     0.00    0.00    0.00    0.00   0.00   0.00
md0               0.00     0.00 9257.00    0.00 37028.00     0.00     8.00     0.00    0.00    0.00    0.00   0.00   0.00

avg-cpu:  %user   %nice %system %iowait  %steal   %idle
          24.81    0.25    3.26   21.80    0.00   49.87

Device:         rrqm/s   wrqm/s     r/s     w/s    rkB/s    wkB/s avgrq-sz avgqu-sz   await r_await w_await  svctm  %util
sda               0.00     0.00 1634.00    0.00  6536.00     0.00     8.00     0.15    0.09    0.09    0.00   0.09  15.50
sdb               0.00     0.00 1438.00    0.00  5752.00     0.00     8.00     0.13    0.09    0.09    0.00   0.09  13.40
sdc               0.00     0.00 1443.00    0.00  5772.00     0.00     8.00     0.15    0.11    0.11    0.00   0.11  15.30
sdd               0.00     0.00 1649.00    0.00  6596.00     0.00     8.00     0.16    0.10    0.10    0.00   0.10  16.40
sde               0.00     0.00 1615.00    0.00  6460.00     0.00     8.00     0.17    0.10    0.10    0.00   0.10  16.80
sdf               0.00     0.00 1467.00    0.00  5868.00     0.00     8.00     0.15    0.10    0.10    0.00   0.10  14.80
sdg               0.00     0.00 1374.00    0.00  5964.00     0.00     8.68     0.17    0.12    0.12    0.00   0.11  15.60
sdh               0.00     0.00    0.00    0.00     0.00     0.00     0.00     0.00    0.00    0.00    0.00   0.00   0.00
md0               0.00     0.00 9246.00    0.00 36984.00     0.00     8.00     0.00    0.00    0.00    0.00   0.00   0.00

avg-cpu:  %user   %nice %system %iowait  %steal   %idle
          24.75    0.00    2.78   23.23    0.00   49.24

Device:         rrqm/s   wrqm/s     r/s     w/s    rkB/s    wkB/s avgrq-sz avgqu-sz   await r_await w_await  svctm  %util
sda               0.00     0.00 1624.00    0.00  6496.00     0.00     8.00     0.16    0.10    0.10    0.00   0.10  15.60
sdb               0.00     0.00 1506.00    0.00  6024.00     0.00     8.00     0.14    0.09    0.09    0.00   0.09  14.20
sdc               0.00     0.00 1475.00    0.00  5900.00     0.00     8.00     0.15    0.10    0.10    0.00   0.10  14.90
sdd               0.00     0.00 1646.00    0.00  6584.00     0.00     8.00     0.17    0.10    0.10    0.00   0.10  16.80
sde               0.00     0.00 1561.00    0.00  6244.00     0.00     8.00     0.16    0.10    0.10    0.00   0.10  15.80
sdf               0.00     0.00 1409.00    0.00  5636.00     0.00     8.00     0.14    0.10    0.10    0.00   0.10  13.70
sdg               0.00     0.00  513.00    0.00  2052.00     0.00     8.00     0.06    0.12    0.12    0.00   0.12   6.00
sdh               0.00     0.00    0.00    0.00     0.00     0.00     0.00     0.00    0.00    0.00    0.00   0.00   0.00
md0               0.00     0.00 9220.00    0.00 36880.00     0.00     8.00     0.00    0.00    0.00    0.00   0.00   0.00

avg-cpu:  %user   %nice %system %iowait  %steal   %idle
          24.81    0.00    2.51   22.06    0.00   50.63

Device:         rrqm/s   wrqm/s     r/s     w/s    rkB/s    wkB/s avgrq-sz avgqu-sz   await r_await w_await  svctm  %util
sda               0.00     0.00 1634.00    0.00  6536.00     0.00     8.00     0.16    0.10    0.10    0.00   0.10  16.10
sdb               0.00     0.00 1548.00    0.00  6192.00     0.00     8.00     0.14    0.09    0.09    0.00   0.09  13.90
sdc               0.00     0.00 1521.00    0.00  6084.00     0.00     8.00     0.16    0.10    0.10    0.00   0.10  15.60
sdd               0.00     0.00 1488.00    0.00  5952.00     0.00     8.00     0.15    0.10    0.10    0.00   0.10  15.00
sde               0.00     0.00 1537.00    0.00  6148.00     0.00     8.00     0.16    0.10    0.10    0.00   0.10  15.90
sdf               0.00     0.00 1467.00    0.00  5868.00     0.00     8.00     0.15    0.10    0.10    0.00   0.10  14.60
sdg               0.00     0.00    0.00    0.00     0.00     0.00     0.00     0.00    0.00    0.00    0.00   0.00   0.00
sdh               0.00     0.00    0.00    0.00     0.00     0.00     0.00     0.00    0.00    0.00    0.00   0.00   0.00
md0               0.00     0.00 9196.00    0.00 36784.00     0.00     8.00     0.00    0.00    0.00    0.00   0.00   0.00

avg-cpu:  %user   %nice %system %iowait  %steal   %idle
          24.75    0.00    2.02   13.64    0.00   59.60

Device:         rrqm/s   wrqm/s     r/s     w/s    rkB/s    wkB/s avgrq-sz avgqu-sz   await r_await w_await  svctm  %util
sda               0.00     0.00 1564.00    0.00  6256.00     0.00     8.00     0.15    0.10    0.10    0.00   0.10  15.30
sdb               0.00     0.00 1512.00    0.00  6048.00     0.00     8.00     0.14    0.10    0.10    0.00   0.10  14.40
sdc               0.00     0.00 1497.00    0.00  5988.00     0.00     8.00     0.15    0.10    0.10    0.00   0.10  15.50
sdd               0.00     0.00 1507.00    0.00  6028.00     0.00     8.00     0.15    0.10    0.10    0.00   0.10  14.60
sde               0.00     0.00 1620.00    0.00  6480.00     0.00     8.00     0.17    0.10    0.10    0.00   0.10  16.60
sdf               0.00     0.00 1505.00    0.00  6020.00     0.00     8.00     0.16    0.10    0.10    0.00   0.10  15.60
sdg               0.00     0.00    0.00    0.00     0.00     0.00     0.00     0.00    0.00    0.00    0.00   0.00   0.00
sdh               0.00     0.00    0.00    0.00     0.00     0.00     0.00     0.00    0.00    0.00    0.00   0.00   0.00
md0               0.00     0.00 9204.00    0.00 36816.00     0.00     8.00     0.00    0.00    0.00    0.00   0.00   0.00

avg-cpu:  %user   %nice %system %iowait  %steal   %idle
          24.94    0.00    2.02    1.01    0.00   72.04

Device:         rrqm/s   wrqm/s     r/s     w/s    rkB/s    wkB/s avgrq-sz avgqu-sz   await r_await w_await  svctm  %util
sda               0.00     0.00 1540.00    0.00  6160.00     0.00     8.00     0.15    0.10    0.10    0.00   0.10  15.00
sdb               0.00     0.00 1425.00    0.00  5700.00     0.00     8.00     0.13    0.09    0.09    0.00   0.09  13.10
sdc               0.00     0.00 1606.00    0.00  6424.00     0.00     8.00     0.16    0.10    0.10    0.00   0.10  16.10
sdd               0.00     0.00 1534.00    0.00  6136.00     0.00     8.00     0.16    0.10    0.10    0.00   0.10  15.90
sde               0.00     0.00 1538.00    0.00  6152.00     0.00     8.00     0.16    0.10    0.10    0.00   0.10  15.60
sdf               0.00     0.00 1534.00    0.00  6136.00     0.00     8.00     0.16    0.11    0.11    0.00   0.11  16.40
sdg               0.00     0.00   11.00    7.00    44.00    52.00    10.67     0.01    0.61    0.09    1.43   0.50   0.90
sdh               0.00     0.00    0.00    0.00     0.00     0.00     0.00     0.00    0.00    0.00    0.00   0.00   0.00
md0               0.00     0.00 9178.00    0.00 36712.00     0.00     8.00     0.00    0.00    0.00    0.00   0.00   0.00

avg-cpu:  %user   %nice %system %iowait  %steal   %idle
          24.56    0.00    2.28   17.22    0.00   55.95

Device:         rrqm/s   wrqm/s     r/s     w/s    rkB/s    wkB/s avgrq-sz avgqu-sz   await r_await w_await  svctm  %util
sda               0.00     0.00 1539.00    0.00  6156.00     0.00     8.00     0.14    0.09    0.09    0.00   0.09  14.20
sdb               0.00     0.00 1568.00    0.00  6272.00     0.00     8.00     0.15    0.10    0.10    0.00   0.10  15.30
sdc               0.00     0.00 1648.00    0.00  6592.00     0.00     8.00     0.15    0.09    0.09    0.00   0.09  15.30
sdd               0.00     0.00 1448.00    0.00  5792.00     0.00     8.00     0.15    0.10    0.10    0.00   0.10  15.20
sde               0.00     0.00 1557.00    0.00  6228.00     0.00     8.00     0.16    0.10    0.10    0.00   0.10  16.10
sdf               0.00     0.00 1478.00    0.00  5912.00     0.00     8.00     0.16    0.11    0.11    0.00   0.11  15.60
sdg               0.00     0.00    0.00    0.00     0.00     0.00     0.00     0.00    0.00    0.00    0.00   0.00   0.00
sdh               0.00     0.00    0.00    0.00     0.00     0.00     0.00     0.00    0.00    0.00    0.00   0.00   0.00
md0               0.00     0.00 9237.00    0.00 36948.00     0.00     8.00     0.00    0.00    0.00    0.00   0.00   0.00

avg-cpu:  %user   %nice %system %iowait  %steal   %idle
          24.81    0.00    2.76   21.80    0.00   50.63

Device:         rrqm/s   wrqm/s     r/s     w/s    rkB/s    wkB/s avgrq-sz avgqu-sz   await r_await w_await  svctm  %util
sda               0.00     0.00 1494.00    0.00  5976.00     0.00     8.00     0.14    0.10    0.10    0.00   0.10  14.30
sdb               0.00     0.00 1503.00    0.00  6012.00     0.00     8.00     0.15    0.10    0.10    0.00   0.10  15.10
sdc               0.00     0.00 1564.00    0.00  6256.00     0.00     8.00     0.15    0.10    0.10    0.00   0.10  15.40
sdd               0.00     0.00 1567.00    0.00  6268.00     0.00     8.00     0.17    0.11    0.11    0.00   0.11  16.50
sde               0.00     0.00 1518.00    0.00  6072.00     0.00     8.00     0.15    0.10    0.10    0.00   0.10  15.30
sdf               0.00     0.00 1575.00    0.00  6300.00     0.00     8.00     0.15    0.10    0.10    0.00   0.10  15.50
sdg               0.00     0.00    0.00    0.00     0.00     0.00     0.00     0.00    0.00    0.00    0.00   0.00   0.00
sdh               0.00     0.00    0.00    0.00     0.00     0.00     0.00     0.00    0.00    0.00    0.00   0.00   0.00
md0               0.00     0.00 9221.00    0.00 36884.00     0.00     8.00     0.00    0.00    0.00    0.00   0.00   0.00

avg-cpu:  %user   %nice %system %iowait  %steal   %idle
          24.62    0.00    2.51   21.86    0.00   51.01

Device:         rrqm/s   wrqm/s     r/s     w/s    rkB/s    wkB/s avgrq-sz avgqu-sz   await r_await w_await  svctm  %util
sda               0.00     0.00 1608.00    0.00  6432.00     0.00     8.00     0.15    0.10    0.10    0.00   0.10  15.40
sdb               0.00     0.00 1440.00    0.00  5760.00     0.00     8.00     0.14    0.10    0.10    0.00   0.10  14.30
sdc               0.00     0.00 1493.00    0.00  5972.00     0.00     8.00     0.15    0.10    0.10    0.00   0.10  15.20
sdd               0.00     0.00 1455.00    0.00  5820.00     0.00     8.00     0.15    0.10    0.10    0.00   0.10  14.60
sde               0.00     0.00 1557.00    0.00  6228.00     0.00     8.00     0.16    0.10    0.10    0.00   0.10  15.60
sdf               0.00     0.00 1656.00    0.00  6624.00     0.00     8.00     0.17    0.10    0.10    0.00   0.10  17.10
sdg               0.00     0.00    0.00    0.00     0.00     0.00     0.00     0.00    0.00    0.00    0.00   0.00   0.00
sdh               0.00     0.00    0.00    0.00     0.00     0.00     0.00     0.00    0.00    0.00    0.00   0.00   0.00
md0               0.00     0.00 9209.00    0.00 36836.00     0.00     8.00     0.00    0.00    0.00    0.00   0.00   0.00

avg-cpu:  %user   %nice %system %iowait  %steal   %idle
          24.75    0.00    3.00   21.75    0.00   50.50

Device:         rrqm/s   wrqm/s     r/s     w/s    rkB/s    wkB/s avgrq-sz avgqu-sz   await r_await w_await  svctm  %util
sda               0.00     0.00 1625.00    0.00  6500.00     0.00     8.00     0.16    0.10    0.10    0.00   0.10  15.80
sdb               0.00     0.00 1548.00    0.00  6192.00     0.00     8.00     0.15    0.10    0.10    0.00   0.10  14.80
sdc               0.00     0.00 1497.00    0.00  5988.00     0.00     8.00     0.15    0.10    0.10    0.00   0.10  14.70
sdd               0.00     0.00 1543.00    0.00  6172.00     0.00     8.00     0.15    0.10    0.10    0.00   0.10  14.70
sde               0.00     0.00 1461.00    0.00  5844.00     0.00     8.00     0.14    0.10    0.10    0.00   0.10  14.50
sdf               0.00     0.00 1555.00    0.00  6220.00     0.00     8.00     0.16    0.10    0.10    0.00   0.10  16.20
sdg               0.00     0.00    0.00    0.00     0.00     0.00     0.00     0.00    0.00    0.00    0.00   0.00   0.00
sdh               0.00     0.00    0.00    0.00     0.00     0.00     0.00     0.00    0.00    0.00    0.00   0.00   0.00
md0               0.00     0.00 9230.00    0.00 36920.00     0.00     8.00     0.00    0.00    0.00    0.00   0.00   0.00

avg-cpu:  %user   %nice %system %iowait  %steal   %idle
          24.94    0.00    1.53    8.14    0.00   65.39

Device:         rrqm/s   wrqm/s     r/s     w/s    rkB/s    wkB/s avgrq-sz avgqu-sz   await r_await w_await  svctm  %util
sda               0.00     0.00 1473.00    0.00  5892.00     0.00     8.00     0.16    0.11    0.11    0.00   0.11  15.60
sdb               0.00     0.00 1527.00    0.00  6108.00     0.00     8.00     0.15    0.10    0.10    0.00   0.10  14.60
sdc               0.00     0.00 1556.00    0.00  6224.00     0.00     8.00     0.16    0.10    0.10    0.00   0.10  15.90
sdd               0.00     0.00 1702.00    0.00  6808.00     0.00     8.00     0.17    0.10    0.10    0.00   0.10  17.40
sde               0.00     0.00 1473.00    0.00  5892.00     0.00     8.00     0.15    0.10    0.10    0.00   0.10  14.90
sdf               0.00     0.00 1521.00    0.00  6084.00     0.00     8.00     0.15    0.10    0.10    0.00   0.10  15.50
sdg               0.00     0.00    0.00    0.00     0.00     0.00     0.00     0.00    0.00    0.00    0.00   0.00   0.00
sdh               0.00     0.00    0.00    0.00     0.00     0.00     0.00     0.00    0.00    0.00    0.00   0.00   0.00
md0               0.00     0.00 9252.00    0.00 37008.00     0.00     8.00     0.00    0.00    0.00    0.00   0.00   0.00

avg-cpu:  %user   %nice %system %iowait  %steal   %idle
          24.94    0.25    2.27   21.91    0.00   50.63

Device:         rrqm/s   wrqm/s     r/s     w/s    rkB/s    wkB/s avgrq-sz avgqu-sz   await r_await w_await  svctm  %util
sda               0.00     0.00 1541.00    0.00  6164.00     0.00     8.00     0.15    0.10    0.10    0.00   0.10  15.40
sdb               0.00     0.00 1461.00    0.00  5844.00     0.00     8.00     0.13    0.09    0.09    0.00   0.09  13.30
sdc               0.00     0.00 1504.00    0.00  6016.00     0.00     8.00     0.15    0.10    0.10    0.00   0.10  15.40
sdd               0.00     0.00 1559.00    0.00  6236.00     0.00     8.00     0.17    0.11    0.11    0.00   0.11  16.70
sde               0.00     0.00 1541.00    0.00  6164.00     0.00     8.00     0.16    0.11    0.11    0.00   0.11  16.20
sdf               0.00     0.00 1512.00    0.00  6048.00     0.00     8.00     0.15    0.10    0.10    0.00   0.10  15.30
sdg               0.00     0.00    6.00    0.00    24.00     0.00     8.00     0.00    0.00    0.00    0.00   0.00   0.00
sdh               0.00     0.00    0.00    0.00     0.00     0.00     0.00     0.00    0.00    0.00    0.00   0.00   0.00
md0               0.00     0.00 9119.00    0.00 36476.00     0.00     8.00     0.00    0.00    0.00    0.00   0.00   0.00

avg-cpu:  %user   %nice %system %iowait  %steal   %idle
          24.81    0.00    2.51   21.80    0.00   50.88

Device:         rrqm/s   wrqm/s     r/s     w/s    rkB/s    wkB/s avgrq-sz avgqu-sz   await r_await w_await  svctm  %util
sda               0.00     0.00 1603.00    0.00  6412.00     0.00     8.00     0.16    0.10    0.10    0.00   0.10  15.80
sdb               0.00     0.00 1615.00    0.00  6460.00     0.00     8.00     0.15    0.09    0.09    0.00   0.09  15.10
sdc               0.00     0.00 1537.00    0.00  6148.00     0.00     8.00     0.16    0.10    0.10    0.00   0.10  15.70
sdd               0.00     0.00 1568.00    0.00  6272.00     0.00     8.00     0.15    0.10    0.10    0.00   0.10  15.50
sde               0.00     0.00 1472.00    0.00  5888.00     0.00     8.00     0.15    0.10    0.10    0.00   0.10  15.40
sdf               0.00     0.00 1438.00    0.00  5752.00     0.00     8.00     0.15    0.10    0.10    0.00   0.10  14.90
sdg               0.00     0.00    0.00    0.00     0.00     0.00     0.00     0.00    0.00    0.00    0.00   0.00   0.00
sdh               0.00     0.00    0.00    0.00     0.00     0.00     0.00     0.00    0.00    0.00    0.00   0.00   0.00
md0               0.00     0.00 9232.00    0.00 36928.00     0.00     8.00     0.00    0.00    0.00    0.00   0.00   0.00

avg-cpu:  %user   %nice %system %iowait  %steal   %idle
          24.94    0.00    2.02   12.59    0.00   60.45

Device:         rrqm/s   wrqm/s     r/s     w/s    rkB/s    wkB/s avgrq-sz avgqu-sz   await r_await w_await  svctm  %util
sda               0.00     0.00 1466.00    0.00  5864.00     0.00     8.00     0.14    0.10    0.10    0.00   0.10  14.10
sdb               0.00     0.00 1483.00    0.00  5932.00     0.00     8.00     0.14    0.09    0.09    0.00   0.09  13.90
sdc               0.00     0.00 1522.00    0.00  6088.00     0.00     8.00     0.16    0.10    0.10    0.00   0.10  15.70
sdd               0.00     0.00 1636.00    0.00  6544.00     0.00     8.00     0.17    0.11    0.11    0.00   0.11  17.40
sde               0.00     0.00 1544.00    0.00  6176.00     0.00     8.00     0.15    0.10    0.10    0.00   0.10  15.50
sdf               0.00     0.00 1539.00    0.00  6156.00     0.00     8.00     0.16    0.11    0.11    0.00   0.11  16.20
sdg               0.00     0.00    0.00    0.00     0.00     0.00     0.00     0.00    0.00    0.00    0.00   0.00   0.00
sdh               0.00     0.00    0.00    0.00     0.00     0.00     0.00     0.00    0.00    0.00    0.00   0.00   0.00
md0               0.00     0.00 9189.00    0.00 36756.00     0.00     8.00     0.00    0.00    0.00    0.00   0.00   0.00

avg-cpu:  %user   %nice %system %iowait  %steal   %idle
          25.06    0.00    1.52    5.82    0.00   67.59

Device:         rrqm/s   wrqm/s     r/s     w/s    rkB/s    wkB/s avgrq-sz avgqu-sz   await r_await w_await  svctm  %util
sda               0.00     0.00 1561.00    0.00  6244.00     0.00     8.00     0.15    0.10    0.10    0.00   0.10  15.10
sdb               0.00     0.00 1469.00    0.00  5876.00     0.00     8.00     0.15    0.10    0.10    0.00   0.10  14.80
sdc               0.00     0.00 1500.00    0.00  6000.00     0.00     8.00     0.16    0.11    0.11    0.00   0.11  15.80
sdd               0.00     0.00 1615.00    0.00  6460.00     0.00     8.00     0.17    0.11    0.11    0.00   0.11  17.00
sde               0.00     0.00 1531.00    0.00  6124.00     0.00     8.00     0.16    0.11    0.11    0.00   0.11  16.10
sdf               0.00     0.00 1508.00    0.00  6032.00     0.00     8.00     0.16    0.10    0.10    0.00   0.10  15.80
sdg               0.00     0.00    5.00    0.00    20.00     0.00     8.00     0.00    0.00    0.00    0.00   0.00   0.00
sdh               0.00     0.00    0.00    0.00     0.00     0.00     0.00     0.00    0.00    0.00    0.00   0.00   0.00
md0               0.00     0.00 9183.00    0.00 36732.00     0.00     8.00     0.00    0.00    0.00    0.00   0.00   0.00

