Linux 4.17.2 (bench) 	08/03/2018 	_x86_64_	(4 CPU)

avg-cpu:  %user   %nice %system %iowait  %steal   %idle
          10.30    0.02    3.95    2.39    0.00   83.34

Device:         rrqm/s   wrqm/s     r/s     w/s    rkB/s    wkB/s avgrq-sz avgqu-sz   await r_await w_await  svctm  %util
sda              37.84     4.30 1581.31  104.06 20498.02  3175.38    28.09     1.02    0.61    0.26    5.91   0.06  10.40
sdb              37.75     4.26 1581.18  104.20 20487.33  3172.00    28.08     1.02    0.60    0.26    5.85   0.06  10.28
sdc              75.99     4.32 1540.86  103.74 20479.56  3174.50    28.77     1.44    0.87    0.45    7.12   0.08  13.69
sdd              69.29     4.29 1546.72  103.81 20464.13  3170.63    28.64     1.45    0.88    0.44    7.32   0.08  13.79
sde              71.38     4.33 1551.89  103.91 20525.19  3174.94    28.63     1.47    0.89    0.45    7.43   0.08  13.81
sdf              68.45     4.30 1554.07  103.85 20506.13  3171.76    28.56     1.51    0.91    0.44    7.90   0.08  13.84
sdg               0.00     3.18   25.71   73.37   321.54   391.99    14.40     0.44    4.44    0.20    5.93   0.08   0.77
sdh               0.00     0.13    0.02    0.24     2.24     5.14    56.82     0.00    1.15    0.65    1.19   0.21   0.01
md0               0.00     0.00 9722.61  487.48 140289.63 21742.54    31.74     0.00    0.00    0.00    0.00   0.00   0.00

avg-cpu:  %user   %nice %system %iowait  %steal   %idle
          23.93    0.00    2.52    1.01    0.00   72.54

Device:         rrqm/s   wrqm/s     r/s     w/s    rkB/s    wkB/s avgrq-sz avgqu-sz   await r_await w_await  svctm  %util
sda               0.00     0.00 1508.00    0.00  6032.00     0.00     8.00     0.15    0.10    0.10    0.00   0.10  15.40
sdb               0.00     0.00 1498.00    0.00  5992.00     0.00     8.00     0.14    0.10    0.10    0.00   0.10  14.40
sdc               0.00     0.00 1390.00    0.00  5560.00     0.00     8.00     0.15    0.11    0.11    0.00   0.11  15.30
sdd               0.00     0.00 1473.00    0.00  5892.00     0.00     8.00     0.15    0.10    0.10    0.00   0.10  15.00
sde               0.00     0.00 1568.00    0.00  6272.00     0.00     8.00     0.16    0.10    0.10    0.00   0.10  16.10
sdf               0.00     0.00 1403.00    0.00  5612.00     0.00     8.00     0.15    0.11    0.11    0.00   0.11  15.20
sdg               0.00     0.00    8.00    4.00   116.00   128.00    40.67     0.00    0.25    0.38    0.00   0.17   0.20
sdh               0.00     0.00    0.00    0.00     0.00     0.00     0.00     0.00    0.00    0.00    0.00   0.00   0.00
md0               0.00     0.00 8842.00    0.00 35368.00     0.00     8.00     0.00    0.00    0.00    0.00   0.00   0.00

avg-cpu:  %user   %nice %system %iowait  %steal   %idle
          23.56    0.00    3.01    1.25    0.00   72.18

Device:         rrqm/s   wrqm/s     r/s     w/s    rkB/s    wkB/s avgrq-sz avgqu-sz   await r_await w_await  svctm  %util
sda               0.00     0.00 1487.00    0.00  5948.00     0.00     8.00     0.14    0.10    0.10    0.00   0.10  14.50
sdb               0.00     0.00 1486.00    0.00  5944.00     0.00     8.00     0.14    0.10    0.10    0.00   0.10  14.40
sdc               0.00     0.00 1410.00    0.00  5640.00     0.00     8.00     0.16    0.11    0.11    0.00   0.11  15.70
sdd               0.00     0.00 1474.00    0.00  5896.00     0.00     8.00     0.16    0.11    0.11    0.00   0.11  16.00
sde               0.00     0.00 1414.00    0.00  5656.00     0.00     8.00     0.15    0.11    0.11    0.00   0.11  15.50
sdf               0.00     0.00 1438.00    0.00  5752.00     0.00     8.00     0.16    0.11    0.11    0.00   0.11  15.70
sdg               0.00     0.00    0.00    0.00     0.00     0.00     0.00     0.00    0.00    0.00    0.00   0.00   0.00
sdh               0.00     0.00    0.00    0.00     0.00     0.00     0.00     0.00    0.00    0.00    0.00   0.00   0.00
md0               0.00     0.00 8708.00    0.00 34832.00     0.00     8.00     0.00    0.00    0.00    0.00   0.00   0.00

avg-cpu:  %user   %nice %system %iowait  %steal   %idle
          23.93    0.00    2.52    1.01    0.00   72.54

Device:         rrqm/s   wrqm/s     r/s     w/s    rkB/s    wkB/s avgrq-sz avgqu-sz   await r_await w_await  svctm  %util
sda               0.00     0.00 1489.00    0.00  5956.00     0.00     8.00     0.15    0.10    0.10    0.00   0.10  14.90
sdb               0.00     0.00 1433.00    0.00  5732.00     0.00     8.00     0.14    0.10    0.10    0.00   0.10  14.10
sdc               0.00     0.00 1397.00    0.00  5588.00     0.00     8.00     0.15    0.11    0.11    0.00   0.11  15.30
sdd               0.00     0.00 1447.00    0.00  5788.00     0.00     8.00     0.15    0.10    0.10    0.00   0.10  14.90
sde               0.00     0.00 1528.00    0.00  6112.00     0.00     8.00     0.17    0.11    0.11    0.00   0.11  16.70
sdf               0.00     0.00 1460.00    0.00  5840.00     0.00     8.00     0.16    0.11    0.11    0.00   0.11  15.80
sdg               0.00     0.00    0.00    0.00     0.00     0.00     0.00     0.00    0.00    0.00    0.00   0.00   0.00
sdh               0.00     0.00    0.00    0.00     0.00     0.00     0.00     0.00    0.00    0.00    0.00   0.00   0.00
md0               0.00     0.00 8755.00    0.00 35020.00     0.00     8.00     0.00    0.00    0.00    0.00   0.00   0.00

avg-cpu:  %user   %nice %system %iowait  %steal   %idle
          23.87    0.00    2.76    1.01    0.00   72.36

Device:         rrqm/s   wrqm/s     r/s     w/s    rkB/s    wkB/s avgrq-sz avgqu-sz   await r_await w_await  svctm  %util
sda               0.00     0.00 1390.00    0.00  5560.00     0.00     8.00     0.14    0.10    0.10    0.00   0.10  13.90
sdb               0.00     0.00 1483.00    0.00  5932.00     0.00     8.00     0.15    0.10    0.10    0.00   0.10  14.70
sdc               0.00     0.00 1504.00    0.00  6016.00     0.00     8.00     0.16    0.11    0.11    0.00   0.11  16.30
sdd               0.00     0.00 1531.00    0.00  6124.00     0.00     8.00     0.17    0.11    0.11    0.00   0.11  17.10
sde               0.00     0.00 1455.00    0.00  5820.00     0.00     8.00     0.16    0.11    0.11    0.00   0.11  15.80
sdf               0.00     0.00 1453.00    0.00  5812.00     0.00     8.00     0.15    0.11    0.11    0.00   0.11  15.40
sdg               0.00     0.00    0.00    0.00     0.00     0.00     0.00     0.00    0.00    0.00    0.00   0.00   0.00
sdh               0.00     0.00    0.00    0.00     0.00     0.00     0.00     0.00    0.00    0.00    0.00   0.00   0.00
md0               0.00     0.00 8816.00    0.00 35264.00     0.00     8.00     0.00    0.00    0.00    0.00   0.00   0.00

avg-cpu:  %user   %nice %system %iowait  %steal   %idle
          23.81    0.00    3.01    1.00    0.00   72.18

Device:         rrqm/s   wrqm/s     r/s     w/s    rkB/s    wkB/s avgrq-sz avgqu-sz   await r_await w_await  svctm  %util
sda               0.00     0.00 1582.00    0.00  6328.00     0.00     8.00     0.15    0.10    0.10    0.00   0.10  15.50
sdb               0.00     0.00 1410.00    0.00  5640.00     0.00     8.00     0.14    0.10    0.10    0.00   0.10  14.20
sdc               0.00     0.00 1438.00    0.00  5752.00     0.00     8.00     0.15    0.11    0.11    0.00   0.11  15.20
sdd               0.00     0.00 1463.00    0.00  5852.00     0.00     8.00     0.16    0.11    0.11    0.00   0.11  16.20
sde               0.00     0.00 1437.00    0.00  5748.00     0.00     8.00     0.15    0.11    0.11    0.00   0.11  15.20
sdf               0.00     0.00 1426.00    0.00  5704.00     0.00     8.00     0.16    0.11    0.11    0.00   0.11  15.60
sdg               0.00     0.00    0.00    0.00     0.00     0.00     0.00     0.00    0.00    0.00    0.00   0.00   0.00
sdh               0.00     0.00    0.00    0.00     0.00     0.00     0.00     0.00    0.00    0.00    0.00   0.00   0.00
md0               0.00     0.00 8756.00    0.00 35024.00     0.00     8.00     0.00    0.00    0.00    0.00   0.00   0.00

avg-cpu:  %user   %nice %system %iowait  %steal   %idle
          23.93    0.00    2.52    1.01    0.00   72.54

Device:         rrqm/s   wrqm/s     r/s     w/s    rkB/s    wkB/s avgrq-sz avgqu-sz   await r_await w_await  svctm  %util
sda               0.00     0.00 1479.00    0.00  5916.00     0.00     8.00     0.16    0.11    0.11    0.00   0.11  15.70
sdb               0.00     0.00 1517.00    0.00  6068.00     0.00     8.00     0.14    0.09    0.09    0.00   0.09  14.30
sdc               0.00     0.00 1416.00    0.00  5664.00     0.00     8.00     0.16    0.12    0.12    0.00   0.12  16.30
sdd               0.00     0.00 1470.00    0.00  5880.00     0.00     8.00     0.15    0.11    0.11    0.00   0.11  15.50
sde               0.00     0.00 1506.00    0.00  6024.00     0.00     8.00     0.17    0.11    0.11    0.00   0.11  16.60
sdf               0.00     0.00 1443.00    0.00  5772.00     0.00     8.00     0.15    0.10    0.10    0.00   0.10  15.00
sdg               0.00     0.00    0.00    0.00     0.00     0.00     0.00     0.00    0.00    0.00    0.00   0.00   0.00
sdh               0.00     0.00    0.00    0.00     0.00     0.00     0.00     0.00    0.00    0.00    0.00   0.00   0.00
md0               0.00     0.00 8831.00    0.00 35324.00     0.00     8.00     0.00    0.00    0.00    0.00   0.00   0.00

avg-cpu:  %user   %nice %system %iowait  %steal   %idle
          24.62    0.00    2.51    3.02    0.00   69.85

Device:         rrqm/s   wrqm/s     r/s     w/s    rkB/s    wkB/s avgrq-sz avgqu-sz   await r_await w_await  svctm  %util
sda               0.00     0.00 1457.00    0.00  5828.00     0.00     8.00     0.15    0.10    0.10    0.00   0.10  14.60
sdb               0.00     0.00 1478.00    0.00  5912.00     0.00     8.00     0.14    0.10    0.10    0.00   0.10  14.40
sdc               0.00     0.00 1488.00    0.00  5952.00     0.00     8.00     0.16    0.11    0.11    0.00   0.11  16.30
sdd               0.00     0.00 1458.00    0.00  5832.00     0.00     8.00     0.15    0.10    0.10    0.00   0.10  14.80
sde               0.00     0.00 1473.00    0.00  5892.00     0.00     8.00     0.16    0.11    0.11    0.00   0.11  16.20
sdf               0.00     0.00 1500.00    0.00  6000.00     0.00     8.00     0.16    0.11    0.11    0.00   0.11  15.90
sdg               0.00     0.00    0.00    0.00     0.00     0.00     0.00     0.00    0.00    0.00    0.00   0.00   0.00
sdh               0.00     0.00    0.00    0.00     0.00     0.00     0.00     0.00    0.00    0.00    0.00   0.00   0.00
md0               0.00     0.00 8853.00    0.00 35412.00     0.00     8.00     0.00    0.00    0.00    0.00   0.00   0.00

avg-cpu:  %user   %nice %system %iowait  %steal   %idle
          25.00    0.00    2.02   11.11    0.00   61.87

Device:         rrqm/s   wrqm/s     r/s     w/s    rkB/s    wkB/s avgrq-sz avgqu-sz   await r_await w_await  svctm  %util
sda               0.00     0.00 1520.00    0.00  6080.00     0.00     8.00     0.16    0.11    0.11    0.00   0.11  16.00
sdb               0.00     0.00 1436.00    0.00  5744.00     0.00     8.00     0.14    0.10    0.10    0.00   0.10  13.90
sdc               0.00     0.00 1526.00    0.00  6104.00     0.00     8.00     0.17    0.11    0.11    0.00   0.11  17.30
sdd               0.00     0.00 1476.00    0.00  5904.00     0.00     8.00     0.15    0.10    0.10    0.00   0.10  15.10
sde               0.00     0.00 1535.00    0.00  6140.00     0.00     8.00     0.16    0.11    0.11    0.00   0.11  16.40
sdf               0.00     0.00 1522.00    0.00  6088.00     0.00     8.00     0.16    0.11    0.11    0.00   0.11  16.20
sdg               0.00     0.00    0.00    0.00     0.00     0.00     0.00     0.00    0.00    0.00    0.00   0.00   0.00
sdh               0.00     0.00    0.00    0.00     0.00     0.00     0.00     0.00    0.00    0.00    0.00   0.00   0.00
md0               0.00     0.00 9016.00    0.00 36064.00     0.00     8.00     0.00    0.00    0.00    0.00   0.00   0.00

avg-cpu:  %user   %nice %system %iowait  %steal   %idle
          24.94    0.00    2.27   11.59    0.00   61.21

Device:         rrqm/s   wrqm/s     r/s     w/s    rkB/s    wkB/s avgrq-sz avgqu-sz   await r_await w_await  svctm  %util
sda               0.00     0.00 1630.00    0.00  6520.00     0.00     8.00     0.16    0.10    0.10    0.00   0.10  16.40
sdb               0.00     0.00 1473.00    0.00  5892.00     0.00     8.00     0.15    0.10    0.10    0.00   0.10  14.70
sdc               0.00     0.00 1433.00    0.00  5732.00     0.00     8.00     0.15    0.10    0.10    0.00   0.10  15.00
sdd               0.00     0.00 1465.00    0.00  5860.00     0.00     8.00     0.16    0.11    0.11    0.00   0.11  16.40
sde               0.00     0.00 1519.00    0.00  6076.00     0.00     8.00     0.15    0.10    0.10    0.00   0.10  15.40
sdf               0.00     0.00 1520.00    0.00  6080.00     0.00     8.00     0.17    0.11    0.11    0.00   0.11  16.70
sdg               0.00     0.00    0.00    0.00     0.00     0.00     0.00     0.00    0.00    0.00    0.00   0.00   0.00
sdh               0.00     0.00    0.00    0.00     0.00     0.00     0.00     0.00    0.00    0.00    0.00   0.00   0.00
md0               0.00     0.00 9040.00    0.00 36160.00     0.00     8.00     0.00    0.00    0.00    0.00   0.00   0.00

avg-cpu:  %user   %nice %system %iowait  %steal   %idle
          24.56    0.25    3.01   12.28    0.00   59.90

Device:         rrqm/s   wrqm/s     r/s     w/s    rkB/s    wkB/s avgrq-sz avgqu-sz   await r_await w_await  svctm  %util
sda               0.00     0.00 1505.00    0.00  6020.00     0.00     8.00     0.14    0.09    0.09    0.00   0.09  13.90
sdb               0.00     0.00 1567.00    0.00  6268.00     0.00     8.00     0.16    0.10    0.10    0.00   0.10  15.60
sdc               0.00     0.00 1493.00    0.00  5972.00     0.00     8.00     0.15    0.10    0.10    0.00   0.10  14.80
sdd               0.00     0.00 1442.00    0.00  5768.00     0.00     8.00     0.15    0.10    0.10    0.00   0.10  15.00
sde               0.00     0.00 1577.00    0.00  6308.00     0.00     8.00     0.17    0.11    0.11    0.00   0.11  16.90
sdf               0.00     0.00 1461.00    0.00  5844.00     0.00     8.00     0.15    0.10    0.10    0.00   0.10  15.20
sdg               0.00     0.00   39.00    0.00   468.00     0.00    24.00     0.01    0.21    0.21    0.00   0.15   0.60
sdh               0.00     0.00    0.00    0.00     0.00     0.00     0.00     0.00    0.00    0.00    0.00   0.00   0.00
md0               0.00     0.00 9044.00    0.00 36176.00     0.00     8.00     0.00    0.00    0.00    0.00   0.00   0.00

avg-cpu:  %user   %nice %system %iowait  %steal   %idle
          24.87    0.00    2.51   11.06    0.00   61.56

Device:         rrqm/s   wrqm/s     r/s     w/s    rkB/s    wkB/s avgrq-sz avgqu-sz   await r_await w_await  svctm  %util
sda               0.00     0.00 1530.00    0.00  6120.00     0.00     8.00     0.15    0.10    0.10    0.00   0.10  15.00
sdb               0.00     0.00 1458.00    0.00  5832.00     0.00     8.00     0.14    0.10    0.10    0.00   0.10  14.40
sdc               0.00     0.00 1479.00    0.00  5916.00     0.00     8.00     0.16    0.11    0.11    0.00   0.11  16.00
sdd               0.00     0.00 1480.00    0.00  5920.00     0.00     8.00     0.15    0.10    0.10    0.00   0.10  15.20
sde               0.00     0.00 1491.00    0.00  5964.00     0.00     8.00     0.16    0.11    0.11    0.00   0.11  15.90
sdf               0.00     0.00 1539.00    0.00  6156.00     0.00     8.00     0.16    0.11    0.11    0.00   0.11  16.40
sdg               0.00     0.00    0.00    0.00     0.00     0.00     0.00     0.00    0.00    0.00    0.00   0.00   0.00
sdh               0.00     0.00    0.00    0.00     0.00     0.00     0.00     0.00    0.00    0.00    0.00   0.00   0.00
md0               0.00     0.00 8977.00    0.00 35908.00     0.00     8.00     0.00    0.00    0.00    0.00   0.00   0.00

avg-cpu:  %user   %nice %system %iowait  %steal   %idle
          24.69    0.00    2.52   11.59    0.00   61.21

Device:         rrqm/s   wrqm/s     r/s     w/s    rkB/s    wkB/s avgrq-sz avgqu-sz   await r_await w_await  svctm  %util
sda               0.00     0.00 1565.00    0.00  6260.00     0.00     8.00     0.16    0.10    0.10    0.00   0.10  15.60
sdb               0.00     0.00 1466.00    0.00  5864.00     0.00     8.00     0.15    0.10    0.10    0.00   0.10  15.00
sdc               0.00     0.00 1470.00    0.00  5880.00     0.00     8.00     0.14    0.10    0.10    0.00   0.10  14.20
sdd               0.00     0.00 1502.00    0.00  6008.00     0.00     8.00     0.16    0.11    0.11    0.00   0.11  16.40
sde               0.00     0.00 1517.00    0.00  6068.00     0.00     8.00     0.17    0.11    0.11    0.00   0.11  16.90
sdf               0.00     0.00 1435.00    0.00  5740.00     0.00     8.00     0.15    0.10    0.10    0.00   0.10  14.80
sdg               0.00     0.00    0.00    0.00     0.00     0.00     0.00     0.00    0.00    0.00    0.00   0.00   0.00
sdh               0.00     0.00    0.00    0.00     0.00     0.00     0.00     0.00    0.00    0.00    0.00   0.00   0.00
md0               0.00     0.00 8956.00    0.00 35824.00     0.00     8.00     0.00    0.00    0.00    0.00   0.00   0.00

avg-cpu:  %user   %nice %system %iowait  %steal   %idle
          24.94    0.00    2.02   14.86    0.00   58.19

Device:         rrqm/s   wrqm/s     r/s     w/s    rkB/s    wkB/s avgrq-sz avgqu-sz   await r_await w_await  svctm  %util
sda               0.00     0.00 1476.00    0.00  5904.00     0.00     8.00     0.14    0.09    0.09    0.00   0.09  13.60
sdb               0.00     0.00 1456.00    0.00  5824.00     0.00     8.00     0.15    0.10    0.10    0.00   0.10  14.60
sdc               0.00     0.00 1487.00    0.00  5948.00     0.00     8.00     0.16    0.11    0.11    0.00   0.11  16.00
sdd               0.00     0.00 1480.00    0.00  5920.00     0.00     8.00     0.16    0.11    0.11    0.00   0.11  15.70
sde               0.00     0.00 1456.00    0.00  5824.00     0.00     8.00     0.17    0.12    0.12    0.00   0.12  17.00
sdf               0.00     0.00 1559.00    0.00  6236.00     0.00     8.00     0.17    0.11    0.11    0.00   0.11  16.90
sdg               0.00     0.00    5.00    3.00    20.00    32.00    13.00     0.03    3.12    0.00    8.33   1.12   0.90
sdh               0.00     0.00    0.00    0.00     0.00     0.00     0.00     0.00    0.00    0.00    0.00   0.00   0.00
md0               0.00     0.00 8914.00    0.00 35656.00     0.00     8.00     0.00    0.00    0.00    0.00   0.00   0.00

avg-cpu:  %user   %nice %system %iowait  %steal   %idle
          25.13    0.00    2.26   13.07    0.00   59.55

Device:         rrqm/s   wrqm/s     r/s     w/s    rkB/s    wkB/s avgrq-sz avgqu-sz   await r_await w_await  svctm  %util
sda               0.00     0.00 1434.00    0.00  5736.00     0.00     8.00     0.14    0.10    0.10    0.00   0.10  13.90
sdb               0.00     0.00 1524.00    0.00  6096.00     0.00     8.00     0.15    0.10    0.10    0.00   0.10  15.00
sdc               0.00     0.00 1441.00    0.00  5764.00     0.00     8.00     0.15    0.11    0.11    0.00   0.11  15.50
sdd               0.00     0.00 1380.00    0.00  5520.00     0.00     8.00     0.14    0.10    0.10    0.00   0.10  14.10
sde               0.00     0.00 1525.00    0.00  6100.00     0.00     8.00     0.19    0.13    0.13    0.00   0.13  19.40
sdf               0.00     0.00 1410.00    0.00  5640.00     0.00     8.00     0.15    0.11    0.11    0.00   0.11  15.20
sdg               0.00     0.00    0.00    0.00     0.00     0.00     0.00     0.00    0.00    0.00    0.00   0.00   0.00
sdh               0.00     0.00    0.00    0.00     0.00     0.00     0.00     0.00    0.00    0.00    0.00   0.00   0.00
md0               0.00     0.00 8714.00    0.00 34856.00     0.00     8.00     0.00    0.00    0.00    0.00   0.00   0.00

avg-cpu:  %user   %nice %system %iowait  %steal   %idle
          24.81    0.00    2.03    5.82    0.00   67.34

Device:         rrqm/s   wrqm/s     r/s     w/s    rkB/s    wkB/s avgrq-sz avgqu-sz   await r_await w_await  svctm  %util
sda               0.00     0.00 1373.00    0.00  5492.00     0.00     8.00     0.13    0.09    0.09    0.00   0.09  13.00
sdb               0.00     0.00 1462.00    0.00  5848.00     0.00     8.00     0.15    0.10    0.10    0.00   0.10  14.60
sdc               0.00     0.00 1381.00    0.00  5524.00     0.00     8.00     0.15    0.11    0.11    0.00   0.11  15.30
sdd               0.00     0.00 1520.00    0.00  6080.00     0.00     8.00     0.17    0.11    0.11    0.00   0.11  16.90
sde               0.00     0.00 1518.00    0.00  6072.00     0.00     8.00     0.19    0.12    0.12    0.00   0.12  18.80
sdf               0.00     0.00 1390.00    0.00  5560.00     0.00     8.00     0.15    0.11    0.11    0.00   0.11  14.90
sdg               0.00     0.00    0.00    0.00     0.00     0.00     0.00     0.00    0.00    0.00    0.00   0.00   0.00
sdh               0.00     0.00    0.00    0.00     0.00     0.00     0.00     0.00    0.00    0.00    0.00   0.00   0.00
md0               0.00     0.00 8644.00    0.00 34576.00     0.00     8.00     0.00    0.00    0.00    0.00   0.00   0.00

avg-cpu:  %user   %nice %system %iowait  %steal   %idle
          24.62    0.00    2.51   12.06    0.00   60.80

Device:         rrqm/s   wrqm/s     r/s     w/s    rkB/s    wkB/s avgrq-sz avgqu-sz   await r_await w_await  svctm  %util
sda               0.00     0.00 1399.00    0.00  5596.00     0.00     8.00     0.13    0.10    0.10    0.00   0.10  13.40
sdb               0.00     0.00 1467.00    0.00  5868.00     0.00     8.00     0.15    0.10    0.10    0.00   0.10  14.70
sdc               0.00     0.00 1486.00    0.00  5944.00     0.00     8.00     0.16    0.11    0.11    0.00   0.11  16.10
sdd               0.00     0.00 1504.00    0.00  6016.00     0.00     8.00     0.16    0.10    0.10    0.00   0.10  15.70
sde               0.00     0.00 1469.00    0.00  5876.00     0.00     8.00     0.18    0.12    0.12    0.00   0.12  18.10
sdf               0.00     0.00 1439.00    0.00  5756.00     0.00     8.00     0.15    0.11    0.11    0.00   0.11  15.50
sdg               0.00     0.00    0.00    0.00     0.00     0.00     0.00     0.00    0.00    0.00    0.00   0.00   0.00
sdh               0.00     0.00    0.00    0.00     0.00     0.00     0.00     0.00    0.00    0.00    0.00   0.00   0.00
md0               0.00     0.00 8763.00    0.00 35052.00     0.00     8.00     0.00    0.00    0.00    0.00   0.00   0.00

avg-cpu:  %user   %nice %system %iowait  %steal   %idle
          24.94    0.00    2.27   12.85    0.00   59.95

Device:         rrqm/s   wrqm/s     r/s     w/s    rkB/s    wkB/s avgrq-sz avgqu-sz   await r_await w_await  svctm  %util
sda               0.00     0.00 1481.00    0.00  5924.00     0.00     8.00     0.15    0.10    0.10    0.00   0.10  15.00
sdb               0.00     0.00 1398.00    0.00  5592.00     0.00     8.00     0.13    0.10    0.10    0.00   0.10  13.40
sdc               0.00     0.00 1454.00    0.00  5816.00     0.00     8.00     0.16    0.11    0.11    0.00   0.11  15.90
sdd               0.00     0.00 1513.00    0.00  6052.00     0.00     8.00     0.15    0.10    0.10    0.00   0.10  15.50
sde               0.00     0.00 1487.00    0.00  5948.00     0.00     8.00     0.16    0.11    0.11    0.00   0.11  16.20
sdf               0.00     0.00 1533.00    0.00  6132.00     0.00     8.00     0.16    0.11    0.11    0.00   0.11  16.20
sdg               0.00     0.00    0.00    0.00     0.00     0.00     0.00     0.00    0.00    0.00    0.00   0.00   0.00
sdh               0.00     0.00    0.00    0.00     0.00     0.00     0.00     0.00    0.00    0.00    0.00   0.00   0.00
md0               0.00     0.00 8866.00    0.00 35464.00     0.00     8.00     0.00    0.00    0.00    0.00   0.00   0.00

avg-cpu:  %user   %nice %system %iowait  %steal   %idle
          24.87    0.00    2.51   13.57    0.00   59.05

Device:         rrqm/s   wrqm/s     r/s     w/s    rkB/s    wkB/s avgrq-sz avgqu-sz   await r_await w_await  svctm  %util
sda               0.00     0.00 1438.00    0.00  5752.00     0.00     8.00     0.13    0.09    0.09    0.00   0.09  13.10
sdb               0.00     0.00 1421.00    0.00  5684.00     0.00     8.00     0.14    0.10    0.10    0.00   0.10  14.10
sdc               0.00     0.00 1584.00    0.00  6336.00     0.00     8.00     0.17    0.11    0.11    0.00   0.11  16.80
sdd               0.00     0.00 1361.00    0.00  5444.00     0.00     8.00     0.14    0.11    0.11    0.00   0.10  14.20
sde               0.00     0.00 1572.00    0.00  6288.00     0.00     8.00     0.19    0.12    0.12    0.00   0.12  18.90
sdf               0.00     0.00 1491.00    0.00  5964.00     0.00     8.00     0.16    0.11    0.11    0.00   0.11  15.80
sdg               0.00     0.00    8.00    3.00    32.00    28.00    10.91     0.00    0.18    0.25    0.00   0.18   0.20
sdh               0.00     0.00    0.00    0.00     0.00     0.00     0.00     0.00    0.00    0.00    0.00   0.00   0.00
md0               0.00     0.00 8867.00    0.00 35468.00     0.00     8.00     0.00    0.00    0.00    0.00   0.00   0.00

avg-cpu:  %user   %nice %system %iowait  %steal   %idle
          24.69    0.00    2.27   11.84    0.00   61.21

Device:         rrqm/s   wrqm/s     r/s     w/s    rkB/s    wkB/s avgrq-sz avgqu-sz   await r_await w_await  svctm  %util
sda               0.00     0.00 1547.00    0.00  6188.00     0.00     8.00     0.15    0.10    0.10    0.00   0.10  15.20
sdb               0.00     0.00 1491.00    0.00  5964.00     0.00     8.00     0.15    0.10    0.10    0.00   0.10  15.20
sdc               0.00     0.00 1504.00    0.00  6016.00     0.00     8.00     0.16    0.11    0.11    0.00   0.11  16.30
sdd               0.00     0.00 1492.00    0.00  5968.00     0.00     8.00     0.17    0.11    0.11    0.00   0.11  16.50
sde               0.00     0.00 1395.00    0.00  5580.00     0.00     8.00     0.16    0.11    0.11    0.00   0.11  15.90
sdf               0.00     0.00 1452.00    0.00  5808.00     0.00     8.00     0.16    0.11    0.11    0.00   0.11  15.60
sdg               0.00     0.00    0.00    0.00     0.00     0.00     0.00     0.00    0.00    0.00    0.00   0.00   0.00
sdh               0.00     0.00    0.00    0.00     0.00     0.00     0.00     0.00    0.00    0.00    0.00   0.00   0.00
md0               0.00     0.00 8881.00    0.00 35524.00     0.00     8.00     0.00    0.00    0.00    0.00   0.00   0.00

avg-cpu:  %user   %nice %system %iowait  %steal   %idle
          25.06    0.25    2.03   14.18    0.00   58.48

Device:         rrqm/s   wrqm/s     r/s     w/s    rkB/s    wkB/s avgrq-sz avgqu-sz   await r_await w_await  svctm  %util
sda               0.00     0.00 1474.00    0.00  5896.00     0.00     8.00     0.14    0.10    0.10    0.00   0.10  14.30
sdb               0.00     0.00 1441.00    0.00  5764.00     0.00     8.00     0.14    0.10    0.10    0.00   0.10  14.10
sdc               0.00     0.00 1562.00    0.00  6248.00     0.00     8.00     0.16    0.10    0.10    0.00   0.10  15.90
sdd               0.00     0.00 1427.00    0.00  5708.00     0.00     8.00     0.16    0.11    0.11    0.00   0.11  16.20
sde               0.00     0.00 1467.00    0.00  5868.00     0.00     8.00     0.17    0.12    0.12    0.00   0.12  17.40
sdf               0.00     0.00 1496.00    0.00  5984.00     0.00     8.00     0.16    0.11    0.11    0.00   0.11  16.10
sdg               0.00     0.00    2.00    0.00     8.00     0.00     8.00     0.00    0.00    0.00    0.00   0.00   0.00
sdh               0.00     0.00    0.00    0.00     0.00     0.00     0.00     0.00    0.00    0.00    0.00   0.00   0.00
md0               0.00     0.00 8867.00    0.00 35468.00     0.00     8.00     0.00    0.00    0.00    0.00   0.00   0.00

