Linux 4.17.2 (bench) 	08/03/2018 	_x86_64_	(4 CPU)

avg-cpu:  %user   %nice %system %iowait  %steal   %idle
          10.30    0.02    3.97    2.42    0.00   83.30

Device:         rrqm/s   wrqm/s     r/s     w/s    rkB/s    wkB/s avgrq-sz avgqu-sz   await r_await w_await  svctm  %util
sda              38.67     4.29 1591.03  103.80 20559.48  3167.67    28.00     1.02    0.60    0.26    5.91   0.06  10.45
sdb              38.58     4.25 1590.90  103.94 20548.84  3164.29    27.98     1.02    0.60    0.26    5.85   0.06  10.33
sdc              76.72     4.31 1550.67  103.49 20541.09  3166.79    28.66     1.44    0.87    0.45    7.12   0.08  13.75
sdd              70.04     4.28 1556.51  103.56 20525.72  3162.93    28.54     1.45    0.87    0.44    7.32   0.08  13.84
sde              72.12     4.32 1561.67  103.66 20586.55  3167.23    28.53     1.47    0.88    0.45    7.43   0.08  13.86
sdf              69.21     4.29 1563.85  103.60 20567.50  3164.06    28.46     1.51    0.91    0.44    7.90   0.08  13.89
sdg               0.00     3.18   25.80   73.35   321.86   391.96    14.40     0.44    4.44    0.20    5.93   0.08   0.77
sdh               0.00     0.13    0.02    0.24     2.24     5.13    56.82     0.00    1.15    0.65    1.19   0.21   0.01
md0               0.00     0.00 9785.89  486.29 140748.84 21689.74    31.63     0.00    0.00    0.00    0.00   0.00   0.00

avg-cpu:  %user   %nice %system %iowait  %steal   %idle
          24.75    0.00    2.78   15.40    0.00   57.07

Device:         rrqm/s   wrqm/s     r/s     w/s    rkB/s    wkB/s avgrq-sz avgqu-sz   await r_await w_await  svctm  %util
sda               0.00     0.00 1550.00    0.00  6200.00     0.00     8.00     0.15    0.10    0.10    0.00   0.10  15.30
sdb               0.00     0.00 1486.00    0.00  5944.00     0.00     8.00     0.15    0.10    0.10    0.00   0.10  15.00
sdc               0.00     0.00 1539.00    0.00  6156.00     0.00     8.00     0.14    0.09    0.09    0.00   0.09  13.90
sdd               0.00     0.00 1527.00    0.00  6108.00     0.00     8.00     0.17    0.11    0.11    0.00   0.11  16.80
sde               0.00     0.00 1497.00    0.00  5988.00     0.00     8.00     0.17    0.11    0.11    0.00   0.11  16.60
sdf               0.00     0.00 1505.00    0.00  6020.00     0.00     8.00     0.16    0.10    0.10    0.00   0.10  15.60
sdg               0.00     0.00   22.00    4.00   460.00   124.00    44.92     0.01    0.23    0.27    0.00   0.19   0.50
sdh               0.00     0.00    0.00    0.00     0.00     0.00     0.00     0.00    0.00    0.00    0.00   0.00   0.00
md0               0.00     0.00 9103.00    0.00 36412.00     0.00     8.00     0.00    0.00    0.00    0.00   0.00   0.00

avg-cpu:  %user   %nice %system %iowait  %steal   %idle
          24.37    0.00    3.02   15.83    0.00   56.78

Device:         rrqm/s   wrqm/s     r/s     w/s    rkB/s    wkB/s avgrq-sz avgqu-sz   await r_await w_await  svctm  %util
sda               0.00     0.00 1557.00    0.00  6228.00     0.00     8.00     0.16    0.10    0.10    0.00   0.10  16.20
sdb               0.00     0.00 1509.00    0.00  6036.00     0.00     8.00     0.13    0.09    0.09    0.00   0.09  13.20
sdc               0.00     0.00 1550.00    0.00  6200.00     0.00     8.00     0.17    0.11    0.11    0.00   0.11  16.60
sdd               0.00     0.00 1466.00    0.00  5864.00     0.00     8.00     0.17    0.12    0.12    0.00   0.12  17.10
sde               0.00     0.00 1490.00    0.00  5960.00     0.00     8.00     0.16    0.11    0.11    0.00   0.11  16.00
sdf               0.00     0.00 1548.00    0.00  6192.00     0.00     8.00     0.14    0.09    0.09    0.00   0.09  13.50
sdg               0.00     0.00    0.00    0.00     0.00     0.00     0.00     0.00    0.00    0.00    0.00   0.00   0.00
sdh               0.00     0.00    0.00    0.00     0.00     0.00     0.00     0.00    0.00    0.00    0.00   0.00   0.00
md0               0.00     0.00 9119.00    0.00 36476.00     0.00     8.00     0.00    0.00    0.00    0.00   0.00   0.00

