Linux 4.17.2 (bench) 	08/03/2018 	_x86_64_	(4 CPU)

avg-cpu:  %user   %nice %system %iowait  %steal   %idle
          10.29    0.02    4.00    2.47    0.00   83.22

Device:         rrqm/s   wrqm/s     r/s     w/s    rkB/s    wkB/s avgrq-sz avgqu-sz   await r_await w_await  svctm  %util
sda              41.51     4.27 1613.72  103.39 20679.09  3155.11    27.76     1.03    0.60    0.26    5.91   0.06  10.55
sdb              41.40     4.23 1613.61  103.53 20668.53  3151.75    27.74     1.03    0.60    0.26    5.85   0.06  10.42
sdc              79.50     4.29 1573.43  103.08 20660.73  3154.23    28.41     1.44    0.86    0.45    7.12   0.08  13.85
sdd              72.85     4.26 1579.23  103.15 20645.41  3150.40    28.29     1.45    0.86    0.44    7.32   0.08  13.95
sde              74.92     4.30 1584.36  103.25 20705.96  3154.68    28.28     1.47    0.87    0.44    7.43   0.08  13.97
sdf              72.01     4.28 1586.54  103.19 20686.97  3151.51    28.22     1.52    0.90    0.44    7.90   0.08  14.00
sdg               0.00     3.18   25.95   73.34   322.50   391.96    14.39     0.44    4.43    0.20    5.93   0.08   0.78
sdh               0.00     0.13    0.02    0.24     2.23     5.11    56.82     0.00    1.15    0.65    1.19   0.21   0.01
md0               0.00     0.00 9939.28  484.37 141555.50 21603.76    31.31     0.00    0.00    0.00    0.00   0.00   0.00

avg-cpu:  %user   %nice %system %iowait  %steal   %idle
          24.19    0.00    3.99   12.47    0.00   59.35

Device:         rrqm/s   wrqm/s     r/s     w/s    rkB/s    wkB/s avgrq-sz avgqu-sz   await r_await w_await  svctm  %util
sda               0.00     0.00 1468.00    0.00  5872.00     0.00     8.00     0.14    0.09    0.09    0.00   0.09  13.90
sdb               0.00     0.00 1548.00    0.00  6192.00     0.00     8.00     0.14    0.09    0.09    0.00   0.09  13.90
sdc               0.00     0.00 1476.00    0.00  5904.00     0.00     8.00     0.15    0.10    0.10    0.00   0.10  14.90
sdd               0.00     0.00 1587.00    0.00  6348.00     0.00     8.00     0.17    0.11    0.11    0.00   0.11  17.30
sde               0.00     0.00 1501.00    0.00  6004.00     0.00     8.00     0.16    0.11    0.11    0.00   0.11  16.00
sdf               0.00     0.00 1498.00    0.00  5992.00     0.00     8.00     0.15    0.10    0.10    0.00   0.10  15.30
sdg               0.00    19.00   32.00   89.00   512.00  1376.00    31.21     0.22    1.85    0.16    2.46   0.10   1.20
sdh               0.00     0.00    0.00    0.00     0.00     0.00     0.00     0.00    0.00    0.00    0.00   0.00   0.00
md0               0.00     0.00 9074.00    0.00 36296.00     0.00     8.00     0.00    0.00    0.00    0.00   0.00   0.00

