Linux 4.17.2 (bench) 	08/03/2018 	_x86_64_	(4 CPU)

avg-cpu:  %user   %nice %system %iowait  %steal   %idle
          10.29    0.02    3.99    2.43    0.00   83.27

Device:         rrqm/s   wrqm/s     r/s     w/s    rkB/s    wkB/s avgrq-sz avgqu-sz   await r_await w_await  svctm  %util
sda              40.28     4.28 1604.18  103.61 20657.99  3161.71    27.90     1.03    0.60    0.26    5.91   0.06  10.50
sdb              40.17     4.24 1604.07  103.75 20647.37  3158.34    27.88     1.02    0.60    0.26    5.85   0.06  10.38
sdc              78.35     4.30 1563.81  103.29 20639.61  3160.82    28.55     1.44    0.87    0.45    7.12   0.08  13.81
sdd              71.69     4.27 1569.63  103.36 20624.25  3156.98    28.43     1.45    0.87    0.44    7.32   0.08  13.91
sde              73.76     4.31 1574.78  103.46 20684.96  3161.27    28.42     1.47    0.88    0.45    7.43   0.08  13.93
sdf              70.85     4.28 1576.95  103.41 20665.92  3158.10    28.36     1.52    0.90    0.44    7.90   0.08  13.96
sdg               0.00     3.18   25.90   73.35   322.37   392.00    14.39     0.44    4.44    0.20    5.93   0.08   0.77
sdh               0.00     0.13    0.02    0.24     2.23     5.12    56.82     0.00    1.15    0.65    1.19   0.21   0.01
md0               0.00     0.00 9874.76  485.38 141447.00 21648.90    31.49     0.00    0.00    0.00    0.00   0.00   0.00

avg-cpu:  %user   %nice %system %iowait  %steal   %idle
          23.57    0.01    2.91    0.68    0.00   72.83

Device:         rrqm/s   wrqm/s     r/s     w/s    rkB/s    wkB/s avgrq-sz avgqu-sz   await r_await w_await  svctm  %util
sda               0.00     0.00 1557.90    0.00  6231.60     0.00     8.00     0.15    0.09    0.09    0.00   0.09  14.58
sdb               0.00     0.00 1569.20    0.00  6276.80     0.00     8.00     0.15    0.09    0.09    0.00   0.09  14.79
sdc               0.00     0.00 1561.30    0.00  6245.20     0.00     8.00     0.16    0.10    0.10    0.00   0.10  16.17
sdd               0.00     0.00 1556.35    0.00  6225.40     0.00     8.00     0.16    0.10    0.10    0.00   0.10  16.06
sde               0.00     0.00 1551.60    0.00  6206.40     0.00     8.00     0.16    0.10    0.10    0.00   0.10  16.19
sdf               0.00     0.00 1573.60    0.00  6294.40     0.00     8.00     0.16    0.10    0.10    0.00   0.10  15.92
sdg               0.00     0.40    2.80   72.95    31.80   380.20    10.88     0.42    5.60    0.29    5.80   0.05   0.40
sdh               0.00     0.00    0.00    0.00     0.00     0.00     0.00     0.00    0.00    0.00    0.00   0.00   0.00
md0               0.00     0.00 9370.05    0.00 37480.20     0.00     8.00     0.00    0.00    0.00    0.00   0.00   0.00

