Linux 4.17.2 (bench) 	08/03/2018 	_x86_64_	(4 CPU)

avg-cpu:  %user   %nice %system %iowait  %steal   %idle
          10.28    0.02    4.06    2.56    0.00   83.09

Device:         rrqm/s   wrqm/s     r/s     w/s    rkB/s    wkB/s avgrq-sz avgqu-sz   await r_await w_await  svctm  %util
sda              44.53     4.24 1651.40  102.61 20929.95  3131.11    27.44     1.03    0.59    0.26    5.91   0.06  10.72
sdb              44.41     4.20 1651.32  102.74 20919.38  3127.77    27.42     1.03    0.59    0.26    5.85   0.06  10.59
sdc              82.32     4.26 1611.31  102.29 20911.47  3130.23    28.06     1.45    0.85    0.45    7.12   0.08  14.05
sdd              75.73     4.23 1617.07  102.36 20896.32  3126.43    27.94     1.46    0.85    0.44    7.32   0.08  14.14
sde              77.78     4.27 1622.14  102.46 20956.22  3130.68    27.93     1.48    0.86    0.44    7.43   0.08  14.17
sdf              74.88     4.24 1624.30  102.41 20937.43  3127.54    27.87     1.52    0.88    0.44    7.90   0.08  14.20
sdg               0.00     3.17   26.27   73.31   323.84   391.98    14.38     0.44    4.42    0.20    5.93   0.08   0.78
sdh               0.00     0.13    0.02    0.24     2.21     5.07    56.82     0.00    1.15    0.65    1.19   0.21   0.01
md0               0.00     0.00 10183.87  480.68 143378.98 21439.39    30.91     0.00    0.00    0.00    0.00   0.00   0.00

avg-cpu:  %user   %nice %system %iowait  %steal   %idle
          24.81    0.00    2.28    1.01    0.00   71.90

Device:         rrqm/s   wrqm/s     r/s     w/s    rkB/s    wkB/s avgrq-sz avgqu-sz   await r_await w_await  svctm  %util
sda               0.00     0.00 1425.00    0.00  5700.00     0.00     8.00     0.14    0.10    0.10    0.00   0.10  14.50
sdb               0.00     0.00 1562.00    0.00  6248.00     0.00     8.00     0.16    0.10    0.10    0.00   0.10  16.30
sdc               0.00     0.00 1443.00    0.00  5772.00     0.00     8.00     0.13    0.09    0.09    0.00   0.09  13.40
sdd               0.00     0.00 1551.00    0.00  6204.00     0.00     8.00     0.18    0.11    0.11    0.00   0.11  17.60
sde               0.00     0.00 1495.00    0.00  5980.00     0.00     8.00     0.14    0.10    0.10    0.00   0.10  14.50
sdf               0.00     0.00 1477.00    0.00  5908.00     0.00     8.00     0.16    0.11    0.11    0.00   0.11  16.10
sdg               0.00     0.00    3.00    0.00    88.00     0.00    58.67     0.00    0.33    0.33    0.00   0.33   0.10
sdh               0.00     0.00    0.00    0.00     0.00     0.00     0.00     0.00    0.00    0.00    0.00   0.00   0.00
md0               0.00     0.00 8955.00    0.00 35820.00     0.00     8.00     0.00    0.00    0.00    0.00   0.00   0.00

avg-cpu:  %user   %nice %system %iowait  %steal   %idle
          24.75    0.00    2.53    0.76    0.00   71.97

Device:         rrqm/s   wrqm/s     r/s     w/s    rkB/s    wkB/s avgrq-sz avgqu-sz   await r_await w_await  svctm  %util
sda               0.00     0.00 1572.00    0.00  6288.00     0.00     8.00     0.17    0.11    0.11    0.00   0.11  16.60
sdb               0.00     0.00 1503.00    0.00  6012.00     0.00     8.00     0.16    0.11    0.11    0.00   0.11  16.00
sdc               0.00     0.00 1492.00    0.00  5968.00     0.00     8.00     0.15    0.10    0.10    0.00   0.10  14.70
sdd               0.00     0.00 1454.00    0.00  5816.00     0.00     8.00     0.14    0.09    0.09    0.00   0.09  13.70
sde               0.00     0.00 1482.00    0.00  5928.00     0.00     8.00     0.14    0.09    0.09    0.00   0.09  13.50
sdf               0.00     0.00 1598.00    0.00  6392.00     0.00     8.00     0.16    0.10    0.10    0.00   0.10  16.00
sdg               0.00     0.00    0.00    0.00     0.00     0.00     0.00     0.00    0.00    0.00    0.00   0.00   0.00
sdh               0.00     0.00    0.00    0.00     0.00     0.00     0.00     0.00    0.00    0.00    0.00   0.00   0.00
md0               0.00     0.00 9100.00    0.00 36400.00     0.00     8.00     0.00    0.00    0.00    0.00   0.00   0.00

avg-cpu:  %user   %nice %system %iowait  %steal   %idle
          24.56    0.00    2.28    1.01    0.00   72.15

Device:         rrqm/s   wrqm/s     r/s     w/s    rkB/s    wkB/s avgrq-sz avgqu-sz   await r_await w_await  svctm  %util
sda               0.00     0.00 1490.00    0.00  5960.00     0.00     8.00     0.13    0.09    0.09    0.00   0.09  13.10
sdb               0.00     0.00 1521.00    0.00  6092.00     0.00     8.01     0.15    0.10    0.10    0.00   0.10  15.50
sdc               0.00     0.00 1535.00    0.00  6140.00     0.00     8.00     0.14    0.09    0.09    0.00   0.09  14.50
sdd               0.00     0.00 1492.00    0.00  5968.00     0.00     8.00     0.14    0.10    0.10    0.00   0.10  14.40
sde               0.00     0.00 1509.00    0.00  6036.00     0.00     8.00     0.15    0.10    0.10    0.00   0.10  15.20
sdf               0.00     0.00 1532.00    0.00  6128.00     0.00     8.00     0.17    0.11    0.11    0.00   0.11  17.40
sdg               0.00     0.00    0.00    0.00     0.00     0.00     0.00     0.00    0.00    0.00    0.00   0.00   0.00
sdh               0.00     0.00    0.00    0.00     0.00     0.00     0.00     0.00    0.00    0.00    0.00   0.00   0.00
md0               0.00     0.00 9079.00    0.00 36324.00     0.00     8.00     0.00    0.00    0.00    0.00   0.00   0.00

avg-cpu:  %user   %nice %system %iowait  %steal   %idle
          24.56    0.00    2.53    1.01    0.00   71.90

Device:         rrqm/s   wrqm/s     r/s     w/s    rkB/s    wkB/s avgrq-sz avgqu-sz   await r_await w_await  svctm  %util
sda               0.00     0.00 1498.00    0.00  6000.00     0.00     8.01     0.15    0.10    0.10    0.00   0.10  14.70
sdb               0.00     0.00 1519.00    0.00  6076.00     0.00     8.00     0.14    0.10    0.10    0.00   0.10  14.50
sdc               0.00     0.00 1515.00    0.00  6060.00     0.00     8.00     0.16    0.10    0.10    0.00   0.10  15.60
sdd               0.00     0.00 1518.00    0.00  6072.00     0.00     8.00     0.16    0.11    0.11    0.00   0.11  16.00
sde               0.00     0.00 1517.00    0.00  6076.00     0.00     8.01     0.16    0.10    0.10    0.00   0.10  15.80
sdf               0.00     0.00 1515.00    0.00  6060.00     0.00     8.00     0.14    0.10    0.10    0.00   0.10  14.50
sdg               0.00     0.00    0.00    0.00     0.00     0.00     0.00     0.00    0.00    0.00    0.00   0.00   0.00
sdh               0.00     0.00    0.00    0.00     0.00     0.00     0.00     0.00    0.00    0.00    0.00   0.00   0.00
md0               0.00     0.00 9084.00    0.00 36352.00     0.00     8.00     0.00    0.00    0.00    0.00   0.00   0.00

avg-cpu:  %user   %nice %system %iowait  %steal   %idle
          24.49    0.25    3.03    8.84    0.00   63.38

Device:         rrqm/s   wrqm/s     r/s     w/s    rkB/s    wkB/s avgrq-sz avgqu-sz   await r_await w_await  svctm  %util
sda               0.00     0.00 1489.00    0.00  5956.00     0.00     8.00     0.15    0.10    0.10    0.00   0.10  14.90
sdb               0.00     0.00 1484.00    0.00  5936.00     0.00     8.00     0.14    0.10    0.10    0.00   0.10  14.50
sdc               0.00     0.00 1547.00    0.00  6196.00     0.00     8.01     0.16    0.10    0.10    0.00   0.10  15.90
sdd               0.00     0.00 1490.00    0.00  5960.00     0.00     8.00     0.15    0.10    0.10    0.00   0.10  15.50
sde               0.00     0.00 1462.00    0.00  5856.00     0.00     8.01     0.14    0.10    0.10    0.00   0.10  14.00
sdf               0.00     0.00 1500.00    0.00  6000.00     0.00     8.00     0.15    0.10    0.10    0.00   0.10  15.50
sdg               0.00     0.00   41.00    0.00   488.00     0.00    23.80     0.01    0.15    0.15    0.00   0.12   0.50
sdh               0.00     0.00    0.00    0.00     0.00     0.00     0.00     0.00    0.00    0.00    0.00   0.00   0.00
md0               0.00     0.00 8971.00    0.00 35900.00     0.00     8.00     0.00    0.00    0.00    0.00   0.00   0.00

avg-cpu:  %user   %nice %system %iowait  %steal   %idle
          24.81    0.00    2.03    1.01    0.00   72.15

Device:         rrqm/s   wrqm/s     r/s     w/s    rkB/s    wkB/s avgrq-sz avgqu-sz   await r_await w_await  svctm  %util
sda               0.00     0.00 1514.00    0.00  6064.00     0.00     8.01     0.13    0.09    0.09    0.00   0.09  13.30
sdb               0.00     0.00 1499.00    0.00  6020.00     0.00     8.03     0.14    0.10    0.10    0.00   0.10  14.50
sdc               0.00     0.00 1535.00    0.00  6140.00     0.00     8.00     0.18    0.12    0.12    0.00   0.12  17.80
sdd               0.00     0.00 1496.00    0.00  5984.00     0.00     8.00     0.16    0.11    0.11    0.00   0.11  15.90
sde               0.00     0.00 1527.00    0.00  6108.00     0.00     8.00     0.14    0.09    0.09    0.00   0.09  14.40
sdf               0.00     0.00 1497.00    0.00  5988.00     0.00     8.00     0.16    0.11    0.11    0.00   0.11  16.00
sdg               0.00     0.00    0.00    0.00     0.00     0.00     0.00     0.00    0.00    0.00    0.00   0.00   0.00
sdh               0.00     0.00    0.00    0.00     0.00     0.00     0.00     0.00    0.00    0.00    0.00   0.00   0.00
md0               0.00     0.00 9068.00    0.00 36304.00     0.00     8.01     0.00    0.00    0.00    0.00   0.00   0.00

avg-cpu:  %user   %nice %system %iowait  %steal   %idle
          24.81    0.00    2.28    1.01    0.00   71.90

Device:         rrqm/s   wrqm/s     r/s     w/s    rkB/s    wkB/s avgrq-sz avgqu-sz   await r_await w_await  svctm  %util
sda               0.00     0.00 1493.00    0.00  5972.00     0.00     8.00     0.15    0.10    0.10    0.00   0.10  15.10
sdb               0.00     0.00 1547.00    0.00  6196.00     0.00     8.01     0.16    0.11    0.11    0.00   0.11  16.30
sdc               0.00     0.00 1547.00    0.00  6188.00     0.00     8.00     0.15    0.10    0.10    0.00   0.10  15.30
sdd               0.00     0.00 1442.00    0.00  5776.00     0.00     8.01     0.15    0.11    0.11    0.00   0.11  15.30
sde               0.00     0.00 1490.00    0.00  5968.00     0.00     8.01     0.13    0.09    0.09    0.00   0.09  13.10
sdf               0.00     0.00 1525.00    0.00  6100.00     0.00     8.00     0.15    0.10    0.10    0.00   0.10  15.30
sdg               0.00     0.00    0.00    0.00     0.00     0.00     0.00     0.00    0.00    0.00    0.00   0.00   0.00
sdh               0.00     0.00    0.00    0.00     0.00     0.00     0.00     0.00    0.00    0.00    0.00   0.00   0.00
md0               0.00     0.00 9044.00    0.00 36200.00     0.00     8.01     0.00    0.00    0.00    0.00   0.00   0.00

avg-cpu:  %user   %nice %system %iowait  %steal   %idle
          24.81    0.00    2.28    1.77    0.00   71.14

Device:         rrqm/s   wrqm/s     r/s     w/s    rkB/s    wkB/s avgrq-sz avgqu-sz   await r_await w_await  svctm  %util
sda               0.00     0.00 1509.00    0.00  6044.00     0.00     8.01     0.15    0.10    0.10    0.00   0.10  14.90
sdb               0.00     0.00 1459.00    0.00  5836.00     0.00     8.00     0.12    0.08    0.08    0.00   0.08  12.30
sdc               0.00     0.00 1499.00    0.00  6012.00     0.00     8.02     0.16    0.11    0.11    0.00   0.11  16.20
sdd               0.00     0.00 1528.00    0.00  6120.00     0.00     8.01     0.14    0.09    0.09    0.00   0.09  14.20
sde               0.00     0.00 1531.00    0.00  6124.00     0.00     8.00     0.17    0.11    0.11    0.00   0.11  16.50
sdf               0.00     0.00 1532.00    0.00  6136.00     0.00     8.01     0.17    0.11    0.11    0.00   0.11  16.50
sdg               0.00     0.00    0.00    0.00     0.00     0.00     0.00     0.00    0.00    0.00    0.00   0.00   0.00
sdh               0.00     0.00    0.00    0.00     0.00     0.00     0.00     0.00    0.00    0.00    0.00   0.00   0.00
md0               0.00     0.00 9057.00    0.00 36268.00     0.00     8.01     0.00    0.00    0.00    0.00   0.00   0.00

avg-cpu:  %user   %nice %system %iowait  %steal   %idle
          24.56    0.00    2.53    1.27    0.00   71.65

Device:         rrqm/s   wrqm/s     r/s     w/s    rkB/s    wkB/s avgrq-sz avgqu-sz   await r_await w_await  svctm  %util
sda               0.00     0.00 1469.00    0.00  5876.00     0.00     8.00     0.18    0.12    0.12    0.00   0.12  17.80
sdb               0.00     0.00 1448.00    0.00  5800.00     0.00     8.01     0.15    0.10    0.10    0.00   0.10  15.20
sdc               0.00     0.00 1464.00    0.00  5872.00     0.00     8.02     0.14    0.09    0.09    0.00   0.09  13.70
sdd               0.00     0.00 1429.00    0.00  5716.00     0.00     8.00     0.13    0.09    0.09    0.00   0.09  13.40
sde               0.00     0.00 1507.00    0.00  6036.00     0.00     8.01     0.15    0.10    0.10    0.00   0.10  15.00
sdf               0.00     0.00 1464.00    0.00  5856.00     0.00     8.00     0.15    0.10    0.10    0.00   0.10  14.80
sdg               0.00     0.00   17.00    0.00   396.00     0.00    46.59     0.01    0.29    0.29    0.00   0.29   0.50
sdh               0.00     0.00    0.00    0.00     0.00     0.00     0.00     0.00    0.00    0.00    0.00   0.00   0.00
md0               0.00     0.00 8781.00    0.00 35156.00     0.00     8.01     0.00    0.00    0.00    0.00   0.00   0.00

avg-cpu:  %user   %nice %system %iowait  %steal   %idle
          24.62    0.00    2.54    0.76    0.00   72.08

Device:         rrqm/s   wrqm/s     r/s     w/s    rkB/s    wkB/s avgrq-sz avgqu-sz   await r_await w_await  svctm  %util
sda               0.00     0.00 1456.00    0.00  5832.00     0.00     8.01     0.14    0.10    0.10    0.00   0.10  14.40
sdb               0.00     0.00 1559.00    0.00  6244.00     0.00     8.01     0.14    0.09    0.09    0.00   0.09  13.60
sdc               0.00     0.00 1489.00    0.00  5956.00     0.00     8.00     0.14    0.09    0.09    0.00   0.09  13.60
sdd               0.00     0.00 1568.00    0.00  6288.00     0.00     8.02     0.17    0.11    0.11    0.00   0.11  16.60
sde               0.00     0.00 1476.00    0.00  5912.00     0.00     8.01     0.15    0.10    0.10    0.00   0.10  15.10
sdf               0.00     0.00 1500.00    0.00  6020.00     0.00     8.03     0.18    0.12    0.12    0.00   0.12  17.70
sdg               0.00     0.00    0.00    0.00     0.00     0.00     0.00     0.00    0.00    0.00    0.00   0.00   0.00
sdh               0.00     0.00    0.00    0.00     0.00     0.00     0.00     0.00    0.00    0.00    0.00   0.00   0.00
md0               0.00     0.00 9049.00    0.00 36264.00     0.00     8.02     0.00    0.00    0.00    0.00   0.00   0.00

avg-cpu:  %user   %nice %system %iowait  %steal   %idle
          24.43    0.00    2.77    1.01    0.00   71.79

Device:         rrqm/s   wrqm/s     r/s     w/s    rkB/s    wkB/s avgrq-sz avgqu-sz   await r_await w_await  svctm  %util
sda               0.00     0.00 1535.00    0.00  6156.00     0.00     8.02     0.14    0.09    0.09    0.00   0.09  14.40
sdb               0.00     0.00 1478.00    0.00  5928.00     0.00     8.02     0.13    0.09    0.09    0.00   0.09  13.30
sdc               0.00     0.00 1504.00    0.00  6024.00     0.00     8.01     0.17    0.11    0.11    0.00   0.11  17.00
sdd               0.00     0.00 1524.00    0.00  6104.00     0.00     8.01     0.15    0.10    0.10    0.00   0.10  15.50
sde               0.00     0.00 1534.00    0.00  6160.00     0.00     8.03     0.16    0.11    0.11    0.00   0.11  16.40
sdf               0.00     0.00 1481.00    0.00  5940.00     0.00     8.02     0.14    0.09    0.09    0.00   0.09  13.50
sdg               0.00     0.00    0.00    0.00     0.00     0.00     0.00     0.00    0.00    0.00    0.00   0.00   0.00
sdh               0.00     0.00    0.00    0.00     0.00     0.00     0.00     0.00    0.00    0.00    0.00   0.00   0.00
md0               0.00     0.00 9055.00    0.00 36308.00     0.00     8.02     0.00    0.00    0.00    0.00   0.00   0.00

avg-cpu:  %user   %nice %system %iowait  %steal   %idle
          24.62    0.00    2.28    1.02    0.00   72.08

Device:         rrqm/s   wrqm/s     r/s     w/s    rkB/s    wkB/s avgrq-sz avgqu-sz   await r_await w_await  svctm  %util
sda               0.00     0.00 1458.00    0.00  5832.00     0.00     8.00     0.12    0.09    0.09    0.00   0.09  12.50
sdb               0.00     0.00 1529.00    0.00  6128.00     0.00     8.02     0.16    0.10    0.10    0.00   0.10  15.80
sdc               0.00     0.00 1519.00    0.00  6076.00     0.00     8.00     0.17    0.11    0.11    0.00   0.11  16.90
sdd               0.00     0.00 1541.00    0.00  6164.00     0.00     8.00     0.16    0.10    0.10    0.00   0.10  16.00
sde               0.00     0.00 1504.00    0.00  6024.00     0.00     8.01     0.14    0.09    0.09    0.00   0.09  13.50
sdf               0.00     0.00 1445.00    0.00  5796.00     0.00     8.02     0.16    0.11    0.11    0.00   0.11  16.30
sdg               0.00     0.00    0.00    0.00     0.00     0.00     0.00     0.00    0.00    0.00    0.00   0.00   0.00
sdh               0.00     0.00    0.00    0.00     0.00     0.00     0.00     0.00    0.00    0.00    0.00   0.00   0.00
md0               0.00     0.00 8997.00    0.00 36024.00     0.00     8.01     0.00    0.00    0.00    0.00   0.00   0.00

avg-cpu:  %user   %nice %system %iowait  %steal   %idle
          24.81    0.00    2.28    1.01    0.00   71.90

Device:         rrqm/s   wrqm/s     r/s     w/s    rkB/s    wkB/s avgrq-sz avgqu-sz   await r_await w_await  svctm  %util
sda               0.00     0.00 1544.00    0.00  6176.00     0.00     8.00     0.14    0.09    0.09    0.00   0.09  14.00
sdb               0.00     0.00 1492.00    0.00  6004.00     0.00     8.05     0.13    0.09    0.09    0.00   0.09  13.40
sdc               0.00     0.00 1475.00    0.00  5924.00     0.00     8.03     0.16    0.11    0.11    0.00   0.11  15.70
sdd               0.00     0.00 1503.00    0.00  6020.00     0.00     8.01     0.14    0.10    0.10    0.00   0.10  14.40
sde               0.00     0.00 1491.00    0.00  5964.00     0.00     8.00     0.16    0.11    0.11    0.00   0.11  15.70
sdf               0.00     0.00 1526.00    0.00  6112.00     0.00     8.01     0.19    0.13    0.13    0.00   0.13  19.10
sdg               0.00     0.00    0.00    0.00     0.00     0.00     0.00     0.00    0.00    0.00    0.00   0.00   0.00
sdh               0.00     0.00    0.00    0.00     0.00     0.00     0.00     0.00    0.00    0.00    0.00   0.00   0.00
md0               0.00     0.00 9031.00    0.00 36200.00     0.00     8.02     0.00    0.00    0.00    0.00   0.00   0.00

avg-cpu:  %user   %nice %system %iowait  %steal   %idle
          24.81    0.00    2.03    1.01    0.00   72.15

Device:         rrqm/s   wrqm/s     r/s     w/s    rkB/s    wkB/s avgrq-sz avgqu-sz   await r_await w_await  svctm  %util
sda               0.00     0.00 1575.00    0.00  6300.00     0.00     8.00     0.13    0.08    0.08    0.00   0.08  13.10
sdb               0.00     0.00 1538.00    0.00  6168.00     0.00     8.02     0.14    0.09    0.09    0.00   0.09  14.20
sdc               0.00     0.00 1514.00    0.00  6092.00     0.00     8.05     0.17    0.11    0.11    0.00   0.11  16.50
sdd               0.00     0.00 1428.00    0.00  5720.00     0.00     8.01     0.15    0.10    0.10    0.00   0.10  14.80
sde               0.00     0.00 1498.00    0.00  6008.00     0.00     8.02     0.16    0.11    0.11    0.00   0.11  15.80
sdf               0.00     0.00 1473.00    0.00  5912.00     0.00     8.03     0.17    0.12    0.12    0.00   0.12  17.50
sdg               0.00     0.00    0.00    0.00     0.00     0.00     0.00     0.00    0.00    0.00    0.00   0.00   0.00
sdh               0.00     0.00    0.00    0.00     0.00     0.00     0.00     0.00    0.00    0.00    0.00   0.00   0.00
md0               0.00     0.00 9025.00    0.00 36200.00     0.00     8.02     0.00    0.00    0.00    0.00   0.00   0.00

avg-cpu:  %user   %nice %system %iowait  %steal   %idle
          24.68    0.00    2.54    1.02    0.00   71.76

Device:         rrqm/s   wrqm/s     r/s     w/s    rkB/s    wkB/s avgrq-sz avgqu-sz   await r_await w_await  svctm  %util
sda               0.00     0.00 1499.00    0.00  6020.00     0.00     8.03     0.15    0.10    0.10    0.00   0.10  15.00
sdb               0.00     0.00 1433.00    0.00  5748.00     0.00     8.02     0.14    0.09    0.09    0.00   0.09  13.60
sdc               0.00     0.00 1477.00    0.00  5932.00     0.00     8.03     0.15    0.10    0.10    0.00   0.10  14.90
sdd               0.00     0.00 1536.00    0.00  6164.00     0.00     8.03     0.15    0.10    0.10    0.00   0.10  15.20
sde               0.00     0.00 1531.00    0.00  6124.00     0.00     8.00     0.17    0.11    0.11    0.00   0.11  16.70
sdf               0.00     0.00 1518.00    0.00  6088.00     0.00     8.02     0.15    0.10    0.10    0.00   0.10  15.30
sdg               0.00     0.00    7.00    0.00    28.00     0.00     8.00     0.00    0.00    0.00    0.00   0.00   0.00
sdh               0.00     0.00    0.00    0.00     0.00     0.00     0.00     0.00    0.00    0.00    0.00   0.00   0.00
md0               0.00     0.00 8994.00    0.00 36096.00     0.00     8.03     0.00    0.00    0.00    0.00   0.00   0.00

avg-cpu:  %user   %nice %system %iowait  %steal   %idle
          24.56    0.00    2.53    1.01    0.00   71.90

Device:         rrqm/s   wrqm/s     r/s     w/s    rkB/s    wkB/s avgrq-sz avgqu-sz   await r_await w_await  svctm  %util
sda               0.00     0.00 1514.00    0.00  6124.00     0.00     8.09     0.15    0.10    0.10    0.00   0.10  15.30
sdb               0.00     0.00 1477.00    0.00  5916.00     0.00     8.01     0.12    0.08    0.08    0.00   0.08  12.30
sdc               0.00     0.00 1535.00    0.00  6148.00     0.00     8.01     0.16    0.10    0.10    0.00   0.10  15.80
sdd               0.00     0.00 1422.00    0.00  5712.00     0.00     8.03     0.15    0.11    0.11    0.00   0.11  15.00
sde               0.00     0.00 1481.00    0.00  5928.00     0.00     8.01     0.15    0.10    0.10    0.00   0.10  14.80
sdf               0.00     0.00 1536.00    0.00  6156.00     0.00     8.02     0.16    0.11    0.11    0.00   0.11  16.40
sdg               0.00     0.00    0.00    0.00     0.00     0.00     0.00     0.00    0.00    0.00    0.00   0.00   0.00
sdh               0.00     0.00    0.00    0.00     0.00     0.00     0.00     0.00    0.00    0.00    0.00   0.00   0.00
md0               0.00     0.00 8965.00    0.00 35984.00     0.00     8.03     0.00    0.00    0.00    0.00   0.00   0.00

avg-cpu:  %user   %nice %system %iowait  %steal   %idle
          24.87    0.00    2.28    0.76    0.00   72.08

Device:         rrqm/s   wrqm/s     r/s     w/s    rkB/s    wkB/s avgrq-sz avgqu-sz   await r_await w_await  svctm  %util
sda               0.00     0.00 1476.00    0.00  5904.00     0.00     8.00     0.12    0.08    0.08    0.00   0.08  12.50
sdb               0.00     0.00 1486.00    0.00  5968.00     0.00     8.03     0.15    0.10    0.10    0.00   0.10  15.00
sdc               0.00     0.00 1475.00    0.00  5908.00     0.00     8.01     0.15    0.10    0.10    0.00   0.10  15.40
sdd               0.00     0.00 1536.00    0.00  6152.00     0.00     8.01     0.17    0.11    0.11    0.00   0.11  16.60
sde               0.00     0.00 1516.00    0.00  6088.00     0.00     8.03     0.16    0.11    0.11    0.00   0.11  16.10
sdf               0.00     0.00 1503.00    0.00  6028.00     0.00     8.02     0.15    0.10    0.10    0.00   0.10  14.70
sdg               0.00     1.00    4.00    2.00    16.00    24.00    13.33     0.00    0.50    0.25    1.00   0.33   0.20
sdh               0.00     0.00    0.00    0.00     0.00     0.00     0.00     0.00    0.00    0.00    0.00   0.00   0.00
md0               0.00     0.00 8994.00    0.00 36056.00     0.00     8.02     0.00    0.00    0.00    0.00   0.00   0.00

avg-cpu:  %user   %nice %system %iowait  %steal   %idle
          24.81    0.00    2.28    1.01    0.00   71.90

Device:         rrqm/s   wrqm/s     r/s     w/s    rkB/s    wkB/s avgrq-sz avgqu-sz   await r_await w_await  svctm  %util
sda               0.00     0.00 1516.00    0.00  6100.00     0.00     8.05     0.16    0.10    0.10    0.00   0.10  15.80
sdb               0.00     0.00 1529.00    0.00  6132.00     0.00     8.02     0.13    0.09    0.09    0.00   0.09  13.20
sdc               0.00     0.00 1494.00    0.00  6000.00     0.00     8.03     0.15    0.10    0.10    0.00   0.10  15.50
sdd               0.00     0.00 1480.00    0.00  5940.00     0.00     8.03     0.16    0.11    0.11    0.00   0.11  16.10
sde               0.00     0.00 1538.00    0.00  6152.00     0.00     8.00     0.17    0.11    0.11    0.00   0.11  17.50
sdf               0.00     0.00 1439.00    0.00  5772.00     0.00     8.02     0.13    0.09    0.09    0.00   0.09  13.40
sdg               0.00     0.00    0.00    0.00     0.00     0.00     0.00     0.00    0.00    0.00    0.00   0.00   0.00
sdh               0.00     0.00    0.00    0.00     0.00     0.00     0.00     0.00    0.00    0.00    0.00   0.00   0.00
md0               0.00     0.00 8995.00    0.00 36092.00     0.00     8.02     0.00    0.00    0.00    0.00   0.00   0.00

avg-cpu:  %user   %nice %system %iowait  %steal   %idle
          24.56    0.00    2.53    1.01    0.00   71.90

Device:         rrqm/s   wrqm/s     r/s     w/s    rkB/s    wkB/s avgrq-sz avgqu-sz   await r_await w_await  svctm  %util
sda               0.00     0.00 1494.00    0.00  5984.00     0.00     8.01     0.15    0.10    0.10    0.00   0.10  15.50
sdb               0.00     0.00 1568.00    0.00  6280.00     0.00     8.01     0.16    0.10    0.10    0.00   0.10  15.70
sdc               0.00     0.00 1511.00    0.00  6068.00     0.00     8.03     0.17    0.11    0.11    0.00   0.11  17.20
sdd               0.00     0.00 1530.00    0.00  6168.00     0.00     8.06     0.15    0.10    0.10    0.00   0.10  14.60
sde               0.00     0.00 1468.00    0.00  5896.00     0.00     8.03     0.15    0.10    0.10    0.00   0.10  14.80
sdf               0.00     0.00 1442.00    0.00  5784.00     0.00     8.02     0.14    0.09    0.09    0.00   0.09  13.60
sdg               0.00     0.00    0.00    0.00     0.00     0.00     0.00     0.00    0.00    0.00    0.00   0.00   0.00
sdh               0.00     0.00    0.00    0.00     0.00     0.00     0.00     0.00    0.00    0.00    0.00   0.00   0.00
md0               0.00     0.00 9013.00    0.00 36180.00     0.00     8.03     0.00    0.00    0.00    0.00   0.00   0.00

avg-cpu:  %user   %nice %system %iowait  %steal   %idle
          24.75    0.00    2.27    1.01    0.00   71.97

Device:         rrqm/s   wrqm/s     r/s     w/s    rkB/s    wkB/s avgrq-sz avgqu-sz   await r_await w_await  svctm  %util
sda               0.00     0.00 1472.00    0.00  5904.00     0.00     8.02     0.13    0.09    0.09    0.00   0.09  13.20
sdb               0.00     0.00 1483.00    0.00  5944.00     0.00     8.02     0.13    0.08    0.08    0.00   0.08  12.60
sdc               0.00     0.00 1500.00    0.00  6012.00     0.00     8.02     0.17    0.11    0.11    0.00   0.11  17.20
sdd               0.00     0.00 1521.00    0.00  6108.00     0.00     8.03     0.15    0.10    0.10    0.00   0.10  15.30
sde               0.00     0.00 1494.00    0.00  6048.00     0.00     8.10     0.16    0.11    0.11    0.00   0.11  16.40
sdf               0.00     0.00 1520.00    0.00  6136.00     0.00     8.07     0.15    0.10    0.10    0.00   0.10  15.30
sdg               0.00     0.00    0.00    0.00     0.00     0.00     0.00     0.00    0.00    0.00    0.00   0.00   0.00
sdh               0.00     0.00    0.00    0.00     0.00     0.00     0.00     0.00    0.00    0.00    0.00   0.00   0.00
md0               0.00     0.00 8989.00    0.00 36152.00     0.00     8.04     0.00    0.00    0.00    0.00   0.00   0.00

