Linux 4.17.2 (bench) 	08/03/2018 	_x86_64_	(4 CPU)

avg-cpu:  %user   %nice %system %iowait  %steal   %idle
          10.30    0.02    3.97    2.42    0.00   83.30

Device:         rrqm/s   wrqm/s     r/s     w/s    rkB/s    wkB/s avgrq-sz avgqu-sz   await r_await w_await  svctm  %util
sda              38.67     4.29 1590.64  103.81 20558.70  3167.84    28.00     1.02    0.60    0.26    5.91   0.06  10.45
sdb              38.58     4.25 1590.51  103.95 20548.06  3164.46    27.99     1.02    0.60    0.26    5.85   0.06  10.33
sdc              76.73     4.31 1550.29  103.49 20540.31  3166.95    28.67     1.44    0.87    0.45    7.12   0.08  13.75
sdd              70.04     4.28 1556.13  103.56 20524.94  3163.10    28.55     1.45    0.87    0.44    7.32   0.08  13.84
sde              72.13     4.32 1561.28  103.66 20585.77  3167.40    28.53     1.47    0.88    0.45    7.43   0.08  13.86
sdf              69.21     4.29 1563.46  103.61 20566.73  3164.23    28.47     1.51    0.91    0.44    7.90   0.08  13.89
sdg               0.00     3.18   25.80   73.35   321.85   391.96    14.40     0.44    4.44    0.20    5.93   0.08   0.77
sdh               0.00     0.13    0.02    0.24     2.24     5.13    56.82     0.00    1.15    0.65    1.19   0.21   0.01
md0               0.00     0.00 9783.61  486.32 140745.11 21690.89    31.63     0.00    0.00    0.00    0.00   0.00   0.00

avg-cpu:  %user   %nice %system %iowait  %steal   %idle
           1.20    0.03   14.81   12.98    0.00   70.99

Device:         rrqm/s   wrqm/s     r/s     w/s    rkB/s    wkB/s avgrq-sz avgqu-sz   await r_await w_await  svctm  %util
sda               0.00     0.00 8157.30    0.00 32629.20     0.00     8.00     2.07    0.25    0.25    0.00   0.02  13.85
sdb               0.00     0.00 8121.35    0.00 32485.40     0.00     8.00     2.04    0.25    0.25    0.00   0.02  13.68
sdc               0.00     0.00 8153.40    0.00 32613.60     0.00     8.00     2.82    0.34    0.34    0.00   0.02  19.66
sdd               0.00     0.00 8107.50    0.00 32430.00     0.00     8.00     2.79    0.34    0.34    0.00   0.02  19.66
sde               0.00     0.00 8114.15    0.00 32456.60     0.00     8.00     2.84    0.35    0.35    0.00   0.02  19.70
sdf               0.00     0.00 8214.95    0.00 32859.80     0.00     8.00     2.87    0.35    0.35    0.00   0.02  19.88
sdg               0.00     0.00   95.35    0.25   422.40     6.80     8.98     0.01    0.12    0.12    0.80   0.12   1.12
sdh               0.00     0.00    0.00    0.00     0.00     0.00     0.00     0.00    0.00    0.00    0.00   0.00   0.00
md0               0.00     0.00 48870.05    0.00 195480.20     0.00     8.00     0.00    0.00    0.00    0.00   0.00   0.00

