Linux 4.17.2 (bench) 	08/03/2018 	_x86_64_	(4 CPU)

avg-cpu:  %user   %nice %system %iowait  %steal   %idle
          10.29    0.02    4.00    2.47    0.00   83.22

Device:         rrqm/s   wrqm/s     r/s     w/s    rkB/s    wkB/s avgrq-sz avgqu-sz   await r_await w_await  svctm  %util
sda              41.51     4.27 1613.89  103.38 20678.59  3154.84    27.76     1.03    0.60    0.26    5.91   0.06  10.55
sdb              41.40     4.23 1613.78  103.52 20668.02  3151.47    27.74     1.02    0.60    0.26    5.85   0.06  10.43
sdc              79.49     4.29 1573.61  103.07 20660.23  3153.96    28.41     1.44    0.86    0.45    7.12   0.08  13.85
sdd              72.84     4.26 1579.41  103.14 20644.91  3150.12    28.28     1.45    0.86    0.44    7.32   0.08  13.95
sde              74.92     4.30 1584.54  103.24 20705.45  3154.40    28.27     1.47    0.87    0.44    7.43   0.08  13.97
sdf              72.01     4.28 1586.72  103.18 20686.47  3151.24    28.21     1.52    0.90    0.44    7.90   0.08  14.00
sdg               0.00     3.18   25.95   73.33   322.51   391.96    14.39     0.44    4.43    0.20    5.93   0.08   0.78
sdh               0.00     0.13    0.02    0.24     2.23     5.11    56.82     0.00    1.15    0.65    1.19   0.21   0.01
md0               0.00     0.00 9940.33  484.32 141550.95 21601.87    31.30     0.00    0.00    0.00    0.00   0.00   0.00

avg-cpu:  %user   %nice %system %iowait  %steal   %idle
           1.53    0.00    8.65    0.51    0.00   89.31

Device:         rrqm/s   wrqm/s     r/s     w/s    rkB/s    wkB/s avgrq-sz avgqu-sz   await r_await w_await  svctm  %util
sda               0.00     0.00 7067.00    0.00 28268.00     0.00     8.00     0.78    0.11    0.11    0.00   0.07  47.80
sdb               0.00     0.00 7136.00    0.00 28544.00     0.00     8.00     0.82    0.12    0.12    0.00   0.07  48.00
sdc               0.00     0.00 6986.00    0.00 27944.00     0.00     8.00     0.86    0.12    0.12    0.00   0.08  52.80
sdd               0.00     0.00 6983.00    0.00 27932.00     0.00     8.00     0.90    0.13    0.13    0.00   0.08  53.30
sde               0.00     0.00 7184.00    0.00 28736.00     0.00     8.00     0.81    0.11    0.11    0.00   0.07  51.80
sdf               0.00     0.00 7021.00    0.00 28084.00     0.00     8.00     0.86    0.12    0.12    0.00   0.07  52.20
sdg               0.00     0.00    0.00    1.00     0.00     8.00    16.00     0.00    0.00    0.00    0.00   0.00   0.00
sdh               0.00     0.00    0.00    0.00     0.00     0.00     0.00     0.00    0.00    0.00    0.00   0.00   0.00
md0               0.00     0.00 42360.00    0.00 169440.00     0.00     8.00     0.00    0.00    0.00    0.00   0.00   0.00

