Linux 4.17.2 (bench) 	08/03/2018 	_x86_64_	(4 CPU)

avg-cpu:  %user   %nice %system %iowait  %steal   %idle
          10.30    0.02    3.96    2.40    0.00   83.32

Device:         rrqm/s   wrqm/s     r/s     w/s    rkB/s    wkB/s avgrq-sz avgqu-sz   await r_await w_await  svctm  %util
sda              38.41     4.30 1585.64  103.99 20509.28  3173.49    28.03     1.02    0.60    0.26    5.91   0.06  10.42
sdb              38.32     4.26 1585.51  104.13 20498.59  3170.11    28.02     1.02    0.60    0.26    5.85   0.06  10.30
sdc              76.54     4.32 1545.21  103.68 20490.82  3172.60    28.70     1.44    0.87    0.45    7.12   0.08  13.71
sdd              69.84     4.28 1551.07  103.75 20475.40  3168.75    28.58     1.45    0.87    0.44    7.32   0.08  13.80
sde              71.93     4.33 1556.24  103.85 20536.43  3173.05    28.56     1.47    0.88    0.45    7.43   0.08  13.82
sdf              69.01     4.30 1558.42  103.79 20517.37  3169.87    28.50     1.51    0.91    0.44    7.90   0.08  13.85
sdg               0.00     3.18   25.73   73.36   321.60   391.98    14.40     0.44    4.44    0.20    5.93   0.08   0.77
sdh               0.00     0.13    0.02    0.24     2.24     5.14    56.82     0.00    1.15    0.65    1.19   0.21   0.01
md0               0.00     0.00 9752.02  487.19 140346.84 21729.59    31.66     0.00    0.00    0.00    0.00   0.00   0.00

avg-cpu:  %user   %nice %system %iowait  %steal   %idle
           0.55    0.03   14.75   64.11    0.00   20.56

Device:         rrqm/s   wrqm/s     r/s     w/s    rkB/s    wkB/s avgrq-sz avgqu-sz   await r_await w_await  svctm  %util
sda               0.00     0.00 10782.80    0.00 43131.20     0.00     8.00     1.13    0.10    0.10    0.00   0.07  78.52
sdb               0.00     0.00 10838.00    0.00 43352.00     0.00     8.00     1.20    0.11    0.11    0.00   0.07  80.41
sdc               0.00     0.00 10818.95    0.00 43275.80     0.00     8.00     1.20    0.11    0.11    0.00   0.07  80.96
sdd               0.00     0.00 10844.85    0.00 43379.40     0.00     8.00     1.21    0.11    0.11    0.00   0.08  81.71
sde               0.00     0.00 10807.35    0.00 43229.40     0.00     8.00     1.20    0.11    0.11    0.00   0.08  81.55
sdf               0.00     0.00 10765.55    0.00 43062.20     0.00     8.00     1.20    0.11    0.11    0.00   0.08  81.33
sdg               0.00     0.10    1.85   71.10    14.00   368.20    10.48     0.42    5.81    0.24    5.96   0.05   0.35
sdh               0.00     0.00    0.00    0.00     0.00     0.00     0.00     0.00    0.00    0.00    0.00   0.00   0.00
md0               0.00     0.00 64857.00    0.00 259428.00     0.00     8.00     0.00    0.00    0.00    0.00   0.00   0.00

