Linux 4.17.2 (bench) 	08/03/2018 	_x86_64_	(4 CPU)

avg-cpu:  %user   %nice %system %iowait  %steal   %idle
          10.30    0.02    3.95    2.37    0.00   83.36

Device:         rrqm/s   wrqm/s     r/s     w/s    rkB/s    wkB/s avgrq-sz avgqu-sz   await r_await w_await  svctm  %util
sda              37.42     4.30 1576.98  104.16 20492.52  3178.44    28.16     1.02    0.61    0.26    5.91   0.06  10.38
sdb              37.32     4.26 1576.85  104.30 20481.80  3175.05    28.14     1.02    0.61    0.26    5.85   0.06  10.26
sdc              75.60     4.32 1536.49  103.84 20473.99  3177.55    28.84     1.44    0.88    0.46    7.12   0.08  13.68
sdd              68.90     4.29 1542.35  103.91 20458.56  3173.68    28.71     1.45    0.88    0.44    7.32   0.08  13.77
sde              70.98     4.34 1547.53  104.01 20519.70  3178.00    28.70     1.47    0.89    0.45    7.43   0.08  13.79
sdf              68.06     4.31 1549.71  103.95 20500.57  3174.81    28.63     1.51    0.91    0.45    7.90   0.08  13.82
sdg               0.00     3.18   25.69   73.38   321.50   392.02    14.40     0.44    4.45    0.20    5.93   0.08   0.77
sdh               0.00     0.13    0.02    0.24     2.25     5.14    56.82     0.00    1.15    0.65    1.19   0.21   0.01
md0               0.00     0.00 9694.10  487.95 140273.07 21763.45    31.83     0.00    0.00    0.00    0.00   0.00   0.00

avg-cpu:  %user   %nice %system %iowait  %steal   %idle
           1.51    0.03   11.12   42.42    0.00   44.93

Device:         rrqm/s   wrqm/s     r/s     w/s    rkB/s    wkB/s avgrq-sz avgqu-sz   await r_await w_await  svctm  %util
sda               0.00     0.00 6032.95    0.00 24131.80     0.00     8.00     0.76    0.13    0.13    0.00   0.05  31.76
sdb               0.00     0.00 6031.25    0.00 24125.00     0.00     8.00     0.75    0.12    0.12    0.00   0.05  31.54
sdc               0.00     0.00 5976.75    0.00 23907.00     0.00     8.00     0.79    0.13    0.13    0.00   0.05  32.44
sdd               0.00     0.00 5993.40    0.00 23973.60     0.00     8.00     0.80    0.13    0.13    0.00   0.06  33.23
sde               0.00     0.00 5984.25    0.00 23937.00     0.00     8.00     0.88    0.15    0.15    0.00   0.06  37.41
sdf               0.00     0.00 6025.35    0.00 24101.40     0.00     8.00     0.83    0.14    0.14    0.00   0.06  33.59
sdg               0.00     8.45   68.75  187.95   292.80   976.00     9.89     1.23    4.79    0.13    6.49   0.07   1.85
sdh               0.00     0.00    0.00    0.00     0.00     0.00     0.00     0.00    0.00    0.00    0.00   0.00   0.00
md0               0.00     0.00 36044.40    0.00 144177.60     0.00     8.00     0.00    0.00    0.00    0.00   0.00   0.00

