Linux 4.17.2 (bench) 	08/03/2018 	_x86_64_	(4 CPU)

avg-cpu:  %user   %nice %system %iowait  %steal   %idle
          10.28    0.02    4.05    2.54    0.00   83.11

Device:         rrqm/s   wrqm/s     r/s     w/s    rkB/s    wkB/s avgrq-sz avgqu-sz   await r_await w_await  svctm  %util
sda              44.31     4.24 1643.34  102.75 20861.88  3135.40    27.49     1.03    0.59    0.26    5.91   0.06  10.68
sdb              44.18     4.21 1643.26  102.88 20851.26  3132.05    27.47     1.03    0.59    0.26    5.85   0.06  10.56
sdc              82.14     4.26 1603.20  102.43 20843.41  3134.52    28.12     1.45    0.85    0.45    7.12   0.08  14.01
sdd              75.55     4.23 1608.97  102.50 20828.25  3130.71    28.00     1.46    0.85    0.44    7.32   0.08  14.10
sde              77.59     4.28 1614.05  102.60 20888.24  3134.96    27.99     1.48    0.86    0.44    7.43   0.08  14.12
sdf              74.70     4.25 1616.21  102.55 20869.43  3131.82    27.93     1.52    0.88    0.44    7.90   0.08  14.15
sdg               0.00     3.17   26.19   73.30   323.49   391.94    14.38     0.44    4.42    0.20    5.93   0.08   0.78
sdh               0.00     0.13    0.02    0.24     2.22     5.07    56.82     0.00    1.15    0.65    1.19   0.21   0.01
md0               0.00     0.00 10134.02  481.34 142864.90 21468.75    30.96     0.00    0.00    0.00    0.00   0.00   0.00

avg-cpu:  %user   %nice %system %iowait  %steal   %idle
           1.51    0.00   16.12    5.04    0.00   77.33

Device:         rrqm/s   wrqm/s     r/s     w/s    rkB/s    wkB/s avgrq-sz avgqu-sz   await r_await w_await  svctm  %util
sda               0.00     0.00 9644.00    0.00 38576.00     0.00     8.00     1.62    0.17    0.17    0.00   0.02  21.90
sdb               0.00     0.00 9842.00    0.00 39368.00     0.00     8.00     1.89    0.19    0.19    0.00   0.02  22.10
sdc               0.00     0.00 9877.00    0.00 39508.00     0.00     8.00     2.48    0.25    0.25    0.00   0.03  29.70
sdd               0.00     0.00 10700.00    0.00 42800.00     0.00     8.00     2.58    0.24    0.24    0.00   0.03  28.50
sde               0.00     0.00 10843.00    0.00 43372.00     0.00     8.00     2.95    0.27    0.27    0.00   0.03  30.30
sdf               0.00     0.00 10236.00    0.00 40944.00     0.00     8.00     2.73    0.27    0.27    0.00   0.03  30.70
sdg               0.00     0.00    2.00    0.00    20.00     0.00    20.00     0.00    0.00    0.00    0.00   0.00   0.00
sdh               0.00     0.00    0.00    0.00     0.00     0.00     0.00     0.00    0.00    0.00    0.00   0.00   0.00
md0               0.00     0.00 61151.00    0.00 244604.00     0.00     8.00     0.00    0.00    0.00    0.00   0.00   0.00

avg-cpu:  %user   %nice %system %iowait  %steal   %idle
           1.00    0.00   18.00    4.00    0.00   77.00

Device:         rrqm/s   wrqm/s     r/s     w/s    rkB/s    wkB/s avgrq-sz avgqu-sz   await r_await w_await  svctm  %util
sda               0.00     0.00 10252.00    0.00 41008.00     0.00     8.00     2.11    0.21    0.21    0.00   0.02  24.20
sdb               0.00     0.00 10075.00    0.00 40300.00     0.00     8.00     2.00    0.20    0.20    0.00   0.02  25.00
sdc               0.00     0.00 10275.00    0.00 41100.00     0.00     8.00     2.40    0.23    0.23    0.00   0.03  28.70
sdd               0.00     0.00 11092.00    0.00 44368.00     0.00     8.00     2.67    0.24    0.24    0.00   0.03  29.60
sde               0.00     0.00 10236.00    0.00 40944.00     0.00     8.00     2.36    0.23    0.23    0.00   0.03  27.70
sdf               0.00     0.00 10451.00    0.00 41804.00     0.00     8.00     2.64    0.25    0.25    0.00   0.03  29.40
sdg               0.00     0.00    0.00    0.00     0.00     0.00     0.00     0.00    0.00    0.00    0.00   0.00   0.00
sdh               0.00     0.00    0.00    0.00     0.00     0.00     0.00     0.00    0.00    0.00    0.00   0.00   0.00
md0               0.00     0.00 62383.00    0.00 249532.00     0.00     8.00     0.00    0.00    0.00    0.00   0.00   0.00

avg-cpu:  %user   %nice %system %iowait  %steal   %idle
           1.25    0.00   17.04    4.26    0.00   77.44

Device:         rrqm/s   wrqm/s     r/s     w/s    rkB/s    wkB/s avgrq-sz avgqu-sz   await r_await w_await  svctm  %util
sda               0.00     0.00 11084.00    0.00 44336.00     0.00     8.00     2.29    0.21    0.21    0.00   0.02  23.00
sdb               0.00     0.00 10555.00    0.00 42220.00     0.00     8.00     2.01    0.19    0.19    0.00   0.02  21.40
sdc               0.00     0.00 11044.00    0.00 44176.00     0.00     8.00     2.56    0.23    0.23    0.00   0.03  28.90
sdd               0.00     0.00 10969.00    0.00 43876.00     0.00     8.00     2.89    0.26    0.26    0.00   0.03  30.20
sde               0.00     0.00 10809.00    0.00 43236.00     0.00     8.00     2.92    0.27    0.27    0.00   0.03  30.50
sdf               0.00     0.00 10550.00    0.00 42200.00     0.00     8.00     2.75    0.26    0.26    0.00   0.03  29.90
sdg               0.00     0.00    0.00    0.00     0.00     0.00     0.00     0.00    0.00    0.00    0.00   0.00   0.00
sdh               0.00     0.00    0.00    0.00     0.00     0.00     0.00     0.00    0.00    0.00    0.00   0.00   0.00
md0               0.00     0.00 65012.00    0.00 260048.00     0.00     8.00     0.00    0.00    0.00    0.00   0.00   0.00

avg-cpu:  %user   %nice %system %iowait  %steal   %idle
           1.26    0.00   16.88    4.28    0.00   77.58

Device:         rrqm/s   wrqm/s     r/s     w/s    rkB/s    wkB/s avgrq-sz avgqu-sz   await r_await w_await  svctm  %util
sda               0.00     0.00 10987.00    0.00 43948.00     0.00     8.00     2.21    0.20    0.20    0.00   0.02  23.30
sdb               0.00     0.00 11016.00    0.00 44064.00     0.00     8.00     1.98    0.18    0.18    0.00   0.02  22.60
sdc               0.00     0.00 11211.00    0.00 44844.00     0.00     8.00     2.85    0.25    0.25    0.00   0.03  30.30
sdd               0.00     0.00 10862.00    0.00 43448.00     0.00     8.00     2.80    0.26    0.26    0.00   0.03  30.30
sde               0.00     0.00 11083.00    0.00 44332.00     0.00     8.00     2.87    0.26    0.26    0.00   0.03  30.50
sdf               0.00     0.00 10335.00    0.00 41340.00     0.00     8.00     2.39    0.23    0.23    0.00   0.03  28.00
sdg               0.00     0.00    0.00    0.00     0.00     0.00     0.00     0.00    0.00    0.00    0.00   0.00   0.00
sdh               0.00     0.00    0.00    0.00     0.00     0.00     0.00     0.00    0.00    0.00    0.00   0.00   0.00
md0               0.00     0.00 65510.00    0.00 262040.00     0.00     8.00     0.00    0.00    0.00    0.00   0.00   0.00

avg-cpu:  %user   %nice %system %iowait  %steal   %idle
           1.27    0.25   16.46    4.56    0.00   77.47

Device:         rrqm/s   wrqm/s     r/s     w/s    rkB/s    wkB/s avgrq-sz avgqu-sz   await r_await w_await  svctm  %util
sda               0.00     0.00 10246.00    0.00 40984.00     0.00     8.00     1.89    0.18    0.18    0.00   0.02  21.80
sdb               0.00     0.00 10401.00    0.00 41604.00     0.00     8.00     1.73    0.17    0.17    0.00   0.02  20.90
sdc               0.00     0.00 10756.00    0.00 43024.00     0.00     8.00     2.83    0.26    0.26    0.00   0.03  30.50
sdd               0.00     0.00 11428.00    0.00 45712.00     0.00     8.00     2.98    0.26    0.26    0.00   0.03  32.90
sde               0.00     0.00 11037.00    0.00 44148.00     0.00     8.00     3.01    0.27    0.27    0.00   0.03  31.00
sdf               0.00     0.00 10732.00    0.00 42928.00     0.00     8.00     2.67    0.25    0.25    0.00   0.03  28.40
sdg               0.00     0.00   17.00    0.00   116.00     0.00    13.65     0.00    0.12    0.12    0.00   0.12   0.20
sdh               0.00     0.00    0.00    0.00     0.00     0.00     0.00     0.00    0.00    0.00    0.00   0.00   0.00
md0               0.00     0.00 64601.00    0.00 258404.00     0.00     8.00     0.00    0.00    0.00    0.00   0.00   0.00

avg-cpu:  %user   %nice %system %iowait  %steal   %idle
           1.52    0.00   16.16    4.29    0.00   78.03

Device:         rrqm/s   wrqm/s     r/s     w/s    rkB/s    wkB/s avgrq-sz avgqu-sz   await r_await w_await  svctm  %util
sda               0.00     0.00 10340.00    0.00 41360.00     0.00     8.00     1.99    0.19    0.19    0.00   0.02  23.60
sdb               0.00     0.00 10468.00    0.00 41872.00     0.00     8.00     1.94    0.18    0.18    0.00   0.02  22.40
sdc               0.00     0.00 10534.00    0.00 42136.00     0.00     8.00     2.56    0.24    0.24    0.00   0.03  29.20
sdd               0.00     0.00 10502.00    0.00 42008.00     0.00     8.00     2.41    0.23    0.23    0.00   0.03  28.70
sde               0.00     0.00 10145.00    0.00 40580.00     0.00     8.00     2.25    0.22    0.22    0.00   0.03  26.90
sdf               0.00     0.00 10551.00    0.00 42204.00     0.00     8.00     2.56    0.24    0.24    0.00   0.03  27.30
sdg               0.00     0.00    0.00    0.00     0.00     0.00     0.00     0.00    0.00    0.00    0.00   0.00   0.00
sdh               0.00     0.00    0.00    0.00     0.00     0.00     0.00     0.00    0.00    0.00    0.00   0.00   0.00
md0               0.00     0.00 62526.00    0.00 250104.00     0.00     8.00     0.00    0.00    0.00    0.00   0.00   0.00

avg-cpu:  %user   %nice %system %iowait  %steal   %idle
           1.25    0.00   17.25    4.25    0.00   77.25

Device:         rrqm/s   wrqm/s     r/s     w/s    rkB/s    wkB/s avgrq-sz avgqu-sz   await r_await w_await  svctm  %util
sda               0.00     0.00 10534.00    0.00 42136.00     0.00     8.00     2.19    0.21    0.21    0.00   0.02  24.10
sdb               0.00     0.00 10811.00    0.00 43244.00     0.00     8.00     1.93    0.18    0.18    0.00   0.02  24.40
sdc               0.00     0.00 10098.00    0.00 40392.00     0.00     8.00     2.33    0.23    0.23    0.00   0.03  29.40
sdd               0.00     0.00 9694.00    0.00 38776.00     0.00     8.00     2.34    0.24    0.24    0.00   0.03  28.10
sde               0.00     0.00 9990.00    0.00 39960.00     0.00     8.00     2.27    0.23    0.23    0.00   0.03  27.80
sdf               0.00     0.00 10094.00    0.00 40376.00     0.00     8.00     2.29    0.23    0.23    0.00   0.03  27.20
sdg               0.00     0.00    0.00    0.00     0.00     0.00     0.00     0.00    0.00    0.00    0.00   0.00   0.00
sdh               0.00     0.00    0.00    0.00     0.00     0.00     0.00     0.00    0.00    0.00    0.00   0.00   0.00
md0               0.00     0.00 61216.00    0.00 244864.00     0.00     8.00     0.00    0.00    0.00    0.00   0.00   0.00

avg-cpu:  %user   %nice %system %iowait  %steal   %idle
           1.75    0.00   16.50    4.25    0.00   77.50

Device:         rrqm/s   wrqm/s     r/s     w/s    rkB/s    wkB/s avgrq-sz avgqu-sz   await r_await w_await  svctm  %util
sda               0.00     0.00 11067.00    0.00 44268.00     0.00     8.00     2.05    0.18    0.18    0.00   0.02  24.70
sdb               0.00     0.00 10479.00    0.00 41916.00     0.00     8.00     2.02    0.19    0.19    0.00   0.02  24.40
sdc               0.00     0.00 10290.00    0.00 41160.00     0.00     8.00     2.48    0.24    0.24    0.00   0.03  27.70
sdd               0.00     0.00 10482.00    0.00 41928.00     0.00     8.00     2.67    0.25    0.25    0.00   0.03  29.00
sde               0.00     0.00 9976.00    0.00 39904.00     0.00     8.00     2.26    0.23    0.23    0.00   0.03  26.70
sdf               0.00     0.00 10770.00    0.00 43080.00     0.00     8.00     2.45    0.23    0.23    0.00   0.03  28.50
sdg               0.00     0.00    0.00    0.00     0.00     0.00     0.00     0.00    0.00    0.00    0.00   0.00   0.00
sdh               0.00     0.00    0.00    0.00     0.00     0.00     0.00     0.00    0.00    0.00    0.00   0.00   0.00
md0               0.00     0.00 63084.00    0.00 252336.00     0.00     8.00     0.00    0.00    0.00    0.00   0.00   0.00

avg-cpu:  %user   %nice %system %iowait  %steal   %idle
           1.52    0.00   15.44    5.06    0.00   77.97

Device:         rrqm/s   wrqm/s     r/s     w/s    rkB/s    wkB/s avgrq-sz avgqu-sz   await r_await w_await  svctm  %util
sda               0.00     0.00 10194.00    0.00 40776.00     0.00     8.00     1.81    0.18    0.18    0.00   0.02  23.20
sdb               0.00     0.00 10249.00    0.00 40996.00     0.00     8.00     1.93    0.19    0.19    0.00   0.02  21.90
sdc               0.00     0.00 10144.00    0.00 40576.00     0.00     8.00     2.48    0.24    0.24    0.00   0.03  28.20
sdd               0.00     0.00 10842.00    0.00 43368.00     0.00     8.00     2.44    0.22    0.22    0.00   0.03  29.20
sde               0.00     0.00 10590.00    0.00 42360.00     0.00     8.00     2.73    0.26    0.26    0.00   0.03  29.60
sdf               0.00     0.00 10892.00    0.00 43568.00     0.00     8.00     2.47    0.22    0.22    0.00   0.03  28.80
sdg               0.00     0.00    0.00    0.00     0.00     0.00     0.00     0.00    0.00    0.00    0.00   0.00   0.00
sdh               0.00     0.00    0.00    0.00     0.00     0.00     0.00     0.00    0.00    0.00    0.00   0.00   0.00
md0               0.00     0.00 62910.00    0.00 251640.00     0.00     8.00     0.00    0.00    0.00    0.00   0.00   0.00

avg-cpu:  %user   %nice %system %iowait  %steal   %idle
           1.24    0.00   17.62    4.47    0.00   76.67

Device:         rrqm/s   wrqm/s     r/s     w/s    rkB/s    wkB/s avgrq-sz avgqu-sz   await r_await w_await  svctm  %util
sda               0.00     0.00 10929.00    0.00 43716.00     0.00     8.00     1.95    0.18    0.18    0.00   0.02  24.00
sdb               0.00     0.00 10265.00    0.00 41060.00     0.00     8.00     1.73    0.17    0.17    0.00   0.02  20.70
sdc               0.00     0.00 10288.00    0.00 41152.00     0.00     8.00     2.41    0.23    0.23    0.00   0.03  28.40
sdd               0.00     0.00 10614.00    0.00 42456.00     0.00     8.00     2.52    0.24    0.24    0.00   0.03  29.90
sde               0.00     0.00 10475.00    0.00 41900.00     0.00     8.00     2.63    0.25    0.25    0.00   0.03  30.70
sdf               0.00     0.00 10839.00    0.00 43356.00     0.00     8.00     2.85    0.26    0.26    0.00   0.03  32.80
sdg               0.00     0.00    0.00    0.00     0.00     0.00     0.00     0.00    0.00    0.00    0.00   0.00   0.00
sdh               0.00     0.00    0.00    0.00     0.00     0.00     0.00     0.00    0.00    0.00    0.00   0.00   0.00
md0               0.00     0.00 63389.00    0.00 253556.00     0.00     8.00     0.00    0.00    0.00    0.00   0.00   0.00

avg-cpu:  %user   %nice %system %iowait  %steal   %idle
           1.25    0.00   17.00    4.25    0.00   77.50

Device:         rrqm/s   wrqm/s     r/s     w/s    rkB/s    wkB/s avgrq-sz avgqu-sz   await r_await w_await  svctm  %util
sda               0.00     0.00 10374.00    0.00 41496.00     0.00     8.00     1.84    0.18    0.18    0.00   0.02  22.30
sdb               0.00     0.00 10124.00    0.00 40496.00     0.00     8.00     1.73    0.17    0.17    0.00   0.02  20.60
sdc               0.00     0.00 9693.00    0.00 38772.00     0.00     8.00     2.33    0.24    0.24    0.00   0.03  27.70
sdd               0.00     0.00 10096.00    0.00 40388.00     0.00     8.00     2.31    0.22    0.22    0.00   0.03  28.40
sde               0.00     0.00 10167.00    0.00 40668.00     0.00     8.00     2.27    0.22    0.22    0.00   0.03  27.70
sdf               0.00     0.00 10123.00    0.00 40492.00     0.00     8.00     2.48    0.25    0.25    0.00   0.03  30.00
sdg               0.00     0.00    0.00    0.00     0.00     0.00     0.00     0.00    0.00    0.00    0.00   0.00   0.00
sdh               0.00     0.00    0.00    0.00     0.00     0.00     0.00     0.00    0.00    0.00    0.00   0.00   0.00
md0               0.00     0.00 60596.00    0.00 242384.00     0.00     8.00     0.00    0.00    0.00    0.00   0.00   0.00

avg-cpu:  %user   %nice %system %iowait  %steal   %idle
           1.26    0.00   16.62    4.03    0.00   78.09

Device:         rrqm/s   wrqm/s     r/s     w/s    rkB/s    wkB/s avgrq-sz avgqu-sz   await r_await w_await  svctm  %util
sda               0.00     0.00 9747.00    0.00 38988.00     0.00     8.00     1.67    0.17    0.17    0.00   0.02  22.50
sdb               0.00     0.00 10111.00    0.00 40444.00     0.00     8.00     1.70    0.17    0.17    0.00   0.02  21.90
sdc               0.00     0.00 10256.00    0.00 41024.00     0.00     8.00     2.34    0.23    0.23    0.00   0.03  28.50
sdd               0.00     0.00 9991.00    0.00 39960.00     0.00     8.00     2.17    0.22    0.22    0.00   0.03  26.90
sde               0.00     0.00 9458.00    0.00 37836.00     0.00     8.00     2.14    0.23    0.23    0.00   0.03  26.60
sdf               0.00     0.00 9916.00    0.00 39664.00     0.00     8.00     2.24    0.23    0.23    0.00   0.03  26.50
sdg               0.00     0.00    0.00    0.00     0.00     0.00     0.00     0.00    0.00    0.00    0.00   0.00   0.00
sdh               0.00     0.00    0.00    0.00     0.00     0.00     0.00     0.00    0.00    0.00    0.00   0.00   0.00
md0               0.00     0.00 59473.00    0.00 237892.00     0.00     8.00     0.00    0.00    0.00    0.00   0.00   0.00

avg-cpu:  %user   %nice %system %iowait  %steal   %idle
           1.26    0.00   16.12    4.03    0.00   78.59

Device:         rrqm/s   wrqm/s     r/s     w/s    rkB/s    wkB/s avgrq-sz avgqu-sz   await r_await w_await  svctm  %util
sda               0.00     0.00 10533.00    0.00 42132.00     0.00     8.00     2.06    0.20    0.20    0.00   0.02  22.70
sdb               0.00     0.00 11095.00    0.00 44380.00     0.00     8.00     1.89    0.17    0.17    0.00   0.02  22.90
sdc               0.00     0.00 10186.00    0.00 40744.00     0.00     8.00     2.44    0.24    0.24    0.00   0.03  29.50
sdd               0.00     0.00 9881.00    0.00 39524.00     0.00     8.00     2.40    0.24    0.24    0.00   0.03  30.10
sde               0.00     0.00 10007.00    0.00 40024.00     0.00     8.00     2.19    0.22    0.22    0.00   0.03  27.10
sdf               0.00     0.00 10128.00    0.00 40512.00     0.00     8.00     2.42    0.24    0.24    0.00   0.03  30.10
sdg               0.00     0.00    0.00    0.00     0.00     0.00     0.00     0.00    0.00    0.00    0.00   0.00   0.00
sdh               0.00     0.00    0.00    0.00     0.00     0.00     0.00     0.00    0.00    0.00    0.00   0.00   0.00
md0               0.00     0.00 61838.00    0.00 247352.00     0.00     8.00     0.00    0.00    0.00    0.00   0.00   0.00

avg-cpu:  %user   %nice %system %iowait  %steal   %idle
           1.25    0.00   17.21    4.74    0.00   76.81

Device:         rrqm/s   wrqm/s     r/s     w/s    rkB/s    wkB/s avgrq-sz avgqu-sz   await r_await w_await  svctm  %util
sda               0.00     0.00 10296.00    0.00 41184.00     0.00     8.00     2.04    0.20    0.20    0.00   0.02  24.00
sdb               0.00     0.00 9452.00    0.00 37808.00     0.00     8.00     1.88    0.20    0.20    0.00   0.02  22.90
sdc               0.00     0.00 10439.00    0.00 41756.00     0.00     8.00     2.69    0.25    0.25    0.00   0.03  30.20
sdd               0.00     0.00 10225.00    0.00 40900.00     0.00     8.00     2.68    0.26    0.26    0.00   0.03  31.40
sde               0.00     0.00 10272.00    0.00 41088.00     0.00     8.00     2.50    0.24    0.24    0.00   0.03  30.20
sdf               0.00     0.00 10464.00    0.00 41856.00     0.00     8.00     2.46    0.24    0.24    0.00   0.03  28.80
sdg               0.00     0.00    0.00    0.00     0.00     0.00     0.00     0.00    0.00    0.00    0.00   0.00   0.00
sdh               0.00     0.00    0.00    0.00     0.00     0.00     0.00     0.00    0.00    0.00    0.00   0.00   0.00
md0               0.00     0.00 61138.00    0.00 244552.00     0.00     8.00     0.00    0.00    0.00    0.00   0.00   0.00

avg-cpu:  %user   %nice %system %iowait  %steal   %idle
           1.50    0.00   17.25    4.25    0.00   77.00

Device:         rrqm/s   wrqm/s     r/s     w/s    rkB/s    wkB/s avgrq-sz avgqu-sz   await r_await w_await  svctm  %util
sda               0.00     0.00 10088.00    0.00 40352.00     0.00     8.00     1.55    0.15    0.15    0.00   0.02  21.10
sdb               0.00     0.00 10661.00    0.00 42644.00     0.00     8.00     2.12    0.20    0.20    0.00   0.02  22.90
sdc               0.00     0.00 10762.00    0.00 43048.00     0.00     8.00     2.65    0.25    0.25    0.00   0.03  30.50
sdd               0.00     0.00 10022.00    0.00 40088.00     0.00     8.00     2.32    0.23    0.23    0.00   0.03  29.00
sde               0.00     0.00 9899.00    0.00 39596.00     0.00     8.00     2.48    0.25    0.25    0.00   0.03  27.40
sdf               0.00     0.00 9967.00    0.00 39868.00     0.00     8.00     2.33    0.23    0.23    0.00   0.03  27.00
sdg               0.00     0.00    3.00    0.00    12.00     0.00     8.00     0.00    0.33    0.33    0.00   0.33   0.10
sdh               0.00     0.00    0.00    0.00     0.00     0.00     0.00     0.00    0.00    0.00    0.00   0.00   0.00
md0               0.00     0.00 61400.00    0.00 245600.00     0.00     8.00     0.00    0.00    0.00    0.00   0.00   0.00

avg-cpu:  %user   %nice %system %iowait  %steal   %idle
           1.51    0.00   16.08    5.03    0.00   77.39

Device:         rrqm/s   wrqm/s     r/s     w/s    rkB/s    wkB/s avgrq-sz avgqu-sz   await r_await w_await  svctm  %util
sda               0.00     0.00 10012.00    0.00 40048.00     0.00     8.00     1.55    0.16    0.16    0.00   0.02  21.20
sdb               0.00     0.00 10111.00    0.00 40444.00     0.00     8.00     1.60    0.16    0.16    0.00   0.02  23.60
sdc               0.00     0.00 9458.00    0.00 37832.00     0.00     8.00     2.01    0.21    0.21    0.00   0.03  26.10
sdd               0.00     0.00 9716.00    0.00 38864.00     0.00     8.00     2.17    0.22    0.22    0.00   0.03  26.50
sde               0.00     0.00 9328.00    0.00 37312.00     0.00     8.00     2.38    0.25    0.25    0.00   0.03  30.10
sdf               0.00     0.00 9422.00    0.00 37688.00     0.00     8.00     2.04    0.22    0.22    0.00   0.03  27.20
sdg               0.00     0.00    0.00    0.00     0.00     0.00     0.00     0.00    0.00    0.00    0.00   0.00   0.00
sdh               0.00     0.00    0.00    0.00     0.00     0.00     0.00     0.00    0.00    0.00    0.00   0.00   0.00
md0               0.00     0.00 58033.00    0.00 232132.00     0.00     8.00     0.00    0.00    0.00    0.00   0.00   0.00

avg-cpu:  %user   %nice %system %iowait  %steal   %idle
           1.03    0.00   14.91    4.63    0.00   79.43

Device:         rrqm/s   wrqm/s     r/s     w/s    rkB/s    wkB/s avgrq-sz avgqu-sz   await r_await w_await  svctm  %util
sda               0.00     0.00 9839.00    0.00 39356.00     0.00     8.00     1.65    0.17    0.17    0.00   0.02  23.10
sdb               0.00     0.00 9209.00    0.00 36836.00     0.00     8.00     1.58    0.17    0.17    0.00   0.02  21.60
sdc               0.00     0.00 9502.00    0.00 38008.00     0.00     8.00     2.05    0.22    0.22    0.00   0.03  27.20
sdd               0.00     0.00 9751.00    0.00 39004.00     0.00     8.00     2.15    0.22    0.22    0.00   0.03  27.80
sde               0.00     0.00 9356.00    0.00 37424.00     0.00     8.00     2.18    0.23    0.23    0.00   0.03  28.50
sdf               0.00     0.00 10271.00    0.00 41084.00     0.00     8.00     2.47    0.24    0.24    0.00   0.03  29.10
sdg               0.00     0.00    0.00    0.00     0.00     0.00     0.00     0.00    0.00    0.00    0.00   0.00   0.00
sdh               0.00     0.00    0.00    0.00     0.00     0.00     0.00     0.00    0.00    0.00    0.00   0.00   0.00
md0               0.00     0.00 57926.00    0.00 231704.00     0.00     8.00     0.00    0.00    0.00    0.00   0.00   0.00

avg-cpu:  %user   %nice %system %iowait  %steal   %idle
           1.74    0.00   16.92    4.48    0.00   76.87

Device:         rrqm/s   wrqm/s     r/s     w/s    rkB/s    wkB/s avgrq-sz avgqu-sz   await r_await w_await  svctm  %util
sda               0.00     0.00 10036.00    0.00 40144.00     0.00     8.00     1.75    0.17    0.17    0.00   0.02  22.40
sdb               0.00     0.00 9841.00    0.00 39364.00     0.00     8.00     1.60    0.16    0.16    0.00   0.02  20.70
sdc               0.00     0.00 10238.00    0.00 40952.00     0.00     8.00     2.32    0.22    0.22    0.00   0.03  28.00
sdd               0.00     0.00 9802.00    0.00 39208.00     0.00     8.00     2.26    0.23    0.23    0.00   0.03  27.80
sde               0.00     0.00 9822.00    0.00 39288.00     0.00     8.00     2.21    0.22    0.22    0.00   0.03  25.80
sdf               0.00     0.00 9793.00    0.00 39172.00     0.00     8.00     2.47    0.25    0.25    0.00   0.03  30.20
sdg               0.00     0.00    0.00    0.00     0.00     0.00     0.00     0.00    0.00    0.00    0.00   0.00   0.00
sdh               0.00     0.00    0.00    0.00     0.00     0.00     0.00     0.00    0.00    0.00    0.00   0.00   0.00
md0               0.00     0.00 59550.00    0.00 238200.00     0.00     8.00     0.00    0.00    0.00    0.00   0.00   0.00

avg-cpu:  %user   %nice %system %iowait  %steal   %idle
           1.01    0.00   16.41    4.55    0.00   78.03

Device:         rrqm/s   wrqm/s     r/s     w/s    rkB/s    wkB/s avgrq-sz avgqu-sz   await r_await w_await  svctm  %util
sda               0.00     0.00 9861.00    0.00 39444.00     0.00     8.00     1.91    0.19    0.19    0.00   0.02  23.40
sdb               0.00     0.00 9958.00    0.00 39832.00     0.00     8.00     1.77    0.18    0.18    0.00   0.02  23.10
sdc               0.00     0.00 9792.00    0.00 39168.00     0.00     8.00     1.98    0.20    0.20    0.00   0.03  24.60
sdd               0.00     0.00 9896.00    0.00 39584.00     0.00     8.00     2.10    0.21    0.21    0.00   0.03  27.40
sde               0.00     0.00 10526.00    0.00 42104.00     0.00     8.00     2.65    0.25    0.25    0.00   0.03  30.80
sdf               0.00     0.00 9313.00    0.00 37252.00     0.00     8.00     2.17    0.23    0.23    0.00   0.03  29.00
sdg               0.00     0.00    1.00    3.00     4.00    20.00    12.00     0.00    0.00    0.00    0.00   0.00   0.00
sdh               0.00     0.00    0.00    0.00     0.00     0.00     0.00     0.00    0.00    0.00    0.00   0.00   0.00
md0               0.00     0.00 59348.00    0.00 237392.00     0.00     8.00     0.00    0.00    0.00    0.00   0.00   0.00

avg-cpu:  %user   %nice %system %iowait  %steal   %idle
           1.52    0.00   15.40    4.80    0.00   78.28

Device:         rrqm/s   wrqm/s     r/s     w/s    rkB/s    wkB/s avgrq-sz avgqu-sz   await r_await w_await  svctm  %util
sda               0.00     0.00 9647.00    0.00 38588.00     0.00     8.00     1.85    0.19    0.19    0.00   0.02  22.00
sdb               0.00     0.00 9321.00    0.00 37284.00     0.00     8.00     1.57    0.17    0.17    0.00   0.02  22.00
sdc               0.00     0.00 9067.00    0.00 36268.00     0.00     8.00     2.06    0.23    0.23    0.00   0.03  25.70
sdd               0.00     0.00 9405.00    0.00 37620.00     0.00     8.00     2.24    0.24    0.24    0.00   0.03  28.30
sde               0.00     0.00 9955.00    0.00 39820.00     0.00     8.00     2.07    0.21    0.21    0.00   0.03  28.10
sdf               0.00     0.00 9478.00    0.00 37912.00     0.00     8.00     2.35    0.25    0.25    0.00   0.03  28.10
sdg               0.00     0.00    0.00    0.00     0.00     0.00     0.00     0.00    0.00    0.00    0.00   0.00   0.00
sdh               0.00     0.00    0.00    0.00     0.00     0.00     0.00     0.00    0.00    0.00    0.00   0.00   0.00
md0               0.00     0.00 56856.00    0.00 227424.00     0.00     8.00     0.00    0.00    0.00    0.00   0.00   0.00

