Linux 4.17.2 (bench) 	08/03/2018 	_x86_64_	(4 CPU)

avg-cpu:  %user   %nice %system %iowait  %steal   %idle
          10.28    0.02    4.04    2.54    0.00   83.12

Device:         rrqm/s   wrqm/s     r/s     w/s    rkB/s    wkB/s avgrq-sz avgqu-sz   await r_await w_await  svctm  %util
sda              44.32     4.25 1641.08  102.79 20851.29  3136.86    27.51     1.03    0.59    0.26    5.91   0.06  10.67
sdb              44.19     4.21 1641.00  102.93 20840.71  3133.52    27.49     1.03    0.59    0.26    5.85   0.06  10.55
sdc              82.18     4.27 1600.93  102.48 20832.86  3135.99    28.14     1.45    0.85    0.45    7.12   0.08  14.00
sdd              75.57     4.24 1606.70  102.55 20817.69  3132.17    28.02     1.46    0.85    0.44    7.32   0.08  14.09
sde              77.62     4.28 1611.78  102.65 20877.71  3136.43    28.01     1.48    0.86    0.44    7.43   0.08  14.11
sdf              74.72     4.25 1613.94  102.59 20858.87  3133.28    27.95     1.52    0.89    0.44    7.90   0.08  14.14
sdg               0.00     3.17   26.18   73.31   323.43   391.95    14.38     0.44    4.42    0.20    5.93   0.08   0.78
sdh               0.00     0.13    0.02    0.24     2.22     5.08    56.82     0.00    1.15    0.65    1.19   0.21   0.01
md0               0.00     0.00 10120.55  481.56 142794.51 21478.78    30.99     0.00    0.00    0.00    0.00   0.00   0.00

avg-cpu:  %user   %nice %system %iowait  %steal   %idle
           0.75    0.00   11.03    5.76    0.00   82.46

Device:         rrqm/s   wrqm/s     r/s     w/s    rkB/s    wkB/s avgrq-sz avgqu-sz   await r_await w_await  svctm  %util
sda               0.00     0.00 5800.00    0.00 23200.00     0.00     8.00     0.79    0.14    0.14    0.00   0.03  16.50
sdb               0.00     0.00 5443.00    0.00 21772.00     0.00     8.00     0.76    0.14    0.14    0.00   0.03  14.50
sdc               0.00     0.00 5640.00    0.00 22560.00     0.00     8.00     0.86    0.15    0.15    0.00   0.03  17.80
sdd               0.00     0.00 5874.00    0.00 23496.00     0.00     8.00     0.86    0.15    0.15    0.00   0.03  18.20
sde               0.00     0.00 5628.00    0.00 22512.00     0.00     8.00     0.89    0.16    0.16    0.00   0.03  17.90
sdf               0.00     0.00 5601.00    0.00 22404.00     0.00     8.00     0.83    0.15    0.15    0.00   0.03  17.20
sdg               0.00     0.00    0.00    0.00     0.00     0.00     0.00     0.00    0.00    0.00    0.00   0.00   0.00
sdh               0.00     0.00    0.00    0.00     0.00     0.00     0.00     0.00    0.00    0.00    0.00   0.00   0.00
md0               0.00     0.00 33962.00    0.00 135848.00     0.00     8.00     0.00    0.00    0.00    0.00   0.00   0.00

