Linux 4.17.2 (bench) 	08/03/2018 	_x86_64_	(4 CPU)

avg-cpu:  %user   %nice %system %iowait  %steal   %idle
          10.30    0.02    3.95    2.39    0.00   83.34

Device:         rrqm/s   wrqm/s     r/s     w/s    rkB/s    wkB/s avgrq-sz avgqu-sz   await r_await w_await  svctm  %util
sda              38.00     4.30 1582.23  104.04 20499.76  3174.80    28.08     1.02    0.61    0.26    5.91   0.06  10.41
sdb              37.90     4.26 1582.10  104.18 20489.06  3171.42    28.06     1.02    0.60    0.26    5.85   0.06  10.29
sdc              76.14     4.32 1541.79  103.72 20481.30  3173.92    28.75     1.44    0.87    0.45    7.12   0.08  13.70
sdd              69.44     4.29 1547.64  103.79 20465.87  3170.06    28.62     1.45    0.87    0.44    7.32   0.08  13.79
sde              71.52     4.33 1552.82  103.89 20526.92  3174.36    28.61     1.47    0.88    0.45    7.43   0.08  13.81
sdf              68.60     4.30 1555.00  103.83 20507.86  3171.18    28.55     1.51    0.91    0.44    7.90   0.08  13.84
sdg               0.00     3.18   25.71   73.37   321.54   391.99    14.40     0.44    4.44    0.20    5.93   0.08   0.77
sdh               0.00     0.13    0.02    0.24     2.24     5.14    56.82     0.00    1.15    0.65    1.19   0.21   0.01
md0               0.00     0.00 9729.06  487.39 140296.90 21738.58    31.72     0.00    0.00    0.00    0.00   0.00   0.00

avg-cpu:  %user   %nice %system %iowait  %steal   %idle
           0.75    0.01   18.56   69.47    0.00   11.21

Device:         rrqm/s   wrqm/s     r/s     w/s    rkB/s    wkB/s avgrq-sz avgqu-sz   await r_await w_await  svctm  %util
sda               0.00     0.00 12991.40    0.00 51965.60     0.00     8.00     1.75    0.14    0.14    0.00   0.02  32.15
sdb               0.00     0.00 12865.65    0.00 51462.60     0.00     8.00     1.72    0.13    0.13    0.00   0.02  30.68
sdc               0.00     0.00 12958.85    0.00 51835.40     0.00     8.00     2.31    0.18    0.18    0.00   0.03  38.14
sdd               0.00     0.00 12907.50    0.00 51630.00     0.00     8.00     2.29    0.18    0.18    0.00   0.03  38.38
sde               0.00     0.00 12894.80    0.00 51579.20     0.00     8.00     2.28    0.18    0.18    0.00   0.03  38.46
sdf               0.00     0.00 12890.80    0.00 51563.20     0.00     8.00     2.28    0.18    0.18    0.00   0.03  38.16
sdg               0.00     0.00   68.55    2.80   292.00    48.80     9.55     0.01    0.27    0.12    3.98   0.12   0.89
sdh               0.00     0.00    0.00    0.00     0.00     0.00     0.00     0.00    0.00    0.00    0.00   0.00   0.00
md0               0.00     0.00 77509.55    0.00 310038.20     0.00     8.00     0.00    0.00    0.00    0.00   0.00   0.00

