Linux 4.17.2 (bench) 	08/03/2018 	_x86_64_	(4 CPU)

avg-cpu:  %user   %nice %system %iowait  %steal   %idle
          10.30    0.02    3.97    2.42    0.00   83.29

Device:         rrqm/s   wrqm/s     r/s     w/s    rkB/s    wkB/s avgrq-sz avgqu-sz   await r_await w_await  svctm  %util
sda              38.69     4.29 1594.91  103.75 20580.61  3165.97    27.96     1.02    0.60    0.26    5.91   0.06  10.47
sdb              38.60     4.25 1594.77  103.89 20569.97  3162.60    27.94     1.02    0.60    0.26    5.85   0.06  10.35
sdc              76.73     4.31 1554.57  103.43 20562.22  3165.09    28.62     1.44    0.87    0.45    7.12   0.08  13.77
sdd              70.05     4.27 1560.41  103.50 20546.82  3161.24    28.50     1.45    0.87    0.44    7.32   0.08  13.86
sde              72.13     4.32 1565.56  103.60 20607.62  3165.54    28.49     1.47    0.88    0.44    7.43   0.08  13.88
sdf              69.22     4.29 1567.74  103.55 20588.60  3162.36    28.42     1.51    0.90    0.44    7.90   0.08  13.91
sdg               0.00     3.18   25.83   73.35   321.97   391.96    14.40     0.44    4.44    0.20    5.93   0.08   0.77
sdh               0.00     0.13    0.02    0.24     2.24     5.12    56.82     0.00    1.15    0.65    1.19   0.21   0.01
md0               0.00     0.00 9809.35  486.03 140889.79 21678.12    31.58     0.00    0.00    0.00    0.00   0.00   0.00

avg-cpu:  %user   %nice %system %iowait  %steal   %idle
           1.16    0.03   18.70   44.36    0.00   35.77

Device:         rrqm/s   wrqm/s     r/s     w/s    rkB/s    wkB/s avgrq-sz avgqu-sz   await r_await w_await  svctm  %util
sda               7.25     0.00 10582.25    0.00 85938.80     0.00    16.24     2.79    0.26    0.26    0.00   0.06  58.38
sdb               6.00     0.00 10564.05    0.00 86322.00     0.00    16.34     2.85    0.27    0.27    0.00   0.05  56.76
sdc              11.20     0.00 10504.05    0.00 86248.80     0.00    16.42     4.64    0.44    0.44    0.00   0.07  68.84
sdd              11.95     0.00 10504.95    0.00 86147.20     0.00    16.40     4.65    0.44    0.44    0.00   0.07  70.31
sde              11.90     0.00 10562.65    0.00 86159.40     0.00    16.31     4.69    0.44    0.44    0.00   0.07  69.92
sdf              11.25     0.00 10565.65    0.00 86240.20     0.00    16.32     4.71    0.45    0.45    0.00   0.07  70.02
sdg               0.00     0.00   93.05   71.00   379.00   378.20     9.23     0.44    2.67    0.13    6.00   0.10   1.56
sdh               0.00     0.00    0.00    0.00     0.00     0.00     0.00     0.00    0.00    0.00    0.00   0.00   0.00
md0               0.00     0.00 64100.35    0.00 529183.80     0.00    16.51     0.00    0.00    0.00    0.00   0.00   0.00

