Linux 4.17.2 (bench) 	08/03/2018 	_x86_64_	(4 CPU)

avg-cpu:  %user   %nice %system %iowait  %steal   %idle
          10.30    0.02    3.96    2.41    0.00   83.31

Device:         rrqm/s   wrqm/s     r/s     w/s    rkB/s    wkB/s avgrq-sz avgqu-sz   await r_await w_await  svctm  %util
sda              38.65     4.29 1589.37  103.85 20535.98  3169.20    28.00     1.02    0.60    0.26    5.91   0.06  10.44
sdb              38.56     4.25 1589.24  103.99 20525.34  3165.82    27.98     1.02    0.60    0.26    5.85   0.06  10.32
sdc              76.72     4.31 1549.00  103.54 20517.61  3168.31    28.67     1.44    0.87    0.45    7.12   0.08  13.74
sdd              70.04     4.28 1554.85  103.61 20502.20  3164.46    28.54     1.45    0.87    0.44    7.32   0.08  13.83
sde              72.12     4.32 1560.00  103.71 20563.08  3168.76    28.53     1.47    0.88    0.45    7.43   0.08  13.85
sdf              69.20     4.29 1562.18  103.65 20544.03  3165.58    28.47     1.51    0.91    0.44    7.90   0.08  13.88
sdg               0.00     3.18   25.78   73.35   321.75   391.95    14.40     0.44    4.44    0.20    5.93   0.08   0.77
sdh               0.00     0.13    0.02    0.24     2.24     5.13    56.82     0.00    1.15    0.65    1.19   0.21   0.01
md0               0.00     0.00 9775.85  486.53 140554.89 21700.20    31.62     0.00    0.00    0.00    0.00   0.00   0.00

avg-cpu:  %user   %nice %system %iowait  %steal   %idle
           0.76    0.00   15.40    3.28    0.00   80.56

Device:         rrqm/s   wrqm/s     r/s     w/s    rkB/s    wkB/s avgrq-sz avgqu-sz   await r_await w_await  svctm  %util
sda               0.00     0.00 10874.00    0.00 43496.00     0.00     8.00     2.18    0.20    0.20    0.00   0.02  22.70
sdb               0.00     0.00 10960.00    0.00 43840.00     0.00     8.00     2.37    0.21    0.21    0.00   0.02  23.50
sdc               0.00     0.00 10622.00    0.00 42488.00     0.00     8.00     2.47    0.23    0.23    0.00   0.03  28.10
sdd               0.00     0.00 10715.00    0.00 42860.00     0.00     8.00     2.86    0.27    0.27    0.00   0.03  30.80
sde               0.00     0.00 11009.00    0.00 44036.00     0.00     8.00     3.00    0.27    0.27    0.00   0.03  31.10
sdf               0.00     0.00 10617.00    0.00 42468.00     0.00     8.00     2.66    0.25    0.25    0.00   0.03  29.60
sdg               0.00    18.00   26.00   81.00   416.00  1300.00    32.07     0.21    2.01    0.12    2.62   0.08   0.90
sdh               0.00     0.00    0.00    0.00     0.00     0.00     0.00     0.00    0.00    0.00    0.00   0.00   0.00
md0               0.00     0.00 64761.00    0.00 259044.00     0.00     8.00     0.00    0.00    0.00    0.00   0.00   0.00

