Linux 4.17.2 (bench) 	08/03/2018 	_x86_64_	(4 CPU)

avg-cpu:  %user   %nice %system %iowait  %steal   %idle
          10.28    0.02    4.03    2.50    0.00   83.16

Device:         rrqm/s   wrqm/s     r/s     w/s    rkB/s    wkB/s avgrq-sz avgqu-sz   await r_await w_await  svctm  %util
sda              43.17     4.26 1632.10  103.01 20818.15  3143.59    27.62     1.03    0.59    0.26    5.91   0.06  10.63
sdb              43.04     4.22 1632.01  103.15 20807.53  3140.24    27.60     1.03    0.59    0.26    5.85   0.06  10.51
sdc              81.11     4.28 1591.85  102.70 20799.69  3142.71    28.26     1.45    0.85    0.45    7.12   0.08  13.95
sdd              74.49     4.24 1597.63  102.77 20784.49  3138.89    28.14     1.46    0.86    0.44    7.32   0.08  14.05
sde              76.54     4.29 1602.74  102.87 20844.70  3143.15    28.13     1.48    0.87    0.44    7.43   0.08  14.07
sdf              73.64     4.26 1604.91  102.81 20825.82  3140.00    28.07     1.52    0.89    0.44    7.90   0.08  14.10
sdg               0.00     3.18   26.12   73.33   323.25   392.00    14.38     0.44    4.43    0.20    5.93   0.08   0.78
sdh               0.00     0.13    0.02    0.24     2.22     5.09    56.82     0.00    1.15    0.65    1.19   0.21   0.01
md0               0.00     0.00 10059.72  482.60 142575.37 21524.84    31.13     0.00    0.00    0.00    0.00   0.00   0.00

avg-cpu:  %user   %nice %system %iowait  %steal   %idle
           5.21    0.01   29.53   41.23    0.00   24.02

Device:         rrqm/s   wrqm/s     r/s     w/s    rkB/s    wkB/s avgrq-sz avgqu-sz   await r_await w_await  svctm  %util
sda               0.00     0.00 15665.00    0.00 62660.00     0.00     8.00     2.28    0.15    0.15    0.00   0.04  60.00
sdb               0.00     0.00 15666.15    0.00 62664.60     0.00     8.00     2.29    0.15    0.15    0.00   0.04  60.02
sdc               0.00     0.00 15648.60    0.00 62594.40     0.00     8.00     2.49    0.16    0.16    0.00   0.04  63.03
sdd               0.00     0.00 15641.85    0.00 62567.40     0.00     8.00     2.49    0.16    0.16    0.00   0.04  62.98
sde               0.00     0.00 15740.55    0.00 62962.20     0.00     8.00     2.48    0.16    0.16    0.00   0.04  63.19
sdf               0.00     0.00 15701.85    0.00 62807.40     0.00     8.00     2.53    0.16    0.16    0.00   0.04  63.08
sdg               0.00     0.05  161.35    0.30   671.80     3.20     8.35     0.02    0.13    0.13    0.00   0.12   2.00
sdh               0.00     0.00    0.00    0.00     0.00     0.00     0.00     0.00    0.00    0.00    0.00   0.00   0.00
md0               0.00     0.00 94065.60    0.00 376262.40     0.00     8.00     0.00    0.00    0.00    0.00   0.00   0.00

