Linux 4.17.2 (bench) 	08/03/2018 	_x86_64_	(4 CPU)

avg-cpu:  %user   %nice %system %iowait  %steal   %idle
          10.28    0.02    4.04    2.53    0.00   83.12

Device:         rrqm/s   wrqm/s     r/s     w/s    rkB/s    wkB/s avgrq-sz avgqu-sz   await r_await w_await  svctm  %util
sda              44.32     4.25 1640.48  102.84 20839.96  3138.27    27.51     1.03    0.59    0.26    5.91   0.06  10.66
sdb              44.19     4.21 1640.40  102.98 20829.37  3134.92    27.49     1.03    0.59    0.26    5.85   0.06  10.54
sdc              82.19     4.27 1600.30  102.53 20821.52  3137.39    28.14     1.45    0.85    0.45    7.12   0.08  13.99
sdd              75.59     4.24 1606.07  102.60 20806.37  3133.57    28.02     1.46    0.85    0.44    7.32   0.08  14.08
sde              77.63     4.28 1611.16  102.69 20866.39  3137.83    28.01     1.48    0.86    0.44    7.43   0.08  14.10
sdf              74.73     4.25 1613.33  102.64 20847.56  3134.69    27.95     1.52    0.89    0.44    7.90   0.08  14.13
sdg               0.00     3.17   26.16   73.31   323.37   391.95    14.38     0.44    4.42    0.20    5.93   0.08   0.78
sdh               0.00     0.13    0.02    0.24     2.22     5.08    56.82     0.00    1.15    0.65    1.19   0.21   0.01
md0               0.00     0.00 10116.88  481.78 142695.44 21488.39    30.98     0.00    0.00    0.00    0.00   0.00   0.00

avg-cpu:  %user   %nice %system %iowait  %steal   %idle
           0.60    0.03    7.95    2.68    0.00   88.75

Device:         rrqm/s   wrqm/s     r/s     w/s    rkB/s    wkB/s avgrq-sz avgqu-sz   await r_await w_await  svctm  %util
sda               0.00     0.00 6869.35    0.00 27477.40     0.00     8.00     0.73    0.11    0.11    0.00   0.07  48.48
sdb               0.00     0.00 6885.35    0.00 27541.40     0.00     8.00     0.72    0.10    0.10    0.00   0.07  48.10
sdc               0.00     0.00 6859.00    0.00 27436.00     0.00     8.00     0.78    0.11    0.11    0.00   0.08  51.52
sdd               0.00     0.00 6907.65    0.00 27630.60     0.00     8.00     0.79    0.11    0.11    0.00   0.08  52.31
sde               0.00     0.00 6898.60    0.00 27594.40     0.00     8.00     0.79    0.11    0.11    0.00   0.08  52.23
sdf               0.00     0.00 6892.35    0.00 27569.40     0.00     8.00     0.79    0.12    0.12    0.00   0.08  52.22
sdg               0.00     0.10   67.45    0.65   273.60    10.80     8.35     0.01    0.12    0.12    0.00   0.12   0.80
sdh               0.00     0.00    0.00    0.00     0.00     0.00     0.00     0.00    0.00    0.00    0.00   0.00   0.00
md0               0.00     0.00 41312.60    0.00 165250.40     0.00     8.00     0.00    0.00    0.00    0.00   0.00   0.00

