Linux 4.17.2 (bench) 	08/03/2018 	_x86_64_	(4 CPU)

avg-cpu:  %user   %nice %system %iowait  %steal   %idle
          10.29    0.02    4.01    2.48    0.00   83.21

Device:         rrqm/s   wrqm/s     r/s     w/s    rkB/s    wkB/s avgrq-sz avgqu-sz   await r_await w_await  svctm  %util
sda              41.50     4.27 1617.35  103.28 20705.90  3151.58    27.73     1.03    0.60    0.26    5.91   0.06  10.57
sdb              41.39     4.23 1617.24  103.42 20695.33  3148.22    27.71     1.02    0.60    0.26    5.85   0.06  10.45
sdc              79.45     4.29 1577.10  102.96 20687.54  3150.70    28.38     1.44    0.86    0.45    7.12   0.08  13.88
sdd              72.80     4.26 1582.90  103.03 20672.23  3146.87    28.26     1.45    0.86    0.44    7.32   0.08  13.97
sde              74.87     4.30 1588.02  103.13 20732.72  3151.15    28.25     1.47    0.87    0.44    7.43   0.08  13.99
sdf              71.97     4.27 1590.20  103.08 20713.71  3147.99    28.18     1.52    0.89    0.44    7.90   0.08  14.02
sdg               0.00     3.18   25.99   73.33   322.64   391.95    14.39     0.44    4.43    0.20    5.93   0.08   0.78
sdh               0.00     0.13    0.02    0.24     2.23     5.10    56.82     0.00    1.15    0.65    1.19   0.21   0.01
md0               0.00     0.00 9961.03  483.82 141760.21 21579.58    31.28     0.00    0.00    0.00    0.00   0.00   0.00

avg-cpu:  %user   %nice %system %iowait  %steal   %idle
           0.25    0.00    3.03   20.20    0.00   76.52

Device:         rrqm/s   wrqm/s     r/s     w/s    rkB/s    wkB/s avgrq-sz avgqu-sz   await r_await w_await  svctm  %util
sda             101.00     0.00  627.00    0.00 67968.00     0.00   216.80     0.35    0.56    0.56    0.00   0.40  25.30
sdb             110.00     0.00  669.00    0.00 68724.00     0.00   205.45     0.36    0.54    0.54    0.00   0.38  25.30
sdc             109.00     0.00  544.00    0.00 71904.00     0.00   264.35     0.56    1.03    1.03    0.00   0.67  36.60
sdd             102.00     0.00  719.00    0.00 69580.00     0.00   193.55     0.58    0.81    0.81    0.00   0.53  38.00
sde             105.00     0.00  645.00    0.00 68688.00     0.00   212.99     0.52    0.81    0.81    0.00   0.57  36.70
sdf             107.00     0.00  622.00    0.00 67708.00     0.00   217.71     0.53    0.84    0.84    0.00   0.58  36.10
sdg               0.00     0.00    0.00    1.00     0.00    12.00    24.00     0.00    0.00    0.00    0.00   0.00   0.00
sdh               0.00     0.00    0.00    0.00     0.00     0.00     0.00     0.00    0.00    0.00    0.00   0.00   0.00
md0               0.00     0.00 4454.00    0.00 599508.00     0.00   269.20     0.00    0.00    0.00    0.00   0.00   0.00

avg-cpu:  %user   %nice %system %iowait  %steal   %idle
           0.25    0.25    2.53   10.63    0.00   86.33

Device:         rrqm/s   wrqm/s     r/s     w/s    rkB/s    wkB/s avgrq-sz avgqu-sz   await r_await w_await  svctm  %util
sda              86.00     0.00  686.00    0.00 59664.00     0.00   173.95     0.30    0.44    0.44    0.00   0.34  23.30
sdb              85.00     0.00  633.00    0.00 60876.00     0.00   192.34     0.30    0.47    0.47    0.00   0.36  22.80
sdc              83.00     0.00  691.00    0.00 60944.00     0.00   176.39     0.48    0.70    0.70    0.00   0.47  32.80
sdd              89.00     0.00  632.00    0.00 61276.00     0.00   193.91     0.49    0.78    0.78    0.00   0.53  33.30
sde              87.00     0.00  695.00    0.00 59960.00     0.00   172.55     0.48    0.69    0.69    0.00   0.48  33.10
sdf              81.00     0.00  751.00    0.00 58480.00     0.00   155.74     0.50    0.67    0.67    0.00   0.45  33.50
sdg               0.00     0.00   39.00    0.00   468.00     0.00    24.00     0.01    0.23    0.23    0.00   0.18   0.70
sdh               0.00     0.00    0.00    0.00     0.00     0.00     0.00     0.00    0.00    0.00    0.00   0.00   0.00
md0               0.00     0.00 4608.00    0.00 515200.00     0.00   223.61     0.00    0.00    0.00    0.00   0.00   0.00

