Linux 4.17.2 (bench) 	08/03/2018 	_x86_64_	(4 CPU)

avg-cpu:  %user   %nice %system %iowait  %steal   %idle
          10.29    0.02    3.99    2.45    0.00   83.25

Device:         rrqm/s   wrqm/s     r/s     w/s    rkB/s    wkB/s avgrq-sz avgqu-sz   await r_await w_await  svctm  %util
sda              40.52     4.28 1606.42  103.53 20657.87  3159.46    27.86     1.03    0.60    0.26    5.91   0.06  10.51
sdb              40.41     4.24 1606.31  103.67 20647.27  3156.09    27.84     1.02    0.60    0.26    5.85   0.06  10.39
sdc              78.56     4.30 1566.07  103.22 20639.48  3158.58    28.51     1.44    0.86    0.45    7.12   0.08  13.82
sdd              71.90     4.27 1571.89  103.29 20624.15  3154.73    28.39     1.45    0.87    0.44    7.32   0.08  13.91
sde              73.98     4.31 1577.03  103.39 20684.81  3159.02    28.38     1.47    0.88    0.45    7.43   0.08  13.94
sdf              71.07     4.28 1579.21  103.33 20665.80  3155.85    28.32     1.52    0.90    0.44    7.90   0.08  13.97
sdg               0.00     3.18   25.92   73.35   322.41   391.99    14.39     0.44    4.43    0.20    5.93   0.08   0.77
sdh               0.00     0.13    0.02    0.24     2.23     5.11    56.82     0.00    1.15    0.65    1.19   0.21   0.01
md0               0.00     0.00 9889.58  485.03 141433.82 21633.51    31.44     0.00    0.00    0.00    0.00   0.00   0.00

avg-cpu:  %user   %nice %system %iowait  %steal   %idle
           0.00    0.26    3.08    4.36    0.00   92.31

Device:         rrqm/s   wrqm/s     r/s     w/s    rkB/s    wkB/s avgrq-sz avgqu-sz   await r_await w_await  svctm  %util
sda               0.00     0.00 2184.00    0.00  8736.00     0.00     8.00     0.14    0.06    0.06    0.00   0.06  13.70
sdb               0.00     0.00 2245.00    0.00  8980.00     0.00     8.00     0.15    0.07    0.07    0.00   0.07  15.20
sdc               0.00     0.00 2243.00    0.00  8972.00     0.00     8.00     0.16    0.07    0.07    0.00   0.07  15.60
sdd               0.00     0.00 2139.00    0.00  8556.00     0.00     8.00     0.14    0.07    0.07    0.00   0.07  14.10
sde               0.00     0.00 2167.00    0.00  8668.00     0.00     8.00     0.15    0.07    0.07    0.00   0.07  15.40
sdf               0.00     0.00 2144.00    0.00  8576.00     0.00     8.00     0.15    0.07    0.07    0.00   0.07  15.50
sdg               0.00    86.00   40.00 2560.00   496.00 12716.00    10.16    15.47    5.95    0.20    6.04   0.05  11.90
sdh               0.00     0.00    0.00    0.00     0.00     0.00     0.00     0.00    0.00    0.00    0.00   0.00   0.00
md0               0.00     0.00 13122.00    0.00 52488.00     0.00     8.00     0.00    0.00    0.00    0.00   0.00   0.00

avg-cpu:  %user   %nice %system %iowait  %steal   %idle
           0.25    0.00    2.29    1.02    0.00   96.44

Device:         rrqm/s   wrqm/s     r/s     w/s    rkB/s    wkB/s avgrq-sz avgqu-sz   await r_await w_await  svctm  %util
sda               0.00     0.00 2164.00    0.00  8656.00     0.00     8.00     0.16    0.08    0.08    0.00   0.08  16.40
sdb               0.00     0.00 2282.00    0.00  9128.00     0.00     8.00     0.16    0.07    0.07    0.00   0.07  15.70
sdc               0.00     0.00 2086.00    0.00  8344.00     0.00     8.00     0.14    0.07    0.07    0.00   0.07  14.50
sdd               0.00     0.00 2137.00    0.00  8548.00     0.00     8.00     0.16    0.07    0.07    0.00   0.07  15.80
sde               0.00     0.00 2262.00    0.00  9048.00     0.00     8.00     0.16    0.07    0.07    0.00   0.07  16.10
sdf               0.00     0.00 2267.00    0.00  9068.00     0.00     8.00     0.15    0.07    0.07    0.00   0.07  15.00
sdg               0.00     0.00    0.00    0.00     0.00     0.00     0.00     0.00    0.00    0.00    0.00   0.00   0.00
sdh               0.00     0.00    0.00    0.00     0.00     0.00     0.00     0.00    0.00    0.00    0.00   0.00   0.00
md0               0.00     0.00 13199.00    0.00 52796.00     0.00     8.00     0.00    0.00    0.00    0.00   0.00   0.00

avg-cpu:  %user   %nice %system %iowait  %steal   %idle
           0.00    0.00    2.80    1.02    0.00   96.18

Device:         rrqm/s   wrqm/s     r/s     w/s    rkB/s    wkB/s avgrq-sz avgqu-sz   await r_await w_await  svctm  %util
sda               0.00     0.00 2472.00    0.00  9888.00     0.00     8.00     0.17    0.07    0.07    0.00   0.07  16.70
sdb               0.00     0.00 2168.00    0.00  8672.00     0.00     8.00     0.16    0.07    0.07    0.00   0.07  15.80
sdc               0.00     0.00 2048.00    0.00  8192.00     0.00     8.00     0.14    0.07    0.07    0.00   0.07  14.40
sdd               0.00     0.00 2286.00    0.00  9144.00     0.00     8.00     0.15    0.07    0.07    0.00   0.07  15.50
sde               0.00     0.00 2191.00    0.00  8764.00     0.00     8.00     0.14    0.07    0.07    0.00   0.07  14.50
sdf               0.00     0.00 2231.00    0.00  8924.00     0.00     8.00     0.15    0.07    0.07    0.00   0.07  15.50
sdg               0.00     0.00    0.00    0.00     0.00     0.00     0.00     0.00    0.00    0.00    0.00   0.00   0.00
sdh               0.00     0.00    0.00    0.00     0.00     0.00     0.00     0.00    0.00    0.00    0.00   0.00   0.00
md0               0.00     0.00 13396.00    0.00 53584.00     0.00     8.00     0.00    0.00    0.00    0.00   0.00   0.00

avg-cpu:  %user   %nice %system %iowait  %steal   %idle
           0.25    0.00    2.54    1.02    0.00   96.18

Device:         rrqm/s   wrqm/s     r/s     w/s    rkB/s    wkB/s avgrq-sz avgqu-sz   await r_await w_await  svctm  %util
sda               0.00     0.00 2067.00    0.00  8268.00     0.00     8.00     0.15    0.07    0.07    0.00   0.07  15.10
sdb               0.00     0.00 2273.00    0.00  9092.00     0.00     8.00     0.16    0.07    0.07    0.00   0.07  15.80
sdc               0.00     0.00 2304.00    0.00  9216.00     0.00     8.00     0.16    0.07    0.07    0.00   0.07  16.30
sdd               0.00     0.00 2305.00    0.00  9220.00     0.00     8.00     0.16    0.07    0.07    0.00   0.07  15.90
sde               0.00     0.00 2159.00    0.00  8636.00     0.00     8.00     0.15    0.07    0.07    0.00   0.07  14.60
sdf               0.00     0.00 2194.00    0.00  8776.00     0.00     8.00     0.15    0.07    0.07    0.00   0.07  14.60
sdg               0.00     0.00    0.00    0.00     0.00     0.00     0.00     0.00    0.00    0.00    0.00   0.00   0.00
sdh               0.00     0.00    0.00    0.00     0.00     0.00     0.00     0.00    0.00    0.00    0.00   0.00   0.00
md0               0.00     0.00 13302.00    0.00 53208.00     0.00     8.00     0.00    0.00    0.00    0.00   0.00   0.00

avg-cpu:  %user   %nice %system %iowait  %steal   %idle
           0.25    0.00    2.54    7.12    0.00   90.08

Device:         rrqm/s   wrqm/s     r/s     w/s    rkB/s    wkB/s avgrq-sz avgqu-sz   await r_await w_await  svctm  %util
sda               0.00     0.00 2133.00    0.00  8532.00     0.00     8.00     0.15    0.07    0.07    0.00   0.07  14.80
sdb               0.00     0.00 2194.00    0.00  8776.00     0.00     8.00     0.15    0.07    0.07    0.00   0.07  14.90
sdc               0.00     0.00 2274.00    0.00  9096.00     0.00     8.00     0.16    0.07    0.07    0.00   0.07  15.90
sdd               0.00     0.00 1922.00    0.00  7688.00     0.00     8.00     0.15    0.08    0.08    0.00   0.08  14.80
sde               0.00     0.00 2084.00    0.00  8336.00     0.00     8.00     0.15    0.07    0.07    0.00   0.07  14.80
sdf               0.00     0.00 2303.00    0.00  9212.00     0.00     8.00     0.16    0.07    0.07    0.00   0.07  15.60
sdg               0.00     0.00   15.00    0.00   292.00     0.00    38.93     0.01    0.33    0.33    0.00   0.33   0.50
sdh               0.00     0.00    0.00    0.00     0.00     0.00     0.00     0.00    0.00    0.00    0.00   0.00   0.00
md0               0.00     0.00 12909.00    0.00 51636.00     0.00     8.00     0.00    0.00    0.00    0.00   0.00   0.00

avg-cpu:  %user   %nice %system %iowait  %steal   %idle
           0.00    0.00    2.05    1.03    0.00   96.92

Device:         rrqm/s   wrqm/s     r/s     w/s    rkB/s    wkB/s avgrq-sz avgqu-sz   await r_await w_await  svctm  %util
sda               0.00     0.00 2184.00    0.00  8736.00     0.00     8.00     0.14    0.06    0.06    0.00   0.06  14.00
sdb               0.00     0.00 2179.00    0.00  8716.00     0.00     8.00     0.14    0.07    0.07    0.00   0.07  14.30
sdc               0.00     0.00 2354.00    0.00  9416.00     0.00     8.00     0.17    0.07    0.07    0.00   0.07  16.70
sdd               0.00     0.00 2180.00    0.00  8720.00     0.00     8.00     0.16    0.07    0.07    0.00   0.07  15.90
sde               0.00     0.00 2177.00    0.00  8708.00     0.00     8.00     0.15    0.07    0.07    0.00   0.07  14.90
sdf               0.00     0.00 2067.00    0.00  8268.00     0.00     8.00     0.15    0.07    0.07    0.00   0.07  15.00
sdg               0.00     0.00    0.00    0.00     0.00     0.00     0.00     0.00    0.00    0.00    0.00   0.00   0.00
sdh               0.00     0.00    0.00    0.00     0.00     0.00     0.00     0.00    0.00    0.00    0.00   0.00   0.00
md0               0.00     0.00 13143.00    0.00 52572.00     0.00     8.00     0.00    0.00    0.00    0.00   0.00   0.00

avg-cpu:  %user   %nice %system %iowait  %steal   %idle
           0.26    0.00    2.05    1.02    0.00   96.68

Device:         rrqm/s   wrqm/s     r/s     w/s    rkB/s    wkB/s avgrq-sz avgqu-sz   await r_await w_await  svctm  %util
sda               0.00     0.00 2229.00    0.00  8916.00     0.00     8.00     0.16    0.07    0.07    0.00   0.07  16.00
sdb               0.00     0.00 2142.00    0.00  8568.00     0.00     8.00     0.14    0.07    0.07    0.00   0.07  14.30
sdc               0.00     0.00 2131.00    0.00  8524.00     0.00     8.00     0.14    0.07    0.07    0.00   0.07  14.20
sdd               0.00     0.00 2211.00    0.00  8844.00     0.00     8.00     0.16    0.07    0.07    0.00   0.07  15.70
sde               0.00     0.00 2181.00    0.00  8724.00     0.00     8.00     0.15    0.07    0.07    0.00   0.07  15.40
sdf               0.00     0.00 2107.00    0.00  8428.00     0.00     8.00     0.15    0.07    0.07    0.00   0.07  14.80
sdg               0.00     0.00    0.00    0.00     0.00     0.00     0.00     0.00    0.00    0.00    0.00   0.00   0.00
sdh               0.00     0.00    0.00    0.00     0.00     0.00     0.00     0.00    0.00    0.00    0.00   0.00   0.00
md0               0.00     0.00 13000.00    0.00 52000.00     0.00     8.00     0.00    0.00    0.00    0.00   0.00   0.00

avg-cpu:  %user   %nice %system %iowait  %steal   %idle
           0.26    0.00    1.79    1.03    0.00   96.92

Device:         rrqm/s   wrqm/s     r/s     w/s    rkB/s    wkB/s avgrq-sz avgqu-sz   await r_await w_await  svctm  %util
sda               0.00     0.00 2272.00    0.00  9088.00     0.00     8.00     0.15    0.06    0.06    0.00   0.06  14.70
sdb               0.00     0.00 2334.00    0.00  9336.00     0.00     8.00     0.15    0.06    0.06    0.00   0.06  14.60
sdc               0.00     0.00 2352.00    0.00  9408.00     0.00     8.00     0.17    0.07    0.07    0.00   0.07  16.70
sdd               0.00     0.00 2189.00    0.00  8756.00     0.00     8.00     0.15    0.07    0.07    0.00   0.07  15.50
sde               0.00     0.00 1889.00    0.00  7556.00     0.00     8.00     0.13    0.07    0.07    0.00   0.07  13.20
sdf               0.00     0.00 2203.00    0.00  8812.00     0.00     8.00     0.16    0.07    0.07    0.00   0.07  15.90
sdg               0.00     0.00    0.00    0.00     0.00     0.00     0.00     0.00    0.00    0.00    0.00   0.00   0.00
sdh               0.00     0.00    0.00    0.00     0.00     0.00     0.00     0.00    0.00    0.00    0.00   0.00   0.00
md0               0.00     0.00 13239.00    0.00 52956.00     0.00     8.00     0.00    0.00    0.00    0.00   0.00   0.00

avg-cpu:  %user   %nice %system %iowait  %steal   %idle
           0.00    0.00    3.05    6.09    0.00   90.86

Device:         rrqm/s   wrqm/s     r/s     w/s    rkB/s    wkB/s avgrq-sz avgqu-sz   await r_await w_await  svctm  %util
sda               0.00     0.00 2132.00    0.00  8528.00     0.00     8.00     0.15    0.07    0.07    0.00   0.07  14.80
sdb               0.00     0.00 2236.00    0.00  8944.00     0.00     8.00     0.15    0.07    0.07    0.00   0.07  14.70
sdc               0.00     0.00 2105.00    0.00  8420.00     0.00     8.00     0.15    0.07    0.07    0.00   0.07  15.00
sdd               0.00     0.00 2286.00    0.00  9144.00     0.00     8.00     0.15    0.07    0.07    0.00   0.07  15.30
sde               0.00     0.00 2221.00    0.00  8884.00     0.00     8.00     0.15    0.07    0.07    0.00   0.07  14.60
sdf               0.00     0.00 2077.00    0.00  8308.00     0.00     8.00     0.15    0.07    0.07    0.00   0.07  15.20
sdg               0.00     2.00    2.00   29.00    32.00   284.00    20.39     0.02    0.58    0.00    0.62   0.06   0.20
sdh               0.00     0.00    0.00    0.00     0.00     0.00     0.00     0.00    0.00    0.00    0.00   0.00   0.00
md0               0.00     0.00 13057.00    0.00 52228.00     0.00     8.00     0.00    0.00    0.00    0.00   0.00   0.00

avg-cpu:  %user   %nice %system %iowait  %steal   %idle
           0.25    0.00    3.53   20.15    0.00   76.07

Device:         rrqm/s   wrqm/s     r/s     w/s    rkB/s    wkB/s avgrq-sz avgqu-sz   await r_await w_await  svctm  %util
sda               0.00     0.00 2067.00    0.00  8268.00     0.00     8.00     0.14    0.07    0.07    0.00   0.07  13.70
sdb               0.00     0.00 2248.00    0.00  8992.00     0.00     8.00     0.14    0.06    0.06    0.00   0.06  14.20
sdc               0.00     0.00 2223.00    0.00  8892.00     0.00     8.00     0.15    0.07    0.07    0.00   0.07  15.20
sdd               0.00     0.00 2225.00    0.00  8900.00     0.00     8.00     0.15    0.07    0.07    0.00   0.07  15.20
sde               0.00     0.00 2098.00    0.00  8392.00     0.00     8.00     0.14    0.07    0.07    0.00   0.07  14.50
sdf               0.00     0.00 2357.00    0.00  9428.00     0.00     8.00     0.17    0.07    0.07    0.00   0.07  17.00
sdg               0.00     0.00    0.00    0.00     0.00     0.00     0.00     0.00    0.00    0.00    0.00   0.00   0.00
sdh               0.00     0.00    0.00    0.00     0.00     0.00     0.00     0.00    0.00    0.00    0.00   0.00   0.00
md0               0.00     0.00 13218.00    0.00 52872.00     0.00     8.00     0.00    0.00    0.00    0.00   0.00   0.00

avg-cpu:  %user   %nice %system %iowait  %steal   %idle
           0.00    0.25    3.54   20.45    0.00   75.76

Device:         rrqm/s   wrqm/s     r/s     w/s    rkB/s    wkB/s avgrq-sz avgqu-sz   await r_await w_await  svctm  %util
sda               0.00     0.00 2125.00    0.00  8500.00     0.00     8.00     0.14    0.07    0.07    0.00   0.07  14.20
sdb               0.00     0.00 2051.00    0.00  8204.00     0.00     8.00     0.14    0.07    0.07    0.00   0.07  14.40
sdc               0.00     0.00 2090.00    0.00  8360.00     0.00     8.00     0.15    0.07    0.07    0.00   0.07  15.50
sdd               0.00     0.00 2133.00    0.00  8532.00     0.00     8.00     0.15    0.07    0.07    0.00   0.07  15.50
sde               0.00     0.00 2186.00    0.00  8744.00     0.00     8.00     0.15    0.07    0.07    0.00   0.07  15.40
sdf               0.00     0.00 2138.00    0.00  8552.00     0.00     8.00     0.15    0.07    0.07    0.00   0.07  15.20
sdg               0.00     0.00   18.00    6.00    72.00    48.00    10.00     0.00    0.08    0.06    0.17   0.04   0.10
sdh               0.00     0.00    0.00    0.00     0.00     0.00     0.00     0.00    0.00    0.00    0.00   0.00   0.00
md0               0.00     0.00 12723.00    0.00 50892.00     0.00     8.00     0.00    0.00    0.00    0.00   0.00   0.00

avg-cpu:  %user   %nice %system %iowait  %steal   %idle
           0.25    0.00    2.54    8.91    0.00   88.30

Device:         rrqm/s   wrqm/s     r/s     w/s    rkB/s    wkB/s avgrq-sz avgqu-sz   await r_await w_await  svctm  %util
sda               0.00     0.00 2182.00    0.00  8728.00     0.00     8.00     0.14    0.06    0.06    0.00   0.06  13.90
sdb               0.00     0.00 2166.00    0.00  8664.00     0.00     8.00     0.14    0.07    0.07    0.00   0.07  14.20
sdc               0.00     0.00 2151.00    0.00  8604.00     0.00     8.00     0.15    0.07    0.07    0.00   0.07  15.20
sdd               0.00     0.00 2279.00    0.00  9116.00     0.00     8.00     0.17    0.07    0.07    0.00   0.07  16.50
sde               0.00     0.00 2192.00    0.00  8768.00     0.00     8.00     0.15    0.07    0.07    0.00   0.07  15.40
sdf               0.00     0.00 2187.00    0.00  8748.00     0.00     8.00     0.14    0.07    0.07    0.00   0.07  14.30
sdg               0.00     0.00    0.00    0.00     0.00     0.00     0.00     0.00    0.00    0.00    0.00   0.00   0.00
sdh               0.00     0.00    0.00    0.00     0.00     0.00     0.00     0.00    0.00    0.00    0.00   0.00   0.00
md0               0.00     0.00 13156.00    0.00 52624.00     0.00     8.00     0.00    0.00    0.00    0.00   0.00   0.00

avg-cpu:  %user   %nice %system %iowait  %steal   %idle
           0.26    0.00    1.79    1.03    0.00   96.92

Device:         rrqm/s   wrqm/s     r/s     w/s    rkB/s    wkB/s avgrq-sz avgqu-sz   await r_await w_await  svctm  %util
sda               0.00     0.00 2250.00    0.00  9000.00     0.00     8.00     0.14    0.06    0.06    0.00   0.06  14.20
sdb               0.00     0.00 2164.00    0.00  8656.00     0.00     8.00     0.15    0.07    0.07    0.00   0.07  15.20
sdc               0.00     0.00 2216.00    0.00  8864.00     0.00     8.00     0.16    0.07    0.07    0.00   0.07  16.20
sdd               0.00     0.00 2131.00    0.00  8524.00     0.00     8.00     0.14    0.07    0.07    0.00   0.07  14.50
sde               0.00     0.00 2226.00    0.00  8904.00     0.00     8.00     0.15    0.07    0.07    0.00   0.07  14.60
sdf               0.00     0.00 2176.00    0.00  8704.00     0.00     8.00     0.15    0.07    0.07    0.00   0.07  15.50
sdg               0.00     0.00    0.00    0.00     0.00     0.00     0.00     0.00    0.00    0.00    0.00   0.00   0.00
sdh               0.00     0.00    0.00    0.00     0.00     0.00     0.00     0.00    0.00    0.00    0.00   0.00   0.00
md0               0.00     0.00 13166.00    0.00 52664.00     0.00     8.00     0.00    0.00    0.00    0.00   0.00   0.00

avg-cpu:  %user   %nice %system %iowait  %steal   %idle
           0.00    0.00    1.80    1.03    0.00   97.17

Device:         rrqm/s   wrqm/s     r/s     w/s    rkB/s    wkB/s avgrq-sz avgqu-sz   await r_await w_await  svctm  %util
sda               0.00     0.00 2216.00    0.00  8864.00     0.00     8.00     0.15    0.07    0.07    0.00   0.07  15.20
sdb               0.00     0.00 2098.00    0.00  8392.00     0.00     8.00     0.14    0.07    0.07    0.00   0.07  14.30
sdc               0.00     0.00 2199.00    0.00  8796.00     0.00     8.00     0.15    0.07    0.07    0.00   0.07  15.30
sdd               0.00     0.00 1933.00    0.00  7732.00     0.00     8.00     0.14    0.07    0.07    0.00   0.07  13.80
sde               0.00     0.00 2362.00    0.00  9448.00     0.00     8.00     0.15    0.06    0.06    0.00   0.06  15.30
sdf               0.00     0.00 2231.00    0.00  8924.00     0.00     8.00     0.17    0.07    0.07    0.00   0.07  16.50
sdg               0.00     0.00    0.00    0.00     0.00     0.00     0.00     0.00    0.00    0.00    0.00   0.00   0.00
sdh               0.00     0.00    0.00    0.00     0.00     0.00     0.00     0.00    0.00    0.00    0.00   0.00   0.00
md0               0.00     0.00 13037.00    0.00 52148.00     0.00     8.00     0.00    0.00    0.00    0.00   0.00   0.00

avg-cpu:  %user   %nice %system %iowait  %steal   %idle
           0.00    0.00    2.30    1.02    0.00   96.68

Device:         rrqm/s   wrqm/s     r/s     w/s    rkB/s    wkB/s avgrq-sz avgqu-sz   await r_await w_await  svctm  %util
sda               0.00     0.00 2288.00    0.00  9152.00     0.00     8.00     0.15    0.07    0.07    0.00   0.07  15.20
sdb               0.00     0.00 2229.00    0.00  8916.00     0.00     8.00     0.14    0.07    0.07    0.00   0.07  14.50
sdc               0.00     0.00 2155.00    0.00  8620.00     0.00     8.00     0.15    0.07    0.07    0.00   0.07  15.20
sdd               0.00     0.00 2233.00    0.00  8932.00     0.00     8.00     0.15    0.07    0.07    0.00   0.07  15.50
sde               0.00     0.00 2060.00    0.00  8240.00     0.00     8.00     0.15    0.07    0.07    0.00   0.07  14.90
sdf               0.00     0.00 2296.00    0.00  9184.00     0.00     8.00     0.15    0.07    0.07    0.00   0.07  15.00
sdg               0.00     0.00    0.00    0.00     0.00     0.00     0.00     0.00    0.00    0.00    0.00   0.00   0.00
sdh               0.00     0.00    0.00    0.00     0.00     0.00     0.00     0.00    0.00    0.00    0.00   0.00   0.00
md0               0.00     0.00 13262.00    0.00 53048.00     0.00     8.00     0.00    0.00    0.00    0.00   0.00   0.00

avg-cpu:  %user   %nice %system %iowait  %steal   %idle
           0.26    0.00    2.30    1.02    0.00   96.42

Device:         rrqm/s   wrqm/s     r/s     w/s    rkB/s    wkB/s avgrq-sz avgqu-sz   await r_await w_await  svctm  %util
sda               0.00     0.00 2126.00    0.00  8504.00     0.00     8.00     0.15    0.07    0.07    0.00   0.07  14.60
sdb               0.00     0.00 2145.00    0.00  8580.00     0.00     8.00     0.14    0.07    0.07    0.00   0.07  14.10
sdc               0.00     0.00 2193.00    0.00  8772.00     0.00     8.00     0.14    0.07    0.07    0.00   0.07  14.30
sdd               0.00     0.00 2255.00    0.00  9020.00     0.00     8.00     0.15    0.07    0.07    0.00   0.07  15.50
sde               0.00     0.00 2193.00    0.00  8772.00     0.00     8.00     0.15    0.07    0.07    0.00   0.07  15.40
sdf               0.00     0.00 2371.00    0.00  9484.00     0.00     8.00     0.16    0.07    0.07    0.00   0.07  16.00
sdg               0.00     0.00    0.00    0.00     0.00     0.00     0.00     0.00    0.00    0.00    0.00   0.00   0.00
sdh               0.00     0.00    0.00    0.00     0.00     0.00     0.00     0.00    0.00    0.00    0.00   0.00   0.00
md0               0.00     0.00 13282.00    0.00 53128.00     0.00     8.00     0.00    0.00    0.00    0.00   0.00   0.00

avg-cpu:  %user   %nice %system %iowait  %steal   %idle
           0.00    0.00    2.05    1.03    0.00   96.92

Device:         rrqm/s   wrqm/s     r/s     w/s    rkB/s    wkB/s avgrq-sz avgqu-sz   await r_await w_await  svctm  %util
sda               0.00     0.00 2206.00    0.00  8824.00     0.00     8.00     0.14    0.06    0.06    0.00   0.06  14.30
sdb               0.00     0.00 2119.00    0.00  8476.00     0.00     8.00     0.15    0.07    0.07    0.00   0.07  14.90
sdc               0.00     0.00 2114.00    0.00  8456.00     0.00     8.00     0.16    0.08    0.08    0.00   0.08  16.00
sdd               0.00     0.00 2179.00    0.00  8716.00     0.00     8.00     0.16    0.07    0.07    0.00   0.07  15.90
sde               0.00     0.00 2089.00    0.00  8356.00     0.00     8.00     0.15    0.07    0.07    0.00   0.07  15.10
sdf               0.00     0.00 2124.00    0.00  8496.00     0.00     8.00     0.15    0.07    0.07    0.00   0.07  15.10
sdg               0.00     0.00    0.00    0.00     0.00     0.00     0.00     0.00    0.00    0.00    0.00   0.00   0.00
sdh               0.00     0.00    0.00    0.00     0.00     0.00     0.00     0.00    0.00    0.00    0.00   0.00   0.00
md0               0.00     0.00 12831.00    0.00 51324.00     0.00     8.00     0.00    0.00    0.00    0.00   0.00   0.00

avg-cpu:  %user   %nice %system %iowait  %steal   %idle
           0.26    0.00    2.05    0.77    0.00   96.93

Device:         rrqm/s   wrqm/s     r/s     w/s    rkB/s    wkB/s avgrq-sz avgqu-sz   await r_await w_await  svctm  %util
sda               0.00     0.00 1969.00    0.00  7876.00     0.00     8.00     0.14    0.07    0.07    0.00   0.07  13.90
sdb               0.00     0.00 2188.00    0.00  8752.00     0.00     8.00     0.15    0.07    0.07    0.00   0.07  14.90
sdc               0.00     0.00 2190.00    0.00  8760.00     0.00     8.00     0.16    0.07    0.07    0.00   0.07  15.70
sdd               0.00     0.00 2218.00    0.00  8872.00     0.00     8.00     0.15    0.07    0.07    0.00   0.07  15.50
sde               0.00     0.00 2324.00    0.00  9296.00     0.00     8.00     0.16    0.07    0.07    0.00   0.07  15.60
sdf               0.00     0.00 2050.00    0.00  8200.00     0.00     8.00     0.15    0.07    0.07    0.00   0.07  14.90
sdg               0.00     0.00    0.00    0.00     0.00     0.00     0.00     0.00    0.00    0.00    0.00   0.00   0.00
sdh               0.00     0.00    0.00    0.00     0.00     0.00     0.00     0.00    0.00    0.00    0.00   0.00   0.00
md0               0.00     0.00 12939.00    0.00 51756.00     0.00     8.00     0.00    0.00    0.00    0.00   0.00   0.00

avg-cpu:  %user   %nice %system %iowait  %steal   %idle
           0.00    0.00    1.80    1.29    0.00   96.92

Device:         rrqm/s   wrqm/s     r/s     w/s    rkB/s    wkB/s avgrq-sz avgqu-sz   await r_await w_await  svctm  %util
sda               0.00     0.00 2285.00    0.00  9140.00     0.00     8.00     0.15    0.06    0.06    0.00   0.06  14.70
sdb               0.00     0.00 1997.00    0.00  7988.00     0.00     8.00     0.13    0.07    0.07    0.00   0.07  13.40
sdc               0.00     0.00 2145.00    0.00  8580.00     0.00     8.00     0.15    0.07    0.07    0.00   0.07  14.60
sdd               0.00     0.00 2201.00    0.00  8804.00     0.00     8.00     0.16    0.07    0.07    0.00   0.07  15.60
sde               0.00     0.00 2208.00    0.00  8832.00     0.00     8.00     0.15    0.07    0.07    0.00   0.07  14.90
sdf               0.00     0.00 2352.00    0.00  9408.00     0.00     8.00     0.17    0.07    0.07    0.00   0.07  17.10
sdg               0.00     0.00    0.00    0.00     0.00     0.00     0.00     0.00    0.00    0.00    0.00   0.00   0.00
sdh               0.00     0.00    0.00    0.00     0.00     0.00     0.00     0.00    0.00    0.00    0.00   0.00   0.00
md0               0.00     0.00 13187.00    0.00 52748.00     0.00     8.00     0.00    0.00    0.00    0.00   0.00   0.00

avg-cpu:  %user   %nice %system %iowait  %steal   %idle
           0.26    0.00    1.79    1.03    0.00   96.92

Device:         rrqm/s   wrqm/s     r/s     w/s    rkB/s    wkB/s avgrq-sz avgqu-sz   await r_await w_await  svctm  %util
sda               0.00     0.00 2246.00    0.00  8984.00     0.00     8.00     0.15    0.07    0.07    0.00   0.07  14.70
sdb               0.00     0.00 2170.00    0.00  8680.00     0.00     8.00     0.14    0.07    0.07    0.00   0.07  14.20
sdc               0.00     0.00 2264.00    0.00  9056.00     0.00     8.00     0.17    0.07    0.07    0.00   0.07  16.70
sdd               0.00     0.00 2140.00    0.00  8560.00     0.00     8.00     0.15    0.07    0.07    0.00   0.07  15.00
sde               0.00     0.00 2141.00    0.00  8564.00     0.00     8.00     0.15    0.07    0.07    0.00   0.07  15.30
sdf               0.00     0.00 2247.00    0.00  8988.00     0.00     8.00     0.16    0.07    0.07    0.00   0.07  16.00
sdg               0.00     0.00    0.00    0.00     0.00     0.00     0.00     0.00    0.00    0.00    0.00   0.00   0.00
sdh               0.00     0.00    0.00    0.00     0.00     0.00     0.00     0.00    0.00    0.00    0.00   0.00   0.00
md0               0.00     0.00 13208.00    0.00 52832.00     0.00     8.00     0.00    0.00    0.00    0.00   0.00   0.00

