Linux 4.17.2 (bench) 	08/03/2018 	_x86_64_	(4 CPU)

avg-cpu:  %user   %nice %system %iowait  %steal   %idle
          10.28    0.02    4.07    2.56    0.00   83.08

Device:         rrqm/s   wrqm/s     r/s     w/s    rkB/s    wkB/s avgrq-sz avgqu-sz   await r_await w_await  svctm  %util
sda              45.01     4.24 1655.23  102.56 20953.85  3129.67    27.40     1.03    0.59    0.26    5.91   0.06  10.73
sdb              44.89     4.20 1655.16  102.70 20943.24  3126.34    27.39     1.03    0.59    0.26    5.85   0.06  10.61
sdc              82.83     4.26 1615.12  102.25 20935.32  3128.80    28.02     1.45    0.85    0.45    7.12   0.08  14.07
sdd              76.24     4.23 1620.88  102.32 20920.22  3124.99    27.91     1.46    0.85    0.44    7.32   0.08  14.16
sde              78.28     4.27 1625.94  102.41 20980.06  3129.24    27.90     1.48    0.86    0.44    7.43   0.08  14.18
sdf              75.39     4.24 1628.10  102.36 20961.30  3126.10    27.84     1.52    0.88    0.44    7.90   0.08  14.21
sdg               0.00     3.17   26.29   73.31   323.96   391.98    14.38     0.44    4.42    0.20    5.93   0.08   0.78
sdh               0.00     0.13    0.02    0.23     2.21     5.06    56.82     0.00    1.15    0.65    1.19   0.21   0.01
md0               0.00     0.00 10209.81  480.46 143534.42 21429.56    30.86     0.00    0.00    0.00    0.00   0.00   0.00

avg-cpu:  %user   %nice %system %iowait  %steal   %idle
           2.25    0.00   39.50    0.00    0.00   58.25

Device:         rrqm/s   wrqm/s     r/s     w/s    rkB/s    wkB/s avgrq-sz avgqu-sz   await r_await w_await  svctm  %util
sda            2197.00     0.00 31078.00    0.00 133188.00     0.00     8.57    37.52    1.21    1.21    0.00   0.02  71.20
sdb            2041.00     0.00 30970.00    0.00 132108.00     0.00     8.53    37.18    1.20    1.20    0.00   0.02  70.30
sdc            2213.00     0.00 31001.00    0.00 132888.00     0.00     8.57    42.80    1.38    1.38    0.00   0.02  76.80
sdd            2234.00     0.00 30997.00    0.00 132964.00     0.00     8.58    42.51    1.37    1.37    0.00   0.02  77.30
sde            2238.00     0.00 30888.00    0.00 132548.00     0.00     8.58    42.74    1.39    1.39    0.00   0.03  77.50
sdf            2233.00     0.00 30887.00    0.00 132492.00     0.00     8.58    43.05    1.40    1.40    0.00   0.02  76.80
sdg               0.00     0.00    0.00    0.00     0.00     0.00     0.00     0.00    0.00    0.00    0.00   0.00   0.00
sdh               0.00     0.00    0.00    0.00     0.00     0.00     0.00     0.00    0.00    0.00    0.00   0.00   0.00
md0               0.00     0.00 198874.00    0.00 795496.00     0.00     8.00     0.00    0.00    0.00    0.00   0.00   0.00

avg-cpu:  %user   %nice %system %iowait  %steal   %idle
           2.24    0.00   40.05    0.25    0.00   57.46

Device:         rrqm/s   wrqm/s     r/s     w/s    rkB/s    wkB/s avgrq-sz avgqu-sz   await r_await w_await  svctm  %util
sda            2207.00     0.00 30983.00    0.00 132784.00     0.00     8.57    37.97    1.23    1.23    0.00   0.02  72.00
sdb            2283.00     0.00 31227.00    0.00 134060.00     0.00     8.59    38.83    1.24    1.24    0.00   0.02  71.70
sdc            2285.00     0.00 31196.00    0.00 133936.00     0.00     8.59    44.21    1.42    1.42    0.00   0.02  77.90
sdd            2198.00     0.00 30970.00    0.00 132696.00     0.00     8.57    43.27    1.40    1.40    0.00   0.02  77.40
sde            2277.00     0.00 31112.00    0.00 133588.00     0.00     8.59    44.12    1.42    1.42    0.00   0.03  78.30
sdf            2260.00     0.00 31137.00    0.00 133648.00     0.00     8.58    44.12    1.42    1.42    0.00   0.03  78.50
sdg               0.00     0.00    0.00    0.00     0.00     0.00     0.00     0.00    0.00    0.00    0.00   0.00   0.00
sdh               0.00     0.00    0.00    0.00     0.00     0.00     0.00     0.00    0.00    0.00    0.00   0.00   0.00
md0               0.00     0.00 200050.00    0.00 800200.00     0.00     8.00     0.00    0.00    0.00    0.00   0.00   0.00

avg-cpu:  %user   %nice %system %iowait  %steal   %idle
           2.26    0.00   39.95    0.00    0.00   57.79

Device:         rrqm/s   wrqm/s     r/s     w/s    rkB/s    wkB/s avgrq-sz avgqu-sz   await r_await w_await  svctm  %util
sda            1823.00     0.00 30640.00    0.00 129816.00     0.00     8.47    34.15    1.11    1.11    0.00   0.02  69.60
sdb            1883.00     0.00 30469.00    0.00 129412.00     0.00     8.49    33.92    1.11    1.11    0.00   0.02  70.80
sdc            1822.00     0.00 30443.00    0.00 129052.00     0.00     8.48    38.17    1.25    1.25    0.00   0.03  76.30
sdd            1858.00     0.00 30657.00    0.00 130060.00     0.00     8.48    39.49    1.29    1.29    0.00   0.03  78.20
sde            1882.00     0.00 30504.00    0.00 129564.00     0.00     8.49    39.22    1.28    1.28    0.00   0.03  76.50
sdf            1944.00     0.00 30600.00    0.00 130192.00     0.00     8.51    39.14    1.28    1.28    0.00   0.03  77.60
sdg               0.00     0.00    0.00    0.00     0.00     0.00     0.00     0.00    0.00    0.00    0.00   0.00   0.00
sdh               0.00     0.00    0.00    0.00     0.00     0.00     0.00     0.00    0.00    0.00    0.00   0.00   0.00
md0               0.00     0.00 194894.00    0.00 779576.00     0.00     8.00     0.00    0.00    0.00    0.00   0.00   0.00

avg-cpu:  %user   %nice %system %iowait  %steal   %idle
           2.25    0.00   40.75    0.00    0.00   57.00

Device:         rrqm/s   wrqm/s     r/s     w/s    rkB/s    wkB/s avgrq-sz avgqu-sz   await r_await w_await  svctm  %util
sda            1740.00     0.00 30957.00    0.00 130820.00     0.00     8.45    34.40    1.11    1.11    0.00   0.02  69.30
sdb            1748.00     0.00 30440.00    0.00 128788.00     0.00     8.46    33.85    1.11    1.11    0.00   0.02  69.10
sdc            1774.00     0.00 30522.00    0.00 129200.00     0.00     8.47    38.56    1.27    1.27    0.00   0.02  75.90
sdd            1726.00     0.00 30262.00    0.00 128000.00     0.00     8.46    38.09    1.26    1.26    0.00   0.02  75.50
sde            1813.00     0.00 30374.00    0.00 128764.00     0.00     8.48    38.47    1.27    1.27    0.00   0.03  76.60
sdf            1853.00     0.00 30444.00    0.00 129200.00     0.00     8.49    38.89    1.28    1.28    0.00   0.02  75.50
sdg               0.00     0.00    6.00    2.00    24.00    20.00    11.00     0.00    0.25    0.00    1.00   0.12   0.10
sdh               0.00     0.00    0.00    0.00     0.00     0.00     0.00     0.00    0.00    0.00    0.00   0.00   0.00
md0               0.00     0.00 193739.00    0.00 774956.00     0.00     8.00     0.00    0.00    0.00    0.00   0.00   0.00

avg-cpu:  %user   %nice %system %iowait  %steal   %idle
           2.75    0.00   41.00    0.00    0.00   56.25

Device:         rrqm/s   wrqm/s     r/s     w/s    rkB/s    wkB/s avgrq-sz avgqu-sz   await r_await w_await  svctm  %util
sda            1574.00     0.00 30129.00    0.00 126844.00     0.00     8.42    30.01    1.00    1.00    0.00   0.02  66.80
sdb            1533.00     0.00 30141.00    0.00 126728.00     0.00     8.41    29.80    0.99    0.99    0.00   0.02  67.20
sdc            1468.00     0.00 30063.00    0.00 126148.00     0.00     8.39    34.06    1.13    1.13    0.00   0.02  74.00
sdd            1459.00     0.00 30086.00    0.00 126180.00     0.00     8.39    34.23    1.14    1.14    0.00   0.02  74.40
sde            1505.00     0.00 29969.00    0.00 125908.00     0.00     8.40    34.00    1.13    1.13    0.00   0.02  73.70
sdf            1538.00     0.00 29814.00    0.00 125432.00     0.00     8.41    34.06    1.14    1.14    0.00   0.02  74.20
sdg               0.00     0.00    0.00    0.00     0.00     0.00     0.00     0.00    0.00    0.00    0.00   0.00   0.00
sdh               0.00     0.00    0.00    0.00     0.00     0.00     0.00     0.00    0.00    0.00    0.00   0.00   0.00
md0               0.00     0.00 189102.00    0.00 756408.00     0.00     8.00     0.00    0.00    0.00    0.00   0.00   0.00

avg-cpu:  %user   %nice %system %iowait  %steal   %idle
           2.77    0.25   40.81    0.00    0.00   56.17

Device:         rrqm/s   wrqm/s     r/s     w/s    rkB/s    wkB/s avgrq-sz avgqu-sz   await r_await w_await  svctm  %util
sda            1303.00     0.00 29707.00    0.00 124056.00     0.00     8.35    28.47    0.96    0.96    0.00   0.02  65.50
sdb            1287.00     0.00 29585.00    0.00 123500.00     0.00     8.35    28.14    0.95    0.95    0.00   0.02  65.10
sdc            1369.00     0.00 29730.00    0.00 124416.00     0.00     8.37    32.28    1.09    1.09    0.00   0.02  70.50
sdd            1321.00     0.00 29549.00    0.00 123504.00     0.00     8.36    32.00    1.08    1.08    0.00   0.02  71.50
sde            1336.00     0.00 29617.00    0.00 123820.00     0.00     8.36    32.47    1.10    1.10    0.00   0.02  70.70
sdf            1397.00     0.00 29719.00    0.00 124488.00     0.00     8.38    32.51    1.09    1.09    0.00   0.02  71.30
sdg               0.00     0.00   40.00    0.00   472.00     0.00    23.60     0.01    0.25    0.25    0.00   0.18   0.70
sdh               0.00     0.00    0.00    0.00     0.00     0.00     0.00     0.00    0.00    0.00    0.00   0.00   0.00
md0               0.00     0.00 186048.00    0.00 744192.00     0.00     8.00     0.00    0.00    0.00    0.00   0.00   0.00

avg-cpu:  %user   %nice %system %iowait  %steal   %idle
           3.08    0.00   39.49    0.00    0.00   57.44

Device:         rrqm/s   wrqm/s     r/s     w/s    rkB/s    wkB/s avgrq-sz avgqu-sz   await r_await w_await  svctm  %util
sda            1173.00     0.00 29171.00    0.00 121376.00     0.00     8.32    27.19    0.93    0.93    0.00   0.02  64.60
sdb            1220.00     0.00 29287.00    0.00 122028.00     0.00     8.33    27.38    0.94    0.94    0.00   0.02  65.00
sdc            1204.00     0.00 29223.00    0.00 121708.00     0.00     8.33    30.99    1.06    1.06    0.00   0.02  70.10
sdd            1222.00     0.00 29141.00    0.00 121448.00     0.00     8.34    30.90    1.06    1.06    0.00   0.02  70.10
sde            1228.00     0.00 29166.00    0.00 121580.00     0.00     8.34    31.00    1.06    1.06    0.00   0.02  69.80
sdf            1226.00     0.00 29861.00    0.00 124372.00     0.00     8.33    32.35    1.08    1.08    0.00   0.02  70.40
sdg               0.00     0.00    0.00    0.00     0.00     0.00     0.00     0.00    0.00    0.00    0.00   0.00   0.00
sdh               0.00     0.00    0.00    0.00     0.00     0.00     0.00     0.00    0.00    0.00    0.00   0.00   0.00
md0               0.00     0.00 183067.00    0.00 732268.00     0.00     8.00     0.00    0.00    0.00    0.00   0.00   0.00

avg-cpu:  %user   %nice %system %iowait  %steal   %idle
           3.23    0.00   41.69    0.00    0.00   55.09

Device:         rrqm/s   wrqm/s     r/s     w/s    rkB/s    wkB/s avgrq-sz avgqu-sz   await r_await w_await  svctm  %util
sda             957.00     0.00 28679.00    0.00 118580.00     0.00     8.27    22.89    0.80    0.80    0.00   0.02  64.00
sdb             924.00     0.00 28579.00    0.00 118032.00     0.00     8.26    23.05    0.80    0.80    0.00   0.02  64.60
sdc             970.00     0.00 28400.00    0.00 117504.00     0.00     8.27    26.07    0.92    0.92    0.00   0.02  69.50
sdd             964.00     0.00 28703.00    0.00 118708.00     0.00     8.27    26.54    0.93    0.93    0.00   0.02  69.40
sde            1023.00     0.00 28447.00    0.00 117904.00     0.00     8.29    26.38    0.93    0.93    0.00   0.02  70.50
sdf             990.00     0.00 28649.00    0.00 118576.00     0.00     8.28    26.74    0.94    0.94    0.00   0.02  70.30
sdg               0.00     0.00    0.00    0.00     0.00     0.00     0.00     0.00    0.00    0.00    0.00   0.00   0.00
sdh               0.00     0.00    0.00    0.00     0.00     0.00     0.00     0.00    0.00    0.00    0.00   0.00   0.00
md0               0.00     0.00 176959.00    0.00 707836.00     0.00     8.00     0.00    0.00    0.00    0.00   0.00   0.00

avg-cpu:  %user   %nice %system %iowait  %steal   %idle
           2.99    0.00   41.90    0.75    0.00   54.36

Device:         rrqm/s   wrqm/s     r/s     w/s    rkB/s    wkB/s avgrq-sz avgqu-sz   await r_await w_await  svctm  %util
sda             908.00     0.00 27032.00    0.00 111760.00     0.00     8.27    22.71    0.84    0.84    0.00   0.02  62.00
sdb             902.00     0.00 27511.00    0.00 113660.00     0.00     8.26    23.29    0.85    0.85    0.00   0.02  61.80
sdc             933.00     0.00 27214.00    0.00 112596.00     0.00     8.27    26.18    0.96    0.96    0.00   0.02  67.40
sdd             988.00     0.00 27283.00    0.00 113108.00     0.00     8.29    26.24    0.96    0.96    0.00   0.02  67.90
sde             971.00     0.00 27378.00    0.00 113396.00     0.00     8.28    26.47    0.97    0.97    0.00   0.02  67.70
sdf             989.00     0.00 27300.00    0.00 113172.00     0.00     8.29    26.43    0.97    0.97    0.00   0.02  68.00
sdg               0.00    69.00    0.00 1461.00     0.00  7488.00    10.25     8.41    5.76    0.00    5.76   0.04   6.30
sdh               0.00     0.00    0.00    0.00     0.00     0.00     0.00     0.00    0.00    0.00    0.00   0.00   0.00
md0               0.00     0.00 169624.00    0.00 678496.00     0.00     8.00     0.00    0.00    0.00    0.00   0.00   0.00

avg-cpu:  %user   %nice %system %iowait  %steal   %idle
           2.76    0.00   41.71    0.00    0.00   55.53

Device:         rrqm/s   wrqm/s     r/s     w/s    rkB/s    wkB/s avgrq-sz avgqu-sz   await r_await w_await  svctm  %util
sda             847.00     0.00 27392.00    0.00 112968.00     0.00     8.25    22.74    0.83    0.83    0.00   0.02  61.80
sdb             944.00     0.00 27410.00    0.00 113412.00     0.00     8.28    23.05    0.84    0.84    0.00   0.02  62.00
sdc             929.00     0.00 27314.00    0.00 112972.00     0.00     8.27    26.03    0.95    0.95    0.00   0.02  67.60
sdd            1011.00     0.00 27327.00    0.00 113356.00     0.00     8.30    26.01    0.95    0.95    0.00   0.02  67.00
sde             922.00     0.00 27277.00    0.00 112800.00     0.00     8.27    25.99    0.95    0.95    0.00   0.02  67.20
sdf             994.00     0.00 27148.00    0.00 112576.00     0.00     8.29    26.05    0.96    0.96    0.00   0.02  66.00
sdg               0.00     0.00    0.00    0.00     0.00     0.00     0.00     0.00    0.00    0.00    0.00   0.00   0.00
sdh               0.00     0.00    0.00    0.00     0.00     0.00     0.00     0.00    0.00    0.00    0.00   0.00   0.00
md0               0.00     0.00 169768.00    0.00 679072.00     0.00     8.00     0.00    0.00    0.00    0.00   0.00   0.00

avg-cpu:  %user   %nice %system %iowait  %steal   %idle
           2.98    0.00   41.69    0.00    0.00   55.33

Device:         rrqm/s   wrqm/s     r/s     w/s    rkB/s    wkB/s avgrq-sz avgqu-sz   await r_await w_await  svctm  %util
sda             825.00     0.00 26962.00    0.00 111152.00     0.00     8.25    22.25    0.83    0.83    0.00   0.02  61.80
sdb             828.00     0.00 27088.00    0.00 111680.00     0.00     8.25    22.20    0.82    0.82    0.00   0.02  61.60
sdc             917.00     0.00 27063.00    0.00 111932.00     0.00     8.27    25.27    0.93    0.93    0.00   0.02  67.30
sdd             914.00     0.00 27141.00    0.00 112224.00     0.00     8.27    25.72    0.95    0.95    0.00   0.02  66.70
sde             925.00     0.00 27112.00    0.00 112164.00     0.00     8.27    25.74    0.95    0.95    0.00   0.02  67.30
sdf             986.00     0.00 27066.00    0.00 112220.00     0.00     8.29    26.01    0.96    0.96    0.00   0.02  67.30
sdg               0.00     0.00    0.00    0.00     0.00     0.00     0.00     0.00    0.00    0.00    0.00   0.00   0.00
sdh               0.00     0.00    0.00    0.00     0.00     0.00     0.00     0.00    0.00    0.00    0.00   0.00   0.00
md0               0.00     0.00 167395.00    0.00 669580.00     0.00     8.00     0.00    0.00    0.00    0.00   0.00   0.00

avg-cpu:  %user   %nice %system %iowait  %steal   %idle
           3.02    0.00   41.56    0.00    0.00   55.42

Device:         rrqm/s   wrqm/s     r/s     w/s    rkB/s    wkB/s avgrq-sz avgqu-sz   await r_await w_await  svctm  %util
sda             874.00     0.00 27375.00    0.00 112996.00     0.00     8.26    22.02    0.80    0.80    0.00   0.02  61.20
sdb             861.00     0.00 27468.00    0.00 113324.00     0.00     8.25    22.13    0.81    0.81    0.00   0.02  62.20
sdc             963.00     0.00 27440.00    0.00 113620.00     0.00     8.28    25.24    0.92    0.92    0.00   0.02  67.20
sdd             935.00     0.00 27301.00    0.00 112956.00     0.00     8.27    24.89    0.91    0.91    0.00   0.02  67.10
sde             862.00     0.00 27199.00    0.00 112252.00     0.00     8.25    24.97    0.92    0.92    0.00   0.02  66.90
sdf             820.00     0.00 27107.00    0.00 111712.00     0.00     8.24    25.02    0.92    0.92    0.00   0.02  67.10
sdg               0.00     0.00    0.00    0.00     0.00     0.00     0.00     0.00    0.00    0.00    0.00   0.00   0.00
sdh               0.00     0.00    0.00    0.00     0.00     0.00     0.00     0.00    0.00    0.00    0.00   0.00   0.00
md0               0.00     0.00 169308.00    0.00 677232.00     0.00     8.00     0.00    0.00    0.00    0.00   0.00   0.00

avg-cpu:  %user   %nice %system %iowait  %steal   %idle
           3.00    0.00   42.00    0.00    0.00   55.00

Device:         rrqm/s   wrqm/s     r/s     w/s    rkB/s    wkB/s avgrq-sz avgqu-sz   await r_await w_await  svctm  %util
sda             851.00     0.00 27766.00    0.00 114484.00     0.00     8.25    22.41    0.81    0.81    0.00   0.02  62.60
sdb             869.00     0.00 27851.00    0.00 114876.00     0.00     8.25    22.72    0.82    0.82    0.00   0.02  61.80
sdc             879.00     0.00 27637.00    0.00 114068.00     0.00     8.25    25.54    0.92    0.92    0.00   0.02  68.00
sdd             841.00     0.00 27378.00    0.00 112880.00     0.00     8.25    25.25    0.92    0.92    0.00   0.02  67.70
sde             900.00     0.00 27769.00    0.00 114672.00     0.00     8.26    25.76    0.93    0.93    0.00   0.02  68.80
sdf             889.00     0.00 27688.00    0.00 114308.00     0.00     8.26    25.63    0.93    0.93    0.00   0.02  68.00
sdg               0.00     0.00    0.00    0.00     0.00     0.00     0.00     0.00    0.00    0.00    0.00   0.00   0.00
sdh               0.00     0.00    0.00    0.00     0.00     0.00     0.00     0.00    0.00    0.00    0.00   0.00   0.00
md0               0.00     0.00 171632.00    0.00 686528.00     0.00     8.00     0.00    0.00    0.00    0.00   0.00   0.00

avg-cpu:  %user   %nice %system %iowait  %steal   %idle
           3.03    0.00   42.42    0.00    0.00   54.55

Device:         rrqm/s   wrqm/s     r/s     w/s    rkB/s    wkB/s avgrq-sz avgqu-sz   await r_await w_await  svctm  %util
sda             846.00     0.00 28299.00    0.00 116592.00     0.00     8.24    22.29    0.79    0.79    0.00   0.02  62.60
sdb             820.00     0.00 28185.00    0.00 116028.00     0.00     8.23    22.17    0.79    0.79    0.00   0.02  62.60
sdc             847.00     0.00 27963.00    0.00 115240.00     0.00     8.24    25.40    0.91    0.91    0.00   0.02  68.40
sdd             864.00     0.00 28022.00    0.00 115556.00     0.00     8.25    25.38    0.90    0.90    0.00   0.02  68.40
sde             852.00     0.00 28139.00    0.00 115988.00     0.00     8.24    25.69    0.91    0.91    0.00   0.02  68.00
sdf             885.00     0.00 27894.00    0.00 115132.00     0.00     8.25    25.47    0.91    0.91    0.00   0.02  68.40
sdg               0.00     0.00    0.00    0.00     0.00     0.00     0.00     0.00    0.00    0.00    0.00   0.00   0.00
sdh               0.00     0.00    0.00    0.00     0.00     0.00     0.00     0.00    0.00    0.00    0.00   0.00   0.00
md0               0.00     0.00 173327.00    0.00 693308.00     0.00     8.00     0.00    0.00    0.00    0.00   0.00   0.00

avg-cpu:  %user   %nice %system %iowait  %steal   %idle
           3.26    0.00   42.86    0.00    0.00   53.88

Device:         rrqm/s   wrqm/s     r/s     w/s    rkB/s    wkB/s avgrq-sz avgqu-sz   await r_await w_await  svctm  %util
sda             844.00     0.00 27663.00    0.00 114044.00     0.00     8.25    21.43    0.78    0.78    0.00   0.02  61.20
sdb             800.00     0.00 27718.00    0.00 114108.00     0.00     8.23    21.64    0.78    0.78    0.00   0.02  61.70
sdc             848.00     0.00 27753.00    0.00 114448.00     0.00     8.25    24.90    0.90    0.90    0.00   0.02  67.80
sdd             885.00     0.00 27365.00    0.00 113028.00     0.00     8.26    24.36    0.89    0.89    0.00   0.02  67.70
sde             838.00     0.00 27616.00    0.00 113832.00     0.00     8.24    24.93    0.90    0.90    0.00   0.02  66.50
sdf             899.00     0.00 27566.00    0.00 113868.00     0.00     8.26    25.01    0.91    0.91    0.00   0.02  68.20
sdg               0.00     0.00    0.00    0.00     0.00     0.00     0.00     0.00    0.00    0.00    0.00   0.00   0.00
sdh               0.00     0.00    0.00    0.00     0.00     0.00     0.00     0.00    0.00    0.00    0.00   0.00   0.00
md0               0.00     0.00 170708.00    0.00 682948.00     0.00     8.00     0.00    0.00    0.00    0.00   0.00   0.00

avg-cpu:  %user   %nice %system %iowait  %steal   %idle
           2.28    0.00   43.04    2.28    0.00   52.41

Device:         rrqm/s   wrqm/s     r/s     w/s    rkB/s    wkB/s avgrq-sz avgqu-sz   await r_await w_await  svctm  %util
sda             834.00     0.00 27037.00    0.00 111488.00     0.00     8.25    21.57    0.80    0.80    0.00   0.02  61.70
sdb             784.00     0.00 26955.00    0.00 110984.00     0.00     8.23    21.47    0.80    0.80    0.00   0.02  61.90
sdc             910.00     0.00 26980.00    0.00 111572.00     0.00     8.27    24.98    0.93    0.93    0.00   0.03  68.00
sdd             802.00     0.00 27143.00    0.00 111808.00     0.00     8.24    25.13    0.93    0.93    0.00   0.03  67.90
sde             904.00     0.00 26868.00    0.00 111096.00     0.00     8.27    24.98    0.93    0.93    0.00   0.03  67.60
sdf             924.00     0.00 27175.00    0.00 112428.00     0.00     8.27    25.53    0.94    0.94    0.00   0.03  68.00
sdg               0.00     0.00 1620.00    0.00  6480.00     0.00     8.00     0.21    0.13    0.13    0.00   0.13  20.70
sdh               0.00     0.00    0.00    0.00     0.00     0.00     0.00     0.00    0.00    0.00    0.00   0.00   0.00
md0               0.00     0.00 167327.00    0.00 669376.00     0.00     8.00     0.00    0.00    0.00    0.00   0.00   0.00

avg-cpu:  %user   %nice %system %iowait  %steal   %idle
           3.02    0.25   41.21    0.50    0.00   55.03

Device:         rrqm/s   wrqm/s     r/s     w/s    rkB/s    wkB/s avgrq-sz avgqu-sz   await r_await w_await  svctm  %util
sda             854.00     0.00 27026.00    0.00 111512.00     0.00     8.25    21.90    0.81    0.81    0.00   0.02  60.20
sdb             852.00     0.00 27008.00    0.00 111424.00     0.00     8.25    21.90    0.81    0.81    0.00   0.02  61.10
sdc             826.00     0.00 27072.00    0.00 111572.00     0.00     8.24    25.12    0.93    0.93    0.00   0.02  66.50
sdd             917.00     0.00 27182.00    0.00 112396.00     0.00     8.27    25.66    0.94    0.94    0.00   0.02  67.20
sde             917.00     0.00 27104.00    0.00 112072.00     0.00     8.27    25.60    0.94    0.94    0.00   0.03  67.80
sdf             924.00     0.00 27024.00    0.00 111828.00     0.00     8.28    25.49    0.94    0.94    0.00   0.02  67.00
sdg               0.00     0.00  222.00    0.00   888.00     0.00     8.00     0.03    0.12    0.12    0.00   0.12   2.70
sdh               0.00     0.00    0.00    0.00     0.00     0.00     0.00     0.00    0.00    0.00    0.00   0.00   0.00
md0               0.00     0.00 168070.00    0.00 672324.00     0.00     8.00     0.00    0.00    0.00    0.00   0.00   0.00

avg-cpu:  %user   %nice %system %iowait  %steal   %idle
           2.75    0.00   42.75    0.00    0.00   54.50

Device:         rrqm/s   wrqm/s     r/s     w/s    rkB/s    wkB/s avgrq-sz avgqu-sz   await r_await w_await  svctm  %util
sda             763.00     0.00 26959.00    0.00 110896.00     0.00     8.23    20.90    0.78    0.78    0.00   0.02  61.00
sdb             842.00     0.00 26740.00    0.00 110344.00     0.00     8.25    21.06    0.79    0.79    0.00   0.02  60.20
sdc             828.00     0.00 26945.00    0.00 111116.00     0.00     8.25    24.26    0.90    0.90    0.00   0.03  67.40
sdd             800.00     0.00 26838.00    0.00 110564.00     0.00     8.24    23.98    0.89    0.89    0.00   0.03  67.60
sde             849.00     0.00 26857.00    0.00 110844.00     0.00     8.25    24.10    0.90    0.90    0.00   0.02  65.70
sdf             885.00     0.00 26925.00    0.00 111272.00     0.00     8.27    24.46    0.91    0.91    0.00   0.02  66.60
sdg               0.00     0.00    0.00    0.00     0.00     0.00     0.00     0.00    0.00    0.00    0.00   0.00   0.00
sdh               0.00     0.00    0.00    0.00     0.00     0.00     0.00     0.00    0.00    0.00    0.00   0.00   0.00
md0               0.00     0.00 165879.00    0.00 663516.00     0.00     8.00     0.00    0.00    0.00    0.00   0.00   0.00

avg-cpu:  %user   %nice %system %iowait  %steal   %idle
           3.00    0.00   41.25    0.00    0.00   55.75

Device:         rrqm/s   wrqm/s     r/s     w/s    rkB/s    wkB/s avgrq-sz avgqu-sz   await r_await w_await  svctm  %util
sda             820.00     0.00 26868.00    0.00 110756.00     0.00     8.24    21.45    0.80    0.80    0.00   0.02  60.60
sdb             782.00     0.00 26355.00    0.00 108556.00     0.00     8.24    20.95    0.80    0.80    0.00   0.02  60.40
sdc             858.00     0.00 26892.00    0.00 111016.00     0.00     8.26    24.64    0.92    0.92    0.00   0.02  65.50
sdd             840.00     0.00 26655.00    0.00 109980.00     0.00     8.25    24.47    0.92    0.92    0.00   0.02  65.30
sde             843.00     0.00 26392.00    0.00 108944.00     0.00     8.26    24.27    0.92    0.92    0.00   0.03  66.00
sdf             895.00     0.00 26660.00    0.00 110224.00     0.00     8.27    24.70    0.93    0.93    0.00   0.02  65.90
sdg               0.00     0.00    0.00    0.00     0.00     0.00     0.00     0.00    0.00    0.00    0.00   0.00   0.00
sdh               0.00     0.00    0.00    0.00     0.00     0.00     0.00     0.00    0.00    0.00    0.00   0.00   0.00
md0               0.00     0.00 164875.00    0.00 659500.00     0.00     8.00     0.00    0.00    0.00    0.00   0.00   0.00

avg-cpu:  %user   %nice %system %iowait  %steal   %idle
           3.23    0.00   42.43    0.00    0.00   54.34

Device:         rrqm/s   wrqm/s     r/s     w/s    rkB/s    wkB/s avgrq-sz avgqu-sz   await r_await w_await  svctm  %util
sda             869.00     0.00 27640.00    0.00 114040.00     0.00     8.25    22.14    0.80    0.80    0.00   0.02  62.50
sdb             910.00     0.00 27512.00    0.00 113688.00     0.00     8.26    21.85    0.79    0.79    0.00   0.02  61.50
sdc             898.00     0.00 27429.00    0.00 113316.00     0.00     8.26    25.15    0.92    0.92    0.00   0.03  68.60
sdd             874.00     0.00 27593.00    0.00 113904.00     0.00     8.26    25.36    0.92    0.92    0.00   0.02  67.00
sde             962.00     0.00 27777.00    0.00 114960.00     0.00     8.28    25.82    0.93    0.93    0.00   0.02  69.20
sdf             944.00     0.00 27369.00    0.00 113300.00     0.00     8.28    25.40    0.93    0.93    0.00   0.02  67.40
sdg               0.00     0.00    2.00    0.00     8.00     0.00     8.00     0.00    0.00    0.00    0.00   0.00   0.00
sdh               0.00     0.00    0.00    0.00     0.00     0.00     0.00     0.00    0.00    0.00    0.00   0.00   0.00
md0               0.00     0.00 170780.00    0.00 683184.00     0.00     8.00     0.00    0.00    0.00    0.00   0.00   0.00

