Linux 4.17.2 (bench) 	08/03/2018 	_x86_64_	(4 CPU)

avg-cpu:  %user   %nice %system %iowait  %steal   %idle
          10.29    0.02    3.99    2.43    0.00   83.27

Device:         rrqm/s   wrqm/s     r/s     w/s    rkB/s    wkB/s avgrq-sz avgqu-sz   await r_await w_await  svctm  %util
sda              39.65     4.28 1603.65  103.64 20648.86  3162.54    27.89     1.03    0.60    0.26    5.91   0.06  10.50
sdb              39.56     4.24 1603.53  103.78 20638.23  3159.17    27.88     1.02    0.60    0.26    5.85   0.06  10.38
sdc              77.71     4.30 1563.30  103.32 20630.49  3161.65    28.55     1.44    0.87    0.45    7.12   0.08  13.81
sdd              71.04     4.27 1569.12  103.39 20615.12  3157.81    28.43     1.45    0.87    0.44    7.32   0.08  13.90
sde              73.12     4.31 1574.27  103.49 20675.86  3162.10    28.42     1.47    0.88    0.45    7.43   0.08  13.92
sdf              70.20     4.29 1576.45  103.43 20656.82  3158.93    28.35     1.52    0.90    0.44    7.90   0.08  13.95
sdg               0.00     3.18   25.89   73.35   322.32   391.99    14.39     0.44    4.44    0.20    5.93   0.08   0.77
sdh               0.00     0.13    0.02    0.24     2.23     5.12    56.82     0.00    1.15    0.65    1.19   0.21   0.01
md0               0.00     0.00 9867.75  485.51 141374.47 21654.59    31.49     0.00    0.00    0.00    0.00   0.00   0.00

avg-cpu:  %user   %nice %system %iowait  %steal   %idle
           2.53    0.00   26.12    0.00    0.00   71.35

Device:         rrqm/s   wrqm/s     r/s     w/s    rkB/s    wkB/s avgrq-sz avgqu-sz   await r_await w_await  svctm  %util
sda            3290.00     0.00 24524.00    0.00 111256.00     0.00     9.07     8.80    0.36    0.36    0.00   0.02  49.00
sdb            3447.00     0.00 24887.00    0.00 113336.00     0.00     9.11     8.70    0.35    0.35    0.00   0.02  47.80
sdc            4458.00     0.00 24014.00    0.00 113888.00     0.00     9.49    11.12    0.46    0.46    0.00   0.03  62.80
sdd            5461.00     0.00 24457.00    0.00 119672.00     0.00     9.79    11.41    0.47    0.47    0.00   0.03  64.70
sde            4615.00     0.00 24027.00    0.00 114568.00     0.00     9.54    11.09    0.46    0.46    0.00   0.03  64.00
sdf            4148.00     0.00 24483.00    0.00 114524.00     0.00     9.36    11.97    0.49    0.49    0.00   0.03  66.30
sdg               0.00     0.00    3.00    0.00    88.00     0.00    58.67     0.00    0.33    0.33    0.00   0.00   0.00
sdh               0.00     0.00    0.00    0.00     0.00     0.00     0.00     0.00    0.00    0.00    0.00   0.00   0.00
md0               0.00     0.00 171822.00    0.00 687288.00     0.00     8.00     0.00    0.00    0.00    0.00   0.00   0.00

avg-cpu:  %user   %nice %system %iowait  %steal   %idle
           2.23    0.00   22.35    0.28    0.00   75.14

Device:         rrqm/s   wrqm/s     r/s     w/s    rkB/s    wkB/s avgrq-sz avgqu-sz   await r_await w_await  svctm  %util
sda           13022.00     0.00 21618.00    0.00 138540.00     0.00    12.82     8.26    0.38    0.38    0.00   0.02  50.10
sdb           13068.00     0.00 21582.00    0.00 138512.00     0.00    12.84     8.98    0.42    0.42    0.00   0.02  50.20
sdc           13891.00     0.00 20332.00    0.00 136728.00     0.00    13.45    12.66    0.62    0.62    0.00   0.03  69.90
sdd           14046.00     0.00 20536.00    0.00 138276.00     0.00    13.47    12.84    0.63    0.63    0.00   0.03  71.60
sde           13711.00     0.00 20520.00    0.00 136680.00     0.00    13.32    12.45    0.61    0.61    0.00   0.03  70.20
sdf           14060.00     0.00 20422.00    0.00 137760.00     0.00    13.49    12.81    0.63    0.63    0.00   0.04  71.70
sdg               0.00     0.00    0.00    0.00     0.00     0.00     0.00     0.00    0.00    0.00    0.00   0.00   0.00
sdh               0.00     0.00    0.00    0.00     0.00     0.00     0.00     0.00    0.00    0.00    0.00   0.00   0.00
md0               0.00     0.00 206958.00    0.00 827832.00     0.00     8.00     0.00    0.00    0.00    0.00   0.00   0.00

avg-cpu:  %user   %nice %system %iowait  %steal   %idle
           1.69    0.00   20.79    0.28    0.00   77.25

Device:         rrqm/s   wrqm/s     r/s     w/s    rkB/s    wkB/s avgrq-sz avgqu-sz   await r_await w_await  svctm  %util
sda           15869.00     0.00 20620.00    0.00 145904.00     0.00    14.15     7.73    0.37    0.37    0.00   0.02  49.80
sdb           15344.00     0.00 20347.00    0.00 142748.00     0.00    14.03     8.30    0.41    0.41    0.00   0.02  50.60
sdc           17408.00     0.00 19301.00    0.00 146616.00     0.00    15.19    13.94    0.72    0.72    0.00   0.04  74.00
sdd           17156.00     0.00 19316.00    0.00 145832.00     0.00    15.10    13.11    0.68    0.68    0.00   0.04  73.90
sde           16938.00     0.00 19154.00    0.00 144364.00     0.00    15.07    13.00    0.68    0.68    0.00   0.04  72.70
sdf           16150.00     0.00 19328.00    0.00 142080.00     0.00    14.70    12.74    0.66    0.66    0.00   0.04  71.60
sdg               0.00     0.00    0.00    0.00     0.00     0.00     0.00     0.00    0.00    0.00    0.00   0.00   0.00
sdh               0.00     0.00    0.00    0.00     0.00     0.00     0.00     0.00    0.00    0.00    0.00   0.00   0.00
md0               0.00     0.00 216820.00    0.00 867280.00     0.00     8.00     0.00    0.00    0.00    0.00   0.00   0.00

avg-cpu:  %user   %nice %system %iowait  %steal   %idle
           1.40    0.00   21.85    0.28    0.00   76.47

Device:         rrqm/s   wrqm/s     r/s     w/s    rkB/s    wkB/s avgrq-sz avgqu-sz   await r_await w_await  svctm  %util
sda           16410.00     0.00 20346.00    0.00 147032.00     0.00    14.45     8.46    0.42    0.42    0.00   0.03  50.90
sdb           15644.00     0.00 20393.00    0.00 144224.00     0.00    14.14     7.81    0.38    0.38    0.00   0.02  49.40
sdc           16704.00     0.00 19497.00    0.00 145060.00     0.00    14.88    12.72    0.65    0.65    0.00   0.04  73.10
sdd           16620.00     0.00 19440.00    0.00 144140.00     0.00    14.83    13.16    0.68    0.68    0.00   0.04  73.10
sde           17139.00     0.00 19369.00    0.00 146076.00     0.00    15.08    13.17    0.68    0.68    0.00   0.04  74.60
sdf           16792.00     0.00 19568.00    0.00 145220.00     0.00    14.84    13.48    0.69    0.69    0.00   0.04  73.00
sdg               0.00     0.00    0.00    0.00     0.00     0.00     0.00     0.00    0.00    0.00    0.00   0.00   0.00
sdh               0.00     0.00    0.00    0.00     0.00     0.00     0.00     0.00    0.00    0.00    0.00   0.00   0.00
md0               0.00     0.00 217945.00    0.00 871780.00     0.00     8.00     0.00    0.00    0.00    0.00   0.00   0.00

avg-cpu:  %user   %nice %system %iowait  %steal   %idle
           1.97    0.00   20.85    0.00    0.00   77.18

Device:         rrqm/s   wrqm/s     r/s     w/s    rkB/s    wkB/s avgrq-sz avgqu-sz   await r_await w_await  svctm  %util
sda           15808.00     0.00 20295.00    0.00 144476.00     0.00    14.24     8.36    0.41    0.41    0.00   0.02  49.40
sdb           15301.00     0.00 20225.00    0.00 142132.00     0.00    14.06     7.52    0.37    0.37    0.00   0.02  48.30
sdc           16550.00     0.00 19206.00    0.00 143152.00     0.00    14.91    12.23    0.64    0.64    0.00   0.04  70.90
sdd           16879.00     0.00 19630.00    0.00 146112.00     0.00    14.89    13.46    0.69    0.69    0.00   0.04  74.30
sde           16880.00     0.00 19427.00    0.00 145320.00     0.00    14.96    14.06    0.72    0.72    0.00   0.04  73.40
sdf           16521.00     0.00 19434.00    0.00 143916.00     0.00    14.81    13.46    0.69    0.69    0.00   0.04  73.00
sdg               0.00     0.00    0.00    0.00     0.00     0.00     0.00     0.00    0.00    0.00    0.00   0.00   0.00
sdh               0.00     0.00    0.00    0.00     0.00     0.00     0.00     0.00    0.00    0.00    0.00   0.00   0.00
md0               0.00     0.00 216375.00    0.00 865500.00     0.00     8.00     0.00    0.00    0.00    0.00   0.00   0.00

avg-cpu:  %user   %nice %system %iowait  %steal   %idle
           1.68    0.00   21.79    0.28    0.00   76.26

Device:         rrqm/s   wrqm/s     r/s     w/s    rkB/s    wkB/s avgrq-sz avgqu-sz   await r_await w_await  svctm  %util
sda           15665.00     0.00 20418.00    0.00 144244.00     0.00    14.13     8.27    0.40    0.40    0.00   0.02  49.20
sdb           15965.00     0.00 20358.00    0.00 145176.00     0.00    14.26     7.78    0.38    0.38    0.00   0.02  48.80
sdc           16926.00     0.00 19441.00    0.00 145468.00     0.00    14.97    12.43    0.64    0.64    0.00   0.04  72.60
sdd           16766.00     0.00 19610.00    0.00 145500.00     0.00    14.84    12.69    0.65    0.65    0.00   0.04  71.90
sde           17004.00     0.00 19460.00    0.00 145900.00     0.00    14.99    13.23    0.68    0.68    0.00   0.04  73.10
sdf           16150.00     0.00 19626.00    0.00 143108.00     0.00    14.58    13.28    0.68    0.68    0.00   0.04  73.00
sdg               0.00     0.00    0.00    0.00     0.00     0.00     0.00     0.00    0.00    0.00    0.00   0.00   0.00
sdh               0.00     0.00    0.00    0.00     0.00     0.00     0.00     0.00    0.00    0.00    0.00   0.00   0.00
md0               0.00     0.00 217425.00    0.00 869700.00     0.00     8.00     0.00    0.00    0.00    0.00   0.00   0.00

avg-cpu:  %user   %nice %system %iowait  %steal   %idle
           1.68    0.00   22.07    0.28    0.00   75.98

Device:         rrqm/s   wrqm/s     r/s     w/s    rkB/s    wkB/s avgrq-sz avgqu-sz   await r_await w_await  svctm  %util
sda           15121.00     0.00 20535.00    0.00 142712.00     0.00    13.90     7.74    0.38    0.38    0.00   0.02  48.40
sdb           16423.00     0.00 20672.00    0.00 148292.00     0.00    14.35     8.07    0.39    0.39    0.00   0.03  52.00
sdc           17238.00     0.00 19882.00    0.00 148480.00     0.00    14.94    13.20    0.67    0.67    0.00   0.04  72.10
sdd           15986.00     0.00 19566.00    0.00 142292.00     0.00    14.54    12.85    0.66    0.66    0.00   0.04  71.40
sde           16327.00     0.00 19761.00    0.00 144224.00     0.00    14.60    13.18    0.67    0.67    0.00   0.04  73.00
sdf           16228.00     0.00 19799.00    0.00 144100.00     0.00    14.56    13.25    0.67    0.67    0.00   0.04  72.50
sdg               0.00     0.00    0.00    0.00     0.00     0.00     0.00     0.00    0.00    0.00    0.00   0.00   0.00
sdh               0.00     0.00    0.00    0.00     0.00     0.00     0.00     0.00    0.00    0.00    0.00   0.00   0.00
md0               0.00     0.00 217407.00    0.00 869628.00     0.00     8.00     0.00    0.00    0.00    0.00   0.00   0.00

avg-cpu:  %user   %nice %system %iowait  %steal   %idle
           1.63    0.27   28.34    4.90    0.00   64.85

Device:         rrqm/s   wrqm/s     r/s     w/s    rkB/s    wkB/s avgrq-sz avgqu-sz   await r_await w_await  svctm  %util
sda           16071.00     0.00 20655.00    0.00 146820.00     0.00    14.22     8.42    0.41    0.41    0.00   0.02  50.30
sdb           15749.00     0.00 20463.00    0.00 144832.00     0.00    14.16     8.54    0.42    0.42    0.00   0.03  51.80
sdc           15816.00     0.00 20130.00    0.00 143744.00     0.00    14.28    12.47    0.62    0.62    0.00   0.04  72.40
sdd           17363.00     0.00 19707.00    0.00 148136.00     0.00    15.03    12.89    0.65    0.65    0.00   0.04  74.50
sde           16519.00     0.00 19714.00    0.00 145112.00     0.00    14.72    12.85    0.65    0.65    0.00   0.04  72.00
sdf           15505.00     0.00 19915.00    0.00 141784.00     0.00    14.24    12.76    0.64    0.64    0.00   0.04  72.10
sdg               0.00    64.00 1886.00 2564.00  7820.00 12732.00     9.24    16.07    3.61    0.13    6.17   0.08  34.90
sdh               0.00     0.00    0.00    0.00     0.00     0.00     0.00     0.00    0.00    0.00    0.00   0.00   0.00
md0               0.00     0.00 217614.00    0.00 870456.00     0.00     8.00     0.00    0.00    0.00    0.00   0.00   0.00

avg-cpu:  %user   %nice %system %iowait  %steal   %idle
           1.39    0.00   23.96    0.28    0.00   74.37

Device:         rrqm/s   wrqm/s     r/s     w/s    rkB/s    wkB/s avgrq-sz avgqu-sz   await r_await w_await  svctm  %util
sda           15724.00     0.00 20208.00    0.00 143648.00     0.00    14.22     7.47    0.37    0.37    0.00   0.02  47.90
sdb           15554.00     0.00 20614.00    0.00 144804.00     0.00    14.05     8.70    0.42    0.42    0.00   0.03  52.10
sdc           16667.00     0.00 19347.00    0.00 143928.00     0.00    14.88    12.99    0.67    0.67    0.00   0.04  71.90
sdd           16838.00     0.00 19375.00    0.00 144812.00     0.00    14.95    13.04    0.67    0.67    0.00   0.04  73.00
sde           16779.00     0.00 19578.00    0.00 145428.00     0.00    14.86    13.02    0.66    0.66    0.00   0.04  73.90
sdf           16138.00     0.00 19713.00    0.00 143340.00     0.00    14.54    12.58    0.64    0.64    0.00   0.04  71.70
sdg               0.00     0.00    0.00    0.00     0.00     0.00     0.00     0.00    0.00    0.00    0.00   0.00   0.00
sdh               0.00     0.00    0.00    0.00     0.00     0.00     0.00     0.00    0.00    0.00    0.00   0.00   0.00
md0               0.00     0.00 216523.00    0.00 866092.00     0.00     8.00     0.00    0.00    0.00    0.00   0.00   0.00

avg-cpu:  %user   %nice %system %iowait  %steal   %idle
           2.29    0.00   24.86    0.00    0.00   72.86

Device:         rrqm/s   wrqm/s     r/s     w/s    rkB/s    wkB/s avgrq-sz avgqu-sz   await r_await w_await  svctm  %util
sda            9223.00     0.00 23843.00    0.00 132428.00     0.00    11.11     9.96    0.42    0.42    0.00   0.02  50.20
sdb            9369.00     0.00 23704.00    0.00 132380.00     0.00    11.17     9.30    0.39    0.39    0.00   0.02  49.00
sdc            9791.00     0.00 23016.00    0.00 131396.00     0.00    11.42    12.24    0.53    0.53    0.00   0.03  69.20
sdd           10582.00     0.00 22854.00    0.00 133980.00     0.00    11.72    12.23    0.54    0.54    0.00   0.03  69.00
sde           10083.00     0.00 22778.00    0.00 131416.00     0.00    11.54    13.04    0.57    0.57    0.00   0.03  69.50
sdf            9732.00     0.00 23062.00    0.00 131264.00     0.00    11.38    13.58    0.59    0.59    0.00   0.03  70.30
sdg               0.00     0.00    0.00    7.00     0.00   140.00    40.00     0.00    0.57    0.00    0.57   0.14   0.10
sdh               0.00     0.00    0.00    0.00     0.00     0.00     0.00     0.00    0.00    0.00    0.00   0.00   0.00
md0               0.00     0.00 197847.00    0.00 791388.00     0.00     8.00     0.00    0.00    0.00    0.00   0.00   0.00

avg-cpu:  %user   %nice %system %iowait  %steal   %idle
           1.94    0.00   24.38    0.00    0.00   73.68

Device:         rrqm/s   wrqm/s     r/s     w/s    rkB/s    wkB/s avgrq-sz avgqu-sz   await r_await w_await  svctm  %util
sda            9938.00     0.00 22499.00    0.00 129644.00     0.00    11.52     8.90    0.40    0.40    0.00   0.02  48.10
sdb            9682.00     0.00 22838.00    0.00 130080.00     0.00    11.39     9.02    0.40    0.40    0.00   0.02  48.50
sdc           10454.00     0.00 21189.00    0.00 126572.00     0.00    11.95    11.20    0.53    0.53    0.00   0.03  65.70
sdd           10952.00     0.00 21057.00    0.00 128036.00     0.00    12.16    10.89    0.52    0.52    0.00   0.03  65.70
sde           10499.00     0.00 21433.00    0.00 127680.00     0.00    11.91    11.17    0.52    0.52    0.00   0.03  63.90
sdf           10707.00     0.00 21819.00    0.00 129952.00     0.00    11.91    12.37    0.57    0.57    0.00   0.03  68.10
sdg               0.00     0.00    0.00    0.00     0.00     0.00     0.00     0.00    0.00    0.00    0.00   0.00   0.00
sdh               0.00     0.00    0.00    0.00     0.00     0.00     0.00     0.00    0.00    0.00    0.00   0.00   0.00
md0               0.00     0.00 193133.00    0.00 772532.00     0.00     8.00     0.00    0.00    0.00    0.00   0.00   0.00

avg-cpu:  %user   %nice %system %iowait  %steal   %idle
           1.00    0.00   24.81    0.00    0.00   74.19

Device:         rrqm/s   wrqm/s     r/s     w/s    rkB/s    wkB/s avgrq-sz avgqu-sz   await r_await w_await  svctm  %util
sda            7168.00     0.00 19627.00    0.00 107284.00     0.00    10.93     5.78    0.30    0.30    0.00   0.02  35.70
sdb            5757.00     0.00 20791.00    0.00 106008.00     0.00    10.20     6.52    0.31    0.31    0.00   0.02  38.10
sdc            9186.00     0.00 17731.00    0.00 107668.00     0.00    12.14     8.41    0.47    0.47    0.00   0.03  54.60
sdd            8741.00     0.00 16936.00    0.00 102708.00     0.00    12.13     7.44    0.44    0.44    0.00   0.03  50.10
sde            8004.00     0.00 18372.00    0.00 105596.00     0.00    11.50     8.55    0.47    0.47    0.00   0.03  51.20
sdf            7533.00     0.00 18173.00    0.00 102976.00     0.00    11.33     8.59    0.47    0.47    0.00   0.03  54.90
sdg               0.00     0.00    0.00    0.00     0.00     0.00     0.00     0.00    0.00    0.00    0.00   0.00   0.00
sdh               0.00     0.00    0.00    0.00     0.00     0.00     0.00     0.00    0.00    0.00    0.00   0.00   0.00
md0               0.00     0.00 158032.00    0.00 632128.00     0.00     8.00     0.00    0.00    0.00    0.00   0.00   0.00

avg-cpu:  %user   %nice %system %iowait  %steal   %idle
           1.00    0.00   25.00    0.00    0.00   74.00

Device:         rrqm/s   wrqm/s     r/s     w/s    rkB/s    wkB/s avgrq-sz avgqu-sz   await r_await w_await  svctm  %util
sda            7394.00     0.00 19316.00    0.00 106840.00     0.00    11.06     6.29    0.33    0.33    0.00   0.02  36.70
sdb            5587.00     0.00 20764.00    0.00 105588.00     0.00    10.17     6.87    0.33    0.33    0.00   0.02  38.70
sdc            7964.00     0.00 17577.00    0.00 102164.00     0.00    11.62     7.55    0.43    0.43    0.00   0.03  50.20
sdd            8636.00     0.00 17282.00    0.00 103632.00     0.00    11.99     7.96    0.46    0.46    0.00   0.03  50.80
sde            7987.00     0.00 17941.00    0.00 103636.00     0.00    11.55     8.79    0.49    0.49    0.00   0.03  53.40
sdf            7614.00     0.00 18382.00    0.00 103920.00     0.00    11.31     8.19    0.45    0.45    0.00   0.03  53.90
sdg               0.00     0.00    0.00    0.00     0.00     0.00     0.00     0.00    0.00    0.00    0.00   0.00   0.00
sdh               0.00     0.00    0.00    0.00     0.00     0.00     0.00     0.00    0.00    0.00    0.00   0.00   0.00
md0               0.00     0.00 156432.00    0.00 625728.00     0.00     8.00     0.00    0.00    0.00    0.00   0.00   0.00

avg-cpu:  %user   %nice %system %iowait  %steal   %idle
           1.26    0.00   24.37    0.00    0.00   74.37

Device:         rrqm/s   wrqm/s     r/s     w/s    rkB/s    wkB/s avgrq-sz avgqu-sz   await r_await w_await  svctm  %util
sda            6727.00     0.00 18837.00    0.00 102196.00     0.00    10.85     6.19    0.33    0.33    0.00   0.02  34.60
sdb            5504.00     0.00 21051.00    0.00 106220.00     0.00    10.09     6.62    0.31    0.31    0.00   0.02  37.30
sdc            7894.00     0.00 17173.00    0.00 100268.00     0.00    11.68     8.26    0.48    0.48    0.00   0.03  50.90
sdd            8958.00     0.00 17088.00    0.00 104224.00     0.00    12.20     7.71    0.45    0.45    0.00   0.03  51.60
sde            7610.00     0.00 18163.00    0.00 103168.00     0.00    11.36     8.15    0.45    0.45    0.00   0.03  50.80
sdf            7990.00     0.00 18486.00    0.00 105924.00     0.00    11.46     8.70    0.47    0.47    0.00   0.03  54.00
sdg               0.00     0.00    0.00    0.00     0.00     0.00     0.00     0.00    0.00    0.00    0.00   0.00   0.00
sdh               0.00     0.00    0.00    0.00     0.00     0.00     0.00     0.00    0.00    0.00    0.00   0.00   0.00
md0               0.00     0.00 155472.00    0.00 621888.00     0.00     8.00     0.00    0.00    0.00    0.00   0.00   0.00

avg-cpu:  %user   %nice %system %iowait  %steal   %idle
           1.50    0.00   24.25    0.00    0.00   74.25

Device:         rrqm/s   wrqm/s     r/s     w/s    rkB/s    wkB/s avgrq-sz avgqu-sz   await r_await w_await  svctm  %util
sda            7174.00     0.00 18980.00    0.00 104656.00     0.00    11.03     6.22    0.33    0.33    0.00   0.02  36.50
sdb            5044.00     0.00 20881.00    0.00 103648.00     0.00     9.93     6.20    0.30    0.30    0.00   0.02  37.70
sdc            7705.00     0.00 17184.00    0.00 99556.00     0.00    11.59     7.76    0.45    0.45    0.00   0.03  49.40
sdd            8728.00     0.00 17345.00    0.00 104292.00     0.00    12.03     8.00    0.46    0.46    0.00   0.03  51.90
sde            7757.00     0.00 17959.00    0.00 102864.00     0.00    11.46     8.36    0.47    0.47    0.00   0.03  50.60
sdf            7524.00     0.00 18662.00    0.00 104744.00     0.00    11.23     8.42    0.45    0.45    0.00   0.03  52.40
sdg               0.00     0.00    0.00    0.00     0.00     0.00     0.00     0.00    0.00    0.00    0.00   0.00   0.00
sdh               0.00     0.00    0.00    0.00     0.00     0.00     0.00     0.00    0.00    0.00    0.00   0.00   0.00
md0               0.00     0.00 154950.00    0.00 619800.00     0.00     8.00     0.00    0.00    0.00    0.00   0.00   0.00

avg-cpu:  %user   %nice %system %iowait  %steal   %idle
           1.00    0.00   25.00    0.00    0.00   74.00

Device:         rrqm/s   wrqm/s     r/s     w/s    rkB/s    wkB/s avgrq-sz avgqu-sz   await r_await w_await  svctm  %util
sda            6893.00     0.00 19085.00    0.00 103932.00     0.00    10.89     6.48    0.34    0.34    0.00   0.02  37.30
sdb            5046.00     0.00 20540.00    0.00 102396.00     0.00     9.97     5.67    0.28    0.28    0.00   0.02  35.80
sdc            7910.00     0.00 17318.00    0.00 100816.00     0.00    11.64     8.57    0.49    0.49    0.00   0.03  50.60
sdd            8717.00     0.00 17096.00    0.00 103228.00     0.00    12.08     7.68    0.45    0.45    0.00   0.03  52.30
sde            7426.00     0.00 18167.00    0.00 102372.00     0.00    11.27     7.93    0.44    0.44    0.00   0.03  50.90
sdf            7708.00     0.00 18393.00    0.00 104448.00     0.00    11.36     8.82    0.48    0.48    0.00   0.03  52.30
sdg               0.00     0.00    0.00    0.00     0.00     0.00     0.00     0.00    0.00    0.00    0.00   0.00   0.00
sdh               0.00     0.00    0.00    0.00     0.00     0.00     0.00     0.00    0.00    0.00    0.00   0.00   0.00
md0               0.00     0.00 154299.00    0.00 617196.00     0.00     8.00     0.00    0.00    0.00    0.00   0.00   0.00

avg-cpu:  %user   %nice %system %iowait  %steal   %idle
           0.75    0.00   24.87    0.00    0.00   74.37

Device:         rrqm/s   wrqm/s     r/s     w/s    rkB/s    wkB/s avgrq-sz avgqu-sz   await r_await w_await  svctm  %util
sda            6250.00     0.00 18883.00    0.00 100532.00     0.00    10.65     5.64    0.30    0.30    0.00   0.02  34.70
sdb            5016.00     0.00 20602.00    0.00 102472.00     0.00     9.95     6.40    0.31    0.31    0.00   0.02  37.20
sdc            8643.00     0.00 17695.00    0.00 105448.00     0.00    11.92     8.64    0.49    0.49    0.00   0.03  53.70
sdd            9425.00     0.00 17043.00    0.00 105704.00     0.00    12.40     7.79    0.46    0.46    0.00   0.03  52.10
sde            7670.00     0.00 18266.00    0.00 103684.00     0.00    11.35     8.39    0.46    0.46    0.00   0.03  51.10
sdf            7431.00     0.00 17876.00    0.00 101228.00     0.00    11.33     8.48    0.47    0.47    0.00   0.03  52.40
sdg               0.00     0.00    0.00    0.00     0.00     0.00     0.00     0.00    0.00    0.00    0.00   0.00   0.00
sdh               0.00     0.00    0.00    0.00     0.00     0.00     0.00     0.00    0.00    0.00    0.00   0.00   0.00
md0               0.00     0.00 154797.00    0.00 619188.00     0.00     8.00     0.00    0.00    0.00    0.00   0.00   0.00

avg-cpu:  %user   %nice %system %iowait  %steal   %idle
           1.50    0.25   24.94    0.00    0.00   73.32

Device:         rrqm/s   wrqm/s     r/s     w/s    rkB/s    wkB/s avgrq-sz avgqu-sz   await r_await w_await  svctm  %util
sda            7377.00     0.00 19029.00    0.00 105624.00     0.00    11.10     6.11    0.32    0.32    0.00   0.02  37.00
sdb            5806.00     0.00 20631.00    0.00 105748.00     0.00    10.25     6.42    0.31    0.31    0.00   0.02  38.20
sdc            8489.00     0.00 17518.00    0.00 104028.00     0.00    11.88     8.01    0.46    0.46    0.00   0.03  52.20
sdd            8756.00     0.00 16914.00    0.00 102872.00     0.00    12.16     7.79    0.46    0.46    0.00   0.03  51.00
sde            7457.00     0.00 17898.00    0.00 101444.00     0.00    11.34     8.53    0.48    0.48    0.00   0.03  51.90
sdf            7128.00     0.00 18283.00    0.00 101616.00     0.00    11.12     8.31    0.45    0.45    0.00   0.03  53.60
sdg               0.00     0.00    6.00    0.00    24.00     0.00     8.00     0.00    0.17    0.17    0.00   0.17   0.10
sdh               0.00     0.00    0.00    0.00     0.00     0.00     0.00     0.00    0.00    0.00    0.00   0.00   0.00
md0               0.00     0.00 155301.00    0.00 621204.00     0.00     8.00     0.00    0.00    0.00    0.00   0.00   0.00

avg-cpu:  %user   %nice %system %iowait  %steal   %idle
           1.00    0.00   24.81    0.00    0.00   74.19

Device:         rrqm/s   wrqm/s     r/s     w/s    rkB/s    wkB/s avgrq-sz avgqu-sz   await r_await w_await  svctm  %util
sda            6777.00     0.00 19358.00    0.00 104540.00     0.00    10.80     6.22    0.32    0.32    0.00   0.02  37.60
sdb            5125.00     0.00 20474.00    0.00 102396.00     0.00    10.00     5.95    0.29    0.29    0.00   0.02  36.70
sdc            8832.00     0.00 17690.00    0.00 106088.00     0.00    11.99     8.56    0.48    0.48    0.00   0.03  53.70
sdd            8444.00     0.00 16801.00    0.00 100948.00     0.00    12.02     7.52    0.45    0.45    0.00   0.03  51.60
sde            7401.00     0.00 18262.00    0.00 102688.00     0.00    11.25     8.52    0.47    0.47    0.00   0.03  50.50
sdf            7378.00     0.00 17954.00    0.00 101356.00     0.00    11.29     8.76    0.49    0.49    0.00   0.03  53.90
sdg               0.00     0.00    0.00    0.00     0.00     0.00     0.00     0.00    0.00    0.00    0.00   0.00   0.00
sdh               0.00     0.00    0.00    0.00     0.00     0.00     0.00     0.00    0.00    0.00    0.00   0.00   0.00
md0               0.00     0.00 154418.00    0.00 617672.00     0.00     8.00     0.00    0.00    0.00    0.00   0.00   0.00

avg-cpu:  %user   %nice %system %iowait  %steal   %idle
           1.71    0.00   22.51    0.28    0.00   75.50

Device:         rrqm/s   wrqm/s     r/s     w/s    rkB/s    wkB/s avgrq-sz avgqu-sz   await r_await w_await  svctm  %util
sda           16322.00     0.00 20739.00    0.00 148244.00     0.00    14.30     9.07    0.44    0.44    0.00   0.02  51.70
sdb           16797.00     0.00 20991.00    0.00 151152.00     0.00    14.40     8.13    0.39    0.39    0.00   0.02  51.90
sdc           15984.00     0.00 19737.00    0.00 142748.00     0.00    14.47    11.78    0.60    0.60    0.00   0.04  70.90
sdd           16296.00     0.00 19814.00    0.00 144436.00     0.00    14.58    12.34    0.62    0.62    0.00   0.04  72.20
sde           16025.00     0.00 19827.00    0.00 143408.00     0.00    14.47    13.22    0.67    0.67    0.00   0.04  72.90
sdf           16375.00     0.00 19868.00    0.00 144832.00     0.00    14.58    13.56    0.68    0.68    0.00   0.04  73.50
sdg               0.00     0.00    1.00    0.00     4.00     0.00     8.00     0.00    0.00    0.00    0.00   0.00   0.00
sdh               0.00     0.00    0.00    0.00     0.00     0.00     0.00     0.00    0.00    0.00    0.00   0.00   0.00
md0               0.00     0.00 218780.00    0.00 875120.00     0.00     8.00     0.00    0.00    0.00    0.00   0.00   0.00

