Linux 4.17.2 (bench) 	08/03/2018 	_x86_64_	(4 CPU)

avg-cpu:  %user   %nice %system %iowait  %steal   %idle
          10.28    0.02    4.05    2.55    0.00   83.10

Device:         rrqm/s   wrqm/s     r/s     w/s    rkB/s    wkB/s avgrq-sz avgqu-sz   await r_await w_await  svctm  %util
sda              44.34     4.24 1648.34  102.65 20902.76  3132.47    27.45     1.03    0.59    0.26    5.91   0.06  10.70
sdb              44.22     4.20 1648.26  102.79 20892.16  3129.13    27.44     1.03    0.59    0.26    5.85   0.06  10.58
sdc              82.15     4.26 1608.24  102.34 20884.28  3131.59    28.08     1.45    0.85    0.45    7.12   0.08  14.03
sdd              75.56     4.23 1614.00  102.41 20869.11  3127.78    27.96     1.46    0.85    0.44    7.32   0.08  14.13
sde              77.60     4.27 1619.07  102.50 20929.04  3132.03    27.95     1.48    0.86    0.44    7.43   0.08  14.15
sdf              74.71     4.24 1621.23  102.45 20910.25  3128.89    27.89     1.52    0.88    0.44    7.90   0.08  14.18
sdg               0.00     3.17   26.24   73.30   323.70   391.96    14.38     0.44    4.42    0.20    5.93   0.08   0.78
sdh               0.00     0.13    0.02    0.24     2.21     5.07    56.82     0.00    1.15    0.65    1.19   0.21   0.01
md0               0.00     0.00 10164.28  480.89 143173.04 21448.68    30.93     0.00    0.00    0.00    0.00   0.00   0.00

avg-cpu:  %user   %nice %system %iowait  %steal   %idle
           1.51    0.00   22.11    0.25    0.00   76.13

Device:         rrqm/s   wrqm/s     r/s     w/s    rkB/s    wkB/s avgrq-sz avgqu-sz   await r_await w_await  svctm  %util
sda               0.00     0.00 19782.00    0.00 79128.00     0.00     8.00     2.76    0.14    0.14    0.00   0.02  44.50
sdb               0.00     0.00 19757.00    0.00 79028.00     0.00     8.00     2.75    0.14    0.14    0.00   0.02  44.70
sdc               0.00     0.00 19552.00    0.00 78208.00     0.00     8.00     3.46    0.18    0.18    0.00   0.03  54.60
sdd               0.00     0.00 19767.00    0.00 79068.00     0.00     8.00     3.53    0.18    0.18    0.00   0.03  51.60
sde               0.00     0.00 19661.00    0.00 78644.00     0.00     8.00     3.46    0.18    0.18    0.00   0.03  51.30
sdf               0.00     0.00 19731.00    0.00 78924.00     0.00     8.00     3.77    0.19    0.19    0.00   0.03  54.60
sdg               0.00     0.00    3.00    0.00    88.00     0.00    58.67     0.00    0.67    0.67    0.00   0.67   0.20
sdh               0.00     0.00    0.00    0.00     0.00     0.00     0.00     0.00    0.00    0.00    0.00   0.00   0.00
md0               0.00     0.00 118262.00    0.00 473048.00     0.00     8.00     0.00    0.00    0.00    0.00   0.00   0.00

avg-cpu:  %user   %nice %system %iowait  %steal   %idle
           1.50    0.00   22.69    0.00    0.00   75.81

Device:         rrqm/s   wrqm/s     r/s     w/s    rkB/s    wkB/s avgrq-sz avgqu-sz   await r_await w_await  svctm  %util
sda               0.00     0.00 19828.00    0.00 79312.00     0.00     8.00     2.82    0.14    0.14    0.00   0.02  46.60
sdb               0.00     0.00 19794.00    0.00 79176.00     0.00     8.00     2.79    0.14    0.14    0.00   0.02  47.00
sdc               0.00     0.00 19625.00    0.00 78500.00     0.00     8.00     3.38    0.17    0.17    0.00   0.03  54.40
sdd               0.00     0.00 19656.00    0.00 78624.00     0.00     8.00     3.40    0.17    0.17    0.00   0.03  52.20
sde               0.00     0.00 19872.00    0.00 79488.00     0.00     8.00     3.41    0.17    0.17    0.00   0.03  53.20
sdf               0.00     0.00 19909.00    0.00 79636.00     0.00     8.00     3.69    0.19    0.19    0.00   0.03  53.80
sdg               0.00     0.00    0.00    0.00     0.00     0.00     0.00     0.00    0.00    0.00    0.00   0.00   0.00
sdh               0.00     0.00    0.00    0.00     0.00     0.00     0.00     0.00    0.00    0.00    0.00   0.00   0.00
md0               0.00     0.00 118687.00    0.00 474748.00     0.00     8.00     0.00    0.00    0.00    0.00   0.00   0.00

avg-cpu:  %user   %nice %system %iowait  %steal   %idle
           1.26    0.00   22.61    0.00    0.00   76.13

Device:         rrqm/s   wrqm/s     r/s     w/s    rkB/s    wkB/s avgrq-sz avgqu-sz   await r_await w_await  svctm  %util
sda               0.00     0.00 19685.00    0.00 78740.00     0.00     8.00     2.99    0.15    0.15    0.00   0.02  43.70
sdb               0.00     0.00 19705.00    0.00 78820.00     0.00     8.00     2.73    0.14    0.14    0.00   0.02  41.90
sdc               0.00     0.00 20061.00    0.00 80248.00     0.00     8.00     3.66    0.18    0.18    0.00   0.03  55.70
sdd               0.00     0.00 19751.00    0.00 79004.00     0.00     8.00     3.67    0.19    0.19    0.00   0.03  52.80
sde               0.00     0.00 19920.00    0.00 79680.00     0.00     8.00     3.84    0.19    0.19    0.00   0.03  52.20
sdf               0.00     0.00 19949.00    0.00 79796.00     0.00     8.00     3.96    0.20    0.20    0.00   0.03  53.40
sdg               0.00     0.00    0.00    0.00     0.00     0.00     0.00     0.00    0.00    0.00    0.00   0.00   0.00
sdh               0.00     0.00    0.00    0.00     0.00     0.00     0.00     0.00    0.00    0.00    0.00   0.00   0.00
md0               0.00     0.00 119089.00    0.00 476356.00     0.00     8.00     0.00    0.00    0.00    0.00   0.00   0.00

avg-cpu:  %user   %nice %system %iowait  %steal   %idle
           1.75    0.00   22.06    0.25    0.00   75.94

Device:         rrqm/s   wrqm/s     r/s     w/s    rkB/s    wkB/s avgrq-sz avgqu-sz   await r_await w_await  svctm  %util
sda               0.00     0.00 19312.00    0.00 77248.00     0.00     8.00     2.65    0.14    0.14    0.00   0.02  43.40
sdb               0.00     0.00 19444.00    0.00 77776.00     0.00     8.00     2.62    0.13    0.13    0.00   0.02  42.60
sdc               0.00     0.00 19596.00    0.00 78380.00     0.00     8.00     3.51    0.18    0.18    0.00   0.03  53.50
sdd               0.00     0.00 19428.00    0.00 77712.00     0.00     8.00     3.55    0.18    0.18    0.00   0.03  54.70
sde               0.00     0.00 19583.00    0.00 78332.00     0.00     8.00     3.58    0.18    0.18    0.00   0.03  54.50
sdf               0.00     0.00 19595.00    0.00 78380.00     0.00     8.00     3.54    0.18    0.18    0.00   0.03  51.20
sdg               0.00     0.00    0.00    0.00     0.00     0.00     0.00     0.00    0.00    0.00    0.00   0.00   0.00
sdh               0.00     0.00    0.00    0.00     0.00     0.00     0.00     0.00    0.00    0.00    0.00   0.00   0.00
md0               0.00     0.00 116969.00    0.00 467876.00     0.00     8.00     0.00    0.00    0.00    0.00   0.00   0.00

avg-cpu:  %user   %nice %system %iowait  %steal   %idle
           1.75    0.00   22.69    0.00    0.00   75.56

Device:         rrqm/s   wrqm/s     r/s     w/s    rkB/s    wkB/s avgrq-sz avgqu-sz   await r_await w_await  svctm  %util
sda               0.00     0.00 19306.00    0.00 77224.00     0.00     8.00     2.49    0.13    0.13    0.00   0.02  44.60
sdb               0.00     0.00 19640.00    0.00 78560.00     0.00     8.00     2.77    0.14    0.14    0.00   0.02  46.60
sdc               0.00     0.00 19312.00    0.00 77248.00     0.00     8.00     3.29    0.17    0.17    0.00   0.03  55.10
sdd               0.00     0.00 19346.00    0.00 77384.00     0.00     8.00     3.54    0.18    0.18    0.00   0.03  56.70
sde               0.00     0.00 19031.00    0.00 76124.00     0.00     8.00     3.45    0.18    0.18    0.00   0.03  55.10
sdf               0.00     0.00 19275.00    0.00 77100.00     0.00     8.00     3.24    0.17    0.17    0.00   0.03  52.40
sdg               0.00     0.00    0.00    0.00     0.00     0.00     0.00     0.00    0.00    0.00    0.00   0.00   0.00
sdh               0.00     0.00    0.00    0.00     0.00     0.00     0.00     0.00    0.00    0.00    0.00   0.00   0.00
md0               0.00     0.00 115906.00    0.00 463624.00     0.00     8.00     0.00    0.00    0.00    0.00   0.00   0.00

avg-cpu:  %user   %nice %system %iowait  %steal   %idle
           1.50    0.25   22.81    0.00    0.00   75.44

Device:         rrqm/s   wrqm/s     r/s     w/s    rkB/s    wkB/s avgrq-sz avgqu-sz   await r_await w_await  svctm  %util
sda               0.00     0.00 19735.00    0.00 78940.00     0.00     8.00     2.71    0.14    0.14    0.00   0.02  43.90
sdb               0.00     0.00 19688.00    0.00 78752.00     0.00     8.00     2.73    0.14    0.14    0.00   0.02  45.20
sdc               0.00     0.00 19551.00    0.00 78204.00     0.00     8.00     3.43    0.18    0.18    0.00   0.03  55.00
sdd               0.00     0.00 19695.00    0.00 78780.00     0.00     8.00     3.48    0.18    0.18    0.00   0.03  52.90
sde               0.00     0.00 19889.00    0.00 79556.00     0.00     8.00     3.53    0.18    0.18    0.00   0.03  53.60
sdf               0.00     0.00 19659.00    0.00 78636.00     0.00     8.00     3.51    0.18    0.18    0.00   0.03  52.60
sdg               0.00     0.00   24.00    2.00   144.00     8.00    11.69     0.00    0.08    0.08    0.00   0.08   0.20
sdh               0.00     0.00    0.00    0.00     0.00     0.00     0.00     0.00    0.00    0.00    0.00   0.00   0.00
md0               0.00     0.00 118210.00    0.00 472840.00     0.00     8.00     0.00    0.00    0.00    0.00   0.00   0.00

avg-cpu:  %user   %nice %system %iowait  %steal   %idle
           1.26    0.00   22.67    0.00    0.00   76.07

Device:         rrqm/s   wrqm/s     r/s     w/s    rkB/s    wkB/s avgrq-sz avgqu-sz   await r_await w_await  svctm  %util
sda               0.00     0.00 19508.00    0.00 78032.00     0.00     8.00     2.79    0.14    0.14    0.00   0.02  46.00
sdb               0.00     0.00 19220.00    0.00 76880.00     0.00     8.00     2.55    0.13    0.13    0.00   0.02  43.50
sdc               0.00     0.00 19456.00    0.00 77824.00     0.00     8.00     3.19    0.16    0.16    0.00   0.03  56.00
sdd               0.00     0.00 19289.00    0.00 77156.00     0.00     8.00     3.27    0.17    0.17    0.00   0.03  55.00
sde               0.00     0.00 19288.00    0.00 77152.00     0.00     8.00     3.34    0.17    0.17    0.00   0.03  54.20
sdf               0.00     0.00 19327.00    0.00 77308.00     0.00     8.00     3.28    0.17    0.17    0.00   0.03  53.60
sdg               0.00     0.00    0.00    0.00     0.00     0.00     0.00     0.00    0.00    0.00    0.00   0.00   0.00
sdh               0.00     0.00    0.00    0.00     0.00     0.00     0.00     0.00    0.00    0.00    0.00   0.00   0.00
md0               0.00     0.00 116082.00    0.00 464328.00     0.00     8.00     0.00    0.00    0.00    0.00   0.00   0.00

avg-cpu:  %user   %nice %system %iowait  %steal   %idle
           1.79    0.00   26.60    0.26    0.00   71.36

Device:         rrqm/s   wrqm/s     r/s     w/s    rkB/s    wkB/s avgrq-sz avgqu-sz   await r_await w_await  svctm  %util
sda               0.00     0.00 21784.00    0.00 87136.00     0.00     8.00     3.45    0.16    0.16    0.00   0.02  50.70
sdb               0.00     0.00 21709.00    0.00 86836.00     0.00     8.00     3.29    0.15    0.15    0.00   0.02  51.10
sdc               0.00     0.00 21871.00    0.00 87484.00     0.00     8.00     3.90    0.18    0.18    0.00   0.03  61.20
sdd               0.00     0.00 21888.00    0.00 87552.00     0.00     8.00     3.98    0.18    0.18    0.00   0.03  61.00
sde               0.00     0.00 21791.00    0.00 87164.00     0.00     8.00     3.98    0.18    0.18    0.00   0.03  61.90
sdf               0.00     0.00 21949.00    0.00 87796.00     0.00     8.00     4.07    0.19    0.19    0.00   0.03  61.80
sdg               0.00     0.00    0.00    0.00     0.00     0.00     0.00     0.00    0.00    0.00    0.00   0.00   0.00
sdh               0.00     0.00    0.00    0.00     0.00     0.00     0.00     0.00    0.00    0.00    0.00   0.00   0.00
md0               0.00     0.00 130997.00    0.00 523988.00     0.00     8.00     0.00    0.00    0.00    0.00   0.00   0.00

avg-cpu:  %user   %nice %system %iowait  %steal   %idle
           2.00    0.00   22.25    0.00    0.00   75.75

Device:         rrqm/s   wrqm/s     r/s     w/s    rkB/s    wkB/s avgrq-sz avgqu-sz   await r_await w_await  svctm  %util
sda               0.00     0.00 19028.00    0.00 76112.00     0.00     8.00     2.78    0.15    0.15    0.00   0.03  48.30
sdb               0.00     0.00 19130.00    0.00 76520.00     0.00     8.00     2.78    0.15    0.15    0.00   0.02  47.40
sdc               0.00     0.00 19287.00    0.00 77148.00     0.00     8.00     3.26    0.17    0.17    0.00   0.03  53.20
sdd               0.00     0.00 19204.00    0.00 76816.00     0.00     8.00     3.12    0.16    0.16    0.00   0.03  53.30
sde               0.00     0.00 19169.00    0.00 76676.00     0.00     8.00     3.26    0.17    0.17    0.00   0.03  53.20
sdf               0.00     0.00 19019.00    0.00 76076.00     0.00     8.00     3.40    0.18    0.18    0.00   0.03  52.90
sdg               0.00     0.00    0.00    0.00     0.00     0.00     0.00     0.00    0.00    0.00    0.00   0.00   0.00
sdh               0.00     0.00    0.00    0.00     0.00     0.00     0.00     0.00    0.00    0.00    0.00   0.00   0.00
md0               0.00     0.00 114850.00    0.00 459400.00     0.00     8.00     0.00    0.00    0.00    0.00   0.00   0.00

avg-cpu:  %user   %nice %system %iowait  %steal   %idle
           1.75    0.00   22.50    0.00    0.00   75.75

Device:         rrqm/s   wrqm/s     r/s     w/s    rkB/s    wkB/s avgrq-sz avgqu-sz   await r_await w_await  svctm  %util
sda               0.00     0.00 17942.00    0.00 71768.00     0.00     8.00     2.45    0.14    0.14    0.00   0.03  47.60
sdb               0.00     0.00 18157.00    0.00 72628.00     0.00     8.00     2.51    0.14    0.14    0.00   0.03  48.60
sdc               0.00     0.00 18046.00    0.00 72184.00     0.00     8.00     2.69    0.15    0.15    0.00   0.03  54.30
sdd               0.00     0.00 18155.00    0.00 72620.00     0.00     8.00     2.69    0.15    0.15    0.00   0.03  53.70
sde               0.00     0.00 18435.00    0.00 73740.00     0.00     8.00     2.80    0.15    0.15    0.00   0.03  53.20
sdf               0.00     0.00 18139.00    0.00 72556.00     0.00     8.00     2.73    0.15    0.15    0.00   0.03  54.00
sdg               0.00     0.00    0.00    0.00     0.00     0.00     0.00     0.00    0.00    0.00    0.00   0.00   0.00
sdh               0.00     0.00    0.00    0.00     0.00     0.00     0.00     0.00    0.00    0.00    0.00   0.00   0.00
md0               0.00     0.00 108846.00    0.00 435384.00     0.00     8.00     0.00    0.00    0.00    0.00   0.00   0.00

avg-cpu:  %user   %nice %system %iowait  %steal   %idle
           1.76    0.00   22.11    0.25    0.00   75.88

Device:         rrqm/s   wrqm/s     r/s     w/s    rkB/s    wkB/s avgrq-sz avgqu-sz   await r_await w_await  svctm  %util
sda               0.00     0.00 18178.00    0.00 72712.00     0.00     8.00     2.39    0.13    0.13    0.00   0.03  47.80
sdb               0.00     0.00 18384.00    0.00 73536.00     0.00     8.00     2.29    0.12    0.12    0.00   0.03  46.80
sdc               0.00     0.00 18328.00    0.00 73312.00     0.00     8.00     2.77    0.15    0.15    0.00   0.03  55.20
sdd               0.00     0.00 18196.00    0.00 72784.00     0.00     8.00     2.81    0.15    0.15    0.00   0.03  53.70
sde               0.00     0.00 18346.00    0.00 73384.00     0.00     8.00     2.92    0.16    0.16    0.00   0.03  54.60
sdf               0.00     0.00 18141.00    0.00 72564.00     0.00     8.00     2.99    0.16    0.16    0.00   0.03  54.90
sdg               0.00     0.00    0.00    0.00     0.00     0.00     0.00     0.00    0.00    0.00    0.00   0.00   0.00
sdh               0.00     0.00    0.00    0.00     0.00     0.00     0.00     0.00    0.00    0.00    0.00   0.00   0.00
md0               0.00     0.00 109592.00    0.00 438368.00     0.00     8.00     0.00    0.00    0.00    0.00   0.00   0.00

avg-cpu:  %user   %nice %system %iowait  %steal   %idle
           1.75    0.00   22.75    0.00    0.00   75.50

Device:         rrqm/s   wrqm/s     r/s     w/s    rkB/s    wkB/s avgrq-sz avgqu-sz   await r_await w_await  svctm  %util
sda               0.00     0.00 18319.00    0.00 73276.00     0.00     8.00     2.32    0.13    0.13    0.00   0.02  45.70
sdb               0.00     0.00 18305.00    0.00 73220.00     0.00     8.00     2.37    0.13    0.13    0.00   0.03  47.50
sdc               0.00     0.00 18199.00    0.00 72796.00     0.00     8.00     3.10    0.17    0.17    0.00   0.03  57.80
sdd               0.00     0.00 18413.00    0.00 73652.00     0.00     8.00     3.28    0.18    0.18    0.00   0.03  58.50
sde               0.00     0.00 18242.00    0.00 72968.00     0.00     8.00     3.04    0.17    0.17    0.00   0.03  55.30
sdf               0.00     0.00 18508.00    0.00 74032.00     0.00     8.00     2.98    0.16    0.16    0.00   0.03  51.80
sdg               0.00     1.00    2.00    4.00     8.00    56.00    21.33     0.00    0.00    0.00    0.00   0.00   0.00
sdh               0.00     0.00    0.00    0.00     0.00     0.00     0.00     0.00    0.00    0.00    0.00   0.00   0.00
md0               0.00     0.00 109981.00    0.00 439924.00     0.00     8.00     0.00    0.00    0.00    0.00   0.00   0.00

avg-cpu:  %user   %nice %system %iowait  %steal   %idle
           1.75    0.00   22.31    0.00    0.00   75.94

Device:         rrqm/s   wrqm/s     r/s     w/s    rkB/s    wkB/s avgrq-sz avgqu-sz   await r_await w_await  svctm  %util
sda               0.00     0.00 17606.00    0.00 70428.00     0.00     8.00     2.32    0.13    0.13    0.00   0.03  48.00
sdb               0.00     0.00 17599.00    0.00 70396.00     0.00     8.00     2.19    0.12    0.12    0.00   0.03  47.70
sdc               0.00     0.00 17460.00    0.00 69840.00     0.00     8.00     2.55    0.15    0.15    0.00   0.03  55.70
sdd               0.00     0.00 17905.00    0.00 71620.00     0.00     8.00     2.67    0.15    0.15    0.00   0.03  55.80
sde               0.00     0.00 17381.00    0.00 69524.00     0.00     8.00     2.66    0.15    0.15    0.00   0.03  56.40
sdf               0.00     0.00 17435.00    0.00 69740.00     0.00     8.00     2.69    0.15    0.15    0.00   0.03  54.70
sdg               0.00     0.00    0.00    0.00     0.00     0.00     0.00     0.00    0.00    0.00    0.00   0.00   0.00
sdh               0.00     0.00    0.00    0.00     0.00     0.00     0.00     0.00    0.00    0.00    0.00   0.00   0.00
md0               0.00     0.00 105371.00    0.00 421484.00     0.00     8.00     0.00    0.00    0.00    0.00   0.00   0.00

avg-cpu:  %user   %nice %system %iowait  %steal   %idle
           1.99    0.00   22.83    0.25    0.00   74.94

Device:         rrqm/s   wrqm/s     r/s     w/s    rkB/s    wkB/s avgrq-sz avgqu-sz   await r_await w_await  svctm  %util
sda               0.00     0.00 18243.00    0.00 72968.00     0.00     8.00     2.36    0.13    0.13    0.00   0.03  48.70
sdb               0.00     0.00 18176.00    0.00 72704.00     0.00     8.00     2.27    0.13    0.13    0.00   0.03  48.10
sdc               0.00     0.00 18169.00    0.00 72676.00     0.00     8.00     2.85    0.16    0.16    0.00   0.03  56.10
sdd               0.00     0.00 18018.00    0.00 72072.00     0.00     8.00     2.96    0.16    0.16    0.00   0.03  56.60
sde               0.00     0.00 18124.00    0.00 72496.00     0.00     8.00     2.89    0.16    0.16    0.00   0.03  56.90
sdf               0.00     0.00 18137.00    0.00 72548.00     0.00     8.00     2.87    0.16    0.16    0.00   0.03  54.00
sdg               0.00     0.00    0.00    0.00     0.00     0.00     0.00     0.00    0.00    0.00    0.00   0.00   0.00
sdh               0.00     0.00    0.00    0.00     0.00     0.00     0.00     0.00    0.00    0.00    0.00   0.00   0.00
md0               0.00     0.00 108872.00    0.00 435488.00     0.00     8.00     0.00    0.00    0.00    0.00   0.00   0.00

avg-cpu:  %user   %nice %system %iowait  %steal   %idle
           1.76    0.00   23.17    0.00    0.00   75.06

Device:         rrqm/s   wrqm/s     r/s     w/s    rkB/s    wkB/s avgrq-sz avgqu-sz   await r_await w_await  svctm  %util
sda               0.00     0.00 17102.00    0.00 68408.00     0.00     8.00     2.12    0.12    0.12    0.00   0.03  47.60
sdb               0.00     0.00 16995.00    0.00 67980.00     0.00     8.00     2.05    0.12    0.12    0.00   0.03  47.70
sdc               0.00     0.00 16965.00    0.00 67860.00     0.00     8.00     2.38    0.14    0.14    0.00   0.03  54.70
sdd               0.00     0.00 16847.00    0.00 67388.00     0.00     8.00     2.47    0.15    0.15    0.00   0.03  55.90
sde               0.00     0.00 16923.00    0.00 67692.00     0.00     8.00     2.45    0.15    0.15    0.00   0.03  53.80
sdf               0.00     0.00 16804.00    0.00 67216.00     0.00     8.00     2.53    0.15    0.15    0.00   0.03  55.30
sdg               0.00    74.00    0.00 1442.00     0.00  7444.00    10.32     8.55    5.93    0.00    5.93   0.04   6.40
sdh               0.00     0.00    0.00    0.00     0.00     0.00     0.00     0.00    0.00    0.00    0.00   0.00   0.00
md0               0.00     0.00 101640.00    0.00 406560.00     0.00     8.00     0.00    0.00    0.00    0.00   0.00   0.00

avg-cpu:  %user   %nice %system %iowait  %steal   %idle
           2.51    0.00   22.61    0.25    0.00   74.62

Device:         rrqm/s   wrqm/s     r/s     w/s    rkB/s    wkB/s avgrq-sz avgqu-sz   await r_await w_await  svctm  %util
sda               0.00     0.00 17277.00    0.00 69108.00     0.00     8.00     2.20    0.13    0.13    0.00   0.03  47.40
sdb               0.00     0.00 17303.00    0.00 69212.00     0.00     8.00     2.12    0.12    0.12    0.00   0.03  49.20
sdc               0.00     0.00 17105.00    0.00 68420.00     0.00     8.00     2.50    0.15    0.15    0.00   0.03  55.50
sdd               0.00     0.00 17122.00    0.00 68488.00     0.00     8.00     2.60    0.15    0.15    0.00   0.03  57.60
sde               0.00     0.00 17056.00    0.00 68224.00     0.00     8.00     2.51    0.15    0.15    0.00   0.03  56.60
sdf               0.00     0.00 17032.00    0.00 68128.00     0.00     8.00     2.61    0.15    0.15    0.00   0.03  54.30
sdg               0.00     0.00  325.00    7.00  1300.00   144.00     8.70     0.04    0.14    0.13    0.57   0.13   4.20
sdh               0.00     0.00    0.00    0.00     0.00     0.00     0.00     0.00    0.00    0.00    0.00   0.00   0.00
md0               0.00     0.00 102906.00    0.00 411624.00     0.00     8.00     0.00    0.00    0.00    0.00   0.00   0.00

avg-cpu:  %user   %nice %system %iowait  %steal   %idle
           1.99    0.25   24.32    0.50    0.00   72.95

Device:         rrqm/s   wrqm/s     r/s     w/s    rkB/s    wkB/s avgrq-sz avgqu-sz   await r_await w_await  svctm  %util
sda               0.00     0.00 17688.00    0.00 70752.00     0.00     8.00     2.39    0.14    0.14    0.00   0.03  49.20
sdb               0.00     0.00 17439.00    0.00 69756.00     0.00     8.00     2.17    0.12    0.12    0.00   0.03  48.20
sdc               0.00     0.00 17723.00    0.00 70892.00     0.00     8.00     2.65    0.15    0.15    0.00   0.03  56.80
sdd               0.00     0.00 17814.00    0.00 71256.00     0.00     8.00     2.67    0.15    0.15    0.00   0.03  55.30
sde               0.00     0.00 17770.00    0.00 71080.00     0.00     8.00     2.66    0.15    0.15    0.00   0.03  56.20
sdf               0.00     0.00 17518.00    0.00 70072.00     0.00     8.00     2.75    0.16    0.16    0.00   0.03  54.80
sdg               0.00     0.00 1514.00    0.00  6056.00     0.00     8.00     0.18    0.12    0.12    0.00   0.12  18.00
sdh               0.00     0.00    0.00    0.00     0.00     0.00     0.00     0.00    0.00    0.00    0.00   0.00   0.00
md0               0.00     0.00 105927.00    0.00 423708.00     0.00     8.00     0.00    0.00    0.00    0.00   0.00   0.00

avg-cpu:  %user   %nice %system %iowait  %steal   %idle
           2.01    0.00   22.81    0.00    0.00   75.19

Device:         rrqm/s   wrqm/s     r/s     w/s    rkB/s    wkB/s avgrq-sz avgqu-sz   await r_await w_await  svctm  %util
sda               0.00     0.00 17565.00    0.00 70260.00     0.00     8.00     2.27    0.13    0.13    0.00   0.03  46.80
sdb               0.00     0.00 17402.00    0.00 69608.00     0.00     8.00     2.11    0.12    0.12    0.00   0.03  47.10
sdc               0.00     0.00 17568.00    0.00 70272.00     0.00     8.00     2.68    0.15    0.15    0.00   0.03  57.10
sdd               0.00     0.00 17537.00    0.00 70148.00     0.00     8.00     2.68    0.15    0.15    0.00   0.03  56.50
sde               0.00     0.00 17541.00    0.00 70164.00     0.00     8.00     2.52    0.14    0.14    0.00   0.03  53.00
sdf               0.00     0.00 17781.00    0.00 71124.00     0.00     8.00     2.64    0.15    0.15    0.00   0.03  53.90
sdg               0.00     0.00    0.00    0.00     0.00     0.00     0.00     0.00    0.00    0.00    0.00   0.00   0.00
sdh               0.00     0.00    0.00    0.00     0.00     0.00     0.00     0.00    0.00    0.00    0.00   0.00   0.00
md0               0.00     0.00 105417.00    0.00 421668.00     0.00     8.00     0.00    0.00    0.00    0.00   0.00   0.00

avg-cpu:  %user   %nice %system %iowait  %steal   %idle
           1.76    0.00   23.12    0.00    0.00   75.13

Device:         rrqm/s   wrqm/s     r/s     w/s    rkB/s    wkB/s avgrq-sz avgqu-sz   await r_await w_await  svctm  %util
sda               0.00     0.00 17477.00    0.00 69908.00     0.00     8.00     2.16    0.12    0.12    0.00   0.03  46.20
sdb               0.00     0.00 17511.00    0.00 70044.00     0.00     8.00     2.23    0.13    0.13    0.00   0.03  47.40
sdc               0.00     0.00 17617.00    0.00 70468.00     0.00     8.00     2.66    0.15    0.15    0.00   0.03  57.00
sdd               0.00     0.00 17642.00    0.00 70568.00     0.00     8.00     2.77    0.16    0.16    0.00   0.03  56.20
sde               0.00     0.00 17546.00    0.00 70184.00     0.00     8.00     2.69    0.15    0.15    0.00   0.03  56.10
sdf               0.00     0.00 17451.00    0.00 69804.00     0.00     8.00     2.68    0.15    0.15    0.00   0.03  57.20
sdg               0.00     0.00    0.00    0.00     0.00     0.00     0.00     0.00    0.00    0.00    0.00   0.00   0.00
sdh               0.00     0.00    0.00    0.00     0.00     0.00     0.00     0.00    0.00    0.00    0.00   0.00   0.00
md0               0.00     0.00 105244.00    0.00 420976.00     0.00     8.00     0.00    0.00    0.00    0.00   0.00   0.00

avg-cpu:  %user   %nice %system %iowait  %steal   %idle
           2.03    0.00   24.11    0.25    0.00   73.60

Device:         rrqm/s   wrqm/s     r/s     w/s    rkB/s    wkB/s avgrq-sz avgqu-sz   await r_await w_await  svctm  %util
sda               0.00     0.00 18437.00    0.00 73748.00     0.00     8.00     2.67    0.14    0.14    0.00   0.03  52.60
sdb               0.00     0.00 18563.00    0.00 74252.00     0.00     8.00     2.52    0.14    0.14    0.00   0.03  53.10
sdc               0.00     0.00 18429.00    0.00 73716.00     0.00     8.00     3.08    0.17    0.17    0.00   0.03  59.10
sdd               0.00     0.00 18383.00    0.00 73532.00     0.00     8.00     3.19    0.17    0.17    0.00   0.03  62.90
sde               0.00     0.00 18285.00    0.00 73140.00     0.00     8.00     3.12    0.17    0.17    0.00   0.03  60.50
sdf               0.00     0.00 18456.00    0.00 73828.00     0.00     8.00     3.21    0.17    0.17    0.00   0.03  59.30
sdg               0.00     0.00    1.00    0.00     4.00     0.00     8.00     0.00    0.00    0.00    0.00   0.00   0.00
sdh               0.00     0.00    0.00    0.00     0.00     0.00     0.00     0.00    0.00    0.00    0.00   0.00   0.00
md0               0.00     0.00 110527.00    0.00 442108.00     0.00     8.00     0.00    0.00    0.00    0.00   0.00   0.00

