Linux 4.17.2 (bench) 	08/03/2018 	_x86_64_	(4 CPU)

avg-cpu:  %user   %nice %system %iowait  %steal   %idle
          10.29    0.02    4.00    2.47    0.00   83.22

Device:         rrqm/s   wrqm/s     r/s     w/s    rkB/s    wkB/s avgrq-sz avgqu-sz   await r_await w_await  svctm  %util
sda              41.51     4.27 1615.39  103.32 20691.96  3153.06    27.75     1.03    0.60    0.26    5.91   0.06  10.56
sdb              41.40     4.23 1615.28  103.46 20681.40  3149.70    27.73     1.02    0.60    0.26    5.85   0.06  10.44
sdc              79.47     4.29 1575.12  103.01 20673.59  3152.18    28.40     1.44    0.86    0.45    7.12   0.08  13.87
sdd              72.83     4.26 1580.92  103.08 20658.29  3148.34    28.27     1.45    0.86    0.44    7.32   0.08  13.96
sde              74.90     4.30 1586.05  103.18 20718.81  3152.62    28.26     1.47    0.87    0.44    7.43   0.08  13.98
sdf              71.99     4.27 1588.23  103.12 20699.81  3149.46    28.20     1.52    0.90    0.44    7.90   0.08  14.01
sdg               0.00     3.18   25.97   73.33   322.59   391.97    14.39     0.44    4.43    0.20    5.93   0.08   0.78
sdh               0.00     0.13    0.02    0.24     2.23     5.10    56.82     0.00    1.15    0.65    1.19   0.21   0.01
md0               0.00     0.00 9949.28  484.05 141660.29 21589.68    31.29     0.00    0.00    0.00    0.00   0.00   0.00

avg-cpu:  %user   %nice %system %iowait  %steal   %idle
           2.54    0.00   13.99   53.18    0.00   30.28

Device:         rrqm/s   wrqm/s     r/s     w/s    rkB/s    wkB/s avgrq-sz avgqu-sz   await r_await w_await  svctm  %util
sda               0.00     0.00 8151.00    0.00 34484.00     0.00     8.46     0.89    0.11    0.11    0.00   0.07  57.70
sdb               0.00     0.00 8151.00    0.00 34264.00     0.00     8.41     0.80    0.10    0.10    0.00   0.07  53.60
sdc               0.00     0.00 8094.00    0.00 34580.00     0.00     8.54     0.94    0.12    0.12    0.00   0.07  59.00
sdd               0.00     0.00 8125.00    0.00 34680.00     0.00     8.54     0.94    0.12    0.12    0.00   0.08  61.40
sde               0.00     0.00 8092.00    0.00 34228.00     0.00     8.46     0.94    0.12    0.12    0.00   0.07  60.40
sdf               0.00     0.00 8077.00    0.00 33680.00     0.00     8.34     0.98    0.12    0.12    0.00   0.08  62.50
sdg               0.00     4.00   10.00  107.00    40.00   568.00    10.39     0.18    1.51    0.70    1.59   0.07   0.80
sdh               0.00     0.00    0.00    0.00     0.00     0.00     0.00     0.00    0.00    0.00    0.00   0.00   0.00
md0               0.00     0.00 48670.00    0.00 206236.00     0.00     8.47     0.00    0.00    0.00    0.00   0.00   0.00

