Linux 4.17.2 (bench) 	08/03/2018 	_x86_64_	(4 CPU)

avg-cpu:  %user   %nice %system %iowait  %steal   %idle
          10.29    0.02    4.02    2.49    0.00   83.18

Device:         rrqm/s   wrqm/s     r/s     w/s    rkB/s    wkB/s avgrq-sz avgqu-sz   await r_await w_await  svctm  %util
sda              41.76     4.26 1626.82  103.13 20776.98  3147.08    27.66     1.03    0.59    0.26    5.91   0.06  10.60
sdb              41.65     4.22 1626.71  103.27 20766.39  3143.72    27.64     1.03    0.59    0.26    5.85   0.06  10.48
sdc              79.65     4.28 1586.63  102.82 20758.57  3146.20    28.30     1.45    0.86    0.45    7.12   0.08  13.92
sdd              73.02     4.25 1592.42  102.89 20743.34  3142.37    28.18     1.45    0.86    0.44    7.32   0.08  14.02
sde              75.09     4.29 1597.53  102.98 20803.67  3146.64    28.17     1.47    0.87    0.44    7.43   0.08  14.04
sdf              72.18     4.26 1599.70  102.93 20784.73  3143.49    28.11     1.52    0.89    0.44    7.90   0.08  14.07
sdg               0.00     3.18   26.06   73.33   322.99   392.00    14.39     0.44    4.43    0.20    5.93   0.08   0.78
sdh               0.00     0.13    0.02    0.24     2.22     5.09    56.82     0.00    1.15    0.65    1.19   0.21   0.01
md0               0.00     0.00 10019.55  483.13 142283.88 21548.72    31.20     0.00    0.00    0.00    0.00   0.00   0.00

avg-cpu:  %user   %nice %system %iowait  %steal   %idle
           4.31    0.00   34.26    0.51    0.00   60.91

Device:         rrqm/s   wrqm/s     r/s     w/s    rkB/s    wkB/s avgrq-sz avgqu-sz   await r_await w_await  svctm  %util
sda            6484.00     0.00 23519.00    0.00 120308.00     0.00    10.23    20.95    0.89    0.89    0.00   0.02  54.30
sdb            6858.00     0.00 23515.00    0.00 121788.00     0.00    10.36    21.15    0.90    0.90    0.00   0.02  53.40
sdc            6863.00     0.00 23435.00    0.00 121500.00     0.00    10.37    25.99    1.11    1.11    0.00   0.03  65.60
sdd            6940.00     0.00 23289.00    0.00 121392.00     0.00    10.42    26.18    1.12    1.12    0.00   0.03  65.60
sde            6899.00     0.00 23142.00    0.00 120560.00     0.00    10.42    25.51    1.10    1.10    0.00   0.03  66.10
sdf            6889.00     0.00 22981.00    0.00 119836.00     0.00    10.43    25.42    1.11    1.11    0.00   0.03  64.70
sdg               0.00     2.00    1.00   10.00    16.00   168.00    33.45     0.00    0.27    0.00    0.30   0.09   0.10
sdh               0.00     0.00    0.00    0.00     0.00     0.00     0.00     0.00    0.00    0.00    0.00   0.00   0.00
md0               0.00     0.00 181144.00    0.00 724576.00     0.00     8.00     0.00    0.00    0.00    0.00   0.00   0.00

avg-cpu:  %user   %nice %system %iowait  %steal   %idle
           5.00    0.00   34.75    0.25    0.00   60.00

Device:         rrqm/s   wrqm/s     r/s     w/s    rkB/s    wkB/s avgrq-sz avgqu-sz   await r_await w_await  svctm  %util
sda            6044.00     0.00 23348.00    0.00 117888.00     0.00    10.10    20.38    0.87    0.87    0.00   0.02  51.60
sdb            6194.00     0.00 23708.00    0.00 120088.00     0.00    10.13    20.97    0.88    0.88    0.00   0.02  52.50
sdc            6609.00     0.00 23273.00    0.00 119744.00     0.00    10.29    25.20    1.08    1.08    0.00   0.03  65.10
sdd            6393.00     0.00 23177.00    0.00 118680.00     0.00    10.24    24.91    1.07    1.07    0.00   0.03  65.20
sde            6251.00     0.00 23358.00    0.00 118772.00     0.00    10.17    25.24    1.08    1.08    0.00   0.03  64.70
sdf            6481.00     0.00 23463.00    0.00 120244.00     0.00    10.25    25.52    1.09    1.09    0.00   0.03  65.80
sdg               0.00     0.00    0.00    0.00     0.00     0.00     0.00     0.00    0.00    0.00    0.00   0.00   0.00
sdh               0.00     0.00    0.00    0.00     0.00     0.00     0.00     0.00    0.00    0.00    0.00   0.00   0.00
md0               0.00     0.00 178987.00    0.00 715948.00     0.00     8.00     0.00    0.00    0.00    0.00   0.00   0.00

