Linux 4.17.2 (bench) 	08/03/2018 	_x86_64_	(4 CPU)

avg-cpu:  %user   %nice %system %iowait  %steal   %idle
          10.29    0.02    4.00    2.47    0.00   83.21

Device:         rrqm/s   wrqm/s     r/s     w/s    rkB/s    wkB/s avgrq-sz avgqu-sz   await r_await w_await  svctm  %util
sda              41.51     4.27 1615.71  103.32 20692.60  3152.89    27.74     1.03    0.60    0.26    5.91   0.06  10.56
sdb              41.40     4.23 1615.60  103.46 20682.04  3149.53    27.73     1.02    0.60    0.26    5.85   0.06  10.44
sdc              79.47     4.29 1575.45  103.01 20674.24  3152.01    28.39     1.44    0.86    0.45    7.12   0.08  13.87
sdd              72.82     4.26 1581.25  103.08 20658.94  3148.18    28.27     1.45    0.86    0.44    7.32   0.08  13.96
sde              74.89     4.30 1586.37  103.17 20719.45  3152.46    28.26     1.47    0.87    0.44    7.43   0.08  13.98
sdf              71.98     4.27 1588.55  103.12 20700.45  3149.30    28.20     1.52    0.90    0.44    7.90   0.08  14.01
sdg               0.00     3.18   25.98   73.33   322.59   391.96    14.39     0.44    4.43    0.20    5.93   0.08   0.78
sdh               0.00     0.13    0.02    0.24     2.23     5.10    56.82     0.00    1.15    0.65    1.19   0.21   0.01
md0               0.00     0.00 9951.20  484.02 141663.24 21588.54    31.29     0.00    0.00    0.00    0.00   0.00   0.00

avg-cpu:  %user   %nice %system %iowait  %steal   %idle
           4.75    0.26   30.87   39.31    0.00   24.80

Device:         rrqm/s   wrqm/s     r/s     w/s    rkB/s    wkB/s avgrq-sz avgqu-sz   await r_await w_await  svctm  %util
sda               0.00     0.00 14029.00    0.00 57016.00     0.00     8.13     2.12    0.15    0.15    0.00   0.04  60.50
sdb               0.00     0.00 14035.00    0.00 56436.00     0.00     8.04     2.19    0.16    0.16    0.00   0.04  60.10
sdc               2.00     0.00 14147.00    0.00 57384.00     0.00     8.11     2.39    0.17    0.17    0.00   0.04  63.50
sdd               0.00     0.00 14235.00    0.00 58012.00     0.00     8.15     2.38    0.17    0.17    0.00   0.05  64.40
sde               0.00     0.00 14351.00    0.00 58204.00     0.00     8.11     2.37    0.17    0.17    0.00   0.04  63.50
sdf               0.00     0.00 14095.00    0.00 57644.00     0.00     8.18     2.34    0.17    0.17    0.00   0.04  63.30
sdg               0.00     0.00   38.00    1.00   464.00     8.00    24.21     0.01    0.15    0.16    0.00   0.13   0.50
sdh               0.00     0.00    0.00    0.00     0.00     0.00     0.00     0.00    0.00    0.00    0.00   0.00   0.00
md0               0.00     0.00 84889.00    0.00 345344.00     0.00     8.14     0.00    0.00    0.00    0.00   0.00   0.00

