Linux 4.17.2 (bench) 	08/03/2018 	_x86_64_	(4 CPU)

avg-cpu:  %user   %nice %system %iowait  %steal   %idle
          10.28    0.02    4.04    2.53    0.00   83.12

Device:         rrqm/s   wrqm/s     r/s     w/s    rkB/s    wkB/s avgrq-sz avgqu-sz   await r_await w_await  svctm  %util
sda              44.32     4.25 1640.52  102.84 20839.89  3138.21    27.51     1.03    0.59    0.26    5.91   0.06  10.66
sdb              44.19     4.21 1640.44  102.98 20829.29  3134.87    27.49     1.03    0.59    0.26    5.85   0.06  10.54
sdc              82.19     4.27 1600.34  102.53 20821.44  3137.34    28.14     1.45    0.85    0.45    7.12   0.08  13.99
sdd              75.58     4.24 1606.12  102.60 20806.29  3133.52    28.02     1.46    0.85    0.44    7.32   0.08  14.08
sde              77.63     4.28 1611.20  102.69 20866.31  3137.78    28.01     1.48    0.86    0.44    7.43   0.08  14.10
sdf              74.73     4.25 1613.37  102.64 20847.48  3134.63    27.95     1.52    0.89    0.44    7.90   0.08  14.13
sdg               0.00     3.17   26.16   73.31   323.37   391.95    14.38     0.44    4.42    0.20    5.93   0.08   0.78
sdh               0.00     0.13    0.02    0.24     2.22     5.08    56.82     0.00    1.15    0.65    1.19   0.21   0.01
md0               0.00     0.00 10117.12  481.77 142694.67 21488.04    30.98     0.00    0.00    0.00    0.00   0.00   0.00

avg-cpu:  %user   %nice %system %iowait  %steal   %idle
           1.53    0.00   14.83   45.78    0.00   37.85

Device:         rrqm/s   wrqm/s     r/s     w/s    rkB/s    wkB/s avgrq-sz avgqu-sz   await r_await w_await  svctm  %util
sda               0.00     0.00 7064.00    0.00 28256.00     0.00     8.00     0.76    0.11    0.11    0.00   0.07  48.80
sdb               0.00     0.00 7126.00    0.00 28512.00     0.00     8.00     0.80    0.11    0.11    0.00   0.07  48.20
sdc               0.00     0.00 7504.00    0.00 30016.00     0.00     8.00     0.90    0.12    0.12    0.00   0.07  53.00
sdd               0.00     0.00 7075.00    0.00 28308.00     0.00     8.00     0.91    0.13    0.13    0.00   0.08  53.90
sde               0.00     0.00 6950.00    0.00 27808.00     0.00     8.00     0.86    0.12    0.12    0.00   0.08  52.40
sdf               0.00     0.00 7151.00    0.00 28604.00     0.00     8.00     1.00    0.14    0.14    0.00   0.09  62.90
sdg               0.00    17.00   56.00   85.00   864.00  1348.00    31.38     0.21    1.50    0.16    2.39   0.11   1.60
sdh               0.00     0.00    0.00    0.00     0.00     0.00     0.00     0.00    0.00    0.00    0.00   0.00   0.00
md0               0.00     0.00 42873.00    0.00 171516.00     0.00     8.00     0.00    0.00    0.00    0.00   0.00   0.00

avg-cpu:  %user   %nice %system %iowait  %steal   %idle
           1.27    0.00   16.24   46.19    0.00   36.29

Device:         rrqm/s   wrqm/s     r/s     w/s    rkB/s    wkB/s avgrq-sz avgqu-sz   await r_await w_await  svctm  %util
sda               0.00     0.00 7548.00    0.00 30208.00     0.00     8.00     0.79    0.11    0.11    0.00   0.07  51.70
sdb               0.00     0.00 7320.00    0.00 29296.00     0.00     8.00     0.74    0.10    0.10    0.00   0.06  46.60
sdc               0.00     0.00 7247.00    0.00 28996.00     0.00     8.00     0.90    0.12    0.12    0.00   0.07  53.70
sdd               0.00     0.00 7283.00    0.00 29132.00     0.00     8.00     0.90    0.12    0.12    0.00   0.07  54.00
sde               0.00     0.00 7354.00    0.00 29432.00     0.00     8.00     0.88    0.12    0.12    0.00   0.08  55.70
sdf               0.00     0.00 7257.00    0.00 29036.00     0.00     8.00     0.96    0.13    0.13    0.00   0.08  60.70
sdg               0.00     0.00    0.00    0.00     0.00     0.00     0.00     0.00    0.00    0.00    0.00   0.00   0.00
sdh               0.00     0.00    0.00    0.00     0.00     0.00     0.00     0.00    0.00    0.00    0.00   0.00   0.00
md0               0.00     0.00 44011.00    0.00 176108.00     0.00     8.00     0.00    0.00    0.00    0.00   0.00   0.00

