Linux 4.17.2 (bench) 	08/03/2018 	_x86_64_	(4 CPU)

avg-cpu:  %user   %nice %system %iowait  %steal   %idle
          10.29    0.02    4.01    2.49    0.00   83.20

Device:         rrqm/s   wrqm/s     r/s     w/s    rkB/s    wkB/s avgrq-sz avgqu-sz   await r_await w_await  svctm  %util
sda              41.54     4.26 1621.36  103.20 20739.38  3149.37    27.70     1.03    0.60    0.26    5.91   0.06  10.58
sdb              41.43     4.22 1621.24  103.34 20728.81  3146.01    27.69     1.03    0.59    0.26    5.85   0.06  10.46
sdc              79.46     4.28 1581.14  102.89 20720.99  3148.49    28.35     1.44    0.86    0.45    7.12   0.08  13.90
sdd              72.82     4.25 1586.93  102.96 20705.73  3144.66    28.23     1.45    0.86    0.44    7.32   0.08  13.99
sde              74.89     4.30 1592.05  103.06 20766.15  3148.93    28.22     1.47    0.87    0.44    7.43   0.08  14.01
sdf              71.98     4.27 1594.22  103.00 20747.17  3145.78    28.16     1.52    0.89    0.44    7.90   0.08  14.04
sdg               0.00     3.18   26.02   73.33   322.80   391.97    14.39     0.44    4.43    0.20    5.93   0.08   0.78
sdh               0.00     0.13    0.02    0.24     2.23     5.10    56.82     0.00    1.15    0.65    1.19   0.21   0.01
md0               0.00     0.00 9985.31  483.48 142014.67 21564.42    31.25     0.00    0.00    0.00    0.00   0.00   0.00

avg-cpu:  %user   %nice %system %iowait  %steal   %idle
           0.58    0.03   12.41   47.08    0.00   39.90

Device:         rrqm/s   wrqm/s     r/s     w/s    rkB/s    wkB/s avgrq-sz avgqu-sz   await r_await w_await  svctm  %util
sda             201.70     0.00 2284.15    0.00 198544.00     0.00   173.84     3.09    1.35    1.35    0.00   0.25  56.06
sdb             193.05     0.00 2256.15    0.00 199040.20     0.00   176.44     3.13    1.38    1.38    0.00   0.25  57.19
sdc             207.40     0.00 2262.00    0.00 199152.80     0.00   176.09     6.23    2.75    2.75    0.00   0.40  91.31
sdd             205.45     0.00 2246.90    0.00 198242.40     0.00   176.46     6.19    2.75    2.75    0.00   0.41  91.19
sde             200.30     0.00 2217.50    0.00 197749.00     0.00   178.35     5.95    2.68    2.68    0.00   0.41  91.30
sdf             203.20     0.00 2240.60    0.00 198966.00     0.00   177.60     6.14    2.74    2.74    0.00   0.41  91.58
sdg               0.00     6.50  250.70  199.70  1033.00  1009.80     9.07     1.24    2.74    0.13    6.02   0.09   4.08
sdh               0.00     0.00    0.00    0.00     0.00     0.00     0.00     0.00    0.00    0.00    0.00   0.00   0.00
md0               0.00     0.00 15981.70    0.00 1617965.40     0.00   202.48     0.00    0.00    0.00    0.00   0.00   0.00

