Linux 4.17.2 (bench) 	08/03/2018 	_x86_64_	(4 CPU)

avg-cpu:  %user   %nice %system %iowait  %steal   %idle
          10.28    0.02    4.06    2.56    0.00   83.08

Device:         rrqm/s   wrqm/s     r/s     w/s    rkB/s    wkB/s avgrq-sz avgqu-sz   await r_await w_await  svctm  %util
sda              44.90     4.24 1654.60  102.57 20950.81  3129.89    27.41     1.03    0.59    0.26    5.91   0.06  10.73
sdb              44.77     4.20 1654.52  102.70 20940.20  3126.56    27.39     1.03    0.59    0.26    5.85   0.06  10.61
sdc              82.71     4.26 1614.49  102.25 20932.28  3129.02    28.03     1.45    0.85    0.45    7.12   0.08  14.06
sdd              76.13     4.23 1620.25  102.32 20917.18  3125.21    27.91     1.46    0.85    0.44    7.32   0.08  14.16
sde              78.17     4.27 1625.31  102.42 20977.02  3129.46    27.91     1.48    0.86    0.44    7.43   0.08  14.18
sdf              75.28     4.24 1627.47  102.37 20958.27  3126.32    27.85     1.52    0.88    0.44    7.90   0.08  14.21
sdg               0.00     3.17   26.29   73.31   323.95   391.98    14.38     0.44    4.42    0.20    5.93   0.08   0.78
sdh               0.00     0.13    0.02    0.23     2.21     5.07    56.82     0.00    1.15    0.65    1.19   0.21   0.01
md0               0.00     0.00 10205.33  480.49 143515.97 21431.06    30.87     0.00    0.00    0.00    0.00   0.00   0.00

avg-cpu:  %user   %nice %system %iowait  %steal   %idle
           2.54    0.00   27.16    0.51    0.00   69.80

Device:         rrqm/s   wrqm/s     r/s     w/s    rkB/s    wkB/s avgrq-sz avgqu-sz   await r_await w_await  svctm  %util
sda           19754.00     0.00 13726.00    0.00 135176.00     0.00    19.70     9.31    0.68    0.68    0.00   0.03  46.90
sdb           20301.00     0.00 13936.00    0.00 138528.00     0.00    19.88     9.71    0.69    0.69    0.00   0.03  47.50
sdc           21135.00     0.00 13437.00    0.00 139432.00     0.00    20.75    12.04    0.89    0.89    0.00   0.05  67.20
sdd           20009.00     0.00 13372.00    0.00 134932.00     0.00    20.18    11.72    0.87    0.87    0.00   0.05  65.50
sde           21390.00     0.00 13380.00    0.00 140700.00     0.00    21.03    12.11    0.90    0.90    0.00   0.05  68.30
sdf           21059.00     0.00 13390.00    0.00 139276.00     0.00    20.80    11.78    0.88    0.88    0.00   0.05  68.00
sdg               0.00     0.00    3.00    0.00    88.00     0.00    58.67     0.00    0.67    0.67    0.00   0.67   0.20
sdh               0.00     0.00    0.00    0.00     0.00     0.00     0.00     0.00    0.00    0.00    0.00   0.00   0.00
md0               0.00     0.00 207768.00    0.00 831072.00     0.00     8.00     0.00    0.00    0.00    0.00   0.00   0.00

avg-cpu:  %user   %nice %system %iowait  %steal   %idle
           2.02    0.00   27.78    0.76    0.00   69.44

Device:         rrqm/s   wrqm/s     r/s     w/s    rkB/s    wkB/s avgrq-sz avgqu-sz   await r_await w_await  svctm  %util
sda           19527.00     0.00 13703.00    0.00 135052.00     0.00    19.71     9.57    0.70    0.70    0.00   0.03  47.50
sdb           19262.00     0.00 13536.00    0.00 133120.00     0.00    19.67     9.47    0.70    0.70    0.00   0.04  48.90
sdc           19483.00     0.00 13330.00    0.00 133356.00     0.00    20.01    11.53    0.87    0.87    0.00   0.05  65.50
sdd           19512.00     0.00 13044.00    0.00 132128.00     0.00    20.26    11.39    0.87    0.87    0.00   0.05  65.40
sde           20238.00     0.00 13313.00    0.00 136236.00     0.00    20.47    12.07    0.91    0.91    0.00   0.05  67.50
sdf           21194.00     0.00 13448.00    0.00 140676.00     0.00    20.92    12.27    0.91    0.91    0.00   0.05  69.40
sdg               0.00     0.00    0.00    0.00     0.00     0.00     0.00     0.00    0.00    0.00    0.00   0.00   0.00
sdh               0.00     0.00    0.00    0.00     0.00     0.00     0.00     0.00    0.00    0.00    0.00   0.00   0.00
md0               0.00     0.00 202039.00    0.00 808156.00     0.00     8.00     0.00    0.00    0.00    0.00   0.00   0.00

avg-cpu:  %user   %nice %system %iowait  %steal   %idle
           2.02    0.00   28.79    0.51    0.00   68.69

Device:         rrqm/s   wrqm/s     r/s     w/s    rkB/s    wkB/s avgrq-sz avgqu-sz   await r_await w_await  svctm  %util
sda           19309.00     0.00 14462.00    0.00 136760.00     0.00    18.91     9.33    0.64    0.64    0.00   0.03  48.00
sdb           18914.00     0.00 14301.00    0.00 134452.00     0.00    18.80     9.53    0.67    0.67    0.00   0.03  47.10
sdc           19864.00     0.00 13780.00    0.00 136496.00     0.00    19.81    11.65    0.85    0.85    0.00   0.05  65.90
sdd           19976.00     0.00 13903.00    0.00 137296.00     0.00    19.75    12.01    0.86    0.86    0.00   0.05  65.90
sde           19718.00     0.00 13755.00    0.00 135580.00     0.00    19.71    11.79    0.86    0.86    0.00   0.05  67.40
sdf           18517.00     0.00 13641.00    0.00 130212.00     0.00    19.09    11.38    0.83    0.83    0.00   0.05  64.90
sdg               0.00     0.00    0.00    0.00     0.00     0.00     0.00     0.00    0.00    0.00    0.00   0.00   0.00
sdh               0.00     0.00    0.00    0.00     0.00     0.00     0.00     0.00    0.00    0.00    0.00   0.00   0.00
md0               0.00     0.00 202589.00    0.00 810356.00     0.00     8.00     0.00    0.00    0.00    0.00   0.00   0.00

avg-cpu:  %user   %nice %system %iowait  %steal   %idle
           2.53    0.00   29.04    1.01    0.00   67.42

Device:         rrqm/s   wrqm/s     r/s     w/s    rkB/s    wkB/s avgrq-sz avgqu-sz   await r_await w_await  svctm  %util
sda           18256.00     0.00 14935.00    0.00 134192.00     0.00    17.97     9.36    0.63    0.63    0.00   0.03  47.30
sdb           17395.00     0.00 14821.00    0.00 130332.00     0.00    17.59     9.31    0.63    0.63    0.00   0.03  46.00
sdc           17581.00     0.00 14366.00    0.00 129020.00     0.00    17.96    11.23    0.78    0.78    0.00   0.04  62.80
sdd           17866.00     0.00 14588.00    0.00 131192.00     0.00    17.99    11.80    0.81    0.81    0.00   0.04  64.30
sde           17836.00     0.00 14556.00    0.00 130860.00     0.00    17.98    11.49    0.79    0.79    0.00   0.04  64.30
sdf           19427.00     0.00 14502.00    0.00 137032.00     0.00    18.90    12.18    0.84    0.84    0.00   0.05  67.50
sdg               0.00     0.00    0.00    0.00     0.00     0.00     0.00     0.00    0.00    0.00    0.00   0.00   0.00
sdh               0.00     0.00    0.00    0.00     0.00     0.00     0.00     0.00    0.00    0.00    0.00   0.00   0.00
md0               0.00     0.00 198555.00    0.00 794220.00     0.00     8.00     0.00    0.00    0.00    0.00   0.00   0.00

avg-cpu:  %user   %nice %system %iowait  %steal   %idle
           2.57    0.00   29.56    0.26    0.00   67.61

Device:         rrqm/s   wrqm/s     r/s     w/s    rkB/s    wkB/s avgrq-sz avgqu-sz   await r_await w_await  svctm  %util
sda           16159.00     0.00 15618.00    0.00 128596.00     0.00    16.47     9.74    0.63    0.63    0.00   0.03  46.30
sdb           17464.00     0.00 15588.00    0.00 133664.00     0.00    17.15     9.93    0.64    0.64    0.00   0.03  47.90
sdc           16602.00     0.00 15095.00    0.00 128388.00     0.00    17.01    11.49    0.76    0.76    0.00   0.04  62.90
sdd           16617.00     0.00 15286.00    0.00 128904.00     0.00    16.87    11.73    0.77    0.77    0.00   0.04  62.90
sde           16662.00     0.00 15117.00    0.00 128600.00     0.00    17.01    11.61    0.77    0.77    0.00   0.04  63.80
sdf           16938.00     0.00 15191.00    0.00 130240.00     0.00    17.15    11.92    0.78    0.78    0.00   0.04  64.80
sdg               0.00     0.00    0.00    0.00     0.00     0.00     0.00     0.00    0.00    0.00    0.00   0.00   0.00
sdh               0.00     0.00    0.00    0.00     0.00     0.00     0.00     0.00    0.00    0.00    0.00   0.00   0.00
md0               0.00     0.00 194184.00    0.00 776736.00     0.00     8.00     0.00    0.00    0.00    0.00   0.00   0.00

avg-cpu:  %user   %nice %system %iowait  %steal   %idle
           2.78    0.00   30.81    0.51    0.00   65.91

Device:         rrqm/s   wrqm/s     r/s     w/s    rkB/s    wkB/s avgrq-sz avgqu-sz   await r_await w_await  svctm  %util
sda           15468.00     0.00 15901.00    0.00 126508.00     0.00    15.91     9.88    0.62    0.62    0.00   0.03  46.90
sdb           15561.00     0.00 15863.00    0.00 126884.00     0.00    16.00     9.96    0.63    0.63    0.00   0.03  46.10
sdc           15650.00     0.00 15342.00    0.00 125096.00     0.00    16.31    11.68    0.76    0.76    0.00   0.04  62.10
sdd           15082.00     0.00 15422.00    0.00 123176.00     0.00    15.97    11.56    0.75    0.75    0.00   0.04  62.10
sde           15569.00     0.00 15486.00    0.00 125388.00     0.00    16.19    12.12    0.78    0.78    0.00   0.04  61.80
sdf           15215.00     0.00 15325.00    0.00 123384.00     0.00    16.10    11.51    0.75    0.75    0.00   0.04  60.50
sdg               0.00     0.00    0.00    0.00     0.00     0.00     0.00     0.00    0.00    0.00    0.00   0.00   0.00
sdh               0.00     0.00    0.00    0.00     0.00     0.00     0.00     0.00    0.00    0.00    0.00   0.00   0.00
md0               0.00     0.00 187661.00    0.00 750644.00     0.00     8.00     0.00    0.00    0.00    0.00   0.00   0.00

avg-cpu:  %user   %nice %system %iowait  %steal   %idle
           3.32    0.00   31.20    0.51    0.00   64.96

Device:         rrqm/s   wrqm/s     r/s     w/s    rkB/s    wkB/s avgrq-sz avgqu-sz   await r_await w_await  svctm  %util
sda           14735.00     0.00 16727.00    0.00 126852.00     0.00    15.17     9.92    0.59    0.59    0.00   0.03  47.40
sdb           12757.00     0.00 16371.00    0.00 117144.00     0.00    14.31     9.39    0.57    0.57    0.00   0.03  44.70
sdc           14903.00     0.00 16170.00    0.00 125352.00     0.00    15.50    11.75    0.73    0.73    0.00   0.04  61.90
sdd           15010.00     0.00 15906.00    0.00 124664.00     0.00    15.68    11.13    0.70    0.70    0.00   0.04  61.20
sde           16136.00     0.00 16294.00    0.00 130980.00     0.00    16.08    12.17    0.75    0.75    0.00   0.04  64.20
sdf           13554.00     0.00 15781.00    0.00 118416.00     0.00    15.01    11.09    0.70    0.70    0.00   0.04  59.20
sdg               0.00     0.00   18.00    0.00   120.00     0.00    13.33     0.00    0.11    0.11    0.00   0.11   0.20
sdh               0.00     0.00    0.00    0.00     0.00     0.00     0.00     0.00    0.00    0.00    0.00   0.00   0.00
md0               0.00     0.00 186011.00    0.00 744044.00     0.00     8.00     0.00    0.00    0.00    0.00   0.00   0.00

avg-cpu:  %user   %nice %system %iowait  %steal   %idle
           2.74    0.00   34.08    1.24    0.00   61.94

Device:         rrqm/s   wrqm/s     r/s     w/s    rkB/s    wkB/s avgrq-sz avgqu-sz   await r_await w_await  svctm  %util
sda           14045.00     0.00 16662.00    0.00 123992.00     0.00    14.88     9.64    0.58    0.58    0.00   0.03  47.90
sdb           13685.00     0.00 16741.00    0.00 122692.00     0.00    14.66     9.79    0.59    0.59    0.00   0.03  46.80
sdc           14091.00     0.00 16231.00    0.00 122296.00     0.00    15.07    11.74    0.72    0.72    0.00   0.04  62.70
sdd           14330.00     0.00 16424.00    0.00 124364.00     0.00    15.14    11.46    0.70    0.70    0.00   0.04  62.90
sde           13198.00     0.00 16313.00    0.00 118864.00     0.00    14.57    11.34    0.69    0.69    0.00   0.04  60.40
sdf           14267.00     0.00 16104.00    0.00 122500.00     0.00    15.21    11.47    0.71    0.71    0.00   0.04  62.70
sdg               0.00    60.00   12.00 1459.00    48.00  7472.00    10.22     8.50    5.78    1.08    5.82   0.05   7.00
sdh               0.00     0.00    0.00    0.00     0.00     0.00     0.00     0.00    0.00    0.00    0.00   0.00   0.00
md0               0.00     0.00 183613.00    0.00 734452.00     0.00     8.00     0.00    0.00    0.00    0.00   0.00   0.00

avg-cpu:  %user   %nice %system %iowait  %steal   %idle
           2.77    0.00   33.75    0.50    0.00   62.97

Device:         rrqm/s   wrqm/s     r/s     w/s    rkB/s    wkB/s avgrq-sz avgqu-sz   await r_await w_await  svctm  %util
sda           13208.00     0.00 16690.00    0.00 120616.00     0.00    14.45     9.98    0.60    0.60    0.00   0.03  46.30
sdb           13701.00     0.00 16762.00    0.00 123208.00     0.00    14.70     9.91    0.59    0.59    0.00   0.03  45.60
sdc           13971.00     0.00 16232.00    0.00 121956.00     0.00    15.03    11.77    0.73    0.73    0.00   0.04  62.80
sdd           13529.00     0.00 16257.00    0.00 120260.00     0.00    14.79    11.37    0.70    0.70    0.00   0.04  61.60
sde           14044.00     0.00 16228.00    0.00 122128.00     0.00    15.05    11.49    0.71    0.71    0.00   0.04  61.50
sdf           13294.00     0.00 16344.00    0.00 119604.00     0.00    14.64    11.72    0.72    0.72    0.00   0.04  61.70
sdg               0.00     0.00    0.00    0.00     0.00     0.00     0.00     0.00    0.00    0.00    0.00   0.00   0.00
sdh               0.00     0.00    0.00    0.00     0.00     0.00     0.00     0.00    0.00    0.00    0.00   0.00   0.00
md0               0.00     0.00 181768.00    0.00 727072.00     0.00     8.00     0.00    0.00    0.00    0.00   0.00   0.00

avg-cpu:  %user   %nice %system %iowait  %steal   %idle
           3.30    0.00   32.23    0.51    0.00   63.96

Device:         rrqm/s   wrqm/s     r/s     w/s    rkB/s    wkB/s avgrq-sz avgqu-sz   await r_await w_await  svctm  %util
sda           12567.00     0.00 16417.00    0.00 117832.00     0.00    14.35     9.50    0.58    0.58    0.00   0.03  45.00
sdb           13022.00     0.00 16712.00    0.00 120288.00     0.00    14.40     9.67    0.58    0.58    0.00   0.03  46.50
sdc           12831.00     0.00 15950.00    0.00 116708.00     0.00    14.63    11.04    0.69    0.69    0.00   0.04  58.60
sdd           13331.00     0.00 16191.00    0.00 119604.00     0.00    14.77    11.12    0.69    0.69    0.00   0.04  60.30
sde           13242.00     0.00 16375.00    0.00 120332.00     0.00    14.70    11.39    0.70    0.70    0.00   0.04  60.90
sdf           12406.00     0.00 15867.00    0.00 114412.00     0.00    14.42    11.06    0.70    0.70    0.00   0.04  57.60
sdg               0.00     0.00    0.00    0.00     0.00     0.00     0.00     0.00    0.00    0.00    0.00   0.00   0.00
sdh               0.00     0.00    0.00    0.00     0.00     0.00     0.00     0.00    0.00    0.00    0.00   0.00   0.00
md0               0.00     0.00 176281.00    0.00 709560.00     0.00     8.05     0.00    0.00    0.00    0.00   0.00   0.00

avg-cpu:  %user   %nice %system %iowait  %steal   %idle
           2.77    0.00   34.26    0.25    0.00   62.72

Device:         rrqm/s   wrqm/s     r/s     w/s    rkB/s    wkB/s avgrq-sz avgqu-sz   await r_await w_await  svctm  %util
sda           13233.00     0.00 16655.00    0.00 121192.00     0.00    14.55    10.04    0.60    0.60    0.00   0.03  47.60
sdb           13757.00     0.00 16984.00    0.00 124000.00     0.00    14.60    10.31    0.61    0.61    0.00   0.03  47.90
sdc           13365.00     0.00 16487.00    0.00 120604.00     0.00    14.63    12.21    0.74    0.74    0.00   0.04  60.60
sdd           13681.00     0.00 16366.00    0.00 121296.00     0.00    14.82    11.83    0.72    0.72    0.00   0.04  61.40
sde           13135.00     0.00 16343.00    0.00 119076.00     0.00    14.57    11.76    0.72    0.72    0.00   0.04  61.10
sdf           13583.00     0.00 16275.00    0.00 120884.00     0.00    14.86    11.70    0.72    0.72    0.00   0.04  62.50
sdg               0.00     0.00    0.00    0.00     0.00     0.00     0.00     0.00    0.00    0.00    0.00   0.00   0.00
sdh               0.00     0.00    0.00    0.00     0.00     0.00     0.00     0.00    0.00    0.00    0.00   0.00   0.00
md0               0.00     0.00 181449.00    0.00 727504.00     0.00     8.02     0.00    0.00    0.00    0.00   0.00   0.00

avg-cpu:  %user   %nice %system %iowait  %steal   %idle
           2.76    0.00   34.09    0.75    0.00   62.41

Device:         rrqm/s   wrqm/s     r/s     w/s    rkB/s    wkB/s avgrq-sz avgqu-sz   await r_await w_await  svctm  %util
sda           12345.00     0.00 16651.00    0.00 116844.00     0.00    14.03     9.36    0.56    0.56    0.00   0.03  46.90
sdb           12801.00     0.00 16970.00    0.00 119848.00     0.00    14.12     9.49    0.56    0.56    0.00   0.03  46.60
sdc           13805.00     0.00 16349.00    0.00 121456.00     0.00    14.86    11.31    0.69    0.69    0.00   0.04  62.50
sdd           14076.00     0.00 16568.00    0.00 123796.00     0.00    14.94    11.68    0.71    0.71    0.00   0.04  63.70
sde           13806.00     0.00 16551.00    0.00 122500.00     0.00    14.80    11.60    0.70    0.70    0.00   0.04  62.90
sdf           12947.00     0.00 16490.00    0.00 118600.00     0.00    14.38    11.41    0.69    0.69    0.00   0.04  61.80
sdg               0.00     0.00    0.00    0.00     0.00     0.00     0.00     0.00    0.00    0.00    0.00   0.00   0.00
sdh               0.00     0.00    0.00    0.00     0.00     0.00     0.00     0.00    0.00    0.00    0.00   0.00   0.00
md0               0.00     0.00 181003.00    0.00 724580.00     0.00     8.01     0.00    0.00    0.00    0.00   0.00   0.00

avg-cpu:  %user   %nice %system %iowait  %steal   %idle
           3.77    0.00   33.92    0.50    0.00   61.81

Device:         rrqm/s   wrqm/s     r/s     w/s    rkB/s    wkB/s avgrq-sz avgqu-sz   await r_await w_await  svctm  %util
sda           13349.00     0.00 17200.00    0.00 123100.00     0.00    14.31     9.85    0.57    0.57    0.00   0.03  47.40
sdb           12539.00     0.00 17010.00    0.00 119372.00     0.00    14.04     9.83    0.58    0.58    0.00   0.03  46.50
sdc           13901.00     0.00 16799.00    0.00 123816.00     0.00    14.74    11.70    0.70    0.70    0.00   0.04  63.10
sdd           13284.00     0.00 16882.00    0.00 121700.00     0.00    14.42    11.62    0.69    0.69    0.00   0.04  60.70
sde           12896.00     0.00 16570.00    0.00 118984.00     0.00    14.36    11.62    0.70    0.70    0.00   0.04  61.10
sdf           13788.00     0.00 16813.00    0.00 123348.00     0.00    14.67    12.00    0.71    0.71    0.00   0.04  62.00
sdg               0.00     0.00    0.00    0.00     0.00     0.00     0.00     0.00    0.00    0.00    0.00   0.00   0.00
sdh               0.00     0.00    0.00    0.00     0.00     0.00     0.00     0.00    0.00    0.00    0.00   0.00   0.00
md0               0.00     0.00 182335.00    0.00 729360.00     0.00     8.00     0.00    0.00    0.00    0.00   0.00   0.00

avg-cpu:  %user   %nice %system %iowait  %steal   %idle
           3.54    0.00   33.92    0.51    0.00   62.03

Device:         rrqm/s   wrqm/s     r/s     w/s    rkB/s    wkB/s avgrq-sz avgqu-sz   await r_await w_await  svctm  %util
sda           12663.00     0.00 17240.00    0.00 121224.00     0.00    14.06     9.71    0.56    0.56    0.00   0.03  46.50
sdb           12203.00     0.00 17194.00    0.00 118936.00     0.00    13.83     9.39    0.55    0.55    0.00   0.03  45.70
sdc           13040.00     0.00 16792.00    0.00 120772.00     0.00    14.38    11.50    0.68    0.68    0.00   0.04  61.70
sdd           12819.00     0.00 16651.00    0.00 118984.00     0.00    14.29    11.33    0.68    0.68    0.00   0.04  60.80
sde           13370.00     0.00 16664.00    0.00 121180.00     0.00    14.54    11.72    0.70    0.70    0.00   0.04  61.70
sdf           12847.00     0.00 16929.00    0.00 120508.00     0.00    14.24    11.73    0.69    0.69    0.00   0.04  61.60
sdg               0.00     0.00    0.00    0.00     0.00     0.00     0.00     0.00    0.00    0.00    0.00   0.00   0.00
sdh               0.00     0.00    0.00    0.00     0.00     0.00     0.00     0.00    0.00    0.00    0.00   0.00   0.00
md0               0.00     0.00 179808.00    0.00 720864.00     0.00     8.02     0.00    0.00    0.00    0.00   0.00   0.00

avg-cpu:  %user   %nice %system %iowait  %steal   %idle
           2.75    0.00   35.25    0.50    0.00   61.50

Device:         rrqm/s   wrqm/s     r/s     w/s    rkB/s    wkB/s avgrq-sz avgqu-sz   await r_await w_await  svctm  %util
sda           11752.00     0.00 16994.00    0.00 116236.00     0.00    13.68     9.62    0.56    0.56    0.00   0.03  46.00
sdb           12389.00     0.00 17174.00    0.00 119440.00     0.00    13.91     9.96    0.58    0.58    0.00   0.03  46.90
sdc           13134.00     0.00 16517.00    0.00 119256.00     0.00    14.44    11.96    0.72    0.72    0.00   0.04  61.30
sdd           12951.00     0.00 16422.00    0.00 118356.00     0.00    14.41    11.71    0.71    0.71    0.00   0.04  62.00
sde           12796.00     0.00 16475.00    0.00 117916.00     0.00    14.31    11.58    0.70    0.70    0.00   0.04  60.30
sdf           13597.00     0.00 16677.00    0.00 122080.00     0.00    14.64    12.12    0.72    0.72    0.00   0.04  62.70
sdg               0.00     0.00    0.00    0.00     0.00     0.00     0.00     0.00    0.00    0.00    0.00   0.00   0.00
sdh               0.00     0.00    0.00    0.00     0.00     0.00     0.00     0.00    0.00    0.00    0.00   0.00   0.00
md0               0.00     0.00 178531.00    0.00 715324.00     0.00     8.01     0.00    0.00    0.00    0.00   0.00   0.00

avg-cpu:  %user   %nice %system %iowait  %steal   %idle
           3.29    0.00   33.42    0.51    0.00   62.78

Device:         rrqm/s   wrqm/s     r/s     w/s    rkB/s    wkB/s avgrq-sz avgqu-sz   await r_await w_await  svctm  %util
sda           13052.00     0.00 16731.00    0.00 120084.00     0.00    14.35     9.70    0.58    0.58    0.00   0.03  46.70
sdb           12827.00     0.00 16914.00    0.00 119876.00     0.00    14.17     9.75    0.58    0.58    0.00   0.03  44.80
sdc           12393.00     0.00 16222.00    0.00 115940.00     0.00    14.29    11.19    0.69    0.69    0.00   0.04  59.50
sdd           12787.00     0.00 16463.00    0.00 118140.00     0.00    14.35    11.30    0.69    0.69    0.00   0.04  58.80
sde           13681.00     0.00 16267.00    0.00 120852.00     0.00    14.86    11.65    0.72    0.72    0.00   0.04  61.20
sdf           13891.00     0.00 16643.00    0.00 123224.00     0.00    14.81    11.96    0.72    0.72    0.00   0.04  62.30
sdg               0.00     0.00    0.00    0.00     0.00     0.00     0.00     0.00    0.00    0.00    0.00   0.00   0.00
sdh               0.00     0.00    0.00    0.00     0.00     0.00     0.00     0.00    0.00    0.00    0.00   0.00   0.00
md0               0.00     0.00 179352.00    0.00 718012.00     0.00     8.01     0.00    0.00    0.00    0.00   0.00   0.00

avg-cpu:  %user   %nice %system %iowait  %steal   %idle
           2.78    0.25   35.86    3.28    0.00   57.83

Device:         rrqm/s   wrqm/s     r/s     w/s    rkB/s    wkB/s avgrq-sz avgqu-sz   await r_await w_await  svctm  %util
sda           12681.00     0.00 17507.00    0.00 121784.00     0.00    13.91    10.58    0.60    0.60    0.00   0.03  47.20
sdb           12546.00     0.00 17154.00    0.00 119868.00     0.00    13.98    10.31    0.60    0.60    0.00   0.03  45.60
sdc           12781.00     0.00 16730.00    0.00 119024.00     0.00    14.23    11.79    0.70    0.70    0.00   0.04  60.80
sdd           13251.00     0.00 16799.00    0.00 121416.00     0.00    14.46    12.29    0.73    0.73    0.00   0.04  61.70
sde           12925.00     0.00 16608.00    0.00 119216.00     0.00    14.36    11.92    0.72    0.72    0.00   0.04  61.10
sdf           12529.00     0.00 16646.00    0.00 117572.00     0.00    14.13    11.97    0.72    0.72    0.00   0.04  60.10
sdg               0.00     0.00 2691.00    0.00 10808.00     0.00     8.03     0.36    0.13    0.13    0.00   0.13  35.20
sdh               0.00     0.00    0.00    0.00     0.00     0.00     0.00     0.00    0.00    0.00    0.00   0.00   0.00
md0               0.00     0.00 179331.00    0.00 717324.00     0.00     8.00     0.00    0.00    0.00    0.00   0.00   0.00

avg-cpu:  %user   %nice %system %iowait  %steal   %idle
           3.32    0.00   33.16    1.02    0.00   62.50

Device:         rrqm/s   wrqm/s     r/s     w/s    rkB/s    wkB/s avgrq-sz avgqu-sz   await r_await w_await  svctm  %util
sda           12462.00     0.00 16951.00    0.00 118356.00     0.00    13.96     9.84    0.58    0.58    0.00   0.03  45.30
sdb           11979.00     0.00 16718.00    0.00 115664.00     0.00    13.84     9.84    0.59    0.59    0.00   0.03  45.10
sdc           13963.00     0.00 16645.00    0.00 123404.00     0.00    14.83    11.76    0.71    0.71    0.00   0.04  61.70
sdd           12551.00     0.00 16315.00    0.00 116140.00     0.00    14.24    11.62    0.71    0.71    0.00   0.04  59.30
sde           12646.00     0.00 16254.00    0.00 116396.00     0.00    14.32    11.35    0.70    0.70    0.00   0.04  58.60
sdf           13146.00     0.00 16426.00    0.00 118912.00     0.00    14.48    11.58    0.70    0.70    0.00   0.04  59.80
sdg               0.00     0.00  479.00    0.00  1916.00     0.00     8.00     0.07    0.14    0.14    0.00   0.14   6.50
sdh               0.00     0.00    0.00    0.00     0.00     0.00     0.00     0.00    0.00    0.00    0.00   0.00   0.00
md0               0.00     0.00 177610.00    0.00 710440.00     0.00     8.00     0.00    0.00    0.00    0.00   0.00   0.00

avg-cpu:  %user   %nice %system %iowait  %steal   %idle
           3.05    0.00   33.76    0.51    0.00   62.69

Device:         rrqm/s   wrqm/s     r/s     w/s    rkB/s    wkB/s avgrq-sz avgqu-sz   await r_await w_await  svctm  %util
sda           12492.00     0.00 17167.00    0.00 119808.00     0.00    13.96     9.79    0.57    0.57    0.00   0.03  46.20
sdb           12165.00     0.00 16934.00    0.00 117504.00     0.00    13.88     9.44    0.56    0.56    0.00   0.03  45.30
sdc           13179.00     0.00 16520.00    0.00 119944.00     0.00    14.52    11.48    0.69    0.69    0.00   0.04  60.70
sdd           13426.00     0.00 16839.00    0.00 122036.00     0.00    14.49    11.90    0.71    0.71    0.00   0.04  60.90
sde           12708.00     0.00 16439.00    0.00 117696.00     0.00    14.32    11.47    0.70    0.70    0.00   0.04  59.20
sdf           13489.00     0.00 16585.00    0.00 121792.00     0.00    14.69    11.88    0.72    0.72    0.00   0.04  61.90
sdg               0.00     0.00    0.00    0.00     0.00     0.00     0.00     0.00    0.00    0.00    0.00   0.00   0.00
sdh               0.00     0.00    0.00    0.00     0.00     0.00     0.00     0.00    0.00    0.00    0.00   0.00   0.00
md0               0.00     0.00 179217.00    0.00 717240.00     0.00     8.00     0.00    0.00    0.00    0.00   0.00   0.00

avg-cpu:  %user   %nice %system %iowait  %steal   %idle
           3.09    0.00   32.73    0.52    0.00   63.66

Device:         rrqm/s   wrqm/s     r/s     w/s    rkB/s    wkB/s avgrq-sz avgqu-sz   await r_await w_await  svctm  %util
sda           11669.00     0.00 16741.00    0.00 114780.00     0.00    13.71     9.17    0.55    0.55    0.00   0.03  43.20
sdb           13019.00     0.00 16886.00    0.00 120608.00     0.00    14.28     9.76    0.58    0.58    0.00   0.03  47.00
sdc           13240.00     0.00 16579.00    0.00 120192.00     0.00    14.50    11.61    0.70    0.70    0.00   0.04  59.80
sdd           13682.00     0.00 16757.00    0.00 123228.00     0.00    14.71    11.74    0.70    0.70    0.00   0.04  62.40
sde           13494.00     0.00 16763.00    0.00 122336.00     0.00    14.60    11.63    0.69    0.69    0.00   0.04  61.00
sdf           12824.00     0.00 16290.00    0.00 117632.00     0.00    14.44    11.13    0.68    0.68    0.00   0.04  59.50
sdg               0.00     0.00    1.00    0.00     4.00     0.00     8.00     0.00    1.00    1.00    0.00   1.00   0.10
sdh               0.00     0.00    0.00    0.00     0.00     0.00     0.00     0.00    0.00    0.00    0.00   0.00   0.00
md0               0.00     0.00 179351.00    0.00 718636.00     0.00     8.01     0.00    0.00    0.00    0.00   0.00   0.00

