Linux 4.17.2 (bench) 	08/03/2018 	_x86_64_	(4 CPU)

avg-cpu:  %user   %nice %system %iowait  %steal   %idle
          10.29    0.02    4.01    2.48    0.00   83.20

Device:         rrqm/s   wrqm/s     r/s     w/s    rkB/s    wkB/s avgrq-sz avgqu-sz   await r_await w_await  svctm  %util
sda              41.51     4.26 1619.89  103.23 20727.20  3150.13    27.71     1.03    0.60    0.26    5.91   0.06  10.58
sdb              41.40     4.22 1619.78  103.37 20716.63  3146.77    27.70     1.02    0.59    0.26    5.85   0.06  10.46
sdc              79.44     4.28 1579.66  102.92 20708.84  3149.25    28.36     1.44    0.86    0.45    7.12   0.08  13.89
sdd              72.80     4.25 1585.46  102.99 20693.54  3145.42    28.24     1.45    0.86    0.44    7.32   0.08  13.99
sde              74.87     4.30 1590.58  103.08 20754.00  3149.69    28.23     1.47    0.87    0.44    7.43   0.08  14.01
sdf              71.96     4.27 1592.75  103.03 20735.00  3146.53    28.17     1.52    0.89    0.44    7.90   0.08  14.04
sdg               0.00     3.18   26.01   73.33   322.75   391.97    14.39     0.44    4.43    0.20    5.93   0.08   0.78
sdh               0.00     0.13    0.02    0.24     2.23     5.10    56.82     0.00    1.15    0.65    1.19   0.21   0.01
md0               0.00     0.00 9976.34  483.60 141928.05 21569.60    31.26     0.00    0.00    0.00    0.00   0.00   0.00

avg-cpu:  %user   %nice %system %iowait  %steal   %idle
           6.97    0.01   32.88    0.42    0.00   59.73

Device:         rrqm/s   wrqm/s     r/s     w/s    rkB/s    wkB/s avgrq-sz avgqu-sz   await r_await w_await  svctm  %util
sda               0.00     0.00 20060.05    0.00 80240.20     0.00     8.00     4.63    0.23    0.23    0.00   0.03  51.23
sdb               0.00     0.00 20074.40    0.00 80297.60     0.00     8.00     4.65    0.23    0.23    0.00   0.03  51.07
sdc               0.00     0.00 20097.20    0.00 80389.40     0.00     8.00     5.07    0.25    0.25    0.00   0.03  57.15
sdd               0.00     0.00 20072.85    0.00 80291.40     0.00     8.00     5.09    0.25    0.25    0.00   0.03  57.33
sde               0.00     0.00 20060.95    0.00 80244.40     0.00     8.00     5.10    0.25    0.25    0.00   0.03  57.46
sdf               0.00     0.00 20066.05    0.00 80264.20     0.00     8.00     5.11    0.25    0.25    0.00   0.03  57.59
sdg               0.00     9.60    1.25  127.90    11.20   636.00    10.02     0.82    6.36    0.56    6.42   0.05   0.62
sdh               0.00     0.00    0.00    0.00     0.00     0.00     0.00     0.00    0.00    0.00    0.00   0.00   0.00
md0               0.00     0.00 120431.60    0.00 481727.60     0.00     8.00     0.00    0.00    0.00    0.00   0.00   0.00

