Linux 4.17.2 (bench) 	08/03/2018 	_x86_64_	(4 CPU)

avg-cpu:  %user   %nice %system %iowait  %steal   %idle
          10.29    0.02    3.99    2.44    0.00   83.26

Device:         rrqm/s   wrqm/s     r/s     w/s    rkB/s    wkB/s avgrq-sz avgqu-sz   await r_await w_await  svctm  %util
sda              40.44     4.28 1605.82  103.55 20657.47  3159.98    27.87     1.03    0.60    0.26    5.91   0.06  10.51
sdb              40.33     4.24 1605.71  103.69 20646.87  3156.61    27.85     1.02    0.60    0.26    5.85   0.06  10.39
sdc              78.49     4.30 1565.47  103.24 20639.09  3159.10    28.52     1.44    0.86    0.45    7.12   0.08  13.82
sdd              71.83     4.27 1571.28  103.31 20623.75  3155.26    28.40     1.45    0.87    0.44    7.32   0.08  13.91
sde              73.90     4.31 1576.43  103.41 20684.42  3159.55    28.39     1.47    0.88    0.45    7.43   0.08  13.93
sdf              70.99     4.28 1578.60  103.35 20665.41  3156.38    28.33     1.52    0.90    0.44    7.90   0.08  13.96
sdg               0.00     3.18   25.91   73.35   322.40   391.99    14.39     0.44    4.44    0.20    5.93   0.08   0.77
sdh               0.00     0.13    0.02    0.24     2.23     5.11    56.82     0.00    1.15    0.65    1.19   0.21   0.01
md0               0.00     0.00 9885.49  485.11 141434.35 21637.09    31.45     0.00    0.00    0.00    0.00   0.00   0.00

avg-cpu:  %user   %nice %system %iowait  %steal   %idle
           1.84    0.01   20.50   60.79    0.00   16.85

Device:         rrqm/s   wrqm/s     r/s     w/s    rkB/s    wkB/s avgrq-sz avgqu-sz   await r_await w_await  svctm  %util
sda               0.00     0.00 11260.85    0.00 45043.40     0.00     8.00     2.33    0.21    0.21    0.00   0.02  24.50
sdb               0.00     0.00 11179.70    0.00 44718.80     0.00     8.00     2.31    0.21    0.21    0.00   0.02  24.29
sdc               0.00     0.00 10950.95    0.00 43803.80     0.00     8.00     2.85    0.26    0.26    0.00   0.03  29.77
sdd               0.00     0.00 11078.90    0.00 44315.60     0.00     8.00     2.93    0.26    0.26    0.00   0.03  29.82
sde               0.00     0.00 11159.30    0.00 44637.20     0.00     8.00     2.92    0.26    0.26    0.00   0.03  30.17
sdf               0.00     0.00 11128.70    0.00 44514.80     0.00     8.00     2.86    0.26    0.26    0.00   0.03  29.82
sdg               0.00     3.90    3.15  129.05    29.60   653.20    10.33     0.84    6.37    0.35    6.51   0.05   0.72
sdh               0.00     0.00    0.00    0.00     0.00     0.00     0.00     0.00    0.00    0.00    0.00   0.00   0.00
md0               0.00     0.00 66759.10    0.00 267036.40     0.00     8.00     0.00    0.00    0.00    0.00   0.00   0.00

