Linux 4.17.2 (bench) 	08/03/2018 	_x86_64_	(4 CPU)

avg-cpu:  %user   %nice %system %iowait  %steal   %idle
          10.29    0.02    4.04    2.53    0.00   83.12

Device:         rrqm/s   wrqm/s     r/s     w/s    rkB/s    wkB/s avgrq-sz avgqu-sz   await r_await w_await  svctm  %util
sda              44.32     4.25 1640.49  102.86 20837.39  3138.82    27.51     1.03    0.59    0.26    5.91   0.06  10.66
sdb              44.19     4.21 1640.41  103.00 20826.79  3135.47    27.49     1.03    0.59    0.26    5.85   0.06  10.54
sdc              82.20     4.27 1600.31  102.55 20818.93  3137.94    28.14     1.45    0.85    0.45    7.12   0.08  13.99
sdd              75.59     4.24 1606.08  102.62 20803.78  3134.13    28.02     1.46    0.85    0.44    7.32   0.08  14.08
sde              77.64     4.28 1611.17  102.71 20863.82  3138.39    28.01     1.48    0.86    0.44    7.43   0.08  14.10
sdf              74.74     4.25 1613.34  102.66 20844.99  3135.24    27.95     1.52    0.89    0.44    7.90   0.08  14.13
sdg               0.00     3.17   26.15   73.31   323.35   391.95    14.38     0.44    4.42    0.20    5.93   0.08   0.78
sdh               0.00     0.13    0.02    0.24     2.22     5.08    56.82     0.00    1.15    0.65    1.19   0.21   0.01
md0               0.00     0.00 10116.97  481.86 142669.16 21492.18    30.98     0.00    0.00    0.00    0.00   0.00   0.00

avg-cpu:  %user   %nice %system %iowait  %steal   %idle
           0.77    0.26    4.59    6.12    0.00   88.27

Device:         rrqm/s   wrqm/s     r/s     w/s    rkB/s    wkB/s avgrq-sz avgqu-sz   await r_await w_await  svctm  %util
sda               0.00     0.00 1964.00    0.00  7856.00     0.00     8.00     0.12    0.06    0.06    0.00   0.06  12.40
sdb               0.00     0.00 2296.00    0.00  9184.00     0.00     8.00     0.15    0.06    0.06    0.00   0.06  14.70
sdc               0.00     0.00 2206.00    0.00  8824.00     0.00     8.00     0.16    0.07    0.07    0.00   0.07  15.80
sdd               0.00     0.00 2041.00    0.00  8164.00     0.00     8.00     0.14    0.07    0.07    0.00   0.07  14.50
sde               0.00     0.00 2154.00    0.00  8616.00     0.00     8.00     0.14    0.07    0.07    0.00   0.07  14.40
sdf               0.00     0.00 2500.00    0.00 10000.00     0.00     8.00     0.17    0.07    0.07    0.00   0.07  17.30
sdg               0.00     0.00 1890.00    0.00  8140.00     0.00     8.61     0.23    0.12    0.12    0.00   0.11  21.30
sdh               0.00     0.00    0.00    0.00     0.00     0.00     0.00     0.00    0.00    0.00    0.00   0.00   0.00
md0               0.00     0.00 13162.00    0.00 52648.00     0.00     8.00     0.00    0.00    0.00    0.00   0.00   0.00

avg-cpu:  %user   %nice %system %iowait  %steal   %idle
           0.77    0.00    3.35    0.77    0.00   95.10

Device:         rrqm/s   wrqm/s     r/s     w/s    rkB/s    wkB/s avgrq-sz avgqu-sz   await r_await w_await  svctm  %util
sda               0.00     0.00 2150.00    0.00  8600.00     0.00     8.00     0.15    0.07    0.07    0.00   0.07  15.00
sdb               0.00     0.00 2233.00    0.00  8932.00     0.00     8.00     0.15    0.07    0.07    0.00   0.07  15.50
sdc               0.00     0.00 2287.00    0.00  9148.00     0.00     8.00     0.14    0.06    0.06    0.00   0.06  14.50
sdd               0.00     0.00 2133.00    0.00  8532.00     0.00     8.00     0.15    0.07    0.07    0.00   0.07  14.70
sde               0.00     0.00 2232.00    0.00  8928.00     0.00     8.00     0.16    0.07    0.07    0.00   0.07  16.00
sdf               0.00     0.00 2012.00    0.00  8048.00     0.00     8.00     0.14    0.07    0.07    0.00   0.07  13.90
sdg               0.00     0.00    0.00    0.00     0.00     0.00     0.00     0.00    0.00    0.00    0.00   0.00   0.00
sdh               0.00     0.00    0.00    0.00     0.00     0.00     0.00     0.00    0.00    0.00    0.00   0.00   0.00
md0               0.00     0.00 13048.00    0.00 52192.00     0.00     8.00     0.00    0.00    0.00    0.00   0.00   0.00

avg-cpu:  %user   %nice %system %iowait  %steal   %idle
           1.02    0.00    3.82    1.02    0.00   94.15

Device:         rrqm/s   wrqm/s     r/s     w/s    rkB/s    wkB/s avgrq-sz avgqu-sz   await r_await w_await  svctm  %util
sda               0.00     0.00 2025.00    0.00  8100.00     0.00     8.00     0.13    0.06    0.06    0.00   0.06  12.70
sdb               0.00     0.00 2227.00    0.00  8908.00     0.00     8.00     0.13    0.06    0.06    0.00   0.06  12.90
sdc               0.00     0.00 2229.00    0.00  8916.00     0.00     8.00     0.17    0.08    0.08    0.00   0.08  16.80
sdd               0.00     0.00 2475.00    0.00  9900.00     0.00     8.00     0.16    0.06    0.06    0.00   0.06  15.70
sde               0.00     0.00 2037.00    0.00  8148.00     0.00     8.00     0.13    0.06    0.06    0.00   0.06  13.20
sdf               0.00     0.00 2368.00    0.00  9472.00     0.00     8.00     0.16    0.07    0.07    0.00   0.07  16.30
sdg               0.00     0.00    0.00    0.00     0.00     0.00     0.00     0.00    0.00    0.00    0.00   0.00   0.00
sdh               0.00     0.00    0.00    0.00     0.00     0.00     0.00     0.00    0.00    0.00    0.00   0.00   0.00
md0               0.00     0.00 13362.00    0.00 53448.00     0.00     8.00     0.00    0.00    0.00    0.00   0.00   0.00

avg-cpu:  %user   %nice %system %iowait  %steal   %idle
           1.03    0.00    3.08    1.03    0.00   94.87

Device:         rrqm/s   wrqm/s     r/s     w/s    rkB/s    wkB/s avgrq-sz avgqu-sz   await r_await w_await  svctm  %util
sda               0.00     0.00 2216.00    0.00  8864.00     0.00     8.00     0.14    0.07    0.07    0.00   0.07  14.50
sdb               0.00     0.00 2302.00    0.00  9208.00     0.00     8.00     0.14    0.06    0.06    0.00   0.06  14.40
sdc               0.00     0.00 2105.00    0.00  8420.00     0.00     8.00     0.15    0.07    0.07    0.00   0.07  15.00
sdd               0.00     0.00 2401.00    0.00  9604.00     0.00     8.00     0.17    0.07    0.07    0.00   0.07  16.80
sde               0.00     0.00 2153.00    0.00  8612.00     0.00     8.00     0.14    0.06    0.06    0.00   0.06  13.70
sdf               0.00     0.00 2280.00    0.00  9120.00     0.00     8.00     0.15    0.07    0.07    0.00   0.07  15.30
sdg               0.00     0.00    0.00    0.00     0.00     0.00     0.00     0.00    0.00    0.00    0.00   0.00   0.00
sdh               0.00     0.00    0.00    0.00     0.00     0.00     0.00     0.00    0.00    0.00    0.00   0.00   0.00
md0               0.00     0.00 13456.00    0.00 53824.00     0.00     8.00     0.00    0.00    0.00    0.00   0.00   0.00

avg-cpu:  %user   %nice %system %iowait  %steal   %idle
           0.77    0.00    3.09    0.77    0.00   95.36

Device:         rrqm/s   wrqm/s     r/s     w/s    rkB/s    wkB/s avgrq-sz avgqu-sz   await r_await w_await  svctm  %util
sda               0.00     0.00 2289.00    0.00  9156.00     0.00     8.00     0.14    0.06    0.06    0.00   0.06  14.30
sdb               0.00     0.00 2428.00    0.00  9712.00     0.00     8.00     0.15    0.06    0.06    0.00   0.06  15.50
sdc               0.00     0.00 2359.00    0.00  9436.00     0.00     8.00     0.16    0.07    0.07    0.00   0.07  16.40
sdd               0.00     0.00 2199.00    0.00  8796.00     0.00     8.00     0.15    0.07    0.07    0.00   0.07  15.20
sde               0.00     0.00 2206.00    0.00  8824.00     0.00     8.00     0.14    0.06    0.06    0.00   0.06  14.30
sdf               0.00     0.00 2068.00    0.00  8272.00     0.00     8.00     0.14    0.07    0.07    0.00   0.07  13.80
sdg               0.00     0.00    0.00    0.00     0.00     0.00     0.00     0.00    0.00    0.00    0.00   0.00   0.00
sdh               0.00     0.00    0.00    0.00     0.00     0.00     0.00     0.00    0.00    0.00    0.00   0.00   0.00
md0               0.00     0.00 13549.00    0.00 54196.00     0.00     8.00     0.00    0.00    0.00    0.00   0.00   0.00

avg-cpu:  %user   %nice %system %iowait  %steal   %idle
           0.52    0.00    3.10    1.03    0.00   95.35

Device:         rrqm/s   wrqm/s     r/s     w/s    rkB/s    wkB/s avgrq-sz avgqu-sz   await r_await w_await  svctm  %util
sda               0.00     0.00 1946.00    0.00  7784.00     0.00     8.00     0.14    0.07    0.07    0.00   0.07  14.00
sdb               0.00     0.00 2031.00    0.00  8124.00     0.00     8.00     0.13    0.07    0.07    0.00   0.07  13.30
sdc               0.00     0.00 2525.00    0.00 10100.00     0.00     8.00     0.16    0.06    0.06    0.00   0.06  16.30
sdd               0.00     0.00 1999.00    0.00  7996.00     0.00     8.00     0.14    0.07    0.07    0.00   0.07  13.50
sde               0.00     0.00 2710.00    0.00 10840.00     0.00     8.00     0.19    0.07    0.07    0.00   0.07  18.80
sdf               0.00     0.00 2181.00    0.00  8724.00     0.00     8.00     0.14    0.07    0.07    0.00   0.07  14.40
sdg               0.00     0.00    0.00    0.00     0.00     0.00     0.00     0.00    0.00    0.00    0.00   0.00   0.00
sdh               0.00     0.00    0.00    0.00     0.00     0.00     0.00     0.00    0.00    0.00    0.00   0.00   0.00
md0               0.00     0.00 13392.00    0.00 53568.00     0.00     8.00     0.00    0.00    0.00    0.00   0.00   0.00

avg-cpu:  %user   %nice %system %iowait  %steal   %idle
           0.77    0.00    2.84    1.03    0.00   95.36

Device:         rrqm/s   wrqm/s     r/s     w/s    rkB/s    wkB/s avgrq-sz avgqu-sz   await r_await w_await  svctm  %util
sda               0.00     0.00 2433.00    0.00  9732.00     0.00     8.00     0.17    0.07    0.07    0.00   0.07  16.90
sdb               0.00     0.00 2172.00    0.00  8688.00     0.00     8.00     0.15    0.07    0.07    0.00   0.07  14.90
sdc               0.00     0.00 2244.00    0.00  8976.00     0.00     8.00     0.14    0.06    0.06    0.00   0.06  13.90
sdd               0.00     0.00 2129.00    0.00  8516.00     0.00     8.00     0.14    0.07    0.07    0.00   0.07  14.00
sde               0.00     0.00 2374.00    0.00  9496.00     0.00     8.00     0.15    0.06    0.06    0.00   0.06  15.40
sdf               0.00     0.00 2287.00    0.00  9148.00     0.00     8.00     0.15    0.07    0.07    0.00   0.07  15.30
sdg               0.00     0.00    0.00    0.00     0.00     0.00     0.00     0.00    0.00    0.00    0.00   0.00   0.00
sdh               0.00     0.00    0.00    0.00     0.00     0.00     0.00     0.00    0.00    0.00    0.00   0.00   0.00
md0               0.00     0.00 13639.00    0.00 54556.00     0.00     8.00     0.00    0.00    0.00    0.00   0.00   0.00

avg-cpu:  %user   %nice %system %iowait  %steal   %idle
           0.77    0.00    3.59    1.03    0.00   94.62

Device:         rrqm/s   wrqm/s     r/s     w/s    rkB/s    wkB/s avgrq-sz avgqu-sz   await r_await w_await  svctm  %util
sda               0.00     0.00 2208.00    0.00  8832.00     0.00     8.00     0.14    0.06    0.06    0.00   0.06  14.20
sdb               0.00     0.00 2120.00    0.00  8480.00     0.00     8.00     0.12    0.06    0.06    0.00   0.06  12.50
sdc               0.00     0.00 2170.00    0.00  8680.00     0.00     8.00     0.15    0.07    0.07    0.00   0.07  14.90
sdd               0.00     0.00 2282.00    0.00  9128.00     0.00     8.00     0.16    0.07    0.07    0.00   0.07  15.80
sde               0.00     0.00 2507.00    0.00 10028.00     0.00     8.00     0.16    0.06    0.06    0.00   0.06  16.10
sdf               0.00     0.00 2132.00    0.00  8528.00     0.00     8.00     0.15    0.07    0.07    0.00   0.07  14.70
sdg               0.00     0.00    0.00    0.00     0.00     0.00     0.00     0.00    0.00    0.00    0.00   0.00   0.00
sdh               0.00     0.00    0.00    0.00     0.00     0.00     0.00     0.00    0.00    0.00    0.00   0.00   0.00
md0               0.00     0.00 13418.00    0.00 53672.00     0.00     8.00     0.00    0.00    0.00    0.00   0.00   0.00

avg-cpu:  %user   %nice %system %iowait  %steal   %idle
           1.02    0.00    3.57    3.06    0.00   92.35

Device:         rrqm/s   wrqm/s     r/s     w/s    rkB/s    wkB/s avgrq-sz avgqu-sz   await r_await w_await  svctm  %util
sda               0.00     0.00 1995.00    0.00  7980.00     0.00     8.00     0.13    0.06    0.06    0.00   0.06  12.60
sdb               0.00     0.00 2359.00    0.00  9436.00     0.00     8.00     0.14    0.06    0.06    0.00   0.06  13.50
sdc               0.00     0.00 2400.00    0.00  9600.00     0.00     8.00     0.16    0.07    0.07    0.00   0.07  15.80
sdd               0.00     0.00 2087.00    0.00  8348.00     0.00     8.00     0.14    0.07    0.07    0.00   0.07  13.70
sde               0.00     0.00 2239.00    0.00  8956.00     0.00     8.00     0.16    0.07    0.07    0.00   0.07  15.70
sdf               0.00     0.00 2222.00    0.00  8888.00     0.00     8.00     0.16    0.07    0.07    0.00   0.07  16.00
sdg               0.00     0.00    0.00    0.00     0.00     0.00     0.00     0.00    0.00    0.00    0.00   0.00   0.00
sdh               0.00     0.00    0.00    0.00     0.00     0.00     0.00     0.00    0.00    0.00    0.00   0.00   0.00
md0               0.00     0.00 13302.00    0.00 53208.00     0.00     8.00     0.00    0.00    0.00    0.00   0.00   0.00

avg-cpu:  %user   %nice %system %iowait  %steal   %idle
           0.77    0.00    4.08   10.97    0.00   84.18

Device:         rrqm/s   wrqm/s     r/s     w/s    rkB/s    wkB/s avgrq-sz avgqu-sz   await r_await w_await  svctm  %util
sda               0.00     0.00 2450.00    0.00  9800.00     0.00     8.00     0.16    0.06    0.06    0.00   0.06  15.60
sdb               0.00     0.00 2386.00    0.00  9544.00     0.00     8.00     0.15    0.06    0.06    0.00   0.06  15.30
sdc               0.00     0.00 2357.00    0.00  9428.00     0.00     8.00     0.15    0.07    0.07    0.00   0.07  15.40
sdd               0.00     0.00 1837.00    0.00  7348.00     0.00     8.00     0.13    0.07    0.07    0.00   0.07  12.90
sde               0.00     0.00 2409.00    0.00  9636.00     0.00     8.00     0.16    0.07    0.07    0.00   0.07  16.30
sdf               0.00     0.00 2097.00    0.00  8388.00     0.00     8.00     0.14    0.07    0.07    0.00   0.07  13.90
sdg               0.00     0.00    0.00    0.00     0.00     0.00     0.00     0.00    0.00    0.00    0.00   0.00   0.00
sdh               0.00     0.00    0.00    0.00     0.00     0.00     0.00     0.00    0.00    0.00    0.00   0.00   0.00
md0               0.00     0.00 13536.00    0.00 54144.00     0.00     8.00     0.00    0.00    0.00    0.00   0.00   0.00

avg-cpu:  %user   %nice %system %iowait  %steal   %idle
           0.52    0.00    3.61    3.35    0.00   92.53

Device:         rrqm/s   wrqm/s     r/s     w/s    rkB/s    wkB/s avgrq-sz avgqu-sz   await r_await w_await  svctm  %util
sda               0.00     0.00 2167.00    0.00  8668.00     0.00     8.00     0.17    0.08    0.08    0.00   0.08  16.70
sdb               0.00     0.00 2038.00    0.00  8152.00     0.00     8.00     0.13    0.06    0.06    0.00   0.06  13.00
sdc               0.00     0.00 2045.00    0.00  8180.00     0.00     8.00     0.13    0.06    0.06    0.00   0.06  13.00
sdd               0.00     0.00 2559.00    0.00 10236.00     0.00     8.00     0.18    0.07    0.07    0.00   0.07  18.30
sde               0.00     0.00 2179.00    0.00  8716.00     0.00     8.00     0.15    0.07    0.07    0.00   0.07  14.70
sdf               0.00     0.00 2422.00    0.00  9688.00     0.00     8.00     0.15    0.06    0.06    0.00   0.06  15.00
sdg               0.00     0.00    2.00    0.00     8.00     0.00     8.00     0.00    0.00    0.00    0.00   0.00   0.00
sdh               0.00     0.00    0.00    0.00     0.00     0.00     0.00     0.00    0.00    0.00    0.00   0.00   0.00
md0               0.00     0.00 13412.00    0.00 53648.00     0.00     8.00     0.00    0.00    0.00    0.00   0.00   0.00

avg-cpu:  %user   %nice %system %iowait  %steal   %idle
           0.77    0.00    3.33    1.03    0.00   94.87

Device:         rrqm/s   wrqm/s     r/s     w/s    rkB/s    wkB/s avgrq-sz avgqu-sz   await r_await w_await  svctm  %util
sda               0.00     0.00 2399.00    0.00  9596.00     0.00     8.00     0.17    0.07    0.07    0.00   0.07  16.60
sdb               0.00     0.00 2154.00    0.00  8616.00     0.00     8.00     0.12    0.06    0.06    0.00   0.06  12.40
sdc               0.00     0.00 2150.00    0.00  8600.00     0.00     8.00     0.14    0.07    0.07    0.00   0.07  14.20
sdd               0.00     0.00 2323.00    0.00  9292.00     0.00     8.00     0.16    0.07    0.07    0.00   0.07  15.80
sde               0.00     0.00 2180.00    0.00  8720.00     0.00     8.00     0.14    0.07    0.07    0.00   0.07  14.40
sdf               0.00     0.00 2460.00    0.00  9840.00     0.00     8.00     0.15    0.06    0.06    0.00   0.06  15.20
sdg               0.00     0.00    0.00    0.00     0.00     0.00     0.00     0.00    0.00    0.00    0.00   0.00   0.00
sdh               0.00     0.00    0.00    0.00     0.00     0.00     0.00     0.00    0.00    0.00    0.00   0.00   0.00
md0               0.00     0.00 13666.00    0.00 54664.00     0.00     8.00     0.00    0.00    0.00    0.00   0.00   0.00

avg-cpu:  %user   %nice %system %iowait  %steal   %idle
           0.52    0.00    3.10    2.33    0.00   94.06

Device:         rrqm/s   wrqm/s     r/s     w/s    rkB/s    wkB/s avgrq-sz avgqu-sz   await r_await w_await  svctm  %util
sda               0.00     0.00 2033.00    0.00  8132.00     0.00     8.00     0.13    0.06    0.06    0.00   0.06  12.90
sdb               0.00     0.00 2449.00    0.00  9796.00     0.00     8.00     0.15    0.06    0.06    0.00   0.06  15.40
sdc               0.00     0.00 2406.00    0.00  9624.00     0.00     8.00     0.15    0.06    0.06    0.00   0.06  15.10
sdd               0.00     0.00 2088.00    0.00  8352.00     0.00     8.00     0.15    0.07    0.07    0.00   0.07  15.30
sde               0.00     0.00 1951.00    0.00  7804.00     0.00     8.00     0.14    0.07    0.07    0.00   0.07  14.10
sdf               0.00     0.00 2488.00    0.00  9952.00     0.00     8.00     0.16    0.07    0.07    0.00   0.07  16.40
sdg               0.00     0.00    0.00    0.00     0.00     0.00     0.00     0.00    0.00    0.00    0.00   0.00   0.00
sdh               0.00     0.00    0.00    0.00     0.00     0.00     0.00     0.00    0.00    0.00    0.00   0.00   0.00
md0               0.00     0.00 13414.00    0.00 53656.00     0.00     8.00     0.00    0.00    0.00    0.00   0.00   0.00

avg-cpu:  %user   %nice %system %iowait  %steal   %idle
           0.77    0.00    3.59    0.77    0.00   94.87

Device:         rrqm/s   wrqm/s     r/s     w/s    rkB/s    wkB/s avgrq-sz avgqu-sz   await r_await w_await  svctm  %util
sda               0.00     0.00 2159.00    0.00  8636.00     0.00     8.00     0.14    0.07    0.07    0.00   0.07  14.10
sdb               0.00     0.00 1992.00    0.00  7968.00     0.00     8.00     0.14    0.07    0.07    0.00   0.07  13.80
sdc               0.00     0.00 2320.00    0.00  9280.00     0.00     8.00     0.15    0.07    0.07    0.00   0.07  15.30
sdd               0.00     0.00 2296.00    0.00  9184.00     0.00     8.00     0.15    0.07    0.07    0.00   0.07  15.10
sde               0.00     0.00 2090.00    0.00  8360.00     0.00     8.00     0.15    0.07    0.07    0.00   0.07  14.60
sdf               0.00     0.00 2429.00    0.00  9716.00     0.00     8.00     0.16    0.07    0.07    0.00   0.07  16.40
sdg               0.00     0.00    0.00    0.00     0.00     0.00     0.00     0.00    0.00    0.00    0.00   0.00   0.00
sdh               0.00     0.00    0.00    0.00     0.00     0.00     0.00     0.00    0.00    0.00    0.00   0.00   0.00
md0               0.00     0.00 13286.00    0.00 53144.00     0.00     8.00     0.00    0.00    0.00    0.00   0.00   0.00

avg-cpu:  %user   %nice %system %iowait  %steal   %idle
           0.77    0.00    3.59    1.28    0.00   94.36

Device:         rrqm/s   wrqm/s     r/s     w/s    rkB/s    wkB/s avgrq-sz avgqu-sz   await r_await w_await  svctm  %util
sda               0.00     0.00 2123.00    0.00  8492.00     0.00     8.00     0.14    0.07    0.07    0.00   0.07  14.30
sdb               0.00     0.00 2289.00    0.00  9156.00     0.00     8.00     0.13    0.06    0.06    0.00   0.06  12.60
sdc               0.00     0.00 1996.00    0.00  7984.00     0.00     8.00     0.15    0.07    0.07    0.00   0.07  14.90
sdd               0.00     0.00 2407.00    0.00  9628.00     0.00     8.00     0.16    0.07    0.07    0.00   0.07  16.40
sde               0.00     0.00 2103.00    0.00  8412.00     0.00     8.00     0.14    0.07    0.07    0.00   0.07  13.70
sdf               0.00     0.00 2286.00    0.00  9144.00     0.00     8.00     0.15    0.07    0.07    0.00   0.07  15.50
sdg               0.00     0.00   16.00    4.00   296.00   128.00    42.40     0.01    0.30    0.38    0.00   0.30   0.60
sdh               0.00     0.00    0.00    0.00     0.00     0.00     0.00     0.00    0.00    0.00    0.00   0.00   0.00
md0               0.00     0.00 13205.00    0.00 52820.00     0.00     8.00     0.00    0.00    0.00    0.00   0.00   0.00

avg-cpu:  %user   %nice %system %iowait  %steal   %idle
           0.52    0.00    3.10    0.78    0.00   95.61

Device:         rrqm/s   wrqm/s     r/s     w/s    rkB/s    wkB/s avgrq-sz avgqu-sz   await r_await w_await  svctm  %util
sda               0.00     0.00 2042.00    0.00  8168.00     0.00     8.00     0.14    0.07    0.07    0.00   0.07  14.20
sdb               0.00     0.00 2278.00    0.00  9112.00     0.00     8.00     0.13    0.06    0.06    0.00   0.06  13.10
sdc               0.00     0.00 2305.00    0.00  9220.00     0.00     8.00     0.15    0.07    0.07    0.00   0.07  15.50
sdd               0.00     0.00 2395.00    0.00  9580.00     0.00     8.00     0.17    0.07    0.07    0.00   0.07  16.50
sde               0.00     0.00 2297.00    0.00  9188.00     0.00     8.00     0.17    0.07    0.07    0.00   0.07  16.50
sdf               0.00     0.00 2051.00    0.00  8204.00     0.00     8.00     0.13    0.06    0.06    0.00   0.06  13.10
sdg               0.00     0.00    0.00    0.00     0.00     0.00     0.00     0.00    0.00    0.00    0.00   0.00   0.00
sdh               0.00     0.00    0.00    0.00     0.00     0.00     0.00     0.00    0.00    0.00    0.00   0.00   0.00
md0               0.00     0.00 13368.00    0.00 53472.00     0.00     8.00     0.00    0.00    0.00    0.00   0.00   0.00

avg-cpu:  %user   %nice %system %iowait  %steal   %idle
           0.52    0.00    3.35    0.77    0.00   95.36

Device:         rrqm/s   wrqm/s     r/s     w/s    rkB/s    wkB/s avgrq-sz avgqu-sz   await r_await w_await  svctm  %util
sda               0.00     0.00 2011.00    0.00  8044.00     0.00     8.00     0.13    0.06    0.06    0.00   0.06  12.80
sdb               0.00     0.00 2411.00    0.00  9644.00     0.00     8.00     0.16    0.07    0.07    0.00   0.07  15.70
sdc               0.00     0.00 2142.00    0.00  8568.00     0.00     8.00     0.15    0.07    0.07    0.00   0.07  14.80
sdd               0.00     0.00 2563.00    0.00 10252.00     0.00     8.00     0.16    0.06    0.06    0.00   0.06  16.10
sde               0.00     0.00 2128.00    0.00  8512.00     0.00     8.00     0.14    0.07    0.07    0.00   0.07  13.90
sdf               0.00     0.00 2314.00    0.00  9256.00     0.00     8.00     0.16    0.07    0.07    0.00   0.07  15.90
sdg               0.00     0.00    0.00    0.00     0.00     0.00     0.00     0.00    0.00    0.00    0.00   0.00   0.00
sdh               0.00     0.00    0.00    0.00     0.00     0.00     0.00     0.00    0.00    0.00    0.00   0.00   0.00
md0               0.00     0.00 13570.00    0.00 54280.00     0.00     8.00     0.00    0.00    0.00    0.00   0.00   0.00

avg-cpu:  %user   %nice %system %iowait  %steal   %idle
           0.77    0.00    3.34    1.03    0.00   94.86

Device:         rrqm/s   wrqm/s     r/s     w/s    rkB/s    wkB/s avgrq-sz avgqu-sz   await r_await w_await  svctm  %util
sda               0.00     0.00 2381.00    0.00  9524.00     0.00     8.00     0.14    0.06    0.06    0.00   0.06  13.80
sdb               0.00     0.00 2400.00    0.00  9600.00     0.00     8.00     0.15    0.06    0.06    0.00   0.06  15.40
sdc               0.00     0.00 2314.00    0.00  9256.00     0.00     8.00     0.14    0.06    0.06    0.00   0.06  14.00
sdd               0.00     0.00 2396.00    0.00  9584.00     0.00     8.00     0.17    0.07    0.07    0.00   0.07  16.70
sde               0.00     0.00 1774.00    0.00  7096.00     0.00     8.00     0.13    0.07    0.07    0.00   0.07  12.70
sdf               0.00     0.00 2085.00    0.00  8340.00     0.00     8.00     0.15    0.07    0.07    0.00   0.07  14.80
sdg               0.00     0.00    0.00    0.00     0.00     0.00     0.00     0.00    0.00    0.00    0.00   0.00   0.00
sdh               0.00     0.00    0.00    0.00     0.00     0.00     0.00     0.00    0.00    0.00    0.00   0.00   0.00
md0               0.00     0.00 13348.00    0.00 53392.00     0.00     8.00     0.00    0.00    0.00    0.00   0.00   0.00

avg-cpu:  %user   %nice %system %iowait  %steal   %idle
           0.77    0.00    3.59    0.77    0.00   94.87

Device:         rrqm/s   wrqm/s     r/s     w/s    rkB/s    wkB/s avgrq-sz avgqu-sz   await r_await w_await  svctm  %util
sda               0.00     0.00 2486.00    0.00  9944.00     0.00     8.00     0.14    0.06    0.06    0.00   0.06  14.30
sdb               0.00     0.00 2611.00    0.00 10444.00     0.00     8.00     0.16    0.06    0.06    0.00   0.06  16.30
sdc               0.00     0.00 2050.00    0.00  8200.00     0.00     8.00     0.14    0.07    0.07    0.00   0.07  14.40
sdd               0.00     0.00 2100.00    0.00  8400.00     0.00     8.00     0.15    0.07    0.07    0.00   0.07  15.10
sde               0.00     0.00 2224.00    0.00  8896.00     0.00     8.00     0.14    0.06    0.06    0.00   0.07  14.50
sdf               0.00     0.00 1974.00    0.00  7896.00     0.00     8.00     0.14    0.07    0.07    0.00   0.07  13.50
sdg               0.00     0.00    0.00    0.00     0.00     0.00     0.00     0.00    0.00    0.00    0.00   0.00   0.00
sdh               0.00     0.00    0.00    0.00     0.00     0.00     0.00     0.00    0.00    0.00    0.00   0.00   0.00
md0               0.00     0.00 13445.00    0.00 53780.00     0.00     8.00     0.00    0.00    0.00    0.00   0.00   0.00

avg-cpu:  %user   %nice %system %iowait  %steal   %idle
           0.51    0.00    4.08    1.02    0.00   94.39

Device:         rrqm/s   wrqm/s     r/s     w/s    rkB/s    wkB/s avgrq-sz avgqu-sz   await r_await w_await  svctm  %util
sda               0.00     0.00 2396.00    0.00  9584.00     0.00     8.00     0.14    0.06    0.06    0.00   0.06  14.40
sdb               0.00     0.00 2113.00    0.00  8452.00     0.00     8.00     0.14    0.07    0.07    0.00   0.07  13.80
sdc               0.00     0.00 2295.00    0.00  9180.00     0.00     8.00     0.14    0.06    0.06    0.00   0.06  14.50
sdd               0.00     0.00 1997.00    0.00  7988.00     0.00     8.00     0.13    0.06    0.06    0.00   0.06  12.90
sde               0.00     0.00 2585.00    0.00 10340.00     0.00     8.00     0.18    0.07    0.07    0.00   0.07  17.60
sdf               0.00     0.00 2127.00    0.00  8508.00     0.00     8.00     0.14    0.06    0.06    0.00   0.06  13.80
sdg               0.00     0.00    0.00    0.00     0.00     0.00     0.00     0.00    0.00    0.00    0.00   0.00   0.00
sdh               0.00     0.00    0.00    0.00     0.00     0.00     0.00     0.00    0.00    0.00    0.00   0.00   0.00
md0               0.00     0.00 13512.00    0.00 54048.00     0.00     8.00     0.00    0.00    0.00    0.00   0.00   0.00

