Linux 4.17.2 (bench) 	08/03/2018 	_x86_64_	(4 CPU)

avg-cpu:  %user   %nice %system %iowait  %steal   %idle
          10.28    0.02    4.04    2.53    0.00   83.12

Device:         rrqm/s   wrqm/s     r/s     w/s    rkB/s    wkB/s avgrq-sz avgqu-sz   await r_await w_await  svctm  %util
sda              44.31     4.25 1640.65  102.83 20839.81  3138.08    27.51     1.03    0.59    0.26    5.91   0.06  10.67
sdb              44.19     4.21 1640.57  102.97 20829.21  3134.73    27.49     1.03    0.59    0.26    5.85   0.06  10.54
sdc              82.18     4.27 1600.47  102.52 20821.36  3137.20    28.14     1.45    0.85    0.45    7.12   0.08  13.99
sdd              75.58     4.24 1606.25  102.59 20806.21  3133.38    28.02     1.46    0.85    0.44    7.32   0.08  14.08
sde              77.63     4.28 1611.33  102.69 20866.24  3137.64    28.01     1.48    0.86    0.44    7.43   0.08  14.10
sdf              74.73     4.25 1613.50  102.63 20847.40  3134.50    27.95     1.52    0.89    0.44    7.90   0.08  14.13
sdg               0.00     3.17   26.16   73.31   323.38   391.95    14.38     0.44    4.42    0.20    5.93   0.08   0.78
sdh               0.00     0.13    0.02    0.24     2.22     5.08    56.82     0.00    1.15    0.65    1.19   0.21   0.01
md0               0.00     0.00 10117.89  481.75 142693.44 21487.10    30.98     0.00    0.00    0.00    0.00   0.00   0.00

avg-cpu:  %user   %nice %system %iowait  %steal   %idle
           0.51    0.00    2.30    0.77    0.00   96.43

Device:         rrqm/s   wrqm/s     r/s     w/s    rkB/s    wkB/s avgrq-sz avgqu-sz   await r_await w_await  svctm  %util
sda               0.00     0.00 1432.00    0.00  6084.00     0.00     8.50     0.16    0.11    0.11    0.00   0.11  15.60
sdb               0.00     0.00 1450.00    0.00  6396.00     0.00     8.82     0.14    0.10    0.10    0.00   0.09  13.50
sdc               0.00     0.00 1444.00    0.00  6648.00     0.00     9.21     0.15    0.10    0.10    0.00   0.10  14.90
sdd               0.00     0.00 1378.00    0.00  6088.00     0.00     8.84     0.14    0.10    0.10    0.00   0.10  14.00
sde               0.00     0.00 1441.00    0.00  6240.00     0.00     8.66     0.17    0.12    0.12    0.00   0.12  16.80
sdf               0.00     0.00 1488.00    0.00  6276.00     0.00     8.44     0.19    0.12    0.12    0.00   0.12  18.60
sdg               0.00    17.00   22.00   67.00   352.00  1252.00    36.04     0.21    2.37    0.27    3.06   0.15   1.30
sdh               0.00     0.00    0.00    0.00     0.00     0.00     0.00     0.00    0.00    0.00    0.00   0.00   0.00
md0               0.00     0.00 8628.00    0.00 38056.00     0.00     8.82     0.00    0.00    0.00    0.00   0.00   0.00

