Linux 4.17.2 (bench) 	08/03/2018 	_x86_64_	(4 CPU)

avg-cpu:  %user   %nice %system %iowait  %steal   %idle
          10.29    0.02    4.00    2.47    0.00   83.22

Device:         rrqm/s   wrqm/s     r/s     w/s    rkB/s    wkB/s avgrq-sz avgqu-sz   await r_await w_await  svctm  %util
sda              41.51     4.27 1613.97  103.38 20678.55  3154.76    27.76     1.03    0.60    0.26    5.91   0.06  10.55
sdb              41.40     4.23 1613.86  103.52 20667.99  3151.39    27.74     1.02    0.60    0.26    5.85   0.06  10.43
sdc              79.49     4.29 1573.69  103.07 20660.19  3153.87    28.40     1.44    0.86    0.45    7.12   0.08  13.86
sdd              72.84     4.26 1579.49  103.14 20644.87  3150.04    28.28     1.45    0.86    0.44    7.32   0.08  13.95
sde              74.91     4.30 1584.62  103.23 20705.42  3154.32    28.27     1.47    0.87    0.44    7.43   0.08  13.97
sdf              72.00     4.28 1586.80  103.18 20686.43  3151.16    28.21     1.52    0.90    0.44    7.90   0.08  14.00
sdg               0.00     3.18   25.95   73.33   322.51   391.96    14.39     0.44    4.43    0.20    5.93   0.08   0.78
sdh               0.00     0.13    0.02    0.24     2.23     5.11    56.82     0.00    1.15    0.65    1.19   0.21   0.01
md0               0.00     0.00 9940.78  484.31 141550.29 21601.30    31.30     0.00    0.00    0.00    0.00   0.00   0.00

avg-cpu:  %user   %nice %system %iowait  %steal   %idle
           2.54    0.00   12.47    5.09    0.00   79.90

Device:         rrqm/s   wrqm/s     r/s     w/s    rkB/s    wkB/s avgrq-sz avgqu-sz   await r_await w_await  svctm  %util
sda               0.00     0.00 6709.00    0.00 26836.00     0.00     8.00     0.68    0.10    0.10    0.00   0.06  43.30
sdb               0.00     0.00 6954.00    0.00 27816.00     0.00     8.00     0.77    0.11    0.11    0.00   0.06  44.90
sdc               0.00     0.00 6794.00    0.00 27176.00     0.00     8.00     0.81    0.12    0.12    0.00   0.07  47.30
sdd               0.00     0.00 6916.00    0.00 27664.00     0.00     8.00     0.81    0.12    0.12    0.00   0.07  46.50
sde               0.00     0.00 6891.00    0.00 27564.00     0.00     8.00     0.80    0.12    0.12    0.00   0.07  47.80
sdf               0.00     0.00 6749.00    0.00 26996.00     0.00     8.00     0.82    0.12    0.12    0.00   0.08  51.00
sdg               0.00     3.00    1.00   14.00    16.00   188.00    27.20     0.00    0.07    1.00    0.00   0.07   0.10
sdh               0.00     0.00    0.00    0.00     0.00     0.00     0.00     0.00    0.00    0.00    0.00   0.00   0.00
md0               0.00     0.00 40987.00    0.00 163948.00     0.00     8.00     0.00    0.00    0.00    0.00   0.00   0.00

