Linux 4.17.2 (bench) 	08/03/2018 	_x86_64_	(4 CPU)

avg-cpu:  %user   %nice %system %iowait  %steal   %idle
          10.30    0.02    3.97    2.42    0.00   83.30

Device:         rrqm/s   wrqm/s     r/s     w/s    rkB/s    wkB/s avgrq-sz avgqu-sz   await r_await w_await  svctm  %util
sda              38.66     4.29 1593.22  103.78 20566.09  3166.82    27.97     1.02    0.60    0.26    5.91   0.06  10.46
sdb              38.57     4.25 1593.09  103.92 20555.45  3163.45    27.95     1.02    0.60    0.26    5.85   0.06  10.34
sdc              76.70     4.31 1552.88  103.46 20547.70  3165.94    28.63     1.44    0.87    0.45    7.12   0.08  13.76
sdd              70.02     4.28 1558.72  103.53 20532.32  3162.09    28.51     1.45    0.87    0.44    7.32   0.08  13.85
sde              72.10     4.32 1563.87  103.63 20593.13  3166.39    28.50     1.47    0.88    0.45    7.43   0.08  13.87
sdf              69.19     4.29 1566.05  103.57 20574.10  3163.21    28.43     1.51    0.90    0.44    7.90   0.08  13.90
sdg               0.00     3.18   25.81   73.35   321.90   391.96    14.40     0.44    4.44    0.20    5.93   0.08   0.77
sdh               0.00     0.13    0.02    0.24     2.24     5.12    56.82     0.00    1.15    0.65    1.19   0.21   0.01
md0               0.00     0.00 9799.01  486.16 140784.72 21683.94    31.59     0.00    0.00    0.00    0.00   0.00   0.00

avg-cpu:  %user   %nice %system %iowait  %steal   %idle
           3.84    0.00   26.60    0.51    0.00   69.05

Device:         rrqm/s   wrqm/s     r/s     w/s    rkB/s    wkB/s avgrq-sz avgqu-sz   await r_await w_await  svctm  %util
sda               6.00     0.00 20580.00    0.00 82344.00     0.00     8.00     4.67    0.23    0.23    0.00   0.02  48.20
sdb               2.00     0.00 20528.00    0.00 82120.00     0.00     8.00     4.72    0.23    0.23    0.00   0.02  49.30
sdc               0.00     0.00 20768.00    0.00 83072.00     0.00     8.00     5.34    0.26    0.26    0.00   0.03  55.20
sdd               0.00     0.00 20292.00    0.00 81168.00     0.00     8.00     5.48    0.27    0.27    0.00   0.03  68.90
sde               0.00     0.00 21105.00    0.00 84420.00     0.00     8.00     5.56    0.26    0.26    0.00   0.03  58.30
sdf               0.00     0.00 20617.00    0.00 82468.00     0.00     8.00     5.49    0.27    0.27    0.00   0.03  58.60
sdg               0.00     0.00    2.00    0.00    84.00     0.00    84.00     0.00    0.00    0.00    0.00   0.00   0.00
sdh               0.00     0.00    0.00    0.00     0.00     0.00     0.00     0.00    0.00    0.00    0.00   0.00   0.00
md0               0.00     0.00 123948.00    0.00 495792.00     0.00     8.00     0.00    0.00    0.00    0.00   0.00   0.00

avg-cpu:  %user   %nice %system %iowait  %steal   %idle
           3.28    0.00   28.03    0.51    0.00   68.18

Device:         rrqm/s   wrqm/s     r/s     w/s    rkB/s    wkB/s avgrq-sz avgqu-sz   await r_await w_await  svctm  %util
sda               4.00     0.00 20835.00    0.00 83356.00     0.00     8.00     4.77    0.23    0.23    0.00   0.02  50.70
sdb               0.00     0.00 20446.00    0.00 81784.00     0.00     8.00     4.67    0.23    0.23    0.00   0.02  51.00
sdc               1.00     0.00 20558.00    0.00 82236.00     0.00     8.00     5.35    0.26    0.26    0.00   0.03  59.20
sdd               3.00     0.00 20275.00    0.00 81112.00     0.00     8.00     5.65    0.28    0.28    0.00   0.03  69.70
sde               0.00     0.00 20121.00    0.00 80484.00     0.00     8.00     5.13    0.25    0.25    0.00   0.03  58.80
sdf               7.00     0.00 20566.00    0.00 82292.00     0.00     8.00     5.54    0.27    0.27    0.00   0.03  60.80
sdg               0.00     0.00    0.00    0.00     0.00     0.00     0.00     0.00    0.00    0.00    0.00   0.00   0.00
sdh               0.00     0.00    0.00    0.00     0.00     0.00     0.00     0.00    0.00    0.00    0.00   0.00   0.00
md0               0.00     0.00 122767.00    0.00 491068.00     0.00     8.00     0.00    0.00    0.00    0.00   0.00   0.00

avg-cpu:  %user   %nice %system %iowait  %steal   %idle
           4.56    0.00   29.62    1.27    0.00   64.56

Device:         rrqm/s   wrqm/s     r/s     w/s    rkB/s    wkB/s avgrq-sz avgqu-sz   await r_await w_await  svctm  %util
sda               2.00     0.00 22163.00    0.00 88660.00     0.00     8.00     5.12    0.23    0.23    0.00   0.02  53.60
sdb               1.00     0.00 22244.00    0.00 88980.00     0.00     8.00     5.16    0.23    0.23    0.00   0.02  54.10
sdc               0.00     0.00 21900.00    0.00 87600.00     0.00     8.00     5.56    0.25    0.25    0.00   0.03  61.60
sdd               0.00     0.00 21743.00    0.00 86972.00     0.00     8.00     5.74    0.26    0.26    0.00   0.03  62.40
sde               2.00     0.00 22135.00    0.00 88548.00     0.00     8.00     5.63    0.25    0.25    0.00   0.03  62.70
sdf               1.00     0.00 22261.00    0.00 89048.00     0.00     8.00     5.94    0.27    0.27    0.00   0.03  64.30
sdg               0.00   185.00   15.00 1434.00    60.00  7456.00    10.37     8.64    5.96    0.33    6.02   0.05   6.60
sdh               0.00     0.00    0.00    0.00     0.00     0.00     0.00     0.00    0.00    0.00    0.00   0.00   0.00
md0               0.00     0.00 132468.00    0.00 529872.00     0.00     8.00     0.00    0.00    0.00    0.00   0.00   0.00

avg-cpu:  %user   %nice %system %iowait  %steal   %idle
           4.28    0.00   29.72    0.50    0.00   65.49

Device:         rrqm/s   wrqm/s     r/s     w/s    rkB/s    wkB/s avgrq-sz avgqu-sz   await r_await w_await  svctm  %util
sda               0.00     0.00 21579.00    0.00 86316.00     0.00     8.00     4.89    0.23    0.23    0.00   0.03  55.20
sdb               2.00     0.00 21556.00    0.00 86232.00     0.00     8.00     4.85    0.22    0.22    0.00   0.02  53.70
sdc               0.00     0.00 21737.00    0.00 86948.00     0.00     8.00     5.41    0.25    0.25    0.00   0.03  62.60
sdd               0.00     0.00 21839.00    0.00 87356.00     0.00     8.00     5.46    0.25    0.25    0.00   0.03  63.10
sde               0.00     0.00 21374.00    0.00 85496.00     0.00     8.00     5.43    0.25    0.25    0.00   0.03  64.00
sdf               0.00     0.00 21748.00    0.00 86992.00     0.00     8.00     5.67    0.26    0.26    0.00   0.03  63.00
sdg               0.00     0.00    0.00    0.00     0.00     0.00     0.00     0.00    0.00    0.00    0.00   0.00   0.00
sdh               0.00     0.00    0.00    0.00     0.00     0.00     0.00     0.00    0.00    0.00    0.00   0.00   0.00
md0               0.00     0.00 129820.00    0.00 519280.00     0.00     8.00     0.00    0.00    0.00    0.00   0.00   0.00

avg-cpu:  %user   %nice %system %iowait  %steal   %idle
           4.75    0.00   29.75    0.25    0.00   65.25

Device:         rrqm/s   wrqm/s     r/s     w/s    rkB/s    wkB/s avgrq-sz avgqu-sz   await r_await w_await  svctm  %util
sda               0.00     0.00 21156.00    0.00 84628.00     0.00     8.00     4.47    0.21    0.21    0.00   0.03  53.20
sdb               4.00     0.00 21465.00    0.00 85876.00     0.00     8.00     4.56    0.21    0.21    0.00   0.02  53.40
sdc               0.00     0.00 21319.00    0.00 85276.00     0.00     8.00     5.06    0.24    0.24    0.00   0.03  62.10
sdd               1.00     0.00 21425.00    0.00 85704.00     0.00     8.00     4.98    0.23    0.23    0.00   0.03  60.80
sde               0.00     0.00 21171.00    0.00 84684.00     0.00     8.00     5.10    0.24    0.24    0.00   0.03  61.60
sdf               0.00     0.00 21553.00    0.00 86212.00     0.00     8.00     5.26    0.24    0.24    0.00   0.03  61.20
sdg               0.00     0.00    0.00    0.00     0.00     0.00     0.00     0.00    0.00    0.00    0.00   0.00   0.00
sdh               0.00     0.00    0.00    0.00     0.00     0.00     0.00     0.00    0.00    0.00    0.00   0.00   0.00
md0               0.00     0.00 128105.00    0.00 512420.00     0.00     8.00     0.00    0.00    0.00    0.00   0.00   0.00

avg-cpu:  %user   %nice %system %iowait  %steal   %idle
           4.55    0.00   29.29    0.25    0.00   65.91

Device:         rrqm/s   wrqm/s     r/s     w/s    rkB/s    wkB/s avgrq-sz avgqu-sz   await r_await w_await  svctm  %util
sda               0.00     0.00 21137.00    0.00 84544.00     0.00     8.00     4.27    0.20    0.20    0.00   0.03  54.30
sdb               0.00     0.00 21315.00    0.00 85304.00     0.00     8.00     4.62    0.22    0.22    0.00   0.03  53.70
sdc               0.00     0.00 20882.00    0.00 83528.00     0.00     8.00     4.92    0.24    0.24    0.00   0.03  62.00
sdd               0.00     0.00 20988.00    0.00 83952.00     0.00     8.00     5.21    0.25    0.25    0.00   0.03  60.70
sde               0.00     0.00 20984.00    0.00 83936.00     0.00     8.00     5.03    0.24    0.24    0.00   0.03  61.00
sdf               0.00     0.00 20857.00    0.00 83428.00     0.00     8.00     5.09    0.24    0.24    0.00   0.03  63.20
sdg               0.00     0.00    0.00    1.00     0.00    28.00    56.00     0.00    0.00    0.00    0.00   0.00   0.00
sdh               0.00     0.00    0.00    0.00     0.00     0.00     0.00     0.00    0.00    0.00    0.00   0.00   0.00
md0               0.00     0.00 126150.00    0.00 504644.00     0.00     8.00     0.00    0.00    0.00    0.00   0.00   0.00

avg-cpu:  %user   %nice %system %iowait  %steal   %idle
           4.53    0.00   28.97    0.50    0.00   65.99

Device:         rrqm/s   wrqm/s     r/s     w/s    rkB/s    wkB/s avgrq-sz avgqu-sz   await r_await w_await  svctm  %util
sda               0.00     0.00 21001.00    0.00 84004.00     0.00     8.00     4.29    0.20    0.20    0.00   0.03  52.70
sdb               0.00     0.00 20540.00    0.00 82160.00     0.00     8.00     4.18    0.20    0.20    0.00   0.03  52.10
sdc               0.00     0.00 20933.00    0.00 83732.00     0.00     8.00     5.01    0.24    0.24    0.00   0.03  62.30
sdd               0.00     0.00 20746.00    0.00 82984.00     0.00     8.00     4.85    0.23    0.23    0.00   0.03  62.50
sde               0.00     0.00 20839.00    0.00 83356.00     0.00     8.00     4.91    0.23    0.23    0.00   0.03  60.50
sdf               0.00     0.00 20765.00    0.00 83060.00     0.00     8.00     4.97    0.24    0.24    0.00   0.03  61.00
sdg               0.00     0.00    0.00    0.00     0.00     0.00     0.00     0.00    0.00    0.00    0.00   0.00   0.00
sdh               0.00     0.00    0.00    0.00     0.00     0.00     0.00     0.00    0.00    0.00    0.00   0.00   0.00
md0               0.00     0.00 124841.00    0.00 499364.00     0.00     8.00     0.00    0.00    0.00    0.00   0.00   0.00

avg-cpu:  %user   %nice %system %iowait  %steal   %idle
           4.75    0.25   30.50    2.25    0.00   62.25

Device:         rrqm/s   wrqm/s     r/s     w/s    rkB/s    wkB/s avgrq-sz avgqu-sz   await r_await w_await  svctm  %util
sda               0.00     0.00 20276.00    0.00 81104.00     0.00     8.00     4.20    0.21    0.21    0.00   0.03  51.60
sdb               0.00     0.00 20032.00    0.00 80128.00     0.00     8.00     4.17    0.21    0.21    0.00   0.03  51.60
sdc               0.00     0.00 20412.00    0.00 81648.00     0.00     8.00     4.68    0.23    0.23    0.00   0.03  58.90
sdd               0.00     0.00 20455.00    0.00 81820.00     0.00     8.00     4.75    0.23    0.23    0.00   0.03  61.50
sde               0.00     0.00 20196.00    0.00 80784.00     0.00     8.00     4.63    0.23    0.23    0.00   0.03  57.80
sdf               0.00     0.00 19902.00    0.00 79608.00     0.00     8.00     4.58    0.23    0.23    0.00   0.03  58.60
sdg               0.00     0.00 1353.00    0.00  5676.00     0.00     8.39     0.15    0.11    0.11    0.00   0.11  14.90
sdh               0.00     0.00    0.00    0.00     0.00     0.00     0.00     0.00    0.00    0.00    0.00   0.00   0.00
md0               0.00     0.00 121281.00    0.00 485124.00     0.00     8.00     0.00    0.00    0.00    0.00   0.00   0.00

avg-cpu:  %user   %nice %system %iowait  %steal   %idle
           5.00    0.00   29.25    0.50    0.00   65.25

Device:         rrqm/s   wrqm/s     r/s     w/s    rkB/s    wkB/s avgrq-sz avgqu-sz   await r_await w_await  svctm  %util
sda               0.00     0.00 20100.00    0.00 80400.00     0.00     8.00     3.80    0.19    0.19    0.00   0.03  51.80
sdb               0.00     0.00 19836.00    0.00 79344.00     0.00     8.00     3.82    0.19    0.19    0.00   0.03  50.40
sdc               1.00     0.00 19820.00    0.00 79284.00     0.00     8.00     4.51    0.23    0.23    0.00   0.03  57.90
sdd               0.00     0.00 20030.00    0.00 80120.00     0.00     8.00     4.40    0.22    0.22    0.00   0.03  59.20
sde               0.00     0.00 19827.00    0.00 79308.00     0.00     8.00     4.33    0.22    0.22    0.00   0.03  59.90
sdf               0.00     0.00 19766.00    0.00 79064.00     0.00     8.00     4.42    0.22    0.22    0.00   0.03  58.70
sdg               0.00     0.00    0.00    0.00     0.00     0.00     0.00     0.00    0.00    0.00    0.00   0.00   0.00
sdh               0.00     0.00    0.00    0.00     0.00     0.00     0.00     0.00    0.00    0.00    0.00   0.00   0.00
md0               0.00     0.00 119383.00    0.00 477532.00     0.00     8.00     0.00    0.00    0.00    0.00   0.00   0.00

avg-cpu:  %user   %nice %system %iowait  %steal   %idle
           5.17    0.00   29.80    0.49    0.00   64.53

Device:         rrqm/s   wrqm/s     r/s     w/s    rkB/s    wkB/s avgrq-sz avgqu-sz   await r_await w_await  svctm  %util
sda               0.00     0.00 19340.00    0.00 77360.00     0.00     8.00     4.08    0.21    0.21    0.00   0.03  53.60
sdb               0.00     0.00 19901.00    0.00 79604.00     0.00     8.00     3.95    0.20    0.20    0.00   0.03  53.00
sdc               0.00     0.00 19467.00    0.00 77868.00     0.00     8.00     4.25    0.22    0.22    0.00   0.03  60.40
sdd               0.00     0.00 19333.00    0.00 77332.00     0.00     8.00     4.36    0.23    0.23    0.00   0.03  60.70
sde               0.00     0.00 19444.00    0.00 77776.00     0.00     8.00     4.47    0.23    0.23    0.00   0.03  61.60
sdf               0.00     0.00 19515.00    0.00 78060.00     0.00     8.00     4.48    0.23    0.23    0.00   0.03  60.40
sdg               0.00     0.00    0.00    0.00     0.00     0.00     0.00     0.00    0.00    0.00    0.00   0.00   0.00
sdh               0.00     0.00    0.00    0.00     0.00     0.00     0.00     0.00    0.00    0.00    0.00   0.00   0.00
md0               0.00     0.00 116972.00    0.00 467888.00     0.00     8.00     0.00    0.00    0.00    0.00   0.00   0.00

avg-cpu:  %user   %nice %system %iowait  %steal   %idle
           4.70    0.00   29.95    0.50    0.00   64.85

Device:         rrqm/s   wrqm/s     r/s     w/s    rkB/s    wkB/s avgrq-sz avgqu-sz   await r_await w_await  svctm  %util
sda               0.00     0.00 19266.00    0.00 77064.00     0.00     8.00     3.79    0.20    0.20    0.00   0.03  54.60
sdb               0.00     0.00 19413.00    0.00 77652.00     0.00     8.00     4.07    0.21    0.21    0.00   0.03  55.00
sdc               0.00     0.00 19255.00    0.00 77020.00     0.00     8.00     4.41    0.23    0.23    0.00   0.03  63.20
sdd               0.00     0.00 19257.00    0.00 77028.00     0.00     8.00     4.44    0.23    0.23    0.00   0.03  60.70
sde               0.00     0.00 19345.00    0.00 77380.00     0.00     8.00     4.45    0.23    0.23    0.00   0.03  62.30
sdf               0.00     0.00 19085.00    0.00 76340.00     0.00     8.00     4.42    0.23    0.23    0.00   0.03  62.40
sdg               0.00     0.00    0.00    0.00     0.00     0.00     0.00     0.00    0.00    0.00    0.00   0.00   0.00
sdh               0.00     0.00    0.00    0.00     0.00     0.00     0.00     0.00    0.00    0.00    0.00   0.00   0.00
md0               0.00     0.00 115624.00    0.00 462496.00     0.00     8.00     0.00    0.00    0.00    0.00   0.00   0.00

avg-cpu:  %user   %nice %system %iowait  %steal   %idle
           4.96    0.00   29.53    0.25    0.00   65.26

Device:         rrqm/s   wrqm/s     r/s     w/s    rkB/s    wkB/s avgrq-sz avgqu-sz   await r_await w_await  svctm  %util
sda               0.00     0.00 18544.00    0.00 74176.00     0.00     8.00     3.78    0.20    0.20    0.00   0.03  54.50
sdb               0.00     0.00 18573.00    0.00 74292.00     0.00     8.00     3.80    0.20    0.20    0.00   0.03  54.40
sdc               0.00     0.00 18521.00    0.00 74084.00     0.00     8.00     4.07    0.22    0.22    0.00   0.03  60.00
sdd               0.00     0.00 18556.00    0.00 74224.00     0.00     8.00     4.19    0.23    0.23    0.00   0.03  60.90
sde               0.00     0.00 18745.00    0.00 74980.00     0.00     8.00     4.11    0.22    0.22    0.00   0.03  61.50
sdf               0.00     0.00 19057.00    0.00 76228.00     0.00     8.00     4.51    0.24    0.24    0.00   0.03  59.40
sdg               0.00     0.00    0.00    0.00     0.00     0.00     0.00     0.00    0.00    0.00    0.00   0.00   0.00
sdh               0.00     0.00    0.00    0.00     0.00     0.00     0.00     0.00    0.00    0.00    0.00   0.00   0.00
md0               0.00     0.00 112051.00    0.00 448204.00     0.00     8.00     0.00    0.00    0.00    0.00   0.00   0.00

avg-cpu:  %user   %nice %system %iowait  %steal   %idle
           4.75    0.00   29.25    0.50    0.00   65.50

Device:         rrqm/s   wrqm/s     r/s     w/s    rkB/s    wkB/s avgrq-sz avgqu-sz   await r_await w_await  svctm  %util
sda               0.00     0.00 18413.00    0.00 73652.00     0.00     8.00     3.71    0.20    0.20    0.00   0.03  52.80
sdb               0.00     0.00 18219.00    0.00 72876.00     0.00     8.00     3.62    0.20    0.20    0.00   0.03  52.50
sdc               0.00     0.00 18700.00    0.00 74800.00     0.00     8.00     4.20    0.22    0.22    0.00   0.03  60.70
sdd               0.00     0.00 18359.00    0.00 73436.00     0.00     8.00     3.95    0.22    0.22    0.00   0.03  60.00
sde               0.00     0.00 18101.00    0.00 72404.00     0.00     8.00     3.98    0.22    0.22    0.00   0.03  59.60
sdf               0.00     0.00 18362.00    0.00 73448.00     0.00     8.00     4.10    0.22    0.22    0.00   0.03  60.20
sdg               0.00     0.00    0.00    0.00     0.00     0.00     0.00     0.00    0.00    0.00    0.00   0.00   0.00
sdh               0.00     0.00    0.00    0.00     0.00     0.00     0.00     0.00    0.00    0.00    0.00   0.00   0.00
md0               0.00     0.00 110113.00    0.00 440452.00     0.00     8.00     0.00    0.00    0.00    0.00   0.00   0.00

avg-cpu:  %user   %nice %system %iowait  %steal   %idle
           4.60    0.00   28.13    1.28    0.00   65.98

Device:         rrqm/s   wrqm/s     r/s     w/s    rkB/s    wkB/s avgrq-sz avgqu-sz   await r_await w_await  svctm  %util
sda               0.00     0.00 17945.00    0.00 71780.00     0.00     8.00     3.39    0.19    0.19    0.00   0.03  52.40
sdb               0.00     0.00 17771.00    0.00 71084.00     0.00     8.00     3.47    0.20    0.20    0.00   0.03  53.00
sdc               0.00     0.00 18021.00    0.00 72084.00     0.00     8.00     3.81    0.21    0.21    0.00   0.03  59.80
sdd               0.00     0.00 17850.00    0.00 71400.00     0.00     8.00     3.82    0.21    0.21    0.00   0.03  60.40
sde               0.00     0.00 18032.00    0.00 72128.00     0.00     8.00     3.76    0.21    0.21    0.00   0.03  58.00
sdf               0.00     0.00 17623.00    0.00 70492.00     0.00     8.00     3.85    0.22    0.22    0.00   0.03  59.30
sdg               0.00    76.00    0.00 1193.00     0.00  5876.00     9.85     7.21    5.58    0.00    5.58   0.04   5.10
sdh               0.00     0.00    0.00    0.00     0.00     0.00     0.00     0.00    0.00    0.00    0.00   0.00   0.00
md0               0.00     0.00 107273.00    0.00 429092.00     0.00     8.00     0.00    0.00    0.00    0.00   0.00   0.00

avg-cpu:  %user   %nice %system %iowait  %steal   %idle
           5.09    0.00   27.48    1.53    0.00   65.90

Device:         rrqm/s   wrqm/s     r/s     w/s    rkB/s    wkB/s avgrq-sz avgqu-sz   await r_await w_await  svctm  %util
sda               0.00     0.00 17018.00    0.00 68072.00     0.00     8.00     2.79    0.16    0.16    0.00   0.03  44.90
sdb               0.00     0.00 16874.00    0.00 67500.00     0.00     8.00     2.95    0.18    0.18    0.00   0.03  44.10
sdc               0.00     0.00 16836.00    0.00 67344.00     0.00     8.00     3.33    0.20    0.20    0.00   0.03  52.50
sdd               0.00     0.00 17081.00    0.00 68324.00     0.00     8.00     3.24    0.19    0.19    0.00   0.03  53.60
sde               0.00     0.00 16725.00    0.00 66900.00     0.00     8.00     3.28    0.20    0.20    0.00   0.03  52.10
sdf               0.00     0.00 17130.00    0.00 68520.00     0.00     8.00     3.28    0.19    0.19    0.00   0.03  53.00
sdg               0.00    12.00    0.00 1368.00     0.00  6748.00     9.87     8.47    6.59    0.00    6.59   0.05   6.30
sdh               0.00     0.00    0.00    0.00     0.00     0.00     0.00     0.00    0.00    0.00    0.00   0.00   0.00
md0               0.00     0.00 101647.00    0.00 406592.00     0.00     8.00     0.00    0.00    0.00    0.00   0.00   0.00

avg-cpu:  %user   %nice %system %iowait  %steal   %idle
           4.25    0.00   29.50    0.50    0.00   65.75

Device:         rrqm/s   wrqm/s     r/s     w/s    rkB/s    wkB/s avgrq-sz avgqu-sz   await r_await w_await  svctm  %util
sda               0.00     0.00 16755.00    0.00 67020.00     0.00     8.00     3.35    0.20    0.20    0.00   0.03  53.20
sdb               0.00     0.00 17106.00    0.00 68424.00     0.00     8.00     3.34    0.20    0.20    0.00   0.03  53.60
sdc               0.00     0.00 17050.00    0.00 68200.00     0.00     8.00     3.88    0.23    0.23    0.00   0.03  59.30
sdd               0.00     0.00 17284.00    0.00 69136.00     0.00     8.00     3.95    0.23    0.23    0.00   0.03  60.20
sde               0.00     0.00 17248.00    0.00 68992.00     0.00     8.00     3.80    0.22    0.22    0.00   0.03  59.80
sdf               0.00     0.00 17153.00    0.00 68612.00     0.00     8.00     3.82    0.22    0.22    0.00   0.04  60.90
sdg               0.00     0.00    0.00    0.00     0.00     0.00     0.00     0.00    0.00    0.00    0.00   0.00   0.00
sdh               0.00     0.00    0.00    0.00     0.00     0.00     0.00     0.00    0.00    0.00    0.00   0.00   0.00
md0               0.00     0.00 102614.00    0.00 410456.00     0.00     8.00     0.00    0.00    0.00    0.00   0.00   0.00

avg-cpu:  %user   %nice %system %iowait  %steal   %idle
           4.79    0.00   28.46    0.50    0.00   66.25

Device:         rrqm/s   wrqm/s     r/s     w/s    rkB/s    wkB/s avgrq-sz avgqu-sz   await r_await w_await  svctm  %util
sda               0.00     0.00 17033.00    0.00 68132.00     0.00     8.00     3.14    0.18    0.18    0.00   0.03  51.50
sdb               0.00     0.00 17050.00    0.00 68200.00     0.00     8.00     3.23    0.19    0.19    0.00   0.03  51.20
sdc               0.00     0.00 17294.00    0.00 69176.00     0.00     8.00     3.66    0.21    0.21    0.00   0.03  57.10
sdd               0.00     0.00 17388.00    0.00 69552.00     0.00     8.00     3.75    0.22    0.22    0.00   0.03  57.90
sde               0.00     0.00 17466.00    0.00 69864.00     0.00     8.00     3.79    0.22    0.22    0.00   0.03  59.20
sdf               0.00     0.00 17405.00    0.00 69620.00     0.00     8.00     3.85    0.22    0.22    0.00   0.03  57.70
sdg               0.00     0.00    0.00    0.00     0.00     0.00     0.00     0.00    0.00    0.00    0.00   0.00   0.00
sdh               0.00     0.00    0.00    0.00     0.00     0.00     0.00     0.00    0.00    0.00    0.00   0.00   0.00
md0               0.00     0.00 103635.00    0.00 414540.00     0.00     8.00     0.00    0.00    0.00    0.00   0.00   0.00

avg-cpu:  %user   %nice %system %iowait  %steal   %idle
           5.08    0.25   28.93    3.55    0.00   62.18

Device:         rrqm/s   wrqm/s     r/s     w/s    rkB/s    wkB/s avgrq-sz avgqu-sz   await r_await w_await  svctm  %util
sda               0.00     0.00 17572.00    0.00 70288.00     0.00     8.00     3.33    0.19    0.19    0.00   0.03  50.00
sdb               0.00     0.00 17351.00    0.00 69404.00     0.00     8.00     3.34    0.19    0.19    0.00   0.03  50.80
sdc               0.00     0.00 17587.00    0.00 70348.00     0.00     8.00     3.75    0.21    0.21    0.00   0.03  57.00
sdd               0.00     0.00 17446.00    0.00 69784.00     0.00     8.00     3.74    0.21    0.21    0.00   0.03  56.50
sde               0.00     0.00 17370.00    0.00 69480.00     0.00     8.00     3.68    0.21    0.21    0.00   0.03  57.90
sdf               0.00     0.00 17363.00    0.00 69452.00     0.00     8.00     3.78    0.22    0.22    0.00   0.03  58.50
sdg               0.00     0.00 1829.00    0.00  7316.00     0.00     8.00     0.22    0.12    0.12    0.00   0.12  22.30
sdh               0.00     0.00    0.00    0.00     0.00     0.00     0.00     0.00    0.00    0.00    0.00   0.00   0.00
md0               0.00     0.00 104689.00    0.00 418756.00     0.00     8.00     0.00    0.00    0.00    0.00   0.00   0.00

avg-cpu:  %user   %nice %system %iowait  %steal   %idle
           5.32    0.00   27.34    0.51    0.00   66.84

Device:         rrqm/s   wrqm/s     r/s     w/s    rkB/s    wkB/s avgrq-sz avgqu-sz   await r_await w_await  svctm  %util
sda               0.00     0.00 17226.00    0.00 68904.00     0.00     8.00     3.17    0.18    0.18    0.00   0.03  48.60
sdb               0.00     0.00 17106.00    0.00 68424.00     0.00     8.00     3.13    0.18    0.18    0.00   0.03  48.50
sdc               0.00     0.00 16970.00    0.00 67880.00     0.00     8.00     3.48    0.20    0.20    0.00   0.03  55.50
sdd               0.00     0.00 17242.00    0.00 68968.00     0.00     8.00     3.67    0.21    0.21    0.00   0.03  56.50
sde               0.00     0.00 17191.00    0.00 68764.00     0.00     8.00     3.64    0.21    0.21    0.00   0.03  55.80
sdf               0.00     0.00 16829.00    0.00 67316.00     0.00     8.00     3.45    0.20    0.20    0.00   0.03  55.80
sdg               0.00     0.00    0.00    0.00     0.00     0.00     0.00     0.00    0.00    0.00    0.00   0.00   0.00
sdh               0.00     0.00    0.00    0.00     0.00     0.00     0.00     0.00    0.00    0.00    0.00   0.00   0.00
md0               0.00     0.00 102547.00    0.00 410188.00     0.00     8.00     0.00    0.00    0.00    0.00   0.00   0.00

avg-cpu:  %user   %nice %system %iowait  %steal   %idle
           4.56    0.00   28.10    0.51    0.00   66.84

Device:         rrqm/s   wrqm/s     r/s     w/s    rkB/s    wkB/s avgrq-sz avgqu-sz   await r_await w_await  svctm  %util
sda               0.00     0.00 17037.00    0.00 68148.00     0.00     8.00     3.02    0.18    0.18    0.00   0.03  48.30
sdb               0.00     0.00 16988.00    0.00 67952.00     0.00     8.00     3.06    0.18    0.18    0.00   0.03  48.10
sdc               0.00     0.00 16936.00    0.00 67744.00     0.00     8.00     3.44    0.20    0.20    0.00   0.03  53.80
sdd               0.00     0.00 16721.00    0.00 66884.00     0.00     8.00     3.38    0.20    0.20    0.00   0.03  53.60
sde               0.00     0.00 17048.00    0.00 68192.00     0.00     8.00     3.47    0.20    0.20    0.00   0.03  54.20
sdf               0.00     0.00 17034.00    0.00 68140.00     0.00     8.00     3.35    0.20    0.20    0.00   0.03  54.00
sdg               0.00     0.00    1.00    0.00     4.00     0.00     8.00     0.00    0.00    0.00    0.00   0.00   0.00
sdh               0.00     0.00    0.00    0.00     0.00     0.00     0.00     0.00    0.00    0.00    0.00   0.00   0.00
md0               0.00     0.00 101747.00    0.00 406992.00     0.00     8.00     0.00    0.00    0.00    0.00   0.00   0.00

