Linux 4.17.2 (bench) 	08/03/2018 	_x86_64_	(4 CPU)

avg-cpu:  %user   %nice %system %iowait  %steal   %idle
          10.28    0.02    4.05    2.55    0.00   83.10

Device:         rrqm/s   wrqm/s     r/s     w/s    rkB/s    wkB/s avgrq-sz avgqu-sz   await r_await w_await  svctm  %util
sda              44.32     4.24 1647.78  102.66 20895.71  3132.80    27.45     1.03    0.59    0.26    5.91   0.06  10.70
sdb              44.19     4.20 1647.70  102.80 20885.12  3129.46    27.44     1.03    0.59    0.26    5.85   0.06  10.58
sdc              82.13     4.26 1607.68  102.35 20877.23  3131.92    28.08     1.45    0.85    0.45    7.12   0.08  14.03
sdd              75.54     4.23 1613.44  102.42 20862.05  3128.11    27.96     1.46    0.85    0.44    7.32   0.08  14.12
sde              77.58     4.27 1618.52  102.52 20922.00  3132.37    27.95     1.48    0.86    0.44    7.43   0.08  14.15
sdf              74.69     4.25 1620.68  102.46 20903.22  3129.23    27.89     1.52    0.88    0.44    7.90   0.08  14.18
sdg               0.00     3.17   26.23   73.30   323.67   391.95    14.38     0.44    4.42    0.20    5.93   0.08   0.78
sdh               0.00     0.13    0.02    0.24     2.21     5.07    56.82     0.00    1.15    0.65    1.19   0.21   0.01
md0               0.00     0.00 10160.79  480.94 143118.77 21450.96    30.93     0.00    0.00    0.00    0.00   0.00   0.00

avg-cpu:  %user   %nice %system %iowait  %steal   %idle
           0.76    0.00    7.30   20.65    0.00   71.28

Device:         rrqm/s   wrqm/s     r/s     w/s    rkB/s    wkB/s avgrq-sz avgqu-sz   await r_await w_await  svctm  %util
sda              81.00     0.00 1361.00    0.00 129524.00     0.00   190.34     0.97    0.71    0.71    0.00   0.30  41.10
sdb              99.00     0.00 1468.00    0.00 131952.00     0.00   179.77     0.99    0.68    0.68    0.00   0.29  43.00
sdc              81.00     0.00 1476.00    0.00 136812.00     0.00   185.38     1.68    1.14    1.14    0.00   0.44  64.80
sdd              96.00     0.00 1367.00    0.00 131568.00     0.00   192.49     1.63    1.19    1.19    0.00   0.46  62.90
sde              91.00     0.00 1433.00    0.00 133596.00     0.00   186.46     1.71    1.19    1.19    0.00   0.45  64.00
sdf              95.00     0.00 1374.00    0.00 127792.00     0.00   186.01     1.67    1.21    1.21    0.00   0.45  61.80
sdg               0.00     0.00    3.00    0.00    88.00     0.00    58.67     0.00    0.00    0.00    0.00   0.00   0.00
sdh               0.00     0.00    0.00    0.00     0.00     0.00     0.00     0.00    0.00    0.00    0.00   0.00   0.00
md0               0.00     0.00 9314.00    0.00 1046088.00     0.00   224.63     0.00    0.00    0.00    0.00   0.00   0.00

avg-cpu:  %user   %nice %system %iowait  %steal   %idle
           0.50    0.00    6.53   28.39    0.00   64.57

Device:         rrqm/s   wrqm/s     r/s     w/s    rkB/s    wkB/s avgrq-sz avgqu-sz   await r_await w_await  svctm  %util
sda             177.00     0.00 1548.00    0.00 161580.00     0.00   208.76     1.11    0.72    0.72    0.00   0.33  50.90
sdb             171.00     0.00 1560.00    0.00 158868.00     0.00   203.68     1.05    0.68    0.68    0.00   0.32  50.50
sdc             162.00     0.00 1406.00    0.00 154912.00     0.00   220.36     1.79    1.28    1.28    0.00   0.52  73.60
sdd             161.00     0.00 1541.00    0.00 158648.00     0.00   205.90     1.88    1.22    1.22    0.00   0.49  75.70
sde             167.00     0.00 1574.00    0.00 158876.00     0.00   201.88     2.05    1.30    1.30    0.00   0.48  75.90
sdf             160.00     0.00 1595.00    0.00 157204.00     0.00   197.12     1.81    1.14    1.14    0.00   0.47  74.70
sdg               0.00     0.00    0.00    0.00     0.00     0.00     0.00     0.00    0.00    0.00    0.00   0.00   0.00
sdh               0.00     0.00    0.00    0.00     0.00     0.00     0.00     0.00    0.00    0.00    0.00   0.00   0.00
md0               0.00     0.00 10215.00    0.00 1295672.00     0.00   253.68     0.00    0.00    0.00    0.00   0.00   0.00

avg-cpu:  %user   %nice %system %iowait  %steal   %idle
           0.51    0.00    5.34   30.28    0.00   63.87

Device:         rrqm/s   wrqm/s     r/s     w/s    rkB/s    wkB/s avgrq-sz avgqu-sz   await r_await w_await  svctm  %util
sda             167.00     0.00 1571.00    0.00 154884.00     0.00   197.18     1.07    0.68    0.68    0.00   0.31  49.30
sdb             161.00     0.00 1520.00    0.00 151640.00     0.00   199.53     1.06    0.69    0.69    0.00   0.32  48.90
sdc             156.00     0.00 1543.00    0.00 150248.00     0.00   194.75     1.76    1.14    1.14    0.00   0.47  72.40
sdd             161.00     0.00 1708.00    0.00 157072.00     0.00   183.93     1.92    1.12    1.12    0.00   0.45  76.50
sde             161.00     0.00 1589.00    0.00 155852.00     0.00   196.16     1.96    1.24    1.24    0.00   0.47  74.50
sdf             170.00     0.00 1563.00    0.00 159168.00     0.00   203.67     1.84    1.18    1.18    0.00   0.49  76.70
sdg               0.00     0.00    0.00    0.00     0.00     0.00     0.00     0.00    0.00    0.00    0.00   0.00   0.00
sdh               0.00     0.00    0.00    0.00     0.00     0.00     0.00     0.00    0.00    0.00    0.00   0.00   0.00
md0               0.00     0.00 10712.00    0.00 1267876.00     0.00   236.72     0.00    0.00    0.00    0.00   0.00   0.00

avg-cpu:  %user   %nice %system %iowait  %steal   %idle
           0.50    0.00    6.80   29.47    0.00   63.22

Device:         rrqm/s   wrqm/s     r/s     w/s    rkB/s    wkB/s avgrq-sz avgqu-sz   await r_await w_await  svctm  %util
sda             156.00     0.00 1593.00    0.00 157720.00     0.00   198.02     1.13    0.71    0.71    0.00   0.31  50.10
sdb             157.00     0.00 1591.00    0.00 154504.00     0.00   194.22     1.08    0.69    0.69    0.00   0.32  50.60
sdc             156.00     0.00 1533.00    0.00 155332.00     0.00   202.65     1.78    1.16    1.16    0.00   0.48  73.60
sdd             161.00     0.00 1505.00    0.00 156456.00     0.00   207.91     1.74    1.16    1.16    0.00   0.50  75.10
sde             166.00     0.00 1663.00    0.00 159124.00     0.00   191.37     1.97    1.19    1.19    0.00   0.46  76.90
sdf             167.00     0.00 1520.00    0.00 153664.00     0.00   202.19     1.73    1.14    1.14    0.00   0.48  73.40
sdg               0.00     6.00   12.00 1434.00    48.00  7508.00    10.45     8.54    5.90    0.08    5.95   0.04   6.50
sdh               0.00     0.00    0.00    0.00     0.00     0.00     0.00     0.00    0.00    0.00    0.00   0.00   0.00
md0               0.00     0.00 10434.00    0.00 1262852.00     0.00   242.06     0.00    0.00    0.00    0.00   0.00   0.00

avg-cpu:  %user   %nice %system %iowait  %steal   %idle
           0.25    0.00    6.57   29.80    0.00   63.38

Device:         rrqm/s   wrqm/s     r/s     w/s    rkB/s    wkB/s avgrq-sz avgqu-sz   await r_await w_await  svctm  %util
sda             137.62     0.00 1619.80    0.00 154748.51     0.00   191.07     1.14    0.70    0.70    0.00   0.30  48.91
sdb             162.38     0.00 1625.74    0.00 156590.10     0.00   192.64     1.09    0.67    0.67    0.00   0.30  49.50
sdc             160.40     0.00 1475.25    0.00 152720.79     0.00   207.04     1.72    1.16    1.16    0.00   0.50  73.17
sdd             159.41     0.00 1529.70    0.00 153089.11     0.00   200.16     1.77    1.15    1.15    0.00   0.47  72.08
sde             158.42     0.00 1618.81    0.00 155524.75     0.00   192.15     1.79    1.10    1.10    0.00   0.46  73.86
sdf             146.53     0.00 1632.67    0.00 157386.14     0.00   192.80     1.84    1.13    1.13    0.00   0.46  75.35
sdg               0.00     0.00    0.00    0.00     0.00     0.00     0.00     0.00    0.00    0.00    0.00   0.00   0.00
sdh               0.00     0.00    0.00    0.00     0.00     0.00     0.00     0.00    0.00    0.00    0.00   0.00   0.00
md0               0.00     0.00 10440.59    0.00 1242621.78     0.00   238.04     0.00    0.00    0.00    0.00   0.00   0.00

avg-cpu:  %user   %nice %system %iowait  %steal   %idle
           0.51    0.00    5.82   29.62    0.00   64.05

Device:         rrqm/s   wrqm/s     r/s     w/s    rkB/s    wkB/s avgrq-sz avgqu-sz   await r_await w_await  svctm  %util
sda             160.00     0.00 1629.00    0.00 158296.00     0.00   194.35     1.15    0.71    0.71    0.00   0.31  50.10
sdb             164.00     0.00 1615.00    0.00 165144.00     0.00   204.51     1.24    0.76    0.76    0.00   0.32  51.90
sdc             163.00     0.00 1646.00    0.00 164008.00     0.00   199.28     2.05    1.24    1.24    0.00   0.48  78.90
sdd             175.00     0.00 1590.00    0.00 163692.00     0.00   205.90     2.06    1.30    1.30    0.00   0.49  78.60
sde             179.00     0.00 1537.00    0.00 160336.00     0.00   208.64     2.05    1.33    1.33    0.00   0.50  77.00
sdf             163.00     0.00 1535.00    0.00 156664.00     0.00   204.12     1.82    1.18    1.18    0.00   0.49  75.20
sdg               0.00     0.00    0.00    0.00     0.00     0.00     0.00     0.00    0.00    0.00    0.00   0.00   0.00
sdh               0.00     0.00    0.00    0.00     0.00     0.00     0.00     0.00    0.00    0.00    0.00   0.00   0.00
md0               0.00     0.00 10653.00    0.00 1298852.00     0.00   243.85     0.00    0.00    0.00    0.00   0.00   0.00

avg-cpu:  %user   %nice %system %iowait  %steal   %idle
           0.51    0.00    7.07   31.06    0.00   61.36

Device:         rrqm/s   wrqm/s     r/s     w/s    rkB/s    wkB/s avgrq-sz avgqu-sz   await r_await w_await  svctm  %util
sda             176.00     0.00 1589.00    0.00 160992.00     0.00   202.63     1.12    0.71    0.71    0.00   0.32  51.20
sdb             167.00     0.00 1540.00    0.00 154952.00     0.00   201.24     1.03    0.67    0.67    0.00   0.32  49.80
sdc             159.00     0.00 1665.00    0.00 150556.00     0.00   180.85     1.92    1.15    1.15    0.00   0.44  72.80
sdd             146.00     0.00 1588.00    0.00 154220.00     0.00   194.23     1.84    1.16    1.16    0.00   0.46  73.40
sde             177.00     0.00 1496.00    0.00 157576.00     0.00   210.66     1.83    1.22    1.22    0.00   0.51  75.70
sdf             160.00     0.00 1590.00    0.00 163136.00     0.00   205.20     1.86    1.17    1.17    0.00   0.49  77.70
sdg               0.00     0.00    0.00    0.00     0.00     0.00     0.00     0.00    0.00    0.00    0.00   0.00   0.00
sdh               0.00     0.00    0.00    0.00     0.00     0.00     0.00     0.00    0.00    0.00    0.00   0.00   0.00
md0               0.00     0.00 10564.00    0.00 1281108.00     0.00   242.54     0.00    0.00    0.00    0.00   0.00   0.00

avg-cpu:  %user   %nice %system %iowait  %steal   %idle
           0.75    0.00    7.54   27.64    0.00   64.07

Device:         rrqm/s   wrqm/s     r/s     w/s    rkB/s    wkB/s avgrq-sz avgqu-sz   await r_await w_await  svctm  %util
sda             160.00     0.00 1541.00    0.00 155304.00     0.00   201.56     1.14    0.74    0.74    0.00   0.33  50.50
sdb             162.00     0.00 1525.00    0.00 152696.00     0.00   200.26     1.07    0.70    0.70    0.00   0.32  49.30
sdc             175.00     0.00 1603.00    0.00 157272.00     0.00   196.22     1.88    1.18    1.18    0.00   0.47  76.10
sdd             176.00     0.00 1473.00    0.00 155992.00     0.00   211.80     1.78    1.20    1.20    0.00   0.51  74.50
sde             174.00     0.00 1573.00    0.00 158960.00     0.00   202.11     1.93    1.23    1.23    0.00   0.48  75.10
sdf             158.00     0.00 1572.00    0.00 154948.00     0.00   197.13     1.77    1.13    1.13    0.00   0.47  74.50
sdg               0.00     0.00    0.00    0.00     0.00     0.00     0.00     0.00    0.00    0.00    0.00   0.00   0.00
sdh               0.00     0.00    0.00    0.00     0.00     0.00     0.00     0.00    0.00    0.00    0.00   0.00   0.00
md0               0.00     0.00 10322.00    0.00 1277836.00     0.00   247.59     0.00    0.00    0.00    0.00   0.00   0.00

avg-cpu:  %user   %nice %system %iowait  %steal   %idle
           0.51    0.25    8.08   32.58    0.00   58.59

Device:         rrqm/s   wrqm/s     r/s     w/s    rkB/s    wkB/s avgrq-sz avgqu-sz   await r_await w_await  svctm  %util
sda             171.00     0.00 1595.00    0.00 163888.00     0.00   205.50     1.22    0.76    0.76    0.00   0.33  52.90
sdb             177.00     0.00 1536.00    0.00 157596.00     0.00   205.20     1.17    0.76    0.76    0.00   0.33  50.50
sdc             173.00     0.00 1643.00    0.00 157572.00     0.00   191.81     2.29    1.39    1.39    0.00   0.46  74.90
sdd             167.00     0.00 1572.00    0.00 158944.00     0.00   202.22     2.18    1.38    1.38    0.00   0.49  77.10
sde             169.00     0.00 1543.00    0.00 157620.00     0.00   204.30     1.94    1.26    1.26    0.00   0.49  75.60
sdf             175.00     0.00 1602.00    0.00 157764.00     0.00   196.96     1.97    1.22    1.22    0.00   0.48  76.50
sdg               0.00     0.00  839.00    0.00  3356.00     0.00     8.00     0.11    0.13    0.13    0.00   0.13  10.60
sdh               0.00     0.00    0.00    0.00     0.00     0.00     0.00     0.00    0.00    0.00    0.00   0.00   0.00
md0               0.00     0.00 10878.00    0.00 1330412.00     0.00   244.61     0.00    0.00    0.00    0.00   0.00   0.00

avg-cpu:  %user   %nice %system %iowait  %steal   %idle
           0.25    0.00    8.56   31.23    0.00   59.95

Device:         rrqm/s   wrqm/s     r/s     w/s    rkB/s    wkB/s avgrq-sz avgqu-sz   await r_await w_await  svctm  %util
sda             169.00     0.00 1541.00    0.00 157048.00     0.00   203.83     1.13    0.73    0.73    0.00   0.32  49.50
sdb             174.00     0.00 1596.00    0.00 156572.00     0.00   196.21     1.11    0.69    0.69    0.00   0.31  48.90
sdc             164.00     0.00 1512.00    0.00 155844.00     0.00   206.14     1.90    1.26    1.26    0.00   0.49  74.10
sdd             165.00     0.00 1502.00    0.00 154356.00     0.00   205.53     1.84    1.23    1.23    0.00   0.50  75.00
sde             163.00     0.00 1657.00    0.00 155504.00     0.00   187.69     2.33    1.41    1.41    0.00   0.46  76.00
sdf             162.00     0.00 1636.00    0.00 157316.00     0.00   192.32     2.00    1.23    1.23    0.00   0.47  76.40
sdg               0.00     0.00 1003.00    0.00  4012.00     0.00     8.00     0.12    0.12    0.12    0.00   0.12  12.40
sdh               0.00     0.00    0.00    0.00     0.00     0.00     0.00     0.00    0.00    0.00    0.00   0.00   0.00
md0               0.00     0.00 10576.00    0.00 1268916.00     0.00   239.96     0.00    0.00    0.00    0.00   0.00   0.00

avg-cpu:  %user   %nice %system %iowait  %steal   %idle
           0.51    0.00    7.58   29.04    0.00   62.88

Device:         rrqm/s   wrqm/s     r/s     w/s    rkB/s    wkB/s avgrq-sz avgqu-sz   await r_await w_await  svctm  %util
sda             145.00     0.00 1654.00    0.00 146808.00     0.00   177.52     1.07    0.65    0.65    0.00   0.28  46.60
sdb             158.00     0.00 1654.00    0.00 149796.00     0.00   181.13     1.08    0.65    0.65    0.00   0.29  47.80
sdc             145.00     0.00 1715.00    0.00 152956.00     0.00   178.37     1.87    1.09    1.09    0.00   0.43  74.40
sdd             138.00     0.00 1656.00    0.00 155740.00     0.00   188.09     1.80    1.08    1.08    0.00   0.44  73.50
sde             156.00     0.00 1432.00    0.00 152380.00     0.00   212.82     1.69    1.17    1.17    0.00   0.51  73.70
sdf             151.00     0.00 1596.00    0.00 147192.00     0.00   184.45     1.76    1.10    1.10    0.00   0.44  71.00
sdg               0.00     0.00    0.00    0.00     0.00     0.00     0.00     0.00    0.00    0.00    0.00   0.00   0.00
sdh               0.00     0.00    0.00    0.00     0.00     0.00     0.00     0.00    0.00    0.00    0.00   0.00   0.00
md0               0.00     0.00 10795.00    0.00 1207592.00     0.00   223.73     0.00    0.00    0.00    0.00   0.00   0.00

avg-cpu:  %user   %nice %system %iowait  %steal   %idle
           0.51    0.00    8.61   28.10    0.00   62.78

Device:         rrqm/s   wrqm/s     r/s     w/s    rkB/s    wkB/s avgrq-sz avgqu-sz   await r_await w_await  svctm  %util
sda              28.00     0.00 2414.00    0.00 161256.00     0.00   133.60     1.82    0.76    0.76    0.00   0.21  51.40
sdb              36.00     0.00 2394.00    0.00 153820.00     0.00   128.50     1.76    0.74    0.74    0.00   0.20  48.50
sdc              34.00     0.00 2445.00    0.00 154264.00     0.00   126.19     3.17    1.29    1.29    0.00   0.30  73.60
sdd              30.00     0.00 2460.00    0.00 155240.00     0.00   126.21     3.28    1.33    1.33    0.00   0.30  73.70
sde              33.00     0.00 2303.00    0.00 153244.00     0.00   133.08     3.14    1.37    1.37    0.00   0.32  73.30
sdf              35.00     0.00 2417.00    0.00 151048.00     0.00   124.99     3.23    1.34    1.34    0.00   0.30  73.50
sdg               0.00     0.00    0.00    0.00     0.00     0.00     0.00     0.00    0.00    0.00    0.00   0.00   0.00
sdh               0.00     0.00    0.00    0.00     0.00     0.00     0.00     0.00    0.00    0.00    0.00   0.00   0.00
md0               0.00     0.00 14779.00    0.00 1127532.00     0.00   152.59     0.00    0.00    0.00    0.00   0.00   0.00

avg-cpu:  %user   %nice %system %iowait  %steal   %idle
           0.51    0.00    9.09   28.28    0.00   62.12

Device:         rrqm/s   wrqm/s     r/s     w/s    rkB/s    wkB/s avgrq-sz avgqu-sz   await r_await w_await  svctm  %util
sda              48.00     0.00 2294.00    0.00 148844.00     0.00   129.77     1.69    0.73    0.73    0.00   0.21  48.90
sdb              48.00     0.00 2279.00    0.00 154180.00     0.00   135.30     1.77    0.78    0.78    0.00   0.22  49.90
sdc              47.00     0.00 2505.00    0.00 162852.00     0.00   130.02     3.39    1.36    1.36    0.00   0.31  77.80
sdd              43.00     0.00 2351.00    0.00 159528.00     0.00   135.71     3.17    1.36    1.36    0.00   0.32  75.60
sde              39.00     0.00 2176.00    0.00 152752.00     0.00   140.40     2.78    1.28    1.28    0.00   0.33  72.80
sdf              46.00     0.00 2262.00    0.00 149512.00     0.00   132.19     2.88    1.27    1.27    0.00   0.32  73.20
sdg               0.00     0.00   57.00    0.00   808.00     0.00    28.35     0.02    0.35    0.35    0.00   0.16   0.90
sdh               0.00     0.00    0.00    0.00     0.00     0.00     0.00     0.00    0.00    0.00    0.00   0.00   0.00
md0               0.00     0.00 14259.00    0.00 1142040.00     0.00   160.19     0.00    0.00    0.00    0.00   0.00   0.00

avg-cpu:  %user   %nice %system %iowait  %steal   %idle
           0.25    0.00    8.14   27.74    0.00   63.87

Device:         rrqm/s   wrqm/s     r/s     w/s    rkB/s    wkB/s avgrq-sz avgqu-sz   await r_await w_await  svctm  %util
sda              74.00     0.00 1918.00    0.00 154188.00     0.00   160.78     1.46    0.76    0.76    0.00   0.25  48.40
sdb              76.00     0.00 2127.00    0.00 152428.00     0.00   143.33     1.66    0.78    0.78    0.00   0.24  50.00
sdc              58.00     0.00 2099.00    0.00 153052.00     0.00   145.83     2.88    1.37    1.37    0.00   0.35  74.20
sdd              81.00     0.00 1999.00    0.00 156716.00     0.00   156.79     2.64    1.32    1.32    0.00   0.38  75.60
sde              68.00     0.00 2045.00    0.00 156348.00     0.00   152.91     2.74    1.33    1.33    0.00   0.37  75.70
sdf              76.00     0.00 2011.00    0.00 151616.00     0.00   150.79     2.59    1.29    1.29    0.00   0.36  73.40
sdg               0.00     0.00    0.00    0.00     0.00     0.00     0.00     0.00    0.00    0.00    0.00   0.00   0.00
sdh               0.00     0.00    0.00    0.00     0.00     0.00     0.00     0.00    0.00    0.00    0.00   0.00   0.00
md0               0.00     0.00 12637.00    0.00 1169288.00     0.00   185.06     0.00    0.00    0.00    0.00   0.00   0.00

avg-cpu:  %user   %nice %system %iowait  %steal   %idle
           0.51    0.00    7.61   29.44    0.00   62.44

Device:         rrqm/s   wrqm/s     r/s     w/s    rkB/s    wkB/s avgrq-sz avgqu-sz   await r_await w_await  svctm  %util
sda              73.00     0.00 1964.00    0.00 150820.00     0.00   153.58     1.53    0.78    0.78    0.00   0.25  49.20
sdb              64.00     0.00 2134.00    0.00 157304.00     0.00   147.43     1.55    0.73    0.73    0.00   0.24  51.00
sdc              90.00     0.00 1932.00    0.00 155060.00     0.00   160.52     2.62    1.36    1.36    0.00   0.38  73.80
sdd              77.00     0.00 1960.00    0.00 157876.00     0.00   161.10     2.53    1.29    1.29    0.00   0.39  75.50
sde              78.00     0.00 1928.00    0.00 157664.00     0.00   163.55     2.66    1.38    1.38    0.00   0.39  75.80
sdf              86.00     0.00 1970.00    0.00 157148.00     0.00   159.54     2.61    1.33    1.33    0.00   0.39  75.90
sdg               0.00     0.00    0.00    0.00     0.00     0.00     0.00     0.00    0.00    0.00    0.00   0.00   0.00
sdh               0.00     0.00    0.00    0.00     0.00     0.00     0.00     0.00    0.00    0.00    0.00   0.00   0.00
md0               0.00     0.00 12544.00    0.00 1202296.00     0.00   191.69     0.00    0.00    0.00    0.00   0.00   0.00

avg-cpu:  %user   %nice %system %iowait  %steal   %idle
           0.51    0.00    8.59   27.27    0.00   63.64

Device:         rrqm/s   wrqm/s     r/s     w/s    rkB/s    wkB/s avgrq-sz avgqu-sz   await r_await w_await  svctm  %util
sda              88.00     0.00 2003.00    0.00 158144.00     0.00   157.91     1.82    0.91    0.91    0.00   0.25  49.70
sdb              88.00     0.00 1912.00    0.00 153492.00     0.00   160.56     1.73    0.90    0.90    0.00   0.26  49.20
sdc              78.00     0.00 2119.00    0.00 157416.00     0.00   148.58     3.27    1.54    1.54    0.00   0.35  75.00
sdd              72.00     0.00 2148.00    0.00 165400.00     0.00   154.00     3.50    1.63    1.63    0.00   0.36  77.70
sde              84.00     0.00 2034.00    0.00 160640.00     0.00   157.95     3.28    1.61    1.61    0.00   0.38  77.10
sdf              72.00     0.00 1916.00    0.00 159176.00     0.00   166.15     2.84    1.48    1.48    0.00   0.39  75.50
sdg               0.00    41.00    0.00  856.00     0.00  4480.00    10.47     5.22    5.34    0.00    5.34   0.04   3.60
sdh               0.00     0.00    0.00    0.00     0.00     0.00     0.00     0.00    0.00    0.00    0.00   0.00   0.00
md0               0.00     0.00 12795.00    0.00 1224480.00     0.00   191.40     0.00    0.00    0.00    0.00   0.00   0.00

avg-cpu:  %user   %nice %system %iowait  %steal   %idle
           0.76    0.00    8.31   29.47    0.00   61.46

Device:         rrqm/s   wrqm/s     r/s     w/s    rkB/s    wkB/s avgrq-sz avgqu-sz   await r_await w_await  svctm  %util
sda              53.00     0.00 2004.00    0.00 149568.00     0.00   149.27     1.51    0.76    0.76    0.00   0.24  48.90
sdb              79.00     0.00 1956.00    0.00 150824.00     0.00   154.22     1.47    0.75    0.75    0.00   0.25  48.00
sdc              66.00     0.00 2133.00    0.00 154052.00     0.00   144.45     2.89    1.36    1.36    0.00   0.34  73.40
sdd              63.00     0.00 2146.00    0.00 157544.00     0.00   146.83     2.86    1.34    1.34    0.00   0.35  75.70
sde              73.00     0.00 2065.00    0.00 158760.00     0.00   153.76     2.98    1.44    1.44    0.00   0.38  77.50
sdf              61.00     0.00 2090.00    0.00 155208.00     0.00   148.52     2.65    1.26    1.26    0.00   0.36  75.60
sdg               0.00    25.00    1.00  581.00     4.00  3076.00    10.58     3.62    7.34    2.00    7.34   0.05   2.90
sdh               0.00     0.00    0.00    0.00     0.00     0.00     0.00     0.00    0.00    0.00    0.00   0.00   0.00
md0               0.00     0.00 12928.00    0.00 1168680.00     0.00   180.80     0.00    0.00    0.00    0.00   0.00   0.00

avg-cpu:  %user   %nice %system %iowait  %steal   %idle
           0.51    0.00    8.33   28.79    0.00   62.37

Device:         rrqm/s   wrqm/s     r/s     w/s    rkB/s    wkB/s avgrq-sz avgqu-sz   await r_await w_await  svctm  %util
sda              69.00     0.00 2071.00    0.00 151252.00     0.00   146.07     1.56    0.76    0.76    0.00   0.23  48.60
sdb              64.00     0.00 1997.00    0.00 154808.00     0.00   155.04     1.53    0.77    0.77    0.00   0.25  50.10
sdc              72.00     0.00 1938.00    0.00 151048.00     0.00   155.88     2.68    1.37    1.37    0.00   0.38  73.80
sdd              77.00     0.00 2114.00    0.00 154452.00     0.00   146.12     2.80    1.32    1.32    0.00   0.35  74.40
sde              75.00     0.00 1992.00    0.00 159436.00     0.00   160.08     2.63    1.32    1.32    0.00   0.38  76.20
sdf              72.00     0.00 1951.00    0.00 157264.00     0.00   161.21     2.67    1.38    1.38    0.00   0.39  76.30
sdg               0.00     0.00    0.00    0.00     0.00     0.00     0.00     0.00    0.00    0.00    0.00   0.00   0.00
sdh               0.00     0.00    0.00    0.00     0.00     0.00     0.00     0.00    0.00    0.00    0.00   0.00   0.00
md0               0.00     0.00 12655.00    0.00 1187008.00     0.00   187.60     0.00    0.00    0.00    0.00   0.00   0.00

avg-cpu:  %user   %nice %system %iowait  %steal   %idle
           0.51    0.00    8.63   30.46    0.00   60.41

Device:         rrqm/s   wrqm/s     r/s     w/s    rkB/s    wkB/s avgrq-sz avgqu-sz   await r_await w_await  svctm  %util
sda              89.00     0.00 1988.00    0.00 159676.00     0.00   160.64     1.51    0.75    0.75    0.00   0.25  50.30
sdb              83.00     0.00 1956.00    0.00 161860.00     0.00   165.50     1.60    0.81    0.81    0.00   0.26  50.20
sdc              64.00     0.00 2043.00    0.00 159228.00     0.00   155.88     2.91    1.43    1.43    0.00   0.37  75.80
sdd              78.00     0.00 2007.00    0.00 161024.00     0.00   160.46     2.92    1.46    1.46    0.00   0.38  76.40
sde              76.00     0.00 2100.00    0.00 164272.00     0.00   156.45     2.88    1.38    1.38    0.00   0.38  78.80
sdf              86.00     0.00 1901.00    0.00 161104.00     0.00   169.49     2.76    1.45    1.45    0.00   0.40  76.30
sdg               0.00     0.00  881.00    0.00  3524.00     0.00     8.00     0.11    0.12    0.12    0.00   0.12  10.80
sdh               0.00     0.00    0.00    0.00     0.00     0.00     0.00     0.00    0.00    0.00    0.00   0.00   0.00
md0               0.00     0.00 12698.00    0.00 1233520.00     0.00   194.29     0.00    0.00    0.00    0.00   0.00   0.00

avg-cpu:  %user   %nice %system %iowait  %steal   %idle
           0.25    0.25    8.91   35.37    0.00   55.22

Device:         rrqm/s   wrqm/s     r/s     w/s    rkB/s    wkB/s avgrq-sz avgqu-sz   await r_await w_await  svctm  %util
sda              74.00     0.00 1981.00    0.00 157480.00     0.00   158.99     1.62    0.82    0.82    0.00   0.25  49.10
sdb              69.00     0.00 1933.00    0.00 153144.00     0.00   158.45     1.42    0.74    0.74    0.00   0.26  49.60
sdc              65.00     0.00 2016.00    0.00 152364.00     0.00   151.15     2.61    1.30    1.30    0.00   0.36  71.70
sdd              65.00     0.00 2163.00    0.00 158612.00     0.00   146.66     2.83    1.31    1.31    0.00   0.35  76.50
sde              88.00     0.00 1983.00    0.00 160204.00     0.00   161.58     2.82    1.42    1.42    0.00   0.39  76.70
sdf              81.00     0.00 2038.00    0.00 160484.00     0.00   157.49     2.76    1.35    1.35    0.00   0.38  76.80
sdg               0.00     0.00 2282.00    0.00  9128.00     0.00     8.00     0.30    0.13    0.13    0.00   0.13  29.70
sdh               0.00     0.00    0.00    0.00     0.00     0.00     0.00     0.00    0.00    0.00    0.00   0.00   0.00
md0               0.00     0.00 12603.00    0.00 1214404.00     0.00   192.72     0.00    0.00    0.00    0.00   0.00   0.00

