Linux 4.17.2 (bench) 	08/03/2018 	_x86_64_	(4 CPU)

avg-cpu:  %user   %nice %system %iowait  %steal   %idle
          10.28    0.02    4.04    2.54    0.00   83.12

Device:         rrqm/s   wrqm/s     r/s     w/s    rkB/s    wkB/s avgrq-sz avgqu-sz   await r_await w_await  svctm  %util
sda              44.31     4.25 1641.82  102.78 20852.60  3136.47    27.50     1.03    0.59    0.26    5.91   0.06  10.67
sdb              44.19     4.21 1641.74  102.92 20842.01  3133.13    27.48     1.03    0.59    0.26    5.85   0.06  10.55
sdc              82.17     4.27 1601.67  102.47 20834.17  3135.60    28.13     1.45    0.85    0.45    7.12   0.08  14.00
sdd              75.57     4.23 1607.44  102.54 20819.00  3131.78    28.01     1.46    0.85    0.44    7.32   0.08  14.09
sde              77.61     4.28 1612.52  102.64 20879.01  3136.04    28.00     1.48    0.86    0.44    7.43   0.08  14.11
sdf              74.72     4.25 1614.68  102.58 20860.18  3132.90    27.94     1.52    0.89    0.44    7.90   0.08  14.15
sdg               0.00     3.17   26.18   73.31   323.45   391.95    14.38     0.44    4.42    0.20    5.93   0.08   0.78
sdh               0.00     0.13    0.02    0.24     2.22     5.08    56.82     0.00    1.15    0.65    1.19   0.21   0.01
md0               0.00     0.00 10124.93  481.50 142800.18 21476.12    30.98     0.00    0.00    0.00    0.00   0.00   0.00

avg-cpu:  %user   %nice %system %iowait  %steal   %idle
           1.75    0.00   32.17    2.99    0.00   63.09

Device:         rrqm/s   wrqm/s     r/s     w/s    rkB/s    wkB/s avgrq-sz avgqu-sz   await r_await w_await  svctm  %util
sda               0.00     0.00 17710.00    0.00 70840.00     0.00     8.00     2.42    0.14    0.14    0.00   0.04  62.60
sdb               0.00     0.00 17724.00    0.00 70896.00     0.00     8.00     2.38    0.13    0.13    0.00   0.04  62.30
sdc               0.00     0.00 18098.00    0.00 72392.00     0.00     8.00     2.61    0.14    0.14    0.00   0.04  69.50
sdd               0.00     0.00 17887.00    0.00 71548.00     0.00     8.00     2.75    0.15    0.15    0.00   0.04  69.60
sde               0.00     0.00 17929.00    0.00 71716.00     0.00     8.00     2.62    0.15    0.15    0.00   0.04  68.40
sdf               0.00     0.00 18175.00    0.00 72700.00     0.00     8.00     2.59    0.14    0.14    0.00   0.04  68.50
sdg               0.00     0.00    3.00    0.00    88.00     0.00    58.67     0.00    0.33    0.33    0.00   0.33   0.10
sdh               0.00     0.00    0.00    0.00     0.00     0.00     0.00     0.00    0.00    0.00    0.00   0.00   0.00
md0               0.00     0.00 107556.00    0.00 430224.00     0.00     8.00     0.00    0.00    0.00    0.00   0.00   0.00

avg-cpu:  %user   %nice %system %iowait  %steal   %idle
           2.25    0.00   31.50    2.50    0.00   63.75

Device:         rrqm/s   wrqm/s     r/s     w/s    rkB/s    wkB/s avgrq-sz avgqu-sz   await r_await w_await  svctm  %util
sda               0.00     0.00 17720.00    0.00 70880.00     0.00     8.00     2.36    0.13    0.13    0.00   0.04  63.80
sdb               0.00     0.00 17774.00    0.00 71096.00     0.00     8.00     2.49    0.14    0.14    0.00   0.04  65.40
sdc               0.00     0.00 17924.00    0.00 71696.00     0.00     8.00     2.65    0.15    0.15    0.00   0.04  69.10
sdd               0.00     0.00 17743.00    0.00 70972.00     0.00     8.00     2.58    0.15    0.15    0.00   0.04  68.30
sde               0.00     0.00 17950.00    0.00 71800.00     0.00     8.00     2.69    0.15    0.15    0.00   0.04  69.50
sdf               0.00     0.00 17809.00    0.00 71236.00     0.00     8.00     2.66    0.15    0.15    0.00   0.04  69.00
sdg               0.00     0.00    0.00    0.00     0.00     0.00     0.00     0.00    0.00    0.00    0.00   0.00   0.00
sdh               0.00     0.00    0.00    0.00     0.00     0.00     0.00     0.00    0.00    0.00    0.00   0.00   0.00
md0               0.00     0.00 106916.00    0.00 427664.00     0.00     8.00     0.00    0.00    0.00    0.00   0.00   0.00

avg-cpu:  %user   %nice %system %iowait  %steal   %idle
           2.52    0.00   30.73    3.02    0.00   63.73

Device:         rrqm/s   wrqm/s     r/s     w/s    rkB/s    wkB/s avgrq-sz avgqu-sz   await r_await w_await  svctm  %util
sda               0.00     0.00 17297.00    0.00 69188.00     0.00     8.00     2.27    0.13    0.13    0.00   0.04  61.60
sdb               0.00     0.00 17371.00    0.00 69484.00     0.00     8.00     2.32    0.13    0.13    0.00   0.04  62.70
sdc               0.00     0.00 17062.00    0.00 68248.00     0.00     8.00     2.46    0.14    0.14    0.00   0.04  67.40
sdd               0.00     0.00 17421.00    0.00 69684.00     0.00     8.00     2.51    0.14    0.14    0.00   0.04  69.30
sde               0.00     0.00 17636.00    0.00 70544.00     0.00     8.00     2.60    0.15    0.15    0.00   0.04  67.00
sdf               0.00     0.00 17415.00    0.00 69660.00     0.00     8.00     2.51    0.14    0.14    0.00   0.04  68.90
sdg               0.00     0.00    1.00    4.00    16.00    40.00    22.40     0.00    0.00    0.00    0.00   0.00   0.00
sdh               0.00     0.00    0.00    0.00     0.00     0.00     0.00     0.00    0.00    0.00    0.00   0.00   0.00
md0               0.00     0.00 104201.00    0.00 416804.00     0.00     8.00     0.00    0.00    0.00    0.00   0.00   0.00

avg-cpu:  %user   %nice %system %iowait  %steal   %idle
           2.24    0.00   31.42    2.00    0.00   64.34

Device:         rrqm/s   wrqm/s     r/s     w/s    rkB/s    wkB/s avgrq-sz avgqu-sz   await r_await w_await  svctm  %util
sda               0.00     0.00 17568.00    0.00 70272.00     0.00     8.00     2.41    0.14    0.14    0.00   0.04  67.70
sdb               0.00     0.00 17557.00    0.00 70228.00     0.00     8.00     2.44    0.14    0.14    0.00   0.04  67.50
sdc               0.00     0.00 17610.00    0.00 70440.00     0.00     8.00     2.66    0.15    0.15    0.00   0.04  70.80
sdd               0.00     0.00 17463.00    0.00 69852.00     0.00     8.00     2.54    0.15    0.15    0.00   0.04  71.40
sde               0.00     0.00 17759.00    0.00 71036.00     0.00     8.00     2.76    0.16    0.16    0.00   0.04  73.00
sdf               0.00     0.00 17442.00    0.00 69768.00     0.00     8.00     2.69    0.15    0.15    0.00   0.04  71.00
sdg               0.00     0.00    0.00    0.00     0.00     0.00     0.00     0.00    0.00    0.00    0.00   0.00   0.00
sdh               0.00     0.00    0.00    0.00     0.00     0.00     0.00     0.00    0.00    0.00    0.00   0.00   0.00
md0               0.00     0.00 105399.00    0.00 421596.00     0.00     8.00     0.00    0.00    0.00    0.00   0.00   0.00

avg-cpu:  %user   %nice %system %iowait  %steal   %idle
           1.98    0.00   32.18    2.23    0.00   63.61

Device:         rrqm/s   wrqm/s     r/s     w/s    rkB/s    wkB/s avgrq-sz avgqu-sz   await r_await w_await  svctm  %util
sda               0.00     0.00 17487.00    0.00 69948.00     0.00     8.00     2.39    0.14    0.14    0.00   0.04  68.60
sdb               0.00     0.00 17464.00    0.00 69856.00     0.00     8.00     2.44    0.14    0.14    0.00   0.04  67.90
sdc               0.00     0.00 17277.00    0.00 69108.00     0.00     8.00     2.61    0.15    0.15    0.00   0.04  75.20
sdd               0.00     0.00 17675.00    0.00 70700.00     0.00     8.00     2.69    0.15    0.15    0.00   0.04  73.30
sde               0.00     0.00 17752.00    0.00 71008.00     0.00     8.00     2.62    0.15    0.15    0.00   0.04  72.90
sdf               0.00     0.00 17502.00    0.00 70008.00     0.00     8.00     2.63    0.15    0.15    0.00   0.04  73.60
sdg               0.00     0.00    0.00    0.00     0.00     0.00     0.00     0.00    0.00    0.00    0.00   0.00   0.00
sdh               0.00     0.00    0.00    0.00     0.00     0.00     0.00     0.00    0.00    0.00    0.00   0.00   0.00
md0               0.00     0.00 105153.00    0.00 420612.00     0.00     8.00     0.00    0.00    0.00    0.00   0.00   0.00

avg-cpu:  %user   %nice %system %iowait  %steal   %idle
           1.47    0.25   32.68    2.70    0.00   62.90

Device:         rrqm/s   wrqm/s     r/s     w/s    rkB/s    wkB/s avgrq-sz avgqu-sz   await r_await w_await  svctm  %util
sda               0.00     0.00 16727.00    0.00 66908.00     0.00     8.00     2.25    0.13    0.13    0.00   0.04  65.70
sdb               0.00     0.00 16700.00    0.00 66800.00     0.00     8.00     2.28    0.14    0.14    0.00   0.04  65.30
sdc               0.00     0.00 16631.00    0.00 66524.00     0.00     8.00     2.38    0.14    0.14    0.00   0.04  69.80
sdd               0.00     0.00 16688.00    0.00 66752.00     0.00     8.00     2.46    0.15    0.15    0.00   0.04  71.40
sde               0.00     0.00 16737.00    0.00 66948.00     0.00     8.00     2.40    0.14    0.14    0.00   0.04  69.80
sdf               0.00     0.00 16709.00    0.00 66836.00     0.00     8.00     2.44    0.15    0.15    0.00   0.04  71.50
sdg               0.00     0.00   17.00    0.00   116.00     0.00    13.65     0.00    0.06    0.06    0.00   0.06   0.10
sdh               0.00     0.00    0.00    0.00     0.00     0.00     0.00     0.00    0.00    0.00    0.00   0.00   0.00
md0               0.00     0.00 100192.00    0.00 400768.00     0.00     8.00     0.00    0.00    0.00    0.00   0.00   0.00

avg-cpu:  %user   %nice %system %iowait  %steal   %idle
           1.76    0.00   30.65    2.26    0.00   65.33

Device:         rrqm/s   wrqm/s     r/s     w/s    rkB/s    wkB/s avgrq-sz avgqu-sz   await r_await w_await  svctm  %util
sda               0.00     0.00 17092.00    0.00 68368.00     0.00     8.00     2.35    0.14    0.14    0.00   0.04  67.80
sdb               0.00     0.00 17226.00    0.00 68904.00     0.00     8.00     2.28    0.13    0.13    0.00   0.04  66.50
sdc               0.00     0.00 16978.00    0.00 67912.00     0.00     8.00     2.50    0.15    0.15    0.00   0.04  72.30
sdd               0.00     0.00 17231.00    0.00 68924.00     0.00     8.00     2.51    0.15    0.15    0.00   0.04  73.10
sde               0.00     0.00 16926.00    0.00 67704.00     0.00     8.00     2.50    0.15    0.15    0.00   0.04  72.90
sdf               0.00     0.00 17091.00    0.00 68364.00     0.00     8.00     2.52    0.15    0.15    0.00   0.04  70.90
sdg               0.00     0.00    0.00    0.00     0.00     0.00     0.00     0.00    0.00    0.00    0.00   0.00   0.00
sdh               0.00     0.00    0.00    0.00     0.00     0.00     0.00     0.00    0.00    0.00    0.00   0.00   0.00
md0               0.00     0.00 102541.00    0.00 410164.00     0.00     8.00     0.00    0.00    0.00    0.00   0.00   0.00

avg-cpu:  %user   %nice %system %iowait  %steal   %idle
           2.26    0.00   30.08    3.01    0.00   64.66

Device:         rrqm/s   wrqm/s     r/s     w/s    rkB/s    wkB/s avgrq-sz avgqu-sz   await r_await w_await  svctm  %util
sda               0.00     0.00 16055.00    0.00 64220.00     0.00     8.00     2.14    0.13    0.13    0.00   0.04  65.60
sdb               0.00     0.00 15800.00    0.00 63204.00     0.00     8.00     2.06    0.13    0.13    0.00   0.04  64.00
sdc               0.00     0.00 16022.00    0.00 64088.00     0.00     8.00     2.37    0.15    0.15    0.00   0.04  69.90
sdd               0.00     0.00 15991.00    0.00 63964.00     0.00     8.00     2.24    0.14    0.14    0.00   0.04  68.40
sde               0.00     0.00 15802.00    0.00 63208.00     0.00     8.00     2.23    0.14    0.14    0.00   0.04  66.80
sdf               0.00     0.00 16038.00    0.00 64152.00     0.00     8.00     2.37    0.15    0.15    0.00   0.04  70.40
sdg               0.00     0.00    0.00    0.00     0.00     0.00     0.00     0.00    0.00    0.00    0.00   0.00   0.00
sdh               0.00     0.00    0.00    0.00     0.00     0.00     0.00     0.00    0.00    0.00    0.00   0.00   0.00
md0               0.00     0.00 95697.00    0.00 382788.00     0.00     8.00     0.00    0.00    0.00    0.00   0.00   0.00

avg-cpu:  %user   %nice %system %iowait  %steal   %idle
           2.27    0.00   29.97    2.77    0.00   64.99

Device:         rrqm/s   wrqm/s     r/s     w/s    rkB/s    wkB/s avgrq-sz avgqu-sz   await r_await w_await  svctm  %util
sda               0.00     0.00 15763.00    0.00 63052.00     0.00     8.00     2.18    0.14    0.14    0.00   0.04  67.50
sdb               0.00     0.00 15926.00    0.00 63704.00     0.00     8.00     2.13    0.13    0.13    0.00   0.04  64.20
sdc               0.00     0.00 15985.00    0.00 63940.00     0.00     8.00     2.36    0.15    0.15    0.00   0.04  71.40
sdd               0.00     0.00 15761.00    0.00 63044.00     0.00     8.00     2.31    0.15    0.15    0.00   0.05  72.20
sde               0.00     0.00 15871.00    0.00 63484.00     0.00     8.00     2.31    0.15    0.15    0.00   0.04  70.00
sdf               0.00     0.00 16110.00    0.00 64440.00     0.00     8.00     2.38    0.15    0.15    0.00   0.04  72.20
sdg               0.00     0.00    0.00    0.00     0.00     0.00     0.00     0.00    0.00    0.00    0.00   0.00   0.00
sdh               0.00     0.00    0.00    0.00     0.00     0.00     0.00     0.00    0.00    0.00    0.00   0.00   0.00
md0               0.00     0.00 95433.00    0.00 381732.00     0.00     8.00     0.00    0.00    0.00    0.00   0.00   0.00

avg-cpu:  %user   %nice %system %iowait  %steal   %idle
           1.77    0.00   29.62    2.03    0.00   66.58

Device:         rrqm/s   wrqm/s     r/s     w/s    rkB/s    wkB/s avgrq-sz avgqu-sz   await r_await w_await  svctm  %util
sda               0.00     0.00 15895.00    0.00 63580.00     0.00     8.00     2.12    0.13    0.13    0.00   0.04  65.10
sdb               0.00     0.00 16087.00    0.00 64344.00     0.00     8.00     2.10    0.13    0.13    0.00   0.04  65.30
sdc               0.00     0.00 16161.00    0.00 64644.00     0.00     8.00     2.31    0.14    0.14    0.00   0.04  70.40
sdd               0.00     0.00 16308.00    0.00 65232.00     0.00     8.00     2.38    0.15    0.15    0.00   0.04  70.20
sde               0.00     0.00 16230.00    0.00 64920.00     0.00     8.00     2.26    0.14    0.14    0.00   0.04  68.90
sdf               0.00     0.00 16060.00    0.00 64240.00     0.00     8.00     2.26    0.14    0.14    0.00   0.04  69.90
sdg               0.00     3.00    5.00    4.00    20.00    52.00    16.00     0.00    0.00    0.00    0.00   0.00   0.00
sdh               0.00     0.00    0.00    0.00     0.00     0.00     0.00     0.00    0.00    0.00    0.00   0.00   0.00
md0               0.00     0.00 96738.00    0.00 386952.00     0.00     8.00     0.00    0.00    0.00    0.00   0.00   0.00

avg-cpu:  %user   %nice %system %iowait  %steal   %idle
           2.01    0.00   29.32    2.26    0.00   66.42

Device:         rrqm/s   wrqm/s     r/s     w/s    rkB/s    wkB/s avgrq-sz avgqu-sz   await r_await w_await  svctm  %util
sda               0.00     0.00 15781.00    0.00 63124.00     0.00     8.00     2.02    0.13    0.13    0.00   0.04  66.00
sdb               0.00     0.00 15710.00    0.00 62840.00     0.00     8.00     2.03    0.13    0.13    0.00   0.04  68.30
sdc               0.00     0.00 15924.00    0.00 63696.00     0.00     8.00     2.29    0.14    0.14    0.00   0.04  71.10
sdd               0.00     0.00 15753.00    0.00 63012.00     0.00     8.00     2.20    0.14    0.14    0.00   0.05  71.00
sde               0.00     0.00 15763.00    0.00 63052.00     0.00     8.00     2.24    0.14    0.14    0.00   0.05  71.60
sdf               0.00     0.00 15723.00    0.00 62892.00     0.00     8.00     2.39    0.15    0.15    0.00   0.05  73.00
sdg               0.00     0.00    0.00    0.00     0.00     0.00     0.00     0.00    0.00    0.00    0.00   0.00   0.00
sdh               0.00     0.00    0.00    0.00     0.00     0.00     0.00     0.00    0.00    0.00    0.00   0.00   0.00
md0               0.00     0.00 94653.00    0.00 378612.00     0.00     8.00     0.00    0.00    0.00    0.00   0.00   0.00

avg-cpu:  %user   %nice %system %iowait  %steal   %idle
           2.26    0.00   28.57    2.51    0.00   66.67

Device:         rrqm/s   wrqm/s     r/s     w/s    rkB/s    wkB/s avgrq-sz avgqu-sz   await r_await w_await  svctm  %util
sda               0.00     0.00 15497.00    0.00 61988.00     0.00     8.00     1.97    0.13    0.13    0.00   0.04  65.10
sdb               0.00     0.00 15749.00    0.00 62996.00     0.00     8.00     2.03    0.13    0.13    0.00   0.04  65.60
sdc               0.00     0.00 15549.00    0.00 62196.00     0.00     8.00     2.13    0.14    0.14    0.00   0.05  70.50
sdd               0.00     0.00 15611.00    0.00 62444.00     0.00     8.00     2.24    0.14    0.14    0.00   0.05  71.80
sde               0.00     0.00 15505.00    0.00 62020.00     0.00     8.00     2.21    0.14    0.14    0.00   0.05  71.00
sdf               0.00     0.00 15408.00    0.00 61632.00     0.00     8.00     2.09    0.14    0.14    0.00   0.05  70.20
sdg               0.00     0.00    0.00    0.00     0.00     0.00     0.00     0.00    0.00    0.00    0.00   0.00   0.00
sdh               0.00     0.00    0.00    0.00     0.00     0.00     0.00     0.00    0.00    0.00    0.00   0.00   0.00
md0               0.00     0.00 93319.00    0.00 373276.00     0.00     8.00     0.00    0.00    0.00    0.00   0.00   0.00

avg-cpu:  %user   %nice %system %iowait  %steal   %idle
           1.77    0.00   28.35    2.28    0.00   67.59

Device:         rrqm/s   wrqm/s     r/s     w/s    rkB/s    wkB/s avgrq-sz avgqu-sz   await r_await w_await  svctm  %util
sda               0.00     0.00 15197.00    0.00 60788.00     0.00     8.00     2.02    0.13    0.13    0.00   0.04  65.80
sdb               0.00     0.00 15182.00    0.00 60728.00     0.00     8.00     1.96    0.13    0.13    0.00   0.04  65.10
sdc               0.00     0.00 15020.00    0.00 60080.00     0.00     8.00     2.05    0.14    0.14    0.00   0.05  67.90
sdd               0.00     0.00 15211.00    0.00 60844.00     0.00     8.00     2.06    0.14    0.14    0.00   0.05  70.10
sde               0.00     0.00 15267.00    0.00 61068.00     0.00     8.00     2.13    0.14    0.14    0.00   0.05  70.70
sdf               0.00     0.00 15233.00    0.00 60932.00     0.00     8.00     2.15    0.14    0.14    0.00   0.05  69.00
sdg               0.00     0.00    0.00    0.00     0.00     0.00     0.00     0.00    0.00    0.00    0.00   0.00   0.00
sdh               0.00     0.00    0.00    0.00     0.00     0.00     0.00     0.00    0.00    0.00    0.00   0.00   0.00
md0               0.00     0.00 91106.00    0.00 364424.00     0.00     8.00     0.00    0.00    0.00    0.00   0.00   0.00

avg-cpu:  %user   %nice %system %iowait  %steal   %idle
           1.76    0.00   28.46    2.27    0.00   67.51

Device:         rrqm/s   wrqm/s     r/s     w/s    rkB/s    wkB/s avgrq-sz avgqu-sz   await r_await w_await  svctm  %util
sda               0.00     0.00 14961.00    0.00 59844.00     0.00     8.00     1.85    0.12    0.12    0.00   0.04  63.40
sdb               0.00     0.00 14824.00    0.00 59296.00     0.00     8.00     1.79    0.12    0.12    0.00   0.04  59.80
sdc               0.00     0.00 14941.00    0.00 59764.00     0.00     8.00     1.94    0.13    0.13    0.00   0.04  67.10
sdd               0.00     0.00 14740.00    0.00 58960.00     0.00     8.00     1.94    0.13    0.13    0.00   0.05  67.50
sde               0.00     0.00 14676.00    0.00 58704.00     0.00     8.00     1.96    0.13    0.13    0.00   0.05  68.50
sdf               0.00     0.00 14995.00    0.00 59980.00     0.00     8.00     2.04    0.14    0.14    0.00   0.05  69.10
sdg               0.00     0.00    0.00    0.00     0.00     0.00     0.00     0.00    0.00    0.00    0.00   0.00   0.00
sdh               0.00     0.00    0.00    0.00     0.00     0.00     0.00     0.00    0.00    0.00    0.00   0.00   0.00
md0               0.00     0.00 89134.00    0.00 356536.00     0.00     8.00     0.00    0.00    0.00    0.00   0.00   0.00

avg-cpu:  %user   %nice %system %iowait  %steal   %idle
           1.79    0.00   27.55    3.57    0.00   67.09

Device:         rrqm/s   wrqm/s     r/s     w/s    rkB/s    wkB/s avgrq-sz avgqu-sz   await r_await w_await  svctm  %util
sda               0.00     0.00 14390.00    0.00 57560.00     0.00     8.00     1.77    0.12    0.12    0.00   0.04  63.50
sdb               0.00     0.00 14515.00    0.00 58060.00     0.00     8.00     1.74    0.12    0.12    0.00   0.04  64.10
sdc               0.00     0.00 14357.00    0.00 57428.00     0.00     8.00     2.00    0.14    0.14    0.00   0.05  68.10
sdd               0.00     0.00 14374.00    0.00 57496.00     0.00     8.00     1.91    0.13    0.13    0.00   0.05  67.90
sde               0.00     0.00 14345.00    0.00 57380.00     0.00     8.00     1.99    0.14    0.14    0.00   0.05  69.50
sdf               0.00     0.00 14714.00    0.00 58856.00     0.00     8.00     2.07    0.14    0.14    0.00   0.05  69.80
sdg               0.00    78.00    0.00 1413.00     0.00  7404.00    10.48     8.27    5.85    0.00    5.85   0.04   6.20
sdh               0.00     0.00    0.00    0.00     0.00     0.00     0.00     0.00    0.00    0.00    0.00   0.00   0.00
md0               0.00     0.00 86698.00    0.00 346792.00     0.00     8.00     0.00    0.00    0.00    0.00   0.00   0.00

avg-cpu:  %user   %nice %system %iowait  %steal   %idle
           2.03    0.25   28.17    4.06    0.00   65.48

Device:         rrqm/s   wrqm/s     r/s     w/s    rkB/s    wkB/s avgrq-sz avgqu-sz   await r_await w_await  svctm  %util
sda               0.00     0.00 14115.00    0.00 56460.00     0.00     8.00     1.82    0.13    0.13    0.00   0.05  64.50
sdb               0.00     0.00 13985.00    0.00 55940.00     0.00     8.00     1.78    0.13    0.13    0.00   0.05  64.00
sdc               0.00     0.00 13921.00    0.00 55684.00     0.00     8.00     1.90    0.14    0.14    0.00   0.05  68.70
sdd               0.00     0.00 13979.00    0.00 55916.00     0.00     8.00     1.92    0.14    0.14    0.00   0.05  67.70
sde               0.00     0.00 14090.00    0.00 56360.00     0.00     8.00     1.95    0.14    0.14    0.00   0.05  69.60
sdf               0.00     0.00 14017.00    0.00 56068.00     0.00     8.00     1.86    0.13    0.13    0.00   0.05  68.40
sdg               0.00     0.00 1333.00    0.00  5332.00     0.00     8.00     0.15    0.11    0.11    0.00   0.11  15.00
sdh               0.00     0.00    0.00    0.00     0.00     0.00     0.00     0.00    0.00    0.00    0.00   0.00   0.00
md0               0.00     0.00 84108.00    0.00 336432.00     0.00     8.00     0.00    0.00    0.00    0.00   0.00   0.00

avg-cpu:  %user   %nice %system %iowait  %steal   %idle
           2.01    0.00   27.82    2.51    0.00   67.67

Device:         rrqm/s   wrqm/s     r/s     w/s    rkB/s    wkB/s avgrq-sz avgqu-sz   await r_await w_await  svctm  %util
sda               0.00     0.00 13655.00    0.00 54620.00     0.00     8.00     1.71    0.13    0.13    0.00   0.05  64.40
sdb               0.00     0.00 13772.00    0.00 55088.00     0.00     8.00     1.74    0.13    0.13    0.00   0.05  63.90
sdc               0.00     0.00 13697.00    0.00 54788.00     0.00     8.00     1.82    0.13    0.13    0.00   0.05  68.20
sdd               0.00     0.00 13752.00    0.00 55008.00     0.00     8.00     1.87    0.14    0.14    0.00   0.05  69.50
sde               0.00     0.00 13641.00    0.00 54564.00     0.00     8.00     1.89    0.14    0.14    0.00   0.05  68.70
sdf               0.00     0.00 13704.00    0.00 54816.00     0.00     8.00     1.87    0.14    0.14    0.00   0.05  69.00
sdg               0.00     0.00    0.00    0.00     0.00     0.00     0.00     0.00    0.00    0.00    0.00   0.00   0.00
sdh               0.00     0.00    0.00    0.00     0.00     0.00     0.00     0.00    0.00    0.00    0.00   0.00   0.00
md0               0.00     0.00 82220.00    0.00 328880.00     0.00     8.00     0.00    0.00    0.00    0.00   0.00   0.00

avg-cpu:  %user   %nice %system %iowait  %steal   %idle
           2.51    0.00   27.39    2.76    0.00   67.34

Device:         rrqm/s   wrqm/s     r/s     w/s    rkB/s    wkB/s avgrq-sz avgqu-sz   await r_await w_await  svctm  %util
sda               0.00     0.00 13153.00    0.00 52612.00     0.00     8.00     1.62    0.12    0.12    0.00   0.05  61.20
sdb               0.00     0.00 13375.00    0.00 53500.00     0.00     8.00     1.69    0.13    0.13    0.00   0.05  61.80
sdc               0.00     0.00 13094.00    0.00 52376.00     0.00     8.00     1.76    0.13    0.13    0.00   0.05  64.70
sdd               0.00     0.00 13229.00    0.00 52916.00     0.00     8.00     1.73    0.13    0.13    0.00   0.05  66.40
sde               0.00     0.00 13135.00    0.00 52540.00     0.00     8.00     1.76    0.13    0.13    0.00   0.05  67.40
sdf               0.00     0.00 13157.00    0.00 52628.00     0.00     8.00     1.77    0.13    0.13    0.00   0.05  67.50
sdg               0.00     0.00    0.00    0.00     0.00     0.00     0.00     0.00    0.00    0.00    0.00   0.00   0.00
sdh               0.00     0.00    0.00    0.00     0.00     0.00     0.00     0.00    0.00    0.00    0.00   0.00   0.00
md0               0.00     0.00 79131.00    0.00 316524.00     0.00     8.00     0.00    0.00    0.00    0.00   0.00   0.00

avg-cpu:  %user   %nice %system %iowait  %steal   %idle
           2.49    0.00   28.93    3.24    0.00   65.34

Device:         rrqm/s   wrqm/s     r/s     w/s    rkB/s    wkB/s avgrq-sz avgqu-sz   await r_await w_await  svctm  %util
sda               0.00     0.00 12915.00    0.00 51660.00     0.00     8.00     1.65    0.13    0.13    0.00   0.05  61.40
sdb               0.00     0.00 12824.00    0.00 51296.00     0.00     8.00     1.56    0.12    0.12    0.00   0.05  61.30
sdc               0.00     0.00 12714.00    0.00 50856.00     0.00     8.00     1.70    0.13    0.13    0.00   0.05  65.30
sdd               0.00     0.00 12706.00    0.00 50824.00     0.00     8.00     1.72    0.14    0.14    0.00   0.05  66.30
sde               0.00     0.00 12678.00    0.00 50712.00     0.00     8.00     1.66    0.13    0.13    0.00   0.05  65.00
sdf               0.00     0.00 12542.00    0.00 50168.00     0.00     8.00     1.70    0.14    0.14    0.00   0.05  66.10
sdg               0.00     0.00   22.00    0.00   468.00     0.00    42.55     0.01    0.45    0.45    0.00   0.32   0.70
sdh               0.00     0.00    0.00    0.00     0.00     0.00     0.00     0.00    0.00    0.00    0.00   0.00   0.00
md0               0.00     0.00 76392.00    0.00 305568.00     0.00     8.00     0.00    0.00    0.00    0.00   0.00   0.00

avg-cpu:  %user   %nice %system %iowait  %steal   %idle
           2.03    0.00   27.66    3.05    0.00   67.26

Device:         rrqm/s   wrqm/s     r/s     w/s    rkB/s    wkB/s avgrq-sz avgqu-sz   await r_await w_await  svctm  %util
sda               0.00     0.00 12887.00    0.00 51548.00     0.00     8.00     1.60    0.12    0.12    0.00   0.05  61.00
sdb               0.00     0.00 12917.00    0.00 51668.00     0.00     8.00     1.56    0.12    0.12    0.00   0.05  60.90
sdc               0.00     0.00 12764.00    0.00 51056.00     0.00     8.00     1.73    0.14    0.14    0.00   0.05  64.50
sdd               0.00     0.00 13067.00    0.00 52268.00     0.00     8.00     1.73    0.13    0.13    0.00   0.05  64.80
sde               0.00     0.00 12774.00    0.00 51096.00     0.00     8.00     1.66    0.13    0.13    0.00   0.05  64.30
sdf               0.00     0.00 12922.00    0.00 51688.00     0.00     8.00     1.68    0.13    0.13    0.00   0.05  65.90
sdg               0.00     0.00    0.00    0.00     0.00     0.00     0.00     0.00    0.00    0.00    0.00   0.00   0.00
sdh               0.00     0.00    0.00    0.00     0.00     0.00     0.00     0.00    0.00    0.00    0.00   0.00   0.00
md0               0.00     0.00 77311.00    0.00 309244.00     0.00     8.00     0.00    0.00    0.00    0.00   0.00   0.00

