Linux 4.17.2 (bench) 	08/03/2018 	_x86_64_	(4 CPU)

avg-cpu:  %user   %nice %system %iowait  %steal   %idle
          10.28    0.02    4.05    2.54    0.00   83.11

Device:         rrqm/s   wrqm/s     r/s     w/s    rkB/s    wkB/s avgrq-sz avgqu-sz   await r_await w_await  svctm  %util
sda              44.30     4.24 1644.07  102.73 20867.28  3134.79    27.48     1.03    0.59    0.26    5.91   0.06  10.69
sdb              44.18     4.20 1643.98  102.86 20856.68  3131.45    27.46     1.03    0.59    0.26    5.85   0.06  10.56
sdc              82.13     4.26 1603.94  102.41 20848.81  3133.91    28.11     1.45    0.85    0.45    7.12   0.08  14.01
sdd              75.54     4.23 1609.70  102.48 20833.64  3130.10    27.99     1.46    0.85    0.44    7.32   0.08  14.11
sde              77.58     4.28 1614.78  102.58 20893.63  3134.36    27.98     1.48    0.86    0.44    7.43   0.08  14.13
sdf              74.69     4.25 1616.95  102.53 20874.83  3131.21    27.92     1.52    0.88    0.44    7.90   0.08  14.16
sdg               0.00     3.17   26.20   73.30   323.50   391.93    14.38     0.44    4.42    0.20    5.93   0.08   0.78
sdh               0.00     0.13    0.02    0.24     2.22     5.07    56.82     0.00    1.15    0.65    1.19   0.21   0.01
md0               0.00     0.00 10138.38  481.25 142904.61 21464.60    30.96     0.00    0.00    0.00    0.00   0.00   0.00

avg-cpu:  %user   %nice %system %iowait  %steal   %idle
           0.79    0.00    8.16    0.53    0.00   90.53

Device:         rrqm/s   wrqm/s     r/s     w/s    rkB/s    wkB/s avgrq-sz avgqu-sz   await r_await w_await  svctm  %util
sda               0.00     0.00 8957.00    0.00 35828.00     0.00     8.00     1.08    0.12    0.12    0.00   0.02  17.80
sdb               0.00     0.00 8913.00    0.00 35652.00     0.00     8.00     1.32    0.15    0.15    0.00   0.02  19.70
sdc               0.00     0.00 9111.00    0.00 36444.00     0.00     8.00     1.73    0.19    0.19    0.00   0.03  25.10
sdd               0.00     0.00 9080.00    0.00 36320.00     0.00     8.00     1.73    0.19    0.19    0.00   0.03  25.10
sde               0.00     0.00 8934.00    0.00 35736.00     0.00     8.00     1.70    0.19    0.19    0.00   0.03  25.90
sdf               0.00     0.00 9111.00    0.00 36444.00     0.00     8.00     1.69    0.19    0.19    0.00   0.03  25.30
sdg               0.00     0.00    3.00    0.00    88.00     0.00    58.67     0.00    0.33    0.33    0.00   0.33   0.10
sdh               0.00     0.00    0.00    0.00     0.00     0.00     0.00     0.00    0.00    0.00    0.00   0.00   0.00
md0               0.00     0.00 54123.00    0.00 216492.00     0.00     8.00     0.00    0.00    0.00    0.00   0.00   0.00

avg-cpu:  %user   %nice %system %iowait  %steal   %idle
           0.76    0.00   11.70    5.34    0.00   82.19

Device:         rrqm/s   wrqm/s     r/s     w/s    rkB/s    wkB/s avgrq-sz avgqu-sz   await r_await w_await  svctm  %util
sda               0.00     0.00 9015.00    0.00 36060.00     0.00     8.00     1.21    0.13    0.13    0.00   0.02  19.60
sdb               0.00     0.00 9305.00    0.00 37220.00     0.00     8.00     1.16    0.12    0.12    0.00   0.02  19.30
sdc               0.00     0.00 9365.00    0.00 37460.00     0.00     8.00     1.77    0.19    0.19    0.00   0.03  25.20
sdd               0.00     0.00 9107.00    0.00 36428.00     0.00     8.00     1.81    0.20    0.20    0.00   0.03  27.20
sde               0.00     0.00 9216.00    0.00 36864.00     0.00     8.00     1.82    0.20    0.20    0.00   0.03  26.00
sdf               0.00     0.00 9263.00    0.00 37052.00     0.00     8.00     1.84    0.20    0.20    0.00   0.03  25.10
sdg               0.00     7.00    9.00 1424.00    36.00  7416.00    10.40     8.53    5.95    1.00    5.99   0.05   6.60
sdh               0.00     0.00    0.00    0.00     0.00     0.00     0.00     0.00    0.00    0.00    0.00   0.00   0.00
md0               0.00     0.00 55276.00    0.00 221104.00     0.00     8.00     0.00    0.00    0.00    0.00   0.00   0.00

avg-cpu:  %user   %nice %system %iowait  %steal   %idle
           0.53    0.00    8.44    0.53    0.00   90.50

Device:         rrqm/s   wrqm/s     r/s     w/s    rkB/s    wkB/s avgrq-sz avgqu-sz   await r_await w_await  svctm  %util
sda               0.00     0.00 9604.00    0.00 38416.00     0.00     8.00     1.45    0.15    0.15    0.00   0.02  20.20
sdb               0.00     0.00 9202.00    0.00 36808.00     0.00     8.00     1.56    0.17    0.17    0.00   0.02  20.70
sdc               0.00     0.00 9413.00    0.00 37652.00     0.00     8.00     1.93    0.20    0.20    0.00   0.03  26.10
sdd               0.00     0.00 9462.00    0.00 37848.00     0.00     8.00     1.93    0.20    0.20    0.00   0.03  24.50
sde               0.00     0.00 9386.00    0.00 37544.00     0.00     8.00     1.63    0.17    0.17    0.00   0.03  23.90
sdf               0.00     0.00 9456.00    0.00 37824.00     0.00     8.00     2.07    0.22    0.22    0.00   0.03  25.70
sdg               0.00     0.00    0.00    0.00     0.00     0.00     0.00     0.00    0.00    0.00    0.00   0.00   0.00
sdh               0.00     0.00    0.00    0.00     0.00     0.00     0.00     0.00    0.00    0.00    0.00   0.00   0.00
md0               0.00     0.00 56524.00    0.00 226096.00     0.00     8.00     0.00    0.00    0.00    0.00   0.00   0.00

avg-cpu:  %user   %nice %system %iowait  %steal   %idle
           1.00    0.00   12.50    8.25    0.00   78.25

Device:         rrqm/s   wrqm/s     r/s     w/s    rkB/s    wkB/s avgrq-sz avgqu-sz   await r_await w_await  svctm  %util
sda               0.00     0.00 9427.00    0.00 37708.00     0.00     8.00     1.33    0.14    0.14    0.00   0.02  18.80
sdb               0.00     0.00 9542.00    0.00 38168.00     0.00     8.00     1.58    0.17    0.17    0.00   0.02  20.60
sdc               0.00     0.00 9720.00    0.00 38880.00     0.00     8.00     2.12    0.22    0.22    0.00   0.03  27.00
sdd               0.00     0.00 9718.00    0.00 38872.00     0.00     8.00     2.00    0.21    0.21    0.00   0.03  25.80
sde               0.00     0.00 9397.00    0.00 37588.00     0.00     8.00     1.93    0.21    0.21    0.00   0.03  26.40
sdf               0.00     0.00 9626.00    0.00 38504.00     0.00     8.00     1.93    0.20    0.20    0.00   0.03  24.60
sdg               0.00     0.00    0.00    0.00     0.00     0.00     0.00     0.00    0.00    0.00    0.00   0.00   0.00
sdh               0.00     0.00    0.00    0.00     0.00     0.00     0.00     0.00    0.00    0.00    0.00   0.00   0.00
md0               0.00     0.00 57411.00    0.00 229644.00     0.00     8.00     0.00    0.00    0.00    0.00   0.00   0.00

avg-cpu:  %user   %nice %system %iowait  %steal   %idle
           0.80    0.00    7.71    0.27    0.00   91.22

Device:         rrqm/s   wrqm/s     r/s     w/s    rkB/s    wkB/s avgrq-sz avgqu-sz   await r_await w_await  svctm  %util
sda               0.00     0.00 9339.00    0.00 37356.00     0.00     8.00     1.32    0.14    0.14    0.00   0.02  19.00
sdb               0.00     0.00 9435.00    0.00 37740.00     0.00     8.00     1.36    0.14    0.14    0.00   0.02  18.20
sdc               0.00     0.00 9334.00    0.00 37336.00     0.00     8.00     1.88    0.20    0.20    0.00   0.03  26.00
sdd               0.00     0.00 9328.00    0.00 37312.00     0.00     8.00     2.06    0.22    0.22    0.00   0.03  24.40
sde               0.00     0.00 9350.00    0.00 37400.00     0.00     8.00     1.94    0.21    0.21    0.00   0.03  24.30
sdf               0.00     0.00 9442.00    0.00 37768.00     0.00     8.00     2.16    0.23    0.23    0.00   0.03  26.00
sdg               0.00     0.00    0.00    0.00     0.00     0.00     0.00     0.00    0.00    0.00    0.00   0.00   0.00
sdh               0.00     0.00    0.00    0.00     0.00     0.00     0.00     0.00    0.00    0.00    0.00   0.00   0.00
md0               0.00     0.00 56238.00    0.00 224952.00     0.00     8.00     0.00    0.00    0.00    0.00   0.00   0.00

avg-cpu:  %user   %nice %system %iowait  %steal   %idle
           1.04    0.00    9.11    0.52    0.00   89.32

Device:         rrqm/s   wrqm/s     r/s     w/s    rkB/s    wkB/s avgrq-sz avgqu-sz   await r_await w_await  svctm  %util
sda               0.00     0.00 9551.00    0.00 38204.00     0.00     8.00     1.50    0.16    0.16    0.00   0.02  19.20
sdb               0.00     0.00 9512.00    0.00 38048.00     0.00     8.00     1.45    0.15    0.15    0.00   0.02  18.40
sdc               0.00     0.00 9385.00    0.00 37540.00     0.00     8.00     1.86    0.20    0.20    0.00   0.03  25.20
sdd               0.00     0.00 9291.00    0.00 37164.00     0.00     8.00     2.16    0.23    0.23    0.00   0.03  25.80
sde               0.00     0.00 9425.00    0.00 37700.00     0.00     8.00     1.80    0.19    0.19    0.00   0.03  24.20
sdf               0.00     0.00 9409.00    0.00 37636.00     0.00     8.00     2.14    0.23    0.23    0.00   0.03  27.00
sdg               0.00     0.00    0.00    0.00     0.00     0.00     0.00     0.00    0.00    0.00    0.00   0.00   0.00
sdh               0.00     0.00    0.00    0.00     0.00     0.00     0.00     0.00    0.00    0.00    0.00   0.00   0.00
md0               0.00     0.00 56578.00    0.00 226312.00     0.00     8.00     0.00    0.00    0.00    0.00   0.00   0.00

avg-cpu:  %user   %nice %system %iowait  %steal   %idle
           0.53    0.00    7.71    0.53    0.00   91.22

Device:         rrqm/s   wrqm/s     r/s     w/s    rkB/s    wkB/s avgrq-sz avgqu-sz   await r_await w_await  svctm  %util
sda               0.00     0.00 9252.00    0.00 37008.00     0.00     8.00     1.19    0.13    0.13    0.00   0.02  16.30
sdb               0.00     0.00 9354.00    0.00 37416.00     0.00     8.00     1.47    0.16    0.16    0.00   0.02  20.10
sdc               0.00     0.00 9592.00    0.00 38368.00     0.00     8.00     2.05    0.21    0.21    0.00   0.03  25.90
sdd               0.00     0.00 9356.00    0.00 37424.00     0.00     8.00     1.63    0.17    0.17    0.00   0.02  22.70
sde               0.00     0.00 9398.00    0.00 37592.00     0.00     8.00     2.02    0.22    0.22    0.00   0.03  25.80
sdf               0.00     0.00 9373.00    0.00 37492.00     0.00     8.00     2.01    0.21    0.21    0.00   0.03  25.40
sdg               0.00     0.00    0.00    0.00     0.00     0.00     0.00     0.00    0.00    0.00    0.00   0.00   0.00
sdh               0.00     0.00    0.00    0.00     0.00     0.00     0.00     0.00    0.00    0.00    0.00   0.00   0.00
md0               0.00     0.00 56329.00    0.00 225316.00     0.00     8.00     0.00    0.00    0.00    0.00   0.00   0.00

avg-cpu:  %user   %nice %system %iowait  %steal   %idle
           0.80    0.00    7.71    0.53    0.00   90.96

Device:         rrqm/s   wrqm/s     r/s     w/s    rkB/s    wkB/s avgrq-sz avgqu-sz   await r_await w_await  svctm  %util
sda               0.00     0.00 9315.00    0.00 37260.00     0.00     8.00     1.23    0.13    0.13    0.00   0.02  18.10
sdb               0.00     0.00 9134.00    0.00 36536.00     0.00     8.00     1.60    0.18    0.18    0.00   0.02  18.30
sdc               0.00     0.00 9499.00    0.00 37996.00     0.00     8.00     2.01    0.21    0.21    0.00   0.03  27.20
sdd               0.00     0.00 9337.00    0.00 37348.00     0.00     8.00     1.88    0.20    0.20    0.00   0.03  24.20
sde               0.00     0.00 9345.00    0.00 37380.00     0.00     8.00     1.83    0.20    0.20    0.00   0.03  24.10
sdf               0.00     0.00 9584.00    0.00 38336.00     0.00     8.00     2.17    0.23    0.23    0.00   0.03  25.90
sdg               0.00     0.00    0.00    0.00     0.00     0.00     0.00     0.00    0.00    0.00    0.00   0.00   0.00
sdh               0.00     0.00    0.00    0.00     0.00     0.00     0.00     0.00    0.00    0.00    0.00   0.00   0.00
md0               0.00     0.00 56201.00    0.00 224804.00     0.00     8.00     0.00    0.00    0.00    0.00   0.00   0.00

avg-cpu:  %user   %nice %system %iowait  %steal   %idle
           0.53    0.00    8.95    1.05    0.00   89.47

Device:         rrqm/s   wrqm/s     r/s     w/s    rkB/s    wkB/s avgrq-sz avgqu-sz   await r_await w_await  svctm  %util
sda               0.00     0.00 9443.00    0.00 37772.00     0.00     8.00     1.60    0.17    0.17    0.00   0.02  20.40
sdb               0.00     0.00 9191.00    0.00 36764.00     0.00     8.00     1.30    0.14    0.14    0.00   0.02  17.70
sdc               0.00     0.00 9322.00    0.00 37288.00     0.00     8.00     1.98    0.21    0.21    0.00   0.03  25.10
sdd               0.00     0.00 9429.00    0.00 37716.00     0.00     8.00     1.96    0.21    0.21    0.00   0.03  25.00
sde               0.00     0.00 9422.00    0.00 37688.00     0.00     8.00     1.83    0.19    0.19    0.00   0.03  23.60
sdf               0.00     0.00 9516.00    0.00 38064.00     0.00     8.00     1.79    0.19    0.19    0.00   0.03  24.80
sdg               0.00     0.00    4.00    0.00    16.00     0.00     8.00     0.00    0.00    0.00    0.00   0.00   0.00
sdh               0.00     0.00    0.00    0.00     0.00     0.00     0.00     0.00    0.00    0.00    0.00   0.00   0.00
md0               0.00     0.00 56336.00    0.00 225344.00     0.00     8.00     0.00    0.00    0.00    0.00   0.00   0.00

avg-cpu:  %user   %nice %system %iowait  %steal   %idle
           0.79    0.00    8.66    0.52    0.00   90.03

Device:         rrqm/s   wrqm/s     r/s     w/s    rkB/s    wkB/s avgrq-sz avgqu-sz   await r_await w_await  svctm  %util
sda               0.00     0.00 9403.00    0.00 37612.00     0.00     8.00     1.31    0.14    0.14    0.00   0.02  19.10
sdb               0.00     0.00 9304.00    0.00 37216.00     0.00     8.00     1.60    0.17    0.17    0.00   0.02  21.00
sdc               0.00     0.00 9460.00    0.00 37840.00     0.00     8.00     1.73    0.18    0.18    0.00   0.02  22.60
sdd               0.00     0.00 9239.00    0.00 36956.00     0.00     8.00     1.96    0.21    0.21    0.00   0.03  25.60
sde               0.00     0.00 9483.00    0.00 37932.00     0.00     8.00     2.02    0.21    0.21    0.00   0.03  25.30
sdf               0.00     0.00 9361.00    0.00 37444.00     0.00     8.00     1.89    0.20    0.20    0.00   0.03  24.30
sdg               0.00     0.00    0.00    0.00     0.00     0.00     0.00     0.00    0.00    0.00    0.00   0.00   0.00
sdh               0.00     0.00    0.00    0.00     0.00     0.00     0.00     0.00    0.00    0.00    0.00   0.00   0.00
md0               0.00     0.00 56251.00    0.00 225004.00     0.00     8.00     0.00    0.00    0.00    0.00   0.00   0.00

avg-cpu:  %user   %nice %system %iowait  %steal   %idle
           1.05    0.00    8.16    0.53    0.00   90.26

Device:         rrqm/s   wrqm/s     r/s     w/s    rkB/s    wkB/s avgrq-sz avgqu-sz   await r_await w_await  svctm  %util
sda               0.00     0.00 9199.00    0.00 36796.00     0.00     8.00     1.17    0.13    0.13    0.00   0.02  20.70
sdb               0.00     0.00 9049.00    0.00 36196.00     0.00     8.00     1.19    0.13    0.13    0.00   0.02  18.80
sdc               0.00     0.00 8786.00    0.00 35144.00     0.00     8.00     1.63    0.19    0.19    0.00   0.03  24.30
sdd               0.00     0.00 8857.00    0.00 35428.00     0.00     8.00     1.74    0.20    0.20    0.00   0.03  23.80
sde               0.00     0.00 9110.00    0.00 36440.00     0.00     8.00     1.72    0.19    0.19    0.00   0.03  24.50
sdf               0.00     0.00 8975.00    0.00 35900.00     0.00     8.00     1.83    0.20    0.20    0.00   0.03  26.10
sdg               0.00     0.00    0.00    0.00     0.00     0.00     0.00     0.00    0.00    0.00    0.00   0.00   0.00
sdh               0.00     0.00    0.00    0.00     0.00     0.00     0.00     0.00    0.00    0.00    0.00   0.00   0.00
md0               0.00     0.00 53965.00    0.00 215860.00     0.00     8.00     0.00    0.00    0.00    0.00   0.00   0.00

avg-cpu:  %user   %nice %system %iowait  %steal   %idle
           0.79    0.00    8.42    0.26    0.00   90.53

Device:         rrqm/s   wrqm/s     r/s     w/s    rkB/s    wkB/s avgrq-sz avgqu-sz   await r_await w_await  svctm  %util
sda               0.00     0.00 8630.00    0.00 34520.00     0.00     8.00     1.30    0.15    0.15    0.00   0.02  20.90
sdb               0.00     0.00 8365.00    0.00 33460.00     0.00     8.00     1.16    0.14    0.14    0.00   0.02  20.60
sdc               0.00     0.00 8717.00    0.00 34868.00     0.00     8.00     1.58    0.18    0.18    0.00   0.03  26.20
sdd               0.00     0.00 8683.00    0.00 34732.00     0.00     8.00     1.54    0.18    0.18    0.00   0.03  25.40
sde               0.00     0.00 8712.00    0.00 34848.00     0.00     8.00     1.62    0.19    0.19    0.00   0.03  25.80
sdf               0.00     0.00 8394.00    0.00 33576.00     0.00     8.00     1.47    0.17    0.17    0.00   0.03  24.80
sdg               0.00     0.00    0.00    0.00     0.00     0.00     0.00     0.00    0.00    0.00    0.00   0.00   0.00
sdh               0.00     0.00    0.00    0.00     0.00     0.00     0.00     0.00    0.00    0.00    0.00   0.00   0.00
md0               0.00     0.00 51502.00    0.00 206008.00     0.00     8.00     0.00    0.00    0.00    0.00   0.00   0.00

avg-cpu:  %user   %nice %system %iowait  %steal   %idle
           0.79    0.00    8.42    0.53    0.00   90.26

Device:         rrqm/s   wrqm/s     r/s     w/s    rkB/s    wkB/s avgrq-sz avgqu-sz   await r_await w_await  svctm  %util
sda               0.00     0.00 8920.00    0.00 35680.00     0.00     8.00     1.30    0.15    0.15    0.00   0.02  18.60
sdb               0.00     0.00 9193.00    0.00 36772.00     0.00     8.00     1.43    0.16    0.16    0.00   0.02  22.00
sdc               0.00     0.00 8968.00    0.00 35872.00     0.00     8.00     1.80    0.20    0.20    0.00   0.03  25.20
sdd               0.00     0.00 8959.00    0.00 35836.00     0.00     8.00     1.59    0.18    0.18    0.00   0.03  25.20
sde               0.00     0.00 8951.00    0.00 35804.00     0.00     8.00     1.83    0.20    0.20    0.00   0.03  27.00
sdf               0.00     0.00 9018.00    0.00 36072.00     0.00     8.00     1.53    0.17    0.17    0.00   0.03  22.90
sdg               0.00     0.00    0.00    0.00     0.00     0.00     0.00     0.00    0.00    0.00    0.00   0.00   0.00
sdh               0.00     0.00    0.00    0.00     0.00     0.00     0.00     0.00    0.00    0.00    0.00   0.00   0.00
md0               0.00     0.00 54014.00    0.00 216056.00     0.00     8.00     0.00    0.00    0.00    0.00   0.00   0.00

avg-cpu:  %user   %nice %system %iowait  %steal   %idle
           1.02    0.00   11.17    4.31    0.00   83.50

Device:         rrqm/s   wrqm/s     r/s     w/s    rkB/s    wkB/s avgrq-sz avgqu-sz   await r_await w_await  svctm  %util
sda               0.00     0.00 9196.00    0.00 36784.00     0.00     8.00     1.46    0.16    0.16    0.00   0.02  21.80
sdb               0.00     0.00 9387.00    0.00 37548.00     0.00     8.00     1.36    0.15    0.15    0.00   0.02  22.00
sdc               0.00     0.00 9061.00    0.00 36244.00     0.00     8.00     1.75    0.19    0.19    0.00   0.03  25.30
sdd               0.00     0.00 9191.00    0.00 36764.00     0.00     8.00     1.65    0.18    0.18    0.00   0.03  25.10
sde               0.00     0.00 9078.00    0.00 36312.00     0.00     8.00     1.82    0.20    0.20    0.00   0.03  26.60
sdf               0.00     0.00 9470.00    0.00 37880.00     0.00     8.00     1.75    0.19    0.19    0.00   0.03  25.90
sdg               0.00     0.00    0.00    0.00     0.00     0.00     0.00     0.00    0.00    0.00    0.00   0.00   0.00
sdh               0.00     0.00    0.00    0.00     0.00     0.00     0.00     0.00    0.00    0.00    0.00   0.00   0.00
md0               0.00     0.00 55383.00    0.00 221532.00     0.00     8.00     0.00    0.00    0.00    0.00   0.00   0.00

avg-cpu:  %user   %nice %system %iowait  %steal   %idle
           0.75    0.00   11.56    0.50    0.00   87.19

Device:         rrqm/s   wrqm/s     r/s     w/s    rkB/s    wkB/s avgrq-sz avgqu-sz   await r_await w_await  svctm  %util
sda               0.00     0.00 9674.00    0.00 38696.00     0.00     8.00     1.49    0.15    0.15    0.00   0.02  21.70
sdb               0.00     0.00 9824.00    0.00 39296.00     0.00     8.00     1.50    0.15    0.15    0.00   0.02  21.80
sdc               0.00     0.00 9756.00    0.00 39024.00     0.00     8.00     1.91    0.20    0.20    0.00   0.03  27.40
sdd               0.00     0.00 9839.00    0.00 39356.00     0.00     8.00     1.73    0.18    0.18    0.00   0.03  26.00
sde               0.00     0.00 9802.00    0.00 39208.00     0.00     8.00     1.79    0.18    0.18    0.00   0.03  25.70
sdf               0.00     0.00 9862.00    0.00 39448.00     0.00     8.00     1.75    0.18    0.18    0.00   0.03  26.00
sdg               0.00     0.00    0.00    0.00     0.00     0.00     0.00     0.00    0.00    0.00    0.00   0.00   0.00
sdh               0.00     0.00    0.00    0.00     0.00     0.00     0.00     0.00    0.00    0.00    0.00   0.00   0.00
md0               0.00     0.00 58754.00    0.00 235016.00     0.00     8.00     0.00    0.00    0.00    0.00   0.00   0.00

avg-cpu:  %user   %nice %system %iowait  %steal   %idle
           1.03    0.00    9.56    2.84    0.00   86.56

Device:         rrqm/s   wrqm/s     r/s     w/s    rkB/s    wkB/s avgrq-sz avgqu-sz   await r_await w_await  svctm  %util
sda               0.00     0.00 9213.00    0.00 36852.00     0.00     8.00     1.37    0.15    0.15    0.00   0.02  21.50
sdb               0.00     0.00 9411.00    0.00 37644.00     0.00     8.00     1.30    0.14    0.14    0.00   0.02  20.00
sdc               0.00     0.00 9194.00    0.00 36776.00     0.00     8.00     1.81    0.20    0.20    0.00   0.03  25.80
sdd               0.00     0.00 9183.00    0.00 36732.00     0.00     8.00     1.79    0.19    0.19    0.00   0.03  24.60
sde               0.00     0.00 9251.00    0.00 37004.00     0.00     8.00     1.67    0.18    0.18    0.00   0.03  24.50
sdf               0.00     0.00 9089.00    0.00 36356.00     0.00     8.00     1.86    0.21    0.21    0.00   0.03  26.50
sdg               0.00     0.00    0.00    7.00     0.00   140.00    40.00     0.00    0.57    0.00    0.57   0.14   0.10
sdh               0.00     0.00    0.00    0.00     0.00     0.00     0.00     0.00    0.00    0.00    0.00   0.00   0.00
md0               0.00     0.00 55335.00    0.00 221340.00     0.00     8.00     0.00    0.00    0.00    0.00   0.00   0.00

avg-cpu:  %user   %nice %system %iowait  %steal   %idle
           1.04    0.00    8.85    0.52    0.00   89.58

Device:         rrqm/s   wrqm/s     r/s     w/s    rkB/s    wkB/s avgrq-sz avgqu-sz   await r_await w_await  svctm  %util
sda               0.00     0.00 9086.00    0.00 36344.00     0.00     8.00     1.34    0.15    0.15    0.00   0.02  20.40
sdb               0.00     0.00 9116.00    0.00 36464.00     0.00     8.00     1.38    0.15    0.15    0.00   0.02  21.20
sdc               0.00     0.00 9103.00    0.00 36412.00     0.00     8.00     1.77    0.19    0.19    0.00   0.03  26.80
sdd               0.00     0.00 9029.00    0.00 36116.00     0.00     8.00     1.71    0.19    0.19    0.00   0.03  24.60
sde               0.00     0.00 9116.00    0.00 36464.00     0.00     8.00     1.68    0.18    0.18    0.00   0.03  24.40
sdf               0.00     0.00 9092.00    0.00 36368.00     0.00     8.00     1.62    0.18    0.18    0.00   0.03  24.10
sdg               0.00     0.00    0.00    0.00     0.00     0.00     0.00     0.00    0.00    0.00    0.00   0.00   0.00
sdh               0.00     0.00    0.00    0.00     0.00     0.00     0.00     0.00    0.00    0.00    0.00   0.00   0.00
md0               0.00     0.00 54552.00    0.00 218208.00     0.00     8.00     0.00    0.00    0.00    0.00   0.00   0.00

avg-cpu:  %user   %nice %system %iowait  %steal   %idle
           0.80    0.00    7.22    0.27    0.00   91.71

Device:         rrqm/s   wrqm/s     r/s     w/s    rkB/s    wkB/s avgrq-sz avgqu-sz   await r_await w_await  svctm  %util
sda               0.00     0.00 9024.00    0.00 36096.00     0.00     8.00     1.28    0.14    0.14    0.00   0.02  20.60
sdb               0.00     0.00 9132.00    0.00 36528.00     0.00     8.00     1.16    0.13    0.13    0.00   0.02  18.30
sdc               0.00     0.00 9012.00    0.00 36048.00     0.00     8.00     1.72    0.19    0.19    0.00   0.03  26.50
sdd               0.00     0.00 9151.00    0.00 36604.00     0.00     8.00     1.66    0.18    0.18    0.00   0.03  24.30
sde               0.00     0.00 8951.00    0.00 35804.00     0.00     8.00     1.71    0.19    0.19    0.00   0.03  24.60
sdf               0.00     0.00 9113.00    0.00 36452.00     0.00     8.00     1.83    0.20    0.20    0.00   0.03  26.80
sdg               0.00     0.00    0.00    0.00     0.00     0.00     0.00     0.00    0.00    0.00    0.00   0.00   0.00
sdh               0.00     0.00    0.00    0.00     0.00     0.00     0.00     0.00    0.00    0.00    0.00   0.00   0.00
md0               0.00     0.00 54366.00    0.00 217464.00     0.00     8.00     0.00    0.00    0.00    0.00   0.00   0.00

avg-cpu:  %user   %nice %system %iowait  %steal   %idle
           0.77    0.26   10.28    0.51    0.00   88.17

Device:         rrqm/s   wrqm/s     r/s     w/s    rkB/s    wkB/s avgrq-sz avgqu-sz   await r_await w_await  svctm  %util
sda               0.00     0.00 9188.00    0.00 36752.00     0.00     8.00     1.35    0.15    0.15    0.00   0.02  20.00
sdb               0.00     0.00 9441.00    0.00 37764.00     0.00     8.00     1.39    0.15    0.15    0.00   0.02  20.10
sdc               0.00     0.00 9433.00    0.00 37732.00     0.00     8.00     1.66    0.18    0.18    0.00   0.03  25.90
sdd               0.00     0.00 9265.00    0.00 37060.00     0.00     8.00     1.78    0.19    0.19    0.00   0.03  26.50
sde               0.00     0.00 9244.00    0.00 36976.00     0.00     8.00     1.82    0.20    0.20    0.00   0.03  25.20
sdf               0.00     0.00 9421.00    0.00 37684.00     0.00     8.00     1.79    0.19    0.19    0.00   0.03  26.20
sdg               0.00     0.00    6.00    0.00    24.00     0.00     8.00     0.00    0.00    0.00    0.00   0.00   0.00
sdh               0.00     0.00    0.00    0.00     0.00     0.00     0.00     0.00    0.00    0.00    0.00   0.00   0.00
md0               0.00     0.00 56003.00    0.00 224012.00     0.00     8.00     0.00    0.00    0.00    0.00   0.00   0.00

avg-cpu:  %user   %nice %system %iowait  %steal   %idle
           1.04    0.00    9.59    1.81    0.00   87.56

Device:         rrqm/s   wrqm/s     r/s     w/s    rkB/s    wkB/s avgrq-sz avgqu-sz   await r_await w_await  svctm  %util
sda               0.00     0.00 8773.00    0.00 35092.00     0.00     8.00     1.09    0.12    0.12    0.00   0.02  20.40
sdb               0.00     0.00 9125.00    0.00 36500.00     0.00     8.00     1.40    0.15    0.15    0.00   0.02  19.50
sdc               0.00     0.00 8728.00    0.00 34912.00     0.00     8.00     1.66    0.19    0.19    0.00   0.03  26.70
sdd               0.00     0.00 8912.00    0.00 35648.00     0.00     8.00     1.57    0.18    0.18    0.00   0.03  23.50
sde               0.00     0.00 8707.00    0.00 34828.00     0.00     8.00     1.40    0.16    0.16    0.00   0.03  23.60
sdf               0.00     0.00 8879.00    0.00 35516.00     0.00     8.00     1.75    0.20    0.20    0.00   0.03  25.60
sdg               0.00     0.00    0.00    0.00     0.00     0.00     0.00     0.00    0.00    0.00    0.00   0.00   0.00
sdh               0.00     0.00    0.00    0.00     0.00     0.00     0.00     0.00    0.00    0.00    0.00   0.00   0.00
md0               0.00     0.00 53116.00    0.00 212464.00     0.00     8.00     0.00    0.00    0.00    0.00   0.00   0.00

