Linux 4.17.2 (bench) 	08/03/2018 	_x86_64_	(4 CPU)

avg-cpu:  %user   %nice %system %iowait  %steal   %idle
          10.29    0.02    4.00    2.46    0.00   83.24

Device:         rrqm/s   wrqm/s     r/s     w/s    rkB/s    wkB/s avgrq-sz avgqu-sz   await r_await w_await  svctm  %util
sda              40.86     4.28 1609.61  103.48 20664.31  3157.74    27.81     1.03    0.60    0.26    5.91   0.06  10.53
sdb              40.75     4.24 1609.50  103.62 20653.72  3154.37    27.80     1.02    0.60    0.26    5.85   0.06  10.41
sdc              78.88     4.30 1569.29  103.16 20645.94  3156.85    28.46     1.44    0.86    0.45    7.12   0.08  13.83
sdd              72.22     4.26 1575.10  103.23 20630.61  3153.01    28.34     1.45    0.86    0.44    7.32   0.08  13.93
sde              74.30     4.31 1580.24  103.33 20691.23  3157.30    28.33     1.47    0.87    0.44    7.43   0.08  13.95
sdf              71.38     4.28 1582.42  103.28 20672.24  3154.13    28.27     1.52    0.90    0.44    7.90   0.08  13.98
sdg               0.00     3.18   25.93   73.34   322.44   391.98    14.39     0.44    4.43    0.20    5.93   0.08   0.77
sdh               0.00     0.13    0.02    0.24     2.23     5.11    56.82     0.00    1.15    0.65    1.19   0.21   0.01
md0               0.00     0.00 9910.75  484.77 141462.94 21621.71    31.38     0.00    0.00    0.00    0.00   0.00   0.00

avg-cpu:  %user   %nice %system %iowait  %steal   %idle
           0.96    0.01   22.19   66.98    0.00    9.86

Device:         rrqm/s   wrqm/s     r/s     w/s    rkB/s    wkB/s avgrq-sz avgqu-sz   await r_await w_await  svctm  %util
sda               0.00     0.00 14359.10    0.00 57436.40     0.00     8.00     2.83    0.20    0.20    0.00   0.02  25.88
sdb               0.00     0.00 14386.55    0.00 57546.20     0.00     8.00     2.83    0.20    0.20    0.00   0.02  25.33
sdc               0.00     0.00 14489.60    0.00 57958.40     0.00     8.00     4.13    0.28    0.28    0.00   0.02  34.45
sdd               0.00     0.00 14380.90    0.00 57523.60     0.00     8.00     4.15    0.29    0.29    0.00   0.03  37.41
sde               0.00     0.00 14391.70    0.00 57566.80     0.00     8.00     4.11    0.29    0.29    0.00   0.02  34.72
sdf               0.00     0.00 14340.75    0.00 57363.00     0.00     8.00     4.07    0.28    0.28    0.00   0.02  34.38
sdg               0.00     0.00   95.30    0.35   402.80     8.00     8.59     0.01    0.12    0.12    1.29   0.12   1.11
sdh               0.00     0.00    0.00    0.00     0.00     0.00     0.00     0.00    0.00    0.00    0.00   0.00   0.00
md0               0.00     0.00 86348.75    0.00 345395.00     0.00     8.00     0.00    0.00    0.00    0.00   0.00   0.00

