Linux 4.17.2 (bench) 	08/03/2018 	_x86_64_	(4 CPU)

avg-cpu:  %user   %nice %system %iowait  %steal   %idle
          10.29    0.02    4.02    2.49    0.00   83.19

Device:         rrqm/s   wrqm/s     r/s     w/s    rkB/s    wkB/s avgrq-sz avgqu-sz   await r_await w_await  svctm  %util
sda              41.59     4.26 1623.43  103.17 20755.96  3148.44    27.69     1.03    0.59    0.26    5.91   0.06  10.59
sdb              41.48     4.22 1623.32  103.31 20745.38  3145.08    27.67     1.03    0.59    0.26    5.85   0.06  10.47
sdc              79.50     4.28 1583.22  102.86 20737.56  3147.56    28.33     1.44    0.86    0.45    7.12   0.08  13.91
sdd              72.86     4.25 1589.01  102.93 20722.31  3143.73    28.21     1.45    0.86    0.44    7.32   0.08  14.00
sde              74.93     4.30 1594.13  103.03 20782.68  3148.01    28.20     1.47    0.87    0.44    7.43   0.08  14.02
sdf              72.02     4.27 1596.29  102.97 20763.73  3144.85    28.14     1.52    0.89    0.44    7.90   0.08  14.05
sdg               0.00     3.18   26.04   73.33   322.88   391.98    14.39     0.44    4.43    0.20    5.93   0.08   0.78
sdh               0.00     0.13    0.02    0.24     2.22     5.10    56.82     0.00    1.15    0.65    1.19   0.21   0.01
md0               0.00     0.00 9998.08  483.34 142134.89 21558.07    31.23     0.00    0.00    0.00    0.00   0.00   0.00

avg-cpu:  %user   %nice %system %iowait  %steal   %idle
           2.50    0.00   12.00    1.50    0.00   84.00

Device:         rrqm/s   wrqm/s     r/s     w/s    rkB/s    wkB/s avgrq-sz avgqu-sz   await r_await w_await  svctm  %util
sda             180.00     0.00  240.00    0.00 97192.00     0.00   809.93     0.51    2.14    2.14    0.00   1.12  26.90
sdb             180.00     0.00  241.00    0.00 96828.00     0.00   803.55     0.62    2.57    2.57    0.00   1.24  29.80
sdc             177.00     0.00  280.00    0.00 97468.00     0.00   696.20     1.11    3.96    3.96    0.00   1.65  46.20
sdd             182.00     0.00  237.00    0.00 97256.00     0.00   820.73     1.05    4.42    4.42    0.00   1.93  45.80
sde             178.00     0.00  235.00    0.00 96472.00     0.00   821.04     1.05    4.48    4.48    0.00   1.95  45.80
sdf             176.00     0.00  267.00    0.00 96264.00     0.00   721.08     1.07    4.01    4.01    0.00   1.70  45.40
sdg               0.00     0.00    3.00    0.00    88.00     0.00    58.67     0.00    0.33    0.33    0.00   0.33   0.10
sdh               0.00     0.00    0.00    0.00     0.00     0.00     0.00     0.00    0.00    0.00    0.00   0.00   0.00
md0               0.00     0.00 2575.00    0.00 793816.00     0.00   616.56     0.00    0.00    0.00    0.00   0.00   0.00

avg-cpu:  %user   %nice %system %iowait  %steal   %idle
           0.76    0.00    6.08    2.03    0.00   91.14

Device:         rrqm/s   wrqm/s     r/s     w/s    rkB/s    wkB/s avgrq-sz avgqu-sz   await r_await w_await  svctm  %util
sda             326.00     0.00  363.00    0.00 169680.00     0.00   934.88     0.88    2.42    2.42    0.00   1.36  49.20
sdb             315.00     0.00  394.00    0.00 169660.00     0.00   861.22     0.99    2.51    2.51    0.00   1.33  52.50
sdc             324.00     0.00  373.00    0.00 169008.00     0.00   906.21     1.86    4.98    4.98    0.00   2.14  79.70
sdd             314.00     0.00  376.00    0.00 169164.00     0.00   899.81     1.83    4.89    4.89    0.00   2.12  79.80
sde             318.00     0.00  414.00    0.00 168832.00     0.00   815.61     1.82    4.40    4.40    0.00   1.94  80.40
sdf             322.00     0.00  375.00    0.00 169072.00     0.00   901.72     1.81    4.83    4.83    0.00   2.13  79.90
sdg               0.00     0.00    0.00    0.00     0.00     0.00     0.00     0.00    0.00    0.00    0.00   0.00   0.00
sdh               0.00     0.00    0.00    0.00     0.00     0.00     0.00     0.00    0.00    0.00    0.00   0.00   0.00
md0               0.00     0.00 4237.00    0.00 1576376.00     0.00   744.10     0.00    0.00    0.00    0.00   0.00   0.00

avg-cpu:  %user   %nice %system %iowait  %steal   %idle
           1.25    0.00    6.77    2.26    0.00   89.72

Device:         rrqm/s   wrqm/s     r/s     w/s    rkB/s    wkB/s avgrq-sz avgqu-sz   await r_await w_await  svctm  %util
sda             336.00     0.00  379.00    0.00 178628.00     0.00   942.63     1.00    2.62    2.62    0.00   1.32  49.90
sdb             338.00     0.00  377.00    0.00 178884.00     0.00   948.99     1.10    2.92    2.92    0.00   1.46  55.10
sdc             334.00     0.00  392.00    0.00 177572.00     0.00   905.98     2.07    5.26    5.26    0.00   2.12  83.30
sdd             337.00     0.00  373.00    0.00 178048.00     0.00   954.68     2.07    5.52    5.52    0.00   2.23  83.20
sde             339.00     0.00  384.00    0.00 178112.00     0.00   927.67     2.09    5.41    5.41    0.00   2.19  84.10
sdf             335.00     0.00  405.00    0.00 177868.00     0.00   878.36     2.13    5.23    5.23    0.00   2.08  84.30
sdg               0.00     0.00    0.00    0.00     0.00     0.00     0.00     0.00    0.00    0.00    0.00   0.00   0.00
sdh               0.00     0.00    0.00    0.00     0.00     0.00     0.00     0.00    0.00    0.00    0.00   0.00   0.00
md0               0.00     0.00 4319.00    0.00 1549884.00     0.00   717.71     0.00    0.00    0.00    0.00   0.00   0.00

avg-cpu:  %user   %nice %system %iowait  %steal   %idle
           1.25    0.00    7.02   15.54    0.00   76.19

Device:         rrqm/s   wrqm/s     r/s     w/s    rkB/s    wkB/s avgrq-sz avgqu-sz   await r_await w_await  svctm  %util
sda             331.00     0.00  413.00    0.00 178844.00     0.00   866.07     0.94    2.28    2.28    0.00   1.19  49.10
sdb             340.00     0.00  378.00    0.00 178816.00     0.00   946.12     1.05    2.78    2.78    0.00   1.45  54.70
sdc             335.00     0.00  383.00    0.00 179244.00     0.00   936.00     2.10    5.48    5.48    0.00   2.21  84.60
sdd             336.00     0.00  387.00    0.00 179292.00     0.00   926.57     2.02    5.23    5.23    0.00   2.18  84.40
sde             338.00     0.00  373.00    0.00 179560.00     0.00   962.79     2.04    5.48    5.48    0.00   2.26  84.20
sdf             338.00     0.00  382.00    0.00 179384.00     0.00   939.18     2.05    5.37    5.37    0.00   2.19  83.80
sdg               0.00     0.00    0.00    0.00     0.00     0.00     0.00     0.00    0.00    0.00    0.00   0.00   0.00
sdh               0.00     0.00    0.00    0.00     0.00     0.00     0.00     0.00    0.00    0.00    0.00   0.00   0.00
md0               0.00     0.00 4336.00    0.00 1601976.00     0.00   738.92     0.00    0.00    0.00    0.00   0.00   0.00

avg-cpu:  %user   %nice %system %iowait  %steal   %idle
           1.01    0.00    7.04    9.80    0.00   82.16

Device:         rrqm/s   wrqm/s     r/s     w/s    rkB/s    wkB/s avgrq-sz avgqu-sz   await r_await w_await  svctm  %util
sda             339.00     0.00  394.00    0.00 180452.00     0.00   916.00     0.97    2.48    2.48    0.00   1.27  50.10
sdb             344.00     0.00  375.00    0.00 180196.00     0.00   961.05     1.11    2.97    2.97    0.00   1.45  54.20
sdc             335.00     0.00  412.00    0.00 179416.00     0.00   870.95     2.05    4.97    4.97    0.00   2.05  84.30
sdd             341.00     0.00  386.00    0.00 179244.00     0.00   928.73     2.04    5.26    5.26    0.00   2.19  84.70
sde             345.00     0.00  366.00    0.00 180048.00     0.00   983.87     2.01    5.50    5.50    0.00   2.31  84.40
sdf             340.00     0.00  406.00    0.00 179636.00     0.00   884.91     2.09    5.15    5.15    0.00   2.08  84.40
sdg               0.00     0.00    0.00    0.00     0.00     0.00     0.00     0.00    0.00    0.00    0.00   0.00   0.00
sdh               0.00     0.00    0.00    0.00     0.00     0.00     0.00     0.00    0.00    0.00    0.00   0.00   0.00
md0               0.00     0.00 4376.00    0.00 1587772.00     0.00   725.67     0.00    0.00    0.00    0.00   0.00   0.00

avg-cpu:  %user   %nice %system %iowait  %steal   %idle
           1.01    0.00    7.04    3.02    0.00   88.94

Device:         rrqm/s   wrqm/s     r/s     w/s    rkB/s    wkB/s avgrq-sz avgqu-sz   await r_await w_await  svctm  %util
sda             314.00     0.00  373.00    0.00 168144.00     0.00   901.58     0.84    2.23    2.23    0.00   1.25  46.70
sdb             315.00     0.00  374.00    0.00 168208.00     0.00   899.51     0.98    2.61    2.61    0.00   1.38  51.70
sdc             317.00     0.00  394.00    0.00 169760.00     0.00   861.73     1.79    4.58    4.58    0.00   2.02  79.60
sdd             315.00     0.00  402.00    0.00 169944.00     0.00   845.49     1.82    4.56    4.56    0.00   1.99  80.00
sde             312.00     0.00  383.00    0.00 168348.00     0.00   879.10     1.79    4.68    4.68    0.00   2.09  80.00
sdf             317.00     0.00  387.00    0.00 168332.00     0.00   869.93     1.79    4.64    4.64    0.00   2.07  80.00
sdg               0.00    54.00    4.00 1423.00    16.00  7460.00    10.48     8.86    6.21    1.75    6.22   0.05   6.60
sdh               0.00     0.00    0.00    0.00     0.00     0.00     0.00     0.00    0.00    0.00    0.00   0.00   0.00
md0               0.00     0.00 4215.00    0.00 1494276.00     0.00   709.03     0.00    0.00    0.00    0.00   0.00   0.00

avg-cpu:  %user   %nice %system %iowait  %steal   %idle
           1.02    0.25    8.63    3.05    0.00   87.06

Device:         rrqm/s   wrqm/s     r/s     w/s    rkB/s    wkB/s avgrq-sz avgqu-sz   await r_await w_await  svctm  %util
sda             301.00     0.00  393.00    0.00 167544.00     0.00   852.64     0.91    2.32    2.32    0.00   1.21  47.60
sdb             302.00     0.00  385.00    0.00 167868.00     0.00   872.04     1.03    2.68    2.68    0.00   1.40  53.80
sdc             309.00     0.00  366.00    0.00 167412.00     0.00   914.82     1.79    4.89    4.89    0.00   2.18  79.70
sdd             306.00     0.00  392.00    0.00 166816.00     0.00   851.10     1.80    4.59    4.59    0.00   2.02  79.30
sde             303.00     0.00  375.00    0.00 167480.00     0.00   893.23     1.76    4.70    4.70    0.00   2.13  79.90
sdf             307.00     0.00  360.00    0.00 167540.00     0.00   930.78     1.82    5.06    5.06    0.00   2.20  79.30
sdg               0.00     0.00 1817.00    0.00  7556.00     0.00     8.32     0.23    0.13    0.13    0.00   0.13  23.10
sdh               0.00     0.00    0.00    0.00     0.00     0.00     0.00     0.00    0.00    0.00    0.00   0.00   0.00
md0               0.00     0.00 4099.00    0.00 1387304.00     0.00   676.90     0.00    0.00    0.00    0.00   0.00   0.00

avg-cpu:  %user   %nice %system %iowait  %steal   %idle
           1.25    0.00    8.52    1.50    0.00   88.72

Device:         rrqm/s   wrqm/s     r/s     w/s    rkB/s    wkB/s avgrq-sz avgqu-sz   await r_await w_await  svctm  %util
sda             319.00     0.00  382.00    0.00 172684.00     0.00   904.10     1.00    2.61    2.61    0.00   1.39  53.20
sdb             325.00     0.00  376.00    0.00 172464.00     0.00   917.36     1.01    2.69    2.69    0.00   1.43  53.90
sdc             317.00     0.00  401.00    0.00 172428.00     0.00   859.99     1.97    4.92    4.92    0.00   2.04  81.80
sdd             320.00     0.00  397.00    0.00 172560.00     0.00   869.32     1.93    4.87    4.87    0.00   2.06  81.90
sde             326.00     0.00  381.00    0.00 173020.00     0.00   908.24     1.89    4.97    4.97    0.00   2.15  81.80
sdf             323.00     0.00  381.00    0.00 172816.00     0.00   907.17     1.91    5.02    5.02    0.00   2.14  81.40
sdg               0.00     0.00    0.00    0.00     0.00     0.00     0.00     0.00    0.00    0.00    0.00   0.00   0.00
sdh               0.00     0.00    0.00    0.00     0.00     0.00     0.00     0.00    0.00    0.00    0.00   0.00   0.00
md0               0.00     0.00 4236.00    0.00 1573200.00     0.00   742.78     0.00    0.00    0.00    0.00   0.00   0.00

avg-cpu:  %user   %nice %system %iowait  %steal   %idle
           0.76    0.00    9.07    1.76    0.00   88.41

Device:         rrqm/s   wrqm/s     r/s     w/s    rkB/s    wkB/s avgrq-sz avgqu-sz   await r_await w_await  svctm  %util
sda             309.00     0.00  378.00    0.00 169084.00     0.00   894.62     0.96    2.56    2.56    0.00   1.35  51.20
sdb             320.00     0.00  363.00    0.00 169208.00     0.00   932.28     0.98    2.71    2.71    0.00   1.47  53.50
sdc             318.00     0.00  363.00    0.00 169708.00     0.00   935.03     1.86    5.13    5.13    0.00   2.20  79.80
sdd             316.00     0.00  395.00    0.00 169320.00     0.00   857.32     1.88    4.77    4.77    0.00   2.04  80.50
sde             312.00     0.00  401.00    0.00 169832.00     0.00   847.04     1.92    4.80    4.80    0.00   2.02  80.90
sdf             315.00     0.00  398.00    0.00 169656.00     0.00   852.54     1.90    4.79    4.79    0.00   2.03  80.90
sdg               0.00     0.00    0.00    0.00     0.00     0.00     0.00     0.00    0.00    0.00    0.00   0.00   0.00
sdh               0.00     0.00    0.00    0.00     0.00     0.00     0.00     0.00    0.00    0.00    0.00   0.00   0.00
md0               0.00     0.00 4179.00    0.00 1546248.00     0.00   740.01     0.00    0.00    0.00    0.00   0.00   0.00

avg-cpu:  %user   %nice %system %iowait  %steal   %idle
           1.01    0.00    9.07    2.27    0.00   87.66

Device:         rrqm/s   wrqm/s     r/s     w/s    rkB/s    wkB/s avgrq-sz avgqu-sz   await r_await w_await  svctm  %util
sda             335.00     0.00  384.00    0.00 176304.00     0.00   918.25     1.05    2.72    2.72    0.00   1.40  53.90
sdb             331.00     0.00  403.00    0.00 175984.00     0.00   873.37     1.08    2.68    2.68    0.00   1.36  54.80
sdc             330.00     0.00  385.00    0.00 175644.00     0.00   912.44     2.03    5.27    5.27    0.00   2.15  82.80
sdd             334.00     0.00  382.00    0.00 175800.00     0.00   920.42     2.02    5.28    5.28    0.00   2.19  83.60
sde             328.00     0.00  410.00    0.00 174796.00     0.00   852.66     2.00    4.85    4.85    0.00   2.04  83.70
sdf             333.00     0.00  373.00    0.00 175660.00     0.00   941.88     2.00    5.34    5.34    0.00   2.24  83.60
sdg               0.00     0.00    0.00    0.00     0.00     0.00     0.00     0.00    0.00    0.00    0.00   0.00   0.00
sdh               0.00     0.00    0.00    0.00     0.00     0.00     0.00     0.00    0.00    0.00    0.00   0.00   0.00
md0               0.00     0.00 4332.00    0.00 1541476.00     0.00   711.67     0.00    0.00    0.00    0.00   0.00   0.00

avg-cpu:  %user   %nice %system %iowait  %steal   %idle
           1.01    0.00    8.29    2.26    0.00   88.44

Device:         rrqm/s   wrqm/s     r/s     w/s    rkB/s    wkB/s avgrq-sz avgqu-sz   await r_await w_await  svctm  %util
sda             290.00     0.00  381.00    0.00 163680.00     0.00   859.21     0.96    2.52    2.52    0.00   1.34  51.00
sdb             284.00     0.00  404.00    0.00 163996.00     0.00   811.86     0.96    2.38    2.38    0.00   1.30  52.40
sdc             294.00     0.00  378.00    0.00 164556.00     0.00   870.67     1.74    4.61    4.61    0.00   2.04  77.10
sdd             294.00     0.00  370.00    0.00 164516.00     0.00   889.28     1.79    4.83    4.83    0.00   2.10  77.60
sde             287.00     0.00  391.00    0.00 164156.00     0.00   839.67     1.78    4.57    4.57    0.00   1.97  77.20
sdf             295.00     0.00  357.00    0.00 164400.00     0.00   921.01     1.77    4.96    4.96    0.00   2.18  77.70
sdg               0.00     0.00    0.00    0.00     0.00     0.00     0.00     0.00    0.00    0.00    0.00   0.00   0.00
sdh               0.00     0.00    0.00    0.00     0.00     0.00     0.00     0.00    0.00    0.00    0.00   0.00   0.00
md0               0.00     0.00 4031.00    0.00 1394348.00     0.00   691.81     0.00    0.00    0.00    0.00   0.00   0.00

avg-cpu:  %user   %nice %system %iowait  %steal   %idle
           1.00    0.00    9.50    1.50    0.00   88.00

Device:         rrqm/s   wrqm/s     r/s     w/s    rkB/s    wkB/s avgrq-sz avgqu-sz   await r_await w_await  svctm  %util
sda             311.00     0.00  391.00    0.00 168752.00     0.00   863.18     0.98    2.52    2.52    0.00   1.34  52.40
sdb             314.00     0.00  385.00    0.00 168428.00     0.00   874.95     1.01    2.63    2.63    0.00   1.36  52.20
sdc             316.00     0.00  379.00    0.00 169304.00     0.00   893.42     1.85    4.90    4.90    0.00   2.09  79.40
sdd             319.00     0.00  381.00    0.00 169700.00     0.00   890.81     1.85    4.91    4.91    0.00   2.11  80.50
sde             317.00     0.00  383.00    0.00 169280.00     0.00   883.97     1.83    4.81    4.81    0.00   2.09  79.90
sdf             314.00     0.00  396.00    0.00 169184.00     0.00   854.46     1.87    4.75    4.75    0.00   2.04  80.70
sdg               0.00     0.00    0.00    0.00     0.00     0.00     0.00     0.00    0.00    0.00    0.00   0.00   0.00
sdh               0.00     0.00    0.00    0.00     0.00     0.00     0.00     0.00    0.00    0.00    0.00   0.00   0.00
md0               0.00     0.00 4201.00    0.00 1587276.00     0.00   755.67     0.00    0.00    0.00    0.00   0.00   0.00

avg-cpu:  %user   %nice %system %iowait  %steal   %idle
           0.76    0.00    9.34    1.52    0.00   88.38

Device:         rrqm/s   wrqm/s     r/s     w/s    rkB/s    wkB/s avgrq-sz avgqu-sz   await r_await w_await  svctm  %util
sda             315.00     0.00  390.00    0.00 170248.00     0.00   873.07     1.05    2.68    2.68    0.00   1.38  54.00
sdb             319.00     0.00  389.00    0.00 170976.00     0.00   879.05     0.94    2.40    2.40    0.00   1.28  49.90
sdc             318.00     0.00  382.00    0.00 169832.00     0.00   889.17     1.82    4.76    4.76    0.00   2.10  80.10
sdd             321.00     0.00  379.00    0.00 169568.00     0.00   894.82     1.78    4.69    4.69    0.00   2.11  79.80
sde             323.00     0.00  379.00    0.00 170172.00     0.00   898.01     1.81    4.77    4.77    0.00   2.11  80.10
sdf             326.00     0.00  369.00    0.00 170004.00     0.00   921.43     1.88    5.07    5.07    0.00   2.17  79.90
sdg               0.00     0.00    0.00    0.00     0.00     0.00     0.00     0.00    0.00    0.00    0.00   0.00   0.00
sdh               0.00     0.00    0.00    0.00     0.00     0.00     0.00     0.00    0.00    0.00    0.00   0.00   0.00
md0               0.00     0.00 4227.00    0.00 1473316.00     0.00   697.10     0.00    0.00    0.00    0.00   0.00   0.00

avg-cpu:  %user   %nice %system %iowait  %steal   %idle
           0.76    0.00    9.32    1.51    0.00   88.41

Device:         rrqm/s   wrqm/s     r/s     w/s    rkB/s    wkB/s avgrq-sz avgqu-sz   await r_await w_await  svctm  %util
sda             324.00     0.00  390.00    0.00 175912.00     0.00   902.11     1.06    2.74    2.74    0.00   1.39  54.10
sdb             335.00     0.00  366.00    0.00 175976.00     0.00   961.62     0.96    2.62    2.62    0.00   1.38  50.50
sdc             328.00     0.00  384.00    0.00 175880.00     0.00   916.04     2.04    5.29    5.29    0.00   2.19  84.10
sdd             330.00     0.00  377.00    0.00 175764.00     0.00   932.44     2.03    5.38    5.38    0.00   2.21  83.30
sde             330.00     0.00  375.00    0.00 175956.00     0.00   938.43     2.06    5.49    5.49    0.00   2.23  83.50
sdf             330.00     0.00  376.00    0.00 175724.00     0.00   934.70     2.01    5.36    5.36    0.00   2.22  83.50
sdg               0.00     0.00    0.00    0.00     0.00     0.00     0.00     0.00    0.00    0.00    0.00   0.00   0.00
sdh               0.00     0.00    0.00    0.00     0.00     0.00     0.00     0.00    0.00    0.00    0.00   0.00   0.00
md0               0.00     0.00 4226.00    0.00 1643920.00     0.00   778.00     0.00    0.00    0.00    0.00   0.00   0.00

avg-cpu:  %user   %nice %system %iowait  %steal   %idle
           1.01    0.00    9.30    1.51    0.00   88.19

Device:         rrqm/s   wrqm/s     r/s     w/s    rkB/s    wkB/s avgrq-sz avgqu-sz   await r_await w_await  svctm  %util
sda             306.00     0.00  361.00    0.00 167896.00     0.00   930.17     0.91    2.53    2.53    0.00   1.42  51.10
sdb             306.00     0.00  384.00    0.00 167280.00     0.00   871.25     0.86    2.24    2.24    0.00   1.27  48.60
sdc             299.00     0.00  393.00    0.00 167152.00     0.00   850.65     1.85    4.74    4.74    0.00   2.05  80.40
sdd             306.00     0.00  358.00    0.00 167456.00     0.00   935.51     1.80    5.04    5.04    0.00   2.24  80.10
sde             295.00     0.00  376.00    0.00 166684.00     0.00   886.62     1.83    4.87    4.87    0.00   2.14  80.40
sdf             301.00     0.00  385.00    0.00 166864.00     0.00   866.83     1.79    4.66    4.66    0.00   2.07  79.80
sdg               0.00     0.00    0.00    0.00     0.00     0.00     0.00     0.00    0.00    0.00    0.00   0.00   0.00
sdh               0.00     0.00    0.00    0.00     0.00     0.00     0.00     0.00    0.00    0.00    0.00   0.00   0.00
md0               0.00     0.00 4070.00    0.00 1514236.00     0.00   744.10     0.00    0.00    0.00    0.00   0.00   0.00

avg-cpu:  %user   %nice %system %iowait  %steal   %idle
           1.00    0.00    9.02    1.75    0.00   88.22

Device:         rrqm/s   wrqm/s     r/s     w/s    rkB/s    wkB/s avgrq-sz avgqu-sz   await r_await w_await  svctm  %util
sda             295.00     0.00  350.00    0.00 158904.00     0.00   908.02     0.93    2.67    2.67    0.00   1.42  49.80
sdb             290.00     0.00  382.00    0.00 158484.00     0.00   829.76     0.85    2.22    2.22    0.00   1.21  46.20
sdc             291.00     0.00  393.00    0.00 159332.00     0.00   810.85     1.65    4.20    4.20    0.00   1.94  76.20
sdd             291.00     0.00  382.00    0.00 159648.00     0.00   835.85     1.63    4.26    4.26    0.00   1.97  75.40
sde             287.00     0.00  404.00    0.00 159432.00     0.00   789.27     1.63    4.04    4.04    0.00   1.89  76.30
sdf             291.00     0.00  370.00    0.00 159720.00     0.00   863.35     1.62    4.38    4.38    0.00   2.06  76.10
sdg               0.00     0.00    0.00    0.00     0.00     0.00     0.00     0.00    0.00    0.00    0.00   0.00   0.00
sdh               0.00     0.00    0.00    0.00     0.00     0.00     0.00     0.00    0.00    0.00    0.00   0.00   0.00
md0               0.00     0.00 4022.00    0.00 1407756.00     0.00   700.03     0.00    0.00    0.00    0.00   0.00   0.00

avg-cpu:  %user   %nice %system %iowait  %steal   %idle
           0.75    0.25    9.52    3.01    0.00   86.47

Device:         rrqm/s   wrqm/s     r/s     w/s    rkB/s    wkB/s avgrq-sz avgqu-sz   await r_await w_await  svctm  %util
sda             318.00     0.00  385.00    0.00 168500.00     0.00   875.32     1.02    2.63    2.63    0.00   1.33  51.30
sdb             316.00     0.00  390.00    0.00 167896.00     0.00   861.01     0.94    2.38    2.38    0.00   1.26  49.30
sdc             318.00     0.00  358.00    0.00 167732.00     0.00   937.05     1.85    5.14    5.14    0.00   2.23  79.90
sdd             318.00     0.00  372.00    0.00 167492.00     0.00   900.49     1.86    4.98    4.98    0.00   2.14  79.50
sde             319.00     0.00  389.00    0.00 167248.00     0.00   859.89     1.93    4.93    4.93    0.00   2.04  79.50
sdf             314.00     0.00  387.00    0.00 167572.00     0.00   866.01     1.87    4.82    4.82    0.00   2.08  80.50
sdg               0.00     0.00   68.00    7.00   296.00   144.00    11.73     0.01    0.15    0.10    0.57   0.11   0.80
sdh               0.00     0.00    0.00    0.00     0.00     0.00     0.00     0.00    0.00    0.00    0.00   0.00   0.00
md0               0.00     0.00 4201.00    0.00 1349348.00     0.00   642.39     0.00    0.00    0.00    0.00   0.00   0.00

avg-cpu:  %user   %nice %system %iowait  %steal   %idle
           0.76    0.00    9.87    2.28    0.00   87.09

Device:         rrqm/s   wrqm/s     r/s     w/s    rkB/s    wkB/s avgrq-sz avgqu-sz   await r_await w_await  svctm  %util
sda             322.00     0.00  378.00    0.00 173112.00     0.00   915.94     1.04    2.74    2.74    0.00   1.41  53.20
sdb             323.00     0.00  368.00    0.00 173880.00     0.00   945.00     0.95    2.60    2.60    0.00   1.35  49.70
sdc             324.00     0.00  367.00    0.00 173252.00     0.00   944.15     1.88    5.11    5.11    0.00   2.26  83.00
sdd             321.00     0.00  373.00    0.00 173004.00     0.00   927.64     1.92    5.16    5.16    0.00   2.22  82.80
sde             321.00     0.00  376.00    0.00 173100.00     0.00   920.74     1.88    5.02    5.02    0.00   2.21  83.20
sdf             320.00     0.00  377.00    0.00 172932.00     0.00   917.41     1.85    4.90    4.90    0.00   2.20  82.80
sdg               0.00     0.00    3.00    0.00    84.00     0.00    56.00     0.00    0.33    0.33    0.00   0.33   0.10
sdh               0.00     0.00    0.00    0.00     0.00     0.00     0.00     0.00    0.00    0.00    0.00   0.00   0.00
md0               0.00     0.00 4163.00    0.00 1409340.00     0.00   677.08     0.00    0.00    0.00    0.00   0.00   0.00

avg-cpu:  %user   %nice %system %iowait  %steal   %idle
           1.01    0.00    8.79    2.01    0.00   88.19

Device:         rrqm/s   wrqm/s     r/s     w/s    rkB/s    wkB/s avgrq-sz avgqu-sz   await r_await w_await  svctm  %util
sda             319.00     0.00  389.00    0.00 168548.00     0.00   866.57     1.04    2.67    2.67    0.00   1.37  53.20
sdb             314.00     0.00  388.00    0.00 168712.00     0.00   869.65     0.93    2.39    2.39    0.00   1.26  49.00
sdc             317.00     0.00  378.00    0.00 169708.00     0.00   897.93     1.90    5.04    5.04    0.00   2.16  81.50
sdd             320.00     0.00  383.00    0.00 169072.00     0.00   882.88     1.90    4.97    4.97    0.00   2.09  80.20
sde             318.00     0.00  380.00    0.00 169068.00     0.00   889.83     1.91    5.03    5.03    0.00   2.12  80.50
sdf             320.00     0.00  367.00    0.00 169360.00     0.00   922.94     1.90    5.19    5.19    0.00   2.18  80.10
sdg               0.00     0.00    0.00    0.00     0.00     0.00     0.00     0.00    0.00    0.00    0.00   0.00   0.00
sdh               0.00     0.00    0.00    0.00     0.00     0.00     0.00     0.00    0.00    0.00    0.00   0.00   0.00
md0               0.00     0.00 4195.00    0.00 1485788.00     0.00   708.36     0.00    0.00    0.00    0.00   0.00   0.00

avg-cpu:  %user   %nice %system %iowait  %steal   %idle
           1.01    0.00    9.32    2.52    0.00   87.15

Device:         rrqm/s   wrqm/s     r/s     w/s    rkB/s    wkB/s avgrq-sz avgqu-sz   await r_await w_await  svctm  %util
sda             323.00     0.00  388.00    0.00 173580.00     0.00   894.74     0.98    2.53    2.53    0.00   1.37  53.10
sdb             328.00     0.00  366.00    0.00 173560.00     0.00   948.42     0.89    2.43    2.43    0.00   1.38  50.50
sdc             323.00     0.00  394.00    0.00 173720.00     0.00   881.83     1.92    4.88    4.88    0.00   2.10  82.70
sdd             319.00     0.00  401.00    0.00 173484.00     0.00   865.26     1.90    4.75    4.75    0.00   2.05  82.30
sde             329.00     0.00  370.00    0.00 174100.00     0.00   941.08     1.88    5.10    5.10    0.00   2.22  82.10
sdf             328.00     0.00  370.00    0.00 174396.00     0.00   942.68     1.97    5.34    5.34    0.00   2.22  82.30
sdg               0.00    69.00    8.00 1417.00   452.00  7424.00    11.05     8.88    6.23    0.50    6.26   0.05   6.90
sdh               0.00     0.00    0.00    0.00     0.00     0.00     0.00     0.00    0.00    0.00    0.00   0.00   0.00
md0               0.00     0.00 4227.00    0.00 1628432.00     0.00   770.49     0.00    0.00    0.00    0.00   0.00   0.00

