Linux 4.17.2 (bench) 	08/03/2018 	_x86_64_	(4 CPU)

avg-cpu:  %user   %nice %system %iowait  %steal   %idle
          10.28    0.02    4.05    2.55    0.00   83.10

Device:         rrqm/s   wrqm/s     r/s     w/s    rkB/s    wkB/s avgrq-sz avgqu-sz   await r_await w_await  svctm  %util
sda              44.34     4.24 1648.79  102.64 20904.82  3132.30    27.45     1.03    0.59    0.26    5.91   0.06  10.71
sdb              44.22     4.20 1648.71  102.78 20894.24  3128.96    27.43     1.03    0.59    0.26    5.85   0.06  10.58
sdc              82.14     4.26 1608.69  102.33 20886.35  3131.43    28.07     1.45    0.85    0.45    7.12   0.08  14.04
sdd              75.55     4.23 1614.45  102.40 20871.18  3127.62    27.96     1.46    0.85    0.44    7.32   0.08  14.13
sde              77.59     4.27 1619.52  102.50 20931.10  3131.87    27.95     1.48    0.86    0.44    7.43   0.08  14.15
sdf              74.70     4.24 1621.68  102.44 20912.31  3128.73    27.89     1.52    0.88    0.44    7.90   0.08  14.18
sdg               0.00     3.17   26.24   73.30   323.71   391.96    14.38     0.44    4.42    0.20    5.93   0.08   0.78
sdh               0.00     0.13    0.02    0.24     2.21     5.07    56.82     0.00    1.15    0.65    1.19   0.21   0.01
md0               0.00     0.00 10166.96  480.86 143185.45 21447.55    30.92     0.00    0.00    0.00    0.00   0.00   0.00

avg-cpu:  %user   %nice %system %iowait  %steal   %idle
           2.04    0.26   29.34    1.53    0.00   66.84

Device:         rrqm/s   wrqm/s     r/s     w/s    rkB/s    wkB/s avgrq-sz avgqu-sz   await r_await w_await  svctm  %util
sda               1.00     0.00 22714.00    0.00 90860.00     0.00     8.00     6.27    0.28    0.28    0.00   0.02  51.90
sdb               0.00     0.00 22679.00    0.00 90716.00     0.00     8.00     6.68    0.29    0.29    0.00   0.02  51.20
sdc               0.00     0.00 22880.00    0.00 91520.00     0.00     8.00     7.24    0.32    0.32    0.00   0.03  61.50
sdd               1.00     0.00 22748.00    0.00 90996.00     0.00     8.00     6.91    0.30    0.30    0.00   0.03  61.50
sde               0.00     0.00 22823.00    0.00 91292.00     0.00     8.00     7.06    0.31    0.31    0.00   0.03  72.60
sdf               0.00     0.00 22752.00    0.00 91008.00     0.00     8.00     7.02    0.31    0.31    0.00   0.03  60.70
sdg               0.00     0.00   19.00    0.00   200.00     0.00    21.05     0.00    0.11    0.11    0.00   0.11   0.20
sdh               0.00     0.00    0.00    0.00     0.00     0.00     0.00     0.00    0.00    0.00    0.00   0.00   0.00
md0               0.00     0.00 136600.00    0.00 546400.00     0.00     8.00     0.00    0.00    0.00    0.00   0.00   0.00

avg-cpu:  %user   %nice %system %iowait  %steal   %idle
           2.26    0.00   31.08    1.50    0.00   65.16

Device:         rrqm/s   wrqm/s     r/s     w/s    rkB/s    wkB/s avgrq-sz avgqu-sz   await r_await w_await  svctm  %util
sda               1.00     0.00 23588.00    0.00 94356.00     0.00     8.00     6.63    0.28    0.28    0.00   0.02  52.80
sdb               0.00     0.00 23794.00    0.00 95176.00     0.00     8.00     6.67    0.28    0.28    0.00   0.02  51.50
sdc               0.00     0.00 23486.00    0.00 93944.00     0.00     8.00     7.04    0.30    0.30    0.00   0.03  62.00
sdd               0.00     0.00 23550.00    0.00 94200.00     0.00     8.00     6.99    0.30    0.30    0.00   0.03  61.40
sde               0.00     0.00 23779.00    0.00 95116.00     0.00     8.00     7.50    0.32    0.32    0.00   0.03  71.80
sdf               0.00     0.00 23308.00    0.00 93232.00     0.00     8.00     7.15    0.31    0.31    0.00   0.03  62.60
sdg               0.00     0.00    0.00    5.00     0.00   136.00    54.40     0.00    0.00    0.00    0.00   0.00   0.00
sdh               0.00     0.00    0.00    0.00     0.00     0.00     0.00     0.00    0.00    0.00    0.00   0.00   0.00
md0               0.00     0.00 141597.00    0.00 566388.00     0.00     8.00     0.00    0.00    0.00    0.00   0.00   0.00

avg-cpu:  %user   %nice %system %iowait  %steal   %idle
           2.00    0.00   32.25    1.00    0.00   64.75

Device:         rrqm/s   wrqm/s     r/s     w/s    rkB/s    wkB/s avgrq-sz avgqu-sz   await r_await w_await  svctm  %util
sda               2.00     0.00 23626.00    0.00 94512.00     0.00     8.00     6.50    0.27    0.27    0.00   0.02  53.40
sdb               2.00     0.00 23646.00    0.00 94592.00     0.00     8.00     6.58    0.28    0.28    0.00   0.02  52.90
sdc               1.00     0.00 23594.00    0.00 94380.00     0.00     8.00     7.52    0.32    0.32    0.00   0.03  62.10
sdd               2.00     0.00 23810.00    0.00 95248.00     0.00     8.00     7.44    0.31    0.31    0.00   0.03  64.30
sde               0.00     0.00 23817.00    0.00 95268.00     0.00     8.00     7.96    0.33    0.33    0.00   0.03  72.50
sdf               1.00     0.00 23819.00    0.00 95280.00     0.00     8.00     7.47    0.31    0.31    0.00   0.03  64.70
sdg               0.00     0.00    0.00    0.00     0.00     0.00     0.00     0.00    0.00    0.00    0.00   0.00   0.00
sdh               0.00     0.00    0.00    0.00     0.00     0.00     0.00     0.00    0.00    0.00    0.00   0.00   0.00
md0               0.00     0.00 142274.00    0.00 569096.00     0.00     8.00     0.00    0.00    0.00    0.00   0.00   0.00

avg-cpu:  %user   %nice %system %iowait  %steal   %idle
           1.99    0.00   33.83    1.24    0.00   62.94

Device:         rrqm/s   wrqm/s     r/s     w/s    rkB/s    wkB/s avgrq-sz avgqu-sz   await r_await w_await  svctm  %util
sda               0.00     0.00 24586.00    0.00 98344.00     0.00     8.00     6.42    0.26    0.26    0.00   0.02  55.10
sdb               0.00     0.00 24413.00    0.00 97652.00     0.00     8.00     6.31    0.26    0.26    0.00   0.02  54.00
sdc               0.00     0.00 24445.00    0.00 97780.00     0.00     8.00     6.69    0.27    0.27    0.00   0.03  64.50
sdd               0.00     0.00 24373.00    0.00 97492.00     0.00     8.00     6.76    0.28    0.28    0.00   0.03  67.20
sde               0.00     0.00 24338.00    0.00 97352.00     0.00     8.00     7.22    0.30    0.30    0.00   0.03  68.50
sdf               0.00     0.00 24350.00    0.00 97400.00     0.00     8.00     6.94    0.29    0.29    0.00   0.03  66.80
sdg               0.00     0.00    0.00    0.00     0.00     0.00     0.00     0.00    0.00    0.00    0.00   0.00   0.00
sdh               0.00     0.00    0.00    0.00     0.00     0.00     0.00     0.00    0.00    0.00    0.00   0.00   0.00
md0               0.00     0.00 146547.00    0.00 586188.00     0.00     8.00     0.00    0.00    0.00    0.00   0.00   0.00

avg-cpu:  %user   %nice %system %iowait  %steal   %idle
           2.26    0.00   33.67    0.75    0.00   63.32

Device:         rrqm/s   wrqm/s     r/s     w/s    rkB/s    wkB/s avgrq-sz avgqu-sz   await r_await w_await  svctm  %util
sda               0.00     0.00 25502.00    0.00 102008.00     0.00     8.00     7.36    0.29    0.29    0.00   0.02  58.10
sdb               0.00     0.00 25196.00    0.00 100784.00     0.00     8.00     7.12    0.28    0.28    0.00   0.02  57.30
sdc               0.00     0.00 25093.00    0.00 100372.00     0.00     8.00     7.55    0.30    0.30    0.00   0.03  70.40
sdd               1.00     0.00 25328.00    0.00 101316.00     0.00     8.00     7.61    0.30    0.30    0.00   0.03  69.10
sde               0.00     0.00 25597.00    0.00 102388.00     0.00     8.00     7.91    0.31    0.31    0.00   0.03  69.60
sdf               0.00     0.00 25353.00    0.00 101412.00     0.00     8.00     7.98    0.31    0.31    0.00   0.03  69.00
sdg               0.00     0.00    0.00    0.00     0.00     0.00     0.00     0.00    0.00    0.00    0.00   0.00   0.00
sdh               0.00     0.00    0.00    0.00     0.00     0.00     0.00     0.00    0.00    0.00    0.00   0.00   0.00
md0               0.00     0.00 152071.00    0.00 608284.00     0.00     8.00     0.00    0.00    0.00    0.00   0.00   0.00

avg-cpu:  %user   %nice %system %iowait  %steal   %idle
           2.26    0.00   33.58    1.00    0.00   63.16

Device:         rrqm/s   wrqm/s     r/s     w/s    rkB/s    wkB/s avgrq-sz avgqu-sz   await r_await w_await  svctm  %util
sda               0.00     0.00 24220.00    0.00 96880.00     0.00     8.00     6.20    0.26    0.26    0.00   0.02  55.50
sdb               0.00     0.00 24006.00    0.00 96024.00     0.00     8.00     6.01    0.25    0.25    0.00   0.02  55.20
sdc               0.00     0.00 24393.00    0.00 97572.00     0.00     8.00     6.83    0.28    0.28    0.00   0.03  66.00
sdd               0.00     0.00 24197.00    0.00 96788.00     0.00     8.00     6.61    0.27    0.27    0.00   0.03  66.90
sde               0.00     0.00 24182.00    0.00 96728.00     0.00     8.00     6.62    0.27    0.27    0.00   0.03  66.70
sdf               0.00     0.00 24516.00    0.00 98064.00     0.00     8.00     6.67    0.27    0.27    0.00   0.03  65.90
sdg               0.00     0.00    0.00    0.00     0.00     0.00     0.00     0.00    0.00    0.00    0.00   0.00   0.00
sdh               0.00     0.00    0.00    0.00     0.00     0.00     0.00     0.00    0.00    0.00    0.00   0.00   0.00
md0               0.00     0.00 145438.00    0.00 581752.00     0.00     8.00     0.00    0.00    0.00    0.00   0.00   0.00

avg-cpu:  %user   %nice %system %iowait  %steal   %idle
           2.80    0.00   32.32    1.02    0.00   63.87

Device:         rrqm/s   wrqm/s     r/s     w/s    rkB/s    wkB/s avgrq-sz avgqu-sz   await r_await w_await  svctm  %util
sda               0.00     0.00 24474.00    0.00 97896.00     0.00     8.00     6.37    0.26    0.26    0.00   0.02  58.50
sdb               0.00     0.00 24409.00    0.00 97636.00     0.00     8.00     6.32    0.26    0.26    0.00   0.02  57.30
sdc               1.00     0.00 24501.00    0.00 98008.00     0.00     8.00     6.95    0.28    0.28    0.00   0.03  67.10
sdd               0.00     0.00 24372.00    0.00 97488.00     0.00     8.00     6.99    0.29    0.29    0.00   0.03  68.20
sde               0.00     0.00 24249.00    0.00 96996.00     0.00     8.00     6.93    0.29    0.29    0.00   0.03  67.90
sdf               0.00     0.00 24122.00    0.00 96488.00     0.00     8.00     6.59    0.27    0.27    0.00   0.03  66.40
sdg               0.00     0.00    0.00    0.00     0.00     0.00     0.00     0.00    0.00    0.00    0.00   0.00   0.00
sdh               0.00     0.00    0.00    0.00     0.00     0.00     0.00     0.00    0.00    0.00    0.00   0.00   0.00
md0               0.00     0.00 146189.00    0.00 584756.00     0.00     8.00     0.00    0.00    0.00    0.00   0.00   0.00

avg-cpu:  %user   %nice %system %iowait  %steal   %idle
           2.04    0.00   32.82    1.02    0.00   64.12

Device:         rrqm/s   wrqm/s     r/s     w/s    rkB/s    wkB/s avgrq-sz avgqu-sz   await r_await w_await  svctm  %util
sda               0.00     0.00 23671.00    0.00 94684.00     0.00     8.00     6.33    0.27    0.27    0.00   0.03  61.40
sdb               1.00     0.00 23773.00    0.00 95096.00     0.00     8.00     6.43    0.27    0.27    0.00   0.03  61.20
sdc               0.00     0.00 23768.00    0.00 95072.00     0.00     8.00     7.00    0.29    0.29    0.00   0.03  71.80
sdd               0.00     0.00 23620.00    0.00 94480.00     0.00     8.00     7.04    0.30    0.30    0.00   0.03  71.10
sde               0.00     0.00 23697.00    0.00 94788.00     0.00     8.00     6.91    0.29    0.29    0.00   0.03  70.80
sdf               0.00     0.00 23756.00    0.00 95024.00     0.00     8.00     6.93    0.29    0.29    0.00   0.03  71.50
sdg               0.00     0.00    0.00    0.00     0.00     0.00     0.00     0.00    0.00    0.00    0.00   0.00   0.00
sdh               0.00     0.00    0.00    0.00     0.00     0.00     0.00     0.00    0.00    0.00    0.00   0.00   0.00
md0               0.00     0.00 142265.00    0.00 569060.00     0.00     8.00     0.00    0.00    0.00    0.00   0.00   0.00

avg-cpu:  %user   %nice %system %iowait  %steal   %idle
           2.48    0.00   33.75    0.99    0.00   62.78

Device:         rrqm/s   wrqm/s     r/s     w/s    rkB/s    wkB/s avgrq-sz avgqu-sz   await r_await w_await  svctm  %util
sda               0.00     0.00 23161.00    0.00 92644.00     0.00     8.00     6.48    0.28    0.28    0.00   0.03  67.20
sdb               0.00     0.00 23182.00    0.00 92728.00     0.00     8.00     6.54    0.28    0.28    0.00   0.03  65.90
sdc               0.00     0.00 22921.00    0.00 91684.00     0.00     8.00     6.83    0.30    0.30    0.00   0.03  73.80
sdd               0.00     0.00 23110.00    0.00 92440.00     0.00     8.00     6.98    0.30    0.30    0.00   0.03  74.50
sde               0.00     0.00 22730.00    0.00 90920.00     0.00     8.00     6.81    0.30    0.30    0.00   0.03  73.60
sdf               0.00     0.00 23173.00    0.00 92692.00     0.00     8.00     7.09    0.31    0.31    0.00   0.03  74.90
sdg               0.00     0.00    0.00    0.00     0.00     0.00     0.00     0.00    0.00    0.00    0.00   0.00   0.00
sdh               0.00     0.00    0.00    0.00     0.00     0.00     0.00     0.00    0.00    0.00    0.00   0.00   0.00
md0               0.00     0.00 138291.00    0.00 553164.00     0.00     8.00     0.00    0.00    0.00    0.00   0.00   0.00

avg-cpu:  %user   %nice %system %iowait  %steal   %idle
           2.79    0.00   31.73    1.02    0.00   64.47

Device:         rrqm/s   wrqm/s     r/s     w/s    rkB/s    wkB/s avgrq-sz avgqu-sz   await r_await w_await  svctm  %util
sda               0.00     0.00 23006.00    0.00 92024.00     0.00     8.00     5.28    0.23    0.23    0.00   0.03  58.80
sdb               0.00     0.00 22798.00    0.00 91192.00     0.00     8.00     5.36    0.24    0.24    0.00   0.03  57.40
sdc               0.00     0.00 22592.00    0.00 90368.00     0.00     8.00     5.96    0.26    0.26    0.00   0.03  67.80
sdd               0.00     0.00 22591.00    0.00 90364.00     0.00     8.00     6.00    0.27    0.27    0.00   0.03  69.10
sde               0.00     0.00 22480.00    0.00 89920.00     0.00     8.00     5.95    0.26    0.26    0.00   0.03  67.80
sdf               0.00     0.00 22385.00    0.00 89540.00     0.00     8.00     5.83    0.26    0.26    0.00   0.03  66.20
sdg               0.00     0.00    0.00    0.00     0.00     0.00     0.00     0.00    0.00    0.00    0.00   0.00   0.00
sdh               0.00     0.00    0.00    0.00     0.00     0.00     0.00     0.00    0.00    0.00    0.00   0.00   0.00
md0               0.00     0.00 135851.00    0.00 543404.00     0.00     8.00     0.00    0.00    0.00    0.00   0.00   0.00

avg-cpu:  %user   %nice %system %iowait  %steal   %idle
           2.78    0.25   31.90    1.01    0.00   64.05

Device:         rrqm/s   wrqm/s     r/s     w/s    rkB/s    wkB/s avgrq-sz avgqu-sz   await r_await w_await  svctm  %util
sda               0.00     0.00 21963.00    0.00 87852.00     0.00     8.00     4.81    0.22    0.22    0.00   0.03  55.50
sdb               0.00     0.00 21930.00    0.00 87720.00     0.00     8.00     4.80    0.22    0.22    0.00   0.02  54.80
sdc               0.00     0.00 21963.00    0.00 87852.00     0.00     8.00     5.39    0.24    0.24    0.00   0.03  64.60
sdd               0.00     0.00 22097.00    0.00 88388.00     0.00     8.00     5.53    0.25    0.25    0.00   0.03  64.50
sde               0.00     0.00 21718.00    0.00 86872.00     0.00     8.00     5.50    0.25    0.25    0.00   0.03  65.60
sdf               0.00     0.00 21741.00    0.00 86964.00     0.00     8.00     5.27    0.24    0.24    0.00   0.03  64.00
sdg               0.00     0.00    1.00    0.00     4.00     0.00     8.00     0.00    0.00    0.00    0.00   0.00   0.00
sdh               0.00     0.00    0.00    0.00     0.00     0.00     0.00     0.00    0.00    0.00    0.00   0.00   0.00
md0               0.00     0.00 131414.00    0.00 525656.00     0.00     8.00     0.00    0.00    0.00    0.00   0.00   0.00

avg-cpu:  %user   %nice %system %iowait  %steal   %idle
           2.74    0.00   33.08    1.00    0.00   63.18

Device:         rrqm/s   wrqm/s     r/s     w/s    rkB/s    wkB/s avgrq-sz avgqu-sz   await r_await w_await  svctm  %util
sda               0.00     0.00 21258.00    0.00 85032.00     0.00     8.00     5.01    0.24    0.24    0.00   0.03  58.60
sdb               0.00     0.00 21284.00    0.00 85136.00     0.00     8.00     4.88    0.23    0.23    0.00   0.03  58.80
sdc               0.00     0.00 21168.00    0.00 84672.00     0.00     8.00     5.52    0.26    0.26    0.00   0.03  66.00
sdd               0.00     0.00 21077.00    0.00 84308.00     0.00     8.00     5.26    0.25    0.25    0.00   0.03  65.40
sde               0.00     0.00 21088.00    0.00 84352.00     0.00     8.00     5.42    0.26    0.26    0.00   0.03  65.20
sdf               0.00     0.00 21193.00    0.00 84772.00     0.00     8.00     5.61    0.26    0.26    0.00   0.03  67.00
sdg               0.00     0.00    0.00    0.00     0.00     0.00     0.00     0.00    0.00    0.00    0.00   0.00   0.00
sdh               0.00     0.00    0.00    0.00     0.00     0.00     0.00     0.00    0.00    0.00    0.00   0.00   0.00
md0               0.00     0.00 127042.00    0.00 508168.00     0.00     8.00     0.00    0.00    0.00    0.00   0.00   0.00

avg-cpu:  %user   %nice %system %iowait  %steal   %idle
           2.81    0.00   31.63    1.02    0.00   64.54

Device:         rrqm/s   wrqm/s     r/s     w/s    rkB/s    wkB/s avgrq-sz avgqu-sz   await r_await w_await  svctm  %util
sda               0.00     0.00 20271.00    0.00 81084.00     0.00     8.00     4.30    0.21    0.21    0.00   0.03  54.50
sdb               0.00     0.00 20396.00    0.00 81584.00     0.00     8.00     4.21    0.21    0.21    0.00   0.03  54.30
sdc               0.00     0.00 20396.00    0.00 81584.00     0.00     8.00     4.78    0.23    0.23    0.00   0.03  62.70
sdd               0.00     0.00 20292.00    0.00 81168.00     0.00     8.00     4.74    0.23    0.23    0.00   0.03  61.10
sde               0.00     0.00 20530.00    0.00 82120.00     0.00     8.00     4.75    0.23    0.23    0.00   0.03  62.60
sdf               0.00     0.00 20497.00    0.00 81988.00     0.00     8.00     4.70    0.23    0.23    0.00   0.03  60.50
sdg               0.00     0.00    0.00    0.00     0.00     0.00     0.00     0.00    0.00    0.00    0.00   0.00   0.00
sdh               0.00     0.00    0.00    0.00     0.00     0.00     0.00     0.00    0.00    0.00    0.00   0.00   0.00
md0               0.00     0.00 122374.00    0.00 489496.00     0.00     8.00     0.00    0.00    0.00    0.00   0.00   0.00

avg-cpu:  %user   %nice %system %iowait  %steal   %idle
           2.31    0.00   32.05    1.03    0.00   64.62

Device:         rrqm/s   wrqm/s     r/s     w/s    rkB/s    wkB/s avgrq-sz avgqu-sz   await r_await w_await  svctm  %util
sda               0.00     0.00 21018.00    0.00 84072.00     0.00     8.00     4.77    0.23    0.23    0.00   0.03  54.70
sdb               0.00     0.00 21015.00    0.00 84060.00     0.00     8.00     4.68    0.22    0.22    0.00   0.03  55.00
sdc               0.00     0.00 21079.00    0.00 84316.00     0.00     8.00     4.94    0.23    0.23    0.00   0.03  63.40
sdd               0.00     0.00 20943.00    0.00 83772.00     0.00     8.00     4.95    0.24    0.24    0.00   0.03  63.20
sde               0.00     0.00 20876.00    0.00 83504.00     0.00     8.00     5.05    0.24    0.24    0.00   0.03  63.10
sdf               0.00     0.00 20728.00    0.00 82912.00     0.00     8.00     5.08    0.24    0.24    0.00   0.03  64.60
sdg               0.00     0.00    0.00    0.00     0.00     0.00     0.00     0.00    0.00    0.00    0.00   0.00   0.00
sdh               0.00     0.00    0.00    0.00     0.00     0.00     0.00     0.00    0.00    0.00    0.00   0.00   0.00
md0               0.00     0.00 125678.00    0.00 502712.00     0.00     8.00     0.00    0.00    0.00    0.00   0.00   0.00

avg-cpu:  %user   %nice %system %iowait  %steal   %idle
           2.99    0.00   32.92    1.25    0.00   62.84

Device:         rrqm/s   wrqm/s     r/s     w/s    rkB/s    wkB/s avgrq-sz avgqu-sz   await r_await w_await  svctm  %util
sda               0.00     0.00 20873.00    0.00 83492.00     0.00     8.00     5.06    0.24    0.24    0.00   0.03  58.20
sdb               0.00     0.00 20970.00    0.00 83880.00     0.00     8.00     4.93    0.23    0.23    0.00   0.03  58.30
sdc               0.00     0.00 21027.00    0.00 84108.00     0.00     8.00     5.33    0.25    0.25    0.00   0.03  64.50
sdd               0.00     0.00 21151.00    0.00 84604.00     0.00     8.00     5.48    0.26    0.26    0.00   0.03  65.60
sde               0.00     0.00 21164.00    0.00 84656.00     0.00     8.00     5.51    0.26    0.26    0.00   0.03  65.10
sdf               0.00     0.00 21103.00    0.00 84412.00     0.00     8.00     5.41    0.26    0.26    0.00   0.03  64.70
sdg               0.00     0.00    0.00    0.00     0.00     0.00     0.00     0.00    0.00    0.00    0.00   0.00   0.00
sdh               0.00     0.00    0.00    0.00     0.00     0.00     0.00     0.00    0.00    0.00    0.00   0.00   0.00
md0               0.00     0.00 126254.00    0.00 505016.00     0.00     8.00     0.00    0.00    0.00    0.00   0.00   0.00

avg-cpu:  %user   %nice %system %iowait  %steal   %idle
           2.78    0.00   32.15    1.27    0.00   63.80

Device:         rrqm/s   wrqm/s     r/s     w/s    rkB/s    wkB/s avgrq-sz avgqu-sz   await r_await w_await  svctm  %util
sda               0.00     0.00 20530.00    0.00 82120.00     0.00     8.00     4.30    0.21    0.21    0.00   0.02  51.00
sdb               0.00     0.00 20940.00    0.00 83760.00     0.00     8.00     4.45    0.21    0.21    0.00   0.03  53.40
sdc               0.00     0.00 20907.00    0.00 83628.00     0.00     8.00     4.77    0.23    0.23    0.00   0.03  61.70
sdd               0.00     0.00 20644.00    0.00 82576.00     0.00     8.00     4.63    0.22    0.22    0.00   0.03  60.80
sde               0.00     0.00 20913.00    0.00 83652.00     0.00     8.00     4.78    0.23    0.23    0.00   0.03  59.10
sdf               0.00     0.00 20839.00    0.00 83356.00     0.00     8.00     4.85    0.23    0.23    0.00   0.03  60.60
sdg               0.00     0.00    0.00    0.00     0.00     0.00     0.00     0.00    0.00    0.00    0.00   0.00   0.00
sdh               0.00     0.00    0.00    0.00     0.00     0.00     0.00     0.00    0.00    0.00    0.00   0.00   0.00
md0               0.00     0.00 124804.00    0.00 499216.00     0.00     8.00     0.00    0.00    0.00    0.00   0.00   0.00

avg-cpu:  %user   %nice %system %iowait  %steal   %idle
           3.02    0.00   32.41    1.01    0.00   63.57

Device:         rrqm/s   wrqm/s     r/s     w/s    rkB/s    wkB/s avgrq-sz avgqu-sz   await r_await w_await  svctm  %util
sda               0.00     0.00 20979.00    0.00 83916.00     0.00     8.00     4.67    0.22    0.22    0.00   0.03  55.40
sdb               0.00     0.00 20915.00    0.00 83660.00     0.00     8.00     4.68    0.22    0.22    0.00   0.03  56.40
sdc               0.00     0.00 20766.00    0.00 83064.00     0.00     8.00     5.12    0.25    0.25    0.00   0.03  63.40
sdd               0.00     0.00 20884.00    0.00 83536.00     0.00     8.00     5.18    0.25    0.25    0.00   0.03  65.50
sde               0.00     0.00 20951.00    0.00 83804.00     0.00     8.00     5.12    0.24    0.24    0.00   0.03  64.20
sdf               0.00     0.00 21071.00    0.00 84284.00     0.00     8.00     5.21    0.25    0.25    0.00   0.03  63.60
sdg               0.00     0.00    0.00    0.00     0.00     0.00     0.00     0.00    0.00    0.00    0.00   0.00   0.00
sdh               0.00     0.00    0.00    0.00     0.00     0.00     0.00     0.00    0.00    0.00    0.00   0.00   0.00
md0               0.00     0.00 125550.00    0.00 502200.00     0.00     8.00     0.00    0.00    0.00    0.00   0.00   0.00

avg-cpu:  %user   %nice %system %iowait  %steal   %idle
           2.81    0.00   31.71    1.02    0.00   64.45

Device:         rrqm/s   wrqm/s     r/s     w/s    rkB/s    wkB/s avgrq-sz avgqu-sz   await r_await w_await  svctm  %util
sda               0.00     0.00 20862.00    0.00 83448.00     0.00     8.00     4.37    0.21    0.21    0.00   0.03  53.80
sdb               0.00     0.00 20792.00    0.00 83168.00     0.00     8.00     4.43    0.21    0.21    0.00   0.03  54.00
sdc               0.00     0.00 20775.00    0.00 83100.00     0.00     8.00     4.77    0.23    0.23    0.00   0.03  62.70
sdd               0.00     0.00 21160.00    0.00 84640.00     0.00     8.00     5.08    0.24    0.24    0.00   0.03  63.10
sde               0.00     0.00 20748.00    0.00 82992.00     0.00     8.00     4.88    0.23    0.23    0.00   0.03  62.50
sdf               0.00     0.00 20900.00    0.00 83600.00     0.00     8.00     5.06    0.24    0.24    0.00   0.03  61.40
sdg               0.00     0.00    0.00    0.00     0.00     0.00     0.00     0.00    0.00    0.00    0.00   0.00   0.00
sdh               0.00     0.00    0.00    0.00     0.00     0.00     0.00     0.00    0.00    0.00    0.00   0.00   0.00
md0               0.00     0.00 125268.00    0.00 501072.00     0.00     8.00     0.00    0.00    0.00    0.00   0.00   0.00

avg-cpu:  %user   %nice %system %iowait  %steal   %idle
           2.49    0.00   33.42    1.25    0.00   62.84

Device:         rrqm/s   wrqm/s     r/s     w/s    rkB/s    wkB/s avgrq-sz avgqu-sz   await r_await w_await  svctm  %util
sda               0.00     0.00 21011.00    0.00 84044.00     0.00     8.00     4.51    0.21    0.21    0.00   0.03  55.80
sdb               0.00     0.00 21041.00    0.00 84164.00     0.00     8.00     4.55    0.22    0.22    0.00   0.03  54.90
sdc               0.00     0.00 20755.00    0.00 83020.00     0.00     8.00     4.88    0.24    0.24    0.00   0.03  62.20
sdd               0.00     0.00 20925.00    0.00 83700.00     0.00     8.00     4.77    0.23    0.23    0.00   0.03  62.40
sde               0.00     0.00 21069.00    0.00 84276.00     0.00     8.00     4.95    0.23    0.23    0.00   0.03  64.80
sdf               0.00     0.00 21073.00    0.00 84292.00     0.00     8.00     5.14    0.24    0.24    0.00   0.03  65.20
sdg               0.00     0.00    0.00    0.00     0.00     0.00     0.00     0.00    0.00    0.00    0.00   0.00   0.00
sdh               0.00     0.00    0.00    0.00     0.00     0.00     0.00     0.00    0.00    0.00    0.00   0.00   0.00
md0               0.00     0.00 125852.00    0.00 503408.00     0.00     8.00     0.00    0.00    0.00    0.00   0.00   0.00

avg-cpu:  %user   %nice %system %iowait  %steal   %idle
           2.30    0.00   32.91    1.02    0.00   63.78

Device:         rrqm/s   wrqm/s     r/s     w/s    rkB/s    wkB/s avgrq-sz avgqu-sz   await r_await w_await  svctm  %util
sda               0.00     0.00 20892.00    0.00 83568.00     0.00     8.00     4.42    0.21    0.21    0.00   0.03  54.90
sdb               0.00     0.00 20600.00    0.00 82400.00     0.00     8.00     4.25    0.21    0.21    0.00   0.03  53.20
sdc               0.00     0.00 20723.00    0.00 82896.00     0.00     8.00     4.85    0.23    0.23    0.00   0.03  62.20
sdd               0.00     0.00 20548.00    0.00 82192.00     0.00     8.00     4.80    0.23    0.23    0.00   0.03  63.00
sde               0.00     0.00 20737.00    0.00 82948.00     0.00     8.00     4.70    0.23    0.23    0.00   0.03  61.90
sdf               0.00     0.00 20951.00    0.00 83804.00     0.00     8.00     4.80    0.23    0.23    0.00   0.03  62.10
sdg               0.00     0.00    0.00    0.00     0.00     0.00     0.00     0.00    0.00    0.00    0.00   0.00   0.00
sdh               0.00     0.00    0.00    0.00     0.00     0.00     0.00     0.00    0.00    0.00    0.00   0.00   0.00
md0               0.00     0.00 124468.00    0.00 497876.00     0.00     8.00     0.00    0.00    0.00    0.00   0.00   0.00

