Linux 4.17.2 (bench) 	08/03/2018 	_x86_64_	(4 CPU)

avg-cpu:  %user   %nice %system %iowait  %steal   %idle
          10.29    0.02    4.04    2.52    0.00   83.14

Device:         rrqm/s   wrqm/s     r/s     w/s    rkB/s    wkB/s avgrq-sz avgqu-sz   await r_await w_await  svctm  %util
sda              43.67     4.25 1637.01  102.92 20826.84  3140.70    27.55     1.03    0.59    0.26    5.91   0.06  10.65
sdb              43.54     4.21 1636.93  103.06 20816.25  3137.35    27.53     1.03    0.59    0.26    5.85   0.06  10.53
sdc              81.57     4.27 1596.80  102.61 20808.38  3139.82    28.18     1.45    0.85    0.45    7.12   0.08  13.97
sdd              74.96     4.24 1602.58  102.68 20793.21  3136.00    28.07     1.46    0.85    0.44    7.32   0.08  14.06
sde              77.01     4.28 1607.68  102.77 20853.34  3140.26    28.06     1.48    0.86    0.44    7.43   0.08  14.09
sdf              74.11     4.26 1609.84  102.72 20834.48  3137.12    27.99     1.52    0.89    0.44    7.90   0.08  14.12
sdg               0.00     3.17   26.14   73.32   323.32   391.97    14.38     0.44    4.42    0.20    5.93   0.08   0.78
sdh               0.00     0.13    0.02    0.24     2.22     5.08    56.82     0.00    1.15    0.65    1.19   0.21   0.01
md0               0.00     0.00 10092.20  482.15 142611.23 21505.05    31.04     0.00    0.00    0.00    0.00   0.00   0.00

avg-cpu:  %user   %nice %system %iowait  %steal   %idle
           1.29    0.00   44.59   50.77    0.00    3.35

Device:         rrqm/s   wrqm/s     r/s     w/s    rkB/s    wkB/s avgrq-sz avgqu-sz   await r_await w_await  svctm  %util
sda               0.00     0.00 28648.00    0.00 114592.00     0.00     8.00     4.17    0.15    0.15    0.00   0.03  95.70
sdb               0.00     0.00 28794.00    0.00 115176.00     0.00     8.00     4.18    0.15    0.15    0.00   0.03  94.80
sdc               0.00     0.00 28738.00    0.00 114952.00     0.00     8.00     4.96    0.17    0.17    0.00   0.03  96.40
sdd               0.00     0.00 28703.00    0.00 114812.00     0.00     8.00     4.92    0.17    0.17    0.00   0.03  97.00
sde               0.00     0.00 28776.00    0.00 115108.00     0.00     8.00     5.01    0.17    0.17    0.00   0.03  95.80
sdf               0.00     0.00 28853.00    0.00 115412.00     0.00     8.00     5.07    0.18    0.18    0.00   0.03  96.60
sdg               0.00     0.00    0.00    5.00     0.00   132.00    52.80     0.00    0.00    0.00    0.00   0.00   0.00
sdh               0.00     0.00    0.00    0.00     0.00     0.00     0.00     0.00    0.00    0.00    0.00   0.00   0.00
md0               0.00     0.00 172559.00    0.00 690236.00     0.00     8.00     0.00    0.00    0.00    0.00   0.00   0.00

avg-cpu:  %user   %nice %system %iowait  %steal   %idle
           1.27    0.00   46.70   48.22    0.00    3.81

Device:         rrqm/s   wrqm/s     r/s     w/s    rkB/s    wkB/s avgrq-sz avgqu-sz   await r_await w_await  svctm  %util
sda               0.00     0.00 28829.00    0.00 115316.00     0.00     8.00     3.96    0.14    0.14    0.00   0.03  93.90
sdb               0.00     0.00 28654.00    0.00 114616.00     0.00     8.00     4.02    0.14    0.14    0.00   0.03  94.40
sdc               0.00     0.00 28595.00    0.00 114380.00     0.00     8.00     4.83    0.17    0.17    0.00   0.03  95.40
sdd               0.00     0.00 29086.00    0.00 116344.00     0.00     8.00     5.04    0.17    0.17    0.00   0.03  95.90
sde               0.00     0.00 29015.00    0.00 116056.00     0.00     8.00     4.87    0.17    0.17    0.00   0.03  94.70
sdf               0.00     0.00 28289.00    0.00 113156.00     0.00     8.00     4.70    0.17    0.17    0.00   0.03  95.70
sdg               0.00     0.00    0.00    0.00     0.00     0.00     0.00     0.00    0.00    0.00    0.00   0.00   0.00
sdh               0.00     0.00    0.00    0.00     0.00     0.00     0.00     0.00    0.00    0.00    0.00   0.00   0.00
md0               0.00     0.00 172464.00    0.00 689856.00     0.00     8.00     0.00    0.00    0.00    0.00   0.00   0.00

avg-cpu:  %user   %nice %system %iowait  %steal   %idle
           0.77    0.26   46.80   48.59    0.00    3.58

Device:         rrqm/s   wrqm/s     r/s     w/s    rkB/s    wkB/s avgrq-sz avgqu-sz   await r_await w_await  svctm  %util
sda               0.00     0.00 28440.00    0.00 113760.00     0.00     8.00     4.01    0.14    0.14    0.00   0.03  93.70
sdb               0.00     0.00 28417.00    0.00 113668.00     0.00     8.00     4.02    0.14    0.14    0.00   0.03  95.10
sdc               0.00     0.00 28543.00    0.00 114172.00     0.00     8.00     4.81    0.17    0.17    0.00   0.03  95.00
sdd               0.00     0.00 28661.00    0.00 114644.00     0.00     8.00     4.96    0.17    0.17    0.00   0.03  95.60
sde               0.00     0.00 28484.00    0.00 113936.00     0.00     8.00     4.94    0.17    0.17    0.00   0.03  96.80
sdf               0.00     0.00 28555.00    0.00 114220.00     0.00     8.00     4.91    0.17    0.17    0.00   0.03  95.20
sdg               0.00     0.00   39.00    0.00   468.00     0.00    24.00     0.01    0.15    0.15    0.00   0.15   0.60
sdh               0.00     0.00    0.00    0.00     0.00     0.00     0.00     0.00    0.00    0.00    0.00   0.00   0.00
md0               0.00     0.00 171072.00    0.00 684288.00     0.00     8.00     0.00    0.00    0.00    0.00   0.00   0.00

avg-cpu:  %user   %nice %system %iowait  %steal   %idle
           1.29    0.00   45.62   48.97    0.00    4.12

Device:         rrqm/s   wrqm/s     r/s     w/s    rkB/s    wkB/s avgrq-sz avgqu-sz   await r_await w_await  svctm  %util
sda               0.00     0.00 28132.00    0.00 112528.00     0.00     8.00     4.09    0.15    0.15    0.00   0.03  93.50
sdb               0.00     0.00 28546.00    0.00 114184.00     0.00     8.00     3.98    0.14    0.14    0.00   0.03  94.50
sdc               0.00     0.00 28045.00    0.00 112180.00     0.00     8.00     4.83    0.17    0.17    0.00   0.03  94.70
sdd               0.00     0.00 28448.00    0.00 113792.00     0.00     8.00     4.83    0.17    0.17    0.00   0.03  95.20
sde               0.00     0.00 28678.00    0.00 114712.00     0.00     8.00     4.96    0.17    0.17    0.00   0.03  93.80
sdf               0.00     0.00 28457.00    0.00 113828.00     0.00     8.00     5.01    0.18    0.18    0.00   0.03  93.80
sdg               0.00     0.00    0.00    0.00     0.00     0.00     0.00     0.00    0.00    0.00    0.00   0.00   0.00
sdh               0.00     0.00    0.00    0.00     0.00     0.00     0.00     0.00    0.00    0.00    0.00   0.00   0.00
md0               0.00     0.00 170339.00    0.00 681356.00     0.00     8.00     0.00    0.00    0.00    0.00   0.00   0.00

avg-cpu:  %user   %nice %system %iowait  %steal   %idle
           1.03    0.00   45.74   48.58    0.00    4.65

Device:         rrqm/s   wrqm/s     r/s     w/s    rkB/s    wkB/s avgrq-sz avgqu-sz   await r_await w_await  svctm  %util
sda               0.00     0.00 28369.00    0.00 113476.00     0.00     8.00     4.14    0.15    0.15    0.00   0.03  93.40
sdb               0.00     0.00 28182.00    0.00 112728.00     0.00     8.00     3.93    0.14    0.14    0.00   0.03  93.40
sdc               0.00     0.00 28195.00    0.00 112780.00     0.00     8.00     4.73    0.17    0.17    0.00   0.03  93.30
sdd               0.00     0.00 28294.00    0.00 113180.00     0.00     8.00     4.82    0.17    0.17    0.00   0.03  93.90
sde               0.00     0.00 28168.00    0.00 112672.00     0.00     8.00     4.72    0.17    0.17    0.00   0.03  93.60
sdf               0.00     0.00 28332.00    0.00 113328.00     0.00     8.00     4.93    0.17    0.17    0.00   0.03  94.30
sdg               0.00     0.00    0.00    0.00     0.00     0.00     0.00     0.00    0.00    0.00    0.00   0.00   0.00
sdh               0.00     0.00    0.00    0.00     0.00     0.00     0.00     0.00    0.00    0.00    0.00   0.00   0.00
md0               0.00     0.00 169534.00    0.00 678136.00     0.00     8.00     0.00    0.00    0.00    0.00   0.00   0.00

avg-cpu:  %user   %nice %system %iowait  %steal   %idle
           1.04    0.00   45.60   48.96    0.00    4.40

Device:         rrqm/s   wrqm/s     r/s     w/s    rkB/s    wkB/s avgrq-sz avgqu-sz   await r_await w_await  svctm  %util
sda               0.00     0.00 28441.00    0.00 113764.00     0.00     8.00     4.08    0.14    0.14    0.00   0.03  94.00
sdb               0.00     0.00 28425.00    0.00 113700.00     0.00     8.00     3.97    0.14    0.14    0.00   0.03  93.40
sdc               0.00     0.00 28498.00    0.00 113992.00     0.00     8.00     4.89    0.17    0.17    0.00   0.03  94.00
sdd               0.00     0.00 28526.00    0.00 114100.00     0.00     8.00     4.83    0.17    0.17    0.00   0.03  95.00
sde               0.00     0.00 28177.00    0.00 112708.00     0.00     8.00     4.74    0.17    0.17    0.00   0.03  93.50
sdf               0.00     0.00 28284.00    0.00 113136.00     0.00     8.00     4.84    0.17    0.17    0.00   0.03  93.70
sdg               0.00     0.00    0.00    0.00     0.00     0.00     0.00     0.00    0.00    0.00    0.00   0.00   0.00
sdh               0.00     0.00    0.00    0.00     0.00     0.00     0.00     0.00    0.00    0.00    0.00   0.00   0.00
md0               0.00     0.00 170353.00    0.00 681412.00     0.00     8.00     0.00    0.00    0.00    0.00   0.00   0.00

avg-cpu:  %user   %nice %system %iowait  %steal   %idle
           1.04    0.00   45.57   49.22    0.00    4.17

Device:         rrqm/s   wrqm/s     r/s     w/s    rkB/s    wkB/s avgrq-sz avgqu-sz   await r_await w_await  svctm  %util
sda               0.00     0.00 28541.00    0.00 114164.00     0.00     8.00     4.08    0.14    0.14    0.00   0.03  95.40
sdb               0.00     0.00 28625.00    0.00 114500.00     0.00     8.00     4.08    0.14    0.14    0.00   0.03  94.90
sdc               0.00     0.00 28626.00    0.00 114504.00     0.00     8.00     4.93    0.17    0.17    0.00   0.03  95.80
sdd               0.00     0.00 28433.00    0.00 113732.00     0.00     8.00     4.87    0.17    0.17    0.00   0.03  95.70
sde               0.00     0.00 28308.00    0.00 113232.00     0.00     8.00     4.95    0.17    0.17    0.00   0.03  95.60
sdf               0.00     0.00 28119.00    0.00 112476.00     0.00     8.00     4.89    0.17    0.17    0.00   0.03  95.90
sdg               0.00     1.00    4.00   25.00    64.00   300.00    25.10     0.01    0.52    0.00    0.60   0.07   0.20
sdh               0.00     0.00    0.00    0.00     0.00     0.00     0.00     0.00    0.00    0.00    0.00   0.00   0.00
md0               0.00     0.00 170643.00    0.00 682572.00     0.00     8.00     0.00    0.00    0.00    0.00   0.00   0.00

avg-cpu:  %user   %nice %system %iowait  %steal   %idle
           1.25    0.00   47.62   47.37    0.00    3.76

Device:         rrqm/s   wrqm/s     r/s     w/s    rkB/s    wkB/s avgrq-sz avgqu-sz   await r_await w_await  svctm  %util
sda               0.00     0.00 28576.00    0.00 114304.00     0.00     8.00     4.07    0.14    0.14    0.00   0.03  94.80
sdb               0.00     0.00 28721.00    0.00 114884.00     0.00     8.00     4.00    0.14    0.14    0.00   0.03  94.30
sdc               0.00     0.00 28640.00    0.00 114560.00     0.00     8.00     4.97    0.17    0.17    0.00   0.03  95.50
sdd               0.00     0.00 28633.00    0.00 114532.00     0.00     8.00     4.98    0.17    0.17    0.00   0.03  95.30
sde               0.00     0.00 28631.00    0.00 114524.00     0.00     8.00     4.86    0.17    0.17    0.00   0.03  96.00
sdf               0.00     0.00 28358.00    0.00 113432.00     0.00     8.00     4.82    0.17    0.17    0.00   0.03  95.60
sdg               0.00    50.00    0.00 1369.00     0.00  7108.00    10.38     8.33    6.08    0.00    6.08   0.05   6.20
sdh               0.00     0.00    0.00    0.00     0.00     0.00     0.00     0.00    0.00    0.00    0.00   0.00   0.00
md0               0.00     0.00 171569.00    0.00 686276.00     0.00     8.00     0.00    0.00    0.00    0.00   0.00   0.00

avg-cpu:  %user   %nice %system %iowait  %steal   %idle
           0.78    0.00   45.97   49.35    0.00    3.90

Device:         rrqm/s   wrqm/s     r/s     w/s    rkB/s    wkB/s avgrq-sz avgqu-sz   await r_await w_await  svctm  %util
sda               0.00     0.00 28598.00    0.00 114392.00     0.00     8.00     4.14    0.14    0.14    0.00   0.03  95.10
sdb               0.00     0.00 28559.00    0.00 114236.00     0.00     8.00     4.02    0.14    0.14    0.00   0.03  94.80
sdc               0.00     0.00 28631.00    0.00 114524.00     0.00     8.00     5.00    0.17    0.17    0.00   0.03  96.20
sdd               0.00     0.00 28502.00    0.00 114008.00     0.00     8.00     5.00    0.18    0.18    0.00   0.03  95.90
sde               0.00     0.00 28585.00    0.00 114340.00     0.00     8.00     4.85    0.17    0.17    0.00   0.03  95.40
sdf               0.00     0.00 28471.00    0.00 113884.00     0.00     8.00     4.85    0.17    0.17    0.00   0.03  94.90
sdg               0.00     0.00    0.00    0.00     0.00     0.00     0.00     0.00    0.00    0.00    0.00   0.00   0.00
sdh               0.00     0.00    0.00    0.00     0.00     0.00     0.00     0.00    0.00    0.00    0.00   0.00   0.00
md0               0.00     0.00 171344.00    0.00 685376.00     0.00     8.00     0.00    0.00    0.00    0.00   0.00   0.00

avg-cpu:  %user   %nice %system %iowait  %steal   %idle
           1.03    0.00   46.25   49.35    0.00    3.36

Device:         rrqm/s   wrqm/s     r/s     w/s    rkB/s    wkB/s avgrq-sz avgqu-sz   await r_await w_await  svctm  %util
sda               0.00     0.00 29136.00    0.00 116544.00     0.00     8.00     4.21    0.14    0.14    0.00   0.03  94.70
sdb               0.00     0.00 28584.00    0.00 114336.00     0.00     8.00     4.06    0.14    0.14    0.00   0.03  94.40
sdc               0.00     0.00 28884.00    0.00 115536.00     0.00     8.00     4.87    0.17    0.17    0.00   0.03  96.20
sdd               0.00     0.00 28597.00    0.00 114388.00     0.00     8.00     4.94    0.17    0.17    0.00   0.03  96.00
sde               0.00     0.00 28476.00    0.00 113904.00     0.00     8.00     4.91    0.17    0.17    0.00   0.03  95.40
sdf               0.00     0.00 28626.00    0.00 114508.00     0.00     8.00     4.86    0.17    0.17    0.00   0.03  95.40
sdg               0.00     0.00    0.00    0.00     0.00     0.00     0.00     0.00    0.00    0.00    0.00   0.00   0.00
sdh               0.00     0.00    0.00    0.00     0.00     0.00     0.00     0.00    0.00    0.00    0.00   0.00   0.00
md0               0.00     0.00 172304.00    0.00 689216.00     0.00     8.00     0.00    0.00    0.00    0.00   0.00   0.00

avg-cpu:  %user   %nice %system %iowait  %steal   %idle
           1.01    0.00   47.09   48.10    0.00    3.80

Device:         rrqm/s   wrqm/s     r/s     w/s    rkB/s    wkB/s avgrq-sz avgqu-sz   await r_await w_await  svctm  %util
sda               0.00     0.00 28286.00    0.00 113148.00     0.00     8.00     4.06    0.14    0.14    0.00   0.03  95.30
sdb               0.00     0.00 28758.00    0.00 115032.00     0.00     8.00     3.99    0.14    0.14    0.00   0.03  94.70
sdc               0.00     0.00 28962.00    0.00 115848.00     0.00     8.00     4.95    0.17    0.17    0.00   0.03  96.00
sdd               0.00     0.00 28474.00    0.00 113896.00     0.00     8.00     4.82    0.17    0.17    0.00   0.03  97.00
sde               0.00     0.00 29140.00    0.00 116560.00     0.00     8.00     5.06    0.17    0.17    0.00   0.03  96.00
sdf               0.00     0.00 28735.00    0.00 114936.00     0.00     8.00     4.93    0.17    0.17    0.00   0.03  95.40
sdg               0.00     0.00    0.00    0.00     0.00     0.00     0.00     0.00    0.00    0.00    0.00   0.00   0.00
sdh               0.00     0.00    0.00    0.00     0.00     0.00     0.00     0.00    0.00    0.00    0.00   0.00   0.00
md0               0.00     0.00 172345.00    0.00 689380.00     0.00     8.00     0.00    0.00    0.00    0.00   0.00   0.00

avg-cpu:  %user   %nice %system %iowait  %steal   %idle
           1.03    0.00   46.27   49.10    0.00    3.60

Device:         rrqm/s   wrqm/s     r/s     w/s    rkB/s    wkB/s avgrq-sz avgqu-sz   await r_await w_await  svctm  %util
sda               0.00     0.00 28527.00    0.00 114104.00     0.00     8.00     4.02    0.14    0.14    0.00   0.03  95.00
sdb               0.00     0.00 28707.00    0.00 114828.00     0.00     8.00     4.09    0.14    0.14    0.00   0.03  96.00
sdc               0.00     0.00 28764.00    0.00 115056.00     0.00     8.00     5.00    0.17    0.17    0.00   0.03  96.30
sdd               0.00     0.00 28729.00    0.00 114916.00     0.00     8.00     5.00    0.17    0.17    0.00   0.03  96.80
sde               0.00     0.00 28543.00    0.00 114172.00     0.00     8.00     4.89    0.17    0.17    0.00   0.03  96.30
sdf               0.00     0.00 28850.00    0.00 115400.00     0.00     8.00     5.04    0.17    0.17    0.00   0.03  97.40
sdg               0.00     0.00    0.00    0.00     0.00     0.00     0.00     0.00    0.00    0.00    0.00   0.00   0.00
sdh               0.00     0.00    0.00    0.00     0.00     0.00     0.00     0.00    0.00    0.00    0.00   0.00   0.00
md0               0.00     0.00 172135.00    0.00 688540.00     0.00     8.00     0.00    0.00    0.00    0.00   0.00   0.00

avg-cpu:  %user   %nice %system %iowait  %steal   %idle
           1.29    0.00   45.88   49.23    0.00    3.61

Device:         rrqm/s   wrqm/s     r/s     w/s    rkB/s    wkB/s avgrq-sz avgqu-sz   await r_await w_await  svctm  %util
sda               0.00     0.00 28705.00    0.00 114820.00     0.00     8.00     4.19    0.15    0.15    0.00   0.03  95.10
sdb               0.00     0.00 28357.00    0.00 113428.00     0.00     8.00     3.95    0.14    0.14    0.00   0.03  95.30
sdc               0.00     0.00 28451.00    0.00 113804.00     0.00     8.00     4.86    0.17    0.17    0.00   0.03  95.30
sdd               0.00     0.00 28674.00    0.00 114696.00     0.00     8.00     4.92    0.17    0.17    0.00   0.03  96.30
sde               0.00     0.00 28523.00    0.00 114092.00     0.00     8.00     4.95    0.17    0.17    0.00   0.03  96.70
sdf               0.00     0.00 28793.00    0.00 115172.00     0.00     8.00     4.98    0.17    0.17    0.00   0.03  96.30
sdg               0.00     2.00   23.00    9.00    92.00    68.00    10.00     0.01    0.22    0.17    0.33   0.12   0.40
sdh               0.00     0.00    0.00    0.00     0.00     0.00     0.00     0.00    0.00    0.00    0.00   0.00   0.00
md0               0.00     0.00 171496.00    0.00 685984.00     0.00     8.00     0.00    0.00    0.00    0.00   0.00   0.00

avg-cpu:  %user   %nice %system %iowait  %steal   %idle
           1.05    0.00   44.50   50.52    0.00    3.93

Device:         rrqm/s   wrqm/s     r/s     w/s    rkB/s    wkB/s avgrq-sz avgqu-sz   await r_await w_await  svctm  %util
sda               0.00     0.00 28481.00    0.00 113924.00     0.00     8.00     4.12    0.14    0.14    0.00   0.03  93.80
sdb               0.00     0.00 28180.00    0.00 112724.00     0.00     8.00     3.96    0.14    0.14    0.00   0.03  93.70
sdc               0.00     0.00 28407.00    0.00 113628.00     0.00     8.00     4.88    0.17    0.17    0.00   0.03  95.00
sdd               0.00     0.00 28527.00    0.00 114108.00     0.00     8.00     4.89    0.17    0.17    0.00   0.03  94.70
sde               0.00     0.00 28421.00    0.00 113684.00     0.00     8.00     4.91    0.17    0.17    0.00   0.03  94.90
sdf               0.00     0.00 28927.00    0.00 115708.00     0.00     8.00     4.96    0.17    0.17    0.00   0.03  94.80
sdg               0.00     0.00    0.00    0.00     0.00     0.00     0.00     0.00    0.00    0.00    0.00   0.00   0.00
sdh               0.00     0.00    0.00    0.00     0.00     0.00     0.00     0.00    0.00    0.00    0.00   0.00   0.00
md0               0.00     0.00 170943.00    0.00 683772.00     0.00     8.00     0.00    0.00    0.00    0.00   0.00   0.00

avg-cpu:  %user   %nice %system %iowait  %steal   %idle
           0.77    0.00   46.04   49.10    0.00    4.09

Device:         rrqm/s   wrqm/s     r/s     w/s    rkB/s    wkB/s avgrq-sz avgqu-sz   await r_await w_await  svctm  %util
sda               0.00     0.00 28353.00    0.00 113412.00     0.00     8.00     4.10    0.14    0.14    0.00   0.03  93.50
sdb               0.00     0.00 28392.00    0.00 113564.00     0.00     8.00     3.97    0.14    0.14    0.00   0.03  94.00
sdc               0.00     0.00 28409.00    0.00 113636.00     0.00     8.00     4.76    0.17    0.17    0.00   0.03  94.20
sdd               0.00     0.00 28579.00    0.00 114316.00     0.00     8.00     4.87    0.17    0.17    0.00   0.03  94.30
sde               0.00     0.00 28708.00    0.00 114832.00     0.00     8.00     4.97    0.17    0.17    0.00   0.03  93.90
sdf               0.00     0.00 28399.00    0.00 113596.00     0.00     8.00     4.89    0.17    0.17    0.00   0.03  94.30
sdg               0.00     0.00    0.00    0.00     0.00     0.00     0.00     0.00    0.00    0.00    0.00   0.00   0.00
sdh               0.00     0.00    0.00    0.00     0.00     0.00     0.00     0.00    0.00    0.00    0.00   0.00   0.00
md0               0.00     0.00 170842.00    0.00 683368.00     0.00     8.00     0.00    0.00    0.00    0.00   0.00   0.00

avg-cpu:  %user   %nice %system %iowait  %steal   %idle
           1.05    0.00   44.47   50.53    0.00    3.95

Device:         rrqm/s   wrqm/s     r/s     w/s    rkB/s    wkB/s avgrq-sz avgqu-sz   await r_await w_await  svctm  %util
sda               0.00     0.00 28581.00    0.00 114328.00     0.00     8.00     4.04    0.14    0.14    0.00   0.03  93.70
sdb               0.00     0.00 28126.00    0.00 112504.00     0.00     8.00     3.95    0.14    0.14    0.00   0.03  92.40
sdc               0.00     0.00 28373.00    0.00 113492.00     0.00     8.00     4.80    0.17    0.17    0.00   0.03  94.40
sdd               0.00     0.00 28736.00    0.00 114944.00     0.00     8.00     5.02    0.17    0.17    0.00   0.03  94.10
sde               0.00     0.00 28871.00    0.00 115484.00     0.00     8.00     4.97    0.17    0.17    0.00   0.03  94.10
sdf               0.00     0.00 28524.00    0.00 114096.00     0.00     8.00     4.94    0.17    0.17    0.00   0.03  93.60
sdg               0.00     0.00    0.00    0.00     0.00     0.00     0.00     0.00    0.00    0.00    0.00   0.00   0.00
sdh               0.00     0.00    0.00    0.00     0.00     0.00     0.00     0.00    0.00    0.00    0.00   0.00   0.00
md0               0.00     0.00 171210.00    0.00 684840.00     0.00     8.00     0.00    0.00    0.00    0.00   0.00   0.00

avg-cpu:  %user   %nice %system %iowait  %steal   %idle
           1.02    0.00   45.78   49.36    0.00    3.84

Device:         rrqm/s   wrqm/s     r/s     w/s    rkB/s    wkB/s avgrq-sz avgqu-sz   await r_await w_await  svctm  %util
sda               0.00     0.00 28399.00    0.00 113592.00     0.00     8.00     3.98    0.14    0.14    0.00   0.03  94.20
sdb               0.00     0.00 28554.00    0.00 114216.00     0.00     8.00     4.03    0.14    0.14    0.00   0.03  95.60
sdc               0.00     0.00 28687.00    0.00 114748.00     0.00     8.00     4.94    0.17    0.17    0.00   0.03  95.70
sdd               0.00     0.00 28855.00    0.00 115420.00     0.00     8.00     4.99    0.17    0.17    0.00   0.03  95.90
sde               0.00     0.00 28596.00    0.00 114384.00     0.00     8.00     4.96    0.17    0.17    0.00   0.03  95.80
sdf               0.00     0.00 28634.00    0.00 114536.00     0.00     8.00     5.01    0.18    0.18    0.00   0.03  96.70
sdg               0.00     0.00    0.00    0.00     0.00     0.00     0.00     0.00    0.00    0.00    0.00   0.00   0.00
sdh               0.00     0.00    0.00    0.00     0.00     0.00     0.00     0.00    0.00    0.00    0.00   0.00   0.00
md0               0.00     0.00 171727.00    0.00 686908.00     0.00     8.00     0.00    0.00    0.00    0.00   0.00   0.00

avg-cpu:  %user   %nice %system %iowait  %steal   %idle
           1.04    0.00   44.27   50.52    0.00    4.17

Device:         rrqm/s   wrqm/s     r/s     w/s    rkB/s    wkB/s avgrq-sz avgqu-sz   await r_await w_await  svctm  %util
sda               0.00     0.00 28482.00    0.00 113928.00     0.00     8.00     4.23    0.15    0.15    0.00   0.03  94.70
sdb               0.00     0.00 28755.00    0.00 115020.00     0.00     8.00     4.02    0.14    0.14    0.00   0.03  94.30
sdc               0.00     0.00 28557.00    0.00 114232.00     0.00     8.00     4.87    0.17    0.17    0.00   0.03  96.20
sdd               0.00     0.00 28548.00    0.00 114192.00     0.00     8.00     4.95    0.17    0.17    0.00   0.03  95.20
sde               0.00     0.00 28597.00    0.00 114388.00     0.00     8.00     4.96    0.17    0.17    0.00   0.03  95.80
sdf               0.00     0.00 28746.00    0.00 114984.00     0.00     8.00     4.97    0.17    0.17    0.00   0.03  95.40
sdg               0.00     0.00    1.00   55.00     4.00   300.00    10.86     0.02    0.41    1.00    0.40   0.02   0.10
sdh               0.00     0.00    0.00    0.00     0.00     0.00     0.00     0.00    0.00    0.00    0.00   0.00   0.00
md0               0.00     0.00 171679.00    0.00 686716.00     0.00     8.00     0.00    0.00    0.00    0.00   0.00   0.00

avg-cpu:  %user   %nice %system %iowait  %steal   %idle
           1.30    0.00   44.94   50.39    0.00    3.38

Device:         rrqm/s   wrqm/s     r/s     w/s    rkB/s    wkB/s avgrq-sz avgqu-sz   await r_await w_await  svctm  %util
sda               0.00     0.00 28825.00    0.00 115300.00     0.00     8.00     4.15    0.14    0.14    0.00   0.03  94.50
sdb               0.00     0.00 28796.00    0.00 115184.00     0.00     8.00     4.05    0.14    0.14    0.00   0.03  94.60
sdc               0.00     0.00 28708.00    0.00 114828.00     0.00     8.00     4.99    0.17    0.17    0.00   0.03  95.80
sdd               0.00     0.00 28559.00    0.00 114236.00     0.00     8.00     4.93    0.17    0.17    0.00   0.03  95.30
sde               0.00     0.00 28968.00    0.00 115872.00     0.00     8.00     4.93    0.17    0.17    0.00   0.03  96.40
sdf               0.00     0.00 28435.00    0.00 113740.00     0.00     8.00     5.09    0.18    0.18    0.00   0.03  95.80
sdg               0.00     0.00    0.00    0.00     0.00     0.00     0.00     0.00    0.00    0.00    0.00   0.00   0.00
sdh               0.00     0.00    0.00    0.00     0.00     0.00     0.00     0.00    0.00    0.00    0.00   0.00   0.00
md0               0.00     0.00 172297.00    0.00 689188.00     0.00     8.00     0.00    0.00    0.00    0.00   0.00   0.00

avg-cpu:  %user   %nice %system %iowait  %steal   %idle
           1.28    0.00   45.27   49.87    0.00    3.58

Device:         rrqm/s   wrqm/s     r/s     w/s    rkB/s    wkB/s avgrq-sz avgqu-sz   await r_await w_await  svctm  %util
sda               0.00     0.00 28877.00    0.00 115508.00     0.00     8.00     4.10    0.14    0.14    0.00   0.03  93.00
sdb               0.00     0.00 28867.00    0.00 115468.00     0.00     8.00     4.10    0.14    0.14    0.00   0.03  93.60
sdc               0.00     0.00 28765.00    0.00 115060.00     0.00     8.00     4.93    0.17    0.17    0.00   0.03  94.90
sdd               0.00     0.00 28737.00    0.00 114948.00     0.00     8.00     4.83    0.17    0.17    0.00   0.03  95.60
sde               0.00     0.00 28704.00    0.00 114816.00     0.00     8.00     4.86    0.17    0.17    0.00   0.03  95.10
sdf               0.00     0.00 28689.00    0.00 114756.00     0.00     8.00     4.93    0.17    0.17    0.00   0.03  94.80
sdg               0.00     0.00    0.00    0.00     0.00     0.00     0.00     0.00    0.00    0.00    0.00   0.00   0.00
sdh               0.00     0.00    0.00    0.00     0.00     0.00     0.00     0.00    0.00    0.00    0.00   0.00   0.00
md0               0.00     0.00 172625.00    0.00 690500.00     0.00     8.00     0.00    0.00    0.00    0.00   0.00   0.00

