Linux 4.17.2 (bench) 	08/03/2018 	_x86_64_	(4 CPU)

avg-cpu:  %user   %nice %system %iowait  %steal   %idle
          10.30    0.02    3.96    2.40    0.00   83.32

Device:         rrqm/s   wrqm/s     r/s     w/s    rkB/s    wkB/s avgrq-sz avgqu-sz   await r_await w_await  svctm  %util
sda              38.65     4.29 1586.70  103.94 20514.80  3171.76    28.02     1.02    0.60    0.26    5.91   0.06  10.43
sdb              38.56     4.25 1586.57  104.08 20504.12  3168.38    28.00     1.02    0.60    0.26    5.85   0.06  10.31
sdc              76.76     4.31 1546.30  103.62 20496.36  3170.88    28.69     1.44    0.87    0.45    7.12   0.08  13.72
sdd              70.06     4.28 1552.15  103.69 20480.97  3167.02    28.56     1.45    0.87    0.44    7.32   0.08  13.81
sde              72.15     4.33 1557.31  103.79 20541.95  3171.32    28.55     1.47    0.88    0.45    7.43   0.08  13.83
sdf              69.23     4.30 1559.50  103.74 20522.90  3168.14    28.49     1.51    0.91    0.44    7.90   0.08  13.86
sdg               0.00     3.18   25.75   73.36   321.64   391.96    14.40     0.44    4.44    0.20    5.93   0.08   0.77
sdh               0.00     0.13    0.02    0.24     2.24     5.13    56.82     0.00    1.15    0.65    1.19   0.21   0.01
md0               0.00     0.00 9759.83  486.92 140391.22 21717.75    31.64     0.00    0.00    0.00    0.00   0.00   0.00

avg-cpu:  %user   %nice %system %iowait  %steal   %idle
           2.51    0.01   14.41   43.00    0.00   40.07

Device:         rrqm/s   wrqm/s     r/s     w/s    rkB/s    wkB/s avgrq-sz avgqu-sz   await r_await w_await  svctm  %util
sda               0.55     0.00 6202.65    0.00 28016.40     0.00     9.03     0.71    0.12    0.12    0.00   0.07  41.49
sdb               0.70     0.00 6224.75    0.00 28273.00     0.00     9.08     0.73    0.12    0.12    0.00   0.07  41.71
sdc               0.55     0.00 6237.25    0.00 28220.00     0.00     9.05     0.81    0.13    0.13    0.00   0.07  45.48
sdd               0.55     0.00 6206.95    0.00 28001.40     0.00     9.02     0.81    0.13    0.13    0.00   0.07  45.66
sde               0.40     0.00 6244.45    0.00 28293.80     0.00     9.06     0.82    0.13    0.13    0.00   0.07  45.76
sdf               0.70     0.00 6233.30    0.00 28231.20     0.00     9.06     0.84    0.13    0.13    0.00   0.07  46.40
sdg               0.00     0.05    1.50    0.45    10.40     3.80    14.56     0.00    0.23    0.17    0.44   0.13   0.03
sdh               0.00     0.00    0.00    0.00     0.00     0.00     0.00     0.00    0.00    0.00    0.00   0.00   0.00
md0               0.00     0.00 37372.75    0.00 169926.60     0.00     9.09     0.00    0.00    0.00    0.00   0.00   0.00

