Linux 4.17.2 (bench) 	08/03/2018 	_x86_64_	(4 CPU)

avg-cpu:  %user   %nice %system %iowait  %steal   %idle
          10.30    0.02    3.97    2.41    0.00   83.30

Device:         rrqm/s   wrqm/s     r/s     w/s    rkB/s    wkB/s avgrq-sz avgqu-sz   await r_await w_await  svctm  %util
sda              38.66     4.29 1590.57  103.82 20552.13  3168.04    28.00     1.02    0.60    0.26    5.91   0.06  10.45
sdb              38.57     4.25 1590.44  103.96 20541.49  3164.66    27.98     1.02    0.60    0.26    5.85   0.06  10.33
sdc              76.72     4.31 1550.21  103.50 20533.75  3167.15    28.66     1.44    0.87    0.45    7.12   0.08  13.75
sdd              70.04     4.28 1556.05  103.57 20518.37  3163.30    28.54     1.45    0.87    0.44    7.32   0.08  13.84
sde              72.12     4.32 1561.21  103.67 20579.21  3167.60    28.53     1.47    0.88    0.45    7.43   0.08  13.86
sdf              69.20     4.29 1563.38  103.61 20560.16  3164.42    28.46     1.51    0.91    0.44    7.90   0.08  13.89
sdg               0.00     3.18   25.79   73.35   321.81   391.94    14.40     0.44    4.44    0.20    5.93   0.08   0.77
sdh               0.00     0.13    0.02    0.24     2.24     5.13    56.82     0.00    1.15    0.65    1.19   0.21   0.01
md0               0.00     0.00 9783.08  486.35 140685.83 21692.25    31.62     0.00    0.00    0.00    0.00   0.00   0.00

avg-cpu:  %user   %nice %system %iowait  %steal   %idle
           5.01    0.25   24.06   25.31    0.00   45.36

Device:         rrqm/s   wrqm/s     r/s     w/s    rkB/s    wkB/s avgrq-sz avgqu-sz   await r_await w_await  svctm  %util
sda             206.00     0.00  396.00    0.00 113292.00     0.00   572.18     0.74    1.86    1.86    0.00   0.80  31.80
sdb             202.00     0.00  447.00    0.00 113640.00     0.00   508.46     0.73    1.65    1.65    0.00   0.74  33.10
sdc             201.00     0.00  414.00    0.00 111420.00     0.00   538.26     1.31    3.13    3.13    0.00   1.28  52.90
sdd             204.00     0.00  383.00    0.00 111704.00     0.00   583.31     1.46    3.77    3.77    0.00   1.36  52.10
sde             203.00     0.00  436.00    0.00 111896.00     0.00   513.28     1.46    3.32    3.32    0.00   1.21  52.60
sdf             200.00     0.00  421.00    0.00 110916.00     0.00   526.92     1.35    3.18    3.18    0.00   1.25  52.50
sdg               0.00     0.00 2977.00    0.00 11984.00     0.00     8.05     0.38    0.13    0.13    0.00   0.13  37.70
sdh               0.00     0.00    0.00    0.00     0.00     0.00     0.00     0.00    0.00    0.00    0.00   0.00   0.00
md0               0.00     0.00 3755.00    0.00 974616.00     0.00   519.10     0.00    0.00    0.00    0.00   0.00   0.00

avg-cpu:  %user   %nice %system %iowait  %steal   %idle
           2.02    0.00   11.08   35.52    0.00   51.39

Device:         rrqm/s   wrqm/s     r/s     w/s    rkB/s    wkB/s avgrq-sz avgqu-sz   await r_await w_await  svctm  %util
sda             353.00     0.00  519.00    0.00 188844.00     0.00   727.72     1.11    2.13    2.13    0.00   0.99  51.20
sdb             357.00     0.00  587.00    0.00 188552.00     0.00   642.43     1.26    2.14    2.14    0.00   0.90  53.00
sdc             345.00     0.00  686.00    0.00 189256.00     0.00   551.77     2.65    3.89    3.89    0.00   1.29  88.20
sdd             350.00     0.00  533.00    0.00 189864.00     0.00   712.44     2.51    4.73    4.73    0.00   1.66  88.30
sde             349.00     0.00  593.00    0.00 189480.00     0.00   639.06     2.52    4.28    4.28    0.00   1.50  89.20
sdf             349.00     0.00  733.00    0.00 189748.00     0.00   517.73     2.55    3.47    3.47    0.00   1.22  89.30
sdg               0.00     0.00    2.00    0.00    76.00     0.00    76.00     0.00    0.50    0.50    0.00   0.50   0.10
sdh               0.00     0.00    0.00    0.00     0.00     0.00     0.00     0.00    0.00    0.00    0.00   0.00   0.00
md0               0.00     0.00 5847.00    0.00 1721496.00     0.00   588.85     0.00    0.00    0.00    0.00   0.00   0.00

avg-cpu:  %user   %nice %system %iowait  %steal   %idle
           2.01    0.00   12.28   35.34    0.00   50.38

Device:         rrqm/s   wrqm/s     r/s     w/s    rkB/s    wkB/s avgrq-sz avgqu-sz   await r_await w_await  svctm  %util
sda             352.00     0.00  622.00    0.00 191616.00     0.00   616.13     1.24    2.00    2.00    0.00   0.84  52.10
sdb             352.00     0.00  626.00    0.00 190988.00     0.00   610.19     1.25    1.99    1.99    0.00   0.86  53.70
sdc             359.00     0.00  681.00    0.00 190808.00     0.00   560.38     2.64    3.87    3.87    0.00   1.31  89.30
sdd             346.00     0.00  701.00    0.00 191144.00     0.00   545.35     2.80    3.99    3.99    0.00   1.28  89.60
sde             348.00     0.00  638.00    0.00 190776.00     0.00   598.04     2.76    4.32    4.32    0.00   1.40  89.10
sdf             356.00     0.00  692.00    0.00 191124.00     0.00   552.38     2.74    3.95    3.95    0.00   1.30  89.80
sdg               0.00     0.00    0.00    0.00     0.00     0.00     0.00     0.00    0.00    0.00    0.00   0.00   0.00
sdh               0.00     0.00    0.00    0.00     0.00     0.00     0.00     0.00    0.00    0.00    0.00   0.00   0.00
md0               0.00     0.00 6345.00    0.00 1772800.00     0.00   558.80     0.00    0.00    0.00    0.00   0.00   0.00

avg-cpu:  %user   %nice %system %iowait  %steal   %idle
           2.24    0.00   11.94   34.83    0.00   51.00

Device:         rrqm/s   wrqm/s     r/s     w/s    rkB/s    wkB/s avgrq-sz avgqu-sz   await r_await w_await  svctm  %util
sda             349.00     0.00  609.00    0.00 190604.00     0.00   625.96     1.12    1.84    1.84    0.00   0.87  52.80
sdb             350.00     0.00  663.00    0.00 191368.00     0.00   577.28     1.28    1.91    1.91    0.00   0.80  53.20
sdc             347.00     0.00  778.00    0.00 190932.00     0.00   490.83     3.03    3.86    3.86    0.00   1.12  87.30
sdd             353.00     0.00  640.00    0.00 191068.00     0.00   597.09     2.51    3.92    3.92    0.00   1.37  87.40
sde             357.00     0.00  640.00    0.00 190932.00     0.00   596.66     2.55    3.97    3.97    0.00   1.37  87.80
sdf             362.00     0.00  672.00    0.00 190752.00     0.00   567.71     2.39    3.55    3.55    0.00   1.32  88.60
sdg               0.00     0.00    0.00    0.00     0.00     0.00     0.00     0.00    0.00    0.00    0.00   0.00   0.00
sdh               0.00     0.00    0.00    0.00     0.00     0.00     0.00     0.00    0.00    0.00    0.00   0.00   0.00
md0               0.00     0.00 6509.00    0.00 1712756.00     0.00   526.27     0.00    0.00    0.00    0.00   0.00   0.00

avg-cpu:  %user   %nice %system %iowait  %steal   %idle
           1.50    0.00   11.75   34.50    0.00   52.25

Device:         rrqm/s   wrqm/s     r/s     w/s    rkB/s    wkB/s avgrq-sz avgqu-sz   await r_await w_await  svctm  %util
sda             331.00     0.00  700.00    0.00 186052.00     0.00   531.58     1.27    1.82    1.82    0.00   0.73  51.00
sdb             344.00     0.00  636.00    0.00 185200.00     0.00   582.39     1.31    2.07    2.07    0.00   0.81  51.30
sdc             335.00     0.00  604.00    0.00 185680.00     0.00   614.83     2.36    3.91    3.91    0.00   1.43  86.30
sdd             348.00     0.00  526.00    0.00 186188.00     0.00   707.94     2.29    4.35    4.35    0.00   1.64  86.50
sde             347.00     0.00  577.00    0.00 185064.00     0.00   641.47     2.35    4.08    4.08    0.00   1.49  86.10
sdf             335.00     0.00  681.00    0.00 185064.00     0.00   543.51     2.44    3.58    3.58    0.00   1.26  86.00
sdg               0.00     0.00    0.00    0.00     0.00     0.00     0.00     0.00    0.00    0.00    0.00   0.00   0.00
sdh               0.00     0.00    0.00    0.00     0.00     0.00     0.00     0.00    0.00    0.00    0.00   0.00   0.00
md0               0.00     0.00 5962.00    0.00 1695808.00     0.00   568.87     0.00    0.00    0.00    0.00   0.00   0.00

avg-cpu:  %user   %nice %system %iowait  %steal   %idle
           1.76    0.00   13.57   36.18    0.00   48.49

Device:         rrqm/s   wrqm/s     r/s     w/s    rkB/s    wkB/s avgrq-sz avgqu-sz   await r_await w_await  svctm  %util
sda             330.00     0.00  628.00    0.00 181124.00     0.00   576.83     1.09    1.73    1.73    0.00   0.80  50.00
sdb             320.00     0.00  770.00    0.00 181272.00     0.00   470.84     1.24    1.61    1.61    0.00   0.68  52.50
sdc             331.00     0.00  498.00    0.00 182572.00     0.00   733.22     2.05    4.13    4.13    0.00   1.72  85.60
sdd             325.00     0.00  626.00    0.00 182300.00     0.00   582.43     2.13    3.42    3.42    0.00   1.37  85.90
sde             325.00     0.00  676.00    0.00 181892.00     0.00   538.14     2.19    3.26    3.26    0.00   1.27  85.70
sdf             323.00     0.00  601.00    0.00 182144.00     0.00   606.14     2.26    3.78    3.78    0.00   1.43  85.80
sdg               0.00     2.00   12.00 2591.00    48.00 12692.00     9.79    15.85    6.09    0.17    6.12   0.04  11.70
sdh               0.00     0.00    0.00    0.00     0.00     0.00     0.00     0.00    0.00    0.00    0.00   0.00   0.00
md0               0.00     0.00 5836.00    0.00 1565596.00     0.00   536.53     0.00    0.00    0.00    0.00   0.00   0.00

avg-cpu:  %user   %nice %system %iowait  %steal   %idle
           1.75    0.00   14.54   32.58    0.00   51.13

Device:         rrqm/s   wrqm/s     r/s     w/s    rkB/s    wkB/s avgrq-sz avgqu-sz   await r_await w_await  svctm  %util
sda             334.00     0.00  685.00    0.00 186056.00     0.00   543.23     1.32    1.91    1.91    0.00   0.75  51.40
sdb             341.00     0.00  630.00    0.00 186096.00     0.00   590.78     1.25    1.99    1.99    0.00   0.85  53.50
sdc             341.00     0.00  752.00    0.00 185004.00     0.00   492.03     2.50    3.31    3.31    0.00   1.16  87.10
sdd             334.00     0.00  716.00    0.00 185388.00     0.00   517.84     2.54    3.53    3.53    0.00   1.22  87.20
sde             342.00     0.00  615.00    0.00 184988.00     0.00   601.59     2.55    4.12    4.12    0.00   1.42  87.20
sdf             344.00     0.00  583.00    0.00 184900.00     0.00   634.31     2.45    4.18    4.18    0.00   1.49  86.80
sdg               0.00     0.00    1.00    0.00     4.00     0.00     8.00     0.00    0.00    0.00    0.00   0.00   0.00
sdh               0.00     0.00    0.00    0.00     0.00     0.00     0.00     0.00    0.00    0.00    0.00   0.00   0.00
md0               0.00     0.00 6150.00    0.00 1698176.00     0.00   552.25     0.00    0.00    0.00    0.00   0.00   0.00

avg-cpu:  %user   %nice %system %iowait  %steal   %idle
           1.50    0.00   14.21   34.41    0.00   49.88

Device:         rrqm/s   wrqm/s     r/s     w/s    rkB/s    wkB/s avgrq-sz avgqu-sz   await r_await w_await  svctm  %util
sda             342.00     0.00  646.00    0.00 182932.00     0.00   566.35     0.98    1.52    1.52    0.00   0.78  50.10
sdb             331.00     0.00  725.00    0.00 182828.00     0.00   504.35     1.10    1.51    1.51    0.00   0.73  53.20
sdc             337.00     0.00  514.00    0.00 184084.00     0.00   716.28     1.97    3.86    3.86    0.00   1.67  85.80
sdd             347.00     0.00  579.00    0.00 183496.00     0.00   633.84     2.01    3.48    3.48    0.00   1.47  85.30
sde             342.00     0.00  612.00    0.00 183700.00     0.00   600.33     2.02    3.32    3.32    0.00   1.40  85.60
sdf             330.00     0.00  571.00    0.00 183340.00     0.00   642.17     2.06    3.62    3.62    0.00   1.51  86.10
sdg               0.00     0.00    0.00    0.00     0.00     0.00     0.00     0.00    0.00    0.00    0.00   0.00   0.00
sdh               0.00     0.00    0.00    0.00     0.00     0.00     0.00     0.00    0.00    0.00    0.00   0.00   0.00
md0               0.00     0.00 5760.00    0.00 1629936.00     0.00   565.95     0.00    0.00    0.00    0.00   0.00   0.00

avg-cpu:  %user   %nice %system %iowait  %steal   %idle
           1.27    0.00   14.21   34.26    0.00   50.25

Device:         rrqm/s   wrqm/s     r/s     w/s    rkB/s    wkB/s avgrq-sz avgqu-sz   await r_await w_await  svctm  %util
sda             347.00     0.00  566.00    0.00 189680.00     0.00   670.25     1.10    1.95    1.95    0.00   0.92  52.30
sdb             342.00     0.00  539.00    0.00 189884.00     0.00   704.58     1.16    2.16    2.16    0.00   0.99  53.30
sdc             339.00     0.00  551.00    0.00 188784.00     0.00   685.24     2.26    4.09    4.09    0.00   1.61  88.60
sdd             340.00     0.00  568.00    0.00 188944.00     0.00   665.30     2.40    4.23    4.23    0.00   1.56  88.50
sde             336.00     0.00  665.00    0.00 189684.00     0.00   570.48     2.36    3.54    3.54    0.00   1.34  89.30
sdf             331.00     0.00  560.00    0.00 189748.00     0.00   677.67     2.27    4.04    4.04    0.00   1.59  89.20
sdg               0.00     0.00    0.00    0.00     0.00     0.00     0.00     0.00    0.00    0.00    0.00   0.00   0.00
sdh               0.00     0.00    0.00    0.00     0.00     0.00     0.00     0.00    0.00    0.00    0.00   0.00   0.00
md0               0.00     0.00 5515.00    0.00 1621836.00     0.00   588.15     0.00    0.00    0.00    0.00   0.00   0.00

avg-cpu:  %user   %nice %system %iowait  %steal   %idle
           1.74    0.00   15.42   34.33    0.00   48.51

Device:         rrqm/s   wrqm/s     r/s     w/s    rkB/s    wkB/s avgrq-sz avgqu-sz   await r_await w_await  svctm  %util
sda             350.00     0.00  614.00    0.00 190332.00     0.00   619.97     1.05    1.71    1.71    0.00   0.87  53.20
sdb             351.00     0.00  502.00    0.00 190284.00     0.00   758.10     1.00    1.98    1.98    0.00   1.08  54.30
sdc             355.00     0.00  585.00    0.00 190552.00     0.00   651.46     2.25    3.84    3.84    0.00   1.51  88.60
sdd             343.00     0.00  571.00    0.00 190420.00     0.00   666.97     2.26    3.94    3.94    0.00   1.56  88.80
sde             342.00     0.00  533.00    0.00 189988.00     0.00   712.90     2.17    4.06    4.06    0.00   1.67  89.00
sdf             362.00     0.00  553.00    0.00 190232.00     0.00   688.00     2.25    4.05    4.05    0.00   1.62  89.50
sdg               0.00     0.00  225.00    0.00   900.00     0.00     8.00     0.03    0.12    0.12    0.00   0.12   2.80
sdh               0.00     0.00    0.00    0.00     0.00     0.00     0.00     0.00    0.00    0.00    0.00   0.00   0.00
md0               0.00     0.00 5504.00    0.00 1672444.00     0.00   607.72     0.00    0.00    0.00    0.00   0.00   0.00

avg-cpu:  %user   %nice %system %iowait  %steal   %idle
           1.75    0.25   15.29   38.10    0.00   44.61

Device:         rrqm/s   wrqm/s     r/s     w/s    rkB/s    wkB/s avgrq-sz avgqu-sz   await r_await w_await  svctm  %util
sda             346.00     0.00  733.00    0.00 185608.00     0.00   506.43     1.07    1.46    1.46    0.00   0.71  51.70
sdb             334.00     0.00  655.00    0.00 186384.00     0.00   569.11     1.04    1.58    1.58    0.00   0.82  53.70
sdc             348.00     0.00  545.00    0.00 186772.00     0.00   685.40     2.15    3.95    3.95    0.00   1.61  87.90
sdd             348.00     0.00  519.00    0.00 186668.00     0.00   719.34     2.11    4.08    4.08    0.00   1.69  87.60
sde             341.00     0.00  588.00    0.00 186496.00     0.00   634.34     2.11    3.61    3.61    0.00   1.49  87.70
sdf             345.00     0.00  484.00    0.00 186376.00     0.00   770.15     2.13    4.42    4.42    0.00   1.81  87.60
sdg               0.00     1.00 1609.00 1449.00  6436.00  7352.00     9.02     8.96    2.93    0.12    6.05   0.08  25.60
sdh               0.00     0.00    0.00    0.00     0.00     0.00     0.00     0.00    0.00    0.00    0.00   0.00   0.00
md0               0.00     0.00 5690.00    0.00 1646616.00     0.00   578.78     0.00    0.00    0.00    0.00   0.00   0.00

avg-cpu:  %user   %nice %system %iowait  %steal   %idle
           1.75    0.00   14.50   34.50    0.00   49.25

Device:         rrqm/s   wrqm/s     r/s     w/s    rkB/s    wkB/s avgrq-sz avgqu-sz   await r_await w_await  svctm  %util
sda             347.00     0.00  595.00    0.00 189564.00     0.00   637.19     1.14    1.92    1.92    0.00   0.90  53.70
sdb             356.00     0.00  520.00    0.00 189860.00     0.00   730.23     1.13    2.18    2.18    0.00   1.03  53.50
sdc             360.00     0.00  605.00    0.00 187896.00     0.00   621.14     2.64    4.36    4.36    0.00   1.46  88.60
sdd             348.00     0.00  572.00    0.00 188372.00     0.00   658.64     2.30    4.02    4.02    0.00   1.54  88.30
sde             358.00     0.00  475.00    0.00 188644.00     0.00   794.29     2.24    4.72    4.72    0.00   1.87  88.90
sdf             359.00     0.00  548.00    0.00 188596.00     0.00   688.31     2.34    4.26    4.26    0.00   1.62  89.00
sdg               0.00     0.00    2.00    5.00     8.00   140.00    42.29     0.00    0.14    0.50    0.00   0.14   0.10
sdh               0.00     0.00    0.00    0.00     0.00     0.00     0.00     0.00    0.00    0.00    0.00   0.00   0.00
md0               0.00     0.00 5478.00    0.00 1603152.00     0.00   585.31     0.00    0.00    0.00    0.00   0.00   0.00

avg-cpu:  %user   %nice %system %iowait  %steal   %idle
           1.51    0.00   14.36   33.50    0.00   50.63

Device:         rrqm/s   wrqm/s     r/s     w/s    rkB/s    wkB/s avgrq-sz avgqu-sz   await r_await w_await  svctm  %util
sda             336.00     0.00  757.00    0.00 182720.00     0.00   482.75     1.43    1.89    1.89    0.00   0.70  52.80
sdb             327.00     0.00  636.00    0.00 183120.00     0.00   575.85     1.29    2.03    2.03    0.00   0.83  52.60
sdc             331.00     0.00  634.00    0.00 184552.00     0.00   582.18     2.56    4.05    4.05    0.00   1.37  86.70
sdd             333.00     0.00  633.00    0.00 184032.00     0.00   581.46     2.42    3.85    3.85    0.00   1.36  86.40
sde             341.00     0.00  578.00    0.00 184224.00     0.00   637.45     2.33    4.05    4.05    0.00   1.49  86.00
sdf             339.00     0.00  592.00    0.00 183740.00     0.00   620.74     2.44    4.13    4.13    0.00   1.47  86.80
sdg               0.00     0.00    0.00    0.00     0.00     0.00     0.00     0.00    0.00    0.00    0.00   0.00   0.00
sdh               0.00     0.00    0.00    0.00     0.00     0.00     0.00     0.00    0.00    0.00    0.00   0.00   0.00
md0               0.00     0.00 6105.00    0.00 1675168.00     0.00   548.79     0.00    0.00    0.00    0.00   0.00   0.00

avg-cpu:  %user   %nice %system %iowait  %steal   %idle
           1.50    0.00   15.25   34.25    0.00   49.00

Device:         rrqm/s   wrqm/s     r/s     w/s    rkB/s    wkB/s avgrq-sz avgqu-sz   await r_await w_await  svctm  %util
sda             345.00     0.00  609.00    0.00 187080.00     0.00   614.38     1.18    1.93    1.93    0.00   0.87  53.20
sdb             344.00     0.00  665.00    0.00 186748.00     0.00   561.65     1.22    1.83    1.83    0.00   0.82  54.40
sdc             343.00     0.00  628.00    0.00 186352.00     0.00   593.48     2.41    3.84    3.84    0.00   1.39  87.50
sdd             336.00     0.00  736.00    0.00 185964.00     0.00   505.34     2.45    3.33    3.33    0.00   1.18  87.20
sde             347.00     0.00  588.00    0.00 186236.00     0.00   633.46     2.33    3.96    3.96    0.00   1.50  88.10
sdf             351.00     0.00  686.00    0.00 186264.00     0.00   543.04     2.57    3.74    3.74    0.00   1.27  87.00
sdg               0.00     0.00    0.00    0.00     0.00     0.00     0.00     0.00    0.00    0.00    0.00   0.00   0.00
sdh               0.00     0.00    0.00    0.00     0.00     0.00     0.00     0.00    0.00    0.00    0.00   0.00   0.00
md0               0.00     0.00 6095.00    0.00 1697472.00     0.00   557.00     0.00    0.00    0.00    0.00   0.00   0.00

avg-cpu:  %user   %nice %system %iowait  %steal   %idle
           1.77    0.00   13.64   34.09    0.00   50.51

Device:         rrqm/s   wrqm/s     r/s     w/s    rkB/s    wkB/s avgrq-sz avgqu-sz   await r_await w_await  svctm  %util
sda             343.00     0.00  556.00    0.00 187108.00     0.00   673.05     1.17    2.11    2.11    0.00   0.93  51.80
sdb             350.00     0.00  703.00    0.00 186856.00     0.00   531.60     1.39    1.97    1.97    0.00   0.77  53.90
sdc             345.00     0.00  680.00    0.00 185896.00     0.00   546.75     2.83    4.11    4.11    0.00   1.30  88.10
sdd             345.00     0.00  565.00    0.00 186748.00     0.00   661.05     2.38    4.21    4.21    0.00   1.56  88.30
sde             340.00     0.00  624.00    0.00 186036.00     0.00   596.27     2.44    3.90    3.90    0.00   1.40  87.60
sdf             339.00     0.00  542.00    0.00 186036.00     0.00   686.48     2.32    4.27    4.27    0.00   1.61  87.20
sdg               0.00     0.00    0.00    0.00     0.00     0.00     0.00     0.00    0.00    0.00    0.00   0.00   0.00
sdh               0.00     0.00    0.00    0.00     0.00     0.00     0.00     0.00    0.00    0.00    0.00   0.00   0.00
md0               0.00     0.00 5893.00    0.00 1623900.00     0.00   551.13     0.00    0.00    0.00    0.00   0.00   0.00

avg-cpu:  %user   %nice %system %iowait  %steal   %idle
           1.75    0.00   15.29   32.83    0.00   50.13

Device:         rrqm/s   wrqm/s     r/s     w/s    rkB/s    wkB/s avgrq-sz avgqu-sz   await r_await w_await  svctm  %util
sda             340.00     0.00  631.00    0.00 185956.00     0.00   589.40     1.15    1.82    1.82    0.00   0.82  51.60
sdb             336.00     0.00  647.00    0.00 185572.00     0.00   573.64     1.10    1.71    1.71    0.00   0.81  52.50
sdc             337.00     0.00  776.00    0.00 186888.00     0.00   481.67     2.24    2.90    2.90    0.00   1.12  87.10
sdd             334.00     0.00  586.00    0.00 187424.00     0.00   639.67     2.22    3.81    3.81    0.00   1.49  87.50
sde             356.00     0.00  613.00    0.00 187760.00     0.00   612.59     2.28    3.74    3.74    0.00   1.43  87.40
sdf             351.00     0.00  578.00    0.00 187472.00     0.00   648.69     2.15    3.73    3.73    0.00   1.52  87.60
sdg               0.00     0.00    0.00    0.00     0.00     0.00     0.00     0.00    0.00    0.00    0.00   0.00   0.00
sdh               0.00     0.00    0.00    0.00     0.00     0.00     0.00     0.00    0.00    0.00    0.00   0.00   0.00
md0               0.00     0.00 5952.00    0.00 1736040.00     0.00   583.35     0.00    0.00    0.00    0.00   0.00   0.00

avg-cpu:  %user   %nice %system %iowait  %steal   %idle
           2.00    0.00   14.25   33.50    0.00   50.25

Device:         rrqm/s   wrqm/s     r/s     w/s    rkB/s    wkB/s avgrq-sz avgqu-sz   await r_await w_await  svctm  %util
sda             349.00     0.00  587.00    0.00 188444.00     0.00   642.06     1.02    1.73    1.73    0.00   0.88  51.70
sdb             359.00     0.00  568.00    0.00 187876.00     0.00   661.54     1.06    1.87    1.87    0.00   0.93  53.00
sdc             346.00     0.00  508.00    0.00 187564.00     0.00   738.44     2.09    4.11    4.11    0.00   1.73  87.70
sdd             348.00     0.00  555.00    0.00 187484.00     0.00   675.62     2.16    3.89    3.89    0.00   1.58  87.80
sde             346.00     0.00  629.00    0.00 187440.00     0.00   595.99     2.16    3.44    3.44    0.00   1.40  88.20
sdf             344.00     0.00  626.00    0.00 187160.00     0.00   597.96     2.15    3.44    3.44    0.00   1.40  87.40
sdg               0.00     0.00    0.00    0.00     0.00     0.00     0.00     0.00    0.00    0.00    0.00   0.00   0.00
sdh               0.00     0.00    0.00    0.00     0.00     0.00     0.00     0.00    0.00    0.00    0.00   0.00   0.00
md0               0.00     0.00 5607.00    0.00 1678836.00     0.00   598.84     0.00    0.00    0.00    0.00   0.00   0.00

avg-cpu:  %user   %nice %system %iowait  %steal   %idle
           1.75    0.00   14.29   33.58    0.00   50.38

Device:         rrqm/s   wrqm/s     r/s     w/s    rkB/s    wkB/s avgrq-sz avgqu-sz   await r_await w_await  svctm  %util
sda             358.00     0.00  603.00    0.00 189088.00     0.00   627.16     1.13    1.87    1.87    0.00   0.88  53.00
sdb             353.00     0.00  683.00    0.00 189480.00     0.00   554.85     1.11    1.63    1.63    0.00   0.79  54.00
sdc             351.00     0.00  535.00    0.00 189272.00     0.00   707.56     2.36    4.40    4.40    0.00   1.64  88.00
sdd             357.00     0.00  579.00    0.00 188364.00     0.00   650.65     2.34    3.98    3.98    0.00   1.52  87.80
sde             355.00     0.00  608.00    0.00 189140.00     0.00   622.17     2.47    4.05    4.05    0.00   1.44  87.70
sdf             350.00     0.00  602.00    0.00 188960.00     0.00   627.77     2.27    3.76    3.76    0.00   1.47  88.20
sdg               0.00     0.00    0.00    0.00     0.00     0.00     0.00     0.00    0.00    0.00    0.00   0.00   0.00
sdh               0.00     0.00    0.00    0.00     0.00     0.00     0.00     0.00    0.00    0.00    0.00   0.00   0.00
md0               0.00     0.00 5793.00    0.00 1735356.00     0.00   599.12     0.00    0.00    0.00    0.00   0.00   0.00

avg-cpu:  %user   %nice %system %iowait  %steal   %idle
           2.01    0.00   14.29   33.83    0.00   49.87

Device:         rrqm/s   wrqm/s     r/s     w/s    rkB/s    wkB/s avgrq-sz avgqu-sz   await r_await w_await  svctm  %util
sda             351.00     0.00  536.00    0.00 189800.00     0.00   708.21     1.08    2.01    2.01    0.00   0.99  53.20
sdb             349.00     0.00  662.00    0.00 189868.00     0.00   573.62     1.10    1.66    1.66    0.00   0.82  54.20
sdc             352.00     0.00  535.00    0.00 190308.00     0.00   711.43     2.32    4.34    4.34    0.00   1.66  88.90
sdd             356.00     0.00  524.00    0.00 190244.00     0.00   726.12     2.32    4.43    4.43    0.00   1.70  89.10
sde             357.00     0.00  620.00    0.00 189992.00     0.00   612.88     2.30    3.72    3.72    0.00   1.43  88.80
sdf             360.00     0.00  588.00    0.00 190196.00     0.00   646.93     2.49    4.24    4.24    0.00   1.51  88.80
sdg               0.00     0.00    0.00    0.00     0.00     0.00     0.00     0.00    0.00    0.00    0.00   0.00   0.00
sdh               0.00     0.00    0.00    0.00     0.00     0.00     0.00     0.00    0.00    0.00    0.00   0.00   0.00
md0               0.00     0.00 5604.00    0.00 1700480.00     0.00   606.88     0.00    0.00    0.00    0.00   0.00   0.00

avg-cpu:  %user   %nice %system %iowait  %steal   %idle
           1.51    0.25   14.11   33.25    0.00   50.88

Device:         rrqm/s   wrqm/s     r/s     w/s    rkB/s    wkB/s avgrq-sz avgqu-sz   await r_await w_await  svctm  %util
sda             330.00     0.00  653.00    0.00 182964.00     0.00   560.38     1.02    1.57    1.57    0.00   0.79  51.80
sdb             329.00     0.00  604.00    0.00 182876.00     0.00   605.55     1.00    1.66    1.66    0.00   0.87  52.70
sdc             333.00     0.00  744.00    0.00 184000.00     0.00   494.62     2.30    3.11    3.11    0.00   1.16  86.00
sdd             317.00     0.00  635.00    0.00 184328.00     0.00   580.56     2.05    3.24    3.24    0.00   1.35  85.70
sde             338.00     0.00  490.00    0.00 183724.00     0.00   749.89     1.97    4.04    4.04    0.00   1.74  85.50
sdf             331.00     0.00  586.00    0.00 183312.00     0.00   625.64     2.05    3.51    3.51    0.00   1.46  85.40
sdg               0.00     0.00  227.00    0.00   908.00     0.00     8.00     0.03    0.12    0.12    0.00   0.12   2.70
sdh               0.00     0.00    0.00    0.00     0.00     0.00     0.00     0.00    0.00    0.00    0.00   0.00   0.00
md0               0.00     0.00 5717.00    0.00 1632288.00     0.00   571.03     0.00    0.00    0.00    0.00   0.00   0.00

