Linux 4.17.2 (bench) 	08/03/2018 	_x86_64_	(4 CPU)

avg-cpu:  %user   %nice %system %iowait  %steal   %idle
          10.29    0.02    4.01    2.48    0.00   83.21

Device:         rrqm/s   wrqm/s     r/s     w/s    rkB/s    wkB/s avgrq-sz avgqu-sz   await r_await w_await  svctm  %util
sda              41.50     4.27 1616.53  103.30 20698.15  3152.28    27.74     1.03    0.60    0.26    5.91   0.06  10.56
sdb              41.39     4.23 1616.42  103.44 20687.59  3148.92    27.72     1.02    0.60    0.26    5.85   0.06  10.44
sdc              79.46     4.29 1576.28  102.99 20679.78  3151.40    28.38     1.44    0.86    0.45    7.12   0.08  13.87
sdd              72.81     4.26 1582.07  103.06 20664.49  3147.56    28.26     1.45    0.86    0.44    7.32   0.08  13.97
sde              74.88     4.30 1587.20  103.15 20724.99  3151.84    28.25     1.47    0.87    0.44    7.43   0.08  13.99
sdf              71.97     4.27 1589.37  103.10 20705.99  3148.68    28.19     1.52    0.90    0.44    7.90   0.08  14.02
sdg               0.00     3.18   25.98   73.33   322.61   391.96    14.39     0.44    4.43    0.20    5.93   0.08   0.78
sdh               0.00     0.13    0.02    0.24     2.23     5.10    56.82     0.00    1.15    0.65    1.19   0.21   0.01
md0               0.00     0.00 9956.10  483.93 141701.57 21584.34    31.28     0.00    0.00    0.00    0.00   0.00   0.00

avg-cpu:  %user   %nice %system %iowait  %steal   %idle
           0.54    0.03    7.13   24.18    0.00   68.12

Device:         rrqm/s   wrqm/s     r/s     w/s    rkB/s    wkB/s avgrq-sz avgqu-sz   await r_await w_await  svctm  %util
sda             195.50     0.00 1245.55    0.00 162668.80     0.00   261.20     1.27    1.02    1.02    0.00   0.38  47.54
sdb             195.70     0.00 1249.80    0.00 163130.60     0.00   261.05     1.29    1.03    1.03    0.00   0.39  48.33
sdc             198.50     0.00 1240.65    0.00 162692.80     0.00   262.27     2.24    1.80    1.80    0.00   0.61  75.80
sdd             196.40     0.00 1240.55    0.00 161858.00     0.00   260.95     2.23    1.79    1.79    0.00   0.61  75.58
sde             197.85     0.00 1227.05    0.00 162709.40     0.00   265.20     2.21    1.81    1.81    0.00   0.62  76.23
sdf             194.95     0.00 1246.60    0.00 162108.60     0.00   260.08     2.21    1.77    1.77    0.00   0.61  76.15
sdg               0.00     4.20  159.90   72.35   646.40   377.40     8.82     0.46    1.98    0.12    6.07   0.10   2.26
sdh               0.00     0.00    0.00    0.00     0.00     0.00     0.00     0.00    0.00    0.00    0.00   0.00   0.00
md0               0.00     0.00 9011.35    0.00 1361346.80     0.00   302.14     0.00    0.00    0.00    0.00   0.00   0.00

