Linux 4.17.2 (bench) 	08/03/2018 	_x86_64_	(4 CPU)

avg-cpu:  %user   %nice %system %iowait  %steal   %idle
          10.28    0.02    4.06    2.56    0.00   83.08

Device:         rrqm/s   wrqm/s     r/s     w/s    rkB/s    wkB/s avgrq-sz avgqu-sz   await r_await w_await  svctm  %util
sda              44.65     4.24 1654.34  102.57 20945.13  3130.06    27.41     1.03    0.59    0.26    5.91   0.06  10.73
sdb              44.53     4.20 1654.27  102.71 20934.53  3126.72    27.39     1.03    0.59    0.26    5.85   0.06  10.60
sdc              82.46     4.26 1614.24  102.26 20926.62  3129.19    28.03     1.45    0.85    0.45    7.12   0.08  14.06
sdd              75.87     4.23 1620.00  102.33 20911.50  3125.38    27.91     1.46    0.85    0.44    7.32   0.08  14.16
sde              77.91     4.27 1625.07  102.43 20971.36  3129.63    27.90     1.48    0.86    0.44    7.43   0.08  14.18
sdf              75.02     4.24 1627.23  102.37 20952.57  3126.49    27.84     1.52    0.88    0.44    7.90   0.08  14.21
sdg               0.00     3.17   26.28   73.31   323.92   391.98    14.38     0.44    4.42    0.20    5.93   0.08   0.78
sdh               0.00     0.13    0.02    0.23     2.21     5.07    56.82     0.00    1.15    0.65    1.19   0.21   0.01
md0               0.00     0.00 10202.29  480.52 143474.59 21432.22    30.87     0.00    0.00    0.00    0.00   0.00   0.00

avg-cpu:  %user   %nice %system %iowait  %steal   %idle
           2.54    0.00   26.65    0.25    0.00   70.56

Device:         rrqm/s   wrqm/s     r/s     w/s    rkB/s    wkB/s avgrq-sz avgqu-sz   await r_await w_await  svctm  %util
sda           19575.00     0.00 14817.00    0.00 139092.00     0.00    18.77     9.46    0.64    0.64    0.00   0.03  47.50
sdb           20113.00     0.00 14704.00    0.00 140904.00     0.00    19.17     9.59    0.65    0.65    0.00   0.03  48.40
sdc           19781.00     0.00 13974.00    0.00 136612.00     0.00    19.55    11.85    0.85    0.85    0.00   0.05  67.00
sdd           21346.00     0.00 13969.00    0.00 142860.00     0.00    20.45    12.33    0.88    0.88    0.00   0.05  69.60
sde           19743.00     0.00 14065.00    0.00 136784.00     0.00    19.45    11.97    0.85    0.85    0.00   0.05  67.30
sdf           21051.00     0.00 14002.00    0.00 141288.00     0.00    20.18    12.39    0.88    0.88    0.00   0.05  69.10
sdg               0.00     0.00    3.00    0.00    88.00     0.00    58.67     0.00    0.33    0.33    0.00   0.33   0.10
sdh               0.00     0.00    0.00    0.00     0.00     0.00     0.00     0.00    0.00    0.00    0.00   0.00   0.00
md0               0.00     0.00 210095.00    0.00 840380.00     0.00     8.00     0.00    0.00    0.00    0.00   0.00   0.00

avg-cpu:  %user   %nice %system %iowait  %steal   %idle
           2.28    0.00   27.85    1.01    0.00   68.86

Device:         rrqm/s   wrqm/s     r/s     w/s    rkB/s    wkB/s avgrq-sz avgqu-sz   await r_await w_await  svctm  %util
sda           18006.00     0.00 15365.00    0.00 134892.00     0.00    17.56     9.57    0.62    0.62    0.00   0.03  48.00
sdb           18935.00     0.00 15514.00    0.00 139252.00     0.00    17.95     9.73    0.63    0.63    0.00   0.03  50.10
sdc           19197.00     0.00 14748.00    0.00 137368.00     0.00    18.63    12.15    0.82    0.82    0.00   0.05  69.40
sdd           19338.00     0.00 14707.00    0.00 137724.00     0.00    18.73    12.26    0.83    0.83    0.00   0.05  67.90
sde           19659.00     0.00 14554.00    0.00 138360.00     0.00    19.01    12.16    0.83    0.83    0.00   0.05  69.30
sdf           20208.00     0.00 14522.00    0.00 140952.00     0.00    19.41    12.32    0.85    0.85    0.00   0.05  70.30
sdg               0.00     0.00    0.00    0.00     0.00     0.00     0.00     0.00    0.00    0.00    0.00   0.00   0.00
sdh               0.00     0.00    0.00    0.00     0.00     0.00     0.00     0.00    0.00    0.00    0.00   0.00   0.00
md0               0.00     0.00 207147.00    0.00 828588.00     0.00     8.00     0.00    0.00    0.00    0.00   0.00   0.00

avg-cpu:  %user   %nice %system %iowait  %steal   %idle
           2.52    0.00   28.21    0.50    0.00   68.77

Device:         rrqm/s   wrqm/s     r/s     w/s    rkB/s    wkB/s avgrq-sz avgqu-sz   await r_await w_await  svctm  %util
sda           18461.00     0.00 15680.00    0.00 137924.00     0.00    17.59     9.45    0.60    0.60    0.00   0.03  48.40
sdb           19231.00     0.00 15290.00    0.00 139548.00     0.00    18.25     9.85    0.64    0.64    0.00   0.03  48.60
sdc           19978.00     0.00 14898.00    0.00 140776.00     0.00    18.90    12.04    0.81    0.81    0.00   0.05  68.50
sdd           18275.00     0.00 14366.00    0.00 132056.00     0.00    18.38    11.13    0.77    0.77    0.00   0.05  65.00
sde           18855.00     0.00 14763.00    0.00 135908.00     0.00    18.41    11.52    0.78    0.78    0.00   0.04  66.40
sdf           18736.00     0.00 14479.00    0.00 134544.00     0.00    18.58    11.70    0.81    0.81    0.00   0.05  65.50
sdg               0.00     0.00    0.00    0.00     0.00     0.00     0.00     0.00    0.00    0.00    0.00   0.00   0.00
sdh               0.00     0.00    0.00    0.00     0.00     0.00     0.00     0.00    0.00    0.00    0.00   0.00   0.00
md0               0.00     0.00 204644.00    0.00 818576.00     0.00     8.00     0.00    0.00    0.00    0.00   0.00   0.00

avg-cpu:  %user   %nice %system %iowait  %steal   %idle
           2.28    0.00   29.11    0.51    0.00   68.10

Device:         rrqm/s   wrqm/s     r/s     w/s    rkB/s    wkB/s avgrq-sz avgqu-sz   await r_await w_await  svctm  %util
sda           17681.00     0.00 16112.00    0.00 136264.00     0.00    16.91     9.76    0.61    0.61    0.00   0.03  48.30
sdb           16937.00     0.00 16353.00    0.00 134408.00     0.00    16.44     9.82    0.60    0.60    0.00   0.03  48.00
sdc           17876.00     0.00 15346.00    0.00 134156.00     0.00    17.48    12.06    0.79    0.79    0.00   0.04  67.30
sdd           17247.00     0.00 15271.00    0.00 131152.00     0.00    17.18    11.57    0.76    0.76    0.00   0.04  65.30
sde           17258.00     0.00 15380.00    0.00 131604.00     0.00    17.11    11.75    0.76    0.76    0.00   0.04  64.50
sdf           17040.00     0.00 15287.00    0.00 130328.00     0.00    17.05    11.59    0.76    0.76    0.00   0.04  64.60
sdg               0.00     0.00    0.00    0.00     0.00     0.00     0.00     0.00    0.00    0.00    0.00   0.00   0.00
sdh               0.00     0.00    0.00    0.00     0.00     0.00     0.00     0.00    0.00    0.00    0.00   0.00   0.00
md0               0.00     0.00 199726.00    0.00 798904.00     0.00     8.00     0.00    0.00    0.00    0.00   0.00   0.00

avg-cpu:  %user   %nice %system %iowait  %steal   %idle
           2.78    0.00   30.05    0.76    0.00   66.41

Device:         rrqm/s   wrqm/s     r/s     w/s    rkB/s    wkB/s avgrq-sz avgqu-sz   await r_await w_await  svctm  %util
sda           16819.00     0.00 16853.00    0.00 135860.00     0.00    16.12     9.89    0.59    0.59    0.00   0.03  48.70
sdb           14716.00     0.00 16576.00    0.00 125948.00     0.00    15.20     9.34    0.56    0.56    0.00   0.03  47.00
sdc           16483.00     0.00 16198.00    0.00 132208.00     0.00    16.32    11.94    0.74    0.74    0.00   0.04  65.20
sdd           15724.00     0.00 15938.00    0.00 127868.00     0.00    16.05    11.50    0.72    0.72    0.00   0.04  63.30
sde           16888.00     0.00 15963.00    0.00 132688.00     0.00    16.62    12.02    0.75    0.75    0.00   0.04  66.20
sdf           16117.00     0.00 15791.00    0.00 128604.00     0.00    16.29    11.81    0.75    0.75    0.00   0.04  64.70
sdg               0.00     0.00   15.00    0.00   108.00     0.00    14.40     0.00    0.27    0.27    0.00   0.27   0.40
sdh               0.00     0.00    0.00    0.00     0.00     0.00     0.00     0.00    0.00    0.00    0.00   0.00   0.00
md0               0.00     0.00 195829.00    0.00 783316.00     0.00     8.00     0.00    0.00    0.00    0.00   0.00   0.00

avg-cpu:  %user   %nice %system %iowait  %steal   %idle
           2.28    0.00   30.96    0.51    0.00   66.24

Device:         rrqm/s   wrqm/s     r/s     w/s    rkB/s    wkB/s avgrq-sz avgqu-sz   await r_await w_await  svctm  %util
sda           13887.00     0.00 17587.00    0.00 126996.00     0.00    14.44     9.56    0.54    0.54    0.00   0.03  49.40
sdb           12797.00     0.00 17403.00    0.00 122024.00     0.00    14.02     9.04    0.52    0.52    0.00   0.03  46.60
sdc           15678.00     0.00 16700.00    0.00 130768.00     0.00    15.66    11.88    0.71    0.71    0.00   0.04  66.00
sdd           14995.00     0.00 16477.00    0.00 127136.00     0.00    15.43    11.82    0.72    0.72    0.00   0.04  65.10
sde           14611.00     0.00 16456.00    0.00 125220.00     0.00    15.22    11.29    0.69    0.69    0.00   0.04  64.40
sdf           14969.00     0.00 16574.00    0.00 127576.00     0.00    15.39    11.74    0.71    0.71    0.00   0.04  64.80
sdg               0.00     0.00    0.00    0.00     0.00     0.00     0.00     0.00    0.00    0.00    0.00   0.00   0.00
sdh               0.00     0.00    0.00    0.00     0.00     0.00     0.00     0.00    0.00    0.00    0.00   0.00   0.00
md0               0.00     0.00 189546.00    0.00 758184.00     0.00     8.00     0.00    0.00    0.00    0.00   0.00   0.00

avg-cpu:  %user   %nice %system %iowait  %steal   %idle
           3.29    0.00   30.89    0.51    0.00   65.32

Device:         rrqm/s   wrqm/s     r/s     w/s    rkB/s    wkB/s avgrq-sz avgqu-sz   await r_await w_await  svctm  %util
sda           12591.00     0.00 18130.00    0.00 123660.00     0.00    13.64     9.38    0.52    0.52    0.00   0.03  47.10
sdb           13563.00     0.00 18120.00    0.00 127612.00     0.00    14.09     9.68    0.53    0.53    0.00   0.03  47.70
sdc           14387.00     0.00 17325.00    0.00 127780.00     0.00    14.75    11.35    0.65    0.65    0.00   0.04  63.50
sdd           14031.00     0.00 17064.00    0.00 125340.00     0.00    14.69    11.27    0.66    0.66    0.00   0.04  63.70
sde           13452.00     0.00 17435.00    0.00 124688.00     0.00    14.30    11.56    0.66    0.66    0.00   0.04  63.80
sdf           14280.00     0.00 17222.00    0.00 126968.00     0.00    14.74    11.61    0.67    0.67    0.00   0.04  65.60
sdg               0.00     0.00    0.00    0.00     0.00     0.00     0.00     0.00    0.00    0.00    0.00   0.00   0.00
sdh               0.00     0.00    0.00    0.00     0.00     0.00     0.00     0.00    0.00    0.00    0.00   0.00   0.00
md0               0.00     0.00 188961.00    0.00 755844.00     0.00     8.00     0.00    0.00    0.00    0.00   0.00   0.00

avg-cpu:  %user   %nice %system %iowait  %steal   %idle
           2.78    0.00   32.91    1.52    0.00   62.78

Device:         rrqm/s   wrqm/s     r/s     w/s    rkB/s    wkB/s avgrq-sz avgqu-sz   await r_await w_await  svctm  %util
sda           11519.00     0.00 18296.00    0.00 119972.00     0.00    13.11     9.22    0.50    0.50    0.00   0.03  48.00
sdb           13087.00     0.00 18502.00    0.00 127132.00     0.00    13.74     9.97    0.54    0.54    0.00   0.03  49.00
sdc           13054.00     0.00 17780.00    0.00 124272.00     0.00    13.98    11.48    0.65    0.65    0.00   0.04  64.20
sdd           13224.00     0.00 17468.00    0.00 123764.00     0.00    14.17    11.54    0.66    0.66    0.00   0.04  64.50
sde           13498.00     0.00 17470.00    0.00 124796.00     0.00    14.29    11.57    0.66    0.66    0.00   0.04  64.80
sdf           13038.00     0.00 17309.00    0.00 122192.00     0.00    14.12    11.16    0.64    0.64    0.00   0.04  62.70
sdg               0.00    76.00    5.00 1467.00    20.00  7576.00    10.32     9.18    6.23    1.60    6.25   0.05   7.00
sdh               0.00     0.00    0.00    0.00     0.00     0.00     0.00     0.00    0.00    0.00    0.00   0.00   0.00
md0               0.00     0.00 185516.00    0.00 742064.00     0.00     8.00     0.00    0.00    0.00    0.00   0.00   0.00

avg-cpu:  %user   %nice %system %iowait  %steal   %idle
           3.04    0.00   32.91    0.25    0.00   63.80

Device:         rrqm/s   wrqm/s     r/s     w/s    rkB/s    wkB/s avgrq-sz avgqu-sz   await r_await w_await  svctm  %util
sda           11425.00     0.00 18044.00    0.00 118620.00     0.00    13.15     9.03    0.50    0.50    0.00   0.03  47.30
sdb           11583.00     0.00 18103.00    0.00 119504.00     0.00    13.20     9.26    0.51    0.51    0.00   0.03  49.70
sdc           13006.00     0.00 17261.00    0.00 121788.00     0.00    14.11    11.10    0.64    0.64    0.00   0.04  65.10
sdd           12904.00     0.00 17160.00    0.00 121136.00     0.00    14.12    11.18    0.65    0.65    0.00   0.04  62.90
sde           13044.00     0.00 17178.00    0.00 121664.00     0.00    14.17    11.43    0.66    0.66    0.00   0.04  62.30
sdf           13782.00     0.00 17374.00    0.00 125500.00     0.00    14.45    11.83    0.68    0.68    0.00   0.04  66.20
sdg               0.00     0.00    0.00    0.00     0.00     0.00     0.00     0.00    0.00    0.00    0.00   0.00   0.00
sdh               0.00     0.00    0.00    0.00     0.00     0.00     0.00     0.00    0.00    0.00    0.00   0.00   0.00
md0               0.00     0.00 182093.00    0.00 728372.00     0.00     8.00     0.00    0.00    0.00    0.00   0.00   0.00

avg-cpu:  %user   %nice %system %iowait  %steal   %idle
           2.26    0.00   33.42    0.50    0.00   63.82

Device:         rrqm/s   wrqm/s     r/s     w/s    rkB/s    wkB/s avgrq-sz avgqu-sz   await r_await w_await  svctm  %util
sda           12179.00     0.00 17871.00    0.00 121472.00     0.00    13.59     9.15    0.51    0.51    0.00   0.03  47.30
sdb           10896.00     0.00 17715.00    0.00 115928.00     0.00    13.09     8.93    0.50    0.50    0.00   0.03  45.80
sdc           12599.00     0.00 17148.00    0.00 120980.00     0.00    14.11    11.40    0.66    0.66    0.00   0.04  62.60
sdd           11198.00     0.00 16875.00    0.00 113712.00     0.00    13.48    10.79    0.64    0.64    0.00   0.04  59.60
sde           12102.00     0.00 16770.00    0.00 116988.00     0.00    13.95    10.54    0.63    0.63    0.00   0.04  60.80
sdf           11500.00     0.00 16968.00    0.00 115536.00     0.00    13.62    10.87    0.64    0.64    0.00   0.04  59.90
sdg               0.00     0.00    0.00    0.00     0.00     0.00     0.00     0.00    0.00    0.00    0.00   0.00   0.00
sdh               0.00     0.00    0.00    0.00     0.00     0.00     0.00     0.00    0.00    0.00    0.00   0.00   0.00
md0               0.00     0.00 175075.00    0.00 706152.00     0.00     8.07     0.00    0.00    0.00    0.00   0.00   0.00

avg-cpu:  %user   %nice %system %iowait  %steal   %idle
           3.04    0.00   31.90    0.76    0.00   64.30

Device:         rrqm/s   wrqm/s     r/s     w/s    rkB/s    wkB/s avgrq-sz avgqu-sz   await r_await w_await  svctm  %util
sda           11516.83     0.00 17671.29    0.00 117647.52     0.00    13.32     8.63    0.49    0.49    0.00   0.03  45.94
sdb           11197.03     0.00 17571.29    0.00 115869.31     0.00    13.19     9.12    0.52    0.52    0.00   0.03  45.25
sdc           12466.34     0.00 16944.55    0.00 118669.31     0.00    14.01    10.89    0.64    0.64    0.00   0.04  59.60
sdd           13547.52     0.00 16940.59    0.00 122918.81     0.00    14.51    11.09    0.65    0.65    0.00   0.04  61.49
sde           12538.61     0.00 16991.09    0.00 119077.23     0.00    14.02    11.02    0.65    0.65    0.00   0.04  60.50
sdf           13267.33     0.00 16819.80    0.00 121085.15     0.00    14.40    11.04    0.66    0.66    0.00   0.04  61.78
sdg               0.00     0.00    0.00    0.00     0.00     0.00     0.00     0.00    0.00    0.00    0.00   0.00   0.00
sdh               0.00     0.00    0.00    0.00     0.00     0.00     0.00     0.00    0.00    0.00    0.00   0.00   0.00
md0               0.00     0.00 178581.19    0.00 714324.75     0.00     8.00     0.00    0.00    0.00    0.00   0.00   0.00

avg-cpu:  %user   %nice %system %iowait  %steal   %idle
           3.32    0.00   32.65    0.26    0.00   63.78

Device:         rrqm/s   wrqm/s     r/s     w/s    rkB/s    wkB/s avgrq-sz avgqu-sz   await r_await w_await  svctm  %util
sda           11448.00     0.00 18481.00    0.00 120572.00     0.00    13.05     9.65    0.52    0.52    0.00   0.03  48.20
sdb           11686.00     0.00 18382.00    0.00 121040.00     0.00    13.17     9.61    0.52    0.52    0.00   0.03  47.60
sdc           12788.00     0.00 17517.00    0.00 121948.00     0.00    13.92    11.60    0.66    0.66    0.00   0.04  61.40
sdd           12916.00     0.00 17560.00    0.00 122568.00     0.00    13.96    11.66    0.66    0.66    0.00   0.04  63.20
sde           12424.00     0.00 17412.00    0.00 120052.00     0.00    13.79    11.39    0.65    0.65    0.00   0.04  62.10
sdf           12428.00     0.00 17398.00    0.00 120340.00     0.00    13.83    11.60    0.67    0.67    0.00   0.04  62.80
sdg               0.00     0.00    0.00    0.00     0.00     0.00     0.00     0.00    0.00    0.00    0.00   0.00   0.00
sdh               0.00     0.00    0.00    0.00     0.00     0.00     0.00     0.00    0.00    0.00    0.00   0.00   0.00
md0               0.00     0.00 181667.00    0.00 727672.00     0.00     8.01     0.00    0.00    0.00    0.00   0.00   0.00

avg-cpu:  %user   %nice %system %iowait  %steal   %idle
           3.02    0.00   34.92    0.25    0.00   61.81

Device:         rrqm/s   wrqm/s     r/s     w/s    rkB/s    wkB/s avgrq-sz avgqu-sz   await r_await w_await  svctm  %util
sda           11971.00     0.00 18572.00    0.00 123112.00     0.00    13.26     9.72    0.52    0.52    0.00   0.03  48.90
sdb           12235.00     0.00 18177.00    0.00 122420.00     0.00    13.47     9.34    0.51    0.51    0.00   0.03  48.10
sdc           12831.00     0.00 17603.00    0.00 122432.00     0.00    13.91    11.28    0.64    0.64    0.00   0.03  61.50
sdd           12337.00     0.00 17853.00    0.00 121964.00     0.00    13.66    11.63    0.65    0.65    0.00   0.04  62.50
sde           12442.00     0.00 17636.00    0.00 121512.00     0.00    13.78    11.37    0.64    0.64    0.00   0.04  61.80
sdf           12314.00     0.00 17650.00    0.00 120476.00     0.00    13.65    11.25    0.64    0.64    0.00   0.04  62.60
sdg               0.00     0.00    0.00    0.00     0.00     0.00     0.00     0.00    0.00    0.00    0.00   0.00   0.00
sdh               0.00     0.00    0.00    0.00     0.00     0.00     0.00     0.00    0.00    0.00    0.00   0.00   0.00
md0               0.00     0.00 182905.00    0.00 731620.00     0.00     8.00     0.00    0.00    0.00    0.00   0.00   0.00

avg-cpu:  %user   %nice %system %iowait  %steal   %idle
           3.03    0.00   33.59    0.76    0.00   62.63

Device:         rrqm/s   wrqm/s     r/s     w/s    rkB/s    wkB/s avgrq-sz avgqu-sz   await r_await w_await  svctm  %util
sda           11267.00     0.00 18045.00    0.00 118276.00     0.00    13.11     9.02    0.50    0.50    0.00   0.03  47.00
sdb           11629.00     0.00 18328.00    0.00 120772.00     0.00    13.18     9.26    0.50    0.50    0.00   0.03  47.00
sdc           12044.00     0.00 17569.00    0.00 120012.00     0.00    13.66    11.22    0.64    0.64    0.00   0.03  61.10
sdd           11710.00     0.00 17307.00    0.00 116728.00     0.00    13.49    11.24    0.65    0.65    0.00   0.04  60.80
sde           12760.00     0.00 17638.00    0.00 122276.00     0.00    13.87    11.31    0.64    0.64    0.00   0.04  63.20
sdf           12973.00     0.00 17440.00    0.00 123176.00     0.00    14.13    11.49    0.66    0.66    0.00   0.04  63.90
sdg               0.00     0.00    0.00    0.00     0.00     0.00     0.00     0.00    0.00    0.00    0.00   0.00   0.00
sdh               0.00     0.00    0.00    0.00     0.00     0.00     0.00     0.00    0.00    0.00    0.00   0.00   0.00
md0               0.00     0.00 180154.00    0.00 722124.00     0.00     8.02     0.00    0.00    0.00    0.00   0.00   0.00

avg-cpu:  %user   %nice %system %iowait  %steal   %idle
           2.78    0.25   35.86    5.05    0.00   56.06

Device:         rrqm/s   wrqm/s     r/s     w/s    rkB/s    wkB/s avgrq-sz avgqu-sz   await r_await w_await  svctm  %util
sda           12077.00     0.00 18751.00    0.00 124328.00     0.00    13.26     9.73    0.52    0.52    0.00   0.03  48.20
sdb           11155.00     0.00 18445.00    0.00 119248.00     0.00    12.93     9.54    0.52    0.52    0.00   0.03  47.80
sdc           12253.00     0.00 17690.00    0.00 120996.00     0.00    13.68    11.62    0.66    0.66    0.00   0.04  62.90
sdd           12388.00     0.00 17902.00    0.00 122164.00     0.00    13.65    11.74    0.66    0.66    0.00   0.04  62.70
sde           12654.00     0.00 17917.00    0.00 123252.00     0.00    13.76    11.60    0.65    0.65    0.00   0.03  62.20
sdf           12122.00     0.00 17774.00    0.00 120384.00     0.00    13.55    11.63    0.66    0.66    0.00   0.04  63.00
sdg               0.00     0.00 2584.00    0.00 10380.00     0.00     8.03     0.33    0.13    0.13    0.00   0.13  32.40
sdh               0.00     0.00    0.00    0.00     0.00     0.00     0.00     0.00    0.00    0.00    0.00   0.00   0.00
md0               0.00     0.00 182231.00    0.00 730076.00     0.00     8.01     0.00    0.00    0.00    0.00   0.00   0.00

avg-cpu:  %user   %nice %system %iowait  %steal   %idle
           2.80    0.00   34.86    1.27    0.00   61.07

Device:         rrqm/s   wrqm/s     r/s     w/s    rkB/s    wkB/s avgrq-sz avgqu-sz   await r_await w_await  svctm  %util
sda           11706.00     0.00 18783.00    0.00 122736.00     0.00    13.07     9.83    0.53    0.53    0.00   0.03  48.30
sdb           11539.00     0.00 18538.00    0.00 121372.00     0.00    13.09     9.82    0.53    0.53    0.00   0.03  47.80
sdc           11617.00     0.00 17656.00    0.00 118064.00     0.00    13.37    11.77    0.67    0.67    0.00   0.03  61.70
sdd           11790.00     0.00 17749.00    0.00 119344.00     0.00    13.45    11.57    0.65    0.65    0.00   0.03  60.50
sde           12334.00     0.00 17778.00    0.00 121172.00     0.00    13.63    11.73    0.66    0.66    0.00   0.04  63.50
sdf           11424.00     0.00 17826.00    0.00 117752.00     0.00    13.21    11.28    0.63    0.63    0.00   0.03  61.00
sdg               0.00     0.00  572.00    0.00  2288.00     0.00     8.00     0.07    0.13    0.13    0.00   0.13   7.50
sdh               0.00     0.00    0.00    0.00     0.00     0.00     0.00     0.00    0.00    0.00    0.00   0.00   0.00
md0               0.00     0.00 179609.00    0.00 718984.00     0.00     8.01     0.00    0.00    0.00    0.00   0.00   0.00

avg-cpu:  %user   %nice %system %iowait  %steal   %idle
           2.75    0.00   33.50    0.50    0.00   63.25

Device:         rrqm/s   wrqm/s     r/s     w/s    rkB/s    wkB/s avgrq-sz avgqu-sz   await r_await w_await  svctm  %util
sda            9871.00     0.00 17791.00    0.00 111324.00     0.00    12.51     8.93    0.50    0.50    0.00   0.03  46.20
sdb           12058.00     0.00 17889.00    0.00 120616.00     0.00    13.48     9.45    0.53    0.53    0.00   0.03  47.00
sdc           11767.00     0.00 17161.00    0.00 116696.00     0.00    13.60    10.96    0.64    0.64    0.00   0.04  61.00
sdd           12282.00     0.00 17207.00    0.00 118716.00     0.00    13.80    11.02    0.64    0.64    0.00   0.04  61.80
sde           12548.00     0.00 17292.00    0.00 120256.00     0.00    13.91    11.16    0.65    0.65    0.00   0.04  60.80
sdf           12630.00     0.00 17337.00    0.00 120740.00     0.00    13.93    11.45    0.66    0.66    0.00   0.04  62.30
sdg               0.00     0.00    0.00    0.00     0.00     0.00     0.00     0.00    0.00    0.00    0.00   0.00   0.00
sdh               0.00     0.00    0.00    0.00     0.00     0.00     0.00     0.00    0.00    0.00    0.00   0.00   0.00
md0               0.00     0.00 177035.00    0.00 708396.00     0.00     8.00     0.00    0.00    0.00    0.00   0.00   0.00

avg-cpu:  %user   %nice %system %iowait  %steal   %idle
           2.78    0.00   33.42    0.51    0.00   63.29

Device:         rrqm/s   wrqm/s     r/s     w/s    rkB/s    wkB/s avgrq-sz avgqu-sz   await r_await w_await  svctm  %util
sda           11035.00     0.00 18159.00    0.00 117452.00     0.00    12.94     9.40    0.52    0.52    0.00   0.03  45.70
sdb           11355.00     0.00 18046.00    0.00 118324.00     0.00    13.11     9.53    0.53    0.53    0.00   0.03  46.60
sdc           11579.00     0.00 17295.00    0.00 116156.00     0.00    13.43    11.21    0.65    0.65    0.00   0.04  61.80
sdd           12769.00     0.00 17453.00    0.00 121636.00     0.00    13.94    11.52    0.66    0.66    0.00   0.04  61.40
sde           11717.00     0.00 17201.00    0.00 116496.00     0.00    13.55    11.13    0.65    0.65    0.00   0.04  60.80
sdf           11604.00     0.00 17316.00    0.00 116648.00     0.00    13.47    10.99    0.63    0.63    0.00   0.04  60.80
sdg               0.00     0.00    0.00    0.00     0.00     0.00     0.00     0.00    0.00    0.00    0.00   0.00   0.00
sdh               0.00     0.00    0.00    0.00     0.00     0.00     0.00     0.00    0.00    0.00    0.00   0.00   0.00
md0               0.00     0.00 176790.00    0.00 707364.00     0.00     8.00     0.00    0.00    0.00    0.00   0.00   0.00

avg-cpu:  %user   %nice %system %iowait  %steal   %idle
           2.78    0.00   33.84    0.25    0.00   63.13

Device:         rrqm/s   wrqm/s     r/s     w/s    rkB/s    wkB/s avgrq-sz avgqu-sz   await r_await w_await  svctm  %util
sda           11808.00     0.00 17981.00    0.00 119888.00     0.00    13.33     9.42    0.52    0.52    0.00   0.03  46.60
sdb           12537.00     0.00 17976.00    0.00 123124.00     0.00    13.70     9.28    0.52    0.52    0.00   0.03  45.40
sdc           12995.00     0.00 17442.00    0.00 122520.00     0.00    14.05    11.78    0.68    0.68    0.00   0.04  61.70
sdd           12790.00     0.00 17227.00    0.00 120956.00     0.00    14.04    11.20    0.65    0.65    0.00   0.04  62.00
sde           11692.00     0.00 16839.00    0.00 114936.00     0.00    13.65    10.97    0.65    0.65    0.00   0.03  58.80
sdf           13360.00     0.00 17343.00    0.00 123820.00     0.00    14.28    11.46    0.66    0.66    0.00   0.04  62.70
sdg               0.00     0.00    0.00    0.00     0.00     0.00     0.00     0.00    0.00    0.00    0.00   0.00   0.00
sdh               0.00     0.00    0.00    0.00     0.00     0.00     0.00     0.00    0.00    0.00    0.00   0.00   0.00
md0               0.00     0.00 181215.00    0.00 724920.00     0.00     8.00     0.00    0.00    0.00    0.00   0.00   0.00

avg-cpu:  %user   %nice %system %iowait  %steal   %idle
           3.05    0.00   33.59    0.51    0.00   62.85

Device:         rrqm/s   wrqm/s     r/s     w/s    rkB/s    wkB/s avgrq-sz avgqu-sz   await r_await w_await  svctm  %util
sda           11497.00     0.00 18424.00    0.00 120528.00     0.00    13.08     9.46    0.51    0.51    0.00   0.03  46.20
sdb           12256.00     0.00 18430.00    0.00 123516.00     0.00    13.40     9.79    0.53    0.53    0.00   0.03  46.70
sdc           12916.00     0.00 17673.00    0.00 123352.00     0.00    13.96    11.72    0.66    0.66    0.00   0.03  61.70
sdd           12174.00     0.00 17477.00    0.00 119488.00     0.00    13.67    11.23    0.64    0.64    0.00   0.04  61.20
sde           12410.00     0.00 17234.00    0.00 119608.00     0.00    13.88    11.19    0.65    0.65    0.00   0.04  61.00
sdf           12484.00     0.00 17609.00    0.00 121256.00     0.00    13.77    11.15    0.63    0.63    0.00   0.03  61.60
sdg               0.00     0.00    1.00    0.00     4.00     0.00     8.00     0.00    1.00    1.00    0.00   1.00   0.10
sdh               0.00     0.00    0.00    0.00     0.00     0.00     0.00     0.00    0.00    0.00    0.00   0.00   0.00
md0               0.00     0.00 181853.00    0.00 727412.00     0.00     8.00     0.00    0.00    0.00    0.00   0.00   0.00

