Linux 4.17.2 (bench) 	08/03/2018 	_x86_64_	(4 CPU)

avg-cpu:  %user   %nice %system %iowait  %steal   %idle
          10.30    0.02    3.97    2.42    0.00   83.30

Device:         rrqm/s   wrqm/s     r/s     w/s    rkB/s    wkB/s avgrq-sz avgqu-sz   await r_await w_await  svctm  %util
sda              38.66     4.29 1592.75  103.78 20564.16  3167.05    27.98     1.02    0.60    0.26    5.91   0.06  10.46
sdb              38.57     4.25 1592.62  103.92 20553.51  3163.67    27.96     1.02    0.60    0.26    5.85   0.06  10.34
sdc              76.71     4.31 1552.41  103.47 20545.76  3166.17    28.64     1.44    0.87    0.45    7.12   0.08  13.76
sdd              70.03     4.28 1558.25  103.54 20530.39  3162.32    28.51     1.45    0.87    0.44    7.32   0.08  13.85
sde              72.11     4.32 1563.40  103.64 20591.21  3166.61    28.50     1.47    0.88    0.45    7.43   0.08  13.87
sdf              69.19     4.29 1565.58  103.58 20572.17  3163.44    28.44     1.51    0.91    0.44    7.90   0.08  13.90
sdg               0.00     3.18   25.81   73.35   321.90   391.96    14.40     0.44    4.44    0.20    5.93   0.08   0.77
sdh               0.00     0.13    0.02    0.24     2.24     5.13    56.82     0.00    1.15    0.65    1.19   0.21   0.01
md0               0.00     0.00 9796.21  486.20 140773.57 21685.49    31.60     0.00    0.00    0.00    0.00   0.00   0.00

avg-cpu:  %user   %nice %system %iowait  %steal   %idle
           5.87    0.00   35.20    0.26    0.00   58.67

Device:         rrqm/s   wrqm/s     r/s     w/s    rkB/s    wkB/s avgrq-sz avgqu-sz   await r_await w_await  svctm  %util
sda               0.00     0.00 24558.00    0.00 98232.00     0.00     8.00     7.52    0.31    0.31    0.00   0.02  57.70
sdb               0.00     0.00 24568.00    0.00 98272.00     0.00     8.00     7.53    0.31    0.31    0.00   0.02  57.60
sdc               0.00     0.00 24437.00    0.00 97748.00     0.00     8.00     8.14    0.33    0.33    0.00   0.03  65.70
sdd               0.00     0.00 24310.00    0.00 97240.00     0.00     8.00     8.12    0.33    0.33    0.00   0.03  64.00
sde               0.00     0.00 24435.00    0.00 97740.00     0.00     8.00     8.22    0.34    0.34    0.00   0.03  64.50
sdf               0.00     0.00 24162.00    0.00 96648.00     0.00     8.00     8.13    0.34    0.34    0.00   0.03  63.70
sdg               0.00    17.00   31.00   83.00   496.00  1316.00    31.79     0.23    2.04    0.10    2.76   0.09   1.00
sdh               0.00     0.00    0.00    0.00     0.00     0.00     0.00     0.00    0.00    0.00    0.00   0.00   0.00
md0               0.00     0.00 146477.00    0.00 585908.00     0.00     8.00     0.00    0.00    0.00    0.00   0.00   0.00

