Linux 4.17.2 (bench) 	08/03/2018 	_x86_64_	(4 CPU)

avg-cpu:  %user   %nice %system %iowait  %steal   %idle
          10.30    0.02    3.95    2.37    0.00   83.36

Device:         rrqm/s   wrqm/s     r/s     w/s    rkB/s    wkB/s avgrq-sz avgqu-sz   await r_await w_await  svctm  %util
sda              37.45     4.30 1577.10  104.15 20492.20  3178.24    28.16     1.02    0.61    0.26    5.91   0.06  10.38
sdb              37.35     4.26 1576.96  104.29 20481.47  3174.85    28.14     1.02    0.61    0.26    5.85   0.06  10.26
sdc              75.63     4.32 1536.60  103.83 20473.66  3177.35    28.84     1.44    0.88    0.46    7.12   0.08  13.68
sdd              68.92     4.29 1542.46  103.90 20458.23  3173.48    28.71     1.45    0.88    0.44    7.32   0.08  13.77
sde              71.01     4.34 1547.65  104.00 20519.37  3177.80    28.70     1.47    0.89    0.45    7.43   0.08  13.79
sdf              68.08     4.31 1549.83  103.95 20500.24  3174.61    28.63     1.51    0.91    0.45    7.90   0.08  13.82
sdg               0.00     3.18   25.69   73.38   321.50   392.03    14.40     0.44    4.45    0.20    5.93   0.08   0.77
sdh               0.00     0.13    0.02    0.24     2.25     5.14    56.82     0.00    1.15    0.65    1.19   0.21   0.01
md0               0.00     0.00 9694.94  487.91 140270.01 21762.07    31.82     0.00    0.00    0.00    0.00   0.00   0.00

avg-cpu:  %user   %nice %system %iowait  %steal   %idle
           0.20    0.03    1.84    1.24    0.00   96.70

Device:         rrqm/s   wrqm/s     r/s     w/s    rkB/s    wkB/s avgrq-sz avgqu-sz   await r_await w_await  svctm  %util
sda               0.00     0.00 1454.45    0.00  5817.80     0.00     8.00     0.14    0.10    0.10    0.00   0.10  14.39
sdb               0.00     0.00 1443.25    0.00  5773.00     0.00     8.00     0.14    0.10    0.10    0.00   0.10  14.03
sdc               0.00     0.00 1447.85    0.00  5791.40     0.00     8.00     0.16    0.11    0.11    0.00   0.11  15.57
sdd               0.00     0.00 1463.65    0.00  5854.60     0.00     8.00     0.16    0.11    0.11    0.00   0.11  15.88
sde               0.00     0.00 1447.95    0.00  5791.80     0.00     8.00     0.16    0.11    0.11    0.00   0.11  15.77
sdf               0.00     0.00 1440.75    0.00  5763.00     0.00     8.00     0.16    0.11    0.11    0.00   0.11  15.52
sdg               0.00     8.50    1.70   71.20    12.80   374.00    10.61     0.43    5.85    0.09    5.99   0.05   0.34
sdh               0.00     0.00    0.00    0.00     0.00     0.00     0.00     0.00    0.00    0.00    0.00   0.00   0.00
md0               0.00     0.00 8697.95    0.00 34791.80     0.00     8.00     0.00    0.00    0.00    0.00   0.00   0.00

