Linux 4.17.2 (bench) 	08/03/2018 	_x86_64_	(4 CPU)

avg-cpu:  %user   %nice %system %iowait  %steal   %idle
          10.29    0.02    4.01    2.49    0.00   83.19

Device:         rrqm/s   wrqm/s     r/s     w/s    rkB/s    wkB/s avgrq-sz avgqu-sz   await r_await w_await  svctm  %util
sda              41.54     4.26 1622.01  103.19 20743.29  3149.06    27.70     1.03    0.59    0.26    5.91   0.06  10.59
sdb              41.44     4.22 1621.90  103.33 20732.71  3145.70    27.68     1.03    0.59    0.26    5.85   0.06  10.47
sdc              79.46     4.28 1581.79  102.88 20724.90  3148.18    28.34     1.44    0.86    0.45    7.12   0.08  13.90
sdd              72.82     4.25 1587.59  102.95 20709.64  3144.35    28.22     1.45    0.86    0.44    7.32   0.08  14.00
sde              74.89     4.30 1592.71  103.05 20770.03  3148.62    28.21     1.47    0.87    0.44    7.43   0.08  14.02
sdf              71.99     4.27 1594.88  102.99 20751.08  3145.47    28.15     1.52    0.89    0.44    7.90   0.08  14.05
sdg               0.00     3.18   26.03   73.33   322.83   391.97    14.39     0.44    4.43    0.20    5.93   0.08   0.78
sdh               0.00     0.13    0.02    0.24     2.23     5.10    56.82     0.00    1.15    0.65    1.19   0.21   0.01
md0               0.00     0.00 9989.28  483.44 142041.54 21562.30    31.24     0.00    0.00    0.00    0.00   0.00   0.00

avg-cpu:  %user   %nice %system %iowait  %steal   %idle
           1.01    0.00   18.18   45.71    0.00   35.10

Device:         rrqm/s   wrqm/s     r/s     w/s    rkB/s    wkB/s avgrq-sz avgqu-sz   await r_await w_await  svctm  %util
sda               2.00     0.00 9980.00    0.00 89012.00     0.00    17.84     2.48    0.25    0.25    0.00   0.06  58.80
sdb               2.00     0.00 10064.00    0.00 90212.00     0.00    17.93     2.49    0.25    0.25    0.00   0.06  58.90
sdc               2.00     0.00 9776.00    0.00 84744.00     0.00    17.34     3.81    0.39    0.39    0.00   0.07  68.70
sdd               4.00     0.00 9884.00    0.00 88632.00     0.00    17.93     3.75    0.38    0.38    0.00   0.07  71.10
sde               2.00     0.00 9886.00    0.00 88640.00     0.00    17.93     4.01    0.40    0.40    0.00   0.07  70.40
sdf               3.00     0.00 10061.00    0.00 93400.00     0.00    18.57     4.39    0.44    0.44    0.00   0.07  70.90
sdg               0.00     0.00    6.00    0.00   100.00     0.00    33.33     0.00    0.00    0.00    0.00   0.00   0.00
sdh               0.00     0.00    0.00    0.00     0.00     0.00     0.00     0.00    0.00    0.00    0.00   0.00   0.00
md0               0.00     0.00 59934.00    0.00 551652.00     0.00    18.41     0.00    0.00    0.00    0.00   0.00   0.00

avg-cpu:  %user   %nice %system %iowait  %steal   %idle
           1.27    0.00   18.73   46.58    0.00   33.42

Device:         rrqm/s   wrqm/s     r/s     w/s    rkB/s    wkB/s avgrq-sz avgqu-sz   await r_await w_await  svctm  %util
sda               7.00     0.00 10062.00    0.00 95332.00     0.00    18.95     2.90    0.29    0.29    0.00   0.06  59.30
sdb              10.00     0.00 10134.00    0.00 95760.00     0.00    18.90     3.03    0.30    0.30    0.00   0.06  58.80
sdc               9.00     0.00 10086.00    0.00 94132.00     0.00    18.67     4.54    0.45    0.45    0.00   0.07  71.60
sdd              11.00     0.00 9747.00    0.00 90088.00     0.00    18.49     4.38    0.45    0.45    0.00   0.07  71.70
sde               4.00     0.00 9978.00    0.00 91668.00     0.00    18.37     4.35    0.44    0.44    0.00   0.07  74.10
sdf               6.00     0.00 10005.00    0.00 91916.00     0.00    18.37     4.46    0.45    0.45    0.00   0.07  71.20
sdg               0.00    81.00   17.00 2554.00   328.00 12628.00    10.08    15.56    6.05    0.35    6.09   0.05  11.70
sdh               0.00     0.00    0.00    0.00     0.00     0.00     0.00     0.00    0.00    0.00    0.00   0.00   0.00
md0               0.00     0.00 60603.00    0.00 575800.00     0.00    19.00     0.00    0.00    0.00    0.00   0.00   0.00

avg-cpu:  %user   %nice %system %iowait  %steal   %idle
           1.02    0.00   19.85   50.38    0.00   28.75

Device:         rrqm/s   wrqm/s     r/s     w/s    rkB/s    wkB/s avgrq-sz avgqu-sz   await r_await w_await  svctm  %util
sda               5.00     0.00 11270.00    0.00 74828.00     0.00    13.28     1.62    0.14    0.14    0.00   0.06  64.30
sdb               4.00     0.00 11447.00    0.00 77064.00     0.00    13.46     1.62    0.14    0.14    0.00   0.06  63.60
sdc               3.00     0.00 11562.00    0.00 75936.00     0.00    13.14     2.02    0.18    0.18    0.00   0.06  72.60
sdd               5.00     0.00 11306.00    0.00 71684.00     0.00    12.68     1.86    0.16    0.16    0.00   0.06  70.70
sde               6.00     0.00 11254.00    0.00 71368.00     0.00    12.68     1.90    0.17    0.17    0.00   0.06  72.30
sdf               4.00     0.00 11215.00    0.00 74200.00     0.00    13.23     1.90    0.17    0.17    0.00   0.07  73.10
sdg               0.00     0.00    0.00    0.00     0.00     0.00     0.00     0.00    0.00    0.00    0.00   0.00   0.00
sdh               0.00     0.00    0.00    0.00     0.00     0.00     0.00     0.00    0.00    0.00    0.00   0.00   0.00
md0               0.00     0.00 68081.00    0.00 461296.00     0.00    13.55     0.00    0.00    0.00    0.00   0.00   0.00

avg-cpu:  %user   %nice %system %iowait  %steal   %idle
           1.03    0.00   20.05   52.19    0.00   26.74

Device:         rrqm/s   wrqm/s     r/s     w/s    rkB/s    wkB/s avgrq-sz avgqu-sz   await r_await w_await  svctm  %util
sda               3.00     0.00 11658.00    0.00 75296.00     0.00    12.92     1.54    0.13    0.13    0.00   0.06  64.60
sdb               5.00     0.00 11554.00    0.00 73036.00     0.00    12.64     1.53    0.13    0.13    0.00   0.05  62.10
sdc               4.00     0.00 11565.00    0.00 72132.00     0.00    12.47     1.76    0.15    0.15    0.00   0.06  70.20
sdd               4.00     0.00 11627.00    0.00 71012.00     0.00    12.22     1.82    0.16    0.16    0.00   0.06  71.90
sde               4.00     0.00 11641.00    0.00 75284.00     0.00    12.93     1.88    0.16    0.16    0.00   0.06  73.20
sdf               6.00     0.00 11708.00    0.00 72636.00     0.00    12.41     1.83    0.16    0.16    0.00   0.06  72.40
sdg               0.00     0.00    0.00    0.00     0.00     0.00     0.00     0.00    0.00    0.00    0.00   0.00   0.00
sdh               0.00     0.00    0.00    0.00     0.00     0.00     0.00     0.00    0.00    0.00    0.00   0.00   0.00
md0               0.00     0.00 69796.00    0.00 453364.00     0.00    12.99     0.00    0.00    0.00    0.00   0.00   0.00

avg-cpu:  %user   %nice %system %iowait  %steal   %idle
           1.27    0.00   21.12   51.40    0.00   26.21

Device:         rrqm/s   wrqm/s     r/s     w/s    rkB/s    wkB/s avgrq-sz avgqu-sz   await r_await w_await  svctm  %util
sda               1.00     0.00 11985.00    0.00 75092.00     0.00    12.53     1.66    0.14    0.14    0.00   0.06  67.60
sdb               2.00     0.00 11890.00    0.00 74540.00     0.00    12.54     1.61    0.14    0.14    0.00   0.05  64.60
sdc               1.00     0.00 11777.00    0.00 70864.00     0.00    12.03     1.87    0.16    0.16    0.00   0.06  71.00
sdd               0.00     0.00 11862.00    0.00 71540.00     0.00    12.06     1.81    0.15    0.15    0.00   0.06  73.40
sde               0.00     0.00 12001.00    0.00 74324.00     0.00    12.39     1.94    0.16    0.16    0.00   0.06  73.30
sdf               0.00     0.00 11669.00    0.00 72228.00     0.00    12.38     1.87    0.16    0.16    0.00   0.06  73.50
sdg               0.00     0.00    0.00    2.00     0.00    20.00    20.00     0.00    0.00    0.00    0.00   0.00   0.00
sdh               0.00     0.00    0.00    0.00     0.00     0.00     0.00     0.00    0.00    0.00    0.00   0.00   0.00
md0               0.00     0.00 71179.00    0.00 449052.00     0.00    12.62     0.00    0.00    0.00    0.00   0.00   0.00

avg-cpu:  %user   %nice %system %iowait  %steal   %idle
           1.28    0.00   19.64   50.26    0.00   28.83

Device:         rrqm/s   wrqm/s     r/s     w/s    rkB/s    wkB/s avgrq-sz avgqu-sz   await r_await w_await  svctm  %util
sda               4.00     0.00 11371.00    0.00 68580.00     0.00    12.06     1.45    0.13    0.13    0.00   0.05  60.60
sdb               4.00     0.00 11364.00    0.00 70664.00     0.00    12.44     1.51    0.13    0.13    0.00   0.05  61.10
sdc               2.00     0.00 11345.00    0.00 73504.00     0.00    12.96     1.87    0.17    0.17    0.00   0.06  70.80
sdd               3.00     0.00 11247.00    0.00 72184.00     0.00    12.84     1.84    0.16    0.16    0.00   0.06  70.20
sde               2.00     0.00 11483.00    0.00 71652.00     0.00    12.48     1.80    0.16    0.16    0.00   0.06  70.00
sdf               4.00     0.00 11283.00    0.00 72356.00     0.00    12.83     1.77    0.16    0.16    0.00   0.06  70.10
sdg               0.00     0.00    0.00    0.00     0.00     0.00     0.00     0.00    0.00    0.00    0.00   0.00   0.00
sdh               0.00     0.00    0.00    0.00     0.00     0.00     0.00     0.00    0.00    0.00    0.00   0.00   0.00
md0               0.00     0.00 68115.00    0.00 441276.00     0.00    12.96     0.00    0.00    0.00    0.00   0.00   0.00

avg-cpu:  %user   %nice %system %iowait  %steal   %idle
           0.76    0.00   18.18   40.15    0.00   40.91

Device:         rrqm/s   wrqm/s     r/s     w/s    rkB/s    wkB/s avgrq-sz avgqu-sz   await r_await w_await  svctm  %util
sda              16.00     0.00 10642.00    0.00 115732.00     0.00    21.75     5.77    0.54    0.54    0.00   0.05  58.50
sdb              21.00     0.00 10887.00    0.00 116732.00     0.00    21.44     5.96    0.55    0.55    0.00   0.05  57.50
sdc              61.00     0.00 10598.00    0.00 114960.00     0.00    21.69    11.75    1.10    1.10    0.00   0.07  74.70
sdd              62.00     0.00 10550.00    0.00 115316.00     0.00    21.86    11.47    1.09    1.09    0.00   0.07  74.80
sde              38.00     0.00 10408.00    0.00 114472.00     0.00    22.00    10.63    1.02    1.02    0.00   0.07  75.60
sdf              42.00     0.00 10422.00    0.00 112504.00     0.00    21.59    10.55    1.01    1.01    0.00   0.07  74.40
sdg               0.00     0.00   11.00    6.00    44.00    32.00     8.94     0.00    0.18    0.18    0.17   0.12   0.20
sdh               0.00     0.00    0.00    0.00     0.00     0.00     0.00     0.00    0.00    0.00    0.00   0.00   0.00
md0               0.00     0.00 67495.00    0.00 705864.00     0.00    20.92     0.00    0.00    0.00    0.00   0.00   0.00

avg-cpu:  %user   %nice %system %iowait  %steal   %idle
           1.02    0.25   16.54   36.90    0.00   45.29

Device:         rrqm/s   wrqm/s     r/s     w/s    rkB/s    wkB/s avgrq-sz avgqu-sz   await r_await w_await  svctm  %util
sda              51.00     0.00 10448.00    0.00 130704.00     0.00    25.02     7.08    0.68    0.68    0.00   0.05  56.10
sdb              27.00     0.00 10178.00    0.00 126624.00     0.00    24.88     7.14    0.70    0.70    0.00   0.05  55.80
sdc              86.00     0.00 10215.00    0.00 127312.00     0.00    24.93    13.81    1.35    1.35    0.00   0.07  75.50
sdd              61.00     0.00 10128.00    0.00 126232.00     0.00    24.93    14.59    1.44    1.44    0.00   0.07  74.30
sde              65.00     0.00 10076.00    0.00 128340.00     0.00    25.47    15.42    1.53    1.53    0.00   0.08  75.60
sdf              78.00     0.00 10381.00    0.00 132248.00     0.00    25.48    16.02    1.54    1.54    0.00   0.07  77.20
sdg               0.00     0.00   18.00    0.00   120.00     0.00    13.33     0.00    0.17    0.17    0.00   0.17   0.30
sdh               0.00     0.00    0.00    0.00     0.00     0.00     0.00     0.00    0.00    0.00    0.00   0.00   0.00
md0               0.00     0.00 67612.00    0.00 790344.00     0.00    23.38     0.00    0.00    0.00    0.00   0.00   0.00

avg-cpu:  %user   %nice %system %iowait  %steal   %idle
           1.01    0.00   17.34   41.46    0.00   40.20

Device:         rrqm/s   wrqm/s     r/s     w/s    rkB/s    wkB/s avgrq-sz avgqu-sz   await r_await w_await  svctm  %util
sda              23.00     0.00 9680.00    0.00 107320.00     0.00    22.17     4.59    0.47    0.47    0.00   0.06  55.60
sdb              18.00     0.00 10006.00    0.00 110676.00     0.00    22.12     4.71    0.47    0.47    0.00   0.05  53.60
sdc              34.00     0.00 9857.00    0.00 109948.00     0.00    22.31     9.09    0.92    0.92    0.00   0.07  71.20
sdd              43.00     0.00 9964.00    0.00 112064.00     0.00    22.49     9.35    0.94    0.94    0.00   0.07  74.00
sde              27.00     0.00 9910.00    0.00 109900.00     0.00    22.18     8.93    0.90    0.90    0.00   0.07  72.00
sdf              41.00     0.00 9640.00    0.00 109172.00     0.00    22.65     9.41    0.97    0.97    0.00   0.07  72.10
sdg               0.00     0.00    0.00    0.00     0.00     0.00     0.00     0.00    0.00    0.00    0.00   0.00   0.00
sdh               0.00     0.00    0.00    0.00     0.00     0.00     0.00     0.00    0.00    0.00    0.00   0.00   0.00
md0               0.00     0.00 61597.00    0.00 679276.00     0.00    22.06     0.00    0.00    0.00    0.00   0.00   0.00

avg-cpu:  %user   %nice %system %iowait  %steal   %idle
           1.26    0.00   17.59   44.72    0.00   36.43

Device:         rrqm/s   wrqm/s     r/s     w/s    rkB/s    wkB/s avgrq-sz avgqu-sz   await r_await w_await  svctm  %util
sda               8.00     0.00 9828.00    0.00 103368.00     0.00    21.04     3.23    0.33    0.33    0.00   0.06  61.30
sdb               3.00     0.00 9791.00    0.00 103728.00     0.00    21.19     3.30    0.34    0.34    0.00   0.06  59.50
sdc               6.00     0.00 9490.00    0.00 102680.00     0.00    21.64     5.77    0.61    0.61    0.00   0.08  72.60
sdd               8.00     0.00 9438.00    0.00 102012.00     0.00    21.62     5.79    0.61    0.61    0.00   0.08  74.00
sde              11.00     0.00 9549.00    0.00 100372.00     0.00    21.02     5.50    0.58    0.58    0.00   0.08  74.60
sdf              11.00     0.00 9686.00    0.00 104492.00     0.00    21.58     5.74    0.59    0.59    0.00   0.08  75.30
sdg               0.00     0.00    0.00    0.00     0.00     0.00     0.00     0.00    0.00    0.00    0.00   0.00   0.00
sdh               0.00     0.00    0.00    0.00     0.00     0.00     0.00     0.00    0.00    0.00    0.00   0.00   0.00
md0               0.00     0.00 57954.00    0.00 642232.00     0.00    22.16     0.00    0.00    0.00    0.00   0.00   0.00

avg-cpu:  %user   %nice %system %iowait  %steal   %idle
           1.02    0.00   18.32   47.84    0.00   32.82

Device:         rrqm/s   wrqm/s     r/s     w/s    rkB/s    wkB/s avgrq-sz avgqu-sz   await r_await w_await  svctm  %util
sda               2.00     0.00 10385.00    0.00 82212.00     0.00    15.83     2.00    0.19    0.19    0.00   0.06  59.70
sdb               2.00     0.00 10580.00    0.00 80240.00     0.00    15.17     1.92    0.18    0.18    0.00   0.06  59.00
sdc               1.00     0.00 10281.00    0.00 81492.00     0.00    15.85     2.57    0.25    0.25    0.00   0.07  68.00
sdd               2.00     0.00 10467.00    0.00 81620.00     0.00    15.60     2.79    0.27    0.27    0.00   0.07  70.40
sde               0.00     0.00 10286.00    0.00 79264.00     0.00    15.41     2.58    0.25    0.25    0.00   0.07  69.70
sdf               3.00     0.00 10521.00    0.00 81816.00     0.00    15.55     2.80    0.27    0.27    0.00   0.07  70.50
sdg               0.00     0.00    0.00    0.00     0.00     0.00     0.00     0.00    0.00    0.00    0.00   0.00   0.00
sdh               0.00     0.00    0.00    0.00     0.00     0.00     0.00     0.00    0.00    0.00    0.00   0.00   0.00
md0               0.00     0.00 62574.00    0.00 498132.00     0.00    15.92     0.00    0.00    0.00    0.00   0.00   0.00

avg-cpu:  %user   %nice %system %iowait  %steal   %idle
           0.76    0.00   18.48   47.34    0.00   33.42

Device:         rrqm/s   wrqm/s     r/s     w/s    rkB/s    wkB/s avgrq-sz avgqu-sz   await r_await w_await  svctm  %util
sda               2.00     0.00 10240.00    0.00 84140.00     0.00    16.43     2.21    0.22    0.22    0.00   0.06  60.20
sdb               0.00     0.00 10261.00    0.00 87252.00     0.00    17.01     2.26    0.22    0.22    0.00   0.06  59.20
sdc               4.00     0.00 10364.00    0.00 86540.00     0.00    16.70     3.57    0.34    0.34    0.00   0.07  70.40
sdd              11.00     0.00 10199.00    0.00 84356.00     0.00    16.54     3.38    0.33    0.33    0.00   0.07  71.00
sde               2.00     0.00 10333.00    0.00 86620.00     0.00    16.77     3.32    0.32    0.32    0.00   0.07  70.90
sdf               2.00     0.00 10390.00    0.00 85428.00     0.00    16.44     3.41    0.33    0.33    0.00   0.07  73.20
sdg               0.00     1.00    1.00    2.00     4.00    36.00    26.67     0.00    0.00    0.00    0.00   0.00   0.00
sdh               0.00     0.00    0.00    0.00     0.00     0.00     0.00     0.00    0.00    0.00    0.00   0.00   0.00
md0               0.00     0.00 61918.00    0.00 526492.00     0.00    17.01     0.00    0.00    0.00    0.00   0.00   0.00

avg-cpu:  %user   %nice %system %iowait  %steal   %idle
           1.26    0.00   18.18   41.41    0.00   39.14

Device:         rrqm/s   wrqm/s     r/s     w/s    rkB/s    wkB/s avgrq-sz avgqu-sz   await r_await w_await  svctm  %util
sda              11.00     0.00 9670.00    0.00 89312.00     0.00    18.47     2.82    0.29    0.29    0.00   0.06  53.20
sdb               4.00     0.00 9482.00    0.00 89996.00     0.00    18.98     2.79    0.29    0.29    0.00   0.06  53.10
sdc               6.00     0.00 9304.00    0.00 87636.00     0.00    18.84     4.35    0.47    0.47    0.00   0.07  65.60
sdd               6.00     0.00 9401.00    0.00 89568.00     0.00    19.05     4.54    0.48    0.48    0.00   0.07  68.60
sde              10.00     0.00 9633.00    0.00 89720.00     0.00    18.63     4.80    0.50    0.50    0.00   0.07  69.00
sdf               6.00     0.00 9633.00    0.00 93320.00     0.00    19.38     4.79    0.50    0.50    0.00   0.07  69.60
sdg               0.00     0.00    0.00    0.00     0.00     0.00     0.00     0.00    0.00    0.00    0.00   0.00   0.00
sdh               0.00     0.00    0.00    0.00     0.00     0.00     0.00     0.00    0.00    0.00    0.00   0.00   0.00
md0               0.00     0.00 57524.00    0.00 555108.00     0.00    19.30     0.00    0.00    0.00    0.00   0.00   0.00

avg-cpu:  %user   %nice %system %iowait  %steal   %idle
           1.50    0.00   19.50   31.50    0.00   47.50

Device:         rrqm/s   wrqm/s     r/s     w/s    rkB/s    wkB/s avgrq-sz avgqu-sz   await r_await w_await  svctm  %util
sda              24.00     0.00 10028.00    0.00 93024.00     0.00    18.55     4.66    0.46    0.46    0.00   0.05  46.70
sdb              10.00     0.00 10164.00    0.00 93632.00     0.00    18.42     5.13    0.50    0.50    0.00   0.05  46.70
sdc              32.00     0.00 10246.00    0.00 94332.00     0.00    18.41     9.11    0.89    0.89    0.00   0.06  62.30
sdd              40.00     0.00 10383.00    0.00 97796.00     0.00    18.84     9.82    0.94    0.94    0.00   0.06  64.00
sde              35.00     0.00 10388.00    0.00 97452.00     0.00    18.76     9.99    0.96    0.96    0.00   0.06  63.00
sdf              23.00     0.00 10168.00    0.00 94388.00     0.00    18.57     8.44    0.83    0.83    0.00   0.06  61.90
sdg               0.00     0.00    0.00    0.00     0.00     0.00     0.00     0.00    0.00    0.00    0.00   0.00   0.00
sdh               0.00     0.00    0.00    0.00     0.00     0.00     0.00     0.00    0.00    0.00    0.00   0.00   0.00
md0               0.00     0.00 64647.00    0.00 578708.00     0.00    17.90     0.00    0.00    0.00    0.00   0.00   0.00

avg-cpu:  %user   %nice %system %iowait  %steal   %idle
           1.27    0.00   19.08   41.73    0.00   37.91

Device:         rrqm/s   wrqm/s     r/s     w/s    rkB/s    wkB/s avgrq-sz avgqu-sz   await r_await w_await  svctm  %util
sda               5.00     0.00 10320.00    0.00 79724.00     0.00    15.45     2.40    0.23    0.23    0.00   0.05  56.40
sdb               2.00     0.00 10255.00    0.00 78200.00     0.00    15.25     2.50    0.24    0.24    0.00   0.05  54.90
sdc               8.00     0.00 10223.00    0.00 76100.00     0.00    14.89     3.70    0.36    0.36    0.00   0.06  63.90
sdd               4.00     0.00 10133.00    0.00 75940.00     0.00    14.99     3.73    0.37    0.37    0.00   0.06  65.80
sde               6.00     0.00 10251.00    0.00 75696.00     0.00    14.77     3.60    0.35    0.35    0.00   0.06  66.60
sdf               3.00     0.00 10020.00    0.00 75164.00     0.00    15.00     3.60    0.36    0.36    0.00   0.07  65.80
sdg               0.00     0.00    0.00    0.00     0.00     0.00     0.00     0.00    0.00    0.00    0.00   0.00   0.00
sdh               0.00     0.00    0.00    0.00     0.00     0.00     0.00     0.00    0.00    0.00    0.00   0.00   0.00
md0               0.00     0.00 61331.00    0.00 467104.00     0.00    15.23     0.00    0.00    0.00    0.00   0.00   0.00

avg-cpu:  %user   %nice %system %iowait  %steal   %idle
           1.01    0.00   19.95   43.43    0.00   35.61

Device:         rrqm/s   wrqm/s     r/s     w/s    rkB/s    wkB/s avgrq-sz avgqu-sz   await r_await w_await  svctm  %util
sda               2.00     0.00 10229.00    0.00 72288.00     0.00    14.13     2.21    0.22    0.22    0.00   0.06  56.60
sdb               9.00     0.00 10436.00    0.00 75552.00     0.00    14.48     2.26    0.22    0.22    0.00   0.05  56.20
sdc               5.00     0.00 10226.00    0.00 74808.00     0.00    14.63     3.48    0.34    0.34    0.00   0.06  65.10
sdd              12.00     0.00 9980.00    0.00 72304.00     0.00    14.49     3.15    0.32    0.32    0.00   0.07  64.90
sde               5.00     0.00 10240.00    0.00 74256.00     0.00    14.50     3.28    0.32    0.32    0.00   0.06  66.10
sdf               5.00     0.00 10405.00    0.00 76404.00     0.00    14.69     3.32    0.32    0.32    0.00   0.06  66.20
sdg               0.00     0.00    0.00    0.00     0.00     0.00     0.00     0.00    0.00    0.00    0.00   0.00   0.00
sdh               0.00     0.00    0.00    0.00     0.00     0.00     0.00     0.00    0.00    0.00    0.00   0.00   0.00
md0               0.00     0.00 61744.00    0.00 452752.00     0.00    14.67     0.00    0.00    0.00    0.00   0.00   0.00

avg-cpu:  %user   %nice %system %iowait  %steal   %idle
           1.28    0.00   19.13   43.88    0.00   35.71

Device:         rrqm/s   wrqm/s     r/s     w/s    rkB/s    wkB/s avgrq-sz avgqu-sz   await r_await w_await  svctm  %util
sda               3.00     0.00 10538.00    0.00 76804.00     0.00    14.58     2.15    0.20    0.20    0.00   0.05  57.10
sdb               0.00     0.00 10332.00    0.00 73536.00     0.00    14.23     2.09    0.20    0.20    0.00   0.05  55.40
sdc               1.00     0.00 10436.00    0.00 73448.00     0.00    14.08     2.77    0.27    0.27    0.00   0.06  63.40
sdd               1.00     0.00 10472.00    0.00 73896.00     0.00    14.11     2.83    0.27    0.27    0.00   0.06  66.10
sde               1.00     0.00 10455.00    0.00 76732.00     0.00    14.68     3.17    0.30    0.30    0.00   0.06  67.20
sdf               3.00     0.00 10445.00    0.00 76472.00     0.00    14.64     3.20    0.31    0.31    0.00   0.06  66.40
sdg               0.00     0.00    0.00    0.00     0.00     0.00     0.00     0.00    0.00    0.00    0.00   0.00   0.00
sdh               0.00     0.00    0.00    0.00     0.00     0.00     0.00     0.00    0.00    0.00    0.00   0.00   0.00
md0               0.00     0.00 62964.00    0.00 457020.00     0.00    14.52     0.00    0.00    0.00    0.00   0.00   0.00

avg-cpu:  %user   %nice %system %iowait  %steal   %idle
           1.26    0.25   19.40   42.32    0.00   36.78

Device:         rrqm/s   wrqm/s     r/s     w/s    rkB/s    wkB/s avgrq-sz avgqu-sz   await r_await w_await  svctm  %util
sda               1.00     0.00 10269.00    0.00 79908.00     0.00    15.56     2.55    0.25    0.25    0.00   0.05  55.00
sdb               1.00     0.00 10248.00    0.00 81344.00     0.00    15.88     2.72    0.27    0.27    0.00   0.05  55.60
sdc               7.00     0.00 10323.00    0.00 83988.00     0.00    16.27     4.53    0.44    0.44    0.00   0.07  67.40
sdd               6.00     0.00 10585.00    0.00 85628.00     0.00    16.18     4.62    0.44    0.44    0.00   0.07  69.10
sde               6.00     0.00 10358.00    0.00 81300.00     0.00    15.70     4.40    0.42    0.42    0.00   0.07  67.40
sdf               5.00     0.00 10263.00    0.00 79800.00     0.00    15.55     4.46    0.43    0.43    0.00   0.07  69.00
sdg               0.00     0.00    4.00    0.00    16.00     0.00     8.00     0.00    0.25    0.25    0.00   0.25   0.10
sdh               0.00     0.00    0.00    0.00     0.00     0.00     0.00     0.00    0.00    0.00    0.00   0.00   0.00
md0               0.00     0.00 62174.00    0.00 500528.00     0.00    16.10     0.00    0.00    0.00    0.00   0.00   0.00

avg-cpu:  %user   %nice %system %iowait  %steal   %idle
           1.78    0.00   19.34   41.98    0.00   36.90

Device:         rrqm/s   wrqm/s     r/s     w/s    rkB/s    wkB/s avgrq-sz avgqu-sz   await r_await w_await  svctm  %util
sda               4.00     0.00 10879.00    0.00 67196.00     0.00    12.35     2.17    0.20    0.20    0.00   0.05  53.10
sdb               0.00     0.00 10847.00    0.00 67780.00     0.00    12.50     1.99    0.18    0.18    0.00   0.05  53.80
sdc               2.00     0.00 10989.00    0.00 68548.00     0.00    12.48     2.74    0.25    0.25    0.00   0.06  63.80
sdd               3.00     0.00 10909.00    0.00 69084.00     0.00    12.67     2.77    0.25    0.25    0.00   0.06  63.60
sde               1.00     0.00 11094.00    0.00 69144.00     0.00    12.47     2.76    0.25    0.25    0.00   0.06  64.50
sdf               2.00     0.00 11071.00    0.00 70020.00     0.00    12.65     3.02    0.27    0.27    0.00   0.06  65.20
sdg               0.00     0.00    0.00    0.00     0.00     0.00     0.00     0.00    0.00    0.00    0.00   0.00   0.00
sdh               0.00     0.00    0.00    0.00     0.00     0.00     0.00     0.00    0.00    0.00    0.00   0.00   0.00
md0               0.00     0.00 65944.00    0.00 414600.00     0.00    12.57     0.00    0.00    0.00    0.00   0.00   0.00

avg-cpu:  %user   %nice %system %iowait  %steal   %idle
           1.27    0.00   20.10   44.78    0.00   33.84

Device:         rrqm/s   wrqm/s     r/s     w/s    rkB/s    wkB/s avgrq-sz avgqu-sz   await r_await w_await  svctm  %util
sda               0.00     0.00 10848.00    0.00 65460.00     0.00    12.07     1.60    0.15    0.15    0.00   0.05  59.00
sdb               0.00     0.00 11025.00    0.00 66576.00     0.00    12.08     1.68    0.15    0.15    0.00   0.05  58.00
sdc               0.00     0.00 11196.00    0.00 68980.00     0.00    12.32     2.41    0.22    0.22    0.00   0.06  68.20
sdd               0.00     0.00 10869.00    0.00 65980.00     0.00    12.14     2.19    0.20    0.20    0.00   0.06  68.30
sde               0.00     0.00 10924.00    0.00 68008.00     0.00    12.45     2.31    0.21    0.21    0.00   0.06  67.50
sdf               0.00     0.00 10891.00    0.00 66772.00     0.00    12.26     2.18    0.20    0.20    0.00   0.06  70.10
sdg               0.00     0.00    0.00    0.00     0.00     0.00     0.00     0.00    0.00    0.00    0.00   0.00   0.00
sdh               0.00     0.00    0.00    0.00     0.00     0.00     0.00     0.00    0.00    0.00    0.00   0.00   0.00
md0               0.00     0.00 65779.00    0.00 404624.00     0.00    12.30     0.00    0.00    0.00    0.00   0.00   0.00

