Linux 4.17.2 (bench) 	08/03/2018 	_x86_64_	(4 CPU)

avg-cpu:  %user   %nice %system %iowait  %steal   %idle
          10.28    0.02    4.04    2.54    0.00   83.12

Device:         rrqm/s   wrqm/s     r/s     w/s    rkB/s    wkB/s avgrq-sz avgqu-sz   await r_await w_await  svctm  %util
sda              44.31     4.25 1640.94  102.81 20842.93  3137.39    27.50     1.03    0.59    0.26    5.91   0.06  10.67
sdb              44.18     4.21 1640.86  102.95 20832.35  3134.04    27.49     1.03    0.59    0.26    5.85   0.06  10.55
sdc              82.17     4.27 1600.78  102.50 20824.50  3136.51    28.14     1.45    0.85    0.45    7.12   0.08  13.99
sdd              75.57     4.24 1606.55  102.57 20809.33  3132.70    28.02     1.46    0.85    0.44    7.32   0.08  14.09
sde              77.61     4.28 1611.63  102.67 20869.35  3136.96    28.01     1.48    0.86    0.44    7.43   0.08  14.11
sdf              74.72     4.25 1613.80  102.61 20850.52  3133.81    27.95     1.52    0.89    0.44    7.90   0.08  14.14
sdg               0.00     3.17   26.17   73.31   323.39   391.94    14.38     0.44    4.42    0.20    5.93   0.08   0.78
sdh               0.00     0.13    0.02    0.24     2.22     5.08    56.82     0.00    1.15    0.65    1.19   0.21   0.01
md0               0.00     0.00 10119.64  481.64 142718.88 21482.39    30.98     0.00    0.00    0.00    0.00   0.00   0.00

avg-cpu:  %user   %nice %system %iowait  %steal   %idle
           0.66    0.03    5.51    5.14    0.00   88.67

Device:         rrqm/s   wrqm/s     r/s     w/s    rkB/s    wkB/s avgrq-sz avgqu-sz   await r_await w_await  svctm  %util
sda               0.00     0.00 5216.50    0.00 20866.00     0.00     8.00     0.60    0.12    0.12    0.00   0.03  17.39
sdb               0.00     0.00 5255.75    0.00 21023.00     0.00     8.00     0.62    0.12    0.12    0.00   0.03  17.84
sdc               0.00     0.00 5245.50    0.00 20982.00     0.00     8.00     0.70    0.13    0.13    0.00   0.04  20.00
sdd               0.00     0.00 5251.85    0.00 21007.40     0.00     8.00     0.71    0.13    0.13    0.00   0.04  20.03
sde               0.00     0.00 5223.35    0.00 20893.40     0.00     8.00     0.71    0.14    0.14    0.00   0.04  20.32
sdf               0.00     0.00 5267.80    0.00 21071.20     0.00     8.00     0.72    0.14    0.14    0.00   0.04  20.14
sdg               0.00     0.15    2.30    0.40    17.80     4.00    16.15     0.00    0.19    0.20    0.12   0.13   0.04
sdh               0.00     0.00    0.00    0.00     0.00     0.00     0.00     0.00    0.00    0.00    0.00   0.00   0.00
md0               0.00     0.00 31461.35    0.00 125845.40     0.00     8.00     0.00    0.00    0.00    0.00   0.00   0.00

