Linux 4.17.2 (bench) 	08/03/2018 	_x86_64_	(4 CPU)

avg-cpu:  %user   %nice %system %iowait  %steal   %idle
          10.30    0.02    3.97    2.42    0.00   83.30

Device:         rrqm/s   wrqm/s     r/s     w/s    rkB/s    wkB/s avgrq-sz avgqu-sz   await r_await w_await  svctm  %util
sda              38.66     4.29 1593.42  103.77 20567.23  3166.74    27.97     1.02    0.60    0.26    5.91   0.06  10.46
sdb              38.56     4.25 1593.29  103.91 20556.60  3163.36    27.95     1.02    0.60    0.26    5.85   0.06  10.34
sdc              76.70     4.31 1553.08  103.46 20548.84  3165.85    28.63     1.44    0.87    0.45    7.12   0.08  13.76
sdd              70.02     4.28 1558.91  103.53 20533.46  3162.00    28.51     1.45    0.87    0.44    7.32   0.08  13.85
sde              72.10     4.32 1564.07  103.63 20594.27  3166.30    28.50     1.47    0.88    0.45    7.43   0.08  13.87
sdf              69.19     4.29 1566.25  103.57 20575.23  3163.13    28.43     1.51    0.90    0.44    7.90   0.08  13.90
sdg               0.00     3.18   25.81   73.35   321.91   391.96    14.40     0.44    4.44    0.20    5.93   0.08   0.77
sdh               0.00     0.13    0.02    0.24     2.24     5.12    56.82     0.00    1.15    0.65    1.19   0.21   0.01
md0               0.00     0.00 9800.18  486.15 140791.53 21683.36    31.59     0.00    0.00    0.00    0.00   0.00   0.00

avg-cpu:  %user   %nice %system %iowait  %steal   %idle
           4.06    0.00   30.20    0.76    0.00   64.97

Device:         rrqm/s   wrqm/s     r/s     w/s    rkB/s    wkB/s avgrq-sz avgqu-sz   await r_await w_await  svctm  %util
sda               1.00     0.00 22663.00    0.00 90656.00     0.00     8.00     5.83    0.26    0.26    0.00   0.02  53.50
sdb               3.00     0.00 22378.00    0.00 89524.00     0.00     8.00     5.69    0.25    0.25    0.00   0.02  53.50
sdc               7.00     0.00 22776.00    0.00 91132.00     0.00     8.00     6.66    0.29    0.29    0.00   0.03  63.10
sdd               0.00     0.00 22792.00    0.00 91168.00     0.00     8.00     6.73    0.29    0.29    0.00   0.03  62.80
sde               4.00     0.00 23011.00    0.00 92060.00     0.00     8.00     6.69    0.29    0.29    0.00   0.03  63.00
sdf               3.00     0.00 22468.00    0.00 89884.00     0.00     8.00     6.61    0.29    0.29    0.00   0.03  64.50
sdg               0.00     0.00    4.00    0.00   104.00     0.00    52.00     0.00    0.25    0.25    0.00   0.00   0.00
sdh               0.00     0.00    0.00    0.00     0.00     0.00     0.00     0.00    0.00    0.00    0.00   0.00   0.00
md0               0.00     0.00 136191.00    0.00 544764.00     0.00     8.00     0.00    0.00    0.00    0.00   0.00   0.00

avg-cpu:  %user   %nice %system %iowait  %steal   %idle
           4.24    0.00   31.17    1.00    0.00   63.59

Device:         rrqm/s   wrqm/s     r/s     w/s    rkB/s    wkB/s avgrq-sz avgqu-sz   await r_await w_await  svctm  %util
sda               1.00     0.00 22662.00    0.00 90652.00     0.00     8.00     5.82    0.26    0.26    0.00   0.02  53.80
sdb               2.00     0.00 22348.00    0.00 89400.00     0.00     8.00     5.78    0.26    0.26    0.00   0.02  53.80
sdc               0.00     0.00 22719.00    0.00 90876.00     0.00     8.00     6.48    0.29    0.29    0.00   0.03  64.60
sdd               4.00     0.00 22673.00    0.00 90708.00     0.00     8.00     6.47    0.29    0.29    0.00   0.03  63.70
sde               0.00     0.00 22672.00    0.00 90688.00     0.00     8.00     6.47    0.29    0.29    0.00   0.03  63.20
sdf               0.00     0.00 22676.00    0.00 90704.00     0.00     8.00     6.50    0.29    0.29    0.00   0.03  65.00
sdg               0.00     0.00    0.00    0.00     0.00     0.00     0.00     0.00    0.00    0.00    0.00   0.00   0.00
sdh               0.00     0.00    0.00    0.00     0.00     0.00     0.00     0.00    0.00    0.00    0.00   0.00   0.00
md0               0.00     0.00 135697.00    0.00 542788.00     0.00     8.00     0.00    0.00    0.00    0.00   0.00   0.00

avg-cpu:  %user   %nice %system %iowait  %steal   %idle
           4.07    0.00   30.28    0.76    0.00   64.89

Device:         rrqm/s   wrqm/s     r/s     w/s    rkB/s    wkB/s avgrq-sz avgqu-sz   await r_await w_await  svctm  %util
sda               0.00     0.00 22281.00    0.00 89124.00     0.00     8.00     5.42    0.24    0.24    0.00   0.02  53.30
sdb               0.00     0.00 21951.00    0.00 87804.00     0.00     8.00     5.36    0.24    0.24    0.00   0.02  53.50
sdc               0.00     0.00 22146.00    0.00 88588.00     0.00     8.00     6.10    0.27    0.27    0.00   0.03  62.90
sdd               0.00     0.00 22147.00    0.00 88588.00     0.00     8.00     6.13    0.28    0.28    0.00   0.03  60.90
sde               1.00     0.00 22131.00    0.00 88528.00     0.00     8.00     6.31    0.29    0.29    0.00   0.03  64.50
sdf               3.00     0.00 22132.00    0.00 88540.00     0.00     8.00     6.12    0.28    0.28    0.00   0.03  62.60
sdg               0.00     0.00    0.00    0.00     0.00     0.00     0.00     0.00    0.00    0.00    0.00   0.00   0.00
sdh               0.00     0.00    0.00    0.00     0.00     0.00     0.00     0.00    0.00    0.00    0.00   0.00   0.00
md0               0.00     0.00 132808.00    0.00 531232.00     0.00     8.00     0.00    0.00    0.00    0.00   0.00   0.00

avg-cpu:  %user   %nice %system %iowait  %steal   %idle
           4.53    0.00   30.48    1.01    0.00   63.98

Device:         rrqm/s   wrqm/s     r/s     w/s    rkB/s    wkB/s avgrq-sz avgqu-sz   await r_await w_await  svctm  %util
sda               3.00     0.00 21934.00    0.00 87748.00     0.00     8.00     5.29    0.24    0.24    0.00   0.02  53.60
sdb               1.00     0.00 21855.00    0.00 87424.00     0.00     8.00     5.35    0.24    0.24    0.00   0.02  52.90
sdc               0.00     0.00 22185.00    0.00 88736.00     0.00     8.00     6.00    0.27    0.27    0.00   0.03  62.40
sdd               4.00     0.00 21865.00    0.00 87476.00     0.00     8.00     5.99    0.27    0.27    0.00   0.03  62.20
sde               0.00     0.00 21690.00    0.00 86760.00     0.00     8.00     5.90    0.27    0.27    0.00   0.03  61.70
sdf               0.00     0.00 21601.00    0.00 86404.00     0.00     8.00     5.97    0.28    0.28    0.00   0.03  62.10
sdg               0.00     0.00    0.00    0.00     0.00     0.00     0.00     0.00    0.00    0.00    0.00   0.00   0.00
sdh               0.00     0.00    0.00    0.00     0.00     0.00     0.00     0.00    0.00    0.00    0.00   0.00   0.00
md0               0.00     0.00 131121.00    0.00 524484.00     0.00     8.00     0.00    0.00    0.00    0.00   0.00   0.00

avg-cpu:  %user   %nice %system %iowait  %steal   %idle
           4.79    0.00   30.23    0.76    0.00   64.23

Device:         rrqm/s   wrqm/s     r/s     w/s    rkB/s    wkB/s avgrq-sz avgqu-sz   await r_await w_await  svctm  %util
sda               0.00     0.00 21276.00    0.00 85104.00     0.00     8.00     4.85    0.23    0.23    0.00   0.02  53.00
sdb               1.00     0.00 21644.00    0.00 86580.00     0.00     8.00     4.95    0.23    0.23    0.00   0.02  52.10
sdc               0.00     0.00 21798.00    0.00 87192.00     0.00     8.00     5.71    0.26    0.26    0.00   0.03  62.00
sdd               0.00     0.00 21386.00    0.00 85544.00     0.00     8.00     5.61    0.26    0.26    0.00   0.03  59.30
sde               0.00     0.00 21679.00    0.00 86716.00     0.00     8.00     5.59    0.26    0.26    0.00   0.03  60.00
sdf               0.00     0.00 21527.00    0.00 86108.00     0.00     8.00     5.66    0.26    0.26    0.00   0.03  62.10
sdg               0.00     0.00    0.00    0.00     0.00     0.00     0.00     0.00    0.00    0.00    0.00   0.00   0.00
sdh               0.00     0.00    0.00    0.00     0.00     0.00     0.00     0.00    0.00    0.00    0.00   0.00   0.00
md0               0.00     0.00 129363.00    0.00 517452.00     0.00     8.00     0.00    0.00    0.00    0.00   0.00   0.00

avg-cpu:  %user   %nice %system %iowait  %steal   %idle
           4.75    0.00   31.00    0.75    0.00   63.50

Device:         rrqm/s   wrqm/s     r/s     w/s    rkB/s    wkB/s avgrq-sz avgqu-sz   await r_await w_await  svctm  %util
sda               0.00     0.00 21502.00    0.00 86008.00     0.00     8.00     4.88    0.23    0.23    0.00   0.02  51.30
sdb               0.00     0.00 21327.00    0.00 85308.00     0.00     8.00     4.57    0.21    0.21    0.00   0.02  50.60
sdc               0.00     0.00 20979.00    0.00 83916.00     0.00     8.00     5.16    0.25    0.25    0.00   0.03  58.50
sdd               0.00     0.00 21002.00    0.00 84008.00     0.00     8.00     5.21    0.25    0.25    0.00   0.03  59.60
sde               0.00     0.00 21312.00    0.00 85248.00     0.00     8.00     5.23    0.24    0.24    0.00   0.03  59.60
sdf               0.00     0.00 21358.00    0.00 85432.00     0.00     8.00     5.26    0.25    0.25    0.00   0.03  59.60
sdg               0.00     0.00    0.00    0.00     0.00     0.00     0.00     0.00    0.00    0.00    0.00   0.00   0.00
sdh               0.00     0.00    0.00    0.00     0.00     0.00     0.00     0.00    0.00    0.00    0.00   0.00   0.00
md0               0.00     0.00 127459.00    0.00 509836.00     0.00     8.00     0.00    0.00    0.00    0.00   0.00   0.00

avg-cpu:  %user   %nice %system %iowait  %steal   %idle
           5.43    0.00   30.62    0.99    0.00   62.96

Device:         rrqm/s   wrqm/s     r/s     w/s    rkB/s    wkB/s avgrq-sz avgqu-sz   await r_await w_await  svctm  %util
sda               0.00     0.00 20506.00    0.00 82024.00     0.00     8.00     4.51    0.22    0.22    0.00   0.02  51.00
sdb               0.00     0.00 20972.00    0.00 83888.00     0.00     8.00     4.38    0.21    0.21    0.00   0.02  51.20
sdc               0.00     0.00 20942.00    0.00 83768.00     0.00     8.00     5.15    0.25    0.25    0.00   0.03  59.40
sdd               0.00     0.00 20505.00    0.00 82020.00     0.00     8.00     4.90    0.24    0.24    0.00   0.03  58.50
sde               0.00     0.00 21143.00    0.00 84572.00     0.00     8.00     5.12    0.24    0.24    0.00   0.03  60.70
sdf               0.00     0.00 21058.00    0.00 84232.00     0.00     8.00     5.03    0.24    0.24    0.00   0.03  59.80
sdg               0.00     0.00    0.00    0.00     0.00     0.00     0.00     0.00    0.00    0.00    0.00   0.00   0.00
sdh               0.00     0.00    0.00    0.00     0.00     0.00     0.00     0.00    0.00    0.00    0.00   0.00   0.00
md0               0.00     0.00 125071.00    0.00 500284.00     0.00     8.00     0.00    0.00    0.00    0.00   0.00   0.00

avg-cpu:  %user   %nice %system %iowait  %steal   %idle
           5.78    0.00   29.40    0.75    0.00   64.07

Device:         rrqm/s   wrqm/s     r/s     w/s    rkB/s    wkB/s avgrq-sz avgqu-sz   await r_await w_await  svctm  %util
sda               0.00     0.00 20105.00    0.00 80420.00     0.00     8.00     4.27    0.21    0.21    0.00   0.02  49.70
sdb               0.00     0.00 20460.00    0.00 81840.00     0.00     8.00     4.15    0.20    0.20    0.00   0.02  49.30
sdc               0.00     0.00 20575.00    0.00 82300.00     0.00     8.00     4.83    0.23    0.23    0.00   0.03  56.60
sdd               0.00     0.00 20427.00    0.00 81708.00     0.00     8.00     4.71    0.23    0.23    0.00   0.03  57.80
sde               0.00     0.00 20376.00    0.00 81504.00     0.00     8.00     4.85    0.24    0.24    0.00   0.03  59.10
sdf               0.00     0.00 20334.00    0.00 81336.00     0.00     8.00     4.74    0.23    0.23    0.00   0.03  58.60
sdg               0.00     0.00    0.00    0.00     0.00     0.00     0.00     0.00    0.00    0.00    0.00   0.00   0.00
sdh               0.00     0.00    0.00    0.00     0.00     0.00     0.00     0.00    0.00    0.00    0.00   0.00   0.00
md0               0.00     0.00 122341.00    0.00 489364.00     0.00     8.00     0.00    0.00    0.00    0.00   0.00   0.00

avg-cpu:  %user   %nice %system %iowait  %steal   %idle
           5.22    0.00   30.60    0.75    0.00   63.43

Device:         rrqm/s   wrqm/s     r/s     w/s    rkB/s    wkB/s avgrq-sz avgqu-sz   await r_await w_await  svctm  %util
sda               0.00     0.00 19984.00    0.00 79940.00     0.00     8.00     4.32    0.22    0.22    0.00   0.03  52.90
sdb               0.00     0.00 19949.00    0.00 79796.00     0.00     8.00     4.19    0.21    0.21    0.00   0.03  51.40
sdc               0.00     0.00 20105.00    0.00 80420.00     0.00     8.00     4.75    0.24    0.24    0.00   0.03  60.40
sdd               0.00     0.00 19966.00    0.00 79864.00     0.00     8.00     4.70    0.24    0.24    0.00   0.03  57.10
sde               0.00     0.00 20023.00    0.00 80092.00     0.00     8.00     4.89    0.24    0.24    0.00   0.03  59.90
sdf               0.00     0.00 19827.00    0.00 79308.00     0.00     8.00     4.58    0.23    0.23    0.00   0.03  58.80
sdg               0.00     0.00    0.00    0.00     0.00     0.00     0.00     0.00    0.00    0.00    0.00   0.00   0.00
sdh               0.00     0.00    0.00    0.00     0.00     0.00     0.00     0.00    0.00    0.00    0.00   0.00   0.00
md0               0.00     0.00 119829.00    0.00 479316.00     0.00     8.00     0.00    0.00    0.00    0.00   0.00   0.00

avg-cpu:  %user   %nice %system %iowait  %steal   %idle
           5.20    0.25   31.68    2.48    0.00   60.40

Device:         rrqm/s   wrqm/s     r/s     w/s    rkB/s    wkB/s avgrq-sz avgqu-sz   await r_await w_await  svctm  %util
sda               0.00     0.00 19943.00    0.00 79768.00     0.00     8.00     4.47    0.22    0.22    0.00   0.03  55.20
sdb               0.00     0.00 19433.00    0.00 77732.00     0.00     8.00     4.33    0.22    0.22    0.00   0.03  54.40
sdc               0.00     0.00 19489.00    0.00 77956.00     0.00     8.00     4.75    0.24    0.24    0.00   0.03  60.30
sdd               0.00     0.00 20033.00    0.00 80132.00     0.00     8.00     4.81    0.24    0.24    0.00   0.03  61.60
sde               0.00     0.00 19793.00    0.00 79172.00     0.00     8.00     4.85    0.25    0.25    0.00   0.03  61.50
sdf               0.00     0.00 19196.00    0.00 76784.00     0.00     8.00     4.78    0.25    0.25    0.00   0.03  59.80
sdg               0.00     0.00 1324.00    0.00  5296.00     0.00     8.00     0.16    0.12    0.12    0.00   0.12  15.80
sdh               0.00     0.00    0.00    0.00     0.00     0.00     0.00     0.00    0.00    0.00    0.00   0.00   0.00
md0               0.00     0.00 117906.00    0.00 471624.00     0.00     8.00     0.00    0.00    0.00    0.00   0.00   0.00

avg-cpu:  %user   %nice %system %iowait  %steal   %idle
           6.45    0.00   29.28    0.99    0.00   63.28

Device:         rrqm/s   wrqm/s     r/s     w/s    rkB/s    wkB/s avgrq-sz avgqu-sz   await r_await w_await  svctm  %util
sda               0.00     0.00 19329.00    0.00 77316.00     0.00     8.00     3.69    0.19    0.19    0.00   0.03  48.80
sdb               0.00     0.00 19245.00    0.00 76980.00     0.00     8.00     3.56    0.18    0.18    0.00   0.02  48.10
sdc               0.00     0.00 19110.00    0.00 76440.00     0.00     8.00     4.25    0.22    0.22    0.00   0.03  54.60
sdd               0.00     0.00 19184.00    0.00 76736.00     0.00     8.00     4.06    0.21    0.21    0.00   0.03  54.90
sde               0.00     0.00 19182.00    0.00 76728.00     0.00     8.00     4.03    0.21    0.21    0.00   0.03  54.00
sdf               0.00     0.00 19248.00    0.00 76992.00     0.00     8.00     4.13    0.21    0.21    0.00   0.03  57.50
sdg               0.00     0.00    0.00    0.00     0.00     0.00     0.00     0.00    0.00    0.00    0.00   0.00   0.00
sdh               0.00     0.00    0.00    0.00     0.00     0.00     0.00     0.00    0.00    0.00    0.00   0.00   0.00
md0               0.00     0.00 115269.00    0.00 461076.00     0.00     8.00     0.00    0.00    0.00    0.00   0.00   0.00

avg-cpu:  %user   %nice %system %iowait  %steal   %idle
           5.19    0.00   31.11    0.74    0.00   62.96

Device:         rrqm/s   wrqm/s     r/s     w/s    rkB/s    wkB/s avgrq-sz avgqu-sz   await r_await w_await  svctm  %util
sda               0.00     0.00 18734.00    0.00 74936.00     0.00     8.00     3.85    0.21    0.21    0.00   0.03  55.50
sdb               0.00     0.00 19035.00    0.00 76140.00     0.00     8.00     3.94    0.21    0.21    0.00   0.03  53.30
sdc               0.00     0.00 18711.00    0.00 74844.00     0.00     8.00     4.24    0.23    0.23    0.00   0.03  59.20
sdd               0.00     0.00 18582.00    0.00 74328.00     0.00     8.00     4.26    0.23    0.23    0.00   0.03  60.80
sde               0.00     0.00 18850.00    0.00 75400.00     0.00     8.00     4.45    0.24    0.24    0.00   0.03  61.30
sdf               0.00     0.00 18899.00    0.00 75596.00     0.00     8.00     4.38    0.23    0.23    0.00   0.03  60.20
sdg               0.00     0.00    0.00    0.00     0.00     0.00     0.00     0.00    0.00    0.00    0.00   0.00   0.00
sdh               0.00     0.00    0.00    0.00     0.00     0.00     0.00     0.00    0.00    0.00    0.00   0.00   0.00
md0               0.00     0.00 112791.00    0.00 451164.00     0.00     8.00     0.00    0.00    0.00    0.00   0.00   0.00

avg-cpu:  %user   %nice %system %iowait  %steal   %idle
           5.57    0.00   28.86    0.76    0.00   64.81

Device:         rrqm/s   wrqm/s     r/s     w/s    rkB/s    wkB/s avgrq-sz avgqu-sz   await r_await w_await  svctm  %util
sda               0.00     0.00 18546.00    0.00 74184.00     0.00     8.00     3.45    0.19    0.19    0.00   0.03  51.40
sdb               0.00     0.00 18224.00    0.00 72900.00     0.00     8.00     3.66    0.20    0.20    0.00   0.03  50.50
sdc               0.00     0.00 18241.00    0.00 72964.00     0.00     8.00     3.90    0.21    0.21    0.00   0.03  58.20
sdd               0.00     0.00 18403.00    0.00 73612.00     0.00     8.00     3.90    0.21    0.21    0.00   0.03  56.80
sde               0.00     0.00 18260.00    0.00 73040.00     0.00     8.00     3.98    0.22    0.22    0.00   0.03  57.40
sdf               0.00     0.00 18377.00    0.00 73508.00     0.00     8.00     3.98    0.22    0.22    0.00   0.03  56.60
sdg               0.00     0.00    0.00    0.00     0.00     0.00     0.00     0.00    0.00    0.00    0.00   0.00   0.00
sdh               0.00     0.00    0.00    0.00     0.00     0.00     0.00     0.00    0.00    0.00    0.00   0.00   0.00
md0               0.00     0.00 110060.00    0.00 440244.00     0.00     8.00     0.00    0.00    0.00    0.00   0.00   0.00

avg-cpu:  %user   %nice %system %iowait  %steal   %idle
           5.37    0.00   28.64    0.77    0.00   65.22

Device:         rrqm/s   wrqm/s     r/s     w/s    rkB/s    wkB/s avgrq-sz avgqu-sz   await r_await w_await  svctm  %util
sda               0.00     0.00 17799.00    0.00 71196.00     0.00     8.00     3.36    0.19    0.19    0.00   0.03  49.50
sdb               0.00     0.00 17878.00    0.00 71512.00     0.00     8.00     3.53    0.20    0.20    0.00   0.03  49.70
sdc               0.00     0.00 17790.00    0.00 71160.00     0.00     8.00     3.62    0.20    0.20    0.00   0.03  55.90
sdd               0.00     0.00 17596.00    0.00 70384.00     0.00     8.00     3.67    0.21    0.21    0.00   0.03  56.10
sde               0.00     0.00 17913.00    0.00 71652.00     0.00     8.00     3.71    0.21    0.21    0.00   0.03  55.80
sdf               0.00     0.00 18040.00    0.00 72160.00     0.00     8.00     3.94    0.22    0.22    0.00   0.03  56.20
sdg               0.00     0.00    0.00    0.00     0.00     0.00     0.00     0.00    0.00    0.00    0.00   0.00   0.00
sdh               0.00     0.00    0.00    0.00     0.00     0.00     0.00     0.00    0.00    0.00    0.00   0.00   0.00
md0               0.00     0.00 107050.00    0.00 428200.00     0.00     8.00     0.00    0.00    0.00    0.00   0.00   0.00

avg-cpu:  %user   %nice %system %iowait  %steal   %idle
           5.29    0.00   29.72    0.76    0.00   64.23

Device:         rrqm/s   wrqm/s     r/s     w/s    rkB/s    wkB/s avgrq-sz avgqu-sz   await r_await w_await  svctm  %util
sda               0.00     0.00 17159.00    0.00 68636.00     0.00     8.00     3.66    0.21    0.21    0.00   0.03  53.90
sdb               0.00     0.00 17416.00    0.00 69664.00     0.00     8.00     3.67    0.21    0.21    0.00   0.03  53.80
sdc               0.00     0.00 17504.00    0.00 70016.00     0.00     8.00     4.26    0.24    0.24    0.00   0.03  59.90
sdd               0.00     0.00 17605.00    0.00 70420.00     0.00     8.00     3.98    0.23    0.23    0.00   0.03  60.20
sde               0.00     0.00 17568.00    0.00 70272.00     0.00     8.00     4.01    0.23    0.23    0.00   0.03  59.60
sdf               0.00     0.00 17540.00    0.00 70160.00     0.00     8.00     4.05    0.23    0.23    0.00   0.03  59.50
sdg               0.00     0.00    0.00    0.00     0.00     0.00     0.00     0.00    0.00    0.00    0.00   0.00   0.00
sdh               0.00     0.00    0.00    0.00     0.00     0.00     0.00     0.00    0.00    0.00    0.00   0.00   0.00
md0               0.00     0.00 104740.00    0.00 418960.00     0.00     8.00     0.00    0.00    0.00    0.00   0.00   0.00

avg-cpu:  %user   %nice %system %iowait  %steal   %idle
           5.47    0.00   30.10    1.00    0.00   63.43

Device:         rrqm/s   wrqm/s     r/s     w/s    rkB/s    wkB/s avgrq-sz avgqu-sz   await r_await w_await  svctm  %util
sda               0.00     0.00 17394.00    0.00 69576.00     0.00     8.00     3.62    0.21    0.21    0.00   0.03  52.50
sdb               0.00     0.00 17684.00    0.00 70764.00     0.00     8.00     3.68    0.21    0.21    0.00   0.03  52.30
sdc               0.00     0.00 17345.00    0.00 69380.00     0.00     8.00     3.96    0.23    0.23    0.00   0.03  59.00
sdd               0.00     0.00 17605.00    0.00 70420.00     0.00     8.00     4.03    0.23    0.23    0.00   0.03  58.60
sde               0.00     0.00 17465.00    0.00 69860.00     0.00     8.00     4.08    0.23    0.23    0.00   0.03  58.80
sdf               0.00     0.00 17664.00    0.00 70660.00     0.00     8.00     3.88    0.22    0.22    0.00   0.03  58.40
sdg               0.00     0.00    0.00    0.00     0.00     0.00     0.00     0.00    0.00    0.00    0.00   0.00   0.00
sdh               0.00     0.00    0.00    0.00     0.00     0.00     0.00     0.00    0.00    0.00    0.00   0.00   0.00
md0               0.00     0.00 105193.00    0.00 420800.00     0.00     8.00     0.00    0.00    0.00    0.00   0.00   0.00

avg-cpu:  %user   %nice %system %iowait  %steal   %idle
           5.13    0.00   28.21    0.77    0.00   65.90

Device:         rrqm/s   wrqm/s     r/s     w/s    rkB/s    wkB/s avgrq-sz avgqu-sz   await r_await w_await  svctm  %util
sda               0.00     0.00 17233.00    0.00 68932.00     0.00     8.00     3.43    0.20    0.20    0.00   0.03  51.00
sdb               0.00     0.00 17393.00    0.00 69572.00     0.00     8.00     3.47    0.20    0.20    0.00   0.03  51.00
sdc               0.00     0.00 17563.00    0.00 70252.00     0.00     8.00     3.90    0.22    0.22    0.00   0.03  57.60
sdd               0.00     0.00 17418.00    0.00 69672.00     0.00     8.00     3.83    0.22    0.22    0.00   0.03  56.90
sde               0.00     0.00 17212.00    0.00 68848.00     0.00     8.00     3.83    0.22    0.22    0.00   0.03  56.70
sdf               1.00     0.00 17334.00    0.00 69336.00     0.00     8.00     3.79    0.22    0.22    0.00   0.03  55.90
sdg               0.00     0.00    0.00    0.00     0.00     0.00     0.00     0.00    0.00    0.00    0.00   0.00   0.00
sdh               0.00     0.00    0.00    0.00     0.00     0.00     0.00     0.00    0.00    0.00    0.00   0.00   0.00
md0               0.00     0.00 104167.00    0.00 416668.00     0.00     8.00     0.00    0.00    0.00    0.00   0.00   0.00

avg-cpu:  %user   %nice %system %iowait  %steal   %idle
           5.29    0.00   29.47    0.76    0.00   64.48

Device:         rrqm/s   wrqm/s     r/s     w/s    rkB/s    wkB/s avgrq-sz avgqu-sz   await r_await w_await  svctm  %util
sda               0.00     0.00 17636.00    0.00 70556.00     0.00     8.00     3.56    0.20    0.20    0.00   0.03  52.70
sdb               0.00     0.00 17173.00    0.00 68692.00     0.00     8.00     3.48    0.20    0.20    0.00   0.03  51.50
sdc               0.00     0.00 17492.00    0.00 69972.00     0.00     8.00     4.01    0.23    0.23    0.00   0.03  57.90
sdd               0.00     0.00 17520.00    0.00 70080.00     0.00     8.00     4.07    0.23    0.23    0.00   0.03  57.50
sde               0.00     0.00 17172.00    0.00 68688.00     0.00     8.00     3.90    0.23    0.23    0.00   0.03  57.90
sdf               0.00     0.00 17444.00    0.00 69776.00     0.00     8.00     3.92    0.22    0.22    0.00   0.03  58.70
sdg               0.00     0.00    0.00    0.00     0.00     0.00     0.00     0.00    0.00    0.00    0.00   0.00   0.00
sdh               0.00     0.00    0.00    0.00     0.00     0.00     0.00     0.00    0.00    0.00    0.00   0.00   0.00
md0               0.00     0.00 104419.00    0.00 417688.00     0.00     8.00     0.00    0.00    0.00    0.00   0.00   0.00

avg-cpu:  %user   %nice %system %iowait  %steal   %idle
           4.53    0.00   29.72    1.01    0.00   64.74

Device:         rrqm/s   wrqm/s     r/s     w/s    rkB/s    wkB/s avgrq-sz avgqu-sz   await r_await w_await  svctm  %util
sda               0.00     0.00 17731.00    0.00 70924.00     0.00     8.00     3.85    0.22    0.22    0.00   0.03  55.10
sdb               0.00     0.00 17961.00    0.00 71844.00     0.00     8.00     3.81    0.21    0.21    0.00   0.03  54.50
sdc               0.00     0.00 17222.00    0.00 68888.00     0.00     8.00     4.03    0.23    0.23    0.00   0.04  60.40
sdd               0.00     0.00 17638.00    0.00 70552.00     0.00     8.00     4.19    0.24    0.24    0.00   0.03  60.30
sde               0.00     0.00 17195.00    0.00 68796.00     0.00     8.00     4.14    0.24    0.24    0.00   0.03  60.00
sdf               0.00     0.00 17462.00    0.00 69848.00     0.00     8.00     4.21    0.24    0.24    0.00   0.03  61.00
sdg               0.00     0.00    0.00    0.00     0.00     0.00     0.00     0.00    0.00    0.00    0.00   0.00   0.00
sdh               0.00     0.00    0.00    0.00     0.00     0.00     0.00     0.00    0.00    0.00    0.00   0.00   0.00
md0               0.00     0.00 105186.00    0.00 420764.00     0.00     8.00     0.00    0.00    0.00    0.00   0.00   0.00

avg-cpu:  %user   %nice %system %iowait  %steal   %idle
           5.63    0.26   28.39    0.77    0.00   64.96

Device:         rrqm/s   wrqm/s     r/s     w/s    rkB/s    wkB/s avgrq-sz avgqu-sz   await r_await w_await  svctm  %util
sda               0.00     0.00 17790.00    0.00 71160.00     0.00     8.00     3.49    0.20    0.20    0.00   0.03  50.80
sdb               0.00     0.00 17836.00    0.00 71344.00     0.00     8.00     3.57    0.20    0.20    0.00   0.03  50.50
sdc               0.00     0.00 17459.00    0.00 69836.00     0.00     8.00     3.99    0.23    0.23    0.00   0.03  56.90
sdd               0.00     0.00 17568.00    0.00 70272.00     0.00     8.00     3.81    0.22    0.22    0.00   0.03  56.60
sde               0.00     0.00 17547.00    0.00 70188.00     0.00     8.00     3.88    0.22    0.22    0.00   0.03  58.10
sdf               0.00     0.00 17475.00    0.00 69900.00     0.00     8.00     3.92    0.22    0.22    0.00   0.03  57.70
sdg               0.00     0.00    4.00    0.00    16.00     0.00     8.00     0.00    0.00    0.00    0.00   0.00   0.00
sdh               0.00     0.00    0.00    0.00     0.00     0.00     0.00     0.00    0.00    0.00    0.00   0.00   0.00
md0               0.00     0.00 105667.00    0.00 422668.00     0.00     8.00     0.00    0.00    0.00    0.00   0.00   0.00

