Linux 4.17.2 (bench) 	08/03/2018 	_x86_64_	(4 CPU)

avg-cpu:  %user   %nice %system %iowait  %steal   %idle
          10.30    0.02    3.96    2.40    0.00   83.32

Device:         rrqm/s   wrqm/s     r/s     w/s    rkB/s    wkB/s avgrq-sz avgqu-sz   await r_await w_await  svctm  %util
sda              38.65     4.29 1586.98  103.92 20518.23  3171.17    28.02     1.02    0.60    0.26    5.91   0.06  10.43
sdb              38.56     4.25 1586.84  104.06 20507.57  3167.79    28.00     1.02    0.60    0.26    5.85   0.06  10.31
sdc              76.75     4.31 1546.58  103.60 20499.80  3170.28    28.69     1.44    0.87    0.45    7.12   0.08  13.72
sdd              70.06     4.28 1552.43  103.67 20484.40  3166.43    28.56     1.45    0.87    0.44    7.32   0.08  13.81
sde              72.14     4.33 1557.59  103.77 20545.38  3170.73    28.55     1.47    0.88    0.45    7.43   0.08  13.83
sdf              69.22     4.30 1559.77  103.72 20526.32  3167.55    28.49     1.51    0.91    0.44    7.90   0.08  13.87
sdg               0.00     3.18   25.75   73.36   321.66   391.96    14.40     0.44    4.44    0.20    5.93   0.08   0.77
sdh               0.00     0.13    0.02    0.24     2.24     5.13    56.82     0.00    1.15    0.65    1.19   0.21   0.01
md0               0.00     0.00 9761.46  486.83 140418.94 21713.70    31.64     0.00    0.00    0.00    0.00   0.00   0.00

avg-cpu:  %user   %nice %system %iowait  %steal   %idle
           0.26    0.00    3.84    3.58    0.00   92.33

Device:         rrqm/s   wrqm/s     r/s     w/s    rkB/s    wkB/s avgrq-sz avgqu-sz   await r_await w_await  svctm  %util
sda               2.00     0.00 2083.00    0.00 51464.00     0.00    49.41     1.67    0.80    0.80    0.00   0.12  24.20
sdb               1.00     0.00 2202.00    0.00 53040.00     0.00    48.17     1.74    0.79    0.79    0.00   0.11  24.00
sdc               3.00     0.00 2178.00    0.00 52796.00     0.00    48.48     3.31    1.52    1.52    0.00   0.15  32.20
sdd               2.00     0.00 2142.00    0.00 49968.00     0.00    46.66     2.95    1.38    1.38    0.00   0.15  32.60
sde               3.00     0.00 2125.00    0.00 53268.00     0.00    50.13     3.12    1.47    1.47    0.00   0.15  32.00
sdf               6.00     0.00 2117.00    0.00 51692.00     0.00    48.84     2.98    1.41    1.41    0.00   0.15  32.20
sdg               0.00    64.00    3.00 2556.00   100.00 12616.00     9.94    15.58    6.09    0.00    6.10   0.04  11.20
sdh               0.00     0.00    0.00    0.00     0.00     0.00     0.00     0.00    0.00    0.00    0.00   0.00   0.00
md0               0.00     0.00 12866.00    0.00 330276.00     0.00    51.34     0.00    0.00    0.00    0.00   0.00   0.00

avg-cpu:  %user   %nice %system %iowait  %steal   %idle
           0.26    0.00    2.05    1.28    0.00   96.41

Device:         rrqm/s   wrqm/s     r/s     w/s    rkB/s    wkB/s avgrq-sz avgqu-sz   await r_await w_await  svctm  %util
sda               9.00     0.00 1477.00    0.00 27248.00     0.00    36.90     0.71    0.48    0.48    0.00   0.13  19.50
sdb               6.00     0.00 1503.00    0.00 27812.00     0.00    37.01     0.64    0.42    0.42    0.00   0.12  18.60
sdc               9.00     0.00 1430.00    0.00 26648.00     0.00    37.27     1.02    0.72    0.72    0.00   0.15  22.10
sdd               7.00     0.00 1446.00    0.00 26756.00     0.00    37.01     1.00    0.69    0.69    0.00   0.16  22.60
sde               5.00     0.00 1444.00    0.00 27288.00     0.00    37.80     1.01    0.70    0.70    0.00   0.14  20.90
sdf               9.00     0.00 1463.00    0.00 27432.00     0.00    37.50     1.22    0.84    0.84    0.00   0.15  22.20
sdg               0.00     0.00    0.00    0.00     0.00     0.00     0.00     0.00    0.00    0.00    0.00   0.00   0.00
sdh               0.00     0.00    0.00    0.00     0.00     0.00     0.00     0.00    0.00    0.00    0.00   0.00   0.00
md0               0.00     0.00 8808.00    0.00 183856.00     0.00    41.75     0.00    0.00    0.00    0.00   0.00   0.00

avg-cpu:  %user   %nice %system %iowait  %steal   %idle
           0.26    0.00    1.79    1.28    0.00   96.68

Device:         rrqm/s   wrqm/s     r/s     w/s    rkB/s    wkB/s avgrq-sz avgqu-sz   await r_await w_await  svctm  %util
sda              12.00     0.00 1016.00    0.00 15020.00     0.00    29.57     0.17    0.17    0.17    0.00   0.16  15.80
sdb              11.00     0.00 1066.00    0.00 15052.00     0.00    28.24     0.15    0.15    0.15    0.00   0.14  14.70
sdc              12.00     0.00 1054.00    0.00 15208.00     0.00    28.86     0.19    0.18    0.18    0.00   0.16  16.80
sdd              11.00     0.00 1060.00    0.00 14028.00     0.00    26.47     0.18    0.17    0.17    0.00   0.15  15.90
sde              10.00     0.00 1052.00    0.00 14736.00     0.00    28.02     0.18    0.17    0.17    0.00   0.16  16.40
sdf              14.00     0.00 1043.00    0.00 16592.00     0.00    31.82     0.20    0.19    0.19    0.00   0.17  18.00
sdg               0.00     0.00    0.00    0.00     0.00     0.00     0.00     0.00    0.00    0.00    0.00   0.00   0.00
sdh               0.00     0.00    0.00    0.00     0.00     0.00     0.00     0.00    0.00    0.00    0.00   0.00   0.00
md0               0.00     0.00 6361.00    0.00 116612.00     0.00    36.66     0.00    0.00    0.00    0.00   0.00   0.00

avg-cpu:  %user   %nice %system %iowait  %steal   %idle
           0.25    0.00    2.28    1.27    0.00   96.19

Device:         rrqm/s   wrqm/s     r/s     w/s    rkB/s    wkB/s avgrq-sz avgqu-sz   await r_await w_await  svctm  %util
sda              18.00     0.00 1052.00    0.00 19212.00     0.00    36.52     0.20    0.19    0.19    0.00   0.18  18.80
sdb              15.00     0.00 1041.00    0.00 18748.00     0.00    36.02     0.16    0.15    0.15    0.00   0.14  14.80
sdc              18.00     0.00 1028.00    0.00 16608.00     0.00    32.31     0.17    0.16    0.16    0.00   0.15  15.70
sdd              19.00     0.00 1004.00    0.00 18492.00     0.00    36.84     0.19    0.19    0.19    0.00   0.18  18.20
sde              20.00     0.00 1062.00    0.00 18956.00     0.00    35.70     0.19    0.18    0.18    0.00   0.17  18.10
sdf              21.00     0.00 1054.00    0.00 19236.00     0.00    36.50     0.21    0.20    0.20    0.00   0.17  18.10
sdg               0.00     0.00    0.00    0.00     0.00     0.00     0.00     0.00    0.00    0.00    0.00   0.00   0.00
sdh               0.00     0.00    0.00    0.00     0.00     0.00     0.00     0.00    0.00    0.00    0.00   0.00   0.00
md0               0.00     0.00 6352.00    0.00 138588.00     0.00    43.64     0.00    0.00    0.00    0.00   0.00   0.00

avg-cpu:  %user   %nice %system %iowait  %steal   %idle
           0.25    0.00    2.04    1.27    0.00   96.44

Device:         rrqm/s   wrqm/s     r/s     w/s    rkB/s    wkB/s avgrq-sz avgqu-sz   await r_await w_await  svctm  %util
sda              20.00     0.00 1053.00    0.00 19568.00     0.00    37.17     0.18    0.17    0.17    0.00   0.16  17.00
sdb              16.00     0.00 1041.00    0.00 16960.00     0.00    32.58     0.16    0.15    0.15    0.00   0.14  14.90
sdc              15.00     0.00 1045.00    0.00 17092.00     0.00    32.71     0.18    0.18    0.18    0.00   0.16  16.90
sdd              16.00     0.00 1071.00    0.00 18240.00     0.00    34.06     0.20    0.19    0.19    0.00   0.17  18.10
sde              17.00     0.00  985.00    0.00 18300.00     0.00    37.16     0.19    0.19    0.19    0.00   0.17  17.20
sdf              20.00     0.00  941.00    0.00 20436.00     0.00    43.43     0.20    0.21    0.21    0.00   0.19  18.10
sdg               0.00     0.00    0.00    0.00     0.00     0.00     0.00     0.00    0.00    0.00    0.00   0.00   0.00
sdh               0.00     0.00    0.00    0.00     0.00     0.00     0.00     0.00    0.00    0.00    0.00   0.00   0.00
md0               0.00     0.00 6239.00    0.00 143352.00     0.00    45.95     0.00    0.00    0.00    0.00   0.00   0.00

avg-cpu:  %user   %nice %system %iowait  %steal   %idle
           0.25    0.00    2.28   17.26    0.00   80.20

Device:         rrqm/s   wrqm/s     r/s     w/s    rkB/s    wkB/s avgrq-sz avgqu-sz   await r_await w_await  svctm  %util
sda              22.00     0.00 1057.00    0.00 19996.00     0.00    37.84     0.19    0.18    0.18    0.00   0.16  17.40
sdb              20.00     0.00 1071.00    0.00 16968.00     0.00    31.69     0.16    0.15    0.15    0.00   0.14  14.70
sdc              16.00     0.00 1072.00    0.00 17876.00     0.00    33.35     0.23    0.21    0.21    0.00   0.18  18.80
sdd              17.00     0.00 1013.00    0.00 20560.00     0.00    40.59     0.21    0.21    0.21    0.00   0.18  18.20
sde              25.00     0.00  966.00    0.00 20788.00     0.00    43.04     0.21    0.22    0.22    0.00   0.20  19.20
sdf              28.00     0.00 1002.00    0.00 22184.00     0.00    44.28     0.22    0.22    0.22    0.00   0.20  19.70
sdg               0.00     1.00   12.00    5.00    48.00    24.00     8.47     0.00    0.06    0.08    0.00   0.06   0.10
sdh               0.00     0.00    0.00    0.00     0.00     0.00     0.00     0.00    0.00    0.00    0.00   0.00   0.00
md0               0.00     0.00 6311.00    0.00 171396.00     0.00    54.32     0.00    0.00    0.00    0.00   0.00   0.00

avg-cpu:  %user   %nice %system %iowait  %steal   %idle
           0.25    0.25    2.78   18.99    0.00   77.72

Device:         rrqm/s   wrqm/s     r/s     w/s    rkB/s    wkB/s avgrq-sz avgqu-sz   await r_await w_await  svctm  %util
sda              12.00     0.00 1002.00    0.00 17368.00     0.00    34.67     0.18    0.18    0.18    0.00   0.17  16.90
sdb              13.00     0.00  984.00    0.00 16000.00     0.00    32.52     0.14    0.14    0.14    0.00   0.14  13.70
sdc              15.00     0.00 1042.00    0.00 15880.00     0.00    30.48     0.19    0.18    0.18    0.00   0.17  18.20
sdd              12.00     0.00  993.00    0.00 17252.00     0.00    34.75     0.18    0.18    0.18    0.00   0.17  16.80
sde              11.00     0.00 1033.00    0.00 16088.00     0.00    31.15     0.17    0.17    0.17    0.00   0.16  16.60
sdf              13.00     0.00 1021.00    0.00 15340.00     0.00    30.05     0.19    0.18    0.18    0.00   0.18  18.30
sdg               0.00     0.00   19.00    0.00   148.00     0.00    15.58     0.00    0.11    0.11    0.00   0.11   0.20
sdh               0.00     0.00    0.00    0.00     0.00     0.00     0.00     0.00    0.00    0.00    0.00   0.00   0.00
md0               0.00     0.00 6149.00    0.00 120032.00     0.00    39.04     0.00    0.00    0.00    0.00   0.00   0.00

avg-cpu:  %user   %nice %system %iowait  %steal   %idle
           0.25    0.00    2.04    1.78    0.00   95.93

Device:         rrqm/s   wrqm/s     r/s     w/s    rkB/s    wkB/s avgrq-sz avgqu-sz   await r_await w_await  svctm  %util
sda              27.00     0.00  972.00    0.00 21944.00     0.00    45.15     0.23    0.24    0.24    0.00   0.20  19.10
sdb              22.00     0.00 1071.00    0.00 22684.00     0.00    42.36     0.20    0.19    0.19    0.00   0.16  17.40
sdc              26.00     0.00 1044.00    0.00 23020.00     0.00    44.10     0.24    0.23    0.23    0.00   0.19  20.30
sdd              26.00     0.00 1005.00    0.00 21972.00     0.00    43.73     0.24    0.24    0.24    0.00   0.20  19.80
sde              26.00     0.00 1028.00    0.00 22296.00     0.00    43.38     0.25    0.24    0.24    0.00   0.19  20.00
sdf              33.00     0.00  958.00    0.00 23472.00     0.00    49.00     0.23    0.24    0.24    0.00   0.20  18.80
sdg               0.00     0.00    0.00    0.00     0.00     0.00     0.00     0.00    0.00    0.00    0.00   0.00   0.00
sdh               0.00     0.00    0.00    0.00     0.00     0.00     0.00     0.00    0.00    0.00    0.00   0.00   0.00
md0               0.00     0.00 6238.00    0.00 198880.00     0.00    63.76     0.00    0.00    0.00    0.00   0.00   0.00

avg-cpu:  %user   %nice %system %iowait  %steal   %idle
           0.26    0.00    1.79    1.79    0.00   96.17

Device:         rrqm/s   wrqm/s     r/s     w/s    rkB/s    wkB/s avgrq-sz avgqu-sz   await r_await w_await  svctm  %util
sda              17.00     0.00 1052.00    0.00 17528.00     0.00    33.32     0.18    0.17    0.17    0.00   0.16  16.80
sdb              15.00     0.00 1075.00    0.00 16756.00     0.00    31.17     0.16    0.15    0.15    0.00   0.14  15.10
sdc              14.00     0.00 1082.00    0.00 17216.00     0.00    31.82     0.20    0.19    0.19    0.00   0.17  18.30
sdd              18.00     0.00 1006.00    0.00 18968.00     0.00    37.71     0.20    0.20    0.20    0.00   0.18  18.60
sde              21.00     0.00  959.00    0.00 19904.00     0.00    41.51     0.20    0.21    0.21    0.00   0.18  17.70
sdf              20.00     0.00 1019.00    0.00 18708.00     0.00    36.72     0.20    0.20    0.20    0.00   0.18  18.50
sdg               0.00     0.00    0.00    0.00     0.00     0.00     0.00     0.00    0.00    0.00    0.00   0.00   0.00
sdh               0.00     0.00    0.00    0.00     0.00     0.00     0.00     0.00    0.00    0.00    0.00   0.00   0.00
md0               0.00     0.00 6298.00    0.00 144612.00     0.00    45.92     0.00    0.00    0.00    0.00   0.00   0.00

avg-cpu:  %user   %nice %system %iowait  %steal   %idle
           0.26    0.00    2.04    1.28    0.00   96.43

Device:         rrqm/s   wrqm/s     r/s     w/s    rkB/s    wkB/s avgrq-sz avgqu-sz   await r_await w_await  svctm  %util
sda              19.00     0.00 1058.00    0.00 18408.00     0.00    34.80     0.18    0.17    0.17    0.00   0.16  16.70
sdb              18.00     0.00 1087.00    0.00 17588.00     0.00    32.36     0.16    0.14    0.14    0.00   0.13  14.10
sdc              19.00     0.00 1098.00    0.00 18552.00     0.00    33.79     0.24    0.22    0.22    0.00   0.18  19.40
sdd              19.00     0.00 1104.00    0.00 19788.00     0.00    35.85     0.23    0.21    0.21    0.00   0.17  18.30
sde              18.00     0.00 1140.00    0.00 18860.00     0.00    33.09     0.23    0.20    0.20    0.00   0.16  18.80
sdf              18.00     0.00 1118.00    0.00 17032.00     0.00    30.47     0.22    0.20    0.20    0.00   0.15  16.60
sdg               0.00     0.00    0.00    0.00     0.00     0.00     0.00     0.00    0.00    0.00    0.00   0.00   0.00
sdh               0.00     0.00    0.00    0.00     0.00     0.00     0.00     0.00    0.00    0.00    0.00   0.00   0.00
md0               0.00     0.00 6716.00    0.00 141624.00     0.00    42.18     0.00    0.00    0.00    0.00   0.00   0.00

avg-cpu:  %user   %nice %system %iowait  %steal   %idle
           0.25    0.00    3.03    8.84    0.00   87.88

Device:         rrqm/s   wrqm/s     r/s     w/s    rkB/s    wkB/s avgrq-sz avgqu-sz   await r_await w_await  svctm  %util
sda              12.00     0.00 1058.00    0.00 16008.00     0.00    30.26     0.17    0.16    0.16    0.00   0.15  15.40
sdb               9.00     0.00 1165.00    0.00 15408.00     0.00    26.45     0.15    0.13    0.13    0.00   0.12  14.10
sdc              14.00     0.00 1058.00    0.00 17288.00     0.00    32.68     0.19    0.18    0.18    0.00   0.16  17.40
sdd              17.00     0.00 1064.00    0.00 17048.00     0.00    32.05     0.18    0.17    0.17    0.00   0.16  16.70
sde              15.00     0.00 1094.00    0.00 16728.00     0.00    30.58     0.19    0.18    0.18    0.00   0.16  17.80
sdf              11.00     0.00 1053.00    0.00 16028.00     0.00    30.44     0.19    0.18    0.18    0.00   0.16  17.20
sdg               0.00     1.00    1.00   10.00     4.00   200.00    37.09     0.01    0.45    0.00    0.50   0.09   0.10
sdh               0.00     0.00    0.00    0.00     0.00     0.00     0.00     0.00    0.00    0.00    0.00   0.00   0.00
md0               0.00     0.00 6571.00    0.00 128308.00     0.00    39.05     0.00    0.00    0.00    0.00   0.00   0.00

avg-cpu:  %user   %nice %system %iowait  %steal   %idle
           0.25    0.00    2.28   19.75    0.00   77.72

Device:         rrqm/s   wrqm/s     r/s     w/s    rkB/s    wkB/s avgrq-sz avgqu-sz   await r_await w_await  svctm  %util
sda              20.00     0.00 1061.00    0.00 19000.00     0.00    35.82     0.17    0.16    0.16    0.00   0.15  15.40
sdb              21.00     0.00 1051.00    0.00 19936.00     0.00    37.94     0.19    0.18    0.18    0.00   0.16  17.20
sdc              20.00     0.00 1085.00    0.00 19032.00     0.00    35.08     0.22    0.20    0.20    0.00   0.18  19.00
sdd              17.00     0.00 1008.00    0.00 18496.00     0.00    36.70     0.22    0.22    0.22    0.00   0.19  18.80
sde              18.00     0.00 1045.00    0.00 18468.00     0.00    35.35     0.23    0.22    0.22    0.00   0.19  19.40
sdf              20.00     0.00  989.00    0.00 18724.00     0.00    37.86     0.22    0.22    0.22    0.00   0.18  18.00
sdg               0.00     0.00    0.00    0.00     0.00     0.00     0.00     0.00    0.00    0.00    0.00   0.00   0.00
sdh               0.00     0.00    0.00    0.00     0.00     0.00     0.00     0.00    0.00    0.00    0.00   0.00   0.00
md0               0.00     0.00 6358.00    0.00 147628.00     0.00    46.44     0.00    0.00    0.00    0.00   0.00   0.00

avg-cpu:  %user   %nice %system %iowait  %steal   %idle
           0.25    0.00    2.28   12.94    0.00   84.52

Device:         rrqm/s   wrqm/s     r/s     w/s    rkB/s    wkB/s avgrq-sz avgqu-sz   await r_await w_await  svctm  %util
sda              22.00     0.00 1001.00    0.00 22192.00     0.00    44.34     0.16    0.16    0.16    0.00   0.15  15.10
sdb              27.00     0.00 1010.00    0.00 21668.00     0.00    42.91     0.17    0.17    0.17    0.00   0.15  15.40
sdc              26.00     0.00 1048.00    0.00 22812.00     0.00    43.53     0.23    0.22    0.22    0.00   0.19  20.40
sdd              23.00     0.00 1048.00    0.00 23400.00     0.00    44.66     0.24    0.23    0.23    0.00   0.20  20.60
sde              23.00     0.00 1056.00    0.00 21612.00     0.00    40.93     0.22    0.21    0.21    0.00   0.18  18.90
sdf              21.00     0.00 1085.00    0.00 22020.00     0.00    40.59     0.24    0.23    0.23    0.00   0.20  21.20
sdg               0.00     0.00    0.00    0.00     0.00     0.00     0.00     0.00    0.00    0.00    0.00   0.00   0.00
sdh               0.00     0.00    0.00    0.00     0.00     0.00     0.00     0.00    0.00    0.00    0.00   0.00   0.00
md0               0.00     0.00 6386.00    0.00 178572.00     0.00    55.93     0.00    0.00    0.00    0.00   0.00   0.00

avg-cpu:  %user   %nice %system %iowait  %steal   %idle
           0.25    0.00    2.53   19.49    0.00   77.72

Device:         rrqm/s   wrqm/s     r/s     w/s    rkB/s    wkB/s avgrq-sz avgqu-sz   await r_await w_await  svctm  %util
sda              12.00     0.00 1061.00    0.00 16812.00     0.00    31.69     0.14    0.13    0.13    0.00   0.13  13.70
sdb              14.00     0.00 1102.00    0.00 15892.00     0.00    28.84     0.15    0.13    0.13    0.00   0.13  14.40
sdc              16.00     0.00 1033.00    0.00 16828.00     0.00    32.58     0.18    0.17    0.17    0.00   0.17  17.30
sdd              15.00     0.00 1072.00    0.00 16980.00     0.00    31.68     0.18    0.17    0.17    0.00   0.16  17.30
sde              14.00     0.00 1080.00    0.00 18740.00     0.00    34.70     0.19    0.17    0.17    0.00   0.16  17.80
sdf              12.00     0.00 1116.00    0.00 17352.00     0.00    31.10     0.18    0.16    0.16    0.00   0.16  17.60
sdg               0.00     0.00    0.00    0.00     0.00     0.00     0.00     0.00    0.00    0.00    0.00   0.00   0.00
sdh               0.00     0.00    0.00    0.00     0.00     0.00     0.00     0.00    0.00    0.00    0.00   0.00   0.00
md0               0.00     0.00 6555.00    0.00 132320.00     0.00    40.37     0.00    0.00    0.00    0.00   0.00   0.00

avg-cpu:  %user   %nice %system %iowait  %steal   %idle
           0.25    0.00    2.53   16.41    0.00   80.81

Device:         rrqm/s   wrqm/s     r/s     w/s    rkB/s    wkB/s avgrq-sz avgqu-sz   await r_await w_await  svctm  %util
sda               7.00     0.00 1105.00    0.00 14708.00     0.00    26.62     0.14    0.13    0.13    0.00   0.13  13.90
sdb               6.00     0.00 1110.00    0.00 13352.00     0.00    24.06     0.14    0.13    0.13    0.00   0.12  13.70
sdc               6.00     0.00 1192.00    0.00 13336.00     0.00    22.38     0.17    0.14    0.14    0.00   0.14  17.10
sdd               6.00     0.00 1050.00    0.00 13776.00     0.00    26.24     0.16    0.16    0.16    0.00   0.15  16.20
sde              10.00     0.00 1070.00    0.00 15468.00     0.00    28.91     0.18    0.17    0.17    0.00   0.16  17.40
sdf               9.00     0.00 1058.00    0.00 16904.00     0.00    31.95     0.18    0.17    0.17    0.00   0.16  17.20
sdg               0.00     0.00    0.00    0.00     0.00     0.00     0.00     0.00    0.00    0.00    0.00   0.00   0.00
sdh               0.00     0.00    0.00    0.00     0.00     0.00     0.00     0.00    0.00    0.00    0.00   0.00   0.00
md0               0.00     0.00 6622.00    0.00 102804.00     0.00    31.05     0.00    0.00    0.00    0.00   0.00   0.00

avg-cpu:  %user   %nice %system %iowait  %steal   %idle
           0.25    0.00    2.53   19.49    0.00   77.72

Device:         rrqm/s   wrqm/s     r/s     w/s    rkB/s    wkB/s avgrq-sz avgqu-sz   await r_await w_await  svctm  %util
sda              21.00     0.00 1009.00    0.00 21840.00     0.00    43.29     0.18    0.17    0.17    0.00   0.15  15.50
sdb              26.00     0.00 1027.00    0.00 23088.00     0.00    44.96     0.18    0.18    0.18    0.00   0.16  16.00
sdc              20.00     0.00 1049.00    0.00 20120.00     0.00    38.36     0.22    0.21    0.21    0.00   0.17  18.20
sdd              17.00     0.00 1147.00    0.00 18560.00     0.00    32.36     0.21    0.18    0.18    0.00   0.16  17.80
sde              19.00     0.00 1135.00    0.00 19160.00     0.00    33.76     0.23    0.21    0.21    0.00   0.18  20.00
sdf              19.00     0.00 1127.00    0.00 20152.00     0.00    35.76     0.22    0.20    0.20    0.00   0.17  19.30
sdg               0.00     0.00    0.00    0.00     0.00     0.00     0.00     0.00    0.00    0.00    0.00   0.00   0.00
sdh               0.00     0.00    0.00    0.00     0.00     0.00     0.00     0.00    0.00    0.00    0.00   0.00   0.00
md0               0.00     0.00 6615.00    0.00 172892.00     0.00    52.27     0.00    0.00    0.00    0.00   0.00   0.00

avg-cpu:  %user   %nice %system %iowait  %steal   %idle
           0.25    0.25    3.03   11.87    0.00   84.60

Device:         rrqm/s   wrqm/s     r/s     w/s    rkB/s    wkB/s avgrq-sz avgqu-sz   await r_await w_await  svctm  %util
sda              27.00     0.00 1083.00    0.00 23420.00     0.00    43.25     0.19    0.18    0.18    0.00   0.16  17.00
sdb              25.00     0.00 1153.00    0.00 21880.00     0.00    37.95     0.19    0.17    0.17    0.00   0.14  16.50
sdc              30.00     0.00 1030.00    0.00 24268.00     0.00    47.12     0.25    0.24    0.24    0.00   0.20  20.50
sdd              27.00     0.00 1065.00    0.00 23516.00     0.00    44.16     0.25    0.23    0.23    0.00   0.19  20.20
sde              23.00     0.00 1081.00    0.00 22852.00     0.00    42.28     0.24    0.22    0.22    0.00   0.18  19.80
sdf              27.00     0.00 1091.00    0.00 23108.00     0.00    42.36     0.25    0.23    0.23    0.00   0.19  20.60
sdg               0.00     0.00    5.00    0.00    20.00     0.00     8.00     0.00    0.20    0.20    0.00   0.20   0.10
sdh               0.00     0.00    0.00    0.00     0.00     0.00     0.00     0.00    0.00    0.00    0.00   0.00   0.00
md0               0.00     0.00 6663.00    0.00 168864.00     0.00    50.69     0.00    0.00    0.00    0.00   0.00   0.00

avg-cpu:  %user   %nice %system %iowait  %steal   %idle
           0.25    0.00    2.54    0.76    0.00   96.44

Device:         rrqm/s   wrqm/s     r/s     w/s    rkB/s    wkB/s avgrq-sz avgqu-sz   await r_await w_await  svctm  %util
sda              21.00     0.00 1145.00    0.00 20816.00     0.00    36.36     0.16    0.14    0.14    0.00   0.13  15.20
sdb              17.00     0.00 1202.00    0.00 19360.00     0.00    32.21     0.18    0.15    0.15    0.00   0.14  17.20
sdc              16.00     0.00 1152.00    0.00 20268.00     0.00    35.19     0.21    0.18    0.18    0.00   0.16  18.50
sdd              18.00     0.00 1242.00    0.00 21620.00     0.00    34.81     0.23    0.18    0.18    0.00   0.16  19.80
sde              17.00     0.00 1191.00    0.00 20172.00     0.00    33.87     0.21    0.17    0.17    0.00   0.15  18.40
sdf              18.00     0.00 1192.00    0.00 19680.00     0.00    33.02     0.22    0.18    0.18    0.00   0.16  19.40
sdg               0.00     0.00    0.00    0.00     0.00     0.00     0.00     0.00    0.00    0.00    0.00   0.00   0.00
sdh               0.00     0.00    0.00    0.00     0.00     0.00     0.00     0.00    0.00    0.00    0.00   0.00   0.00
md0               0.00     0.00 7231.00    0.00 149344.00     0.00    41.31     0.00    0.00    0.00    0.00   0.00   0.00

avg-cpu:  %user   %nice %system %iowait  %steal   %idle
           0.26    0.00    1.79    1.28    0.00   96.68

Device:         rrqm/s   wrqm/s     r/s     w/s    rkB/s    wkB/s avgrq-sz avgqu-sz   await r_await w_await  svctm  %util
sda              23.00     0.00 1128.00    0.00 22240.00     0.00    39.43     0.18    0.16    0.16    0.00   0.14  16.30
sdb              20.00     0.00 1213.00    0.00 20960.00     0.00    34.56     0.19    0.15    0.15    0.00   0.14  16.60
sdc              20.00     0.00 1167.00    0.00 20712.00     0.00    35.50     0.23    0.20    0.20    0.00   0.18  21.00
sdd              18.00     0.00 1162.00    0.00 20036.00     0.00    34.49     0.23    0.20    0.20    0.00   0.18  20.40
sde              19.00     0.00 1191.00    0.00 20780.00     0.00    34.90     0.21    0.18    0.18    0.00   0.16  19.20
sdf              22.00     0.00 1161.00    0.00 21096.00     0.00    36.34     0.23    0.20    0.20    0.00   0.18  20.50
sdg               0.00     0.00    0.00    0.00     0.00     0.00     0.00     0.00    0.00    0.00    0.00   0.00   0.00
sdh               0.00     0.00    0.00    0.00     0.00     0.00     0.00     0.00    0.00    0.00    0.00   0.00   0.00
md0               0.00     0.00 7143.00    0.00 171356.00     0.00    47.98     0.00    0.00    0.00    0.00   0.00   0.00

avg-cpu:  %user   %nice %system %iowait  %steal   %idle
           0.25    0.00    2.54    1.02    0.00   96.18

Device:         rrqm/s   wrqm/s     r/s     w/s    rkB/s    wkB/s avgrq-sz avgqu-sz   await r_await w_await  svctm  %util
sda              26.00     0.00 1105.00    0.00 24240.00     0.00    43.87     0.18    0.16    0.16    0.00   0.15  16.10
sdb              27.00     0.00 1152.00    0.00 24252.00     0.00    42.10     0.18    0.16    0.16    0.00   0.14  16.60
sdc              29.00     0.00 1143.00    0.00 23660.00     0.00    41.40     0.25    0.22    0.22    0.00   0.18  20.60
sdd              28.00     0.00 1163.00    0.00 24384.00     0.00    41.93     0.27    0.22    0.22    0.00   0.19  21.90
sde              26.00     0.00 1056.00    0.00 25628.00     0.00    48.54     0.25    0.23    0.23    0.00   0.19  19.70
sdf              27.00     0.00 1176.00    0.00 22472.00     0.00    38.22     0.24    0.20    0.20    0.00   0.17  20.30
sdg               0.00     0.00    0.00    0.00     0.00     0.00     0.00     0.00    0.00    0.00    0.00   0.00   0.00
sdh               0.00     0.00    0.00    0.00     0.00     0.00     0.00     0.00    0.00    0.00    0.00   0.00   0.00
md0               0.00     0.00 6960.00    0.00 194460.00     0.00    55.88     0.00    0.00    0.00    0.00   0.00   0.00

