Linux 4.17.2 (bench) 	08/03/2018 	_x86_64_	(4 CPU)

avg-cpu:  %user   %nice %system %iowait  %steal   %idle
          10.28    0.02    4.05    2.55    0.00   83.11

Device:         rrqm/s   wrqm/s     r/s     w/s    rkB/s    wkB/s avgrq-sz avgqu-sz   await r_await w_await  svctm  %util
sda              44.32     4.24 1644.96  102.70 20883.60  3133.93    27.49     1.03    0.59    0.26    5.91   0.06  10.69
sdb              44.19     4.20 1644.88  102.84 20872.99  3130.59    27.47     1.03    0.59    0.26    5.85   0.06  10.57
sdc              82.14     4.26 1604.84  102.39 20865.12  3133.05    28.11     1.45    0.85    0.45    7.12   0.08  14.02
sdd              75.55     4.23 1610.60  102.46 20849.97  3129.24    28.00     1.46    0.85    0.44    7.32   0.08  14.11
sde              77.59     4.28 1615.68  102.55 20909.93  3133.50    27.99     1.48    0.86    0.44    7.43   0.08  14.14
sdf              74.70     4.25 1617.85  102.50 20891.13  3130.36    27.93     1.52    0.88    0.44    7.90   0.08  14.17
sdg               0.00     3.17   26.22   73.30   323.59   391.95    14.38     0.44    4.42    0.20    5.93   0.08   0.78
sdh               0.00     0.13    0.02    0.24     2.21     5.07    56.82     0.00    1.15    0.65    1.19   0.21   0.01
md0               0.00     0.00 10143.84  481.11 143044.02 21458.71    30.97     0.00    0.00    0.00    0.00   0.00   0.00

avg-cpu:  %user   %nice %system %iowait  %steal   %idle
           1.56    0.02   45.06    0.31    0.00   53.05

Device:         rrqm/s   wrqm/s     r/s     w/s    rkB/s    wkB/s avgrq-sz avgqu-sz   await r_await w_await  svctm  %util
sda               0.00     0.00 23937.55    0.00 95750.40     0.00     8.00     4.63    0.19    0.19    0.00   0.03  69.57
sdb               0.00     0.00 23970.75    0.00 95883.00     0.00     8.00     4.64    0.19    0.19    0.00   0.03  69.39
sdc               0.00     0.00 23980.50    0.00 95922.00     0.00     8.00     5.26    0.22    0.22    0.00   0.03  76.82
sdd               0.00     0.00 23992.35    0.00 95969.40     0.00     8.00     5.26    0.22    0.22    0.00   0.03  76.54
sde               0.00     0.00 23976.40    0.00 95905.80     0.00     8.00     5.27    0.22    0.22    0.00   0.03  76.86
sdf               0.00     0.00 24012.00    0.00 96048.00     0.00     8.00     5.30    0.22    0.22    0.00   0.03  76.97
sdg               0.00     8.35   93.50  142.20   380.20   750.60     9.60     0.86    3.64    0.13    5.96   0.08   1.81
sdh               0.00     0.00    0.00    0.00     0.00     0.00     0.00     0.00    0.00    0.00    0.00   0.00   0.00
md0               0.00     0.00 143869.55    0.00 575478.60     0.00     8.00     0.00    0.00    0.00    0.00   0.00   0.00

