Linux 4.17.2 (bench) 	08/03/2018 	_x86_64_	(4 CPU)

avg-cpu:  %user   %nice %system %iowait  %steal   %idle
          10.29    0.02    3.98    2.43    0.00   83.28

Device:         rrqm/s   wrqm/s     r/s     w/s    rkB/s    wkB/s avgrq-sz avgqu-sz   await r_await w_await  svctm  %util
sda              39.11     4.28 1600.69  103.67 20623.37  3163.59    27.91     1.02    0.60    0.26    5.91   0.06  10.49
sdb              39.02     4.24 1600.56  103.81 20612.75  3160.22    27.90     1.02    0.60    0.26    5.85   0.06  10.37
sdc              77.15     4.30 1560.36  103.36 20605.03  3162.71    28.57     1.44    0.87    0.45    7.12   0.08  13.79
sdd              70.48     4.27 1566.19  103.43 20589.63  3158.86    28.45     1.45    0.87    0.44    7.32   0.08  13.89
sde              72.56     4.32 1571.34  103.52 20650.40  3163.15    28.44     1.47    0.88    0.45    7.43   0.08  13.91
sdf              69.65     4.29 1573.51  103.47 20631.38  3159.98    28.37     1.51    0.90    0.44    7.90   0.08  13.94
sdg               0.00     3.18   25.87   73.35   322.19   391.98    14.40     0.44    4.44    0.20    5.93   0.08   0.77
sdh               0.00     0.13    0.02    0.24     2.24     5.12    56.82     0.00    1.15    0.65    1.19   0.21   0.01
md0               0.00     0.00 9846.72  485.67 141196.39 21661.81    31.52     0.00    0.00    0.00    0.00   0.00   0.00

avg-cpu:  %user   %nice %system %iowait  %steal   %idle
           1.02    0.00    7.87   56.09    0.00   35.03

Device:         rrqm/s   wrqm/s     r/s     w/s    rkB/s    wkB/s avgrq-sz avgqu-sz   await r_await w_await  svctm  %util
sda              92.00     0.00 1819.00    0.00 168096.00     0.00   184.82     2.26    1.23    1.23    0.00   0.28  50.30
sdb              80.00     0.00 1951.00    0.00 167828.00     0.00   172.04     2.63    1.34    1.34    0.00   0.25  49.60
sdc              86.00     0.00 1859.00    0.00 167504.00     0.00   180.21     4.69    2.52    2.52    0.00   0.41  76.20
sdd              84.00     0.00 1871.00    0.00 166068.00     0.00   177.52     4.49    2.39    2.39    0.00   0.41  77.00
sde              82.00     0.00 1844.00    0.00 164732.00     0.00   178.67     4.51    2.44    2.44    0.00   0.41  76.30
sdf              78.00     0.00 1852.00    0.00 163508.00     0.00   176.57     4.40    2.37    2.37    0.00   0.41  75.20
sdg               0.00     0.00    3.00    0.00    88.00     0.00    58.67     0.00    0.67    0.67    0.00   0.67   0.20
sdh               0.00     0.00    0.00    0.00     0.00     0.00     0.00     0.00    0.00    0.00    0.00   0.00   0.00
md0               0.00     0.00 11985.00    0.00 1292252.00     0.00   215.64     0.00    0.00    0.00    0.00   0.00   0.00

avg-cpu:  %user   %nice %system %iowait  %steal   %idle
           0.25    0.00    7.81   68.77    0.00   23.17

Device:         rrqm/s   wrqm/s     r/s     w/s    rkB/s    wkB/s avgrq-sz avgqu-sz   await r_await w_await  svctm  %util
sda             119.00     0.00 2207.00    0.00 186644.00     0.00   169.14     1.80    0.82    0.82    0.00   0.27  59.30
sdb             119.00     0.00 2250.00    0.00 189028.00     0.00   168.02     2.12    0.95    0.95    0.00   0.26  58.00
sdc             122.00     0.00 2116.00    0.00 188388.00     0.00   178.06     5.13    2.42    2.42    0.00   0.41  86.00
sdd             145.00     0.00 2007.00    0.00 187640.00     0.00   186.99     4.85    2.43    2.43    0.00   0.43  86.00
sde             135.00     0.00 2203.00    0.00 188388.00     0.00   171.03     4.55    2.07    2.07    0.00   0.40  87.30
sdf             125.00     0.00 2054.00    0.00 184724.00     0.00   179.87     4.00    1.95    1.95    0.00   0.42  85.80
sdg               0.00     0.00    0.00    0.00     0.00     0.00     0.00     0.00    0.00    0.00    0.00   0.00   0.00
sdh               0.00     0.00    0.00    0.00     0.00     0.00     0.00     0.00    0.00    0.00    0.00   0.00   0.00
md0               0.00     0.00 13585.00    0.00 1453844.00     0.00   214.04     0.00    0.00    0.00    0.00   0.00   0.00

avg-cpu:  %user   %nice %system %iowait  %steal   %idle
           0.50    0.00    7.77   68.42    0.00   23.31

Device:         rrqm/s   wrqm/s     r/s     w/s    rkB/s    wkB/s avgrq-sz avgqu-sz   await r_await w_await  svctm  %util
sda             145.00     0.00 2176.00    0.00 189176.00     0.00   173.88     1.76    0.81    0.81    0.00   0.27  59.30
sdb             137.00     0.00 2236.00    0.00 190940.00     0.00   170.79     2.02    0.91    0.91    0.00   0.27  60.40
sdc             121.00     0.00 2192.00    0.00 190696.00     0.00   173.99     5.44    2.49    2.49    0.00   0.39  86.10
sdd             140.00     0.00 2184.00    0.00 186988.00     0.00   171.23     4.42    2.02    2.02    0.00   0.40  87.40
sde             127.00     0.00 2181.00    0.00 189336.00     0.00   173.62     4.49    2.06    2.06    0.00   0.40  87.90
sdf             142.00     0.00 2074.00    0.00 191808.00     0.00   184.96     4.23    2.04    2.04    0.00   0.42  87.90
sdg               0.00     0.00    0.00    0.00     0.00     0.00     0.00     0.00    0.00    0.00    0.00   0.00   0.00
sdh               0.00     0.00    0.00    0.00     0.00     0.00     0.00     0.00    0.00    0.00    0.00   0.00   0.00
md0               0.00     0.00 13933.00    0.00 1503292.00     0.00   215.79     0.00    0.00    0.00    0.00   0.00   0.00

avg-cpu:  %user   %nice %system %iowait  %steal   %idle
           0.51    0.51    7.83   70.20    0.00   20.96

Device:         rrqm/s   wrqm/s     r/s     w/s    rkB/s    wkB/s avgrq-sz avgqu-sz   await r_await w_await  svctm  %util
sda             105.00     0.00 2392.00    0.00 184740.00     0.00   154.46     1.67    0.70    0.70    0.00   0.25  58.70
sdb              96.00     0.00 2326.00    0.00 178740.00     0.00   153.69     1.72    0.74    0.74    0.00   0.25  58.30
sdc             110.00     0.00 2318.00    0.00 184156.00     0.00   158.89     4.89    2.11    2.11    0.00   0.36  83.30
sdd             124.00     0.00 2341.00    0.00 191380.00     0.00   163.50     4.69    2.01    2.01    0.00   0.37  86.90
sde             105.00     0.00 2334.00    0.00 190788.00     0.00   163.49     4.29    1.84    1.84    0.00   0.38  88.70
sdf             124.00     0.00 2212.00    0.00 182364.00     0.00   164.89     3.61    1.63    1.63    0.00   0.39  85.80
sdg               0.00     0.00  806.00    0.00  3316.00     0.00     8.23     0.10    0.12    0.12    0.00   0.11   8.90
sdh               0.00     0.00    0.00    0.00     0.00     0.00     0.00     0.00    0.00    0.00    0.00   0.00   0.00
md0               0.00     0.00 14576.00    0.00 1430804.00     0.00   196.32     0.00    0.00    0.00    0.00   0.00   0.00

avg-cpu:  %user   %nice %system %iowait  %steal   %idle
           0.25    0.00    8.54   71.36    0.00   19.85

Device:         rrqm/s   wrqm/s     r/s     w/s    rkB/s    wkB/s avgrq-sz avgqu-sz   await r_await w_await  svctm  %util
sda             136.00     0.00 2039.00    0.00 190352.00     0.00   186.71     1.56    0.77    0.77    0.00   0.28  58.00
sdb             134.00     0.00 2277.00    0.00 186984.00     0.00   164.24     1.89    0.83    0.83    0.00   0.26  59.90
sdc             136.00     0.00 2100.00    0.00 191232.00     0.00   182.13     5.37    2.55    2.55    0.00   0.41  86.30
sdd             136.00     0.00 1950.00    0.00 193604.00     0.00   198.57     4.50    2.31    2.31    0.00   0.45  88.20
sde             156.00     0.00 2084.00    0.00 189968.00     0.00   182.31     4.64    2.23    2.23    0.00   0.42  87.80
sdf             143.00     0.00 2155.00    0.00 190876.00     0.00   177.15     4.30    2.00    2.00    0.00   0.41  87.80
sdg               0.00   101.00  541.00 1242.00  2164.00  6152.00     9.33     7.29    3.80    0.12    5.41   0.06  11.50
sdh               0.00     0.00    0.00    0.00     0.00     0.00     0.00     0.00    0.00    0.00    0.00   0.00   0.00
md0               0.00     0.00 13448.00    0.00 1504056.00     0.00   223.68     0.00    0.00    0.00    0.00   0.00   0.00

avg-cpu:  %user   %nice %system %iowait  %steal   %idle
           0.26    0.00    8.70   69.31    0.00   21.74

Device:         rrqm/s   wrqm/s     r/s     w/s    rkB/s    wkB/s avgrq-sz avgqu-sz   await r_await w_await  svctm  %util
sda             126.00     0.00 2407.00    0.00 188836.00     0.00   156.91     1.93    0.80    0.80    0.00   0.25  59.40
sdb             113.00     0.00 2382.00    0.00 192584.00     0.00   161.70     2.06    0.86    0.86    0.00   0.26  61.30
sdc             122.00     0.00 2203.00    0.00 192712.00     0.00   174.95     5.40    2.46    2.46    0.00   0.40  87.20
sdd             133.00     0.00 2080.00    0.00 177788.00     0.00   170.95     4.15    1.99    1.99    0.00   0.40  83.80
sde             123.00     0.00 2292.00    0.00 184064.00     0.00   160.61     4.46    1.94    1.94    0.00   0.37  85.10
sdf             124.00     0.00 2109.00    0.00 185948.00     0.00   176.34     4.29    2.03    2.03    0.00   0.41  86.00
sdg               0.00    94.00    8.00 1318.00    32.00  6548.00     9.92     8.92    7.12    1.75    7.15   0.05   7.10
sdh               0.00     0.00    0.00    0.00     0.00     0.00     0.00     0.00    0.00    0.00    0.00   0.00   0.00
md0               0.00     0.00 14206.00    0.00 1460812.00     0.00   205.66     0.00    0.00    0.00    0.00   0.00   0.00

avg-cpu:  %user   %nice %system %iowait  %steal   %idle
           0.51    0.00    8.61   67.59    0.00   23.29

Device:         rrqm/s   wrqm/s     r/s     w/s    rkB/s    wkB/s avgrq-sz avgqu-sz   await r_await w_await  svctm  %util
sda             115.00     0.00 2234.00    0.00 191280.00     0.00   171.24     1.74    0.78    0.78    0.00   0.27  59.70
sdb             130.00     0.00 2377.00    0.00 192796.00     0.00   162.22     2.10    0.89    0.89    0.00   0.25  60.10
sdc             114.00     0.00 2233.00    0.00 192156.00     0.00   172.11     5.62    2.52    2.52    0.00   0.39  87.00
sdd             144.00     0.00 2064.00    0.00 185924.00     0.00   180.16     4.32    2.09    2.09    0.00   0.42  87.00
sde             126.00     0.00 2238.00    0.00 188696.00     0.00   168.63     4.55    2.03    2.03    0.00   0.39  87.70
sdf             136.00     0.00 2166.00    0.00 185976.00     0.00   171.72     4.37    2.02    2.02    0.00   0.40  86.40
sdg               0.00     0.00    0.00    0.00     0.00     0.00     0.00     0.00    0.00    0.00    0.00   0.00   0.00
sdh               0.00     0.00    0.00    0.00     0.00     0.00     0.00     0.00    0.00    0.00    0.00   0.00   0.00
md0               0.00     0.00 14082.00    0.00 1479144.00     0.00   210.08     0.00    0.00    0.00    0.00   0.00   0.00

avg-cpu:  %user   %nice %system %iowait  %steal   %idle
           0.51    0.00    8.63   68.53    0.00   22.34

Device:         rrqm/s   wrqm/s     r/s     w/s    rkB/s    wkB/s avgrq-sz avgqu-sz   await r_await w_await  svctm  %util
sda             140.00     0.00 2236.00    0.00 197252.00     0.00   176.43     1.99    0.89    0.89    0.00   0.27  61.30
sdb             133.00     0.00 2212.00    0.00 194660.00     0.00   176.00     2.08    0.94    0.94    0.00   0.28  61.30
sdc             125.00     0.00 2188.00    0.00 192328.00     0.00   175.80     5.57    2.55    2.55    0.00   0.40  87.80
sdd             146.00     0.00 2009.00    0.00 188044.00     0.00   187.20     4.30    2.13    2.13    0.00   0.44  87.40
sde             147.00     0.00 2093.00    0.00 186580.00     0.00   178.29     4.44    2.11    2.11    0.00   0.41  86.10
sdf             137.00     0.00 2121.00    0.00 189332.00     0.00   178.53     4.73    2.22    2.22    0.00   0.41  87.80
sdg               0.00     0.00    0.00    0.00     0.00     0.00     0.00     0.00    0.00    0.00    0.00   0.00   0.00
sdh               0.00     0.00    0.00    0.00     0.00     0.00     0.00     0.00    0.00    0.00    0.00   0.00   0.00
md0               0.00     0.00 13695.00    0.00 1519596.00     0.00   221.92     0.00    0.00    0.00    0.00   0.00   0.00

avg-cpu:  %user   %nice %system %iowait  %steal   %idle
           0.25    0.00   10.33   66.50    0.00   22.92

Device:         rrqm/s   wrqm/s     r/s     w/s    rkB/s    wkB/s avgrq-sz avgqu-sz   await r_await w_await  svctm  %util
sda              40.00     0.00 2985.00    0.00 182476.00     0.00   122.26     2.47    0.83    0.83    0.00   0.20  60.20
sdb              39.00     0.00 2996.00    0.00 183316.00     0.00   122.37     2.45    0.81    0.81    0.00   0.20  58.50
sdc              29.00     0.00 3111.00    0.00 186292.00     0.00   119.76     6.60    2.12    2.12    0.00   0.27  85.20
sdd              51.00     0.00 2842.00    0.00 186004.00     0.00   130.90     6.10    2.15    2.15    0.00   0.30  85.60
sde              37.00     0.00 2963.00    0.00 187324.00     0.00   126.44     5.95    2.01    2.01    0.00   0.29  86.50
sdf              42.00     0.00 2997.00    0.00 187444.00     0.00   125.09     6.02    2.02    2.02    0.00   0.29  85.70
sdg               0.00     0.00    0.00    0.00     0.00     0.00     0.00     0.00    0.00    0.00    0.00   0.00   0.00
sdh               0.00     0.00    0.00    0.00     0.00     0.00     0.00     0.00    0.00    0.00    0.00   0.00   0.00
md0               0.00     0.00 18203.00    0.00 1339540.00     0.00   147.18     0.00    0.00    0.00    0.00   0.00   0.00

avg-cpu:  %user   %nice %system %iowait  %steal   %idle
           0.75    0.00   10.80   65.83    0.00   22.61

Device:         rrqm/s   wrqm/s     r/s     w/s    rkB/s    wkB/s avgrq-sz avgqu-sz   await r_await w_await  svctm  %util
sda              33.00     0.00 3158.00    0.00 188184.00     0.00   119.18     2.70    0.85    0.85    0.00   0.20  61.80
sdb              24.00     0.00 3146.00    0.00 187148.00     0.00   118.98     2.77    0.88    0.88    0.00   0.19  60.20
sdc              24.00     0.00 3106.00    0.00 187220.00     0.00   120.55     7.06    2.27    2.27    0.00   0.27  84.50
sdd              23.00     0.00 3015.00    0.00 183972.00     0.00   122.04     5.86    1.93    1.93    0.00   0.28  84.90
sde              25.00     0.00 3168.00    0.00 190092.00     0.00   120.01     6.40    2.02    2.02    0.00   0.28  87.20
sdf              29.00     0.00 3045.00    0.00 190160.00     0.00   124.90     6.23    2.04    2.04    0.00   0.29  87.80
sdg               0.00     1.00    0.00    7.00     0.00   176.00    50.29     0.00    0.57    0.00    0.57   0.14   0.10
sdh               0.00     0.00    0.00    0.00     0.00     0.00     0.00     0.00    0.00    0.00    0.00   0.00   0.00
md0               0.00     0.00 18849.00    0.00 1340072.00     0.00   142.19     0.00    0.00    0.00    0.00   0.00   0.00

avg-cpu:  %user   %nice %system %iowait  %steal   %idle
           0.51    0.00    9.18   66.84    0.00   23.47

Device:         rrqm/s   wrqm/s     r/s     w/s    rkB/s    wkB/s avgrq-sz avgqu-sz   await r_await w_await  svctm  %util
sda              62.00     0.00 2655.00    0.00 188364.00     0.00   141.89     1.95    0.74    0.74    0.00   0.23  61.00
sdb              49.00     0.00 2927.00    0.00 189648.00     0.00   129.59     2.38    0.82    0.82    0.00   0.21  60.80
sdc              48.00     0.00 2799.00    0.00 194136.00     0.00   138.72     6.81    2.44    2.44    0.00   0.31  86.50
sdd              57.00     0.00 2669.00    0.00 184936.00     0.00   138.58     5.67    2.13    2.13    0.00   0.32  85.90
sde              59.00     0.00 2668.00    0.00 180304.00     0.00   135.16     4.77    1.78    1.78    0.00   0.32  84.60
sdf              52.00     0.00 2842.00    0.00 193536.00     0.00   136.20     5.45    1.92    1.92    0.00   0.31  88.50
sdg               0.00     0.00    0.00    0.00     0.00     0.00     0.00     0.00    0.00    0.00    0.00   0.00   0.00
sdh               0.00     0.00    0.00    0.00     0.00     0.00     0.00     0.00    0.00    0.00    0.00   0.00   0.00
md0               0.00     0.00 16905.00    0.00 1401768.00     0.00   165.84     0.00    0.00    0.00    0.00   0.00   0.00

avg-cpu:  %user   %nice %system %iowait  %steal   %idle
           0.51    0.00    9.85   66.16    0.00   23.48

Device:         rrqm/s   wrqm/s     r/s     w/s    rkB/s    wkB/s avgrq-sz avgqu-sz   await r_await w_await  svctm  %util
sda              58.00     0.00 2658.00    0.00 189256.00     0.00   142.40     2.18    0.82    0.82    0.00   0.22  59.60
sdb              50.00     0.00 2726.00    0.00 182104.00     0.00   133.61     2.15    0.79    0.79    0.00   0.22  60.00
sdc              55.00     0.00 2606.00    0.00 184832.00     0.00   141.85     6.23    2.38    2.38    0.00   0.32  84.40
sdd              52.00     0.00 2721.00    0.00 188928.00     0.00   138.87     5.95    2.18    2.18    0.00   0.32  86.60
sde              48.00     0.00 2732.00    0.00 189260.00     0.00   138.55     5.74    2.09    2.09    0.00   0.32  87.80
sdf              54.00     0.00 2636.00    0.00 190712.00     0.00   144.70     5.87    2.23    2.23    0.00   0.33  88.20
sdg               0.00     0.00    0.00    0.00     0.00     0.00     0.00     0.00    0.00    0.00    0.00   0.00   0.00
sdh               0.00     0.00    0.00    0.00     0.00     0.00     0.00     0.00    0.00    0.00    0.00   0.00   0.00
md0               0.00     0.00 16459.00    0.00 1390016.00     0.00   168.91     0.00    0.00    0.00    0.00   0.00   0.00

avg-cpu:  %user   %nice %system %iowait  %steal   %idle
           0.51    0.00    9.85   66.92    0.00   22.73

Device:         rrqm/s   wrqm/s     r/s     w/s    rkB/s    wkB/s avgrq-sz avgqu-sz   await r_await w_await  svctm  %util
sda              54.00     0.00 2785.00    0.00 190272.00     0.00   136.64     2.33    0.84    0.84    0.00   0.22  60.60
sdb              55.00     0.00 2755.00    0.00 191268.00     0.00   138.85     2.56    0.93    0.93    0.00   0.21  59.00
sdc              59.00     0.00 2570.00    0.00 183184.00     0.00   142.56     6.60    2.58    2.58    0.00   0.33  83.60
sdd              56.00     0.00 2679.00    0.00 195616.00     0.00   146.04     6.75    2.52    2.52    0.00   0.33  88.90
sde              72.00     0.00 2625.00    0.00 190276.00     0.00   144.97     6.07    2.33    2.33    0.00   0.34  88.20
sdf              74.00     0.00 2507.00    0.00 185640.00     0.00   148.10     5.74    2.29    2.29    0.00   0.35  86.80
sdg               0.00     0.00    0.00    0.00     0.00     0.00     0.00     0.00    0.00    0.00    0.00   0.00   0.00
sdh               0.00     0.00    0.00    0.00     0.00     0.00     0.00     0.00    0.00    0.00    0.00   0.00   0.00
md0               0.00     0.00 16377.00    0.00 1422620.00     0.00   173.73     0.00    0.00    0.00    0.00   0.00   0.00

avg-cpu:  %user   %nice %system %iowait  %steal   %idle
           0.76    0.00   10.33   67.76    0.00   21.16

Device:         rrqm/s   wrqm/s     r/s     w/s    rkB/s    wkB/s avgrq-sz avgqu-sz   await r_await w_await  svctm  %util
sda              61.00     0.00 2655.00    0.00 190536.00     0.00   143.53     2.10    0.79    0.79    0.00   0.23  61.00
sdb              48.00     0.00 2846.00    0.00 184440.00     0.00   129.61     2.26    0.80    0.80    0.00   0.21  60.70
sdc              51.00     0.00 2696.00    0.00 182136.00     0.00   135.12     6.17    2.29    2.29    0.00   0.31  83.90
sdd              46.00     0.00 2671.00    0.00 183660.00     0.00   137.52     5.62    2.11    2.11    0.00   0.32  85.20
sde              54.00     0.00 2611.00    0.00 183264.00     0.00   140.38     5.38    2.06    2.06    0.00   0.32  84.60
sdf              58.00     0.00 2760.00    0.00 192628.00     0.00   139.59     5.70    2.07    2.07    0.00   0.32  88.70
sdg               0.00     0.00  780.00    0.00  3120.00     0.00     8.00     0.09    0.12    0.12    0.00   0.12   9.20
sdh               0.00     0.00    0.00    0.00     0.00     0.00     0.00     0.00    0.00    0.00    0.00   0.00   0.00
md0               0.00     0.00 16535.00    0.00 1374220.00     0.00   166.22     0.00    0.00    0.00    0.00   0.00   0.00

avg-cpu:  %user   %nice %system %iowait  %steal   %idle
           0.51    0.00   10.38   68.86    0.00   20.25

Device:         rrqm/s   wrqm/s     r/s     w/s    rkB/s    wkB/s avgrq-sz avgqu-sz   await r_await w_await  svctm  %util
sda              49.00     0.00 2747.00    0.00 185700.00     0.00   135.20     2.14    0.78    0.78    0.00   0.22  59.70
sdb              53.00     0.00 2808.00    0.00 182780.00     0.00   130.19     2.61    0.93    0.93    0.00   0.22  62.80
sdc              48.00     0.00 2818.00    0.00 188444.00     0.00   133.74     6.42    2.27    2.27    0.00   0.30  85.60
sdd              44.00     0.00 2785.00    0.00 192716.00     0.00   138.40     5.94    2.13    2.13    0.00   0.32  88.10
sde              54.00     0.00 2765.00    0.00 184936.00     0.00   133.77     5.14    1.86    1.86    0.00   0.31  86.70
sdf              45.00     0.00 2842.00    0.00 190324.00     0.00   133.94     5.49    1.93    1.93    0.00   0.31  88.60
sdg               0.00     0.00 1057.00    0.00  4228.00     0.00     8.00     0.13    0.12    0.12    0.00   0.12  13.20
sdh               0.00     0.00    0.00    0.00     0.00     0.00     0.00     0.00    0.00    0.00    0.00   0.00   0.00
md0               0.00     0.00 17064.00    0.00 1382508.00     0.00   162.04     0.00    0.00    0.00    0.00   0.00   0.00

avg-cpu:  %user   %nice %system %iowait  %steal   %idle
           0.51    0.00    9.44   67.35    0.00   22.70

Device:         rrqm/s   wrqm/s     r/s     w/s    rkB/s    wkB/s avgrq-sz avgqu-sz   await r_await w_await  svctm  %util
sda              42.00     0.00 2931.00    0.00 188236.00     0.00   128.44     2.41    0.82    0.82    0.00   0.21  61.30
sdb              39.00     0.00 2694.00    0.00 185940.00     0.00   138.04     2.82    1.05    1.05    0.00   0.24  65.10
sdc              42.00     0.00 2602.00    0.00 178716.00     0.00   137.37     5.32    2.04    2.04    0.00   0.32  82.00
sdd              59.00     0.00 2800.00    0.00 183628.00     0.00   131.16     5.41    1.93    1.93    0.00   0.30  84.80
sde              50.00     0.00 2815.00    0.00 192788.00     0.00   136.97     5.75    2.04    2.04    0.00   0.31  86.90
sdf              56.00     0.00 2685.00    0.00 190476.00     0.00   141.88     5.36    1.99    1.99    0.00   0.32  86.80
sdg               0.00     0.00    0.00    0.00     0.00     0.00     0.00     0.00    0.00    0.00    0.00   0.00   0.00
sdh               0.00     0.00    0.00    0.00     0.00     0.00     0.00     0.00    0.00    0.00    0.00   0.00   0.00
md0               0.00     0.00 16841.00    0.00 1387584.00     0.00   164.79     0.00    0.00    0.00    0.00   0.00   0.00

avg-cpu:  %user   %nice %system %iowait  %steal   %idle
           0.26    0.00   10.20   67.35    0.00   22.19

Device:         rrqm/s   wrqm/s     r/s     w/s    rkB/s    wkB/s avgrq-sz avgqu-sz   await r_await w_await  svctm  %util
sda              20.00     0.00 3453.00    0.00 179732.00     0.00   104.10     2.62    0.76    0.76    0.00   0.17  59.20
sdb              28.00     0.00 3290.00    0.00 179736.00     0.00   109.26     3.55    1.08    1.08    0.00   0.19  63.80
sdc              16.00     0.00 3223.00    0.00 176168.00     0.00   109.32     6.76    2.08    2.08    0.00   0.26  82.20
sdd              25.00     0.00 3363.00    0.00 188520.00     0.00   112.11     6.99    2.04    2.04    0.00   0.26  86.40
sde              20.00     0.00 3321.00    0.00 179932.00     0.00   108.36     5.87    1.75    1.75    0.00   0.25  84.50
sdf              18.00     0.00 3396.00    0.00 180008.00     0.00   106.01     5.55    1.63    1.63    0.00   0.25  85.10
sdg               0.00     0.00    0.00    0.00     0.00     0.00     0.00     0.00    0.00    0.00    0.00   0.00   0.00
sdh               0.00     0.00    0.00    0.00     0.00     0.00     0.00     0.00    0.00    0.00    0.00   0.00   0.00
md0               0.00     0.00 20270.00    0.00 1273324.00     0.00   125.64     0.00    0.00    0.00    0.00   0.00   0.00

avg-cpu:  %user   %nice %system %iowait  %steal   %idle
           1.01    0.00   10.80   66.33    0.00   21.86

Device:         rrqm/s   wrqm/s     r/s     w/s    rkB/s    wkB/s avgrq-sz avgqu-sz   await r_await w_await  svctm  %util
sda              10.00     0.00 3806.00    0.00 191628.00     0.00   100.70     3.27    0.86    0.86    0.00   0.16  62.70
sdb              11.00     0.00 3759.00    0.00 189804.00     0.00   100.99     4.13    1.10    1.10    0.00   0.17  65.00
sdc              10.00     0.00 3624.00    0.00 187684.00     0.00   103.58     8.08    2.25    2.25    0.00   0.24  85.90
sdd              14.00     0.00 3632.00    0.00 185568.00     0.00   102.19     7.47    2.09    2.09    0.00   0.24  86.70
sde               9.00     0.00 3675.00    0.00 183524.00     0.00    99.88     6.97    1.91    1.91    0.00   0.23  85.50
sdf               8.00     0.00 3589.00    0.00 182648.00     0.00   101.78     6.93    1.94    1.94    0.00   0.24  86.90
sdg               0.00     0.00    0.00    0.00     0.00     0.00     0.00     0.00    0.00    0.00    0.00   0.00   0.00
sdh               0.00     0.00    0.00    0.00     0.00     0.00     0.00     0.00    0.00    0.00    0.00   0.00   0.00
md0               0.00     0.00 22156.00    0.00 1281180.00     0.00   115.65     0.00    0.00    0.00    0.00   0.00   0.00

avg-cpu:  %user   %nice %system %iowait  %steal   %idle
           0.51    0.00    9.74   67.18    0.00   22.56

Device:         rrqm/s   wrqm/s     r/s     w/s    rkB/s    wkB/s avgrq-sz avgqu-sz   await r_await w_await  svctm  %util
sda              25.00     0.00 3196.00    0.00 186780.00     0.00   116.88     2.67    0.83    0.83    0.00   0.19  59.30
sdb              27.00     0.00 3257.00    0.00 182756.00     0.00   112.22     3.44    1.06    1.06    0.00   0.20  64.10
sdc              26.00     0.00 3172.00    0.00 187024.00     0.00   117.92     7.28    2.30    2.30    0.00   0.27  85.10
sdd              20.00     0.00 3254.00    0.00 190920.00     0.00   117.34     7.36    2.27    2.27    0.00   0.26  86.10
sde              31.00     0.00 3043.00    0.00 184828.00     0.00   121.48     6.10    2.00    2.00    0.00   0.28  86.50
sdf              19.00     0.00 3102.00    0.00 180020.00     0.00   116.07     5.92    1.91    1.91    0.00   0.28  85.60
sdg               0.00    83.00    0.00 1413.00     0.00  7376.00    10.44     8.55    6.05    0.00    6.05   0.04   6.30
sdh               0.00     0.00    0.00    0.00     0.00     0.00     0.00     0.00    0.00    0.00    0.00   0.00   0.00
md0               0.00     0.00 19295.00    0.00 1319392.00     0.00   136.76     0.00    0.00    0.00    0.00   0.00   0.00

avg-cpu:  %user   %nice %system %iowait  %steal   %idle
           0.51    0.00   11.11   65.40    0.00   22.98

Device:         rrqm/s   wrqm/s     r/s     w/s    rkB/s    wkB/s avgrq-sz avgqu-sz   await r_await w_await  svctm  %util
sda              19.00     0.00 3332.00    0.00 188952.00     0.00   113.42     2.55    0.77    0.77    0.00   0.18  60.50
sdb              18.00     0.00 3200.00    0.00 189712.00     0.00   118.57     3.38    1.06    1.06    0.00   0.20  65.10
sdc              18.00     0.00 3158.00    0.00 188436.00     0.00   119.34     7.22    2.29    2.29    0.00   0.27  85.40
sdd              23.00     0.00 3080.00    0.00 179952.00     0.00   116.85     6.06    1.97    1.97    0.00   0.27  83.50
sde              15.00     0.00 3327.00    0.00 189412.00     0.00   113.86     6.80    2.04    2.04    0.00   0.26  87.40
sdf              26.00     0.00 3121.00    0.00 188852.00     0.00   121.02     5.92    1.89    1.89    0.00   0.28  87.10
sdg               0.00     0.00    2.00    0.00     8.00     0.00     8.00     0.00    0.00    0.00    0.00   0.00   0.00
sdh               0.00     0.00    0.00    0.00     0.00     0.00     0.00     0.00    0.00    0.00    0.00   0.00   0.00
md0               0.00     0.00 19388.00    0.00 1340504.00     0.00   138.28     0.00    0.00    0.00    0.00   0.00   0.00

