Linux 4.17.2 (bench) 	08/03/2018 	_x86_64_	(4 CPU)

avg-cpu:  %user   %nice %system %iowait  %steal   %idle
          10.29    0.02    4.02    2.49    0.00   83.18

Device:         rrqm/s   wrqm/s     r/s     w/s    rkB/s    wkB/s avgrq-sz avgqu-sz   await r_await w_await  svctm  %util
sda              41.74     4.26 1625.77  103.14 20772.17  3147.47    27.67     1.03    0.59    0.26    5.91   0.06  10.60
sdb              41.63     4.22 1625.66  103.28 20761.59  3144.11    27.65     1.03    0.59    0.26    5.85   0.06  10.48
sdc              79.63     4.28 1585.57  102.83 20753.78  3146.58    28.31     1.45    0.86    0.45    7.12   0.08  13.92
sdd              73.00     4.25 1591.37  102.90 20738.53  3142.76    28.19     1.45    0.86    0.44    7.32   0.08  14.01
sde              75.07     4.29 1596.48  103.00 20798.88  3147.03    28.18     1.47    0.87    0.44    7.43   0.08  14.03
sdf              72.16     4.27 1598.65  102.94 20779.93  3143.87    28.12     1.52    0.89    0.44    7.90   0.08  14.07
sdg               0.00     3.18   26.06   73.33   322.97   392.00    14.39     0.44    4.43    0.20    5.93   0.08   0.78
sdh               0.00     0.13    0.02    0.24     2.22     5.09    56.82     0.00    1.15    0.65    1.19   0.21   0.01
md0               0.00     0.00 10013.10  483.19 142255.91 21551.38    31.21     0.00    0.00    0.00    0.00   0.00   0.00

avg-cpu:  %user   %nice %system %iowait  %steal   %idle
           5.56    0.00   34.60    0.76    0.00   59.09

Device:         rrqm/s   wrqm/s     r/s     w/s    rkB/s    wkB/s avgrq-sz avgqu-sz   await r_await w_await  svctm  %util
sda             313.00     0.00 26068.00    0.00 105524.00     0.00     8.10    35.29    1.35    1.35    0.00   0.02  61.40
sdb             385.00     0.00 25923.00    0.00 105236.00     0.00     8.12    35.01    1.35    1.35    0.00   0.02  60.60
sdc             355.00     0.00 25866.00    0.00 104884.00     0.00     8.11    39.55    1.53    1.53    0.00   0.02  63.80
sdd             326.00     0.00 25952.00    0.00 105120.00     0.00     8.10    39.93    1.54    1.54    0.00   0.03  64.90
sde             339.00     0.00 25967.00    0.00 105224.00     0.00     8.10    40.12    1.55    1.55    0.00   0.02  64.60
sdf             344.00     0.00 25714.00    0.00 104240.00     0.00     8.11    39.50    1.54    1.54    0.00   0.02  64.20
sdg               0.00     0.00    3.00    0.00    88.00     0.00    58.67     0.00    0.67    0.67    0.00   0.33   0.10
sdh               0.00     0.00    0.00    0.00     0.00     0.00     0.00     0.00    0.00    0.00    0.00   0.00   0.00
md0               0.00     0.00 157576.00    0.00 630304.00     0.00     8.00     0.00    0.00    0.00    0.00   0.00   0.00

avg-cpu:  %user   %nice %system %iowait  %steal   %idle
           5.79    0.00   34.51    0.50    0.00   59.19

Device:         rrqm/s   wrqm/s     r/s     w/s    rkB/s    wkB/s avgrq-sz avgqu-sz   await r_await w_await  svctm  %util
sda             323.00     0.00 25365.00    0.00 102752.00     0.00     8.10    32.61    1.29    1.29    0.00   0.02  59.50
sdb             315.00     0.00 25692.00    0.00 104028.00     0.00     8.10    33.43    1.30    1.30    0.00   0.02  59.70
sdc             321.00     0.00 25733.00    0.00 104220.00     0.00     8.10    38.24    1.49    1.49    0.00   0.02  64.00
sdd             354.00     0.00 25660.00    0.00 104056.00     0.00     8.11    38.28    1.49    1.49    0.00   0.02  64.10
sde             339.00     0.00 25466.00    0.00 103220.00     0.00     8.11    38.23    1.49    1.49    0.00   0.03  63.80
sdf             296.00     0.00 25243.00    0.00 102156.00     0.00     8.09    37.52    1.49    1.49    0.00   0.02  62.90
sdg               0.00     0.00    0.00    0.00     0.00     0.00     0.00     0.00    0.00    0.00    0.00   0.00   0.00
sdh               0.00     0.00    0.00    0.00     0.00     0.00     0.00     0.00    0.00    0.00    0.00   0.00   0.00
md0               0.00     0.00 155097.00    0.00 620388.00     0.00     8.00     0.00    0.00    0.00    0.00   0.00   0.00

avg-cpu:  %user   %nice %system %iowait  %steal   %idle
           5.79    0.00   35.26    0.25    0.00   58.69

Device:         rrqm/s   wrqm/s     r/s     w/s    rkB/s    wkB/s avgrq-sz avgqu-sz   await r_await w_await  svctm  %util
sda             264.00     0.00 24963.00    0.00 100908.00     0.00     8.08    30.04    1.20    1.20    0.00   0.02  59.30
sdb             292.00     0.00 25472.00    0.00 103056.00     0.00     8.09    31.11    1.22    1.22    0.00   0.02  59.50
sdc             321.00     0.00 25143.00    0.00 101852.00     0.00     8.10    34.93    1.39    1.39    0.00   0.03  63.80
sdd             296.00     0.00 25184.00    0.00 101912.00     0.00     8.09    35.11    1.39    1.39    0.00   0.03  63.70
sde             272.00     0.00 25279.00    0.00 102196.00     0.00     8.09    35.41    1.40    1.40    0.00   0.03  63.80
sdf             310.00     0.00 25207.00    0.00 102068.00     0.00     8.10    35.26    1.40    1.40    0.00   0.03  64.10
sdg               0.00     0.00    0.00    0.00     0.00     0.00     0.00     0.00    0.00    0.00    0.00   0.00   0.00
sdh               0.00     0.00    0.00    0.00     0.00     0.00     0.00     0.00    0.00    0.00    0.00   0.00   0.00
md0               0.00     0.00 153364.00    0.00 613456.00     0.00     8.00     0.00    0.00    0.00    0.00   0.00   0.00

avg-cpu:  %user   %nice %system %iowait  %steal   %idle
           6.27    0.00   35.09    0.50    0.00   58.15

Device:         rrqm/s   wrqm/s     r/s     w/s    rkB/s    wkB/s avgrq-sz avgqu-sz   await r_await w_await  svctm  %util
sda             234.00     0.00 24858.00    0.00 100372.00     0.00     8.08    28.66    1.15    1.15    0.00   0.02  57.90
sdb             266.00     0.00 24765.00    0.00 100116.00     0.00     8.09    28.46    1.15    1.15    0.00   0.02  57.00
sdc             291.00     0.00 24722.00    0.00 100056.00     0.00     8.09    32.58    1.32    1.32    0.00   0.03  62.10
sdd             286.00     0.00 24732.00    0.00 100076.00     0.00     8.09    32.70    1.32    1.32    0.00   0.03  62.40
sde             288.00     0.00 24752.00    0.00 100172.00     0.00     8.09    32.82    1.33    1.33    0.00   0.03  62.80
sdf             253.00     0.00 24746.00    0.00 99992.00     0.00     8.08    32.85    1.33    1.33    0.00   0.03  62.30
sdg               0.00     0.00    0.00    0.00     0.00     0.00     0.00     0.00    0.00    0.00    0.00   0.00   0.00
sdh               0.00     0.00    0.00    0.00     0.00     0.00     0.00     0.00    0.00    0.00    0.00   0.00   0.00
md0               0.00     0.00 150218.00    0.00 600872.00     0.00     8.00     0.00    0.00    0.00    0.00   0.00   0.00

avg-cpu:  %user   %nice %system %iowait  %steal   %idle
           6.58    0.25   34.94    1.52    0.00   56.71

Device:         rrqm/s   wrqm/s     r/s     w/s    rkB/s    wkB/s avgrq-sz avgqu-sz   await r_await w_await  svctm  %util
sda             248.00     0.00 24161.00    0.00 97632.00     0.00     8.08    26.49    1.09    1.09    0.00   0.02  55.80
sdb             259.00     0.00 24160.00    0.00 97684.00     0.00     8.09    26.73    1.10    1.10    0.00   0.02  55.50
sdc             238.00     0.00 24118.00    0.00 97424.00     0.00     8.08    30.43    1.26    1.26    0.00   0.02  60.00
sdd             259.00     0.00 24535.00    0.00 99180.00     0.00     8.08    31.26    1.28    1.28    0.00   0.02  60.40
sde             258.00     0.00 24077.00    0.00 97336.00     0.00     8.09    30.49    1.27    1.27    0.00   0.02  59.50
sdf             246.00     0.00 24361.00    0.00 98432.00     0.00     8.08    31.16    1.28    1.28    0.00   0.02  60.70
sdg               0.00     0.00 1348.00    0.00  5484.00     0.00     8.14     0.17    0.13    0.13    0.00   0.12  16.40
sdh               0.00     0.00    0.00    0.00     0.00     0.00     0.00     0.00    0.00    0.00    0.00   0.00   0.00
md0               0.00     0.00 146998.00    0.00 587992.00     0.00     8.00     0.00    0.00    0.00    0.00   0.00   0.00

avg-cpu:  %user   %nice %system %iowait  %steal   %idle
           7.07    0.00   34.85    0.25    0.00   57.83

Device:         rrqm/s   wrqm/s     r/s     w/s    rkB/s    wkB/s avgrq-sz avgqu-sz   await r_await w_await  svctm  %util
sda             202.00     0.00 24029.00    0.00 96932.00     0.00     8.07    24.32    1.02    1.02    0.00   0.02  55.40
sdb             227.00     0.00 24041.00    0.00 97076.00     0.00     8.08    24.65    1.03    1.03    0.00   0.02  55.60
sdc             213.00     0.00 23952.00    0.00 96664.00     0.00     8.07    28.13    1.18    1.18    0.00   0.02  58.90
sdd             242.00     0.00 24130.00    0.00 97492.00     0.00     8.08    28.63    1.19    1.19    0.00   0.02  59.20
sde             245.00     0.00 24046.00    0.00 97168.00     0.00     8.08    28.58    1.19    1.19    0.00   0.02  59.20
sdf             208.00     0.00 24090.00    0.00 97200.00     0.00     8.07    28.70    1.19    1.19    0.00   0.02  60.00
sdg               0.00     0.00    0.00    0.00     0.00     0.00     0.00     0.00    0.00    0.00    0.00   0.00   0.00
sdh               0.00     0.00    0.00    0.00     0.00     0.00     0.00     0.00    0.00    0.00    0.00   0.00   0.00
md0               0.00     0.00 145177.00    0.00 580708.00     0.00     8.00     0.00    0.00    0.00    0.00   0.00   0.00

avg-cpu:  %user   %nice %system %iowait  %steal   %idle
           7.11    0.00   34.01    0.25    0.00   58.63

Device:         rrqm/s   wrqm/s     r/s     w/s    rkB/s    wkB/s avgrq-sz avgqu-sz   await r_await w_await  svctm  %util
sda             187.00     0.00 23526.00    0.00 94856.00     0.00     8.06    22.61    0.96    0.96    0.00   0.02  54.30
sdb             183.00     0.00 23513.00    0.00 94772.00     0.00     8.06    23.08    0.98    0.98    0.00   0.02  54.20
sdc             218.00     0.00 23420.00    0.00 94552.00     0.00     8.07    26.39    1.13    1.13    0.00   0.02  58.20
sdd             209.00     0.00 23785.00    0.00 95972.00     0.00     8.07    26.99    1.13    1.13    0.00   0.02  58.50
sde             197.00     0.00 23625.00    0.00 95288.00     0.00     8.07    26.86    1.14    1.14    0.00   0.02  58.90
sdf             211.00     0.00 23624.00    0.00 95340.00     0.00     8.07    26.94    1.14    1.14    0.00   0.02  58.20
sdg               0.00     0.00    0.00    0.00     0.00     0.00     0.00     0.00    0.00    0.00    0.00   0.00   0.00
sdh               0.00     0.00    0.00    0.00     0.00     0.00     0.00     0.00    0.00    0.00    0.00   0.00   0.00
md0               0.00     0.00 142833.00    0.00 571332.00     0.00     8.00     0.00    0.00    0.00    0.00   0.00   0.00

avg-cpu:  %user   %nice %system %iowait  %steal   %idle
           7.05    0.00   34.51    0.25    0.00   58.19

Device:         rrqm/s   wrqm/s     r/s     w/s    rkB/s    wkB/s avgrq-sz avgqu-sz   await r_await w_await  svctm  %util
sda             152.00     0.00 23270.00    0.00 93688.00     0.00     8.05    20.93    0.90    0.90    0.00   0.02  52.70
sdb             169.00     0.00 23060.00    0.00 92928.00     0.00     8.06    20.71    0.90    0.90    0.00   0.02  52.20
sdc             183.00     0.00 23121.00    0.00 93216.00     0.00     8.06    24.49    1.06    1.06    0.00   0.02  55.90
sdd             177.00     0.00 23088.00    0.00 93064.00     0.00     8.06    24.48    1.06    1.06    0.00   0.02  56.00
sde             197.00     0.00 23317.00    0.00 94056.00     0.00     8.07    25.04    1.07    1.07    0.00   0.02  56.80
sdf             179.00     0.00 23042.00    0.00 92884.00     0.00     8.06    24.32    1.06    1.06    0.00   0.02  55.70
sdg               0.00     0.00    0.00    0.00     0.00     0.00     0.00     0.00    0.00    0.00    0.00   0.00   0.00
sdh               0.00     0.00    0.00    0.00     0.00     0.00     0.00     0.00    0.00    0.00    0.00   0.00   0.00
md0               0.00     0.00 140016.00    0.00 560064.00     0.00     8.00     0.00    0.00    0.00    0.00   0.00   0.00

avg-cpu:  %user   %nice %system %iowait  %steal   %idle
           7.36    0.00   34.77    0.00    0.00   57.87

Device:         rrqm/s   wrqm/s     r/s     w/s    rkB/s    wkB/s avgrq-sz avgqu-sz   await r_await w_await  svctm  %util
sda             152.00     0.00 22690.00    0.00 91368.00     0.00     8.05    18.95    0.84    0.84    0.00   0.02  52.10
sdb             148.00     0.00 22866.00    0.00 92056.00     0.00     8.05    19.18    0.84    0.84    0.00   0.02  51.90
sdc             118.00     0.00 22536.00    0.00 90616.00     0.00     8.04    21.94    0.97    0.97    0.00   0.02  55.30
sdd             146.00     0.00 22598.00    0.00 90976.00     0.00     8.05    22.16    0.98    0.98    0.00   0.02  55.70
sde             150.00     0.00 22695.00    0.00 91380.00     0.00     8.05    22.42    0.99    0.99    0.00   0.02  56.30
sdf             147.00     0.00 22846.00    0.00 91972.00     0.00     8.05    22.64    0.99    0.99    0.00   0.02  56.80
sdg               0.00     0.00    0.00    0.00     0.00     0.00     0.00     0.00    0.00    0.00    0.00   0.00   0.00
sdh               0.00     0.00    0.00    0.00     0.00     0.00     0.00     0.00    0.00    0.00    0.00   0.00   0.00
md0               0.00     0.00 136881.00    0.00 547524.00     0.00     8.00     0.00    0.00    0.00    0.00   0.00   0.00

avg-cpu:  %user   %nice %system %iowait  %steal   %idle
           7.30    0.00   34.76    0.25    0.00   57.68

Device:         rrqm/s   wrqm/s     r/s     w/s    rkB/s    wkB/s avgrq-sz avgqu-sz   await r_await w_await  svctm  %util
sda             132.00     0.00 22473.00    0.00 90420.00     0.00     8.05    17.41    0.77    0.77    0.00   0.02  50.80
sdb             146.00     0.00 22272.00    0.00 89672.00     0.00     8.05    17.42    0.78    0.78    0.00   0.02  50.00
sdc             173.00     0.00 22190.00    0.00 89448.00     0.00     8.06    20.39    0.92    0.92    0.00   0.02  54.20
sdd             148.00     0.00 22493.00    0.00 90564.00     0.00     8.05    20.85    0.93    0.93    0.00   0.02  54.80
sde             138.00     0.00 22170.00    0.00 89228.00     0.00     8.05    20.22    0.91    0.91    0.00   0.02  53.70
sdf             128.00     0.00 22064.00    0.00 88768.00     0.00     8.05    20.45    0.93    0.93    0.00   0.02  54.50
sdg               0.00     0.00    7.00    7.00   120.00   148.00    38.29     0.01    0.36    0.14    0.57   0.07   0.10
sdh               0.00     0.00    0.00    0.00     0.00     0.00     0.00     0.00    0.00    0.00    0.00   0.00   0.00
md0               0.00     0.00 134831.00    0.00 539324.00     0.00     8.00     0.00    0.00    0.00    0.00   0.00   0.00

avg-cpu:  %user   %nice %system %iowait  %steal   %idle
           8.04    0.00   34.92    0.00    0.00   57.04

Device:         rrqm/s   wrqm/s     r/s     w/s    rkB/s    wkB/s avgrq-sz avgqu-sz   await r_await w_await  svctm  %util
sda             116.00     0.00 21538.00    0.00 86620.00     0.00     8.04    15.90    0.74    0.74    0.00   0.02  50.50
sdb              96.00     0.00 21705.00    0.00 87204.00     0.00     8.04    15.91    0.73    0.73    0.00   0.02  50.00
sdc             133.00     0.00 21767.00    0.00 87604.00     0.00     8.05    18.84    0.87    0.87    0.00   0.03  55.70
sdd             119.00     0.00 21542.00    0.00 86636.00     0.00     8.04    18.67    0.87    0.87    0.00   0.03  54.90
sde             127.00     0.00 21895.00    0.00 88088.00     0.00     8.05    19.43    0.88    0.88    0.00   0.03  55.80
sdf             120.00     0.00 21799.00    0.00 87676.00     0.00     8.04    19.20    0.88    0.88    0.00   0.03  55.30
sdg               0.00     0.00    0.00    0.00     0.00     0.00     0.00     0.00    0.00    0.00    0.00   0.00   0.00
sdh               0.00     0.00    0.00    0.00     0.00     0.00     0.00     0.00    0.00    0.00    0.00   0.00   0.00
md0               0.00     0.00 130929.00    0.00 523716.00     0.00     8.00     0.00    0.00    0.00    0.00   0.00   0.00

avg-cpu:  %user   %nice %system %iowait  %steal   %idle
           8.06    0.00   36.52    1.01    0.00   54.41

Device:         rrqm/s   wrqm/s     r/s     w/s    rkB/s    wkB/s avgrq-sz avgqu-sz   await r_await w_await  svctm  %util
sda             109.00     0.00 21281.00    0.00 85564.00     0.00     8.04    15.83    0.74    0.74    0.00   0.02  49.80
sdb             116.00     0.00 21071.00    0.00 84752.00     0.00     8.04    15.35    0.73    0.73    0.00   0.02  49.30
sdc             102.00     0.00 20818.00    0.00 83688.00     0.00     8.04    17.73    0.85    0.85    0.00   0.02  51.70
sdd             122.00     0.00 21131.00    0.00 85020.00     0.00     8.05    18.20    0.86    0.86    0.00   0.02  52.30
sde             104.00     0.00 20987.00    0.00 84372.00     0.00     8.04    18.11    0.86    0.86    0.00   0.03  52.50
sdf             117.00     0.00 21175.00    0.00 85176.00     0.00     8.04    18.21    0.86    0.86    0.00   0.03  53.10
sdg               0.00    70.00    5.00 2569.00    20.00 12736.00     9.91    15.63    6.07    2.40    6.08   0.05  12.00
sdh               0.00     0.00    0.00    0.00     0.00     0.00     0.00     0.00    0.00    0.00    0.00   0.00   0.00
md0               0.00     0.00 126860.00    0.00 507460.00     0.00     8.00     0.00    0.00    0.00    0.00   0.00   0.00

avg-cpu:  %user   %nice %system %iowait  %steal   %idle
           8.04    0.00   36.18    0.00    0.00   55.78

Device:         rrqm/s   wrqm/s     r/s     w/s    rkB/s    wkB/s avgrq-sz avgqu-sz   await r_await w_await  svctm  %util
sda             114.00     0.00 21244.00    0.00 85432.00     0.00     8.04    15.57    0.73    0.73    0.00   0.02  50.90
sdb             111.00     0.00 21161.00    0.00 85092.00     0.00     8.04    15.64    0.74    0.74    0.00   0.02  51.00
sdc             116.00     0.00 21278.00    0.00 85576.00     0.00     8.04    18.32    0.86    0.86    0.00   0.03  53.90
sdd             120.00     0.00 21265.00    0.00 85540.00     0.00     8.05    18.33    0.86    0.86    0.00   0.03  53.80
sde             111.00     0.00 21300.00    0.00 85644.00     0.00     8.04    18.40    0.86    0.86    0.00   0.03  54.80
sdf             125.00     0.00 21236.00    0.00 85460.00     0.00     8.05    18.44    0.87    0.87    0.00   0.03  53.70
sdg               0.00     0.00    0.00    0.00     0.00     0.00     0.00     0.00    0.00    0.00    0.00   0.00   0.00
sdh               0.00     0.00    0.00    0.00     0.00     0.00     0.00     0.00    0.00    0.00    0.00   0.00   0.00
md0               0.00     0.00 128181.00    0.00 512764.00     0.00     8.00     0.00    0.00    0.00    0.00   0.00   0.00

avg-cpu:  %user   %nice %system %iowait  %steal   %idle
           7.85    0.00   35.70    0.00    0.00   56.46

Device:         rrqm/s   wrqm/s     r/s     w/s    rkB/s    wkB/s avgrq-sz avgqu-sz   await r_await w_await  svctm  %util
sda              95.00     0.00 21372.00    0.00 85868.00     0.00     8.04    15.73    0.74    0.74    0.00   0.02  49.40
sdb              93.00     0.00 21211.00    0.00 85216.00     0.00     8.04    15.62    0.74    0.74    0.00   0.02  49.50
sdc             102.00     0.00 21122.00    0.00 84896.00     0.00     8.04    18.22    0.86    0.86    0.00   0.02  52.50
sdd             131.00     0.00 21487.00    0.00 86472.00     0.00     8.05    18.71    0.87    0.87    0.00   0.03  53.80
sde             130.00     0.00 21274.00    0.00 85612.00     0.00     8.05    18.37    0.86    0.86    0.00   0.03  53.30
sdf             113.00     0.00 21324.00    0.00 85752.00     0.00     8.04    18.32    0.86    0.86    0.00   0.02  53.20
sdg               0.00     0.00    0.00    0.00     0.00     0.00     0.00     0.00    0.00    0.00    0.00   0.00   0.00
sdh               0.00     0.00    0.00    0.00     0.00     0.00     0.00     0.00    0.00    0.00    0.00   0.00   0.00
md0               0.00     0.00 128856.00    0.00 515424.00     0.00     8.00     0.00    0.00    0.00    0.00   0.00   0.00

avg-cpu:  %user   %nice %system %iowait  %steal   %idle
           7.85    0.25   35.95    2.53    0.00   53.42

Device:         rrqm/s   wrqm/s     r/s     w/s    rkB/s    wkB/s avgrq-sz avgqu-sz   await r_await w_await  svctm  %util
sda             108.00     0.00 21061.00    0.00 84680.00     0.00     8.04    15.40    0.73    0.73    0.00   0.02  48.70
sdb             114.00     0.00 21029.00    0.00 84564.00     0.00     8.04    15.46    0.74    0.74    0.00   0.02  48.70
sdc              95.00     0.00 21012.00    0.00 84428.00     0.00     8.04    18.01    0.86    0.86    0.00   0.02  52.40
sdd             109.00     0.00 21074.00    0.00 84732.00     0.00     8.04    18.28    0.87    0.87    0.00   0.02  51.90
sde             109.00     0.00 21175.00    0.00 85140.00     0.00     8.04    18.33    0.87    0.87    0.00   0.03  53.40
sdf             123.00     0.00 21167.00    0.00 85160.00     0.00     8.05    18.61    0.88    0.88    0.00   0.02  52.60
sdg               0.00     0.00 1837.00    0.00  7348.00     0.00     8.00     0.23    0.13    0.13    0.00   0.13  23.00
sdh               0.00     0.00    0.00    0.00     0.00     0.00     0.00     0.00    0.00    0.00    0.00   0.00   0.00
md0               0.00     0.00 127192.00    0.00 508772.00     0.00     8.00     0.00    0.00    0.00    0.00   0.00   0.00

avg-cpu:  %user   %nice %system %iowait  %steal   %idle
           7.87    0.00   35.28    0.00    0.00   56.85

Device:         rrqm/s   wrqm/s     r/s     w/s    rkB/s    wkB/s avgrq-sz avgqu-sz   await r_await w_await  svctm  %util
sda              92.00     0.00 21469.00    0.00 86256.00     0.00     8.04    15.95    0.74    0.74    0.00   0.02  49.40
sdb             103.00     0.00 21240.00    0.00 85380.00     0.00     8.04    15.83    0.75    0.75    0.00   0.02  48.70
sdc             100.00     0.00 21475.00    0.00 86300.00     0.00     8.04    18.52    0.86    0.86    0.00   0.02  52.20
sdd              86.00     0.00 20978.00    0.00 84256.00     0.00     8.03    18.17    0.87    0.87    0.00   0.02  52.40
sde             114.00     0.00 21390.00    0.00 86016.00     0.00     8.04    18.75    0.88    0.88    0.00   0.02  53.40
sdf             113.00     0.00 21461.00    0.00 86300.00     0.00     8.04    19.04    0.89    0.89    0.00   0.02  53.30
sdg               0.00     0.00    0.00    0.00     0.00     0.00     0.00     0.00    0.00    0.00    0.00   0.00   0.00
sdh               0.00     0.00    0.00    0.00     0.00     0.00     0.00     0.00    0.00    0.00    0.00   0.00   0.00
md0               0.00     0.00 128205.00    0.00 512832.00     0.00     8.00     0.00    0.00    0.00    0.00   0.00   0.00

avg-cpu:  %user   %nice %system %iowait  %steal   %idle
           7.75    0.00   35.75    0.25    0.00   56.25

Device:         rrqm/s   wrqm/s     r/s     w/s    rkB/s    wkB/s avgrq-sz avgqu-sz   await r_await w_await  svctm  %util
sda              98.00     0.00 21343.00    0.00 85776.00     0.00     8.04    16.15    0.75    0.75    0.00   0.02  48.50
sdb             107.00     0.00 21157.00    0.00 85080.00     0.00     8.04    15.95    0.75    0.75    0.00   0.02  50.10
sdc             138.00     0.00 21377.00    0.00 86052.00     0.00     8.05    18.88    0.88    0.88    0.00   0.02  52.30
sdd             130.00     0.00 21153.00    0.00 85132.00     0.00     8.05    18.46    0.87    0.87    0.00   0.02  51.90
sde             122.00     0.00 21276.00    0.00 85588.00     0.00     8.05    18.71    0.88    0.88    0.00   0.03  53.30
sdf             113.00     0.00 21209.00    0.00 85280.00     0.00     8.04    18.86    0.89    0.89    0.00   0.02  52.80
sdg               0.00     0.00    0.00    0.00     0.00     0.00     0.00     0.00    0.00    0.00    0.00   0.00   0.00
sdh               0.00     0.00    0.00    0.00     0.00     0.00     0.00     0.00    0.00    0.00    0.00   0.00   0.00
md0               0.00     0.00 128630.00    0.00 514564.00     0.00     8.00     0.00    0.00    0.00    0.00   0.00   0.00

avg-cpu:  %user   %nice %system %iowait  %steal   %idle
           7.81    0.00   35.26    0.00    0.00   56.93

Device:         rrqm/s   wrqm/s     r/s     w/s    rkB/s    wkB/s avgrq-sz avgqu-sz   await r_await w_await  svctm  %util
sda             102.00     0.00 21076.00    0.00 84704.00     0.00     8.04    15.96    0.76    0.76    0.00   0.02  48.30
sdb             119.00     0.00 21218.00    0.00 85348.00     0.00     8.04    16.09    0.76    0.76    0.00   0.02  49.30
sdc             101.00     0.00 20948.00    0.00 84208.00     0.00     8.04    18.40    0.88    0.88    0.00   0.02  52.00
sdd             114.00     0.00 21242.00    0.00 85424.00     0.00     8.04    18.84    0.89    0.89    0.00   0.02  52.20
sde             103.00     0.00 21323.00    0.00 85724.00     0.00     8.04    19.07    0.89    0.89    0.00   0.02  52.10
sdf             106.00     0.00 21249.00    0.00 85416.00     0.00     8.04    18.97    0.89    0.89    0.00   0.02  52.10
sdg               0.00     0.00    0.00    0.00     0.00     0.00     0.00     0.00    0.00    0.00    0.00   0.00   0.00
sdh               0.00     0.00    0.00    0.00     0.00     0.00     0.00     0.00    0.00    0.00    0.00   0.00   0.00
md0               0.00     0.00 127700.00    0.00 510828.00     0.00     8.00     0.00    0.00    0.00    0.00   0.00   0.00

avg-cpu:  %user   %nice %system %iowait  %steal   %idle
           8.33    0.00   35.10    0.00    0.00   56.57

Device:         rrqm/s   wrqm/s     r/s     w/s    rkB/s    wkB/s avgrq-sz avgqu-sz   await r_await w_await  svctm  %util
sda             108.00     0.00 21419.00    0.00 86116.00     0.00     8.04    15.54    0.73    0.73    0.00   0.02  48.40
sdb              97.00     0.00 21315.00    0.00 85656.00     0.00     8.04    15.69    0.74    0.74    0.00   0.02  48.00
sdc             116.00     0.00 21120.00    0.00 84964.00     0.00     8.05    18.24    0.86    0.86    0.00   0.02  52.20
sdd             116.00     0.00 21366.00    0.00 85928.00     0.00     8.04    18.57    0.87    0.87    0.00   0.02  52.50
sde             130.00     0.00 21428.00    0.00 86240.00     0.00     8.05    18.61    0.87    0.87    0.00   0.02  53.50
sdf             110.00     0.00 21254.00    0.00 85480.00     0.00     8.04    18.41    0.87    0.87    0.00   0.02  52.50
sdg               0.00     0.00    0.00    0.00     0.00     0.00     0.00     0.00    0.00    0.00    0.00   0.00   0.00
sdh               0.00     0.00    0.00    0.00     0.00     0.00     0.00     0.00    0.00    0.00    0.00   0.00   0.00
md0               0.00     0.00 128174.00    0.00 512728.00     0.00     8.00     0.00    0.00    0.00    0.00   0.00   0.00

avg-cpu:  %user   %nice %system %iowait  %steal   %idle
           8.06    0.00   35.77    0.00    0.00   56.17

Device:         rrqm/s   wrqm/s     r/s     w/s    rkB/s    wkB/s avgrq-sz avgqu-sz   await r_await w_await  svctm  %util
sda             104.00     0.00 21159.00    0.00 85056.00     0.00     8.04    15.48    0.73    0.73    0.00   0.02  48.80
sdb              99.00     0.00 20999.00    0.00 84392.00     0.00     8.04    15.47    0.74    0.74    0.00   0.02  48.90
sdc             110.00     0.00 21216.00    0.00 85304.00     0.00     8.04    18.30    0.86    0.86    0.00   0.02  52.60
sdd             117.00     0.00 21350.00    0.00 85860.00     0.00     8.04    18.57    0.87    0.87    0.00   0.02  52.80
sde              96.00     0.00 21161.00    0.00 85036.00     0.00     8.04    18.50    0.87    0.87    0.00   0.03  53.60
sdf             115.00     0.00 21131.00    0.00 84980.00     0.00     8.04    18.39    0.87    0.87    0.00   0.03  53.70
sdg               0.00     0.00    1.00    0.00     4.00     0.00     8.00     0.00    1.00    1.00    0.00   1.00   0.10
sdh               0.00     0.00    0.00    0.00     0.00     0.00     0.00     0.00    0.00    0.00    0.00   0.00   0.00
md0               0.00     0.00 128004.00    0.00 512028.00     0.00     8.00     0.00    0.00    0.00    0.00   0.00   0.00

