Linux 4.17.2 (bench) 	08/03/2018 	_x86_64_	(4 CPU)

avg-cpu:  %user   %nice %system %iowait  %steal   %idle
          10.28    0.02    4.03    2.51    0.00   83.15

Device:         rrqm/s   wrqm/s     r/s     w/s    rkB/s    wkB/s avgrq-sz avgqu-sz   await r_await w_await  svctm  %util
sda              43.33     4.25 1633.60  102.97 20819.28  3142.35    27.60     1.03    0.59    0.26    5.91   0.06  10.63
sdb              43.20     4.21 1633.51  103.11 20808.66  3139.00    27.58     1.03    0.59    0.26    5.85   0.06  10.51
sdc              81.25     4.27 1593.37  102.66 20800.81  3141.47    28.23     1.45    0.85    0.45    7.12   0.08  13.96
sdd              74.64     4.24 1599.15  102.73 20785.63  3137.65    28.11     1.46    0.85    0.44    7.32   0.08  14.05
sde              76.69     4.29 1604.26  102.83 20845.80  3141.92    28.10     1.48    0.86    0.44    7.43   0.08  14.07
sdf              73.79     4.26 1606.42  102.77 20826.95  3138.77    28.04     1.52    0.89    0.44    7.90   0.08  14.10
sdg               0.00     3.17   26.14   73.32   323.32   391.99    14.38     0.44    4.42    0.20    5.93   0.08   0.78
sdh               0.00     0.13    0.02    0.24     2.22     5.09    56.82     0.00    1.15    0.65    1.19   0.21   0.01
md0               0.00     0.00 10069.72  482.41 142575.16 21516.38    31.10     0.00    0.00    0.00    0.00   0.00   0.00

avg-cpu:  %user   %nice %system %iowait  %steal   %idle
           0.55    0.03   16.22   68.11    0.00   15.09

Device:         rrqm/s   wrqm/s     r/s     w/s    rkB/s    wkB/s avgrq-sz avgqu-sz   await r_await w_await  svctm  %util
sda               0.00     0.00 10887.65    0.00 43550.60     0.00     8.00     1.13    0.10    0.10    0.00   0.06  68.06
sdb               0.00     0.00 10908.40    0.00 43633.60     0.00     8.00     1.10    0.10    0.10    0.00   0.06  67.61
sdc               0.00     0.00 10854.20    0.00 43416.80     0.00     8.00     1.22    0.11    0.11    0.00   0.07  71.33
sdd               0.00     0.00 10864.55    0.00 43458.20     0.00     8.00     1.22    0.11    0.11    0.00   0.07  71.99
sde               0.00     0.00 10896.75    0.00 43587.00     0.00     8.00     1.24    0.11    0.11    0.00   0.07  71.83
sdf               0.00     0.00 10895.50    0.00 43582.00     0.00     8.00     1.23    0.11    0.11    0.00   0.07  71.70
sdg               0.00     0.00   95.80    0.00   418.80     0.00     8.74     0.01    0.12    0.12    0.00   0.12   1.13
sdh               0.00     0.00    0.00    0.00     0.00     0.00     0.00     0.00    0.00    0.00    0.00   0.00   0.00
md0               0.00     0.00 65307.65    0.00 261230.60     0.00     8.00     0.00    0.00    0.00    0.00   0.00   0.00

