Linux 4.17.2 (bench) 	08/03/2018 	_x86_64_	(4 CPU)

avg-cpu:  %user   %nice %system %iowait  %steal   %idle
          10.29    0.02    4.00    2.46    0.00   83.24

Device:         rrqm/s   wrqm/s     r/s     w/s    rkB/s    wkB/s avgrq-sz avgqu-sz   await r_await w_await  svctm  %util
sda              40.86     4.28 1609.46  103.48 20664.16  3157.84    27.81     1.03    0.60    0.26    5.91   0.06  10.53
sdb              40.75     4.24 1609.35  103.62 20653.57  3154.47    27.80     1.02    0.60    0.26    5.85   0.06  10.41
sdc              78.88     4.30 1569.14  103.17 20645.79  3156.95    28.47     1.44    0.86    0.45    7.12   0.08  13.83
sdd              72.22     4.26 1574.95  103.24 20630.46  3153.11    28.34     1.45    0.86    0.44    7.32   0.08  13.93
sde              74.30     4.31 1580.09  103.34 20691.09  3157.40    28.33     1.47    0.87    0.44    7.43   0.08  13.95
sdf              71.39     4.28 1582.27  103.28 20672.09  3154.23    28.27     1.52    0.90    0.44    7.90   0.08  13.98
sdg               0.00     3.18   25.93   73.34   322.44   391.98    14.39     0.44    4.43    0.20    5.93   0.08   0.77
sdh               0.00     0.13    0.02    0.24     2.23     5.11    56.82     0.00    1.15    0.65    1.19   0.21   0.01
md0               0.00     0.00 9909.86  484.78 141462.59 21622.40    31.38     0.00    0.00    0.00    0.00   0.00   0.00

avg-cpu:  %user   %nice %system %iowait  %steal   %idle
           0.47    0.01   12.53   62.59    0.00   24.40

Device:         rrqm/s   wrqm/s     r/s     w/s    rkB/s    wkB/s avgrq-sz avgqu-sz   await r_await w_await  svctm  %util
sda               0.00     0.00 8853.75    0.00 35415.00     0.00     8.00     0.98    0.11    0.11    0.00   0.04  33.16
sdb               0.00     0.00 9010.75    0.00 36043.00     0.00     8.00     0.99    0.11    0.11    0.00   0.04  32.64
sdc               0.00     0.00 8973.45    0.00 35893.80     0.00     8.00     1.21    0.13    0.13    0.00   0.04  38.38
sdd               0.00     0.00 8932.45    0.00 35729.80     0.00     8.00     1.20    0.13    0.13    0.00   0.04  38.32
sde               0.00     0.00 8939.70    0.00 35758.80     0.00     8.00     1.21    0.13    0.13    0.00   0.04  38.68
sdf               0.00     0.00 9009.15    0.00 36036.60     0.00     8.00     1.21    0.13    0.13    0.00   0.04  38.83
sdg               0.00     0.00  162.90    0.20   691.40     2.40     8.51     0.02    0.12    0.12    2.00   0.12   1.97
sdh               0.00     0.00    0.00    0.00     0.00     0.00     0.00     0.00    0.00    0.00    0.00   0.00   0.00
md0               0.00     0.00 53719.80    0.00 214879.20     0.00     8.00     0.00    0.00    0.00    0.00   0.00   0.00

