Linux 4.17.2 (bench) 	08/03/2018 	_x86_64_	(4 CPU)

avg-cpu:  %user   %nice %system %iowait  %steal   %idle
          10.29    0.02    4.00    2.46    0.00   83.22

Device:         rrqm/s   wrqm/s     r/s     w/s    rkB/s    wkB/s avgrq-sz avgqu-sz   await r_await w_await  svctm  %util
sda              41.27     4.27 1612.90  103.44 20673.79  3156.54    27.77     1.03    0.60    0.26    5.91   0.06  10.54
sdb              41.16     4.23 1612.79  103.58 20663.20  3153.17    27.75     1.03    0.60    0.26    5.85   0.06  10.42
sdc              79.27     4.29 1572.60  103.12 20655.43  3155.66    28.42     1.44    0.86    0.45    7.12   0.08  13.85
sdd              72.62     4.26 1578.40  103.20 20640.10  3151.82    28.30     1.45    0.86    0.44    7.32   0.08  13.94
sde              74.69     4.31 1583.54  103.29 20700.70  3156.10    28.29     1.47    0.87    0.44    7.43   0.08  13.96
sdf              71.79     4.28 1585.72  103.24 20681.71  3152.94    28.22     1.52    0.90    0.44    7.90   0.08  13.99
sdg               0.00     3.18   25.94   73.34   322.46   391.97    14.39     0.44    4.43    0.20    5.93   0.08   0.77
sdh               0.00     0.13    0.02    0.24     2.23     5.11    56.82     0.00    1.15    0.65    1.19   0.21   0.01
md0               0.00     0.00 9932.97  484.58 141513.18 21613.51    31.32     0.00    0.00    0.00    0.00   0.00   0.00

avg-cpu:  %user   %nice %system %iowait  %steal   %idle
           0.00    0.00    1.28    1.03    0.00   97.69

Device:         rrqm/s   wrqm/s     r/s     w/s    rkB/s    wkB/s avgrq-sz avgqu-sz   await r_await w_await  svctm  %util
sda               0.00     0.00 1620.00    0.00  6480.00     0.00     8.00     0.17    0.11    0.11    0.00   0.10  17.00
sdb               0.00     0.00 1425.00    0.00  5700.00     0.00     8.00     0.13    0.09    0.09    0.00   0.09  13.20
sdc               0.00     0.00 1538.00    0.00  6152.00     0.00     8.00     0.16    0.11    0.11    0.00   0.11  16.20
sdd               0.00     0.00 1502.00    0.00  6008.00     0.00     8.00     0.17    0.11    0.11    0.00   0.11  16.60
sde               0.00     0.00 1622.00    0.00  6488.00     0.00     8.00     0.17    0.10    0.10    0.00   0.10  17.00
sdf               0.00     0.00 1449.00    0.00  5796.00     0.00     8.00     0.15    0.10    0.10    0.00   0.10  14.90
sdg               0.00     0.00    0.00    1.00     0.00    12.00    24.00     0.00    0.00    0.00    0.00   0.00   0.00
sdh               0.00     0.00    0.00    0.00     0.00     0.00     0.00     0.00    0.00    0.00    0.00   0.00   0.00
md0               0.00     0.00 9155.00    0.00 36620.00     0.00     8.00     0.00    0.00    0.00    0.00   0.00   0.00

avg-cpu:  %user   %nice %system %iowait  %steal   %idle
           0.26    0.00    1.28    1.02    0.00   97.45

Device:         rrqm/s   wrqm/s     r/s     w/s    rkB/s    wkB/s avgrq-sz avgqu-sz   await r_await w_await  svctm  %util
sda               0.00     0.00 1597.00    0.00  6388.00     0.00     8.00     0.15    0.10    0.10    0.00   0.10  15.30
sdb               0.00     0.00 1454.00    0.00  5816.00     0.00     8.00     0.15    0.10    0.10    0.00   0.10  14.60
sdc               0.00     0.00 1446.00    0.00  5784.00     0.00     8.00     0.15    0.10    0.10    0.00   0.10  15.00
sdd               0.00     0.00 1535.00    0.00  6140.00     0.00     8.00     0.16    0.11    0.11    0.00   0.11  16.30
sde               0.00     0.00 1530.00    0.00  6120.00     0.00     8.00     0.16    0.11    0.11    0.00   0.11  16.30
sdf               0.00     0.00 1513.00    0.00  6052.00     0.00     8.00     0.16    0.11    0.11    0.00   0.11  15.90
sdg               0.00     0.00    0.00    0.00     0.00     0.00     0.00     0.00    0.00    0.00    0.00   0.00   0.00
sdh               0.00     0.00    0.00    0.00     0.00     0.00     0.00     0.00    0.00    0.00    0.00   0.00   0.00
md0               0.00     0.00 9074.00    0.00 36296.00     0.00     8.00     0.00    0.00    0.00    0.00   0.00   0.00

avg-cpu:  %user   %nice %system %iowait  %steal   %idle
           0.00    0.00    1.28    1.02    0.00   97.70

Device:         rrqm/s   wrqm/s     r/s     w/s    rkB/s    wkB/s avgrq-sz avgqu-sz   await r_await w_await  svctm  %util
sda               0.00     0.00 1568.00    0.00  6272.00     0.00     8.00     0.16    0.10    0.10    0.00   0.10  16.40
sdb               0.00     0.00 1496.00    0.00  5984.00     0.00     8.00     0.14    0.09    0.09    0.00   0.09  14.10
sdc               0.00     0.00 1549.00    0.00  6196.00     0.00     8.00     0.17    0.11    0.11    0.00   0.11  16.50
sdd               0.00     0.00 1527.00    0.00  6108.00     0.00     8.00     0.16    0.10    0.10    0.00   0.10  15.60
sde               0.00     0.00 1588.00    0.00  6352.00     0.00     8.00     0.16    0.10    0.10    0.00   0.10  16.20
sdf               0.00     0.00 1451.00    0.00  5804.00     0.00     8.00     0.15    0.11    0.11    0.00   0.11  15.40
sdg               0.00     0.00    0.00    0.00     0.00     0.00     0.00     0.00    0.00    0.00    0.00   0.00   0.00
sdh               0.00     0.00    0.00    0.00     0.00     0.00     0.00     0.00    0.00    0.00    0.00   0.00   0.00
md0               0.00     0.00 9180.00    0.00 36720.00     0.00     8.00     0.00    0.00    0.00    0.00   0.00   0.00

avg-cpu:  %user   %nice %system %iowait  %steal   %idle
           0.25    0.00    1.78    1.02    0.00   96.95

Device:         rrqm/s   wrqm/s     r/s     w/s    rkB/s    wkB/s avgrq-sz avgqu-sz   await r_await w_await  svctm  %util
sda               0.00     0.00 1611.00    0.00  6444.00     0.00     8.00     0.15    0.10    0.10    0.00   0.10  15.50
sdb               0.00     0.00 1578.00    0.00  6312.00     0.00     8.00     0.16    0.10    0.10    0.00   0.10  15.70
sdc               0.00     0.00 1475.00    0.00  5900.00     0.00     8.00     0.16    0.11    0.11    0.00   0.11  15.60
sdd               0.00     0.00 1515.00    0.00  6060.00     0.00     8.00     0.16    0.11    0.11    0.00   0.11  16.20
sde               0.00     0.00 1458.00    0.00  5832.00     0.00     8.00     0.14    0.10    0.10    0.00   0.10  14.30
sdf               0.00     0.00 1530.00    0.00  6120.00     0.00     8.00     0.17    0.11    0.11    0.00   0.11  16.60
sdg               0.00     0.00    0.00    0.00     0.00     0.00     0.00     0.00    0.00    0.00    0.00   0.00   0.00
sdh               0.00     0.00    0.00    0.00     0.00     0.00     0.00     0.00    0.00    0.00    0.00   0.00   0.00
md0               0.00     0.00 9167.00    0.00 36668.00     0.00     8.00     0.00    0.00    0.00    0.00   0.00   0.00

avg-cpu:  %user   %nice %system %iowait  %steal   %idle
           0.00    0.00    1.03    1.03    0.00   97.95

Device:         rrqm/s   wrqm/s     r/s     w/s    rkB/s    wkB/s avgrq-sz avgqu-sz   await r_await w_await  svctm  %util
sda               0.00     0.00 1541.00    0.00  6164.00     0.00     8.00     0.15    0.10    0.10    0.00   0.10  15.20
sdb               0.00     0.00 1591.00    0.00  6364.00     0.00     8.00     0.16    0.10    0.10    0.00   0.10  15.80
sdc               0.00     0.00 1445.00    0.00  5780.00     0.00     8.00     0.15    0.11    0.11    0.00   0.11  15.40
sdd               0.00     0.00 1388.00    0.00  5552.00     0.00     8.00     0.15    0.11    0.11    0.00   0.11  14.60
sde               0.00     0.00 1603.00    0.00  6412.00     0.00     8.00     0.17    0.11    0.11    0.00   0.11  17.30
sdf               0.00     0.00 1589.00    0.00  6356.00     0.00     8.00     0.17    0.11    0.11    0.00   0.11  17.00
sdg               0.00     0.00    0.00    0.00     0.00     0.00     0.00     0.00    0.00    0.00    0.00   0.00   0.00
sdh               0.00     0.00    0.00    0.00     0.00     0.00     0.00     0.00    0.00    0.00    0.00   0.00   0.00
md0               0.00     0.00 9156.00    0.00 36624.00     0.00     8.00     0.00    0.00    0.00    0.00   0.00   0.00

avg-cpu:  %user   %nice %system %iowait  %steal   %idle
           0.00    0.00    1.53    1.28    0.00   97.19

Device:         rrqm/s   wrqm/s     r/s     w/s    rkB/s    wkB/s avgrq-sz avgqu-sz   await r_await w_await  svctm  %util
sda               0.00     0.00 1568.00    0.00  6272.00     0.00     8.00     0.16    0.10    0.10    0.00   0.10  16.10
sdb               0.00     0.00 1499.00    0.00  5996.00     0.00     8.00     0.14    0.10    0.10    0.00   0.10  14.50
sdc               0.00     0.00 1441.00    0.00  5764.00     0.00     8.00     0.15    0.11    0.11    0.00   0.11  15.30
sdd               0.00     0.00 1584.00    0.00  6336.00     0.00     8.00     0.16    0.10    0.10    0.00   0.10  16.30
sde               0.00     0.00 1551.00    0.00  6204.00     0.00     8.00     0.16    0.11    0.11    0.00   0.11  16.40
sdf               0.00     0.00 1483.00    0.00  5932.00     0.00     8.00     0.16    0.11    0.11    0.00   0.11  16.30
sdg               0.00     0.00  109.00    0.00   532.00     0.00     9.76     0.01    0.14    0.14    0.00   0.13   1.40
sdh               0.00     0.00    0.00    0.00     0.00     0.00     0.00     0.00    0.00    0.00    0.00   0.00   0.00
md0               0.00     0.00 9127.00    0.00 36508.00     0.00     8.00     0.00    0.00    0.00    0.00   0.00   0.00

avg-cpu:  %user   %nice %system %iowait  %steal   %idle
           0.25    0.00    1.78   21.83    0.00   76.14

Device:         rrqm/s   wrqm/s     r/s     w/s    rkB/s    wkB/s avgrq-sz avgqu-sz   await r_await w_await  svctm  %util
sda               0.00     0.00 1571.00    0.00  6284.00     0.00     8.00     0.14    0.09    0.09    0.00   0.09  14.00
sdb               0.00     0.00 1621.00    0.00  6484.00     0.00     8.00     0.15    0.10    0.10    0.00   0.10  15.50
sdc               0.00     0.00 1445.00    0.00  5780.00     0.00     8.00     0.15    0.11    0.11    0.00   0.11  15.40
sdd               0.00     0.00 1530.00    0.00  6120.00     0.00     8.00     0.16    0.11    0.11    0.00   0.11  16.30
sde               0.00     0.00 1529.00    0.00  6116.00     0.00     8.00     0.16    0.10    0.10    0.00   0.10  15.90
sdf               0.00     0.00 1499.00    0.00  5996.00     0.00     8.00     0.15    0.10    0.10    0.00   0.10  15.20
sdg               0.00     0.00    0.00    0.00     0.00     0.00     0.00     0.00    0.00    0.00    0.00   0.00   0.00
sdh               0.00     0.00    0.00    0.00     0.00     0.00     0.00     0.00    0.00    0.00    0.00   0.00   0.00
md0               0.00     0.00 9195.00    0.00 36780.00     0.00     8.00     0.00    0.00    0.00    0.00   0.00   0.00

avg-cpu:  %user   %nice %system %iowait  %steal   %idle
           0.00    0.00    1.78   22.14    0.00   76.08

Device:         rrqm/s   wrqm/s     r/s     w/s    rkB/s    wkB/s avgrq-sz avgqu-sz   await r_await w_await  svctm  %util
sda               0.00     0.00 1595.00    0.00  6380.00     0.00     8.00     0.16    0.10    0.10    0.00   0.10  16.10
sdb               0.00     0.00 1518.00    0.00  6072.00     0.00     8.00     0.14    0.10    0.10    0.00   0.10  14.50
sdc               0.00     0.00 1451.00    0.00  5804.00     0.00     8.00     0.15    0.10    0.10    0.00   0.10  15.20
sdd               0.00     0.00 1491.00    0.00  5964.00     0.00     8.00     0.16    0.11    0.11    0.00   0.11  15.90
sde               0.00     0.00 1555.00    0.00  6220.00     0.00     8.00     0.17    0.11    0.11    0.00   0.11  16.90
sdf               0.00     0.00 1582.00    0.00  6328.00     0.00     8.00     0.17    0.11    0.11    0.00   0.11  16.90
sdg               0.00     0.00    0.00    0.00     0.00     0.00     0.00     0.00    0.00    0.00    0.00   0.00   0.00
sdh               0.00     0.00    0.00    0.00     0.00     0.00     0.00     0.00    0.00    0.00    0.00   0.00   0.00
md0               0.00     0.00 9192.00    0.00 36768.00     0.00     8.00     0.00    0.00    0.00    0.00   0.00   0.00

avg-cpu:  %user   %nice %system %iowait  %steal   %idle
           0.00    0.00    2.53   15.40    0.00   82.07

Device:         rrqm/s   wrqm/s     r/s     w/s    rkB/s    wkB/s avgrq-sz avgqu-sz   await r_await w_await  svctm  %util
sda               0.00     0.00 1523.00    0.00  6092.00     0.00     8.00     0.14    0.10    0.10    0.00   0.10  14.50
sdb               0.00     0.00 1505.00    0.00  6020.00     0.00     8.00     0.15    0.10    0.10    0.00   0.10  14.70
sdc               0.00     0.00 1509.00    0.00  6036.00     0.00     8.00     0.16    0.11    0.11    0.00   0.11  16.20
sdd               0.00     0.00 1501.00    0.00  6004.00     0.00     8.00     0.15    0.10    0.10    0.00   0.10  15.50
sde               0.00     0.00 1538.00    0.00  6152.00     0.00     8.00     0.17    0.11    0.11    0.00   0.11  17.20
sdf               0.00     0.00 1458.00    0.00  5832.00     0.00     8.00     0.15    0.10    0.10    0.00   0.10  15.30
sdg               0.00     0.00    0.00    0.00     0.00     0.00     0.00     0.00    0.00    0.00    0.00   0.00   0.00
sdh               0.00     0.00    0.00    0.00     0.00     0.00     0.00     0.00    0.00    0.00    0.00   0.00   0.00
md0               0.00     0.00 9034.00    0.00 36136.00     0.00     8.00     0.00    0.00    0.00    0.00   0.00   0.00

avg-cpu:  %user   %nice %system %iowait  %steal   %idle
           0.00    0.00    1.28    1.28    0.00   97.45

Device:         rrqm/s   wrqm/s     r/s     w/s    rkB/s    wkB/s avgrq-sz avgqu-sz   await r_await w_await  svctm  %util
sda               0.00     0.00 1384.00    0.00  5536.00     0.00     8.00     0.14    0.10    0.10    0.00   0.10  13.90
sdb               0.00     0.00 1474.00    0.00  5896.00     0.00     8.00     0.15    0.10    0.10    0.00   0.10  14.90
sdc               0.00     0.00 1518.00    0.00  6072.00     0.00     8.00     0.17    0.11    0.11    0.00   0.11  16.80
sdd               0.00     0.00 1515.00    0.00  6060.00     0.00     8.00     0.17    0.11    0.11    0.00   0.11  17.00
sde               0.00     0.00 1422.00    0.00  5688.00     0.00     8.00     0.15    0.11    0.11    0.00   0.11  15.10
sdf               0.00     0.00 1472.00    0.00  5888.00     0.00     8.00     0.16    0.11    0.11    0.00   0.11  16.10
sdg               0.00     0.00    0.00    0.00     0.00     0.00     0.00     0.00    0.00    0.00    0.00   0.00   0.00
sdh               0.00     0.00    0.00    0.00     0.00     0.00     0.00     0.00    0.00    0.00    0.00   0.00   0.00
md0               0.00     0.00 8785.00    0.00 35140.00     0.00     8.00     0.00    0.00    0.00    0.00   0.00   0.00

avg-cpu:  %user   %nice %system %iowait  %steal   %idle
           0.25    0.00    1.27    1.02    0.00   97.46

Device:         rrqm/s   wrqm/s     r/s     w/s    rkB/s    wkB/s avgrq-sz avgqu-sz   await r_await w_await  svctm  %util
sda               0.00     0.00 1624.00    0.00  6496.00     0.00     8.00     0.15    0.09    0.09    0.00   0.09  15.40
sdb               0.00     0.00 1505.00    0.00  6020.00     0.00     8.00     0.15    0.10    0.10    0.00   0.10  14.70
sdc               0.00     0.00 1505.00    0.00  6020.00     0.00     8.00     0.16    0.10    0.10    0.00   0.10  15.60
sdd               0.00     0.00 1534.00    0.00  6136.00     0.00     8.00     0.16    0.11    0.11    0.00   0.11  16.30
sde               0.00     0.00 1495.00    0.00  5980.00     0.00     8.00     0.16    0.11    0.11    0.00   0.11  15.70
sdf               0.00     0.00 1575.00    0.00  6300.00     0.00     8.00     0.17    0.11    0.11    0.00   0.11  16.60
sdg               0.00     0.00    2.00   22.00    32.00   236.00    22.33     0.01    0.29    0.50    0.27   0.08   0.20
sdh               0.00     0.00    0.00    0.00     0.00     0.00     0.00     0.00    0.00    0.00    0.00   0.00   0.00
md0               0.00     0.00 9238.00    0.00 36952.00     0.00     8.00     0.00    0.00    0.00    0.00   0.00   0.00

avg-cpu:  %user   %nice %system %iowait  %steal   %idle
           0.00    0.00    1.28    1.03    0.00   97.69

Device:         rrqm/s   wrqm/s     r/s     w/s    rkB/s    wkB/s avgrq-sz avgqu-sz   await r_await w_await  svctm  %util
sda               0.00     0.00 1402.00    0.00  5608.00     0.00     8.00     0.13    0.09    0.09    0.00   0.09  13.30
sdb               0.00     0.00 1510.00    0.00  6040.00     0.00     8.00     0.15    0.10    0.10    0.00   0.10  14.80
sdc               0.00     0.00 1547.00    0.00  6188.00     0.00     8.00     0.17    0.11    0.11    0.00   0.11  16.70
sdd               0.00     0.00 1591.00    0.00  6364.00     0.00     8.00     0.17    0.11    0.11    0.00   0.11  17.10
sde               0.00     0.00 1543.00    0.00  6172.00     0.00     8.00     0.16    0.11    0.11    0.00   0.11  16.40
sdf               0.00     0.00 1555.00    0.00  6220.00     0.00     8.00     0.17    0.11    0.11    0.00   0.11  16.90
sdg               0.00     0.00    0.00    0.00     0.00     0.00     0.00     0.00    0.00    0.00    0.00   0.00   0.00
sdh               0.00     0.00    0.00    0.00     0.00     0.00     0.00     0.00    0.00    0.00    0.00   0.00   0.00
md0               0.00     0.00 9148.00    0.00 36592.00     0.00     8.00     0.00    0.00    0.00    0.00   0.00   0.00

avg-cpu:  %user   %nice %system %iowait  %steal   %idle
           0.25    0.00    1.52    1.27    0.00   96.95

Device:         rrqm/s   wrqm/s     r/s     w/s    rkB/s    wkB/s avgrq-sz avgqu-sz   await r_await w_await  svctm  %util
sda               0.00     0.00 1534.00    0.00  6140.00     0.00     8.01     0.15    0.10    0.10    0.00   0.10  14.80
sdb               0.00     0.00 1487.00    0.00  5948.00     0.00     8.00     0.15    0.10    0.10    0.00   0.10  14.90
sdc               0.00     0.00 1479.00    0.00  5916.00     0.00     8.00     0.15    0.10    0.10    0.00   0.10  14.60
sdd               0.00     0.00 1555.00    0.00  6220.00     0.00     8.00     0.17    0.11    0.11    0.00   0.11  17.00
sde               0.00     0.00 1597.00    0.00  6388.00     0.00     8.00     0.16    0.10    0.10    0.00   0.10  16.20
sdf               0.00     0.00 1499.00    0.00  5996.00     0.00     8.00     0.17    0.11    0.11    0.00   0.11  16.50
sdg               0.00     0.00    7.00    6.00    28.00    48.00    11.69     0.01    0.77    0.14    1.50   0.69   0.90
sdh               0.00     0.00    0.00    0.00     0.00     0.00     0.00     0.00    0.00    0.00    0.00   0.00   0.00
md0               0.00     0.00 9151.00    0.00 36604.00     0.00     8.00     0.00    0.00    0.00    0.00   0.00   0.00

avg-cpu:  %user   %nice %system %iowait  %steal   %idle
           0.00    0.00    1.79   14.80    0.00   83.42

Device:         rrqm/s   wrqm/s     r/s     w/s    rkB/s    wkB/s avgrq-sz avgqu-sz   await r_await w_await  svctm  %util
sda               0.00     0.00 1570.00    0.00  6276.00     0.00     7.99     0.16    0.10    0.10    0.00   0.10  16.00
sdb               0.00     0.00 1544.00    0.00  6176.00     0.00     8.00     0.15    0.10    0.10    0.00   0.10  15.10
sdc               0.00     0.00 1581.00    0.00  6324.00     0.00     8.00     0.17    0.11    0.11    0.00   0.11  17.10
sdd               0.00     0.00 1435.00    0.00  5740.00     0.00     8.00     0.15    0.11    0.11    0.00   0.11  15.10
sde               0.00     0.00 1484.00    0.00  5936.00     0.00     8.00     0.15    0.10    0.10    0.00   0.10  15.20
sdf               0.00     0.00 1489.00    0.00  5956.00     0.00     8.00     0.16    0.11    0.11    0.00   0.11  16.10
sdg               0.00     0.00    0.00    0.00     0.00     0.00     0.00     0.00    0.00    0.00    0.00   0.00   0.00
sdh               0.00     0.00    0.00    0.00     0.00     0.00     0.00     0.00    0.00    0.00    0.00   0.00   0.00
md0               0.00     0.00 9102.00    0.00 36408.00     0.00     8.00     0.00    0.00    0.00    0.00   0.00   0.00

avg-cpu:  %user   %nice %system %iowait  %steal   %idle
           0.00    0.00    2.03   22.03    0.00   75.95

Device:         rrqm/s   wrqm/s     r/s     w/s    rkB/s    wkB/s avgrq-sz avgqu-sz   await r_await w_await  svctm  %util
sda               0.00     0.00 1496.00    0.00  5984.00     0.00     8.00     0.15    0.10    0.10    0.00   0.10  15.40
sdb               0.00     0.00 1489.00    0.00  5956.00     0.00     8.00     0.15    0.10    0.10    0.00   0.10  15.00
sdc               0.00     0.00 1520.00    0.00  6080.00     0.00     8.00     0.16    0.11    0.11    0.00   0.11  16.00
sdd               0.00     0.00 1453.00    0.00  5812.00     0.00     8.00     0.15    0.10    0.10    0.00   0.10  14.80
sde               0.00     0.00 1617.00    0.00  6468.00     0.00     8.00     0.18    0.11    0.11    0.00   0.11  17.70
sdf               0.00     0.00 1573.00    0.00  6292.00     0.00     8.00     0.16    0.10    0.10    0.00   0.10  16.20
sdg               0.00     0.00    0.00    0.00     0.00     0.00     0.00     0.00    0.00    0.00    0.00   0.00   0.00
sdh               0.00     0.00    0.00    0.00     0.00     0.00     0.00     0.00    0.00    0.00    0.00   0.00   0.00
md0               0.00     0.00 9148.00    0.00 36592.00     0.00     8.00     0.00    0.00    0.00    0.00   0.00   0.00

avg-cpu:  %user   %nice %system %iowait  %steal   %idle
           0.25    0.25    2.27   21.72    0.00   75.51

Device:         rrqm/s   wrqm/s     r/s     w/s    rkB/s    wkB/s avgrq-sz avgqu-sz   await r_await w_await  svctm  %util
sda               0.00     0.00 1572.00    0.00  6288.00     0.00     8.00     0.16    0.10    0.10    0.00   0.10  16.00
sdb               0.00     0.00 1520.00    0.00  6080.00     0.00     8.00     0.15    0.10    0.10    0.00   0.10  14.70
sdc               0.00     0.00 1502.00    0.00  6008.00     0.00     8.00     0.16    0.11    0.11    0.00   0.11  15.80
sdd               0.00     0.00 1533.00    0.00  6132.00     0.00     8.00     0.16    0.11    0.11    0.00   0.11  16.20
sde               0.00     0.00 1570.00    0.00  6280.00     0.00     8.00     0.17    0.11    0.11    0.00   0.11  16.60
sdf               0.00     0.00 1489.00    0.00  5956.00     0.00     8.00     0.15    0.10    0.10    0.00   0.10  15.50
sdg               0.00     0.00    1.00    0.00     4.00     0.00     8.00     0.00    1.00    1.00    0.00   1.00   0.10
sdh               0.00     0.00    0.00    0.00     0.00     0.00     0.00     0.00    0.00    0.00    0.00   0.00   0.00
md0               0.00     0.00 9187.00    0.00 36748.00     0.00     8.00     0.00    0.00    0.00    0.00   0.00   0.00

avg-cpu:  %user   %nice %system %iowait  %steal   %idle
           0.00    0.00    1.28    9.97    0.00   88.75

Device:         rrqm/s   wrqm/s     r/s     w/s    rkB/s    wkB/s avgrq-sz avgqu-sz   await r_await w_await  svctm  %util
sda               0.00     0.00 1561.00    0.00  6244.00     0.00     8.00     0.15    0.10    0.10    0.00   0.10  15.20
sdb               0.00     0.00 1521.00    0.00  6084.00     0.00     8.00     0.16    0.10    0.10    0.00   0.10  15.60
sdc               0.00     0.00 1472.00    0.00  5888.00     0.00     8.00     0.15    0.11    0.11    0.00   0.11  15.50
sdd               0.00     0.00 1589.00    0.00  6356.00     0.00     8.00     0.17    0.11    0.11    0.00   0.10  16.60
sde               0.00     0.00 1554.00    0.00  6216.00     0.00     8.00     0.16    0.10    0.10    0.00   0.10  16.30
sdf               0.00     0.00 1475.00    0.00  5900.00     0.00     8.00     0.16    0.11    0.11    0.00   0.11  16.20
sdg               0.00     0.00    0.00    0.00     0.00     0.00     0.00     0.00    0.00    0.00    0.00   0.00   0.00
sdh               0.00     0.00    0.00    0.00     0.00     0.00     0.00     0.00    0.00    0.00    0.00   0.00   0.00
md0               0.00     0.00 9171.00    0.00 36684.00     0.00     8.00     0.00    0.00    0.00    0.00   0.00   0.00

avg-cpu:  %user   %nice %system %iowait  %steal   %idle
           0.00    0.00    1.28    1.02    0.00   97.70

Device:         rrqm/s   wrqm/s     r/s     w/s    rkB/s    wkB/s avgrq-sz avgqu-sz   await r_await w_await  svctm  %util
sda               0.00     0.00 1537.00    0.00  6148.00     0.00     8.00     0.15    0.10    0.10    0.00   0.10  15.10
sdb               0.00     0.00 1467.00    0.00  5868.00     0.00     8.00     0.15    0.10    0.10    0.00   0.10  14.90
sdc               0.00     0.00 1592.00    0.00  6368.00     0.00     8.00     0.17    0.10    0.10    0.00   0.10  16.70
sdd               0.00     0.00 1481.00    0.00  5924.00     0.00     8.00     0.16    0.11    0.11    0.00   0.11  16.00
sde               0.00     0.00 1520.00    0.00  6080.00     0.00     8.00     0.16    0.11    0.11    0.00   0.11  16.10
sdf               0.00     0.00 1543.00    0.00  6172.00     0.00     8.00     0.16    0.10    0.10    0.00   0.10  15.80
sdg               0.00     0.00    0.00    0.00     0.00     0.00     0.00     0.00    0.00    0.00    0.00   0.00   0.00
sdh               0.00     0.00    0.00    0.00     0.00     0.00     0.00     0.00    0.00    0.00    0.00   0.00   0.00
md0               0.00     0.00 9141.00    0.00 36564.00     0.00     8.00     0.00    0.00    0.00    0.00   0.00   0.00

avg-cpu:  %user   %nice %system %iowait  %steal   %idle
           0.25    0.00    2.27    9.09    0.00   88.38

Device:         rrqm/s   wrqm/s     r/s     w/s    rkB/s    wkB/s avgrq-sz avgqu-sz   await r_await w_await  svctm  %util
sda               0.00     0.00 1557.00    0.00  6228.00     0.00     8.00     0.16    0.10    0.10    0.00   0.10  15.60
sdb               0.00     0.00 1471.00    0.00  5884.00     0.00     8.00     0.15    0.10    0.10    0.00   0.10  14.70
sdc               0.00     0.00 1574.00    0.00  6296.00     0.00     8.00     0.16    0.10    0.10    0.00   0.10  16.10
sdd               0.00     0.00 1512.00    0.00  6048.00     0.00     8.00     0.15    0.10    0.10    0.00   0.10  15.00
sde               0.00     0.00 1409.00    0.00  5636.00     0.00     8.00     0.15    0.11    0.11    0.00   0.11  15.40
sdf               0.00     0.00 1549.00    0.00  6196.00     0.00     8.00     0.16    0.10    0.10    0.00   0.10  15.70
sdg               0.00     0.00    0.00    0.00     0.00     0.00     0.00     0.00    0.00    0.00    0.00   0.00   0.00
sdh               0.00     0.00    0.00    0.00     0.00     0.00     0.00     0.00    0.00    0.00    0.00   0.00   0.00
md0               0.00     0.00 9072.00    0.00 36288.00     0.00     8.00     0.00    0.00    0.00    0.00   0.00   0.00

avg-cpu:  %user   %nice %system %iowait  %steal   %idle
           0.00    0.00    1.28    0.77    0.00   97.95

Device:         rrqm/s   wrqm/s     r/s     w/s    rkB/s    wkB/s avgrq-sz avgqu-sz   await r_await w_await  svctm  %util
sda               0.00     0.00 1545.00    0.00  6180.00     0.00     8.00     0.15    0.10    0.10    0.00   0.10  14.90
sdb               0.00     0.00 1592.00    0.00  6368.00     0.00     8.00     0.16    0.10    0.10    0.00   0.10  15.80
sdc               0.00     0.00 1546.00    0.00  6184.00     0.00     8.00     0.17    0.11    0.11    0.00   0.11  16.50
sdd               0.00     0.00 1498.00    0.00  5992.00     0.00     8.00     0.16    0.10    0.10    0.00   0.10  15.70
sde               0.00     0.00 1508.00    0.00  6032.00     0.00     8.00     0.15    0.10    0.10    0.00   0.10  15.40
sdf               0.00     0.00 1490.00    0.00  5960.00     0.00     8.00     0.16    0.11    0.11    0.00   0.11  15.70
sdg               0.00     0.00    0.00    0.00     0.00     0.00     0.00     0.00    0.00    0.00    0.00   0.00   0.00
sdh               0.00     0.00    0.00    0.00     0.00     0.00     0.00     0.00    0.00    0.00    0.00   0.00   0.00
md0               0.00     0.00 9178.00    0.00 36712.00     0.00     8.00     0.00    0.00    0.00    0.00   0.00   0.00

