Linux 4.17.2 (bench) 	08/03/2018 	_x86_64_	(4 CPU)

avg-cpu:  %user   %nice %system %iowait  %steal   %idle
          10.30    0.02    3.97    2.41    0.00   83.30

Device:         rrqm/s   wrqm/s     r/s     w/s    rkB/s    wkB/s avgrq-sz avgqu-sz   await r_await w_await  svctm  %util
sda              38.67     4.29 1590.61  103.81 20554.85  3167.95    28.00     1.02    0.60    0.26    5.91   0.06  10.45
sdb              38.57     4.25 1590.48  103.95 20544.21  3164.58    27.98     1.02    0.60    0.26    5.85   0.06  10.33
sdc              76.72     4.31 1550.25  103.50 20536.46  3167.07    28.67     1.44    0.87    0.45    7.12   0.08  13.75
sdd              70.04     4.28 1556.09  103.57 20521.09  3163.22    28.54     1.45    0.87    0.44    7.32   0.08  13.84
sde              72.12     4.32 1561.25  103.67 20581.93  3167.52    28.53     1.47    0.88    0.45    7.43   0.08  13.86
sdf              69.21     4.29 1563.42  103.61 20562.88  3164.34    28.47     1.51    0.91    0.44    7.90   0.08  13.89
sdg               0.00     3.18   25.80   73.35   321.83   391.95    14.40     0.44    4.44    0.20    5.93   0.08   0.77
sdh               0.00     0.13    0.02    0.24     2.24     5.13    56.82     0.00    1.15    0.65    1.19   0.21   0.01
md0               0.00     0.00 9783.35  486.34 140710.49 21691.67    31.63     0.00    0.00    0.00    0.00   0.00   0.00

avg-cpu:  %user   %nice %system %iowait  %steal   %idle
           4.34    0.00   23.98   26.28    0.00   45.41

Device:         rrqm/s   wrqm/s     r/s     w/s    rkB/s    wkB/s avgrq-sz avgqu-sz   await r_await w_await  svctm  %util
sda             191.00     0.00  671.00    0.00 106268.00     0.00   316.75     0.60    0.89    0.89    0.00   0.46  30.80
sdb             190.00     0.00  642.00    0.00 105724.00     0.00   329.36     0.64    0.99    0.99    0.00   0.49  31.60
sdc             189.00     0.00  572.00    0.00 105040.00     0.00   367.27     1.10    1.91    1.91    0.00   0.87  49.60
sdd             201.00     0.00  470.00    0.00 104428.00     0.00   444.37     1.06    2.23    2.23    0.00   1.04  48.70
sde             193.00     0.00  687.00    0.00 105540.00     0.00   307.25     1.21    1.75    1.75    0.00   0.72  49.20
sdf             196.00     0.00  646.00    0.00 104756.00     0.00   324.32     1.29    1.98    1.98    0.00   0.77  49.70
sdg               0.00     0.00    3.00    0.00    88.00     0.00    58.67     0.00    0.00    0.00    0.00   0.00   0.00
sdh               0.00     0.00    0.00    0.00     0.00     0.00     0.00     0.00    0.00    0.00    0.00   0.00   0.00
md0               0.00     0.00 4899.00    0.00 962284.00     0.00   392.85     0.00    0.00    0.00    0.00   0.00   0.00

avg-cpu:  %user   %nice %system %iowait  %steal   %idle
           2.26    0.00   11.53   43.36    0.00   42.86

Device:         rrqm/s   wrqm/s     r/s     w/s    rkB/s    wkB/s avgrq-sz avgqu-sz   await r_await w_await  svctm  %util
sda             327.00     0.00  576.00    0.00 177172.00     0.00   615.18     0.95    1.65    1.65    0.00   0.87  49.90
sdb             330.00     0.00  762.00    0.00 177364.00     0.00   465.52     1.07    1.40    1.40    0.00   0.67  51.20
sdc             323.00     0.00  700.00    0.00 176044.00     0.00   502.98     2.00    2.85    2.85    0.00   1.19  83.10
sdd             328.00     0.00  839.00    0.00 176124.00     0.00   419.84     2.05    2.43    2.43    0.00   0.99  83.30
sde             325.00     0.00  830.00    0.00 176004.00     0.00   424.11     2.04    2.45    2.45    0.00   1.00  83.20
sdf             322.00     0.00  815.00    0.00 176660.00     0.00   433.52     2.07    2.54    2.54    0.00   1.02  83.50
sdg               0.00     0.00    0.00    0.00     0.00     0.00     0.00     0.00    0.00    0.00    0.00   0.00   0.00
sdh               0.00     0.00    0.00    0.00     0.00     0.00     0.00     0.00    0.00    0.00    0.00   0.00   0.00
md0               0.00     0.00 6480.00    0.00 1578408.00     0.00   487.16     0.00    0.00    0.00    0.00   0.00   0.00

avg-cpu:  %user   %nice %system %iowait  %steal   %idle
           1.99    0.25   14.18   47.26    0.00   36.32

Device:         rrqm/s   wrqm/s     r/s     w/s    rkB/s    wkB/s avgrq-sz avgqu-sz   await r_await w_await  svctm  %util
sda             323.00     0.00  896.00    0.00 172624.00     0.00   385.32     1.00    1.11    1.11    0.00   0.55  49.70
sdb             318.00     0.00  873.00    0.00 173376.00     0.00   397.20     1.14    1.31    1.31    0.00   0.59  51.10
sdc             324.00     0.00  792.00    0.00 173176.00     0.00   437.31     2.14    2.71    2.71    0.00   1.03  81.20
sdd             319.00     0.00  740.00    0.00 173052.00     0.00   467.71     1.98    2.69    2.69    0.00   1.10  81.20
sde             321.00     0.00  836.00    0.00 173272.00     0.00   414.53     2.08    2.50    2.50    0.00   0.97  81.00
sdf             323.00     0.00  589.00    0.00 172556.00     0.00   585.93     1.96    3.33    3.33    0.00   1.38  81.20
sdg               0.00     0.00 3194.00    0.00 13096.00     0.00     8.20     0.39    0.12    0.12    0.00   0.12  37.90
sdh               0.00     0.00    0.00    0.00     0.00     0.00     0.00     0.00    0.00    0.00    0.00   0.00   0.00
md0               0.00     0.00 6902.00    0.00 1613024.00     0.00   467.41     0.00    0.00    0.00    0.00   0.00   0.00

avg-cpu:  %user   %nice %system %iowait  %steal   %idle
           1.98    0.00   13.12   42.33    0.00   42.57

Device:         rrqm/s   wrqm/s     r/s     w/s    rkB/s    wkB/s avgrq-sz avgqu-sz   await r_await w_await  svctm  %util
sda             335.00     0.00  731.00    0.00 180924.00     0.00   495.00     0.99    1.36    1.36    0.00   0.66  48.30
sdb             339.00     0.00  659.00    0.00 180260.00     0.00   547.07     1.01    1.54    1.54    0.00   0.78  51.30
sdc             340.00     0.00  756.00    0.00 182612.00     0.00   483.10     2.21    2.94    2.94    0.00   1.13  85.60
sdd             346.00     0.00  659.00    0.00 183268.00     0.00   556.20     2.16    3.29    3.29    0.00   1.30  85.40
sde             346.00     0.00  759.00    0.00 182536.00     0.00   480.99     2.22    2.94    2.94    0.00   1.12  85.00
sdf             338.00     0.00  885.00    0.00 182352.00     0.00   412.09     2.24    2.53    2.53    0.00   0.96  85.20
sdg               0.00     0.00    0.00    5.00     0.00   132.00    52.80     0.00    0.00    0.00    0.00   0.00   0.00
sdh               0.00     0.00    0.00    0.00     0.00     0.00     0.00     0.00    0.00    0.00    0.00   0.00   0.00
md0               0.00     0.00 6558.00    0.00 1653384.00     0.00   504.23     0.00    0.00    0.00    0.00   0.00   0.00

avg-cpu:  %user   %nice %system %iowait  %steal   %idle
           2.01    0.00   12.53   42.11    0.00   43.36

Device:         rrqm/s   wrqm/s     r/s     w/s    rkB/s    wkB/s avgrq-sz avgqu-sz   await r_await w_await  svctm  %util
sda             351.00     0.00  678.00    0.00 187448.00     0.00   552.94     1.07    1.57    1.57    0.00   0.76  51.40
sdb             351.00     0.00  670.00    0.00 187032.00     0.00   558.30     1.07    1.60    1.60    0.00   0.79  52.60
sdc             362.00     0.00  641.00    0.00 187096.00     0.00   583.76     2.36    3.68    3.68    0.00   1.35  86.70
sdd             352.00     0.00  560.00    0.00 186928.00     0.00   667.60     2.27    4.01    4.01    0.00   1.55  86.80
sde             354.00     0.00  742.00    0.00 186432.00     0.00   502.51     2.27    3.04    3.04    0.00   1.17  87.10
sdf             351.00     0.00  823.00    0.00 186088.00     0.00   452.22     2.28    2.77    2.77    0.00   1.06  87.00
sdg               0.00     0.00    0.00    0.00     0.00     0.00     0.00     0.00    0.00    0.00    0.00   0.00   0.00
sdh               0.00     0.00    0.00    0.00     0.00     0.00     0.00     0.00    0.00    0.00    0.00   0.00   0.00
md0               0.00     0.00 6257.00    0.00 1627976.00     0.00   520.37     0.00    0.00    0.00    0.00   0.00   0.00

avg-cpu:  %user   %nice %system %iowait  %steal   %idle
           2.49    0.00   12.47   42.64    0.00   42.39

Device:         rrqm/s   wrqm/s     r/s     w/s    rkB/s    wkB/s avgrq-sz avgqu-sz   await r_await w_await  svctm  %util
sda             329.00     0.00  841.00    0.00 175908.00     0.00   418.33     1.14    1.36    1.36    0.00   0.59  49.70
sdb             315.00     0.00  882.00    0.00 176540.00     0.00   400.32     1.04    1.18    1.18    0.00   0.57  50.60
sdc             329.00     0.00  865.00    0.00 174708.00     0.00   403.95     2.11    2.43    2.43    0.00   0.95  81.80
sdd             324.00     0.00  636.00    0.00 175736.00     0.00   552.63     2.01    3.17    3.17    0.00   1.29  81.90
sde             326.00     0.00  870.00    0.00 174904.00     0.00   402.08     2.02    2.31    2.31    0.00   0.94  81.70
sdf             328.00     0.00  693.00    0.00 175964.00     0.00   507.83     2.17    3.12    3.12    0.00   1.18  81.90
sdg               0.00     0.00    0.00    0.00     0.00     0.00     0.00     0.00    0.00    0.00    0.00   0.00   0.00
sdh               0.00     0.00    0.00    0.00     0.00     0.00     0.00     0.00    0.00    0.00    0.00   0.00   0.00
md0               0.00     0.00 6866.00    0.00 1592000.00     0.00   463.73     0.00    0.00    0.00    0.00   0.00   0.00

avg-cpu:  %user   %nice %system %iowait  %steal   %idle
           1.76    0.00   13.60   39.80    0.00   44.84

Device:         rrqm/s   wrqm/s     r/s     w/s    rkB/s    wkB/s avgrq-sz avgqu-sz   await r_await w_await  svctm  %util
sda             324.00     0.00  860.00    0.00 177652.00     0.00   413.14     1.02    1.19    1.19    0.00   0.59  51.00
sdb             335.00     0.00  719.00    0.00 178272.00     0.00   495.89     1.00    1.39    1.39    0.00   0.72  51.70
sdc             337.00     0.00  662.00    0.00 178020.00     0.00   537.82     1.92    2.90    2.90    0.00   1.26  83.70
sdd             334.00     0.00  792.00    0.00 177700.00     0.00   448.74     2.14    2.70    2.70    0.00   1.05  83.20
sde             335.00     0.00  780.00    0.00 177828.00     0.00   455.97     2.10    2.69    2.69    0.00   1.08  84.30
sdf             329.00     0.00  684.00    0.00 177832.00     0.00   519.98     2.03    2.98    2.98    0.00   1.24  84.70
sdg               0.00     0.00    0.00    0.00     0.00     0.00     0.00     0.00    0.00    0.00    0.00   0.00   0.00
sdh               0.00     0.00    0.00    0.00     0.00     0.00     0.00     0.00    0.00    0.00    0.00   0.00   0.00
md0               0.00     0.00 6490.00    0.00 1597776.00     0.00   492.38     0.00    0.00    0.00    0.00   0.00   0.00

avg-cpu:  %user   %nice %system %iowait  %steal   %idle
           1.77    0.00   14.65   43.18    0.00   40.40

Device:         rrqm/s   wrqm/s     r/s     w/s    rkB/s    wkB/s avgrq-sz avgqu-sz   await r_await w_await  svctm  %util
sda             341.00     0.00  642.00    0.00 180644.00     0.00   562.75     0.95    1.49    1.49    0.00   0.80  51.20
sdb             338.00     0.00  843.00    0.00 180964.00     0.00   429.33     1.09    1.29    1.29    0.00   0.64  53.60
sdc             340.00     0.00  743.00    0.00 181632.00     0.00   488.92     2.12    2.86    2.86    0.00   1.15  85.40
sdd             340.00     0.00  696.00    0.00 181436.00     0.00   521.37     2.06    2.97    2.97    0.00   1.22  85.20
sde             342.00     0.00  756.00    0.00 181316.00     0.00   479.67     2.08    2.76    2.76    0.00   1.13  85.60
sdf             334.00     0.00  856.00    0.00 180916.00     0.00   422.70     2.17    2.53    2.53    0.00   1.00  85.50
sdg               0.00     4.00   12.00 2588.00    48.00 12676.00     9.79    15.84    6.09    0.25    6.12   0.04  11.50
sdh               0.00     0.00    0.00    0.00     0.00     0.00     0.00     0.00    0.00    0.00    0.00   0.00   0.00
md0               0.00     0.00 6650.00    0.00 1538388.00     0.00   462.67     0.00    0.00    0.00    0.00   0.00   0.00

avg-cpu:  %user   %nice %system %iowait  %steal   %idle
           2.24    0.00   14.68   41.54    0.00   41.54

Device:         rrqm/s   wrqm/s     r/s     w/s    rkB/s    wkB/s avgrq-sz avgqu-sz   await r_await w_await  svctm  %util
sda             319.00     0.00  742.00    0.00 171744.00     0.00   462.92     0.87    1.17    1.17    0.00   0.63  46.70
sdb             318.00     0.00  736.00    0.00 171900.00     0.00   467.12     0.92    1.25    1.25    0.00   0.66  48.90
sdc             323.00     0.00  730.00    0.00 172524.00     0.00   472.67     1.88    2.58    2.58    0.00   1.10  80.20
sdd             328.00     0.00  649.00    0.00 172124.00     0.00   530.43     1.87    2.89    2.89    0.00   1.24  80.20
sde             321.00     0.00 1067.00    0.00 172204.00     0.00   322.78     2.04    1.92    1.92    0.00   0.75  80.40
sdf             315.00     0.00  876.00    0.00 172548.00     0.00   393.95     1.88    2.16    2.16    0.00   0.92  80.30
sdg               0.00     0.00    0.00    0.00     0.00     0.00     0.00     0.00    0.00    0.00    0.00   0.00   0.00
sdh               0.00     0.00    0.00    0.00     0.00     0.00     0.00     0.00    0.00    0.00    0.00   0.00   0.00
md0               0.00     0.00 6737.00    0.00 1514776.00     0.00   449.69     0.00    0.00    0.00    0.00   0.00   0.00

avg-cpu:  %user   %nice %system %iowait  %steal   %idle
           1.75    0.00   14.00   41.25    0.00   43.00

Device:         rrqm/s   wrqm/s     r/s     w/s    rkB/s    wkB/s avgrq-sz avgqu-sz   await r_await w_await  svctm  %util
sda             321.00     0.00  639.00    0.00 173292.00     0.00   542.38     1.03    1.62    1.62    0.00   0.75  47.80
sdb             320.00     0.00  778.00    0.00 172524.00     0.00   443.51     1.03    1.33    1.33    0.00   0.65  50.50
sdc             317.00     0.00 1027.00    0.00 172868.00     0.00   336.65     2.06    2.01    2.01    0.00   0.80  81.80
sdd             318.00     0.00  631.00    0.00 173300.00     0.00   549.29     1.90    3.02    3.02    0.00   1.29  81.60
sde             313.00     0.00  788.00    0.00 172692.00     0.00   438.30     1.97    2.51    2.51    0.00   1.03  81.50
sdf             314.00     0.00  749.00    0.00 173544.00     0.00   463.40     1.94    2.59    2.59    0.00   1.09  81.70
sdg               0.00     0.00    0.00    0.00     0.00     0.00     0.00     0.00    0.00    0.00    0.00   0.00   0.00
sdh               0.00     0.00    0.00    0.00     0.00     0.00     0.00     0.00    0.00    0.00    0.00   0.00   0.00
md0               0.00     0.00 6501.00    0.00 1569320.00     0.00   482.79     0.00    0.00    0.00    0.00   0.00   0.00

avg-cpu:  %user   %nice %system %iowait  %steal   %idle
           1.75    0.00   15.00   41.00    0.00   42.25

Device:         rrqm/s   wrqm/s     r/s     w/s    rkB/s    wkB/s avgrq-sz avgqu-sz   await r_await w_await  svctm  %util
sda             310.00     0.00  856.00    0.00 171912.00     0.00   401.66     0.92    1.07    1.07    0.00   0.57  48.60
sdb             305.00     0.00 1043.00    0.00 172488.00     0.00   330.75     1.03    0.98    0.98    0.00   0.48  49.70
sdc             310.00     0.00  745.00    0.00 173476.00     0.00   465.71     1.97    2.66    2.66    0.00   1.08  80.80
sdd             307.00     0.00  626.00    0.00 173316.00     0.00   553.73     1.91    3.06    3.06    0.00   1.30  81.20
sde             311.00     0.00  723.00    0.00 172728.00     0.00   477.81     1.91    2.66    2.66    0.00   1.11  80.50
sdf             303.00     0.00  737.00    0.00 172116.00     0.00   467.07     1.90    2.58    2.58    0.00   1.10  80.80
sdg               0.00     0.00    0.00    0.00     0.00     0.00     0.00     0.00    0.00    0.00    0.00   0.00   0.00
sdh               0.00     0.00    0.00    0.00     0.00     0.00     0.00     0.00    0.00    0.00    0.00   0.00   0.00
md0               0.00     0.00 6594.00    0.00 1515952.00     0.00   459.80     0.00    0.00    0.00    0.00   0.00   0.00

avg-cpu:  %user   %nice %system %iowait  %steal   %idle
           2.22    0.00   15.76   40.15    0.00   41.87

Device:         rrqm/s   wrqm/s     r/s     w/s    rkB/s    wkB/s avgrq-sz avgqu-sz   await r_await w_await  svctm  %util
sda             325.00     0.00  910.00    0.00 175316.00     0.00   385.31     1.05    1.15    1.15    0.00   0.55  50.00
sdb             331.00     0.00  780.00    0.00 175540.00     0.00   450.10     0.98    1.26    1.26    0.00   0.66  51.40
sdc             326.00     0.00  711.00    0.00 174488.00     0.00   490.82     2.12    2.96    2.96    0.00   1.16  82.50
sdd             323.00     0.00  904.00    0.00 174828.00     0.00   386.79     2.29    2.52    2.52    0.00   0.92  83.10
sde             333.00     0.00  636.00    0.00 174988.00     0.00   550.28     2.01    3.14    3.14    0.00   1.30  82.60
sdf             330.00     0.00  781.00    0.00 174736.00     0.00   447.47     2.08    2.65    2.65    0.00   1.05  82.20
sdg               0.00     0.00    0.00    0.00     0.00     0.00     0.00     0.00    0.00    0.00    0.00   0.00   0.00
sdh               0.00     0.00    0.00    0.00     0.00     0.00     0.00     0.00    0.00    0.00    0.00   0.00   0.00
md0               0.00     0.00 6792.00    0.00 1592008.00     0.00   468.79     0.00    0.00    0.00    0.00   0.00   0.00

avg-cpu:  %user   %nice %system %iowait  %steal   %idle
           2.02    0.25   15.62   46.60    0.00   35.52

Device:         rrqm/s   wrqm/s     r/s     w/s    rkB/s    wkB/s avgrq-sz avgqu-sz   await r_await w_await  svctm  %util
sda             331.00     0.00  782.00    0.00 178868.00     0.00   457.46     1.03    1.32    1.32    0.00   0.65  51.20
sdb             332.00     0.00  680.00    0.00 179272.00     0.00   527.27     1.02    1.51    1.51    0.00   0.75  50.80
sdc             331.00     0.00  679.00    0.00 178756.00     0.00   526.53     2.00    2.96    2.96    0.00   1.22  82.80
sdd             334.00     0.00  835.00    0.00 179256.00     0.00   429.36     2.10    2.53    2.53    0.00   1.01  84.10
sde             329.00     0.00  793.00    0.00 178944.00     0.00   451.31     2.04    2.59    2.59    0.00   1.05  82.90
sdf             336.00     0.00  698.00    0.00 179576.00     0.00   514.54     2.08    2.99    2.99    0.00   1.21  84.20
sdg               0.00     0.00 1835.00    0.00  7340.00     0.00     8.00     0.22    0.12    0.12    0.00   0.12  22.40
sdh               0.00     0.00    0.00    0.00     0.00     0.00     0.00     0.00    0.00    0.00    0.00   0.00   0.00
md0               0.00     0.00 6460.00    0.00 1569732.00     0.00   485.99     0.00    0.00    0.00    0.00   0.00   0.00

avg-cpu:  %user   %nice %system %iowait  %steal   %idle
           1.52    0.00   13.71   39.09    0.00   45.69

Device:         rrqm/s   wrqm/s     r/s     w/s    rkB/s    wkB/s avgrq-sz avgqu-sz   await r_await w_await  svctm  %util
sda             304.00     0.00  781.00    0.00 163264.00     0.00   418.09     0.93    1.19    1.19    0.00   0.59  46.00
sdb             294.00     0.00  851.00    0.00 162160.00     0.00   381.10     0.96    1.13    1.13    0.00   0.55  46.90
sdc             301.00     0.00  776.00    0.00 163040.00     0.00   420.21     1.80    2.32    2.32    0.00   0.99  76.50
sdd             294.00     0.00  856.00    0.00 162784.00     0.00   380.34     1.82    2.13    2.13    0.00   0.89  76.60
sde             298.00     0.00  963.00    0.00 162512.00     0.00   337.51     1.84    1.92    1.92    0.00   0.80  76.90
sdf             287.00     0.00  974.00    0.00 162340.00     0.00   333.35     1.86    1.91    1.91    0.00   0.79  76.60
sdg               0.00     1.00    1.00 1449.00     4.00  7356.00    10.15     8.69    5.99    1.00    5.99   0.04   6.40
sdh               0.00     0.00    0.00    0.00     0.00     0.00     0.00     0.00    0.00    0.00    0.00   0.00   0.00
md0               0.00     0.00 6985.00    0.00 1420388.00     0.00   406.70     0.00    0.00    0.00    0.00   0.00   0.00

avg-cpu:  %user   %nice %system %iowait  %steal   %idle
           1.51    0.00   14.82   39.45    0.00   44.22

Device:         rrqm/s   wrqm/s     r/s     w/s    rkB/s    wkB/s avgrq-sz avgqu-sz   await r_await w_await  svctm  %util
sda             324.00     0.00  852.00    0.00 173372.00     0.00   406.98     1.00    1.18    1.18    0.00   0.58  49.70
sdb             320.00     0.00  848.00    0.00 173984.00     0.00   410.34     1.04    1.24    1.24    0.00   0.60  50.60
sdc             319.00     0.00  720.00    0.00 172996.00     0.00   480.54     2.03    2.82    2.82    0.00   1.14  82.20
sdd             326.00     0.00  792.00    0.00 172836.00     0.00   436.45     2.04    2.57    2.57    0.00   1.03  81.80
sde             319.00     0.00  652.00    0.00 173568.00     0.00   532.42     2.00    3.07    3.07    0.00   1.25  81.40
sdf             329.00     0.00  706.00    0.00 174036.00     0.00   493.02     2.08    2.94    2.94    0.00   1.17  82.40
sdg               0.00     0.00    1.00    0.00     4.00     0.00     8.00     0.00    0.00    0.00    0.00   0.00   0.00
sdh               0.00     0.00    0.00    0.00     0.00     0.00     0.00     0.00    0.00    0.00    0.00   0.00   0.00
md0               0.00     0.00 6497.00    0.00 1527580.00     0.00   470.24     0.00    0.00    0.00    0.00   0.00   0.00

avg-cpu:  %user   %nice %system %iowait  %steal   %idle
           2.02    0.00   14.14   40.66    0.00   43.18

Device:         rrqm/s   wrqm/s     r/s     w/s    rkB/s    wkB/s avgrq-sz avgqu-sz   await r_await w_await  svctm  %util
sda             321.00     0.00  926.00    0.00 174076.00     0.00   375.97     1.08    1.16    1.16    0.00   0.54  49.80
sdb             319.00     0.00  878.00    0.00 173396.00     0.00   394.98     1.13    1.29    1.29    0.00   0.59  51.70
sdc             318.00     0.00  826.00    0.00 174080.00     0.00   421.50     2.24    2.71    2.71    0.00   1.00  82.50
sdd             324.00     0.00  696.00    0.00 173332.00     0.00   498.08     2.21    3.15    3.15    0.00   1.18  82.30
sde             323.00     0.00  815.00    0.00 173004.00     0.00   424.55     2.37    2.90    2.90    0.00   1.00  81.80
sdf             322.00     0.00  753.00    0.00 173316.00     0.00   460.33     2.23    2.96    2.96    0.00   1.09  81.90
sdg               0.00     0.00    1.00    0.00   128.00     0.00   256.00     0.00    0.00    0.00    0.00   0.00   0.00
sdh               0.00     0.00    0.00    0.00     0.00     0.00     0.00     0.00    0.00    0.00    0.00   0.00   0.00
md0               0.00     0.00 7066.00    0.00 1573640.00     0.00   445.41     0.00    0.00    0.00    0.00   0.00   0.00

avg-cpu:  %user   %nice %system %iowait  %steal   %idle
           1.77    0.00   14.90   42.17    0.00   41.16

Device:         rrqm/s   wrqm/s     r/s     w/s    rkB/s    wkB/s avgrq-sz avgqu-sz   await r_await w_await  svctm  %util
sda             328.00     0.00  838.00    0.00 177748.00     0.00   424.22     1.01    1.21    1.21    0.00   0.60  50.00
sdb             322.00     0.00  722.00    0.00 177924.00     0.00   492.86     1.03    1.43    1.43    0.00   0.71  51.50
sdc             330.00     0.00  705.00    0.00 179224.00     0.00   508.44     2.04    2.91    2.91    0.00   1.18  83.50
sdd             334.00     0.00  633.00    0.00 179568.00     0.00   567.36     2.05    3.26    3.26    0.00   1.32  83.50
sde             333.00     0.00  815.00    0.00 179000.00     0.00   439.26     2.08    2.57    2.57    0.00   1.03  84.00
sdf             326.00     0.00  796.00    0.00 178416.00     0.00   448.28     2.01    2.53    2.53    0.00   1.06  84.30
sdg               0.00     0.00    0.00    0.00     0.00     0.00     0.00     0.00    0.00    0.00    0.00   0.00   0.00
sdh               0.00     0.00    0.00    0.00     0.00     0.00     0.00     0.00    0.00    0.00    0.00   0.00   0.00
md0               0.00     0.00 6576.00    0.00 1572908.00     0.00   478.38     0.00    0.00    0.00    0.00   0.00   0.00

avg-cpu:  %user   %nice %system %iowait  %steal   %idle
           1.76    0.00   15.08   41.46    0.00   41.71

Device:         rrqm/s   wrqm/s     r/s     w/s    rkB/s    wkB/s avgrq-sz avgqu-sz   await r_await w_await  svctm  %util
sda             339.00     0.00  763.00    0.00 178352.00     0.00   467.50     0.96    1.25    1.25    0.00   0.63  48.40
sdb             333.00     0.00  765.00    0.00 178552.00     0.00   466.80     1.06    1.39    1.39    0.00   0.69  52.50
sdc             328.00     0.00  752.00    0.00 176732.00     0.00   470.03     2.10    2.79    2.79    0.00   1.11  83.60
sdd             338.00     0.00  740.00    0.00 176636.00     0.00   477.39     2.02    2.71    2.71    0.00   1.13  83.30
sde             334.00     0.00  688.00    0.00 176672.00     0.00   513.58     1.99    2.87    2.87    0.00   1.20  82.60
sdf             328.00     0.00  871.00    0.00 176656.00     0.00   405.64     2.10    2.39    2.39    0.00   0.95  83.10
sdg               0.00     0.00    0.00    0.00     0.00     0.00     0.00     0.00    0.00    0.00    0.00   0.00   0.00
sdh               0.00     0.00    0.00    0.00     0.00     0.00     0.00     0.00    0.00    0.00    0.00   0.00   0.00
md0               0.00     0.00 6625.00    0.00 1617772.00     0.00   488.38     0.00    0.00    0.00    0.00   0.00   0.00

avg-cpu:  %user   %nice %system %iowait  %steal   %idle
           1.77    0.00   13.89   38.64    0.00   45.71

Device:         rrqm/s   wrqm/s     r/s     w/s    rkB/s    wkB/s avgrq-sz avgqu-sz   await r_await w_await  svctm  %util
sda             323.00     0.00  610.00    0.00 171320.00     0.00   561.70     0.98    1.60    1.60    0.00   0.79  48.10
sdb             327.00     0.00  761.00    0.00 171440.00     0.00   450.57     1.03    1.35    1.35    0.00   0.65  49.20
sdc             319.00     0.00 1068.00    0.00 171076.00     0.00   320.37     2.06    1.93    1.93    0.00   0.76  80.80
sdd             311.00     0.00  880.00    0.00 172180.00     0.00   391.32     2.02    2.30    2.30    0.00   0.92  81.00
sde             313.00     0.00  684.00    0.00 172332.00     0.00   503.89     1.87    2.74    2.74    0.00   1.18  81.00
sdf             328.00     0.00  582.00    0.00 172844.00     0.00   593.97     1.97    3.40    3.40    0.00   1.39  81.00
sdg               0.00     0.00    0.00    0.00     0.00     0.00     0.00     0.00    0.00    0.00    0.00   0.00   0.00
sdh               0.00     0.00    0.00    0.00     0.00     0.00     0.00     0.00    0.00    0.00    0.00   0.00   0.00
md0               0.00     0.00 6530.00    0.00 1552544.00     0.00   475.51     0.00    0.00    0.00    0.00   0.00   0.00

avg-cpu:  %user   %nice %system %iowait  %steal   %idle
           2.02    0.00   14.11   41.81    0.00   42.07

Device:         rrqm/s   wrqm/s     r/s     w/s    rkB/s    wkB/s avgrq-sz avgqu-sz   await r_await w_await  svctm  %util
sda             321.00     0.00  679.00    0.00 173292.00     0.00   510.43     0.94    1.39    1.39    0.00   0.73  49.30
sdb             320.00     0.00  875.00    0.00 173324.00     0.00   396.17     1.03    1.19    1.19    0.00   0.57  49.50
sdc             313.00     0.00  797.00    0.00 173900.00     0.00   436.39     1.98    2.49    2.49    0.00   1.02  81.30
sdd             327.00     0.00  673.00    0.00 174940.00     0.00   519.88     1.88    2.81    2.81    0.00   1.21  81.20
sde             318.00     0.00  883.00    0.00 174124.00     0.00   394.39     1.97    2.24    2.24    0.00   0.93  81.70
sdf             317.00     0.00  758.00    0.00 174376.00     0.00   460.09     1.97    2.61    2.61    0.00   1.07  81.40
sdg               0.00     0.00    0.00    0.00     0.00     0.00     0.00     0.00    0.00    0.00    0.00   0.00   0.00
sdh               0.00     0.00    0.00    0.00     0.00     0.00     0.00     0.00    0.00    0.00    0.00   0.00   0.00
md0               0.00     0.00 6579.00    0.00 1502568.00     0.00   456.78     0.00    0.00    0.00    0.00   0.00   0.00

