Linux 4.17.2 (bench) 	08/03/2018 	_x86_64_	(4 CPU)

avg-cpu:  %user   %nice %system %iowait  %steal   %idle
          10.29    0.02    4.04    2.52    0.00   83.14

Device:         rrqm/s   wrqm/s     r/s     w/s    rkB/s    wkB/s avgrq-sz avgqu-sz   await r_await w_await  svctm  %util
sda              43.57     4.25 1635.90  102.94 20824.46  3141.24    27.57     1.03    0.59    0.26    5.91   0.06  10.64
sdb              43.45     4.21 1635.81  103.08 20813.86  3137.89    27.55     1.03    0.59    0.26    5.85   0.06  10.52
sdc              81.49     4.27 1595.68  102.63 20806.00  3140.36    28.20     1.45    0.85    0.45    7.12   0.08  13.97
sdd              74.87     4.24 1601.46  102.70 20790.83  3136.54    28.08     1.46    0.85    0.44    7.32   0.08  14.06
sde              76.92     4.29 1606.56  102.79 20850.97  3140.81    28.07     1.48    0.86    0.44    7.43   0.08  14.08
sdf              74.02     4.26 1608.73  102.74 20832.11  3137.66    28.01     1.52    0.89    0.44    7.90   0.08  14.11
sdg               0.00     3.17   26.14   73.32   323.32   391.97    14.38     0.44    4.42    0.20    5.93   0.08   0.78
sdh               0.00     0.13    0.02    0.24     2.22     5.08    56.82     0.00    1.15    0.65    1.19   0.21   0.01
md0               0.00     0.00 10084.98  482.24 142600.01 21508.77    31.06     0.00    0.00    0.00    0.00   0.00   0.00

avg-cpu:  %user   %nice %system %iowait  %steal   %idle
           0.51    0.00   14.47   65.23    0.00   19.80

Device:         rrqm/s   wrqm/s     r/s     w/s    rkB/s    wkB/s avgrq-sz avgqu-sz   await r_await w_await  svctm  %util
sda               0.00     0.00 9899.00    0.00 39596.00     0.00     8.00     1.01    0.10    0.10    0.00   0.07  71.50
sdb               0.00     0.00 10560.00    0.00 42240.00     0.00     8.00     1.08    0.10    0.10    0.00   0.07  70.40
sdc               0.00     0.00 10272.00    0.00 41088.00     0.00     8.00     1.16    0.11    0.11    0.00   0.07  77.00
sdd               0.00     0.00 10390.00    0.00 41560.00     0.00     8.00     1.17    0.11    0.11    0.00   0.08  78.00
sde               0.00     0.00 10366.00    0.00 41464.00     0.00     8.00     1.19    0.11    0.11    0.00   0.08  78.80
sdf               0.00     0.00 10202.00    0.00 40808.00     0.00     8.00     1.15    0.11    0.11    0.00   0.08  77.90
sdg               0.00     0.00    7.00    1.00    64.00    12.00    19.00     0.01    0.62    0.71    0.00   0.62   0.50
sdh               0.00     0.00    0.00    0.00     0.00     0.00     0.00     0.00    0.00    0.00    0.00   0.00   0.00
md0               0.00     0.00 61695.00    0.00 246780.00     0.00     8.00     0.00    0.00    0.00    0.00   0.00   0.00

avg-cpu:  %user   %nice %system %iowait  %steal   %idle
           0.26    0.00   14.32   65.47    0.00   19.95

Device:         rrqm/s   wrqm/s     r/s     w/s    rkB/s    wkB/s avgrq-sz avgqu-sz   await r_await w_await  svctm  %util
sda               0.00     0.00 10346.00    0.00 41384.00     0.00     8.00     1.09    0.11    0.11    0.00   0.07  75.40
sdb               0.00     0.00 10332.00    0.00 41328.00     0.00     8.00     1.06    0.10    0.10    0.00   0.07  73.30
sdc               0.00     0.00 10345.00    0.00 41380.00     0.00     8.00     1.21    0.12    0.12    0.00   0.08  79.30
sdd               0.00     0.00 10472.00    0.00 41888.00     0.00     8.00     1.20    0.11    0.11    0.00   0.08  79.90
sde               0.00     0.00 10397.00    0.00 41588.00     0.00     8.00     1.22    0.12    0.12    0.00   0.08  80.30
sdf               0.00     0.00 10513.00    0.00 42052.00     0.00     8.00     1.20    0.11    0.11    0.00   0.08  80.70
sdg               0.00     0.00    0.00    0.00     0.00     0.00     0.00     0.00    0.00    0.00    0.00   0.00   0.00
sdh               0.00     0.00    0.00    0.00     0.00     0.00     0.00     0.00    0.00    0.00    0.00   0.00   0.00
md0               0.00     0.00 62414.00    0.00 249656.00     0.00     8.00     0.00    0.00    0.00    0.00   0.00   0.00

avg-cpu:  %user   %nice %system %iowait  %steal   %idle
           0.26    0.00   14.54   66.07    0.00   19.13

Device:         rrqm/s   wrqm/s     r/s     w/s    rkB/s    wkB/s avgrq-sz avgqu-sz   await r_await w_await  svctm  %util
sda               0.00     0.00 10400.00    0.00 41600.00     0.00     8.00     1.07    0.10    0.10    0.00   0.07  74.20
sdb               0.00     0.00 10700.00    0.00 42800.00     0.00     8.00     1.07    0.10    0.10    0.00   0.06  69.30
sdc               0.00     0.00 10345.00    0.00 41380.00     0.00     8.00     1.15    0.11    0.11    0.00   0.07  76.00
sdd               0.00     0.00 10313.00    0.00 41252.00     0.00     8.00     1.15    0.11    0.11    0.00   0.08  78.90
sde               0.00     0.00 10401.00    0.00 41604.00     0.00     8.00     1.18    0.11    0.11    0.00   0.08  79.40
sdf               0.00     0.00 10557.00    0.00 42228.00     0.00     8.00     1.17    0.11    0.11    0.00   0.07  77.90
sdg               0.00     0.00    0.00    0.00     0.00     0.00     0.00     0.00    0.00    0.00    0.00   0.00   0.00
sdh               0.00     0.00    0.00    0.00     0.00     0.00     0.00     0.00    0.00    0.00    0.00   0.00   0.00
md0               0.00     0.00 62714.00    0.00 250856.00     0.00     8.00     0.00    0.00    0.00    0.00   0.00   0.00

avg-cpu:  %user   %nice %system %iowait  %steal   %idle
           1.00    0.00   15.42   63.68    0.00   19.90

Device:         rrqm/s   wrqm/s     r/s     w/s    rkB/s    wkB/s avgrq-sz avgqu-sz   await r_await w_await  svctm  %util
sda               0.00     0.00 10398.00    0.00 41592.00     0.00     8.00     1.04    0.10    0.10    0.00   0.07  71.40
sdb               0.00     0.00 10488.00    0.00 41952.00     0.00     8.00     1.04    0.10    0.10    0.00   0.07  70.00
sdc               0.00     0.00 10433.00    0.00 41732.00     0.00     8.00     1.14    0.11    0.11    0.00   0.07  75.70
sdd               0.00     0.00 10325.00    0.00 41300.00     0.00     8.00     1.16    0.11    0.11    0.00   0.08  78.10
sde               0.00     0.00 10335.00    0.00 41340.00     0.00     8.00     1.15    0.11    0.11    0.00   0.07  77.50
sdf               0.00     0.00 10288.00    0.00 41152.00     0.00     8.00     1.17    0.11    0.11    0.00   0.08  78.00
sdg               0.00     0.00    0.00    0.00     0.00     0.00     0.00     0.00    0.00    0.00    0.00   0.00   0.00
sdh               0.00     0.00    0.00    0.00     0.00     0.00     0.00     0.00    0.00    0.00    0.00   0.00   0.00
md0               0.00     0.00 62262.00    0.00 249048.00     0.00     8.00     0.00    0.00    0.00    0.00   0.00   0.00

avg-cpu:  %user   %nice %system %iowait  %steal   %idle
           0.51    0.00   14.72   64.47    0.00   20.30

Device:         rrqm/s   wrqm/s     r/s     w/s    rkB/s    wkB/s avgrq-sz avgqu-sz   await r_await w_await  svctm  %util
sda               0.00     0.00 10364.00    0.00 41456.00     0.00     8.00     1.07    0.10    0.10    0.00   0.07  75.20
sdb               0.00     0.00 10469.00    0.00 41876.00     0.00     8.00     1.08    0.10    0.10    0.00   0.07  72.20
sdc               0.00     0.00 10495.00    0.00 41980.00     0.00     8.00     1.21    0.11    0.11    0.00   0.07  77.50
sdd               0.00     0.00 10181.00    0.00 40724.00     0.00     8.00     1.17    0.12    0.12    0.00   0.08  78.70
sde               0.00     0.00 10458.00    0.00 41832.00     0.00     8.00     1.20    0.11    0.11    0.00   0.08  79.40
sdf               0.00     0.00 10228.00    0.00 40912.00     0.00     8.00     1.18    0.11    0.11    0.00   0.08  79.70
sdg               0.00     0.00    0.00    0.00     0.00     0.00     0.00     0.00    0.00    0.00    0.00   0.00   0.00
sdh               0.00     0.00    0.00    0.00     0.00     0.00     0.00     0.00    0.00    0.00    0.00   0.00   0.00
md0               0.00     0.00 62200.00    0.00 248800.00     0.00     8.00     0.00    0.00    0.00    0.00   0.00   0.00

avg-cpu:  %user   %nice %system %iowait  %steal   %idle
           0.76    0.25   14.47   64.47    0.00   20.05

Device:         rrqm/s   wrqm/s     r/s     w/s    rkB/s    wkB/s avgrq-sz avgqu-sz   await r_await w_await  svctm  %util
sda               0.00     0.00 10295.00    0.00 41180.00     0.00     8.00     1.05    0.10    0.10    0.00   0.07  73.40
sdb               0.00     0.00 10169.00    0.00 40676.00     0.00     8.00     1.05    0.10    0.10    0.00   0.07  71.90
sdc               0.00     0.00 10287.00    0.00 41148.00     0.00     8.00     1.17    0.11    0.11    0.00   0.07  76.20
sdd               0.00     0.00 10581.00    0.00 42324.00     0.00     8.00     1.22    0.12    0.12    0.00   0.08  80.80
sde               0.00     0.00 10438.00    0.00 41752.00     0.00     8.00     1.18    0.11    0.11    0.00   0.08  78.40
sdf               0.00     0.00 10139.00    0.00 40556.00     0.00     8.00     1.18    0.12    0.12    0.00   0.08  78.30
sdg               0.00     0.00   26.00    0.00   212.00     0.00    16.31     0.00    0.08    0.08    0.00   0.08   0.20
sdh               0.00     0.00    0.00    0.00     0.00     0.00     0.00     0.00    0.00    0.00    0.00   0.00   0.00
md0               0.00     0.00 61911.00    0.00 247644.00     0.00     8.00     0.00    0.00    0.00    0.00   0.00   0.00

avg-cpu:  %user   %nice %system %iowait  %steal   %idle
           0.51    0.00   14.07   64.96    0.00   20.46

Device:         rrqm/s   wrqm/s     r/s     w/s    rkB/s    wkB/s avgrq-sz avgqu-sz   await r_await w_await  svctm  %util
sda               0.00     0.00 10288.00    0.00 41152.00     0.00     8.00     1.09    0.11    0.11    0.00   0.07  74.50
sdb               0.00     0.00 10304.00    0.00 41216.00     0.00     8.00     1.06    0.10    0.10    0.00   0.07  70.70
sdc               0.00     0.00 10335.00    0.00 41340.00     0.00     8.00     1.17    0.11    0.11    0.00   0.07  77.10
sdd               0.00     0.00 10024.00    0.00 40096.00     0.00     8.00     1.16    0.12    0.12    0.00   0.08  79.60
sde               0.00     0.00 10395.00    0.00 41580.00     0.00     8.00     1.20    0.12    0.12    0.00   0.08  79.50
sdf               0.00     0.00 10543.00    0.00 42172.00     0.00     8.00     1.24    0.12    0.12    0.00   0.08  80.50
sdg               0.00     0.00    0.00    0.00     0.00     0.00     0.00     0.00    0.00    0.00    0.00   0.00   0.00
sdh               0.00     0.00    0.00    0.00     0.00     0.00     0.00     0.00    0.00    0.00    0.00   0.00   0.00
md0               0.00     0.00 61876.00    0.00 247504.00     0.00     8.00     0.00    0.00    0.00    0.00   0.00   0.00

avg-cpu:  %user   %nice %system %iowait  %steal   %idle
           0.77    0.00   13.81   65.47    0.00   19.95

Device:         rrqm/s   wrqm/s     r/s     w/s    rkB/s    wkB/s avgrq-sz avgqu-sz   await r_await w_await  svctm  %util
sda               0.00     0.00 10541.00    0.00 42164.00     0.00     8.00     1.07    0.10    0.10    0.00   0.07  71.90
sdb               0.00     0.00 10172.00    0.00 40688.00     0.00     8.00     1.01    0.10    0.10    0.00   0.07  69.20
sdc               0.00     0.00 10371.00    0.00 41484.00     0.00     8.00     1.16    0.11    0.11    0.00   0.07  74.50
sdd               0.00     0.00 10136.00    0.00 40544.00     0.00     8.00     1.12    0.11    0.11    0.00   0.07  75.00
sde               0.00     0.00 10395.00    0.00 41580.00     0.00     8.00     1.16    0.11    0.11    0.00   0.07  76.00
sdf               0.00     0.00 10425.00    0.00 41700.00     0.00     8.00     1.18    0.11    0.11    0.00   0.08  79.70
sdg               0.00     0.00    0.00    0.00     0.00     0.00     0.00     0.00    0.00    0.00    0.00   0.00   0.00
sdh               0.00     0.00    0.00    0.00     0.00     0.00     0.00     0.00    0.00    0.00    0.00   0.00   0.00
md0               0.00     0.00 62049.00    0.00 248196.00     0.00     8.00     0.00    0.00    0.00    0.00   0.00   0.00

avg-cpu:  %user   %nice %system %iowait  %steal   %idle
           0.51    0.00   14.25   65.39    0.00   19.85

Device:         rrqm/s   wrqm/s     r/s     w/s    rkB/s    wkB/s avgrq-sz avgqu-sz   await r_await w_await  svctm  %util
sda               0.00     0.00 10507.00    0.00 42028.00     0.00     8.00     1.05    0.10    0.10    0.00   0.07  72.10
sdb               0.00     0.00 10387.00    0.00 41548.00     0.00     8.00     1.01    0.10    0.10    0.00   0.07  67.90
sdc               0.00     0.00 10222.00    0.00 40888.00     0.00     8.00     1.11    0.11    0.11    0.00   0.07  73.60
sdd               0.00     0.00 10561.00    0.00 42244.00     0.00     8.00     1.17    0.11    0.11    0.00   0.07  76.40
sde               0.00     0.00 10340.00    0.00 41360.00     0.00     8.00     1.14    0.11    0.11    0.00   0.07  74.70
sdf               0.00     0.00 10421.00    0.00 41684.00     0.00     8.00     1.15    0.11    0.11    0.00   0.08  78.20
sdg               0.00     0.00    0.00    0.00     0.00     0.00     0.00     0.00    0.00    0.00    0.00   0.00   0.00
sdh               0.00     0.00    0.00    0.00     0.00     0.00     0.00     0.00    0.00    0.00    0.00   0.00   0.00
md0               0.00     0.00 62441.00    0.00 249764.00     0.00     8.00     0.00    0.00    0.00    0.00   0.00   0.00

avg-cpu:  %user   %nice %system %iowait  %steal   %idle
           0.51    0.00   13.88   65.55    0.00   20.05

Device:         rrqm/s   wrqm/s     r/s     w/s    rkB/s    wkB/s avgrq-sz avgqu-sz   await r_await w_await  svctm  %util
sda               0.00     0.00 10475.00    0.00 41900.00     0.00     8.00     1.07    0.10    0.10    0.00   0.07  72.70
sdb               0.00     0.00 10354.00    0.00 41416.00     0.00     8.00     1.07    0.10    0.10    0.00   0.07  71.50
sdc               0.00     0.00 10198.00    0.00 40792.00     0.00     8.00     1.15    0.11    0.11    0.00   0.08  76.80
sdd               0.00     0.00 10197.00    0.00 40788.00     0.00     8.00     1.17    0.11    0.11    0.00   0.08  79.40
sde               0.00     0.00 10578.00    0.00 42312.00     0.00     8.00     1.20    0.11    0.11    0.00   0.08  79.90
sdf               0.00     0.00 10422.00    0.00 41688.00     0.00     8.00     1.21    0.12    0.12    0.00   0.08  79.60
sdg               0.00     0.00   15.00    0.00   292.00     0.00    38.93     0.00    0.20    0.20    0.00   0.20   0.30
sdh               0.00     0.00    0.00    0.00     0.00     0.00     0.00     0.00    0.00    0.00    0.00   0.00   0.00
md0               0.00     0.00 62224.00    0.00 248896.00     0.00     8.00     0.00    0.00    0.00    0.00   0.00   0.00

avg-cpu:  %user   %nice %system %iowait  %steal   %idle
           0.76    0.00   13.99   66.41    0.00   18.83

Device:         rrqm/s   wrqm/s     r/s     w/s    rkB/s    wkB/s avgrq-sz avgqu-sz   await r_await w_await  svctm  %util
sda               0.00     0.00 10357.00    0.00 41428.00     0.00     8.00     1.07    0.10    0.10    0.00   0.07  72.40
sdb               0.00     0.00 10368.00    0.00 41472.00     0.00     8.00     1.01    0.10    0.10    0.00   0.07  68.40
sdc               0.00     0.00 10624.00    0.00 42496.00     0.00     8.00     1.21    0.11    0.11    0.00   0.07  76.70
sdd               0.00     0.00 10380.00    0.00 41520.00     0.00     8.00     1.19    0.11    0.11    0.00   0.07  77.80
sde               0.00     0.00 10214.00    0.00 40856.00     0.00     8.00     1.19    0.12    0.12    0.00   0.08  77.50
sdf               0.00     0.00 10178.00    0.00 40712.00     0.00     8.00     1.16    0.11    0.11    0.00   0.08  77.30
sdg               0.00     0.00    0.00    0.00     0.00     0.00     0.00     0.00    0.00    0.00    0.00   0.00   0.00
sdh               0.00     0.00    0.00    0.00     0.00     0.00     0.00     0.00    0.00    0.00    0.00   0.00   0.00
md0               0.00     0.00 62115.00    0.00 248460.00     0.00     8.00     0.00    0.00    0.00    0.00   0.00   0.00

avg-cpu:  %user   %nice %system %iowait  %steal   %idle
           0.25    0.00   15.19   65.06    0.00   19.49

Device:         rrqm/s   wrqm/s     r/s     w/s    rkB/s    wkB/s avgrq-sz avgqu-sz   await r_await w_await  svctm  %util
sda               0.00     0.00 10380.00    0.00 41520.00     0.00     8.00     1.05    0.10    0.10    0.00   0.07  73.10
sdb               0.00     0.00 10567.00    0.00 42268.00     0.00     8.00     1.06    0.10    0.10    0.00   0.07  71.00
sdc               0.00     0.00 10424.00    0.00 41696.00     0.00     8.00     1.17    0.11    0.11    0.00   0.07  76.40
sdd               0.00     0.00 10376.00    0.00 41504.00     0.00     8.00     1.17    0.11    0.11    0.00   0.08  79.50
sde               0.00     0.00 10264.00    0.00 41056.00     0.00     8.00     1.15    0.11    0.11    0.00   0.07  76.50
sdf               0.00     0.00 10499.00    0.00 41996.00     0.00     8.00     1.17    0.11    0.11    0.00   0.07  78.40
sdg               0.00     0.00    0.00    0.00     0.00     0.00     0.00     0.00    0.00    0.00    0.00   0.00   0.00
sdh               0.00     0.00    0.00    0.00     0.00     0.00     0.00     0.00    0.00    0.00    0.00   0.00   0.00
md0               0.00     0.00 62517.00    0.00 250068.00     0.00     8.00     0.00    0.00    0.00    0.00   0.00   0.00

avg-cpu:  %user   %nice %system %iowait  %steal   %idle
           0.76    0.00   14.47   64.47    0.00   20.30

Device:         rrqm/s   wrqm/s     r/s     w/s    rkB/s    wkB/s avgrq-sz avgqu-sz   await r_await w_await  svctm  %util
sda               0.00     0.00 10501.00    0.00 42004.00     0.00     8.00     1.11    0.11    0.11    0.00   0.07  75.80
sdb               0.00     0.00 10512.00    0.00 42048.00     0.00     8.00     1.10    0.11    0.11    0.00   0.07  74.30
sdc               0.00     0.00 10520.00    0.00 42080.00     0.00     8.00     1.21    0.12    0.12    0.00   0.08  80.10
sdd               0.00     0.00 10360.00    0.00 41440.00     0.00     8.00     1.15    0.11    0.11    0.00   0.08  78.20
sde               0.00     0.00 10606.00    0.00 42424.00     0.00     8.00     1.21    0.11    0.11    0.00   0.07  79.50
sdf               0.00     0.00 10678.00    0.00 42712.00     0.00     8.00     1.22    0.11    0.11    0.00   0.07  79.50
sdg               0.00     0.00    0.00    0.00     0.00     0.00     0.00     0.00    0.00    0.00    0.00   0.00   0.00
sdh               0.00     0.00    0.00    0.00     0.00     0.00     0.00     0.00    0.00    0.00    0.00   0.00   0.00
md0               0.00     0.00 63175.00    0.00 252700.00     0.00     8.00     0.00    0.00    0.00    0.00   0.00   0.00

avg-cpu:  %user   %nice %system %iowait  %steal   %idle
           0.50    0.00   15.58   65.08    0.00   18.84

Device:         rrqm/s   wrqm/s     r/s     w/s    rkB/s    wkB/s avgrq-sz avgqu-sz   await r_await w_await  svctm  %util
sda               0.00     0.00 10460.00    0.00 41840.00     0.00     8.00     1.10    0.11    0.11    0.00   0.07  74.30
sdb               0.00     0.00 10431.00    0.00 41724.00     0.00     8.00     1.05    0.10    0.10    0.00   0.07  71.80
sdc               0.00     0.00 10561.00    0.00 42244.00     0.00     8.00     1.19    0.11    0.11    0.00   0.07  78.00
sdd               0.00     0.00 10590.00    0.00 42360.00     0.00     8.00     1.21    0.11    0.11    0.00   0.08  80.10
sde               0.00     0.00 10844.00    0.00 43376.00     0.00     8.00     1.21    0.11    0.11    0.00   0.07  80.00
sdf               0.00     0.00 10588.00    0.00 42352.00     0.00     8.00     1.21    0.11    0.11    0.00   0.08  80.00
sdg               0.00     1.00    8.00    2.00    32.00    36.00    13.60     0.01    0.90    0.12    4.00   0.90   0.90
sdh               0.00     0.00    0.00    0.00     0.00     0.00     0.00     0.00    0.00    0.00    0.00   0.00   0.00
md0               0.00     0.00 63474.00    0.00 253896.00     0.00     8.00     0.00    0.00    0.00    0.00   0.00   0.00

avg-cpu:  %user   %nice %system %iowait  %steal   %idle
           0.51    0.00   13.33   65.13    0.00   21.03

Device:         rrqm/s   wrqm/s     r/s     w/s    rkB/s    wkB/s avgrq-sz avgqu-sz   await r_await w_await  svctm  %util
sda               0.00     0.00 10256.00    0.00 41024.00     0.00     8.00     1.06    0.10    0.10    0.00   0.07  73.10
sdb               0.00     0.00 10486.00    0.00 41944.00     0.00     8.00     1.11    0.11    0.11    0.00   0.07  72.50
sdc               0.00     0.00 10697.00    0.00 42788.00     0.00     8.00     1.22    0.11    0.11    0.00   0.07  78.20
sdd               0.00     0.00 10679.00    0.00 42716.00     0.00     8.00     1.22    0.11    0.11    0.00   0.08  80.20
sde               0.00     0.00 10257.00    0.00 41028.00     0.00     8.00     1.16    0.11    0.11    0.00   0.08  78.30
sdf               0.00     0.00 10598.00    0.00 42392.00     0.00     8.00     1.22    0.12    0.12    0.00   0.08  79.90
sdg               0.00     0.00    0.00    0.00     0.00     0.00     0.00     0.00    0.00    0.00    0.00   0.00   0.00
sdh               0.00     0.00    0.00    0.00     0.00     0.00     0.00     0.00    0.00    0.00    0.00   0.00   0.00
md0               0.00     0.00 62971.00    0.00 251884.00     0.00     8.00     0.00    0.00    0.00    0.00   0.00   0.00

avg-cpu:  %user   %nice %system %iowait  %steal   %idle
           0.52    0.00   13.44   66.15    0.00   19.90

Device:         rrqm/s   wrqm/s     r/s     w/s    rkB/s    wkB/s avgrq-sz avgqu-sz   await r_await w_await  svctm  %util
sda               0.00     0.00 10207.00    0.00 40828.00     0.00     8.00     1.06    0.10    0.10    0.00   0.07  73.80
sdb               0.00     0.00 10617.00    0.00 42468.00     0.00     8.00     1.10    0.10    0.10    0.00   0.07  73.10
sdc               0.00     0.00 10316.00    0.00 41264.00     0.00     8.00     1.17    0.11    0.11    0.00   0.07  76.60
sdd               0.00     0.00 10379.00    0.00 41516.00     0.00     8.00     1.18    0.11    0.11    0.00   0.08  79.10
sde               0.00     0.00 10435.00    0.00 41740.00     0.00     8.00     1.17    0.11    0.11    0.00   0.08  78.90
sdf               0.00     0.00 10600.00    0.00 42400.00     0.00     8.00     1.21    0.11    0.11    0.00   0.08  80.10
sdg               0.00     0.00    4.00    0.00    16.00     0.00     8.00     0.00    0.00    0.00    0.00   0.00   0.00
sdh               0.00     0.00    0.00    0.00     0.00     0.00     0.00     0.00    0.00    0.00    0.00   0.00   0.00
md0               0.00     0.00 62557.00    0.00 250228.00     0.00     8.00     0.00    0.00    0.00    0.00   0.00   0.00

avg-cpu:  %user   %nice %system %iowait  %steal   %idle
           0.51    0.00   13.59   66.41    0.00   19.49

Device:         rrqm/s   wrqm/s     r/s     w/s    rkB/s    wkB/s avgrq-sz avgqu-sz   await r_await w_await  svctm  %util
sda               0.00     0.00 10452.00    0.00 41808.00     0.00     8.00     1.03    0.10    0.10    0.00   0.07  71.10
sdb               0.00     0.00 10609.00    0.00 42436.00     0.00     8.00     1.03    0.10    0.10    0.00   0.06  67.90
sdc               0.00     0.00 10357.00    0.00 41428.00     0.00     8.00     1.11    0.11    0.11    0.00   0.07  74.70
sdd               0.00     0.00 10685.00    0.00 42740.00     0.00     8.00     1.19    0.11    0.11    0.00   0.07  79.20
sde               0.00     0.00 10552.00    0.00 42208.00     0.00     8.00     1.18    0.11    0.11    0.00   0.07  77.50
sdf               0.00     0.00 10456.00    0.00 41824.00     0.00     8.00     1.14    0.11    0.11    0.00   0.07  77.60
sdg               0.00     0.00    0.00    0.00     0.00     0.00     0.00     0.00    0.00    0.00    0.00   0.00   0.00
sdh               0.00     0.00    0.00    0.00     0.00     0.00     0.00     0.00    0.00    0.00    0.00   0.00   0.00
md0               0.00     0.00 63111.00    0.00 252444.00     0.00     8.00     0.00    0.00    0.00    0.00   0.00   0.00

avg-cpu:  %user   %nice %system %iowait  %steal   %idle
           0.51    0.00   14.03   66.58    0.00   18.88

Device:         rrqm/s   wrqm/s     r/s     w/s    rkB/s    wkB/s avgrq-sz avgqu-sz   await r_await w_await  svctm  %util
sda               0.00     0.00 10729.00    0.00 42916.00     0.00     8.00     1.08    0.10    0.10    0.00   0.07  73.10
sdb               0.00     0.00 10576.00    0.00 42304.00     0.00     8.00     1.05    0.10    0.10    0.00   0.07  71.00
sdc               0.00     0.00 10451.00    0.00 41804.00     0.00     8.00     1.16    0.11    0.11    0.00   0.07  77.40
sdd               0.00     0.00 10577.00    0.00 42308.00     0.00     8.00     1.20    0.11    0.11    0.00   0.08  80.50
sde               0.00     0.00 10565.00    0.00 42260.00     0.00     8.00     1.19    0.11    0.11    0.00   0.07  78.40
sdf               0.00     0.00 10352.00    0.00 41408.00     0.00     8.00     1.17    0.11    0.11    0.00   0.08  78.80
sdg               0.00     0.00    0.00    0.00     0.00     0.00     0.00     0.00    0.00    0.00    0.00   0.00   0.00
sdh               0.00     0.00    0.00    0.00     0.00     0.00     0.00     0.00    0.00    0.00    0.00   0.00   0.00
md0               0.00     0.00 63251.00    0.00 253004.00     0.00     8.00     0.00    0.00    0.00    0.00   0.00   0.00

avg-cpu:  %user   %nice %system %iowait  %steal   %idle
           0.76    0.00   13.99   65.39    0.00   19.85

Device:         rrqm/s   wrqm/s     r/s     w/s    rkB/s    wkB/s avgrq-sz avgqu-sz   await r_await w_await  svctm  %util
sda               0.00     0.00 10601.00    0.00 42404.00     0.00     8.00     1.08    0.10    0.10    0.00   0.07  72.10
sdb               0.00     0.00 10440.00    0.00 41760.00     0.00     8.00     1.04    0.10    0.10    0.00   0.07  69.60
sdc               0.00     0.00 10448.00    0.00 41792.00     0.00     8.00     1.14    0.11    0.11    0.00   0.07  76.70
sdd               0.00     0.00 10477.00    0.00 41908.00     0.00     8.00     1.15    0.11    0.11    0.00   0.07  76.80
sde               0.00     0.00 10388.00    0.00 41552.00     0.00     8.00     1.17    0.11    0.11    0.00   0.07  76.90
sdf               0.00     0.00 10290.00    0.00 41160.00     0.00     8.00     1.12    0.11    0.11    0.00   0.07  76.30
sdg               0.00     0.00    0.00    0.00     0.00     0.00     0.00     0.00    0.00    0.00    0.00   0.00   0.00
sdh               0.00     0.00    0.00    0.00     0.00     0.00     0.00     0.00    0.00    0.00    0.00   0.00   0.00
md0               0.00     0.00 62639.00    0.00 250556.00     0.00     8.00     0.00    0.00    0.00    0.00   0.00   0.00

avg-cpu:  %user   %nice %system %iowait  %steal   %idle
           0.51    0.00   13.99   64.63    0.00   20.87

Device:         rrqm/s   wrqm/s     r/s     w/s    rkB/s    wkB/s avgrq-sz avgqu-sz   await r_await w_await  svctm  %util
sda               0.00     0.00 10368.00    0.00 41472.00     0.00     8.00     1.07    0.10    0.10    0.00   0.07  74.80
sdb               0.00     0.00 10113.00    0.00 40452.00     0.00     8.00     1.07    0.11    0.11    0.00   0.07  71.10
sdc               0.00     0.00 10165.00    0.00 40660.00     0.00     8.00     1.19    0.12    0.12    0.00   0.08  78.90
sdd               0.00     0.00 10228.00    0.00 40912.00     0.00     8.00     1.19    0.12    0.12    0.00   0.08  78.10
sde               0.00     0.00 10423.00    0.00 41692.00     0.00     8.00     1.20    0.12    0.12    0.00   0.08  79.60
sdf               0.00     0.00 10268.00    0.00 41072.00     0.00     8.00     1.23    0.12    0.12    0.00   0.08  82.90
sdg               0.00     0.00    0.00    0.00     0.00     0.00     0.00     0.00    0.00    0.00    0.00   0.00   0.00
sdh               0.00     0.00    0.00    0.00     0.00     0.00     0.00     0.00    0.00    0.00    0.00   0.00   0.00
md0               0.00     0.00 61556.00    0.00 246224.00     0.00     8.00     0.00    0.00    0.00    0.00   0.00   0.00

