Linux 4.17.2 (bench) 	08/03/2018 	_x86_64_	(4 CPU)

avg-cpu:  %user   %nice %system %iowait  %steal   %idle
          10.30    0.02    3.96    2.41    0.00   83.31

Device:         rrqm/s   wrqm/s     r/s     w/s    rkB/s    wkB/s avgrq-sz avgqu-sz   await r_await w_await  svctm  %util
sda              38.65     4.29 1588.44  103.88 20529.03  3169.90    28.01     1.02    0.60    0.26    5.91   0.06  10.44
sdb              38.56     4.25 1588.31  104.02 20518.34  3166.52    27.99     1.02    0.60    0.26    5.85   0.06  10.32
sdc              76.73     4.31 1548.06  103.56 20510.61  3169.01    28.67     1.44    0.87    0.45    7.12   0.08  13.73
sdd              70.05     4.28 1553.91  103.63 20495.21  3165.16    28.55     1.45    0.87    0.44    7.32   0.08  13.82
sde              72.13     4.32 1559.07  103.73 20556.14  3169.46    28.54     1.47    0.88    0.45    7.43   0.08  13.84
sdf              69.21     4.30 1561.25  103.67 20537.09  3166.28    28.47     1.51    0.91    0.44    7.90   0.08  13.88
sdg               0.00     3.18   25.77   73.35   321.72   391.95    14.40     0.44    4.44    0.20    5.93   0.08   0.77
sdh               0.00     0.13    0.02    0.24     2.24     5.13    56.82     0.00    1.15    0.65    1.19   0.21   0.01
md0               0.00     0.00 9770.28  486.64 140505.37 21705.00    31.63     0.00    0.00    0.00    0.00   0.00   0.00

avg-cpu:  %user   %nice %system %iowait  %steal   %idle
           4.05    0.25   25.06    2.53    0.00   68.10

Device:         rrqm/s   wrqm/s     r/s     w/s    rkB/s    wkB/s avgrq-sz avgqu-sz   await r_await w_await  svctm  %util
sda               0.00     0.00 15732.00    0.00 62928.00     0.00     8.00     2.21    0.14    0.14    0.00   0.04  59.50
sdb               0.00     0.00 15733.00    0.00 62932.00     0.00     8.00     2.22    0.14    0.14    0.00   0.04  58.60
sdc               0.00     0.00 15780.00    0.00 63120.00     0.00     8.00     2.44    0.15    0.15    0.00   0.04  62.30
sdd               0.00     0.00 15576.00    0.00 62304.00     0.00     8.00     2.36    0.15    0.15    0.00   0.04  63.30
sde               0.00     0.00 15557.00    0.00 62228.00     0.00     8.00     2.41    0.16    0.16    0.00   0.04  63.40
sdf               0.00     0.00 15905.00    0.00 63620.00     0.00     8.00     2.47    0.16    0.16    0.00   0.04  64.00
sdg               0.00    80.00   22.00 1309.00   260.00  6780.00    10.58     7.90    5.93    0.14    6.03   0.05   6.30
sdh               0.00     0.00    0.00    0.00     0.00     0.00     0.00     0.00    0.00    0.00    0.00   0.00   0.00
md0               0.00     0.00 94310.00    0.00 377240.00     0.00     8.00     0.00    0.00    0.00    0.00   0.00   0.00

avg-cpu:  %user   %nice %system %iowait  %steal   %idle
           4.23    0.00   25.12    1.99    0.00   68.66

Device:         rrqm/s   wrqm/s     r/s     w/s    rkB/s    wkB/s avgrq-sz avgqu-sz   await r_await w_await  svctm  %util
sda               0.00     0.00 15394.00    0.00 61576.00     0.00     8.00     2.07    0.13    0.13    0.00   0.04  56.50
sdb               0.00     0.00 15553.00    0.00 62212.00     0.00     8.00     2.02    0.13    0.13    0.00   0.04  56.80
sdc               0.00     0.00 15382.00    0.00 61528.00     0.00     8.00     2.26    0.15    0.15    0.00   0.04  62.60
sdd               0.00     0.00 15324.00    0.00 61296.00     0.00     8.00     2.28    0.15    0.15    0.00   0.04  61.70
sde               0.00     0.00 15397.00    0.00 61588.00     0.00     8.00     2.20    0.14    0.14    0.00   0.04  61.90
sdf               0.00     0.00 15353.00    0.00 61412.00     0.00     8.00     2.20    0.14    0.14    0.00   0.04  60.10
sdg               0.00     0.00    0.00    0.00     0.00     0.00     0.00     0.00    0.00    0.00    0.00   0.00   0.00
sdh               0.00     0.00    0.00    0.00     0.00     0.00     0.00     0.00    0.00    0.00    0.00   0.00   0.00
md0               0.00     0.00 92402.00    0.00 369608.00     0.00     8.00     0.00    0.00    0.00    0.00   0.00   0.00

avg-cpu:  %user   %nice %system %iowait  %steal   %idle
           4.25    0.00   24.75    2.00    0.00   69.00

Device:         rrqm/s   wrqm/s     r/s     w/s    rkB/s    wkB/s avgrq-sz avgqu-sz   await r_await w_await  svctm  %util
sda               0.00     0.00 15076.00    0.00 60308.00     0.00     8.00     2.06    0.14    0.14    0.00   0.04  57.70
sdb               0.00     0.00 14966.00    0.00 59864.00     0.00     8.00     2.02    0.13    0.13    0.00   0.04  57.80
sdc               0.00     0.00 15172.00    0.00 60688.00     0.00     8.00     2.26    0.15    0.15    0.00   0.04  61.00
sdd               0.00     0.00 15040.00    0.00 60160.00     0.00     8.00     2.25    0.15    0.15    0.00   0.04  62.30
sde               0.00     0.00 15103.00    0.00 60412.00     0.00     8.00     2.14    0.14    0.14    0.00   0.04  61.20
sdf               0.00     0.00 15139.00    0.00 60556.00     0.00     8.00     2.22    0.15    0.15    0.00   0.04  61.80
sdg               0.00     0.00    0.00    0.00     0.00     0.00     0.00     0.00    0.00    0.00    0.00   0.00   0.00
sdh               0.00     0.00    0.00    0.00     0.00     0.00     0.00     0.00    0.00    0.00    0.00   0.00   0.00
md0               0.00     0.00 90482.00    0.00 361928.00     0.00     8.00     0.00    0.00    0.00    0.00   0.00   0.00

avg-cpu:  %user   %nice %system %iowait  %steal   %idle
           4.99    0.00   24.19    2.24    0.00   68.58

Device:         rrqm/s   wrqm/s     r/s     w/s    rkB/s    wkB/s avgrq-sz avgqu-sz   await r_await w_await  svctm  %util
sda               0.00     0.00 14783.00    0.00 59128.00     0.00     8.00     1.93    0.13    0.13    0.00   0.04  56.00
sdb               0.00     0.00 15078.00    0.00 60312.00     0.00     8.00     1.95    0.13    0.13    0.00   0.04  57.10
sdc               0.00     0.00 15021.00    0.00 60084.00     0.00     8.00     2.10    0.14    0.14    0.00   0.04  61.20
sdd               0.00     0.00 14915.00    0.00 59660.00     0.00     8.00     2.17    0.15    0.15    0.00   0.04  61.30
sde               0.00     0.00 14949.00    0.00 59796.00     0.00     8.00     2.23    0.15    0.15    0.00   0.04  60.60
sdf               0.00     0.00 14693.00    0.00 58772.00     0.00     8.00     2.11    0.14    0.14    0.00   0.04  60.30
sdg               0.00     0.00    0.00    0.00     0.00     0.00     0.00     0.00    0.00    0.00    0.00   0.00   0.00
sdh               0.00     0.00    0.00    0.00     0.00     0.00     0.00     0.00    0.00    0.00    0.00   0.00   0.00
md0               0.00     0.00 89455.00    0.00 357820.00     0.00     8.00     0.00    0.00    0.00    0.00   0.00   0.00

avg-cpu:  %user   %nice %system %iowait  %steal   %idle
           4.34    0.00   22.70    2.30    0.00   70.66

Device:         rrqm/s   wrqm/s     r/s     w/s    rkB/s    wkB/s avgrq-sz avgqu-sz   await r_await w_await  svctm  %util
sda               0.00     0.00 14482.00    0.00 57928.00     0.00     8.00     1.97    0.14    0.14    0.00   0.04  57.70
sdb               0.00     0.00 14516.00    0.00 58064.00     0.00     8.00     1.89    0.13    0.13    0.00   0.04  55.90
sdc               0.00     0.00 14738.00    0.00 58952.00     0.00     8.00     2.12    0.14    0.14    0.00   0.04  60.70
sdd               0.00     0.00 14601.00    0.00 58404.00     0.00     8.00     2.12    0.15    0.15    0.00   0.04  59.80
sde               0.00     0.00 14628.00    0.00 58512.00     0.00     8.00     2.22    0.15    0.15    0.00   0.04  60.90
sdf               0.00     0.00 14646.00    0.00 58584.00     0.00     8.00     2.19    0.15    0.15    0.00   0.04  63.20
sdg               0.00     0.00    0.00    0.00     0.00     0.00     0.00     0.00    0.00    0.00    0.00   0.00   0.00
sdh               0.00     0.00    0.00    0.00     0.00     0.00     0.00     0.00    0.00    0.00    0.00   0.00   0.00
md0               0.00     0.00 87590.00    0.00 350360.00     0.00     8.00     0.00    0.00    0.00    0.00   0.00   0.00

avg-cpu:  %user   %nice %system %iowait  %steal   %idle
           4.51    0.00   24.06    2.26    0.00   69.17

Device:         rrqm/s   wrqm/s     r/s     w/s    rkB/s    wkB/s avgrq-sz avgqu-sz   await r_await w_await  svctm  %util
sda               0.00     0.00 14481.00    0.00 57924.00     0.00     8.00     1.99    0.14    0.14    0.00   0.04  59.00
sdb               0.00     0.00 14465.00    0.00 57860.00     0.00     8.00     1.93    0.13    0.13    0.00   0.04  58.30
sdc               0.00     0.00 14435.00    0.00 57740.00     0.00     8.00     2.07    0.14    0.14    0.00   0.04  61.40
sdd               0.00     0.00 14425.00    0.00 57700.00     0.00     8.00     2.11    0.15    0.15    0.00   0.04  61.80
sde               0.00     0.00 14676.00    0.00 58704.00     0.00     8.00     2.21    0.15    0.15    0.00   0.04  62.90
sdf               0.00     0.00 14429.00    0.00 57716.00     0.00     8.00     2.07    0.14    0.14    0.00   0.04  63.00
sdg               0.00     0.00    0.00    0.00     0.00     0.00     0.00     0.00    0.00    0.00    0.00   0.00   0.00
sdh               0.00     0.00    0.00    0.00     0.00     0.00     0.00     0.00    0.00    0.00    0.00   0.00   0.00
md0               0.00     0.00 86918.00    0.00 347672.00     0.00     8.00     0.00    0.00    0.00    0.00   0.00   0.00

avg-cpu:  %user   %nice %system %iowait  %steal   %idle
           4.52    0.00   23.37    2.26    0.00   69.85

Device:         rrqm/s   wrqm/s     r/s     w/s    rkB/s    wkB/s avgrq-sz avgqu-sz   await r_await w_await  svctm  %util
sda               0.00     0.00 14103.00    0.00 56412.00     0.00     8.00     1.82    0.13    0.13    0.00   0.04  56.20
sdb               0.00     0.00 14099.00    0.00 56396.00     0.00     8.00     1.88    0.13    0.13    0.00   0.04  55.10
sdc               0.00     0.00 14106.00    0.00 56424.00     0.00     8.00     1.92    0.14    0.14    0.00   0.04  58.90
sdd               0.00     0.00 14000.00    0.00 56000.00     0.00     8.00     2.03    0.14    0.14    0.00   0.04  59.10
sde               0.00     0.00 14113.00    0.00 56452.00     0.00     8.00     2.00    0.14    0.14    0.00   0.04  59.90
sdf               0.00     0.00 14169.00    0.00 56676.00     0.00     8.00     1.98    0.14    0.14    0.00   0.04  59.80
sdg               0.00     0.00    0.00    0.00     0.00     0.00     0.00     0.00    0.00    0.00    0.00   0.00   0.00
sdh               0.00     0.00    0.00    0.00     0.00     0.00     0.00     0.00    0.00    0.00    0.00   0.00   0.00
md0               0.00     0.00 84596.00    0.00 338384.00     0.00     8.00     0.00    0.00    0.00    0.00   0.00   0.00

avg-cpu:  %user   %nice %system %iowait  %steal   %idle
           4.75    0.00   23.75    2.25    0.00   69.25

Device:         rrqm/s   wrqm/s     r/s     w/s    rkB/s    wkB/s avgrq-sz avgqu-sz   await r_await w_await  svctm  %util
sda               0.00     0.00 14159.00    0.00 56636.00     0.00     8.00     1.80    0.13    0.13    0.00   0.04  52.90
sdb               0.00     0.00 13619.00    0.00 54476.00     0.00     8.00     1.67    0.12    0.12    0.00   0.04  54.10
sdc               0.00     0.00 14056.00    0.00 56224.00     0.00     8.00     1.87    0.13    0.13    0.00   0.04  58.30
sdd               0.00     0.00 13787.00    0.00 55148.00     0.00     8.00     1.94    0.14    0.14    0.00   0.04  58.80
sde               0.00     0.00 13855.00    0.00 55420.00     0.00     8.00     1.87    0.14    0.14    0.00   0.04  60.00
sdf               0.00     0.00 13794.00    0.00 55176.00     0.00     8.00     1.81    0.13    0.13    0.00   0.04  56.10
sdg               0.00     0.00    0.00    0.00     0.00     0.00     0.00     0.00    0.00    0.00    0.00   0.00   0.00
sdh               0.00     0.00    0.00    0.00     0.00     0.00     0.00     0.00    0.00    0.00    0.00   0.00   0.00
md0               0.00     0.00 83269.00    0.00 333076.00     0.00     8.00     0.00    0.00    0.00    0.00   0.00   0.00

avg-cpu:  %user   %nice %system %iowait  %steal   %idle
           4.30    0.00   20.51    3.04    0.00   72.15

Device:         rrqm/s   wrqm/s     r/s     w/s    rkB/s    wkB/s avgrq-sz avgqu-sz   await r_await w_await  svctm  %util
sda               0.00     0.00 12364.00    0.00 49456.00     0.00     8.00     1.66    0.13    0.13    0.00   0.04  51.40
sdb               0.00     0.00 12563.00    0.00 50252.00     0.00     8.00     1.63    0.13    0.13    0.00   0.04  51.50
sdc               0.00     0.00 12565.00    0.00 50260.00     0.00     8.00     1.77    0.14    0.14    0.00   0.04  55.60
sdd               0.00     0.00 12439.00    0.00 49756.00     0.00     8.00     1.86    0.15    0.15    0.00   0.05  61.60
sde               0.00     0.00 12431.00    0.00 49724.00     0.00     8.00     1.75    0.14    0.14    0.00   0.05  56.60
sdf               0.00     0.00 12384.00    0.00 49536.00     0.00     8.00     1.76    0.14    0.14    0.00   0.04  55.20
sdg               0.00     0.00    0.00    0.00     0.00     0.00     0.00     0.00    0.00    0.00    0.00   0.00   0.00
sdh               0.00     0.00    0.00    0.00     0.00     0.00     0.00     0.00    0.00    0.00    0.00   0.00   0.00
md0               0.00     0.00 74750.00    0.00 299000.00     0.00     8.00     0.00    0.00    0.00    0.00   0.00   0.00

avg-cpu:  %user   %nice %system %iowait  %steal   %idle
           4.42    0.00   23.10    2.95    0.00   69.53

Device:         rrqm/s   wrqm/s     r/s     w/s    rkB/s    wkB/s avgrq-sz avgqu-sz   await r_await w_await  svctm  %util
sda               0.00     0.00 12487.00    0.00 49948.00     0.00     8.00     1.52    0.12    0.12    0.00   0.04  48.30
sdb               0.00     0.00 12534.00    0.00 50136.00     0.00     8.00     1.50    0.12    0.12    0.00   0.04  50.00
sdc               0.00     0.00 12430.00    0.00 49720.00     0.00     8.00     1.63    0.13    0.13    0.00   0.04  52.80
sdd               0.00     0.00 12309.00    0.00 49236.00     0.00     8.00     1.77    0.14    0.14    0.00   0.05  63.30
sde               0.00     0.00 12367.00    0.00 49468.00     0.00     8.00     1.66    0.13    0.13    0.00   0.04  53.80
sdf               0.00     0.00 12467.00    0.00 49868.00     0.00     8.00     1.60    0.13    0.13    0.00   0.04  53.20
sdg               0.00     0.00    0.00    0.00     0.00     0.00     0.00     0.00    0.00    0.00    0.00   0.00   0.00
sdh               0.00     0.00    0.00    0.00     0.00     0.00     0.00     0.00    0.00    0.00    0.00   0.00   0.00
md0               0.00     0.00 74594.00    0.00 298376.00     0.00     8.00     0.00    0.00    0.00    0.00   0.00   0.00

avg-cpu:  %user   %nice %system %iowait  %steal   %idle
           3.80    0.00   21.01    3.04    0.00   72.15

Device:         rrqm/s   wrqm/s     r/s     w/s    rkB/s    wkB/s avgrq-sz avgqu-sz   await r_await w_await  svctm  %util
sda               0.00     0.00 11709.00    0.00 46836.00     0.00     8.00     1.39    0.12    0.12    0.00   0.04  47.20
sdb               0.00     0.00 11953.00    0.00 47812.00     0.00     8.00     1.43    0.12    0.12    0.00   0.04  46.80
sdc               0.00     0.00 11813.00    0.00 47252.00     0.00     8.00     1.62    0.14    0.14    0.00   0.04  50.20
sdd               0.00     0.00 11791.00    0.00 47164.00     0.00     8.00     1.67    0.14    0.14    0.00   0.05  63.70
sde               0.00     0.00 12018.00    0.00 48072.00     0.00     8.00     1.53    0.13    0.13    0.00   0.04  50.10
sdf               0.00     0.00 11978.00    0.00 47912.00     0.00     8.00     1.56    0.13    0.13    0.00   0.04  51.70
sdg               0.00     2.00   20.00  129.00    80.00   660.00     9.93     0.27    1.82    0.10    2.09   0.04   0.60
sdh               0.00     0.00    0.00    0.00     0.00     0.00     0.00     0.00    0.00    0.00    0.00   0.00   0.00
md0               0.00     0.00 71259.00    0.00 285036.00     0.00     8.00     0.00    0.00    0.00    0.00   0.00   0.00

avg-cpu:  %user   %nice %system %iowait  %steal   %idle
           4.76    0.00   20.80    3.01    0.00   71.43

Device:         rrqm/s   wrqm/s     r/s     w/s    rkB/s    wkB/s avgrq-sz avgqu-sz   await r_await w_await  svctm  %util
sda               0.00     0.00 11879.00    0.00 47516.00     0.00     8.00     1.45    0.12    0.12    0.00   0.04  47.50
sdb               0.00     0.00 11737.00    0.00 46948.00     0.00     8.00     1.42    0.12    0.12    0.00   0.04  48.50
sdc               0.00     0.00 11740.00    0.00 46960.00     0.00     8.00     1.54    0.13    0.13    0.00   0.04  50.20
sdd               0.00     0.00 12038.00    0.00 48152.00     0.00     8.00     1.68    0.14    0.14    0.00   0.05  63.70
sde               0.00     0.00 11626.00    0.00 46504.00     0.00     8.00     1.51    0.13    0.13    0.00   0.04  51.10
sdf               0.00     0.00 11728.00    0.00 46912.00     0.00     8.00     1.53    0.13    0.13    0.00   0.04  50.30
sdg               0.00     0.00    0.00    0.00     0.00     0.00     0.00     0.00    0.00    0.00    0.00   0.00   0.00
sdh               0.00     0.00    0.00    0.00     0.00     0.00     0.00     0.00    0.00    0.00    0.00   0.00   0.00
md0               0.00     0.00 70748.00    0.00 282992.00     0.00     8.00     0.00    0.00    0.00    0.00   0.00   0.00

avg-cpu:  %user   %nice %system %iowait  %steal   %idle
           4.07    0.00   19.59    3.31    0.00   73.03

Device:         rrqm/s   wrqm/s     r/s     w/s    rkB/s    wkB/s avgrq-sz avgqu-sz   await r_await w_await  svctm  %util
sda               0.00     0.00 11251.00    0.00 45004.00     0.00     8.00     1.45    0.13    0.13    0.00   0.04  47.50
sdb               0.00     0.00 11573.00    0.00 46292.00     0.00     8.00     1.47    0.13    0.13    0.00   0.04  48.70
sdc               0.00     0.00 11430.00    0.00 45720.00     0.00     8.00     1.56    0.14    0.14    0.00   0.04  50.90
sdd               0.00     0.00 11424.00    0.00 45696.00     0.00     8.00     1.75    0.15    0.15    0.00   0.06  63.10
sde               0.00     0.00 11466.00    0.00 45864.00     0.00     8.00     1.61    0.14    0.14    0.00   0.05  53.80
sdf               0.00     0.00 11643.00    0.00 46572.00     0.00     8.00     1.59    0.14    0.14    0.00   0.05  53.40
sdg               0.00     0.00    0.00    0.00     0.00     0.00     0.00     0.00    0.00    0.00    0.00   0.00   0.00
sdh               0.00     0.00    0.00    0.00     0.00     0.00     0.00     0.00    0.00    0.00    0.00   0.00   0.00
md0               0.00     0.00 68796.00    0.00 275184.00     0.00     8.00     0.00    0.00    0.00    0.00   0.00   0.00

avg-cpu:  %user   %nice %system %iowait  %steal   %idle
           4.24    0.00   21.45    2.99    0.00   71.32

Device:         rrqm/s   wrqm/s     r/s     w/s    rkB/s    wkB/s avgrq-sz avgqu-sz   await r_await w_await  svctm  %util
sda               0.00     0.00 11393.00    0.00 45572.00     0.00     8.00     1.31    0.11    0.11    0.00   0.04  48.20
sdb               0.00     0.00 11360.00    0.00 45440.00     0.00     8.00     1.35    0.12    0.12    0.00   0.04  47.70
sdc               0.00     0.00 11611.00    0.00 46444.00     0.00     8.00     1.47    0.13    0.13    0.00   0.04  51.30
sdd               0.00     0.00 11463.00    0.00 45852.00     0.00     8.00     1.63    0.14    0.14    0.00   0.05  59.30
sde               0.00     0.00 11510.00    0.00 46040.00     0.00     8.00     1.51    0.13    0.13    0.00   0.05  52.80
sdf               0.00     0.00 11515.00    0.00 46060.00     0.00     8.00     1.61    0.14    0.14    0.00   0.05  53.90
sdg               0.00     0.00    0.00    0.00     0.00     0.00     0.00     0.00    0.00    0.00    0.00   0.00   0.00
sdh               0.00     0.00    0.00    0.00     0.00     0.00     0.00     0.00    0.00    0.00    0.00   0.00   0.00
md0               0.00     0.00 68832.00    0.00 275328.00     0.00     8.00     0.00    0.00    0.00    0.00   0.00   0.00

avg-cpu:  %user   %nice %system %iowait  %steal   %idle
           4.18    0.00   22.36    2.70    0.00   70.76

Device:         rrqm/s   wrqm/s     r/s     w/s    rkB/s    wkB/s avgrq-sz avgqu-sz   await r_await w_await  svctm  %util
sda               0.00     0.00 11292.00    0.00 45168.00     0.00     8.00     1.47    0.13    0.13    0.00   0.05  51.20
sdb               0.00     0.00 11354.00    0.00 45416.00     0.00     8.00     1.48    0.13    0.13    0.00   0.05  52.00
sdc               0.00     0.00 11265.00    0.00 45060.00     0.00     8.00     1.64    0.15    0.15    0.00   0.05  58.00
sdd               0.00     0.00 11426.00    0.00 45704.00     0.00     8.00     1.72    0.15    0.15    0.00   0.06  64.20
sde               0.00     0.00 11415.00    0.00 45660.00     0.00     8.00     1.65    0.14    0.14    0.00   0.05  56.70
sdf               0.00     0.00 11437.00    0.00 45748.00     0.00     8.00     1.74    0.15    0.15    0.00   0.05  58.60
sdg               0.00     0.00    0.00    0.00     0.00     0.00     0.00     0.00    0.00    0.00    0.00   0.00   0.00
sdh               0.00     0.00    0.00    0.00     0.00     0.00     0.00     0.00    0.00    0.00    0.00   0.00   0.00
md0               0.00     0.00 68181.00    0.00 272724.00     0.00     8.00     0.00    0.00    0.00    0.00   0.00   0.00

avg-cpu:  %user   %nice %system %iowait  %steal   %idle
           4.48    0.00   21.14    2.99    0.00   71.39

Device:         rrqm/s   wrqm/s     r/s     w/s    rkB/s    wkB/s avgrq-sz avgqu-sz   await r_await w_await  svctm  %util
sda               0.00     0.00 11062.00    0.00 44248.00     0.00     8.00     1.32    0.12    0.12    0.00   0.04  49.50
sdb               0.00     0.00 11041.00    0.00 44164.00     0.00     8.00     1.32    0.12    0.12    0.00   0.04  47.90
sdc               0.00     0.00 11000.00    0.00 44000.00     0.00     8.00     1.44    0.13    0.13    0.00   0.05  53.10
sdd               0.00     0.00 11034.00    0.00 44136.00     0.00     8.00     1.57    0.14    0.14    0.00   0.06  60.80
sde               0.00     0.00 10935.00    0.00 43740.00     0.00     8.00     1.45    0.13    0.13    0.00   0.05  53.00
sdf               0.00     0.00 11037.00    0.00 44148.00     0.00     8.00     1.48    0.13    0.13    0.00   0.05  52.70
sdg               0.00     1.00    1.00    1.00     4.00    20.00    24.00     0.00    0.00    0.00    0.00   0.00   0.00
sdh               0.00     0.00    0.00    0.00     0.00     0.00     0.00     0.00    0.00    0.00    0.00   0.00   0.00
md0               0.00     0.00 66124.00    0.00 264496.00     0.00     8.00     0.00    0.00    0.00    0.00   0.00   0.00

avg-cpu:  %user   %nice %system %iowait  %steal   %idle
           4.28    0.00   19.90    3.53    0.00   72.29

Device:         rrqm/s   wrqm/s     r/s     w/s    rkB/s    wkB/s avgrq-sz avgqu-sz   await r_await w_await  svctm  %util
sda               0.00     0.00 10693.00    0.00 42772.00     0.00     8.00     1.39    0.13    0.13    0.00   0.05  49.00
sdb               0.00     0.00 11028.00    0.00 44112.00     0.00     8.00     1.36    0.12    0.12    0.00   0.04  48.50
sdc               0.00     0.00 10958.00    0.00 43832.00     0.00     8.00     1.49    0.14    0.14    0.00   0.05  52.10
sdd               0.00     0.00 10727.00    0.00 42908.00     0.00     8.00     1.60    0.15    0.15    0.00   0.06  63.20
sde               0.00     0.00 11011.00    0.00 44044.00     0.00     8.00     1.50    0.14    0.14    0.00   0.05  53.30
sdf               0.00     0.00 10824.00    0.00 43296.00     0.00     8.00     1.52    0.14    0.14    0.00   0.05  54.50
sdg               0.00     0.00    0.00    0.00     0.00     0.00     0.00     0.00    0.00    0.00    0.00   0.00   0.00
sdh               0.00     0.00    0.00    0.00     0.00     0.00     0.00     0.00    0.00    0.00    0.00   0.00   0.00
md0               0.00     0.00 65245.00    0.00 260980.00     0.00     8.00     0.00    0.00    0.00    0.00   0.00   0.00

avg-cpu:  %user   %nice %system %iowait  %steal   %idle
           5.21    0.00   19.85    2.98    0.00   71.96

Device:         rrqm/s   wrqm/s     r/s     w/s    rkB/s    wkB/s avgrq-sz avgqu-sz   await r_await w_await  svctm  %util
sda               0.00     0.00 10232.00    0.00 40928.00     0.00     8.00     1.19    0.12    0.12    0.00   0.04  43.30
sdb               0.00     0.00 10735.00    0.00 42940.00     0.00     8.00     1.19    0.11    0.11    0.00   0.04  43.50
sdc               0.00     0.00 10317.00    0.00 41268.00     0.00     8.00     1.27    0.12    0.12    0.00   0.04  46.00
sdd               0.00     0.00 10455.00    0.00 41820.00     0.00     8.00     1.45    0.14    0.14    0.00   0.05  57.30
sde               0.00     0.00 10341.00    0.00 41364.00     0.00     8.00     1.30    0.13    0.13    0.00   0.05  47.60
sdf               0.00     0.00 10474.00    0.00 41896.00     0.00     8.00     1.24    0.12    0.12    0.00   0.05  47.60
sdg               0.00     0.00    0.00    0.00     0.00     0.00     0.00     0.00    0.00    0.00    0.00   0.00   0.00
sdh               0.00     0.00    0.00    0.00     0.00     0.00     0.00     0.00    0.00    0.00    0.00   0.00   0.00
md0               0.00     0.00 62542.00    0.00 250168.00     0.00     8.00     0.00    0.00    0.00    0.00   0.00   0.00

avg-cpu:  %user   %nice %system %iowait  %steal   %idle
           4.50    0.00   20.50    3.00    0.00   72.00

Device:         rrqm/s   wrqm/s     r/s     w/s    rkB/s    wkB/s avgrq-sz avgqu-sz   await r_await w_await  svctm  %util
sda               0.00     0.00 10630.00    0.00 42520.00     0.00     8.00     1.27    0.12    0.12    0.00   0.05  48.00
sdb               0.00     0.00 10419.00    0.00 41676.00     0.00     8.00     1.36    0.13    0.13    0.00   0.05  50.20
sdc               0.00     0.00 10400.00    0.00 41600.00     0.00     8.00     1.43    0.14    0.14    0.00   0.05  51.80
sdd               0.00     0.00 10434.00    0.00 41736.00     0.00     8.00     1.41    0.14    0.14    0.00   0.06  61.10
sde               0.00     0.00 10638.00    0.00 42552.00     0.00     8.00     1.46    0.14    0.14    0.00   0.05  53.70
sdf               0.00     0.00 10422.00    0.00 41688.00     0.00     8.00     1.42    0.14    0.14    0.00   0.05  52.00
sdg               0.00     0.00    0.00    0.00     0.00     0.00     0.00     0.00    0.00    0.00    0.00   0.00   0.00
sdh               0.00     0.00    0.00    0.00     0.00     0.00     0.00     0.00    0.00    0.00    0.00   0.00   0.00
md0               0.00     0.00 62949.00    0.00 251796.00     0.00     8.00     0.00    0.00    0.00    0.00   0.00   0.00

avg-cpu:  %user   %nice %system %iowait  %steal   %idle
           4.52    0.00   19.10    3.52    0.00   72.86

Device:         rrqm/s   wrqm/s     r/s     w/s    rkB/s    wkB/s avgrq-sz avgqu-sz   await r_await w_await  svctm  %util
sda               0.00     0.00 10190.00    0.00 40760.00     0.00     8.00     1.24    0.12    0.12    0.00   0.05  46.70
sdb               0.00     0.00 10181.00    0.00 40724.00     0.00     8.00     1.21    0.12    0.12    0.00   0.05  46.00
sdc               0.00     0.00 10156.00    0.00 40624.00     0.00     8.00     1.29    0.13    0.13    0.00   0.05  50.70
sdd               0.00     0.00 10152.00    0.00 40608.00     0.00     8.00     1.46    0.14    0.14    0.00   0.06  60.80
sde               0.00     0.00 10155.00    0.00 40620.00     0.00     8.00     1.34    0.13    0.13    0.00   0.05  49.30
sdf               0.00     0.00 10064.00    0.00 40256.00     0.00     8.00     1.31    0.13    0.13    0.00   0.05  49.30
sdg               0.00     0.00    0.00    0.00     0.00     0.00     0.00     0.00    0.00    0.00    0.00   0.00   0.00
sdh               0.00     0.00    0.00    0.00     0.00     0.00     0.00     0.00    0.00    0.00    0.00   0.00   0.00
md0               0.00     0.00 60884.00    0.00 243536.00     0.00     8.00     0.00    0.00    0.00    0.00   0.00   0.00

