Linux 4.17.2 (bench) 	08/03/2018 	_x86_64_	(4 CPU)

avg-cpu:  %user   %nice %system %iowait  %steal   %idle
          10.29    0.02    4.01    2.48    0.00   83.20

Device:         rrqm/s   wrqm/s     r/s     w/s    rkB/s    wkB/s avgrq-sz avgqu-sz   await r_await w_await  svctm  %util
sda              41.51     4.27 1619.33  103.24 20725.52  3150.32    27.72     1.03    0.60    0.26    5.91   0.06  10.58
sdb              41.41     4.23 1619.21  103.37 20714.95  3146.96    27.70     1.02    0.59    0.26    5.85   0.06  10.46
sdc              79.44     4.29 1579.10  102.92 20707.16  3149.44    28.37     1.44    0.86    0.45    7.12   0.08  13.89
sdd              72.81     4.25 1584.89  102.99 20691.86  3145.61    28.25     1.45    0.86    0.44    7.32   0.08  13.98
sde              74.87     4.30 1590.01  103.09 20752.32  3149.88    28.23     1.47    0.87    0.44    7.43   0.08  14.00
sdf              71.97     4.27 1592.19  103.03 20733.32  3146.73    28.17     1.52    0.89    0.44    7.90   0.08  14.04
sdg               0.00     3.18   26.01   73.33   322.75   391.97    14.39     0.44    4.43    0.20    5.93   0.08   0.78
sdh               0.00     0.13    0.02    0.24     2.23     5.10    56.82     0.00    1.15    0.65    1.19   0.21   0.01
md0               0.00     0.00 9972.99  483.63 141919.01 21570.93    31.27     0.00    0.00    0.00    0.00   0.00   0.00

avg-cpu:  %user   %nice %system %iowait  %steal   %idle
           2.26    0.03   14.07   51.32    0.00   32.32

Device:         rrqm/s   wrqm/s     r/s     w/s    rkB/s    wkB/s avgrq-sz avgqu-sz   await r_await w_await  svctm  %util
sda               0.05     0.00 8259.80    0.00 40538.60     0.00     9.82     1.00    0.12    0.12    0.00   0.07  54.79
sdb               0.00     0.00 8246.60    0.00 40065.00     0.00     9.72     0.99    0.12    0.12    0.00   0.07  54.32
sdc               0.00     0.00 8260.70    0.00 39974.80     0.00     9.68     1.14    0.14    0.14    0.00   0.07  57.80
sdd               0.00     0.00 8296.50    0.00 40126.40     0.00     9.67     1.14    0.14    0.14    0.00   0.07  58.12
sde               0.00     0.00 8240.45    0.00 39835.60     0.00     9.67     1.17    0.14    0.14    0.00   0.07  58.83
sdf               0.00     0.00 8247.05    0.00 40519.40     0.00     9.83     1.18    0.14    0.14    0.00   0.07  58.27
sdg               0.00     0.00   67.15    0.00   284.60     0.00     8.48     0.01    0.12    0.12    0.00   0.12   0.80
sdh               0.00     0.00    0.00    0.00     0.00     0.00     0.00     0.00    0.00    0.00    0.00   0.00   0.00
md0               0.00     0.00 49551.90    0.00 242548.20     0.00     9.79     0.00    0.00    0.00    0.00   0.00   0.00

