Linux 4.17.2 (bench) 	08/03/2018 	_x86_64_	(4 CPU)

avg-cpu:  %user   %nice %system %iowait  %steal   %idle
          10.28    0.02    4.05    2.54    0.00   83.11

Device:         rrqm/s   wrqm/s     r/s     w/s    rkB/s    wkB/s avgrq-sz avgqu-sz   await r_await w_await  svctm  %util
sda              44.31     4.24 1643.55  102.74 20864.01  3135.18    27.49     1.03    0.59    0.26    5.91   0.06  10.68
sdb              44.18     4.20 1643.46  102.88 20853.39  3131.83    27.47     1.03    0.59    0.26    5.85   0.06  10.56
sdc              82.14     4.26 1603.41  102.43 20845.53  3134.30    28.11     1.45    0.85    0.45    7.12   0.08  14.01
sdd              75.54     4.23 1609.18  102.50 20830.37  3130.49    28.00     1.46    0.85    0.44    7.32   0.08  14.10
sde              77.59     4.28 1614.26  102.59 20890.37  3134.74    27.99     1.48    0.86    0.44    7.43   0.08  14.12
sdf              74.69     4.25 1616.42  102.54 20871.56  3131.60    27.93     1.52    0.88    0.44    7.90   0.08  14.16
sdg               0.00     3.17   26.19   73.30   323.49   391.94    14.38     0.44    4.42    0.20    5.93   0.08   0.78
sdh               0.00     0.13    0.02    0.24     2.22     5.07    56.82     0.00    1.15    0.65    1.19   0.21   0.01
md0               0.00     0.00 10135.27  481.30 142881.51 21467.25    30.96     0.00    0.00    0.00    0.00   0.00   0.00

avg-cpu:  %user   %nice %system %iowait  %steal   %idle
           1.26    0.00   13.60    0.50    0.00   84.63

Device:         rrqm/s   wrqm/s     r/s     w/s    rkB/s    wkB/s avgrq-sz avgqu-sz   await r_await w_await  svctm  %util
sda               0.00     0.00 12285.00    0.00 49140.00     0.00     8.00     1.24    0.10    0.10    0.00   0.02  23.50
sdb               0.00     0.00 12066.00    0.00 48264.00     0.00     8.00     1.43    0.12    0.12    0.00   0.02  24.30
sdc               0.00     0.00 12010.00    0.00 48040.00     0.00     8.00     2.12    0.18    0.18    0.00   0.03  36.50
sdd               0.00     0.00 12018.00    0.00 48072.00     0.00     8.00     2.26    0.19    0.19    0.00   0.03  35.60
sde               0.00     0.00 12203.00    0.00 48812.00     0.00     8.00     2.37    0.19    0.19    0.00   0.03  37.90
sdf               0.00     0.00 12040.00    0.00 48160.00     0.00     8.00     2.28    0.19    0.19    0.00   0.03  35.20
sdg               0.00     0.00    3.00    0.00    88.00     0.00    58.67     0.00    0.33    0.33    0.00   0.33   0.10
sdh               0.00     0.00    0.00    0.00     0.00     0.00     0.00     0.00    0.00    0.00    0.00   0.00   0.00
md0               0.00     0.00 72632.00    0.00 290528.00     0.00     8.00     0.00    0.00    0.00    0.00   0.00   0.00

avg-cpu:  %user   %nice %system %iowait  %steal   %idle
           0.75    0.00   14.50    0.50    0.00   84.25

Device:         rrqm/s   wrqm/s     r/s     w/s    rkB/s    wkB/s avgrq-sz avgqu-sz   await r_await w_await  svctm  %util
sda               0.00     0.00 12338.00    0.00 49352.00     0.00     8.00     1.82    0.15    0.15    0.00   0.02  28.80
sdb               0.00     0.00 12388.00    0.00 49552.00     0.00     8.00     1.55    0.13    0.13    0.00   0.02  26.00
sdc               0.00     0.00 12114.00    0.00 48456.00     0.00     8.00     2.06    0.17    0.17    0.00   0.03  33.10
sdd               0.00     0.00 12252.00    0.00 49008.00     0.00     8.00     2.22    0.18    0.18    0.00   0.03  33.70
sde               0.00     0.00 12142.00    0.00 48568.00     0.00     8.00     2.41    0.20    0.20    0.00   0.03  37.20
sdf               0.00     0.00 12277.00    0.00 49108.00     0.00     8.00     2.42    0.20    0.20    0.00   0.03  38.60
sdg               0.00     0.00    0.00    0.00     0.00     0.00     0.00     0.00    0.00    0.00    0.00   0.00   0.00
sdh               0.00     0.00    0.00    0.00     0.00     0.00     0.00     0.00    0.00    0.00    0.00   0.00   0.00
md0               0.00     0.00 73529.00    0.00 294116.00     0.00     8.00     0.00    0.00    0.00    0.00   0.00   0.00

avg-cpu:  %user   %nice %system %iowait  %steal   %idle
           1.01    0.00   14.07    0.50    0.00   84.42

Device:         rrqm/s   wrqm/s     r/s     w/s    rkB/s    wkB/s avgrq-sz avgqu-sz   await r_await w_await  svctm  %util
sda               0.00     0.00 12371.00    0.00 49484.00     0.00     8.00     1.73    0.14    0.14    0.00   0.02  29.60
sdb               0.00     0.00 12261.00    0.00 49044.00     0.00     8.00     1.73    0.14    0.14    0.00   0.02  27.60
sdc               0.00     0.00 12298.00    0.00 49192.00     0.00     8.00     2.57    0.21    0.21    0.00   0.03  37.30
sdd               0.00     0.00 12159.00    0.00 48636.00     0.00     8.00     2.37    0.19    0.19    0.00   0.03  37.70
sde               0.00     0.00 12149.00    0.00 48596.00     0.00     8.00     2.38    0.20    0.20    0.00   0.03  34.50
sdf               0.00     0.00 12428.00    0.00 49712.00     0.00     8.00     2.28    0.18    0.18    0.00   0.03  34.40
sdg               0.00     0.00    0.00    0.00     0.00     0.00     0.00     0.00    0.00    0.00    0.00   0.00   0.00
sdh               0.00     0.00    0.00    0.00     0.00     0.00     0.00     0.00    0.00    0.00    0.00   0.00   0.00
md0               0.00     0.00 73647.00    0.00 294588.00     0.00     8.00     0.00    0.00    0.00    0.00   0.00   0.00

avg-cpu:  %user   %nice %system %iowait  %steal   %idle
           1.00    0.00   13.28    1.00    0.00   84.71

Device:         rrqm/s   wrqm/s     r/s     w/s    rkB/s    wkB/s avgrq-sz avgqu-sz   await r_await w_await  svctm  %util
sda               0.00     0.00 11638.00    0.00 46552.00     0.00     8.00     1.75    0.15    0.15    0.00   0.02  27.60
sdb               0.00     0.00 11670.00    0.00 46680.00     0.00     8.00     1.58    0.14    0.14    0.00   0.02  25.50
sdc               0.00     0.00 11620.00    0.00 46480.00     0.00     8.00     1.93    0.17    0.17    0.00   0.02  29.00
sdd               0.00     0.00 11754.00    0.00 47016.00     0.00     8.00     2.08    0.18    0.18    0.00   0.03  37.50
sde               0.00     0.00 11820.00    0.00 47280.00     0.00     8.00     2.19    0.19    0.19    0.00   0.03  34.80
sdf               0.00     0.00 11828.00    0.00 47312.00     0.00     8.00     2.56    0.22    0.22    0.00   0.03  35.20
sdg               0.00     0.00    0.00    0.00     0.00     0.00     0.00     0.00    0.00    0.00    0.00   0.00   0.00
sdh               0.00     0.00    0.00    0.00     0.00     0.00     0.00     0.00    0.00    0.00    0.00   0.00   0.00
md0               0.00     0.00 70346.00    0.00 281384.00     0.00     8.00     0.00    0.00    0.00    0.00   0.00   0.00

avg-cpu:  %user   %nice %system %iowait  %steal   %idle
           0.50    0.00   13.60    1.01    0.00   84.89

Device:         rrqm/s   wrqm/s     r/s     w/s    rkB/s    wkB/s avgrq-sz avgqu-sz   await r_await w_await  svctm  %util
sda               0.00     0.00 11735.00    0.00 46940.00     0.00     8.00     1.53    0.13    0.13    0.00   0.02  24.70
sdb               0.00     0.00 11805.00    0.00 47220.00     0.00     8.00     1.26    0.11    0.11    0.00   0.02  21.30
sdc               0.00     0.00 11768.00    0.00 47072.00     0.00     8.00     1.78    0.15    0.15    0.00   0.02  28.30
sdd               0.00     0.00 11566.00    0.00 46264.00     0.00     8.00     2.49    0.22    0.22    0.00   0.04  40.90
sde               0.00     0.00 11783.00    0.00 47132.00     0.00     8.00     2.38    0.20    0.20    0.00   0.03  37.60
sdf               0.00     0.00 11684.00    0.00 46736.00     0.00     8.00     2.20    0.19    0.19    0.00   0.03  33.10
sdg               0.00     0.00    0.00    0.00     0.00     0.00     0.00     0.00    0.00    0.00    0.00   0.00   0.00
sdh               0.00     0.00    0.00    0.00     0.00     0.00     0.00     0.00    0.00    0.00    0.00   0.00   0.00
md0               0.00     0.00 70342.00    0.00 281368.00     0.00     8.00     0.00    0.00    0.00    0.00   0.00   0.00

avg-cpu:  %user   %nice %system %iowait  %steal   %idle
           0.76    0.00   14.76    6.11    0.00   78.37

Device:         rrqm/s   wrqm/s     r/s     w/s    rkB/s    wkB/s avgrq-sz avgqu-sz   await r_await w_await  svctm  %util
sda               0.00     0.00 11051.00    0.00 44204.00     0.00     8.00     1.50    0.14    0.14    0.00   0.02  25.30
sdb               0.00     0.00 11098.00    0.00 44392.00     0.00     8.00     1.33    0.12    0.12    0.00   0.02  24.70
sdc               0.00     0.00 10877.00    0.00 43508.00     0.00     8.00     1.88    0.17    0.17    0.00   0.03  30.70
sdd               0.00     0.00 10860.00    0.00 43440.00     0.00     8.00     2.00    0.18    0.18    0.00   0.03  37.70
sde               0.00     0.00 10726.00    0.00 42904.00     0.00     8.00     1.83    0.17    0.17    0.00   0.03  29.60
sdf               0.00     0.00 10841.00    0.00 43364.00     0.00     8.00     2.04    0.19    0.19    0.00   0.03  31.10
sdg               0.00     0.00 3220.00    0.00 13576.00     0.00     8.43     0.40    0.13    0.13    0.00   0.12  38.80
sdh               0.00     0.00    0.00    0.00     0.00     0.00     0.00     0.00    0.00    0.00    0.00   0.00   0.00
md0               0.00     0.00 65440.00    0.00 261760.00     0.00     8.00     0.00    0.00    0.00    0.00   0.00   0.00

avg-cpu:  %user   %nice %system %iowait  %steal   %idle
           1.03    0.00   11.28    2.05    0.00   85.64

Device:         rrqm/s   wrqm/s     r/s     w/s    rkB/s    wkB/s avgrq-sz avgqu-sz   await r_await w_await  svctm  %util
sda               0.00     0.00 10209.00    0.00 40836.00     0.00     8.00     1.42    0.14    0.14    0.00   0.03  26.80
sdb               0.00     0.00 10425.00    0.00 41700.00     0.00     8.00     1.17    0.11    0.11    0.00   0.02  23.90
sdc               0.00     0.00 10328.00    0.00 41312.00     0.00     8.00     1.47    0.14    0.14    0.00   0.02  25.40
sdd               0.00     0.00 10441.00    0.00 41764.00     0.00     8.00     1.81    0.17    0.17    0.00   0.04  38.80
sde               0.00     0.00 10164.00    0.00 40656.00     0.00     8.00     1.94    0.19    0.19    0.00   0.03  33.40
sdf               0.00     0.00 10411.00    0.00 41644.00     0.00     8.00     1.91    0.18    0.18    0.00   0.03  34.70
sdg               0.00     0.00   12.00    5.00    48.00    20.00     8.00     0.00    0.18    0.17    0.20   0.12   0.20
sdh               0.00     0.00    0.00    0.00     0.00     0.00     0.00     0.00    0.00    0.00    0.00   0.00   0.00
md0               0.00     0.00 61987.00    0.00 247948.00     0.00     8.00     0.00    0.00    0.00    0.00   0.00   0.00

avg-cpu:  %user   %nice %system %iowait  %steal   %idle
           1.00    0.00   13.28    2.76    0.00   82.96

Device:         rrqm/s   wrqm/s     r/s     w/s    rkB/s    wkB/s avgrq-sz avgqu-sz   await r_await w_await  svctm  %util
sda               0.00     0.00 10658.00    0.00 42632.00     0.00     8.00     1.45    0.14    0.14    0.00   0.02  25.20
sdb               0.00     0.00 10814.00    0.00 43256.00     0.00     8.00     1.48    0.14    0.14    0.00   0.02  25.50
sdc               0.00     0.00 10922.00    0.00 43688.00     0.00     8.00     1.91    0.18    0.18    0.00   0.03  32.60
sdd               0.00     0.00 10642.00    0.00 42568.00     0.00     8.00     2.17    0.20    0.20    0.00   0.04  42.30
sde               0.00     0.00 10757.00    0.00 43028.00     0.00     8.00     1.74    0.16    0.16    0.00   0.03  30.10
sdf               0.00     0.00 10814.00    0.00 43256.00     0.00     8.00     1.65    0.15    0.15    0.00   0.03  28.80
sdg               0.00     0.00    0.00    0.00     0.00     0.00     0.00     0.00    0.00    0.00    0.00   0.00   0.00
sdh               0.00     0.00    0.00    0.00     0.00     0.00     0.00     0.00    0.00    0.00    0.00   0.00   0.00
md0               0.00     0.00 64603.00    0.00 258412.00     0.00     8.00     0.00    0.00    0.00    0.00   0.00   0.00

avg-cpu:  %user   %nice %system %iowait  %steal   %idle
           1.07    0.00    7.49    1.34    0.00   90.11

Device:         rrqm/s   wrqm/s     r/s     w/s    rkB/s    wkB/s avgrq-sz avgqu-sz   await r_await w_await  svctm  %util
sda               0.00     0.00 10316.00    0.00 41264.00     0.00     8.00     1.40    0.14    0.14    0.00   0.02  23.90
sdb               0.00     0.00 10323.00    0.00 41292.00     0.00     8.00     1.40    0.14    0.14    0.00   0.02  25.40
sdc               0.00     0.00 10315.00    0.00 41260.00     0.00     8.00     1.86    0.18    0.18    0.00   0.03  32.30
sdd               0.00     0.00 10406.00    0.00 41624.00     0.00     8.00     2.23    0.21    0.21    0.00   0.04  41.60
sde               0.00     0.00 10207.00    0.00 40828.00     0.00     8.00     1.71    0.17    0.17    0.00   0.03  29.60
sdf               0.00     0.00 10293.00    0.00 41172.00     0.00     8.00     1.65    0.16    0.16    0.00   0.03  28.30
sdg               0.00     0.00    0.00    0.00     0.00     0.00     0.00     0.00    0.00    0.00    0.00   0.00   0.00
sdh               0.00     0.00    0.00    0.00     0.00     0.00     0.00     0.00    0.00    0.00    0.00   0.00   0.00
md0               0.00     0.00 61859.00    0.00 247436.00     0.00     8.00     0.00    0.00    0.00    0.00   0.00   0.00

avg-cpu:  %user   %nice %system %iowait  %steal   %idle
           0.80    0.00    9.02    1.06    0.00   89.12

Device:         rrqm/s   wrqm/s     r/s     w/s    rkB/s    wkB/s avgrq-sz avgqu-sz   await r_await w_await  svctm  %util
sda               0.00     0.00 10628.00    0.00 42512.00     0.00     8.00     1.48    0.14    0.14    0.00   0.03  26.60
sdb               0.00     0.00 10350.00    0.00 41400.00     0.00     8.00     1.32    0.13    0.13    0.00   0.02  24.40
sdc               0.00     0.00 10484.00    0.00 41936.00     0.00     8.00     1.65    0.16    0.16    0.00   0.03  28.60
sdd               0.00     0.00 10443.00    0.00 41772.00     0.00     8.00     1.91    0.18    0.18    0.00   0.04  38.20
sde               0.00     0.00 10479.00    0.00 41916.00     0.00     8.00     1.77    0.17    0.17    0.00   0.03  29.90
sdf               0.00     0.00 10624.00    0.00 42496.00     0.00     8.00     1.74    0.16    0.16    0.00   0.03  28.00
sdg               0.00     0.00    0.00    0.00     0.00     0.00     0.00     0.00    0.00    0.00    0.00   0.00   0.00
sdh               0.00     0.00    0.00    0.00     0.00     0.00     0.00     0.00    0.00    0.00    0.00   0.00   0.00
md0               0.00     0.00 63017.00    0.00 252068.00     0.00     8.00     0.00    0.00    0.00    0.00   0.00   0.00

avg-cpu:  %user   %nice %system %iowait  %steal   %idle
           1.27    0.00   11.93    1.02    0.00   85.79

Device:         rrqm/s   wrqm/s     r/s     w/s    rkB/s    wkB/s avgrq-sz avgqu-sz   await r_await w_await  svctm  %util
sda               0.00     0.00 11192.00    0.00 44768.00     0.00     8.00     1.51    0.14    0.14    0.00   0.02  26.50
sdb               0.00     0.00 11087.00    0.00 44348.00     0.00     8.00     1.28    0.12    0.12    0.00   0.02  22.30
sdc               0.00     0.00 11038.00    0.00 44152.00     0.00     8.00     1.50    0.14    0.14    0.00   0.02  27.30
sdd               0.00     0.00 10961.00    0.00 43844.00     0.00     8.00     1.93    0.18    0.18    0.00   0.03  35.50
sde               0.00     0.00 10848.00    0.00 43392.00     0.00     8.00     2.00    0.18    0.18    0.00   0.03  33.20
sdf               0.00     0.00 11101.00    0.00 44404.00     0.00     8.00     2.13    0.19    0.19    0.00   0.03  35.40
sdg               0.00     0.00    0.00    0.00     0.00     0.00     0.00     0.00    0.00    0.00    0.00   0.00   0.00
sdh               0.00     0.00    0.00    0.00     0.00     0.00     0.00     0.00    0.00    0.00    0.00   0.00   0.00
md0               0.00     0.00 66221.00    0.00 264884.00     0.00     8.00     0.00    0.00    0.00    0.00   0.00   0.00

avg-cpu:  %user   %nice %system %iowait  %steal   %idle
           1.05    0.00    9.69    2.88    0.00   86.39

Device:         rrqm/s   wrqm/s     r/s     w/s    rkB/s    wkB/s avgrq-sz avgqu-sz   await r_await w_await  svctm  %util
sda               0.00     0.00 9993.00    0.00 39972.00     0.00     8.00     1.41    0.14    0.14    0.00   0.03  26.70
sdb               0.00     0.00 9945.00    0.00 39780.00     0.00     8.00     1.36    0.14    0.14    0.00   0.03  26.20
sdc               0.00     0.00 10168.00    0.00 40672.00     0.00     8.00     1.65    0.16    0.16    0.00   0.03  29.10
sdd               0.00     0.00 9997.00    0.00 39988.00     0.00     8.00     1.60    0.16    0.16    0.00   0.03  33.40
sde               0.00     0.00 9887.00    0.00 39548.00     0.00     8.00     1.41    0.14    0.14    0.00   0.03  26.40
sdf               0.00     0.00 10056.00    0.00 40224.00     0.00     8.00     1.69    0.17    0.17    0.00   0.03  30.80
sdg               0.00     1.00    1.00    4.00     4.00    56.00    24.00     0.00    0.00    0.00    0.00   0.00   0.00
sdh               0.00     0.00    0.00    0.00     0.00     0.00     0.00     0.00    0.00    0.00    0.00   0.00   0.00
md0               0.00     0.00 60048.00    0.00 240192.00     0.00     8.00     0.00    0.00    0.00    0.00   0.00   0.00

avg-cpu:  %user   %nice %system %iowait  %steal   %idle
           0.80    0.00    8.75    2.65    0.00   87.80

Device:         rrqm/s   wrqm/s     r/s     w/s    rkB/s    wkB/s avgrq-sz avgqu-sz   await r_await w_await  svctm  %util
sda               0.00     0.00 9534.00    0.00 38136.00     0.00     8.00     1.38    0.14    0.14    0.00   0.03  29.20
sdb               0.00     0.00 9342.00    0.00 37368.00     0.00     8.00     1.02    0.11    0.11    0.00   0.02  22.10
sdc               0.00     0.00 9474.00    0.00 37896.00     0.00     8.00     1.22    0.13    0.13    0.00   0.03  25.40
sdd               0.00     0.00 9670.00    0.00 38680.00     0.00     8.00     1.44    0.15    0.15    0.00   0.03  32.60
sde               0.00     0.00 9508.00    0.00 38032.00     0.00     8.00     1.50    0.16    0.16    0.00   0.03  31.50
sdf               0.00     0.00 9515.00    0.00 38060.00     0.00     8.00     1.87    0.20    0.20    0.00   0.04  35.50
sdg               0.00     0.00    0.00    0.00     0.00     0.00     0.00     0.00    0.00    0.00    0.00   0.00   0.00
sdh               0.00     0.00    0.00    0.00     0.00     0.00     0.00     0.00    0.00    0.00    0.00   0.00   0.00
md0               0.00     0.00 57040.00    0.00 228160.00     0.00     8.00     0.00    0.00    0.00    0.00   0.00   0.00

avg-cpu:  %user   %nice %system %iowait  %steal   %idle
           0.81    0.00    7.80    0.81    0.00   90.59

Device:         rrqm/s   wrqm/s     r/s     w/s    rkB/s    wkB/s avgrq-sz avgqu-sz   await r_await w_await  svctm  %util
sda               0.00     0.00 9794.00    0.00 39176.00     0.00     8.00     1.21    0.12    0.12    0.00   0.03  25.10
sdb               0.00     0.00 9973.00    0.00 39892.00     0.00     8.00     1.16    0.12    0.12    0.00   0.02  23.70
sdc               0.00     0.00 9817.00    0.00 39268.00     0.00     8.00     1.62    0.17    0.17    0.00   0.03  29.70
sdd               0.00     0.00 9924.00    0.00 39696.00     0.00     8.00     1.80    0.18    0.18    0.00   0.04  37.90
sde               0.00     0.00 9870.00    0.00 39480.00     0.00     8.00     1.86    0.19    0.19    0.00   0.03  33.70
sdf               0.00     0.00 9780.00    0.00 39120.00     0.00     8.00     1.81    0.18    0.18    0.00   0.03  33.70
sdg               0.00     0.00    0.00    0.00     0.00     0.00     0.00     0.00    0.00    0.00    0.00   0.00   0.00
sdh               0.00     0.00    0.00    0.00     0.00     0.00     0.00     0.00    0.00    0.00    0.00   0.00   0.00
md0               0.00     0.00 59163.00    0.00 236652.00     0.00     8.00     0.00    0.00    0.00    0.00   0.00   0.00

avg-cpu:  %user   %nice %system %iowait  %steal   %idle
           1.06    0.00    8.47    1.06    0.00   89.42

Device:         rrqm/s   wrqm/s     r/s     w/s    rkB/s    wkB/s avgrq-sz avgqu-sz   await r_await w_await  svctm  %util
sda               0.00     0.00 9896.00    0.00 39584.00     0.00     8.00     1.41    0.14    0.14    0.00   0.03  25.40
sdb               0.00     0.00 10010.00    0.00 40040.00     0.00     8.00     1.27    0.13    0.13    0.00   0.02  24.70
sdc               0.00     0.00 9966.00    0.00 39864.00     0.00     8.00     1.43    0.14    0.14    0.00   0.03  26.10
sdd               0.00     0.00 10018.00    0.00 40072.00     0.00     8.00     1.80    0.18    0.18    0.00   0.04  35.60
sde               0.00     0.00 10077.00    0.00 40308.00     0.00     8.00     1.95    0.19    0.19    0.00   0.03  34.20
sdf               0.00     0.00 10045.00    0.00 40180.00     0.00     8.00     1.77    0.18    0.18    0.00   0.03  33.60
sdg               0.00     0.00    0.00    0.00     0.00     0.00     0.00     0.00    0.00    0.00    0.00   0.00   0.00
sdh               0.00     0.00    0.00    0.00     0.00     0.00     0.00     0.00    0.00    0.00    0.00   0.00   0.00
md0               0.00     0.00 59990.00    0.00 239960.00     0.00     8.00     0.00    0.00    0.00    0.00   0.00   0.00

avg-cpu:  %user   %nice %system %iowait  %steal   %idle
           0.79    0.26    9.97    1.84    0.00   87.14

Device:         rrqm/s   wrqm/s     r/s     w/s    rkB/s    wkB/s avgrq-sz avgqu-sz   await r_await w_await  svctm  %util
sda               0.00     0.00 9831.00    0.00 39324.00     0.00     8.00     1.16    0.12    0.12    0.00   0.02  22.90
sdb               0.00     0.00 9778.00    0.00 39112.00     0.00     8.00     1.38    0.14    0.14    0.00   0.03  26.40
sdc               0.00     0.00 9944.00    0.00 39776.00     0.00     8.00     1.79    0.18    0.18    0.00   0.03  33.70
sdd               0.00     0.00 9931.00    0.00 39724.00     0.00     8.00     2.09    0.21    0.21    0.00   0.04  41.50
sde               0.00     0.00 9803.00    0.00 39212.00     0.00     8.00     1.61    0.16    0.16    0.00   0.03  28.40
sdf               0.00     0.00 9841.00    0.00 39364.00     0.00     8.00     1.33    0.14    0.14    0.00   0.03  26.40
sdg               0.00     0.00    2.00    0.00     8.00     0.00     8.00     0.00    0.00    0.00    0.00   0.00   0.00
sdh               0.00     0.00    0.00    0.00     0.00     0.00     0.00     0.00    0.00    0.00    0.00   0.00   0.00
md0               0.00     0.00 59147.00    0.00 236588.00     0.00     8.00     0.00    0.00    0.00    0.00   0.00   0.00

avg-cpu:  %user   %nice %system %iowait  %steal   %idle
           1.08    0.00    7.28    1.08    0.00   90.57

Device:         rrqm/s   wrqm/s     r/s     w/s    rkB/s    wkB/s avgrq-sz avgqu-sz   await r_await w_await  svctm  %util
sda               0.00     0.00 10265.00    0.00 41060.00     0.00     8.00     1.34    0.13    0.13    0.00   0.02  24.30
sdb               0.00     0.00 9955.00    0.00 39820.00     0.00     8.00     1.24    0.12    0.12    0.00   0.03  25.30
sdc               0.00     0.00 10027.00    0.00 40108.00     0.00     8.00     1.86    0.19    0.19    0.00   0.03  34.10
sdd               0.00     0.00 10148.00    0.00 40592.00     0.00     8.00     1.95    0.19    0.19    0.00   0.04  38.20
sde               0.00     0.00 10183.00    0.00 40732.00     0.00     8.00     1.57    0.15    0.15    0.00   0.03  27.40
sdf               0.00     0.00 9818.00    0.00 39272.00     0.00     8.00     1.46    0.15    0.15    0.00   0.03  26.80
sdg               0.00     0.00    0.00    0.00     0.00     0.00     0.00     0.00    0.00    0.00    0.00   0.00   0.00
sdh               0.00     0.00    0.00    0.00     0.00     0.00     0.00     0.00    0.00    0.00    0.00   0.00   0.00
md0               0.00     0.00 60385.00    0.00 241540.00     0.00     8.00     0.00    0.00    0.00    0.00   0.00   0.00

avg-cpu:  %user   %nice %system %iowait  %steal   %idle
           0.79    0.00    9.19    2.36    0.00   87.66

Device:         rrqm/s   wrqm/s     r/s     w/s    rkB/s    wkB/s avgrq-sz avgqu-sz   await r_await w_await  svctm  %util
sda               0.00     0.00 9102.00    0.00 36408.00     0.00     8.00     1.16    0.13    0.13    0.00   0.03  26.10
sdb               0.00     0.00 9056.00    0.00 36224.00     0.00     8.00     1.03    0.11    0.11    0.00   0.03  24.40
sdc               0.00     0.00 9180.00    0.00 36720.00     0.00     8.00     1.28    0.14    0.14    0.00   0.03  28.10
sdd               0.00     0.00 9094.00    0.00 36376.00     0.00     8.00     1.29    0.14    0.14    0.00   0.04  32.50
sde               0.00     0.00 9161.00    0.00 36644.00     0.00     8.00     1.34    0.15    0.15    0.00   0.03  26.70
sdf               0.00     0.00 9281.00    0.00 37124.00     0.00     8.00     1.36    0.15    0.15    0.00   0.03  30.00
sdg               0.00     0.00    0.00    0.00     0.00     0.00     0.00     0.00    0.00    0.00    0.00   0.00   0.00
sdh               0.00     0.00    0.00    0.00     0.00     0.00     0.00     0.00    0.00    0.00    0.00   0.00   0.00
md0               0.00     0.00 54867.00    0.00 219468.00     0.00     8.00     0.00    0.00    0.00    0.00   0.00   0.00

avg-cpu:  %user   %nice %system %iowait  %steal   %idle
           1.06    0.00    8.78    0.53    0.00   89.63

Device:         rrqm/s   wrqm/s     r/s     w/s    rkB/s    wkB/s avgrq-sz avgqu-sz   await r_await w_await  svctm  %util
sda               0.00     0.00 9403.00    0.00 37612.00     0.00     8.00     1.25    0.13    0.13    0.00   0.03  28.30
sdb               0.00     0.00 9494.00    0.00 37976.00     0.00     8.00     1.20    0.13    0.13    0.00   0.03  27.70
sdc               0.00     0.00 9308.00    0.00 37232.00     0.00     8.00     1.40    0.15    0.15    0.00   0.03  30.70
sdd               0.00     0.00 9367.00    0.00 37468.00     0.00     8.00     1.42    0.15    0.15    0.00   0.04  33.60
sde               0.00     0.00 9410.00    0.00 37640.00     0.00     8.00     1.41    0.15    0.15    0.00   0.03  31.30
sdf               0.00     0.00 9516.00    0.00 38064.00     0.00     8.00     1.39    0.15    0.15    0.00   0.03  30.40
sdg               0.00     0.00    0.00    0.00     0.00     0.00     0.00     0.00    0.00    0.00    0.00   0.00   0.00
sdh               0.00     0.00    0.00    0.00     0.00     0.00     0.00     0.00    0.00    0.00    0.00   0.00   0.00
md0               0.00     0.00 56514.00    0.00 226056.00     0.00     8.00     0.00    0.00    0.00    0.00   0.00   0.00

avg-cpu:  %user   %nice %system %iowait  %steal   %idle
           1.33    0.00    8.75    1.86    0.00   88.06

Device:         rrqm/s   wrqm/s     r/s     w/s    rkB/s    wkB/s avgrq-sz avgqu-sz   await r_await w_await  svctm  %util
sda               0.00     0.00 10314.00    0.00 41256.00     0.00     8.00     1.35    0.13    0.13    0.00   0.03  27.20
sdb               0.00     0.00 10253.00    0.00 41012.00     0.00     8.00     1.30    0.13    0.13    0.00   0.03  26.30
sdc               0.00     0.00 10091.00    0.00 40364.00     0.00     8.00     1.62    0.16    0.16    0.00   0.03  31.50
sdd               0.00     0.00 10394.00    0.00 41576.00     0.00     8.00     1.70    0.16    0.16    0.00   0.03  34.80
sde               0.00     0.00 10201.00    0.00 40804.00     0.00     8.00     1.56    0.15    0.15    0.00   0.03  31.90
sdf               0.00     0.00 10095.00    0.00 40380.00     0.00     8.00     1.54    0.15    0.15    0.00   0.03  32.40
sdg               0.00     0.00    0.00    0.00     0.00     0.00     0.00     0.00    0.00    0.00    0.00   0.00   0.00
sdh               0.00     0.00    0.00    0.00     0.00     0.00     0.00     0.00    0.00    0.00    0.00   0.00   0.00
md0               0.00     0.00 61337.00    0.00 245348.00     0.00     8.00     0.00    0.00    0.00    0.00   0.00   0.00

