Linux 4.17.2 (bench) 	08/03/2018 	_x86_64_	(4 CPU)

avg-cpu:  %user   %nice %system %iowait  %steal   %idle
          10.29    0.02    4.01    2.48    0.00   83.21

Device:         rrqm/s   wrqm/s     r/s     w/s    rkB/s    wkB/s avgrq-sz avgqu-sz   await r_await w_await  svctm  %util
sda              41.50     4.27 1616.53  103.30 20699.28  3152.25    27.74     1.03    0.60    0.26    5.91   0.06  10.56
sdb              41.39     4.23 1616.42  103.44 20688.72  3148.89    27.72     1.02    0.60    0.26    5.85   0.06  10.44
sdc              79.46     4.29 1576.28  102.98 20680.90  3151.37    28.38     1.44    0.86    0.45    7.12   0.08  13.87
sdd              72.81     4.26 1582.08  103.06 20665.61  3147.54    28.26     1.45    0.86    0.44    7.32   0.08  13.97
sde              74.88     4.30 1587.20  103.15 20726.12  3151.82    28.25     1.47    0.87    0.44    7.43   0.08  13.99
sdf              71.98     4.27 1589.38  103.10 20707.12  3148.65    28.19     1.52    0.90    0.44    7.90   0.08  14.02
sdg               0.00     3.18   25.98   73.33   322.62   391.95    14.39     0.44    4.43    0.20    5.93   0.08   0.78
sdh               0.00     0.13    0.02    0.24     2.23     5.10    56.82     0.00    1.15    0.65    1.19   0.21   0.01
md0               0.00     0.00 9956.14  483.93 141711.20 21584.15    31.28     0.00    0.00    0.00    0.00   0.00   0.00

avg-cpu:  %user   %nice %system %iowait  %steal   %idle
           1.02    0.00   13.81    4.86    0.00   80.31

Device:         rrqm/s   wrqm/s     r/s     w/s    rkB/s    wkB/s avgrq-sz avgqu-sz   await r_await w_await  svctm  %util
sda               0.00     0.00 10711.00    0.00 42844.00     0.00     8.00     2.06    0.19    0.19    0.00   0.02  23.50
sdb               0.00     0.00 10155.00    0.00 40620.00     0.00     8.00     1.80    0.18    0.18    0.00   0.02  21.80
sdc               0.00     0.00 10036.00    0.00 40144.00     0.00     8.00     2.48    0.25    0.25    0.00   0.03  26.70
sdd               0.00     0.00 11493.00    0.00 45972.00     0.00     8.00     3.00    0.26    0.26    0.00   0.03  31.60
sde               0.00     0.00 10095.00    0.00 40380.00     0.00     8.00     2.71    0.27    0.27    0.00   0.03  32.00
sdf               0.00     0.00 10258.00    0.00 41032.00     0.00     8.00     2.60    0.25    0.25    0.00   0.03  30.10
sdg               0.00     0.00    3.00    0.00    88.00     0.00    58.67     0.00    0.33    0.33    0.00   0.33   0.10
sdh               0.00     0.00    0.00    0.00     0.00     0.00     0.00     0.00    0.00    0.00    0.00   0.00   0.00
md0               0.00     0.00 62768.00    0.00 251072.00     0.00     8.00     0.00    0.00    0.00    0.00   0.00   0.00

avg-cpu:  %user   %nice %system %iowait  %steal   %idle
           1.24    0.00   15.88    3.97    0.00   78.91

Device:         rrqm/s   wrqm/s     r/s     w/s    rkB/s    wkB/s avgrq-sz avgqu-sz   await r_await w_await  svctm  %util
sda               0.00     0.00 11135.00    0.00 44540.00     0.00     8.00     1.95    0.18    0.18    0.00   0.02  22.30
sdb               0.00     0.00 10140.00    0.00 40560.00     0.00     8.00     1.85    0.18    0.18    0.00   0.02  20.90
sdc               0.00     0.00 10046.00    0.00 40184.00     0.00     8.00     2.28    0.23    0.23    0.00   0.03  27.10
sdd               0.00     0.00 10792.00    0.00 43168.00     0.00     8.00     2.52    0.23    0.23    0.00   0.03  29.50
sde               0.00     0.00 10696.00    0.00 42784.00     0.00     8.00     2.43    0.23    0.23    0.00   0.03  28.30
sdf               0.00     0.00 10566.00    0.00 42264.00     0.00     8.00     2.74    0.26    0.26    0.00   0.03  29.60
sdg               0.00     0.00    0.00    0.00     0.00     0.00     0.00     0.00    0.00    0.00    0.00   0.00   0.00
sdh               0.00     0.00    0.00    0.00     0.00     0.00     0.00     0.00    0.00    0.00    0.00   0.00   0.00
md0               0.00     0.00 63383.00    0.00 253532.00     0.00     8.00     0.00    0.00    0.00    0.00   0.00   0.00

avg-cpu:  %user   %nice %system %iowait  %steal   %idle
           1.01    0.25   15.44    4.30    0.00   78.99

Device:         rrqm/s   wrqm/s     r/s     w/s    rkB/s    wkB/s avgrq-sz avgqu-sz   await r_await w_await  svctm  %util
sda               0.00     0.00 10575.00    0.00 42300.00     0.00     8.00     1.97    0.19    0.19    0.00   0.02  23.10
sdb               0.00     0.00 10209.00    0.00 40836.00     0.00     8.00     1.96    0.19    0.19    0.00   0.02  20.70
sdc               0.00     0.00 10082.00    0.00 40328.00     0.00     8.00     2.41    0.24    0.24    0.00   0.03  27.50
sdd               0.00     0.00 11125.00    0.00 44500.00     0.00     8.00     3.12    0.28    0.28    0.00   0.03  32.00
sde               0.00     0.00 10910.00    0.00 43640.00     0.00     8.00     2.71    0.25    0.25    0.00   0.03  29.40
sdf               0.00     0.00 11109.00    0.00 44436.00     0.00     8.00     2.87    0.26    0.26    0.00   0.03  29.00
sdg               0.00     0.00   38.00    0.00   464.00     0.00    24.42     0.01    0.18    0.18    0.00   0.16   0.60
sdh               0.00     0.00    0.00    0.00     0.00     0.00     0.00     0.00    0.00    0.00    0.00   0.00   0.00
md0               0.00     0.00 63996.00    0.00 255984.00     0.00     8.00     0.00    0.00    0.00    0.00   0.00   0.00

avg-cpu:  %user   %nice %system %iowait  %steal   %idle
           0.76    0.00   15.87    4.53    0.00   78.84

Device:         rrqm/s   wrqm/s     r/s     w/s    rkB/s    wkB/s avgrq-sz avgqu-sz   await r_await w_await  svctm  %util
sda               0.00     0.00 11753.00    0.00 47012.00     0.00     8.00     2.42    0.20    0.20    0.00   0.02  23.70
sdb               0.00     0.00 10965.00    0.00 43860.00     0.00     8.00     2.25    0.20    0.20    0.00   0.02  23.90
sdc               0.00     0.00 10538.00    0.00 42152.00     0.00     8.00     2.41    0.23    0.23    0.00   0.03  28.50
sdd               0.00     0.00 10020.00    0.00 40080.00     0.00     8.00     2.45    0.24    0.24    0.00   0.03  27.50
sde               0.00     0.00 11278.00    0.00 45112.00     0.00     8.00     2.94    0.26    0.26    0.00   0.03  32.20
sdf               0.00     0.00 10420.00    0.00 41680.00     0.00     8.00     2.48    0.24    0.24    0.00   0.03  27.80
sdg               0.00     0.00    0.00    0.00     0.00     0.00     0.00     0.00    0.00    0.00    0.00   0.00   0.00
sdh               0.00     0.00    0.00    0.00     0.00     0.00     0.00     0.00    0.00    0.00    0.00   0.00   0.00
md0               0.00     0.00 64989.00    0.00 259956.00     0.00     8.00     0.00    0.00    0.00    0.00   0.00   0.00

avg-cpu:  %user   %nice %system %iowait  %steal   %idle
           1.01    0.00   15.11    4.79    0.00   79.09

Device:         rrqm/s   wrqm/s     r/s     w/s    rkB/s    wkB/s avgrq-sz avgqu-sz   await r_await w_await  svctm  %util
sda               0.00     0.00 10568.00    0.00 42272.00     0.00     8.00     2.02    0.19    0.19    0.00   0.02  22.60
sdb               0.00     0.00 10564.00    0.00 42256.00     0.00     8.00     1.89    0.18    0.18    0.00   0.02  20.90
sdc               0.00     0.00 10508.00    0.00 42032.00     0.00     8.00     2.79    0.26    0.26    0.00   0.03  30.80
sdd               0.00     0.00 11695.00    0.00 46780.00     0.00     8.00     2.85    0.24    0.24    0.00   0.02  29.20
sde               0.00     0.00 10811.00    0.00 43244.00     0.00     8.00     2.67    0.25    0.25    0.00   0.03  28.90
sdf               0.00     0.00 10386.00    0.00 41544.00     0.00     8.00     2.52    0.24    0.24    0.00   0.03  29.30
sdg               0.00     0.00    0.00    0.00     0.00     0.00     0.00     0.00    0.00    0.00    0.00   0.00   0.00
sdh               0.00     0.00    0.00    0.00     0.00     0.00     0.00     0.00    0.00    0.00    0.00   0.00   0.00
md0               0.00     0.00 64517.00    0.00 258068.00     0.00     8.00     0.00    0.00    0.00    0.00   0.00   0.00

avg-cpu:  %user   %nice %system %iowait  %steal   %idle
           1.25    0.00   15.96    4.49    0.00   78.30

Device:         rrqm/s   wrqm/s     r/s     w/s    rkB/s    wkB/s avgrq-sz avgqu-sz   await r_await w_await  svctm  %util
sda               0.00     0.00 9972.00    0.00 39888.00     0.00     8.00     1.81    0.18    0.18    0.00   0.02  22.00
sdb               0.00     0.00 10684.00    0.00 42736.00     0.00     8.00     1.72    0.16    0.16    0.00   0.02  21.10
sdc               0.00     0.00 10092.00    0.00 40368.00     0.00     8.00     2.13    0.21    0.21    0.00   0.03  28.10
sdd               0.00     0.00 10423.00    0.00 41692.00     0.00     8.00     2.40    0.23    0.23    0.00   0.03  28.30
sde               0.00     0.00 10330.00    0.00 41320.00     0.00     8.00     2.53    0.25    0.25    0.00   0.03  29.90
sdf               0.00     0.00 10717.00    0.00 42868.00     0.00     8.00     2.75    0.26    0.26    0.00   0.03  30.20
sdg               0.00     0.00    0.00    0.00     0.00     0.00     0.00     0.00    0.00    0.00    0.00   0.00   0.00
sdh               0.00     0.00    0.00    0.00     0.00     0.00     0.00     0.00    0.00    0.00    0.00   0.00   0.00
md0               0.00     0.00 62219.00    0.00 248876.00     0.00     8.00     0.00    0.00    0.00    0.00   0.00   0.00

avg-cpu:  %user   %nice %system %iowait  %steal   %idle
           1.02    0.00   13.81    3.84    0.00   81.33

Device:         rrqm/s   wrqm/s     r/s     w/s    rkB/s    wkB/s avgrq-sz avgqu-sz   await r_await w_await  svctm  %util
sda               0.00     0.00 10134.00    0.00 40536.00     0.00     8.00     1.85    0.18    0.18    0.00   0.02  22.10
sdb               0.00     0.00 10426.00    0.00 41704.00     0.00     8.00     1.99    0.19    0.19    0.00   0.02  22.60
sdc               0.00     0.00 10312.00    0.00 41248.00     0.00     8.00     2.47    0.24    0.24    0.00   0.03  29.10
sdd               0.00     0.00 10248.00    0.00 40992.00     0.00     8.00     2.47    0.24    0.24    0.00   0.03  29.60
sde               0.00     0.00 10117.00    0.00 40468.00     0.00     8.00     2.27    0.22    0.22    0.00   0.03  29.80
sdf               0.00     0.00 9727.00    0.00 38908.00     0.00     8.00     2.30    0.24    0.24    0.00   0.03  26.30
sdg               0.00     0.00   15.00    0.00   292.00     0.00    38.93     0.00    0.20    0.20    0.00   0.20   0.30
sdh               0.00     0.00    0.00    0.00     0.00     0.00     0.00     0.00    0.00    0.00    0.00   0.00   0.00
md0               0.00     0.00 60977.00    0.00 243908.00     0.00     8.00     0.00    0.00    0.00    0.00   0.00   0.00

avg-cpu:  %user   %nice %system %iowait  %steal   %idle
           1.26    0.00   14.65    3.79    0.00   80.30

Device:         rrqm/s   wrqm/s     r/s     w/s    rkB/s    wkB/s avgrq-sz avgqu-sz   await r_await w_await  svctm  %util
sda               0.00     0.00 10516.00    0.00 42064.00     0.00     8.00     1.71    0.16    0.16    0.00   0.02  20.50
sdb               0.00     0.00 10306.00    0.00 41224.00     0.00     8.00     1.87    0.18    0.18    0.00   0.02  23.30
sdc               0.00     0.00 10900.00    0.00 43600.00     0.00     8.00     2.57    0.24    0.24    0.00   0.03  29.50
sdd               0.00     0.00 10318.00    0.00 41272.00     0.00     8.00     2.23    0.22    0.22    0.00   0.03  26.10
sde               0.00     0.00 10340.00    0.00 41360.00     0.00     8.00     2.71    0.26    0.26    0.00   0.03  29.70
sdf               0.00     0.00 10408.00    0.00 41632.00     0.00     8.00     2.48    0.24    0.24    0.00   0.03  27.20
sdg               0.00     0.00    0.00    0.00     0.00     0.00     0.00     0.00    0.00    0.00    0.00   0.00   0.00
sdh               0.00     0.00    0.00    0.00     0.00     0.00     0.00     0.00    0.00    0.00    0.00   0.00   0.00
md0               0.00     0.00 62790.00    0.00 251160.00     0.00     8.00     0.00    0.00    0.00    0.00   0.00   0.00

avg-cpu:  %user   %nice %system %iowait  %steal   %idle
           0.76    0.00   15.37    5.29    0.00   78.59

Device:         rrqm/s   wrqm/s     r/s     w/s    rkB/s    wkB/s avgrq-sz avgqu-sz   await r_await w_await  svctm  %util
sda               0.00     0.00 10992.00    0.00 43968.00     0.00     8.00     2.05    0.19    0.19    0.00   0.02  23.80
sdb               0.00     0.00 10433.00    0.00 41732.00     0.00     8.00     1.79    0.17    0.17    0.00   0.02  22.20
sdc               0.00     0.00 11015.00    0.00 44060.00     0.00     8.00     2.74    0.25    0.25    0.00   0.03  29.60
sdd               0.00     0.00 10273.00    0.00 41092.00     0.00     8.00     2.68    0.26    0.26    0.00   0.03  28.80
sde               0.00     0.00 10011.00    0.00 40044.00     0.00     8.00     2.47    0.25    0.25    0.00   0.03  28.30
sdf               0.00     0.00 10047.00    0.00 40188.00     0.00     8.00     2.39    0.24    0.24    0.00   0.03  29.70
sdg               0.00     0.00    0.00    0.00     0.00     0.00     0.00     0.00    0.00    0.00    0.00   0.00   0.00
sdh               0.00     0.00    0.00    0.00     0.00     0.00     0.00     0.00    0.00    0.00    0.00   0.00   0.00
md0               0.00     0.00 62769.00    0.00 251076.00     0.00     8.00     0.00    0.00    0.00    0.00   0.00   0.00

avg-cpu:  %user   %nice %system %iowait  %steal   %idle
           1.26    0.00   14.39    4.04    0.00   80.30

Device:         rrqm/s   wrqm/s     r/s     w/s    rkB/s    wkB/s avgrq-sz avgqu-sz   await r_await w_await  svctm  %util
sda               0.00     0.00 10559.00    0.00 42236.00     0.00     8.00     1.84    0.17    0.17    0.00   0.02  21.40
sdb               0.00     0.00 10091.00    0.00 40364.00     0.00     8.00     1.71    0.17    0.17    0.00   0.02  20.90
sdc               0.00     0.00 10884.00    0.00 43536.00     0.00     8.00     2.68    0.25    0.25    0.00   0.03  30.60
sdd               0.00     0.00 10389.00    0.00 41556.00     0.00     8.00     2.64    0.25    0.25    0.00   0.03  30.00
sde               0.00     0.00 10199.00    0.00 40796.00     0.00     8.00     2.34    0.23    0.23    0.00   0.03  29.00
sdf               0.00     0.00 10472.00    0.00 41888.00     0.00     8.00     2.94    0.28    0.28    0.00   0.03  30.10
sdg               0.00     0.00    0.00    0.00     0.00     0.00     0.00     0.00    0.00    0.00    0.00   0.00   0.00
sdh               0.00     0.00    0.00    0.00     0.00     0.00     0.00     0.00    0.00    0.00    0.00   0.00   0.00
md0               0.00     0.00 62582.00    0.00 250328.00     0.00     8.00     0.00    0.00    0.00    0.00   0.00   0.00

avg-cpu:  %user   %nice %system %iowait  %steal   %idle
           0.76    0.00   14.90    3.79    0.00   80.56

Device:         rrqm/s   wrqm/s     r/s     w/s    rkB/s    wkB/s avgrq-sz avgqu-sz   await r_await w_await  svctm  %util
sda               0.00     0.00 9948.00    0.00 39792.00     0.00     8.00     1.87    0.19    0.19    0.00   0.02  24.40
sdb               0.00     0.00 10135.00    0.00 40540.00     0.00     8.00     2.11    0.21    0.21    0.00   0.02  24.70
sdc               0.00     0.00 10327.00    0.00 41308.00     0.00     8.00     2.41    0.23    0.23    0.00   0.03  29.20
sdd               0.00     0.00 9990.00    0.00 39960.00     0.00     8.00     2.33    0.23    0.23    0.00   0.03  26.30
sde               0.00     0.00 9753.00    0.00 39012.00     0.00     8.00     2.27    0.23    0.23    0.00   0.03  26.50
sdf               0.00     0.00 10476.00    0.00 41904.00     0.00     8.00     2.38    0.23    0.23    0.00   0.03  27.80
sdg               0.00     0.00    0.00    0.00     0.00     0.00     0.00     0.00    0.00    0.00    0.00   0.00   0.00
sdh               0.00     0.00    0.00    0.00     0.00     0.00     0.00     0.00    0.00    0.00    0.00   0.00   0.00
md0               0.00     0.00 60630.00    0.00 242520.00     0.00     8.00     0.00    0.00    0.00    0.00   0.00   0.00

avg-cpu:  %user   %nice %system %iowait  %steal   %idle
           1.26    0.00   14.65    5.05    0.00   79.04

Device:         rrqm/s   wrqm/s     r/s     w/s    rkB/s    wkB/s avgrq-sz avgqu-sz   await r_await w_await  svctm  %util
sda               0.00     0.00 10493.00    0.00 41972.00     0.00     8.00     1.84    0.18    0.18    0.00   0.02  24.20
sdb               0.00     0.00 9764.00    0.00 39056.00     0.00     8.00     1.99    0.20    0.20    0.00   0.02  23.60
sdc               0.00     0.00 9092.00    0.00 36368.00     0.00     8.00     2.01    0.22    0.22    0.00   0.03  26.20
sdd               0.00     0.00 9509.00    0.00 38036.00     0.00     8.00     2.12    0.22    0.22    0.00   0.03  27.90
sde               0.00     0.00 9861.00    0.00 39444.00     0.00     8.00     2.26    0.23    0.23    0.00   0.03  27.80
sdf               0.00     0.00 10077.00    0.00 40308.00     0.00     8.00     2.02    0.20    0.20    0.00   0.03  27.60
sdg               0.00     0.00    0.00    0.00     0.00     0.00     0.00     0.00    0.00    0.00    0.00   0.00   0.00
sdh               0.00     0.00    0.00    0.00     0.00     0.00     0.00     0.00    0.00    0.00    0.00   0.00   0.00
md0               0.00     0.00 58793.00    0.00 235172.00     0.00     8.00     0.00    0.00    0.00    0.00   0.00   0.00

avg-cpu:  %user   %nice %system %iowait  %steal   %idle
           1.24    0.25   15.67    4.23    0.00   78.61

Device:         rrqm/s   wrqm/s     r/s     w/s    rkB/s    wkB/s avgrq-sz avgqu-sz   await r_await w_await  svctm  %util
sda               0.00     0.00 10308.00    0.00 41232.00     0.00     8.00     2.01    0.20    0.20    0.00   0.02  22.80
sdb               0.00     0.00 10373.00    0.00 41492.00     0.00     8.00     1.74    0.17    0.17    0.00   0.02  21.60
sdc               0.00     0.00 10048.00    0.00 40192.00     0.00     8.00     2.35    0.23    0.23    0.00   0.03  26.40
sdd               0.00     0.00 10174.00    0.00 40696.00     0.00     8.00     2.25    0.22    0.22    0.00   0.03  27.70
sde               0.00     0.00 9960.00    0.00 39840.00     0.00     8.00     2.46    0.25    0.25    0.00   0.03  28.40
sdf               0.00     0.00 10161.00    0.00 40644.00     0.00     8.00     2.28    0.23    0.23    0.00   0.03  28.00
sdg               0.00     0.00    2.00    0.00     8.00     0.00     8.00     0.00    0.50    0.50    0.00   0.50   0.10
sdh               0.00     0.00    0.00    0.00     0.00     0.00     0.00     0.00    0.00    0.00    0.00   0.00   0.00
md0               0.00     0.00 61036.00    0.00 244144.00     0.00     8.00     0.00    0.00    0.00    0.00   0.00   0.00

avg-cpu:  %user   %nice %system %iowait  %steal   %idle
           0.75    0.00   16.17    4.73    0.00   78.36

Device:         rrqm/s   wrqm/s     r/s     w/s    rkB/s    wkB/s avgrq-sz avgqu-sz   await r_await w_await  svctm  %util
sda               0.00     0.00 10237.00    0.00 40948.00     0.00     8.00     2.07    0.20    0.20    0.00   0.02  24.60
sdb               0.00     0.00 10201.00    0.00 40804.00     0.00     8.00     2.06    0.20    0.20    0.00   0.02  24.90
sdc               0.00     0.00 10002.00    0.00 40008.00     0.00     8.00     2.51    0.25    0.25    0.00   0.03  28.70
sdd               0.00     0.00 9943.00    0.00 39772.00     0.00     8.00     2.40    0.24    0.24    0.00   0.03  26.90
sde               0.00     0.00 10180.00    0.00 40720.00     0.00     8.00     2.31    0.23    0.23    0.00   0.03  28.10
sdf               0.00     0.00 10182.00    0.00 40728.00     0.00     8.00     2.48    0.24    0.24    0.00   0.03  28.60
sdg               0.00     0.00    0.00    0.00     0.00     0.00     0.00     0.00    0.00    0.00    0.00   0.00   0.00
sdh               0.00     0.00    0.00    0.00     0.00     0.00     0.00     0.00    0.00    0.00    0.00   0.00   0.00
md0               0.00     0.00 60735.00    0.00 242940.00     0.00     8.00     0.00    0.00    0.00    0.00   0.00   0.00

avg-cpu:  %user   %nice %system %iowait  %steal   %idle
           1.00    0.00   15.29    3.76    0.00   79.95

Device:         rrqm/s   wrqm/s     r/s     w/s    rkB/s    wkB/s avgrq-sz avgqu-sz   await r_await w_await  svctm  %util
sda               0.00     0.00 10587.00    0.00 42348.00     0.00     8.00     1.95    0.18    0.18    0.00   0.02  23.70
sdb               0.00     0.00 10672.00    0.00 42688.00     0.00     8.00     1.91    0.18    0.18    0.00   0.02  23.60
sdc               0.00     0.00 9853.00    0.00 39412.00     0.00     8.00     2.26    0.23    0.23    0.00   0.03  26.50
sdd               0.00     0.00 10028.00    0.00 40112.00     0.00     8.00     2.32    0.23    0.23    0.00   0.03  29.40
sde               0.00     0.00 9918.00    0.00 39672.00     0.00     8.00     2.35    0.24    0.24    0.00   0.03  29.80
sdf               0.00     0.00 10235.00    0.00 40940.00     0.00     8.00     2.61    0.26    0.26    0.00   0.03  29.30
sdg               0.00     0.00    1.00    3.00     4.00    24.00    14.00     0.00    0.00    0.00    0.00   0.00   0.00
sdh               0.00     0.00    0.00    0.00     0.00     0.00     0.00     0.00    0.00    0.00    0.00   0.00   0.00
md0               0.00     0.00 61294.00    0.00 245176.00     0.00     8.00     0.00    0.00    0.00    0.00   0.00   0.00

avg-cpu:  %user   %nice %system %iowait  %steal   %idle
           1.74    0.00   15.17    4.73    0.00   78.36

Device:         rrqm/s   wrqm/s     r/s     w/s    rkB/s    wkB/s avgrq-sz avgqu-sz   await r_await w_await  svctm  %util
sda               0.00     0.00 9013.00    0.00 36052.00     0.00     8.00     1.30    0.14    0.14    0.00   0.02  20.50
sdb               0.00     0.00 9632.00    0.00 38528.00     0.00     8.00     1.58    0.16    0.16    0.00   0.02  22.40
sdc               0.00     0.00 9979.00    0.00 39916.00     0.00     8.00     2.30    0.23    0.23    0.00   0.03  27.50
sdd               0.00     0.00 9593.00    0.00 38372.00     0.00     8.00     2.22    0.23    0.23    0.00   0.03  27.80
sde               0.00     0.00 9808.00    0.00 39232.00     0.00     8.00     2.23    0.23    0.23    0.00   0.03  27.30
sdf               0.00     0.00 9325.00    0.00 37300.00     0.00     8.00     2.00    0.22    0.22    0.00   0.03  26.80
sdg               0.00     0.00    0.00    0.00     0.00     0.00     0.00     0.00    0.00    0.00    0.00   0.00   0.00
sdh               0.00     0.00    0.00    0.00     0.00     0.00     0.00     0.00    0.00    0.00    0.00   0.00   0.00
md0               0.00     0.00 57353.00    0.00 229412.00     0.00     8.00     0.00    0.00    0.00    0.00   0.00   0.00

avg-cpu:  %user   %nice %system %iowait  %steal   %idle
           1.50    0.00   15.21    4.24    0.00   79.05

Device:         rrqm/s   wrqm/s     r/s     w/s    rkB/s    wkB/s avgrq-sz avgqu-sz   await r_await w_await  svctm  %util
sda               0.00     0.00 9521.00    0.00 38084.00     0.00     8.00     1.64    0.17    0.17    0.00   0.02  23.10
sdb               0.00     0.00 9247.00    0.00 36988.00     0.00     8.00     1.54    0.17    0.17    0.00   0.02  19.80
sdc               0.00     0.00 9916.00    0.00 39664.00     0.00     8.00     2.06    0.21    0.21    0.00   0.03  25.40
sdd               0.00     0.00 9376.00    0.00 37504.00     0.00     8.00     2.04    0.22    0.22    0.00   0.03  27.20
sde               0.00     0.00 9669.00    0.00 38676.00     0.00     8.00     2.15    0.22    0.22    0.00   0.03  28.60
sdf               0.00     0.00 10137.00    0.00 40548.00     0.00     8.00     2.23    0.22    0.22    0.00   0.03  29.80
sdg               0.00     0.00    0.00    0.00     0.00     0.00     0.00     0.00    0.00    0.00    0.00   0.00   0.00
sdh               0.00     0.00    0.00    0.00     0.00     0.00     0.00     0.00    0.00    0.00    0.00   0.00   0.00
md0               0.00     0.00 57858.00    0.00 231432.00     0.00     8.00     0.00    0.00    0.00    0.00   0.00   0.00

avg-cpu:  %user   %nice %system %iowait  %steal   %idle
           1.24    0.00   15.42    4.48    0.00   78.86

Device:         rrqm/s   wrqm/s     r/s     w/s    rkB/s    wkB/s avgrq-sz avgqu-sz   await r_await w_await  svctm  %util
sda               0.00     0.00 9907.00    0.00 39628.00     0.00     8.00     2.05    0.21    0.21    0.00   0.03  25.60
sdb               0.00     0.00 9387.00    0.00 37548.00     0.00     8.00     1.52    0.16    0.16    0.00   0.02  19.80
sdc               0.00     0.00 9862.00    0.00 39448.00     0.00     8.00     1.99    0.20    0.20    0.00   0.03  26.20
sdd               0.00     0.00 9512.00    0.00 38048.00     0.00     8.00     2.10    0.22    0.22    0.00   0.03  26.90
sde               0.00     0.00 10229.00    0.00 40916.00     0.00     8.00     2.19    0.21    0.21    0.00   0.03  28.40
sdf               0.00     0.00 10046.00    0.00 40184.00     0.00     8.00     2.31    0.23    0.23    0.00   0.03  29.90
sdg               0.00     0.00    0.00    0.00     0.00     0.00     0.00     0.00    0.00    0.00    0.00   0.00   0.00
sdh               0.00     0.00    0.00    0.00     0.00     0.00     0.00     0.00    0.00    0.00    0.00   0.00   0.00
md0               0.00     0.00 58946.00    0.00 235784.00     0.00     8.00     0.00    0.00    0.00    0.00   0.00   0.00

avg-cpu:  %user   %nice %system %iowait  %steal   %idle
           1.27    0.00   14.18    4.81    0.00   79.75

Device:         rrqm/s   wrqm/s     r/s     w/s    rkB/s    wkB/s avgrq-sz avgqu-sz   await r_await w_await  svctm  %util
sda               0.00     0.00 9292.00    0.00 37168.00     0.00     8.00     1.65    0.18    0.18    0.00   0.02  22.30
sdb               0.00     0.00 9890.00    0.00 39560.00     0.00     8.00     1.89    0.19    0.19    0.00   0.02  22.50
sdc               0.00     0.00 9365.00    0.00 37460.00     0.00     8.00     2.03    0.22    0.22    0.00   0.03  26.80
sdd               0.00     0.00 10040.00    0.00 40160.00     0.00     8.00     1.94    0.19    0.19    0.00   0.03  28.20
sde               0.00     0.00 9865.00    0.00 39460.00     0.00     8.00     2.25    0.23    0.23    0.00   0.03  27.90
sdf               0.00     0.00 10253.00    0.00 41012.00     0.00     8.00     2.28    0.22    0.22    0.00   0.03  29.20
sdg               0.00     0.00    0.00    0.00     0.00     0.00     0.00     0.00    0.00    0.00    0.00   0.00   0.00
sdh               0.00     0.00    0.00    0.00     0.00     0.00     0.00     0.00    0.00    0.00    0.00   0.00   0.00
md0               0.00     0.00 58698.00    0.00 234792.00     0.00     8.00     0.00    0.00    0.00    0.00   0.00   0.00

avg-cpu:  %user   %nice %system %iowait  %steal   %idle
           1.00    0.00   15.29    4.76    0.00   78.95

Device:         rrqm/s   wrqm/s     r/s     w/s    rkB/s    wkB/s avgrq-sz avgqu-sz   await r_await w_await  svctm  %util
sda               0.00     0.00 9699.00    0.00 38796.00     0.00     8.00     1.85    0.19    0.19    0.00   0.03  24.60
sdb               0.00     0.00 9729.00    0.00 38916.00     0.00     8.00     1.65    0.17    0.17    0.00   0.02  22.00
sdc               0.00     0.00 9247.00    0.00 36988.00     0.00     8.00     1.91    0.21    0.21    0.00   0.03  26.10
sdd               0.00     0.00 9993.00    0.00 39972.00     0.00     8.00     2.10    0.21    0.21    0.00   0.03  27.00
sde               0.00     0.00 9690.00    0.00 38760.00     0.00     8.00     2.17    0.22    0.22    0.00   0.03  28.50
sdf               0.00     0.00 9534.00    0.00 38136.00     0.00     8.00     2.32    0.24    0.24    0.00   0.03  27.70
sdg               0.00     0.00    0.00    0.00     0.00     0.00     0.00     0.00    0.00    0.00    0.00   0.00   0.00
sdh               0.00     0.00    0.00    0.00     0.00     0.00     0.00     0.00    0.00    0.00    0.00   0.00   0.00
md0               0.00     0.00 57887.00    0.00 231548.00     0.00     8.00     0.00    0.00    0.00    0.00   0.00   0.00

