Linux 4.17.2 (bench) 	08/03/2018 	_x86_64_	(4 CPU)

avg-cpu:  %user   %nice %system %iowait  %steal   %idle
          10.28    0.02    4.04    2.53    0.00   83.12

Device:         rrqm/s   wrqm/s     r/s     w/s    rkB/s    wkB/s avgrq-sz avgqu-sz   await r_await w_await  svctm  %util
sda              44.31     4.25 1640.83  102.82 20840.06  3137.75    27.50     1.03    0.59    0.26    5.91   0.06  10.67
sdb              44.18     4.21 1640.75  102.96 20829.47  3134.40    27.49     1.03    0.59    0.26    5.85   0.06  10.55
sdc              82.18     4.27 1600.66  102.51 20821.60  3136.87    28.13     1.45    0.85    0.45    7.12   0.08  13.99
sdd              75.57     4.24 1606.43  102.58 20806.45  3133.06    28.02     1.46    0.85    0.44    7.32   0.08  14.08
sde              77.62     4.28 1611.52  102.68 20866.47  3137.32    28.01     1.48    0.86    0.44    7.43   0.08  14.10
sdf              74.72     4.25 1613.68  102.62 20847.64  3134.17    27.95     1.52    0.89    0.44    7.90   0.08  14.14
sdg               0.00     3.17   26.16   73.31   323.37   391.94    14.38     0.44    4.42    0.20    5.93   0.08   0.78
sdh               0.00     0.13    0.02    0.24     2.22     5.08    56.82     0.00    1.15    0.65    1.19   0.21   0.01
md0               0.00     0.00 10118.95  481.70 142694.03 21484.86    30.98     0.00    0.00    0.00    0.00   0.00   0.00

avg-cpu:  %user   %nice %system %iowait  %steal   %idle
           1.53    0.00   12.21    4.33    0.00   81.93

Device:         rrqm/s   wrqm/s     r/s     w/s    rkB/s    wkB/s avgrq-sz avgqu-sz   await r_await w_await  svctm  %util
sda               0.00     0.00 5992.00    0.00 23968.00     0.00     8.00     0.62    0.10    0.10    0.00   0.06  33.20
sdb               0.00     0.00 5740.00    0.00 22960.00     0.00     8.00     0.64    0.11    0.11    0.00   0.06  33.20
sdc               0.00     0.00 6036.00    0.00 24144.00     0.00     8.00     0.73    0.12    0.12    0.00   0.06  38.10
sdd               0.00     0.00 6098.00    0.00 24392.00     0.00     8.00     0.82    0.14    0.14    0.00   0.07  40.30
sde               0.00     0.00 5937.00    0.00 23748.00     0.00     8.00     0.74    0.13    0.13    0.00   0.06  35.90
sdf               0.00     0.00 6023.00    0.00 24092.00     0.00     8.00     0.76    0.13    0.13    0.00   0.06  37.10
sdg               0.00    17.00   25.00   67.00   400.00  1252.00    35.91     0.17    1.89    0.36    2.46   0.15   1.40
sdh               0.00     0.00    0.00    0.00     0.00     0.00     0.00     0.00    0.00    0.00    0.00   0.00   0.00
md0               0.00     0.00 35804.00    0.00 143216.00     0.00     8.00     0.00    0.00    0.00    0.00   0.00   0.00

