Linux 4.17.2 (bench) 	08/03/2018 	_x86_64_	(4 CPU)

avg-cpu:  %user   %nice %system %iowait  %steal   %idle
          10.28    0.02    4.06    2.56    0.00   83.09

Device:         rrqm/s   wrqm/s     r/s     w/s    rkB/s    wkB/s avgrq-sz avgqu-sz   await r_await w_await  svctm  %util
sda              44.53     4.24 1651.16  102.61 20929.16  3131.14    27.44     1.03    0.59    0.26    5.91   0.06  10.72
sdb              44.41     4.20 1651.08  102.74 20918.58  3127.80    27.42     1.03    0.59    0.26    5.85   0.06  10.59
sdc              82.32     4.26 1611.08  102.30 20910.67  3130.27    28.06     1.45    0.85    0.45    7.12   0.08  14.05
sdd              75.73     4.23 1616.83  102.37 20895.52  3126.46    27.95     1.46    0.85    0.44    7.32   0.08  14.14
sde              77.78     4.27 1621.90  102.46 20955.42  3130.71    27.94     1.48    0.86    0.44    7.43   0.08  14.17
sdf              74.89     4.24 1624.06  102.41 20936.63  3127.57    27.88     1.52    0.88    0.44    7.90   0.08  14.20
sdg               0.00     3.17   26.27   73.31   323.84   391.97    14.38     0.44    4.42    0.20    5.93   0.08   0.78
sdh               0.00     0.13    0.02    0.24     2.21     5.07    56.82     0.00    1.15    0.65    1.19   0.21   0.01
md0               0.00     0.00 10182.47  480.69 143374.38 21439.61    30.91     0.00    0.00    0.00    0.00   0.00   0.00

avg-cpu:  %user   %nice %system %iowait  %steal   %idle
           1.01    0.00   47.10    1.51    0.00   50.38

Device:         rrqm/s   wrqm/s     r/s     w/s    rkB/s    wkB/s avgrq-sz avgqu-sz   await r_await w_await  svctm  %util
sda               5.00     0.00 32947.00    0.00 131808.00     0.00     8.00    47.91    1.45    1.45    0.00   0.02  77.40
sdb               5.00     0.00 33092.00    0.00 132388.00     0.00     8.00    48.12    1.45    1.45    0.00   0.02  77.70
sdc               4.00     0.00 32733.00    0.00 130948.00     0.00     8.00    54.57    1.67    1.67    0.00   0.03  83.10
sdd               1.00     0.00 33162.00    0.00 132652.00     0.00     8.00    56.02    1.69    1.69    0.00   0.02  82.00
sde               9.00     0.00 33015.00    0.00 132096.00     0.00     8.00    55.47    1.68    1.68    0.00   0.03  82.90
sdf               3.00     0.00 32927.00    0.00 131720.00     0.00     8.00    55.12    1.67    1.67    0.00   0.02  82.30
sdg               0.00    18.00   30.00   65.00   480.00  1236.00    36.13     0.20    2.05    0.13    2.94   0.11   1.00
sdh               0.00     0.00    0.00    0.00     0.00     0.00     0.00     0.00    0.00    0.00    0.00   0.00   0.00
md0               0.00     0.00 197552.00    0.00 790208.00     0.00     8.00     0.00    0.00    0.00    0.00   0.00   0.00

avg-cpu:  %user   %nice %system %iowait  %steal   %idle
           1.23    0.00   49.38    0.74    0.00   48.64

Device:         rrqm/s   wrqm/s     r/s     w/s    rkB/s    wkB/s avgrq-sz avgqu-sz   await r_await w_await  svctm  %util
sda               3.00     0.00 32580.00    0.00 130332.00     0.00     8.00    41.94    1.29    1.29    0.00   0.02  76.90
sdb               4.00     0.00 32757.00    0.00 131044.00     0.00     8.00    42.75    1.30    1.30    0.00   0.02  77.60
sdc               0.00     0.00 32513.00    0.00 130052.00     0.00     8.00    49.10    1.51    1.51    0.00   0.03  81.90
sdd               1.00     0.00 32560.00    0.00 130244.00     0.00     8.00    49.11    1.51    1.51    0.00   0.03  82.30
sde               3.00     0.00 32819.00    0.00 131288.00     0.00     8.00    50.16    1.52    1.52    0.00   0.03  83.50
sdf               3.00     0.00 32537.00    0.00 130160.00     0.00     8.00    49.24    1.51    1.51    0.00   0.03  81.40
sdg               0.00     0.00    0.00    0.00     0.00     0.00     0.00     0.00    0.00    0.00    0.00   0.00   0.00
sdh               0.00     0.00    0.00    0.00     0.00     0.00     0.00     0.00    0.00    0.00    0.00   0.00   0.00
md0               0.00     0.00 195845.00    0.00 783380.00     0.00     8.00     0.00    0.00    0.00    0.00   0.00   0.00

