Linux 4.17.2 (bench) 	08/03/2018 	_x86_64_	(4 CPU)

avg-cpu:  %user   %nice %system %iowait  %steal   %idle
          10.28    0.02    4.05    2.55    0.00   83.10

Device:         rrqm/s   wrqm/s     r/s     w/s    rkB/s    wkB/s avgrq-sz avgqu-sz   await r_await w_await  svctm  %util
sda              44.32     4.24 1647.78  102.66 20896.75  3132.77    27.46     1.03    0.59    0.26    5.91   0.06  10.70
sdb              44.19     4.20 1647.71  102.80 20886.16  3129.43    27.44     1.03    0.59    0.26    5.85   0.06  10.58
sdc              82.13     4.26 1607.68  102.35 20878.27  3131.90    28.08     1.45    0.85    0.45    7.12   0.08  14.03
sdd              75.54     4.23 1613.44  102.42 20863.11  3128.09    27.96     1.46    0.85    0.44    7.32   0.08  14.13
sde              77.58     4.27 1618.52  102.52 20923.06  3132.34    27.95     1.48    0.86    0.44    7.43   0.08  14.15
sdf              74.69     4.25 1620.68  102.46 20904.26  3129.20    27.89     1.52    0.88    0.44    7.90   0.08  14.18
sdg               0.00     3.17   26.23   73.30   323.67   391.95    14.38     0.44    4.42    0.20    5.93   0.08   0.78
sdh               0.00     0.13    0.02    0.24     2.21     5.07    56.82     0.00    1.15    0.65    1.19   0.21   0.01
md0               0.00     0.00 10160.80  480.94 143127.16 21450.79    30.93     0.00    0.00    0.00    0.00   0.00   0.00

avg-cpu:  %user   %nice %system %iowait  %steal   %idle
           1.27    0.00   23.86    0.76    0.00   74.11

Device:         rrqm/s   wrqm/s     r/s     w/s    rkB/s    wkB/s avgrq-sz avgqu-sz   await r_await w_await  svctm  %util
sda            1942.00     0.00 18866.00    0.00 83384.00     0.00     8.84     5.00    0.26    0.26    0.00   0.02  35.90
sdb            1814.00     0.00 17699.00    0.00 78168.00     0.00     8.83     4.51    0.25    0.25    0.00   0.02  33.30
sdc            1860.00     0.00 18858.00    0.00 83140.00     0.00     8.82     6.85    0.36    0.36    0.00   0.03  50.00
sdd            1724.00     0.00 18611.00    0.00 81460.00     0.00     8.75     6.65    0.36    0.36    0.00   0.03  49.30
sde            1764.00     0.00 18323.00    0.00 80456.00     0.00     8.78     6.56    0.36    0.36    0.00   0.03  49.70
sdf            1840.00     0.00 18725.00    0.00 82220.00     0.00     8.78     6.78    0.36    0.36    0.00   0.03  51.10
sdg               0.00     1.00    0.00   11.00     0.00   156.00    28.36     0.00    0.00    0.00    0.00   0.00   0.00
sdh               0.00     0.00    0.00    0.00     0.00     0.00     0.00     0.00    0.00    0.00    0.00   0.00   0.00
md0               0.00     0.00 122146.00    0.00 488584.00     0.00     8.00     0.00    0.00    0.00    0.00   0.00   0.00

avg-cpu:  %user   %nice %system %iowait  %steal   %idle
           1.28    0.00   23.08    1.03    0.00   74.62

Device:         rrqm/s   wrqm/s     r/s     w/s    rkB/s    wkB/s avgrq-sz avgqu-sz   await r_await w_await  svctm  %util
sda            2093.00     0.00 18383.00    0.00 82032.00     0.00     8.92     4.68    0.25    0.25    0.00   0.02  34.50
sdb            1750.00     0.00 18666.00    0.00 81776.00     0.00     8.76     4.87    0.26    0.26    0.00   0.02  35.40
sdc            1815.00     0.00 17987.00    0.00 79332.00     0.00     8.82     6.09    0.34    0.34    0.00   0.03  48.10
sdd            1801.00     0.00 18907.00    0.00 82940.00     0.00     8.77     6.38    0.34    0.34    0.00   0.03  49.00
sde            1728.00     0.00 18009.00    0.00 79060.00     0.00     8.78     5.79    0.32    0.32    0.00   0.03  47.00
sdf            1938.00     0.00 18421.00    0.00 81636.00     0.00     8.86     6.14    0.33    0.33    0.00   0.03  48.40
sdg               0.00     0.00    0.00    0.00     0.00     0.00     0.00     0.00    0.00    0.00    0.00   0.00   0.00
sdh               0.00     0.00    0.00    0.00     0.00     0.00     0.00     0.00    0.00    0.00    0.00   0.00   0.00
md0               0.00     0.00 121707.00    0.00 486828.00     0.00     8.00     0.00    0.00    0.00    0.00   0.00   0.00

