Linux 4.17.2 (bench) 	08/03/2018 	_x86_64_	(4 CPU)

avg-cpu:  %user   %nice %system %iowait  %steal   %idle
          10.28    0.02    4.05    2.55    0.00   83.10

Device:         rrqm/s   wrqm/s     r/s     w/s    rkB/s    wkB/s avgrq-sz avgqu-sz   await r_await w_await  svctm  %util
sda              44.31     4.24 1647.67  102.66 20894.64  3132.86    27.45     1.03    0.59    0.26    5.91   0.06  10.70
sdb              44.19     4.20 1647.59  102.80 20884.05  3129.52    27.44     1.03    0.59    0.26    5.85   0.06  10.58
sdc              82.12     4.26 1607.56  102.35 20876.17  3131.98    28.08     1.45    0.85    0.45    7.12   0.08  14.03
sdd              75.53     4.23 1613.32  102.42 20860.99  3128.17    27.96     1.46    0.85    0.44    7.32   0.08  14.12
sde              77.57     4.27 1618.40  102.52 20920.95  3132.42    27.95     1.48    0.86    0.44    7.43   0.08  14.15
sdf              74.68     4.25 1620.56  102.46 20902.16  3129.28    27.89     1.52    0.88    0.44    7.90   0.08  14.18
sdg               0.00     3.17   26.23   73.30   323.66   391.95    14.38     0.44    4.42    0.20    5.93   0.08   0.78
sdh               0.00     0.13    0.02    0.24     2.21     5.07    56.82     0.00    1.15    0.65    1.19   0.21   0.01
md0               0.00     0.00 10160.06  480.95 143110.70 21451.36    30.93     0.00    0.00    0.00    0.00   0.00   0.00

avg-cpu:  %user   %nice %system %iowait  %steal   %idle
           1.88    0.00   15.01    1.61    0.00   81.50

Device:         rrqm/s   wrqm/s     r/s     w/s    rkB/s    wkB/s avgrq-sz avgqu-sz   await r_await w_await  svctm  %util
sda            1254.00     0.00 17627.00    0.00 75524.00     0.00     8.57     4.03    0.23    0.23    0.00   0.02  34.70
sdb            1183.00     0.00 17401.00    0.00 74336.00     0.00     8.54     4.03    0.23    0.23    0.00   0.02  34.80
sdc            1220.00     0.00 16777.00    0.00 72060.00     0.00     8.59     5.05    0.30    0.30    0.00   0.03  44.50
sdd            1186.00     0.00 17558.00    0.00 74976.00     0.00     8.54     5.19    0.30    0.30    0.00   0.03  46.20
sde            1431.00     0.00 18046.00    0.00 77908.00     0.00     8.63     5.70    0.32    0.32    0.00   0.03  47.30
sdf            1362.00     0.00 17172.00    0.00 74136.00     0.00     8.63     5.42    0.32    0.32    0.00   0.03  46.20
sdg               0.00    18.00   25.00   80.00   400.00  1320.00    32.76     0.19    1.83    0.16    2.35   0.10   1.00
sdh               0.00     0.00    0.00    0.00     0.00     0.00     0.00     0.00    0.00    0.00    0.00   0.00   0.00
md0               0.00     0.00 112208.00    0.00 448832.00     0.00     8.00     0.00    0.00    0.00    0.00   0.00   0.00

avg-cpu:  %user   %nice %system %iowait  %steal   %idle
           1.37    0.00   13.42    0.55    0.00   84.66

Device:         rrqm/s   wrqm/s     r/s     w/s    rkB/s    wkB/s avgrq-sz avgqu-sz   await r_await w_await  svctm  %util
sda            1244.00     0.00 17422.00    0.00 74664.00     0.00     8.57     4.52    0.26    0.26    0.00   0.02  38.10
sdb            1395.00     0.00 17406.00    0.00 75204.00     0.00     8.64     4.47    0.26    0.26    0.00   0.02  35.10
sdc            1304.00     0.00 16428.00    0.00 70928.00     0.00     8.64     5.30    0.32    0.32    0.00   0.03  44.80
sdd            1546.00     0.00 17497.00    0.00 76172.00     0.00     8.71     6.10    0.35    0.35    0.00   0.03  48.20
sde            1357.00     0.00 17697.00    0.00 76216.00     0.00     8.61     6.02    0.34    0.34    0.00   0.03  48.90
sdf            1392.00     0.00 16799.00    0.00 72764.00     0.00     8.66     6.01    0.36    0.36    0.00   0.03  49.60
sdg               0.00     0.00    0.00    0.00     0.00     0.00     0.00     0.00    0.00    0.00    0.00   0.00   0.00
sdh               0.00     0.00    0.00    0.00     0.00     0.00     0.00     0.00    0.00    0.00    0.00   0.00   0.00
md0               0.00     0.00 111407.00    0.00 445628.00     0.00     8.00     0.00    0.00    0.00    0.00   0.00   0.00

