Linux 4.17.2 (bench) 	08/04/2018 	_x86_64_	(4 CPU)

avg-cpu:  %user   %nice %system %iowait  %steal   %idle
          10.25    0.02    4.32    2.82    0.00   82.59

Device:         rrqm/s   wrqm/s     r/s     w/s    rkB/s    wkB/s avgrq-sz avgqu-sz   await r_await w_await  svctm  %util
sda              57.69     4.13 1758.40   99.77 21432.28  3053.03    26.35     1.05    0.56    0.26    5.92   0.06  11.17
sdb              57.48     4.09 1758.43   99.91 21421.94  3049.78    26.34     1.05    0.56    0.26    5.85   0.06  11.04
sdc              94.86     4.15 1718.96   99.47 21414.28  3052.18    26.91     1.47    0.81    0.44    7.12   0.08  14.54
sdd              88.50     4.12 1724.51   99.54 21399.46  3048.48    26.81     1.48    0.81    0.43    7.33   0.08  14.63
sde              90.44     4.16 1729.50   99.63 21457.81  3052.61    26.80     1.50    0.82    0.44    7.44   0.08  14.65
sdf              87.64     4.13 1731.58   99.58 21439.58  3049.56    26.75     1.54    0.84    0.43    7.90   0.08  14.69
sdg               0.00     3.15   27.15   73.12   326.87   391.57    14.33     0.44    4.38    0.20    5.93   0.08   0.79
sdh               0.00     0.12    0.02    0.23     2.15     4.93    56.82     0.00    1.15    0.65    1.19   0.21   0.01
md0               0.00     0.00 10905.80  467.48 146853.63 20897.49    29.50     0.00    0.00    0.00    0.00   0.00   0.00

avg-cpu:  %user   %nice %system %iowait  %steal   %idle
           0.26    0.00    3.32    0.26    0.00   96.16

Device:         rrqm/s   wrqm/s     r/s     w/s    rkB/s    wkB/s avgrq-sz avgqu-sz   await r_await w_await  svctm  %util
sda            3841.00     0.00 1578.00    0.00 21676.00     0.00    27.47     0.29    0.19    0.19    0.00   0.13  20.20
sdb            3523.00     0.00 1483.00    0.00 20024.00     0.00    27.00     0.31    0.21    0.21    0.00   0.13  19.40
sdc            3495.00     0.00 1456.00    0.00 19804.00     0.00    27.20     0.29    0.20    0.20    0.00   0.14  20.20
sdd            3291.00     0.00 1410.00    0.00 18804.00     0.00    26.67     0.28    0.20    0.20    0.00   0.13  18.40
sde            3333.00     0.00 1462.00    0.00 19180.00     0.00    26.24     0.33    0.22    0.22    0.00   0.15  21.60
sdf            3238.00     0.00 1377.00    0.00 18432.00     0.00    26.77     0.29    0.21    0.21    0.00   0.14  19.30
sdg               0.00     0.00   10.00   33.00   116.00   564.00    31.63     0.10    6.84    0.90    8.64   0.19   0.80
sdh               0.00     0.00    0.00    0.00     0.00     0.00     0.00     0.00    0.00    0.00    0.00   0.00   0.00
md0               0.00     0.00 29488.00    0.00 117952.00     0.00     8.00     0.00    0.00    0.00    0.00   0.00   0.00

avg-cpu:  %user   %nice %system %iowait  %steal   %idle
           0.00    0.00    3.83    0.00    0.00   96.17

Device:         rrqm/s   wrqm/s     r/s     w/s    rkB/s    wkB/s avgrq-sz avgqu-sz   await r_await w_await  svctm  %util
sda            3690.00     0.00 1533.00    0.00 20864.00     0.00    27.22     0.29    0.19    0.19    0.00   0.13  19.70
sdb            3165.00     0.00 1389.00    0.00 18216.00     0.00    26.23     0.24    0.17    0.17    0.00   0.12  16.50
sdc            3474.00     0.00 1495.00    0.00 19876.00     0.00    26.59     0.32    0.21    0.21    0.00   0.14  20.30
sdd            3665.00     0.00 1544.00    0.00 20836.00     0.00    26.99     0.32    0.21    0.21    0.00   0.14  21.40
sde            3419.00     0.00 1457.00    0.00 19504.00     0.00    26.77     0.33    0.22    0.22    0.00   0.15  22.10
sdf            3680.00     0.00 1489.00    0.00 20704.00     0.00    27.81     0.30    0.20    0.20    0.00   0.14  20.50
sdg               0.00     0.00    0.00    0.00     0.00     0.00     0.00     0.00    0.00    0.00    0.00   0.00   0.00
sdh               0.00     0.00    0.00    0.00     0.00     0.00     0.00     0.00    0.00    0.00    0.00   0.00   0.00
md0               0.00     0.00 30000.00    0.00 120000.00     0.00     8.00     0.00    0.00    0.00    0.00   0.00   0.00

avg-cpu:  %user   %nice %system %iowait  %steal   %idle
           0.51    0.00    3.07    0.00    0.00   96.42

Device:         rrqm/s   wrqm/s     r/s     w/s    rkB/s    wkB/s avgrq-sz avgqu-sz   await r_await w_await  svctm  %util
sda            3571.00     0.00 1468.00    0.00 20184.00     0.00    27.50     0.26    0.18    0.18    0.00   0.13  18.90
sdb            3318.00     0.00 1462.00    0.00 19120.00     0.00    26.16     0.26    0.18    0.18    0.00   0.12  17.40
sdc            3582.00     0.00 1475.00    0.00 20228.00     0.00    27.43     0.30    0.20    0.20    0.00   0.14  20.70
sdd            3750.00     0.00 1559.00    0.00 21236.00     0.00    27.24     0.31    0.20    0.20    0.00   0.14  21.10
sde            3664.00     0.00 1491.00    0.00 20592.00     0.00    27.62     0.33    0.22    0.22    0.00   0.14  21.50
sdf            3391.00     0.00 1421.00    0.00 19248.00     0.00    27.09     0.32    0.23    0.23    0.00   0.15  21.20
sdg               0.00     0.00    0.00    0.00     0.00     0.00     0.00     0.00    0.00    0.00    0.00   0.00   0.00
sdh               0.00     0.00    0.00    0.00     0.00     0.00     0.00     0.00    0.00    0.00    0.00   0.00   0.00
md0               0.00     0.00 30152.00    0.00 120608.00     0.00     8.00     0.00    0.00    0.00    0.00   0.00   0.00

avg-cpu:  %user   %nice %system %iowait  %steal   %idle
           0.26    0.00    2.57    0.00    0.00   97.17

Device:         rrqm/s   wrqm/s     r/s     w/s    rkB/s    wkB/s avgrq-sz avgqu-sz   await r_await w_await  svctm  %util
sda            3642.00     0.00 1519.00    0.00 20644.00     0.00    27.18     0.28    0.19    0.19    0.00   0.13  19.30
sdb            3589.00     0.00 1471.00    0.00 20240.00     0.00    27.52     0.26    0.17    0.17    0.00   0.12  17.50
sdc            3540.00     0.00 1459.00    0.00 19996.00     0.00    27.41     0.29    0.20    0.20    0.00   0.14  19.80
sdd            3609.00     0.00 1447.00    0.00 20224.00     0.00    27.95     0.31    0.21    0.21    0.00   0.14  20.30
sde            3461.00     0.00 1512.00    0.00 19920.00     0.00    26.35     0.33    0.22    0.22    0.00   0.15  22.60
sdf            3447.00     0.00 1431.00    0.00 19512.00     0.00    27.27     0.30    0.21    0.21    0.00   0.14  19.80
sdg               0.00     0.00    0.00    0.00     0.00     0.00     0.00     0.00    0.00    0.00    0.00   0.00   0.00
sdh               0.00     0.00    0.00    0.00     0.00     0.00     0.00     0.00    0.00    0.00    0.00   0.00   0.00
md0               0.00     0.00 30136.00    0.00 120544.00     0.00     8.00     0.00    0.00    0.00    0.00   0.00   0.00

avg-cpu:  %user   %nice %system %iowait  %steal   %idle
           0.51    0.00    3.07    0.00    0.00   96.42

Device:         rrqm/s   wrqm/s     r/s     w/s    rkB/s    wkB/s avgrq-sz avgqu-sz   await r_await w_await  svctm  %util
sda            3556.00     0.00 1450.00    0.00 20024.00     0.00    27.62     0.27    0.19    0.19    0.00   0.12  18.00
sdb            3453.00     0.00 1442.00    0.00 19552.00     0.00    27.12     0.28    0.19    0.19    0.00   0.13  18.30
sdc            3418.00     0.00 1487.00    0.00 19620.00     0.00    26.39     0.33    0.22    0.22    0.00   0.14  20.80
sdd            3558.00     0.00 1508.00    0.00 20264.00     0.00    26.88     0.32    0.21    0.21    0.00   0.13  19.50
sde            3817.00     0.00 1590.00    0.00 21628.00     0.00    27.21     0.35    0.22    0.22    0.00   0.15  23.70
sdf            3526.00     0.00 1532.00    0.00 20232.00     0.00    26.41     0.34    0.22    0.22    0.00   0.13  20.50
sdg               0.00     0.00    0.00    0.00     0.00     0.00     0.00     0.00    0.00    0.00    0.00   0.00   0.00
sdh               0.00     0.00    0.00    0.00     0.00     0.00     0.00     0.00    0.00    0.00    0.00   0.00   0.00
md0               0.00     0.00 30328.00    0.00 121312.00     0.00     8.00     0.00    0.00    0.00    0.00   0.00   0.00

avg-cpu:  %user   %nice %system %iowait  %steal   %idle
           0.26    0.00    3.08    0.00    0.00   96.67

Device:         rrqm/s   wrqm/s     r/s     w/s    rkB/s    wkB/s avgrq-sz avgqu-sz   await r_await w_await  svctm  %util
sda            3575.00     0.00 1489.00    0.00 20256.00     0.00    27.21     0.29    0.19    0.19    0.00   0.13  19.60
sdb            3324.00     0.00 1404.00    0.00 18940.00     0.00    26.98     0.27    0.19    0.19    0.00   0.12  17.10
sdc            3721.00     0.00 1508.00    0.00 20916.00     0.00    27.74     0.32    0.21    0.21    0.00   0.14  21.40
sdd            3300.00     0.00 1447.00    0.00 18988.00     0.00    26.24     0.29    0.20    0.20    0.00   0.13  19.00
sde            3532.00     0.00 1469.00    0.00 20004.00     0.00    27.23     0.33    0.22    0.22    0.00   0.14  20.80
sdf            3778.00     0.00 1525.00    0.00 21212.00     0.00    27.82     0.32    0.21    0.21    0.00   0.14  21.70
sdg               0.00     0.00    0.00    0.00     0.00     0.00     0.00     0.00    0.00    0.00    0.00   0.00   0.00
sdh               0.00     0.00    0.00    0.00     0.00     0.00     0.00     0.00    0.00    0.00    0.00   0.00   0.00
md0               0.00     0.00 30080.00    0.00 120320.00     0.00     8.00     0.00    0.00    0.00    0.00   0.00   0.00

avg-cpu:  %user   %nice %system %iowait  %steal   %idle
           0.26    0.26    3.57    0.00    0.00   95.92

Device:         rrqm/s   wrqm/s     r/s     w/s    rkB/s    wkB/s avgrq-sz avgqu-sz   await r_await w_await  svctm  %util
sda            3433.00     0.00 1448.00    0.00 19524.00     0.00    26.97     0.30    0.20    0.20    0.00   0.13  18.90
sdb            3515.00     0.00 1495.00    0.00 20040.00     0.00    26.81     0.28    0.19    0.19    0.00   0.12  18.10
sdc            3725.00     0.00 1568.00    0.00 21172.00     0.00    27.01     0.31    0.20    0.20    0.00   0.13  20.80
sdd            3335.00     0.00 1422.00    0.00 19028.00     0.00    26.76     0.30    0.21    0.21    0.00   0.14  19.90
sde            3451.00     0.00 1459.00    0.00 19640.00     0.00    26.92     0.30    0.21    0.21    0.00   0.14  20.30
sdf            3713.00     0.00 1509.00    0.00 20888.00     0.00    27.68     0.31    0.21    0.21    0.00   0.14  20.80
sdg               0.00     0.00   23.00    0.00   164.00     0.00    14.26     0.01    0.43    0.43    0.00   0.39   0.90
sdh               0.00     0.00    0.00    0.00     0.00     0.00     0.00     0.00    0.00    0.00    0.00   0.00   0.00
md0               0.00     0.00 30072.00    0.00 120288.00     0.00     8.00     0.00    0.00    0.00    0.00   0.00   0.00

avg-cpu:  %user   %nice %system %iowait  %steal   %idle
           0.26    0.00    3.08    1.03    0.00   95.63

Device:         rrqm/s   wrqm/s     r/s     w/s    rkB/s    wkB/s avgrq-sz avgqu-sz   await r_await w_await  svctm  %util
sda            3658.00     0.00 1526.00    0.00 20736.00     0.00    27.18     0.30    0.20    0.20    0.00   0.13  19.90
sdb            3533.00     0.00 1467.00    0.00 20000.00     0.00    27.27     0.28    0.19    0.19    0.00   0.12  18.10
sdc            3916.00     0.00 1578.00    0.00 21976.00     0.00    27.85     0.35    0.22    0.22    0.00   0.15  23.30
sdd            3299.00     0.00 1403.00    0.00 18808.00     0.00    26.81     0.29    0.21    0.21    0.00   0.13  18.70
sde            3486.00     0.00 1415.00    0.00 19576.00     0.00    27.67     0.29    0.20    0.20    0.00   0.14  19.20
sdf            3593.00     0.00 1437.00    0.00 20120.00     0.00    28.00     0.32    0.22    0.22    0.00   0.15  21.00
sdg               0.00    61.00    0.00 1336.00     0.00  6832.00    10.23     7.66    5.74    0.00    5.74   0.04   5.80
sdh               0.00     0.00    0.00    0.00     0.00     0.00     0.00     0.00    0.00    0.00    0.00   0.00   0.00
md0               0.00     0.00 30304.00    0.00 121216.00     0.00     8.00     0.00    0.00    0.00    0.00   0.00   0.00

avg-cpu:  %user   %nice %system %iowait  %steal   %idle
           0.51    0.00    3.06    0.00    0.00   96.43

Device:         rrqm/s   wrqm/s     r/s     w/s    rkB/s    wkB/s avgrq-sz avgqu-sz   await r_await w_await  svctm  %util
sda            3742.00     0.00 1470.00    0.00 20820.00     0.00    28.33     0.30    0.21    0.21    0.00   0.14  20.90
sdb            3195.00     0.00 1447.00    0.00 18568.00     0.00    25.66     0.25    0.18    0.18    0.00   0.12  17.60
sdc            3516.00     0.00 1439.00    0.00 19820.00     0.00    27.55     0.30    0.21    0.21    0.00   0.14  19.80
sdd            3365.00     0.00 1434.00    0.00 19196.00     0.00    26.77     0.28    0.20    0.20    0.00   0.14  19.90
sde            3499.00     0.00 1532.00    0.00 20152.00     0.00    26.31     0.32    0.21    0.21    0.00   0.14  20.90
sdf            3905.00     0.00 1600.00    0.00 22020.00     0.00    27.52     0.33    0.21    0.21    0.00   0.14  22.20
sdg               0.00     0.00    0.00    0.00     0.00     0.00     0.00     0.00    0.00    0.00    0.00   0.00   0.00
sdh               0.00     0.00    0.00    0.00     0.00     0.00     0.00     0.00    0.00    0.00    0.00   0.00   0.00
md0               0.00     0.00 30144.00    0.00 120576.00     0.00     8.00     0.00    0.00    0.00    0.00   0.00   0.00

avg-cpu:  %user   %nice %system %iowait  %steal   %idle
           0.26    0.00    2.83    0.00    0.00   96.92

Device:         rrqm/s   wrqm/s     r/s     w/s    rkB/s    wkB/s avgrq-sz avgqu-sz   await r_await w_await  svctm  %util
sda            3713.00     0.00 1488.00    0.00 20832.00     0.00    28.00     0.30    0.20    0.20    0.00   0.14  20.30
sdb            3668.00     0.00 1533.00    0.00 20804.00     0.00    27.14     0.29    0.19    0.19    0.00   0.14  20.80
sdc            3159.00     0.00 1332.00    0.00 17964.00     0.00    26.97     0.25    0.19    0.19    0.00   0.13  17.60
sdd            3720.00     0.00 1532.00    0.00 20980.00     0.00    27.39     0.33    0.21    0.21    0.00   0.14  22.00
sde            3300.00     0.00 1434.00    0.00 18936.00     0.00    26.41     0.31    0.22    0.22    0.00   0.14  19.90
sdf            3621.00     0.00 1532.00    0.00 20612.00     0.00    26.91     0.30    0.20    0.20    0.00   0.13  20.00
sdg               0.00     0.00    0.00    0.00     0.00     0.00     0.00     0.00    0.00    0.00    0.00   0.00   0.00
sdh               0.00     0.00    0.00    0.00     0.00     0.00     0.00     0.00    0.00    0.00    0.00   0.00   0.00
md0               0.00     0.00 30032.00    0.00 120128.00     0.00     8.00     0.00    0.00    0.00    0.00   0.00   0.00

avg-cpu:  %user   %nice %system %iowait  %steal   %idle
           0.00    0.00    3.07    0.00    0.00   96.93

Device:         rrqm/s   wrqm/s     r/s     w/s    rkB/s    wkB/s avgrq-sz avgqu-sz   await r_await w_await  svctm  %util
sda            3814.00     0.00 1512.00    0.00 21304.00     0.00    28.18     0.30    0.20    0.20    0.00   0.14  20.70
sdb            3925.00     0.00 1561.00    0.00 21944.00     0.00    28.12     0.26    0.17    0.17    0.00   0.12  18.20
sdc            3572.00     0.00 1470.00    0.00 20144.00     0.00    27.41     0.33    0.23    0.23    0.00   0.15  21.40
sdd            3242.00     0.00 1386.00    0.00 18540.00     0.00    26.75     0.26    0.19    0.19    0.00   0.13  17.90
sde            3870.00     0.00 1529.00    0.00 21596.00     0.00    28.25     0.33    0.22    0.22    0.00   0.15  22.70
sdf            3133.00     0.00 1450.00    0.00 18332.00     0.00    25.29     0.31    0.21    0.21    0.00   0.14  19.80
sdg               0.00     0.00    0.00    0.00     0.00     0.00     0.00     0.00    0.00    0.00    0.00   0.00   0.00
sdh               0.00     0.00    0.00    0.00     0.00     0.00     0.00     0.00    0.00    0.00    0.00   0.00   0.00
md0               0.00     0.00 30464.00    0.00 121856.00     0.00     8.00     0.00    0.00    0.00    0.00   0.00   0.00

avg-cpu:  %user   %nice %system %iowait  %steal   %idle
           0.51    0.00    3.06    0.00    0.00   96.43

Device:         rrqm/s   wrqm/s     r/s     w/s    rkB/s    wkB/s avgrq-sz avgqu-sz   await r_await w_await  svctm  %util
sda            3375.00     0.00 1528.00    0.00 19612.00     0.00    25.67     0.29    0.19    0.19    0.00   0.12  18.60
sdb            3578.00     0.00 1502.00    0.00 20320.00     0.00    27.06     0.27    0.18    0.18    0.00   0.13  18.80
sdc            3503.00     0.00 1442.00    0.00 19804.00     0.00    27.47     0.29    0.20    0.20    0.00   0.14  20.10
sdd            3578.00     0.00 1484.00    0.00 20248.00     0.00    27.29     0.31    0.21    0.21    0.00   0.14  20.80
sde            3590.00     0.00 1457.00    0.00 20176.00     0.00    27.70     0.34    0.23    0.23    0.00   0.15  21.70
sdf            3565.00     0.00 1538.00    0.00 20412.00     0.00    26.54     0.30    0.20    0.20    0.00   0.13  19.60
sdg               0.00     0.00    0.00    0.00     0.00     0.00     0.00     0.00    0.00    0.00    0.00   0.00   0.00
sdh               0.00     0.00    0.00    0.00     0.00     0.00     0.00     0.00    0.00    0.00    0.00   0.00   0.00
md0               0.00     0.00 30144.00    0.00 120576.00     0.00     8.00     0.00    0.00    0.00    0.00   0.00   0.00

avg-cpu:  %user   %nice %system %iowait  %steal   %idle
           0.00    0.00    3.32    0.00    0.00   96.68

Device:         rrqm/s   wrqm/s     r/s     w/s    rkB/s    wkB/s avgrq-sz avgqu-sz   await r_await w_await  svctm  %util
sda            3249.00     0.00 1407.00    0.00 18624.00     0.00    26.47     0.27    0.19    0.19    0.00   0.12  17.40
sdb            3631.00     0.00 1528.00    0.00 20636.00     0.00    27.01     0.29    0.19    0.19    0.00   0.13  19.50
sdc            3858.00     0.00 1510.00    0.00 21444.00     0.00    28.40     0.32    0.21    0.21    0.00   0.14  21.60
sdd            3503.00     0.00 1513.00    0.00 20064.00     0.00    26.52     0.32    0.21    0.21    0.00   0.14  21.70
sde            3604.00     0.00 1503.00    0.00 20440.00     0.00    27.20     0.30    0.20    0.20    0.00   0.13  19.80
sdf            3413.00     0.00 1453.00    0.00 19464.00     0.00    26.79     0.29    0.20    0.20    0.00   0.13  19.30
sdg               0.00     1.00    6.00    3.00    24.00    40.00    14.22     0.01    1.00    0.17    2.67   0.89   0.80
sdh               0.00     0.00    0.00    0.00     0.00     0.00     0.00     0.00    0.00    0.00    0.00   0.00   0.00
md0               0.00     0.00 30173.00    0.00 120692.00     0.00     8.00     0.00    0.00    0.00    0.00   0.00   0.00

avg-cpu:  %user   %nice %system %iowait  %steal   %idle
           0.51    0.00    2.82    0.00    0.00   96.67

Device:         rrqm/s   wrqm/s     r/s     w/s    rkB/s    wkB/s avgrq-sz avgqu-sz   await r_await w_await  svctm  %util
sda            3379.00     0.00 1530.00    0.00 19636.00     0.00    25.67     0.27    0.18    0.18    0.00   0.12  17.60
sdb            4030.00     0.00 1557.00    0.00 22320.00     0.00    28.67     0.29    0.19    0.19    0.00   0.13  19.80
sdc            3596.00     0.00 1560.00    0.00 20652.00     0.00    26.48     0.30    0.19    0.19    0.00   0.12  19.50
sdd            3847.00     0.00 1546.00    0.00 21572.00     0.00    27.91     0.33    0.21    0.21    0.00   0.15  22.80
sde            3196.00     0.00 1420.00    0.00 18464.00     0.00    26.01     0.30    0.21    0.21    0.00   0.14  20.10
sdf            3471.00     0.00 1436.00    0.00 19628.00     0.00    27.34     0.28    0.19    0.19    0.00   0.13  19.10
sdg               0.00     0.00    0.00    0.00     0.00     0.00     0.00     0.00    0.00    0.00    0.00   0.00   0.00
sdh               0.00     0.00    0.00    0.00     0.00     0.00     0.00     0.00    0.00    0.00    0.00   0.00   0.00
md0               0.00     0.00 30563.00    0.00 122252.00     0.00     8.00     0.00    0.00    0.00    0.00   0.00   0.00

avg-cpu:  %user   %nice %system %iowait  %steal   %idle
           0.26    0.00    3.07    0.00    0.00   96.68

Device:         rrqm/s   wrqm/s     r/s     w/s    rkB/s    wkB/s avgrq-sz avgqu-sz   await r_await w_await  svctm  %util
sda            3310.00     0.00 1419.00    0.00 18916.00     0.00    26.66     0.27    0.19    0.19    0.00   0.13  18.20
sdb            3477.00     0.00 1505.00    0.00 19956.00     0.00    26.52     0.27    0.18    0.18    0.00   0.12  18.30
sdc            3549.00     0.00 1528.00    0.00 20284.00     0.00    26.55     0.30    0.20    0.20    0.00   0.13  19.60
sdd            3728.00     0.00 1494.00    0.00 20888.00     0.00    27.96     0.29    0.19    0.19    0.00   0.13  19.70
sde            3732.00     0.00 1575.00    0.00 21228.00     0.00    26.96     0.33    0.21    0.21    0.00   0.14  21.30
sdf            3559.00     0.00 1499.00    0.00 20232.00     0.00    26.99     0.35    0.23    0.23    0.00   0.15  22.30
sdg               0.00     0.00    0.00    0.00     0.00     0.00     0.00     0.00    0.00    0.00    0.00   0.00   0.00
sdh               0.00     0.00    0.00    0.00     0.00     0.00     0.00     0.00    0.00    0.00    0.00   0.00   0.00
md0               0.00     0.00 30376.00    0.00 121504.00     0.00     8.00     0.00    0.00    0.00    0.00   0.00   0.00

avg-cpu:  %user   %nice %system %iowait  %steal   %idle
           0.26    0.00    2.82    0.00    0.00   96.92

Device:         rrqm/s   wrqm/s     r/s     w/s    rkB/s    wkB/s avgrq-sz avgqu-sz   await r_await w_await  svctm  %util
sda            3219.00     0.00 1454.00    0.00 18692.00     0.00    25.71     0.28    0.19    0.19    0.00   0.12  18.00
sdb            3724.00     0.00 1588.00    0.00 21248.00     0.00    26.76     0.25    0.16    0.16    0.00   0.11  17.30
sdc            3682.00     0.00 1553.00    0.00 20964.00     0.00    27.00     0.31    0.20    0.20    0.00   0.13  20.30
sdd            3844.00     0.00 1660.00    0.00 21988.00     0.00    26.49     0.35    0.21    0.21    0.00   0.14  23.30
sde            3608.00     0.00 1477.00    0.00 20340.00     0.00    27.54     0.29    0.20    0.20    0.00   0.14  20.60
sdf            3397.00     0.00 1427.00    0.00 19296.00     0.00    27.04     0.32    0.22    0.22    0.00   0.14  19.90
sdg               0.00     0.00    0.00    0.00     0.00     0.00     0.00     0.00    0.00    0.00    0.00   0.00   0.00
sdh               0.00     0.00    0.00    0.00     0.00     0.00     0.00     0.00    0.00    0.00    0.00   0.00   0.00
md0               0.00     0.00 30632.00    0.00 122528.00     0.00     8.00     0.00    0.00    0.00    0.00   0.00   0.00

avg-cpu:  %user   %nice %system %iowait  %steal   %idle
           0.26    0.26    3.32    3.32    0.00   92.84

Device:         rrqm/s   wrqm/s     r/s     w/s    rkB/s    wkB/s avgrq-sz avgqu-sz   await r_await w_await  svctm  %util
sda            3857.00     0.00 1579.00    0.00 21744.00     0.00    27.54     0.31    0.20    0.20    0.00   0.13  20.60
sdb            3983.00     0.00 1598.00    0.00 22324.00     0.00    27.94     0.28    0.17    0.17    0.00   0.12  18.50
sdc            3654.00     0.00 1513.00    0.00 20668.00     0.00    27.32     0.33    0.22    0.22    0.00   0.14  20.50
sdd            3632.00     0.00 1549.00    0.00 20752.00     0.00    26.79     0.33    0.21    0.21    0.00   0.13  20.80
sde            3438.00     0.00 1481.00    0.00 19676.00     0.00    26.57     0.29    0.20    0.20    0.00   0.14  20.20
sdf            3300.00     0.00 1440.00    0.00 18932.00     0.00    26.29     0.31    0.21    0.21    0.00   0.14  20.70
sdg               0.00     0.00 1325.00    0.00  5300.00     0.00     8.00     0.15    0.11    0.11    0.00   0.11  14.90
sdh               0.00     0.00    0.00    0.00     0.00     0.00     0.00     0.00    0.00    0.00    0.00   0.00   0.00
md0               0.00     0.00 31024.00    0.00 124096.00     0.00     8.00     0.00    0.00    0.00    0.00   0.00   0.00

avg-cpu:  %user   %nice %system %iowait  %steal   %idle
           0.26    0.00    3.06    0.26    0.00   96.43

Device:         rrqm/s   wrqm/s     r/s     w/s    rkB/s    wkB/s avgrq-sz avgqu-sz   await r_await w_await  svctm  %util
sda            3531.00     0.00 1531.00    0.00 20236.00     0.00    26.44     0.31    0.20    0.20    0.00   0.13  20.20
sdb            3597.00     0.00 1538.00    0.00 20540.00     0.00    26.71     0.29    0.19    0.19    0.00   0.12  19.00
sdc            3951.00     0.00 1536.00    0.00 21940.00     0.00    28.57     0.31    0.20    0.20    0.00   0.13  20.50
sdd            3513.00     0.00 1519.00    0.00 20128.00     0.00    26.50     0.32    0.21    0.21    0.00   0.14  21.80
sde            3377.00     0.00 1467.00    0.00 19376.00     0.00    26.42     0.28    0.19    0.19    0.00   0.13  19.20
sdf            3470.00     0.00 1520.00    0.00 19988.00     0.00    26.30     0.30    0.20    0.20    0.00   0.13  19.30
sdg               0.00     0.00    0.00  203.00     0.00   992.00     9.77     0.60    2.94    0.00    2.94   0.03   0.60
sdh               0.00     0.00    0.00    0.00     0.00     0.00     0.00     0.00    0.00    0.00    0.00   0.00   0.00
md0               0.00     0.00 30552.00    0.00 122208.00     0.00     8.00     0.00    0.00    0.00    0.00   0.00   0.00

avg-cpu:  %user   %nice %system %iowait  %steal   %idle
           0.26    0.00    2.57    0.00    0.00   97.17

Device:         rrqm/s   wrqm/s     r/s     w/s    rkB/s    wkB/s avgrq-sz avgqu-sz   await r_await w_await  svctm  %util
sda            3484.00     0.00 1460.00    0.00 19772.00     0.00    27.08     0.30    0.21    0.21    0.00   0.13  18.40
sdb            3380.00     0.00 1451.00    0.00 19324.00     0.00    26.64     0.28    0.19    0.19    0.00   0.12  17.70
sdc            3844.00     0.00 1533.00    0.00 21516.00     0.00    28.07     0.33    0.22    0.22    0.00   0.14  21.10
sdd            3759.00     0.00 1502.00    0.00 21044.00     0.00    28.02     0.31    0.21    0.21    0.00   0.13  20.10
sde            3518.00     0.00 1432.00    0.00 19800.00     0.00    27.65     0.29    0.20    0.20    0.00   0.14  20.30
sdf            3725.00     0.00 1545.00    0.00 21080.00     0.00    27.29     0.32    0.21    0.21    0.00   0.14  20.90
sdg               0.00     0.00    0.00    0.00     0.00     0.00     0.00     0.00    0.00    0.00    0.00   0.00   0.00
sdh               0.00     0.00    0.00    0.00     0.00     0.00     0.00     0.00    0.00    0.00    0.00   0.00   0.00
md0               0.00     0.00 30640.00    0.00 122560.00     0.00     8.00     0.00    0.00    0.00    0.00   0.00   0.00

avg-cpu:  %user   %nice %system %iowait  %steal   %idle
           0.26    0.00    2.82    0.00    0.00   96.92

Device:         rrqm/s   wrqm/s     r/s     w/s    rkB/s    wkB/s avgrq-sz avgqu-sz   await r_await w_await  svctm  %util
sda            3867.00     0.00 1576.00    0.00 21780.00     0.00    27.64     0.32    0.20    0.20    0.00   0.13  20.70
sdb            3312.00     0.00 1412.00    0.00 18896.00     0.00    26.76     0.27    0.19    0.19    0.00   0.13  18.10
sdc            3656.00     0.00 1538.00    0.00 20776.00     0.00    27.02     0.32    0.21    0.21    0.00   0.14  21.30
sdd            3614.00     0.00 1509.00    0.00 20492.00     0.00    27.16     0.33    0.22    0.22    0.00   0.14  21.20
sde            3773.00     0.00 1509.00    0.00 21128.00     0.00    28.00     0.31    0.21    0.21    0.00   0.14  21.00
sdf            3191.00     0.00 1439.00    0.00 18520.00     0.00    25.74     0.29    0.21    0.21    0.00   0.13  18.50
sdg               0.00     0.00    0.00    0.00     0.00     0.00     0.00     0.00    0.00    0.00    0.00   0.00   0.00
sdh               0.00     0.00    0.00    0.00     0.00     0.00     0.00     0.00    0.00    0.00    0.00   0.00   0.00
md0               0.00     0.00 30392.00    0.00 121568.00     0.00     8.00     0.00    0.00    0.00    0.00   0.00   0.00

