Linux 4.17.2 (bench) 	08/04/2018 	_x86_64_	(4 CPU)

avg-cpu:  %user   %nice %system %iowait  %steal   %idle
          10.25    0.02    4.20    2.77    0.00   82.77

Device:         rrqm/s   wrqm/s     r/s     w/s    rkB/s    wkB/s avgrq-sz avgqu-sz   await r_await w_await  svctm  %util
sda              55.57     4.17 1742.55  100.83 21465.55  3085.23    26.64     1.05    0.57    0.26    5.92   0.06  11.11
sdb              55.35     4.13 1742.58  100.96 21455.06  3081.95    26.62     1.05    0.57    0.26    5.85   0.06  10.99
sdc              93.11     4.19 1702.71  100.52 21447.31  3084.38    27.21     1.47    0.82    0.44    7.12   0.08  14.49
sdd              86.67     4.16 1708.34  100.59 21432.40  3080.63    27.10     1.48    0.82    0.43    7.33   0.08  14.59
sde              88.65     4.21 1713.42  100.68 21491.61  3084.81    27.09     1.50    0.83    0.44    7.44   0.08  14.61
sdf              85.82     4.18 1715.52  100.63 21473.17  3081.73    27.04     1.54    0.85    0.44    7.90   0.08  14.64
sdg               0.00     3.16   26.95   73.25   326.55   392.02    14.34     0.44    4.39    0.20    5.93   0.08   0.79
sdh               0.00     0.13    0.02    0.23     2.17     4.98    56.82     0.00    1.15    0.65    1.19   0.21   0.01
md0               0.00     0.00 10797.99  472.41 147172.18 21117.91    29.86     0.00    0.00    0.00    0.00   0.00   0.00

avg-cpu:  %user   %nice %system %iowait  %steal   %idle
           0.17    0.01    5.21    0.01    0.00   94.59

Device:         rrqm/s   wrqm/s     r/s     w/s    rkB/s    wkB/s avgrq-sz avgqu-sz   await r_await w_await  svctm  %util
sda            3099.80     0.00 7455.00    0.00 42219.20     0.00    11.33     1.82    0.24    0.24    0.00   0.03  24.86
sdb            3108.55     0.00 7467.75    0.00 42302.40     0.00    11.33     1.83    0.25    0.25    0.00   0.03  24.02
sdc            3087.00     0.00 7458.25    0.00 42181.00     0.00    11.31     2.22    0.30    0.30    0.00   0.04  27.92
sdd            3106.40     0.00 7513.85    0.00 42481.00     0.00    11.31     2.28    0.30    0.30    0.00   0.04  28.41
sde            3063.35     0.00 7466.95    0.00 42121.20     0.00    11.28     2.19    0.29    0.29    0.00   0.04  28.07
sdf            3084.55     0.00 7454.05    0.00 42154.40     0.00    11.31     2.25    0.30    0.30    0.00   0.04  27.69
sdg               0.00     4.50    3.85  129.95    49.40   650.40    10.46     0.79    5.87    0.21    6.04   0.05   0.65
sdh               0.00     0.00    0.00    0.00     0.00     0.00     0.00     0.00    0.00    0.00    0.00   0.00   0.00
md0               0.00     0.00 63366.40    0.00 253465.60     0.00     8.00     0.00    0.00    0.00    0.00   0.00   0.00

