Linux 4.17.2 (bench) 	08/04/2018 	_x86_64_	(4 CPU)

avg-cpu:  %user   %nice %system %iowait  %steal   %idle
          10.25    0.02    4.28    2.82    0.00   82.63

Device:         rrqm/s   wrqm/s     r/s     w/s    rkB/s    wkB/s avgrq-sz avgqu-sz   await r_await w_await  svctm  %util
sda              57.69     4.14 1758.44  100.07 21457.38  3062.04    26.39     1.05    0.57    0.26    5.92   0.06  11.17
sdb              57.47     4.10 1758.46  100.20 21447.00  3058.78    26.37     1.05    0.57    0.26    5.85   0.06  11.05
sdc              94.96     4.16 1718.89   99.76 21439.33  3061.19    26.94     1.47    0.81    0.44    7.12   0.08  14.55
sdd              88.57     4.13 1724.46   99.83 21424.46  3057.47    26.84     1.48    0.81    0.43    7.33   0.08  14.64
sde              90.53     4.17 1729.47   99.93 21483.04  3061.62    26.83     1.50    0.82    0.44    7.44   0.08  14.66
sdf              87.72     4.15 1731.55   99.87 21464.74  3058.56    26.78     1.54    0.84    0.43    7.90   0.08  14.69
sdg               0.00     3.16   27.10   73.16   326.84   391.72    14.33     0.44    4.38    0.20    5.93   0.08   0.79
sdh               0.00     0.13    0.02    0.23     2.16     4.94    56.82     0.00    1.15    0.65    1.19   0.21   0.01
md0               0.00     0.00 10905.95  468.86 147030.12 20959.14    29.54     0.00    0.00    0.00    0.00   0.00   0.00

avg-cpu:  %user   %nice %system %iowait  %steal   %idle
           0.51    0.00    2.29   19.08    0.00   78.12

Device:         rrqm/s   wrqm/s     r/s     w/s    rkB/s    wkB/s avgrq-sz avgqu-sz   await r_await w_await  svctm  %util
sda               0.00     0.00 1393.00    0.00  6140.00     0.00     8.82     0.14    0.10    0.10    0.00   0.10  13.90
sdb               0.00     0.00 1404.00    0.00  6476.00     0.00     9.23     0.16    0.11    0.11    0.00   0.11  15.20
sdc               0.00     0.00 1373.00    0.00  6076.00     0.00     8.85     0.16    0.12    0.12    0.00   0.12  16.20
sdd               0.00     0.00 1464.00    0.00  6344.00     0.00     8.67     0.16    0.11    0.11    0.00   0.11  15.90
sde               0.00     0.00 1435.00    0.00  6448.00     0.00     8.99     0.16    0.11    0.11    0.00   0.11  15.70
sdf               0.00     0.00 1445.00    0.00  6448.00     0.00     8.92     0.16    0.11    0.11    0.00   0.11  16.30
sdg               0.00     0.00    3.00    1.00    88.00    12.00    50.00     0.00    0.25    0.33    0.00   0.25   0.10
sdh               0.00     0.00    0.00    0.00     0.00     0.00     0.00     0.00    0.00    0.00    0.00   0.00   0.00
md0               0.00     0.00 8515.00    0.00 38224.00     0.00     8.98     0.00    0.00    0.00    0.00   0.00   0.00

avg-cpu:  %user   %nice %system %iowait  %steal   %idle
           0.00    0.00    2.04   10.20    0.00   87.76

Device:         rrqm/s   wrqm/s     r/s     w/s    rkB/s    wkB/s avgrq-sz avgqu-sz   await r_await w_await  svctm  %util
sda               0.00     0.00 1431.00    0.00  6248.00     0.00     8.73     0.14    0.10    0.10    0.00   0.10  14.30
sdb               0.00     0.00 1415.00    0.00  6068.00     0.00     8.58     0.14    0.10    0.10    0.00   0.10  13.80
sdc               0.00     0.00 1389.00    0.00  6024.00     0.00     8.67     0.15    0.11    0.11    0.00   0.11  15.00
sdd               0.00     0.00 1403.00    0.00  6112.00     0.00     8.71     0.17    0.12    0.12    0.00   0.12  17.20
sde               0.00     0.00 1454.00    0.00  6376.00     0.00     8.77     0.18    0.12    0.12    0.00   0.12  18.00
sdf               0.00     0.00 1353.00    0.00  5904.00     0.00     8.73     0.15    0.11    0.11    0.00   0.11  14.60
sdg               0.00     0.00    0.00    0.00     0.00     0.00     0.00     0.00    0.00    0.00    0.00   0.00   0.00
sdh               0.00     0.00    0.00    0.00     0.00     0.00     0.00     0.00    0.00    0.00    0.00   0.00   0.00
md0               0.00     0.00 8446.00    0.00 36760.00     0.00     8.70     0.00    0.00    0.00    0.00   0.00   0.00

avg-cpu:  %user   %nice %system %iowait  %steal   %idle
           0.51    0.00    2.05    1.03    0.00   96.41

Device:         rrqm/s   wrqm/s     r/s     w/s    rkB/s    wkB/s avgrq-sz avgqu-sz   await r_await w_await  svctm  %util
sda               1.00     0.00 1385.00    0.00  6636.00     0.00     9.58     0.15    0.11    0.11    0.00   0.11  14.90
sdb               0.00     0.00 1334.00    0.00  6444.00     0.00     9.66     0.16    0.12    0.12    0.00   0.11  14.90
sdc               0.00     0.00 1385.00    0.00  6356.00     0.00     9.18     0.16    0.11    0.11    0.00   0.11  15.10
sdd               0.00     0.00 1369.00    0.00  6192.00     0.00     9.05     0.15    0.11    0.11    0.00   0.11  14.90
sde               1.00     0.00 1372.00    0.00  6360.00     0.00     9.27     0.15    0.11    0.11    0.00   0.11  14.90
sdf               0.00     0.00 1414.00    0.00  6892.00     0.00     9.75     0.18    0.13    0.13    0.00   0.12  17.60
sdg               0.00     0.00   16.00    0.00   100.00     0.00    12.50     0.00    0.25    0.25    0.00   0.19   0.30
sdh               0.00     0.00    0.00    0.00     0.00     0.00     0.00     0.00    0.00    0.00    0.00   0.00   0.00
md0               0.00     0.00 8262.00    0.00 39352.00     0.00     9.53     0.00    0.00    0.00    0.00   0.00   0.00

avg-cpu:  %user   %nice %system %iowait  %steal   %idle
           0.26    0.00    2.05    1.02    0.00   96.68

Device:         rrqm/s   wrqm/s     r/s     w/s    rkB/s    wkB/s avgrq-sz avgqu-sz   await r_await w_await  svctm  %util
sda               0.00     0.00 1500.00    0.00  7160.00     0.00     9.55     0.17    0.12    0.12    0.00   0.11  16.30
sdb               0.00     0.00 1385.00    0.00  6112.00     0.00     8.83     0.13    0.09    0.09    0.00   0.09  12.80
sdc               0.00     0.00 1446.00    0.00  6180.00     0.00     8.55     0.16    0.11    0.11    0.00   0.11  16.00
sdd               0.00     0.00 1441.00    0.00  6504.00     0.00     9.03     0.17    0.12    0.12    0.00   0.11  16.00
sde               0.00     0.00 1366.00    0.00  6096.00     0.00     8.93     0.16    0.12    0.12    0.00   0.11  15.40
sdf               0.00     0.00 1453.00    0.00  6728.00     0.00     9.26     0.15    0.11    0.11    0.00   0.10  15.10
sdg               0.00     0.00    0.00    0.00     0.00     0.00     0.00     0.00    0.00    0.00    0.00   0.00   0.00
sdh               0.00     0.00    0.00    0.00     0.00     0.00     0.00     0.00    0.00    0.00    0.00   0.00   0.00
md0               0.00     0.00 8590.00    0.00 38880.00     0.00     9.05     0.00    0.00    0.00    0.00   0.00   0.00

avg-cpu:  %user   %nice %system %iowait  %steal   %idle
           0.51    0.00    2.29    1.02    0.00   96.18

Device:         rrqm/s   wrqm/s     r/s     w/s    rkB/s    wkB/s avgrq-sz avgqu-sz   await r_await w_await  svctm  %util
sda               0.00     0.00 1424.00    0.00  6916.00     0.00     9.71     0.16    0.11    0.11    0.00   0.10  14.60
sdb               0.00     0.00 1395.00    0.00  6756.00     0.00     9.69     0.14    0.10    0.10    0.00   0.10  13.90
sdc               0.00     0.00 1384.00    0.00  6352.00     0.00     9.18     0.16    0.12    0.12    0.00   0.11  15.80
sdd               0.00     0.00 1507.00    0.00  7324.00     0.00     9.72     0.19    0.12    0.12    0.00   0.11  17.10
sde               0.00     0.00 1449.00    0.00  6344.00     0.00     8.76     0.16    0.11    0.11    0.00   0.10  15.10
sdf               0.00     0.00 1445.00    0.00  6524.00     0.00     9.03     0.17    0.12    0.12    0.00   0.11  16.30
sdg               0.00     0.00    0.00    0.00     0.00     0.00     0.00     0.00    0.00    0.00    0.00   0.00   0.00
sdh               0.00     0.00    0.00    0.00     0.00     0.00     0.00     0.00    0.00    0.00    0.00   0.00   0.00
md0               0.00     0.00 8605.00    0.00 40488.00     0.00     9.41     0.00    0.00    0.00    0.00   0.00   0.00

avg-cpu:  %user   %nice %system %iowait  %steal   %idle
           0.51    0.00    2.29    1.02    0.00   96.18

Device:         rrqm/s   wrqm/s     r/s     w/s    rkB/s    wkB/s avgrq-sz avgqu-sz   await r_await w_await  svctm  %util
sda               0.00     0.00 1393.00    0.00  6744.00     0.00     9.68     0.17    0.12    0.12    0.00   0.11  15.30
sdb               0.00     0.00 1419.00    0.00  6564.00     0.00     9.25     0.16    0.11    0.11    0.00   0.11  15.60
sdc               0.00     0.00 1399.00    0.00  6004.00     0.00     8.58     0.15    0.11    0.11    0.00   0.11  14.90
sdd               0.00     0.00 1503.00    0.00  6808.00     0.00     9.06     0.17    0.11    0.11    0.00   0.11  17.00
sde               0.00     0.00 1448.00    0.00  6536.00     0.00     9.03     0.16    0.11    0.11    0.00   0.11  15.50
sdf               1.00     0.00 1411.00    0.00  6848.00     0.00     9.71     0.16    0.11    0.11    0.00   0.10  14.00
sdg               0.00     0.00    0.00    0.00     0.00     0.00     0.00     0.00    0.00    0.00    0.00   0.00   0.00
sdh               0.00     0.00    0.00    0.00     0.00     0.00     0.00     0.00    0.00    0.00    0.00   0.00   0.00
md0               0.00     0.00 8573.00    0.00 39608.00     0.00     9.24     0.00    0.00    0.00    0.00   0.00   0.00

avg-cpu:  %user   %nice %system %iowait  %steal   %idle
           0.26    0.00    2.05    1.03    0.00   96.67

Device:         rrqm/s   wrqm/s     r/s     w/s    rkB/s    wkB/s avgrq-sz avgqu-sz   await r_await w_await  svctm  %util
sda               0.00     0.00 1467.00    0.00  6852.00     0.00     9.34     0.17    0.12    0.12    0.00   0.11  15.80
sdb               0.00     0.00 1451.00    0.00  6696.00     0.00     9.23     0.14    0.10    0.10    0.00   0.10  14.30
sdc               0.00     0.00 1476.00    0.00  7048.00     0.00     9.55     0.16    0.11    0.11    0.00   0.10  14.90
sdd               0.00     0.00 1456.00    0.00  7452.00     0.00    10.24     0.18    0.12    0.12    0.00   0.11  15.50
sde               1.00     0.00 1389.00    0.00  6244.00     0.00     8.99     0.16    0.12    0.12    0.00   0.11  15.60
sdf               0.00     0.00 1370.00    0.00  6284.00     0.00     9.17     0.17    0.13    0.13    0.00   0.12  16.20
sdg               0.00     0.00    0.00    0.00     0.00     0.00     0.00     0.00    0.00    0.00    0.00   0.00   0.00
sdh               0.00     0.00    0.00    0.00     0.00     0.00     0.00     0.00    0.00    0.00    0.00   0.00   0.00
md0               0.00     0.00 8610.00    0.00 40752.00     0.00     9.47     0.00    0.00    0.00    0.00   0.00   0.00

avg-cpu:  %user   %nice %system %iowait  %steal   %idle
           0.26    0.00    1.79    1.03    0.00   96.92

Device:         rrqm/s   wrqm/s     r/s     w/s    rkB/s    wkB/s avgrq-sz avgqu-sz   await r_await w_await  svctm  %util
sda               0.00     0.00 1529.00    0.00  8076.00     0.00    10.56     0.21    0.14    0.14    0.00   0.11  17.40
sdb               0.00     0.00 1471.00    0.00  7156.00     0.00     9.73     0.19    0.13    0.13    0.00   0.12  17.40
sdc               0.00     0.00 1409.00    0.00  6628.00     0.00     9.41     0.15    0.11    0.11    0.00   0.10  14.40
sdd               0.00     0.00 1385.00    0.00  6336.00     0.00     9.15     0.17    0.12    0.12    0.00   0.11  15.70
sde               0.00     0.00 1409.00    0.00  7016.00     0.00     9.96     0.16    0.11    0.11    0.00   0.10  14.50
sdf               0.00     0.00 1474.00    0.00  7324.00     0.00     9.94     0.18    0.12    0.12    0.00   0.10  15.10
sdg               0.00     0.00    0.00    0.00     0.00     0.00     0.00     0.00    0.00    0.00    0.00   0.00   0.00
sdh               0.00     0.00    0.00    0.00     0.00     0.00     0.00     0.00    0.00    0.00    0.00   0.00   0.00
md0               0.00     0.00 8677.00    0.00 42740.00     0.00     9.85     0.00    0.00    0.00    0.00   0.00   0.00

avg-cpu:  %user   %nice %system %iowait  %steal   %idle
           0.51    0.00    1.79    1.03    0.00   96.67

Device:         rrqm/s   wrqm/s     r/s     w/s    rkB/s    wkB/s avgrq-sz avgqu-sz   await r_await w_await  svctm  %util
sda               0.00     0.00 1491.00    0.00  7776.00     0.00    10.43     0.18    0.12    0.12    0.00   0.10  14.90
sdb               0.00     0.00 1457.00    0.00  7980.00     0.00    10.95     0.20    0.14    0.14    0.00   0.11  15.40
sdc               0.00     0.00 1443.00    0.00  7076.00     0.00     9.81     0.19    0.13    0.13    0.00   0.11  16.50
sdd               0.00     0.00 1450.00    0.00  8208.00     0.00    11.32     0.21    0.14    0.14    0.00   0.12  16.80
sde               0.00     0.00 1463.00    0.00  7340.00     0.00    10.03     0.20    0.14    0.14    0.00   0.12  17.60
sdf               0.00     0.00 1474.00    0.00  7184.00     0.00     9.75     0.15    0.10    0.10    0.00   0.09  13.90
sdg               0.00     0.00    0.00    0.00     0.00     0.00     0.00     0.00    0.00    0.00    0.00   0.00   0.00
sdh               0.00     0.00    0.00    0.00     0.00     0.00     0.00     0.00    0.00    0.00    0.00   0.00   0.00
md0               0.00     0.00 8777.00    0.00 45844.00     0.00    10.45     0.00    0.00    0.00    0.00   0.00   0.00

avg-cpu:  %user   %nice %system %iowait  %steal   %idle
           0.51    0.00    1.79    1.03    0.00   96.67

Device:         rrqm/s   wrqm/s     r/s     w/s    rkB/s    wkB/s avgrq-sz avgqu-sz   await r_await w_await  svctm  %util
sda               0.00     0.00 1502.00    0.00  7904.00     0.00    10.52     0.20    0.14    0.14    0.00   0.11  16.40
sdb               0.00     0.00 1436.00    0.00  7448.00     0.00    10.37     0.16    0.11    0.11    0.00   0.09  13.20
sdc               0.00     0.00 1546.00    0.00  8884.00     0.00    11.49     0.27    0.17    0.17    0.00   0.11  16.30
sdd               0.00     0.00 1493.00    0.00  8316.00     0.00    11.14     0.26    0.17    0.17    0.00   0.11  16.60
sde               0.00     0.00 1532.00    0.00  8440.00     0.00    11.02     0.28    0.18    0.18    0.00   0.12  17.90
sdf               0.00     0.00 1457.00    0.00  8048.00     0.00    11.05     0.24    0.16    0.16    0.00   0.11  16.20
sdg               0.00     0.00    0.00    0.00     0.00     0.00     0.00     0.00    0.00    0.00    0.00   0.00   0.00
sdh               0.00     0.00    0.00    0.00     0.00     0.00     0.00     0.00    0.00    0.00    0.00   0.00   0.00
md0               0.00     0.00 8967.00    0.00 49440.00     0.00    11.03     0.00    0.00    0.00    0.00   0.00   0.00

avg-cpu:  %user   %nice %system %iowait  %steal   %idle
           0.51    0.00    2.04    1.28    0.00   96.17

Device:         rrqm/s   wrqm/s     r/s     w/s    rkB/s    wkB/s avgrq-sz avgqu-sz   await r_await w_await  svctm  %util
sda               0.00     0.00 1455.00    0.00  6692.00     0.00     9.20     0.16    0.11    0.11    0.00   0.10  15.10
sdb               0.00     0.00 1466.00    0.00  6944.00     0.00     9.47     0.17    0.12    0.12    0.00   0.11  16.00
sdc               0.00     0.00 1458.00    0.00  7188.00     0.00     9.86     0.20    0.13    0.13    0.00   0.11  16.30
sdd               0.00     0.00 1518.00    0.00  7620.00     0.00    10.04     0.18    0.12    0.12    0.00   0.10  15.80
sde               0.00     0.00 1467.00    0.00  7256.00     0.00     9.89     0.19    0.13    0.13    0.00   0.10  14.80
sdf               0.00     0.00 1434.00    0.00  7200.00     0.00    10.04     0.19    0.13    0.13    0.00   0.11  15.70
sdg               0.00     1.00   12.00    2.00    48.00    36.00    12.00     0.00    0.29    0.25    0.50   0.14   0.20
sdh               0.00     0.00    0.00    0.00     0.00     0.00     0.00     0.00    0.00    0.00    0.00   0.00   0.00
md0               0.00     0.00 8797.00    0.00 43188.00     0.00     9.82     0.00    0.00    0.00    0.00   0.00   0.00

avg-cpu:  %user   %nice %system %iowait  %steal   %idle
           0.77    0.00    2.05    0.77    0.00   96.42

Device:         rrqm/s   wrqm/s     r/s     w/s    rkB/s    wkB/s avgrq-sz avgqu-sz   await r_await w_await  svctm  %util
sda               0.00     0.00 1564.00    0.00  8760.00     0.00    11.20     0.23    0.15    0.15    0.00   0.10  16.00
sdb               0.00     0.00 1518.00    0.00  7872.00     0.00    10.37     0.16    0.11    0.11    0.00   0.09  13.80
sdc               0.00     0.00 1475.00    0.00  8084.00     0.00    10.96     0.23    0.16    0.16    0.00   0.11  16.80
sdd               0.00     0.00 1527.00    0.00  8464.00     0.00    11.09     0.22    0.14    0.14    0.00   0.10  15.70
sde               0.00     0.00 1555.00    0.00  8692.00     0.00    11.18     0.23    0.15    0.15    0.00   0.10  15.70
sdf               0.00     0.00 1486.00    0.00  7816.00     0.00    10.52     0.22    0.15    0.15    0.00   0.12  17.70
sdg               0.00     0.00    0.00    0.00     0.00     0.00     0.00     0.00    0.00    0.00    0.00   0.00   0.00
sdh               0.00     0.00    0.00    0.00     0.00     0.00     0.00     0.00    0.00    0.00    0.00   0.00   0.00
md0               0.00     0.00 9125.00    0.00 50084.00     0.00    10.98     0.00    0.00    0.00    0.00   0.00   0.00

avg-cpu:  %user   %nice %system %iowait  %steal   %idle
           0.51    0.26    2.55    2.55    0.00   94.13

Device:         rrqm/s   wrqm/s     r/s     w/s    rkB/s    wkB/s avgrq-sz avgqu-sz   await r_await w_await  svctm  %util
sda               0.00     0.00 1560.00    0.00  8636.00     0.00    11.07     0.22    0.14    0.14    0.00   0.11  17.30
sdb               0.00     0.00 1495.00    0.00  7800.00     0.00    10.43     0.16    0.11    0.11    0.00   0.09  13.10
sdc               0.00     0.00 1495.00    0.00  7740.00     0.00    10.35     0.18    0.12    0.12    0.00   0.10  15.00
sdd               0.00     0.00 1467.00    0.00  8040.00     0.00    10.96     0.21    0.15    0.15    0.00   0.11  16.20
sde               0.00     0.00 1564.00    0.00  8648.00     0.00    11.06     0.20    0.13    0.13    0.00   0.10  15.10
sdf               0.00     0.00 1569.00    0.00  9332.00     0.00    11.90     0.27    0.17    0.17    0.00   0.11  17.60
sdg               0.00     0.00  835.00    0.00  3340.00     0.00     8.00     0.10    0.12    0.12    0.00   0.12  10.20
sdh               0.00     0.00    0.00    0.00     0.00     0.00     0.00     0.00    0.00    0.00    0.00   0.00   0.00
md0               0.00     0.00 9150.00    0.00 50576.00     0.00    11.05     0.00    0.00    0.00    0.00   0.00   0.00

avg-cpu:  %user   %nice %system %iowait  %steal   %idle
           0.51    0.00    3.05    6.09    0.00   90.36

Device:         rrqm/s   wrqm/s     r/s     w/s    rkB/s    wkB/s avgrq-sz avgqu-sz   await r_await w_await  svctm  %util
sda               0.00     0.00 1518.00    0.00  8572.00     0.00    11.29     0.23    0.15    0.15    0.00   0.11  16.00
sdb               0.00     0.00 1521.00    0.00  8432.00     0.00    11.09     0.21    0.14    0.14    0.00   0.09  14.40
sdc               0.00     0.00 1533.00    0.00  8412.00     0.00    10.97     0.24    0.16    0.16    0.00   0.10  15.60
sdd               0.00     0.00 1488.00    0.00  8552.00     0.00    11.49     0.25    0.17    0.17    0.00   0.11  15.90
sde               0.00     0.00 1572.00    0.00  9436.00     0.00    12.01     0.29    0.19    0.19    0.00   0.10  15.70
sdf               0.00     0.00 1546.00    0.00  8476.00     0.00    10.97     0.23    0.15    0.15    0.00   0.11  17.50
sdg               0.00     0.00  481.00    0.00  1924.00     0.00     8.00     0.05    0.11    0.11    0.00   0.11   5.20
sdh               0.00     0.00    0.00    0.00     0.00     0.00     0.00     0.00    0.00    0.00    0.00   0.00   0.00
md0               0.00     0.00 9179.00    0.00 52308.00     0.00    11.40     0.00    0.00    0.00    0.00   0.00   0.00

avg-cpu:  %user   %nice %system %iowait  %steal   %idle
           0.51    0.00    2.05    1.79    0.00   95.65

Device:         rrqm/s   wrqm/s     r/s     w/s    rkB/s    wkB/s avgrq-sz avgqu-sz   await r_await w_await  svctm  %util
sda               0.00     0.00 1540.00    0.00  9252.00     0.00    12.02     0.25    0.16    0.16    0.00   0.09  14.30
sdb               1.00     0.00 1575.00    0.00  8880.00     0.00    11.28     0.25    0.16    0.16    0.00   0.11  17.10
sdc               0.00     0.00 1542.00    0.00  8992.00     0.00    11.66     0.29    0.19    0.19    0.00   0.11  16.50
sdd               2.00     0.00 1586.00    0.00 10436.00     0.00    13.16     0.39    0.25    0.25    0.00   0.10  15.60
sde               0.00     0.00 1686.00    0.00 11052.00     0.00    13.11     0.47    0.28    0.28    0.00   0.10  17.70
sdf               0.00     0.00 1529.00    0.00  9508.00     0.00    12.44     0.36    0.24    0.24    0.00   0.10  15.30
sdg               0.00     0.00    0.00    0.00     0.00     0.00     0.00     0.00    0.00    0.00    0.00   0.00   0.00
sdh               0.00     0.00    0.00    0.00     0.00     0.00     0.00     0.00    0.00    0.00    0.00   0.00   0.00
md0               0.00     0.00 9461.00    0.00 58776.00     0.00    12.42     0.00    0.00    0.00    0.00   0.00   0.00

avg-cpu:  %user   %nice %system %iowait  %steal   %idle
           0.51    0.00    3.06    1.28    0.00   95.15

Device:         rrqm/s   wrqm/s     r/s     w/s    rkB/s    wkB/s avgrq-sz avgqu-sz   await r_await w_await  svctm  %util
sda               0.00     0.00 1668.00    0.00 11208.00     0.00    13.44     0.38    0.22    0.22    0.00   0.08  13.60
sdb               0.00     0.00 1769.00    0.00 12400.00     0.00    14.02     0.38    0.22    0.22    0.00   0.09  15.40
sdc               1.00     0.00 1600.00    0.00 10552.00     0.00    13.19     0.45    0.28    0.28    0.00   0.11  16.90
sdd               0.00     0.00 1614.00    0.00  9872.00     0.00    12.23     0.40    0.25    0.25    0.00   0.10  15.60
sde               1.00     0.00 1669.00    0.00 11076.00     0.00    13.27     0.54    0.32    0.32    0.00   0.10  16.30
sdf               0.00     0.00 1740.00    0.00 11468.00     0.00    13.18     0.52    0.30    0.30    0.00   0.11  18.70
sdg               0.00     0.00    0.00 2551.00     0.00 12632.00     9.90    16.34    6.41    0.00    6.41   0.05  11.70
sdh               0.00     0.00    0.00    0.00     0.00     0.00     0.00     0.00    0.00    0.00    0.00   0.00   0.00
md0               0.00     0.00 10062.00    0.00 67260.00     0.00    13.37     0.00    0.00    0.00    0.00   0.00   0.00

avg-cpu:  %user   %nice %system %iowait  %steal   %idle
           0.51    0.00    3.30    6.60    0.00   89.59

Device:         rrqm/s   wrqm/s     r/s     w/s    rkB/s    wkB/s avgrq-sz avgqu-sz   await r_await w_await  svctm  %util
sda               0.00     0.00 1838.00    0.00 13336.00     0.00    14.51     0.45    0.24    0.24    0.00   0.08  14.60
sdb               0.00     0.00 1811.00    0.00 12484.00     0.00    13.79     0.45    0.25    0.25    0.00   0.08  14.70
sdc               0.00     0.00 1852.00    0.00 12364.00     0.00    13.35     0.68    0.37    0.37    0.00   0.10  17.80
sdd               1.00     0.00 1807.00    0.00 12260.00     0.00    13.57     0.61    0.34    0.34    0.00   0.10  18.00
sde               0.00     0.00 1896.00    0.00 13740.00     0.00    14.49     0.77    0.41    0.41    0.00   0.10  19.20
sdf               0.00     0.00 1878.00    0.00 13428.00     0.00    14.30     0.70    0.37    0.37    0.00   0.10  18.10
sdg               0.00     0.00   15.00    0.00   304.00     0.00    40.53     0.00    0.13    0.13    0.00   0.13   0.20
sdh               0.00     0.00    0.00    0.00     0.00     0.00     0.00     0.00    0.00    0.00    0.00   0.00   0.00
md0               0.00     0.00 11083.00    0.00 78332.00     0.00    14.14     0.00    0.00    0.00    0.00   0.00   0.00

avg-cpu:  %user   %nice %system %iowait  %steal   %idle
           0.76    0.00    3.78   19.90    0.00   75.57

Device:         rrqm/s   wrqm/s     r/s     w/s    rkB/s    wkB/s avgrq-sz avgqu-sz   await r_await w_await  svctm  %util
sda               0.00     0.00 1783.00    0.00 11448.00     0.00    12.84     0.35    0.20    0.20    0.00   0.08  14.70
sdb               2.00     0.00 1946.00    0.00 13776.00     0.00    14.16     0.48    0.25    0.25    0.00   0.09  17.00
sdc               0.00     0.00 1871.00    0.00 12536.00     0.00    13.40     0.59    0.31    0.31    0.00   0.09  17.60
sdd               0.00     0.00 1779.00    0.00 10996.00     0.00    12.36     0.48    0.27    0.27    0.00   0.10  17.60
sde               0.00     0.00 1746.00    0.00 11492.00     0.00    13.16     0.45    0.26    0.26    0.00   0.09  16.30
sdf               3.00     0.00 1865.00    0.00 12728.00     0.00    13.65     0.60    0.32    0.32    0.00   0.09  17.40
sdg               0.00     0.00    0.00    0.00     0.00     0.00     0.00     0.00    0.00    0.00    0.00   0.00   0.00
sdh               0.00     0.00    0.00    0.00     0.00     0.00     0.00     0.00    0.00    0.00    0.00   0.00   0.00
md0               0.00     0.00 10996.00    0.00 73556.00     0.00    13.38     0.00    0.00    0.00    0.00   0.00   0.00

avg-cpu:  %user   %nice %system %iowait  %steal   %idle
           0.51    0.00    3.82   17.30    0.00   78.37

Device:         rrqm/s   wrqm/s     r/s     w/s    rkB/s    wkB/s avgrq-sz avgqu-sz   await r_await w_await  svctm  %util
sda               0.00     0.00 2323.00    0.00 17716.00     0.00    15.25     0.68    0.29    0.29    0.00   0.07  15.20
sdb               0.00     0.00 2161.00    0.00 17084.00     0.00    15.81     0.66    0.30    0.30    0.00   0.07  16.10
sdc               0.00     0.00 2340.00    0.00 18488.00     0.00    15.80     1.28    0.55    0.55    0.00   0.09  20.80
sdd               0.00     0.00 2262.00    0.00 17656.00     0.00    15.61     1.23    0.54    0.54    0.00   0.08  18.80
sde               3.00     0.00 2212.00    0.00 16832.00     0.00    15.22     1.32    0.60    0.60    0.00   0.09  21.00
sdf               1.00     0.00 2324.00    0.00 17768.00     0.00    15.29     1.43    0.62    0.62    0.00   0.09  20.50
sdg               0.00     0.00    0.00    0.00     0.00     0.00     0.00     0.00    0.00    0.00    0.00   0.00   0.00
sdh               0.00     0.00    0.00    0.00     0.00     0.00     0.00     0.00    0.00    0.00    0.00   0.00   0.00
md0               0.00     0.00 13625.00    0.00 106720.00     0.00    15.67     0.00    0.00    0.00    0.00   0.00   0.00

avg-cpu:  %user   %nice %system %iowait  %steal   %idle
           0.77    0.00    3.32    1.02    0.00   94.90

Device:         rrqm/s   wrqm/s     r/s     w/s    rkB/s    wkB/s avgrq-sz avgqu-sz   await r_await w_await  svctm  %util
sda               2.00     0.00 2461.00    0.00 20180.00     0.00    16.40     1.03    0.42    0.42    0.00   0.07  17.40
sdb               4.00     0.00 2668.00    0.00 22332.00     0.00    16.74     1.37    0.51    0.51    0.00   0.07  17.90
sdc               4.00     0.00 2695.00    0.00 22100.00     0.00    16.40     2.39    0.89    0.89    0.00   0.08  21.80
sdd               3.00     0.00 2947.00    0.00 24064.00     0.00    16.33     2.67    0.91    0.91    0.00   0.08  23.40
sde               2.00     0.00 2740.00    0.00 23252.00     0.00    16.97     2.31    0.85    0.85    0.00   0.07  19.60
sdf               3.00     0.00 2729.00    0.00 22216.00     0.00    16.28     2.12    0.78    0.78    0.00   0.07  20.40
sdg               0.00     0.00    0.00    0.00     0.00     0.00     0.00     0.00    0.00    0.00    0.00   0.00   0.00
sdh               0.00     0.00    0.00    0.00     0.00     0.00     0.00     0.00    0.00    0.00    0.00   0.00   0.00
md0               0.00     0.00 16258.00    0.00 135656.00     0.00    16.69     0.00    0.00    0.00    0.00   0.00   0.00

