Linux 4.17.2 (bench) 	08/04/2018 	_x86_64_	(4 CPU)

avg-cpu:  %user   %nice %system %iowait  %steal   %idle
          10.25    0.02    4.33    2.86    0.00   82.55

Device:         rrqm/s   wrqm/s     r/s     w/s    rkB/s    wkB/s avgrq-sz avgqu-sz   await r_await w_await  svctm  %util
sda              58.83     4.12 1767.07   99.57 21444.98  3046.87    26.24     1.05    0.56    0.26    5.92   0.06  11.20
sdb              58.62     4.08 1767.09   99.71 21434.64  3043.63    26.22     1.05    0.56    0.26    5.85   0.06  11.08
sdc              95.93     4.14 1727.70   99.27 21427.01  3046.02    26.79     1.47    0.80    0.44    7.12   0.08  14.57
sdd              89.58     4.11 1733.25   99.34 21412.21  3042.32    26.69     1.48    0.81    0.43    7.33   0.08  14.67
sde              91.52     4.15 1738.21   99.43 21470.39  3046.45    26.68     1.50    0.81    0.44    7.44   0.08  14.69
sdf              88.72     4.13 1740.29   99.38 21452.17  3043.40    26.63     1.54    0.84    0.43    7.90   0.08  14.72
sdg               0.00     3.15   27.19   73.10   326.95   391.49    14.33     0.44    4.37    0.20    5.93   0.08   0.79
sdh               0.00     0.12    0.02    0.23     2.15     4.92    56.82     0.00    1.15    0.65    1.19   0.21   0.01
md0               0.00     0.00 10964.58  466.53 146896.11 20855.30    29.35     0.00    0.00    0.00    0.00   0.00   0.00

avg-cpu:  %user   %nice %system %iowait  %steal   %idle
           5.49    0.01    9.60    3.66    0.00   81.23

Device:         rrqm/s   wrqm/s     r/s     w/s    rkB/s    wkB/s avgrq-sz avgqu-sz   await r_await w_await  svctm  %util
sda               4.35     0.00  784.10    0.00 15766.40     0.00    40.22     0.29    0.38    0.38    0.00   0.12   9.46
sdb               4.10     0.00  779.50    0.00 15601.20     0.00    40.03     0.30    0.39    0.39    0.00   0.12   9.25
sdc               3.35     0.00  806.00    0.00 15670.60     0.00    38.88     0.46    0.57    0.57    0.00   0.14  11.43
sdd               4.05     0.00  792.05    0.00 15559.80     0.00    39.29     0.43    0.54    0.54    0.00   0.15  11.65
sde               3.05     0.00  786.80    0.00 15551.20     0.00    39.53     0.44    0.56    0.56    0.00   0.14  11.39
sdf               2.60     0.00  796.40    0.00 15714.20     0.00    39.46     0.45    0.56    0.56    0.00   0.16  12.83
sdg               0.00     9.10    1.80  128.00    14.00   639.60    10.07     0.79    6.07    0.17    6.15   0.05   0.59
sdh               0.00     0.00    0.00    0.00     0.00     0.00     0.00     0.00    0.00    0.00    0.00   0.00   0.00
md0               0.00     0.00 4766.35    0.00 99691.40     0.00    41.83     0.00    0.00    0.00    0.00   0.00   0.00

