Linux 4.17.2 (bench) 	08/04/2018 	_x86_64_	(4 CPU)

avg-cpu:  %user   %nice %system %iowait  %steal   %idle
          10.25    0.02    4.30    2.82    0.00   82.61

Device:         rrqm/s   wrqm/s     r/s     w/s    rkB/s    wkB/s avgrq-sz avgqu-sz   await r_await w_await  svctm  %util
sda              57.62     4.14 1758.41   99.93 21445.66  3057.86    26.37     1.05    0.57    0.26    5.92   0.06  11.17
sdb              57.41     4.10 1758.43  100.07 21435.30  3054.61    26.35     1.05    0.56    0.26    5.85   0.06  11.04
sdc              94.84     4.16 1718.91   99.63 21427.63  3057.01    26.93     1.47    0.81    0.44    7.12   0.08  14.54
sdd              88.46     4.13 1724.48   99.70 21412.79  3053.30    26.82     1.48    0.81    0.43    7.33   0.08  14.64
sde              90.42     4.17 1729.48   99.79 21471.26  3057.44    26.82     1.50    0.82    0.44    7.44   0.08  14.66
sdf              87.61     4.14 1731.56   99.74 21453.00  3054.38    26.77     1.54    0.84    0.43    7.90   0.08  14.69
sdg               0.00     3.16   27.12   73.14   326.84   391.65    14.33     0.44    4.38    0.20    5.93   0.08   0.79
sdh               0.00     0.13    0.02    0.23     2.15     4.93    56.82     0.00    1.15    0.65    1.19   0.21   0.01
md0               0.00     0.00 10905.37  468.22 146947.48 20930.55    29.52     0.00    0.00    0.00    0.00   0.00   0.00

avg-cpu:  %user   %nice %system %iowait  %steal   %idle
           0.25    0.00    4.03   13.35    0.00   82.37

Device:         rrqm/s   wrqm/s     r/s     w/s    rkB/s    wkB/s avgrq-sz avgqu-sz   await r_await w_await  svctm  %util
sda               3.00     0.00 2025.00    0.00 45156.00     0.00    44.60     1.34    0.66    0.66    0.00   0.11  21.90
sdb               5.00     0.00 1973.00    0.00 43156.00     0.00    43.75     1.32    0.67    0.67    0.00   0.11  21.30
sdc               6.00     0.00 2029.00    0.00 47388.00     0.00    46.71     2.39    1.18    1.18    0.00   0.15  30.00
sdd               9.00     0.00 2158.00    0.00 50264.00     0.00    46.58     2.84    1.31    1.31    0.00   0.15  31.40
sde               5.00     0.00 2069.00    0.00 46712.00     0.00    45.15     2.36    1.14    1.14    0.00   0.15  30.10
sdf               5.00     0.00 1967.00    0.00 42948.00     0.00    43.67     2.19    1.12    1.12    0.00   0.15  28.70
sdg               0.00     0.00    3.00    0.00    88.00     0.00    58.67     0.00    0.33    0.33    0.00   0.33   0.10
sdh               0.00     0.00    0.00    0.00     0.00     0.00     0.00     0.00    0.00    0.00    0.00   0.00   0.00
md0               0.00     0.00 12256.00    0.00 293096.00     0.00    47.83     0.00    0.00    0.00    0.00   0.00   0.00

avg-cpu:  %user   %nice %system %iowait  %steal   %idle
           0.25    0.00    2.28    1.27    0.00   96.19

Device:         rrqm/s   wrqm/s     r/s     w/s    rkB/s    wkB/s avgrq-sz avgqu-sz   await r_await w_await  svctm  %util
sda              16.00     0.00 1186.00    0.00 17884.00     0.00    30.16     0.18    0.15    0.15    0.00   0.14  16.80
sdb              14.00     0.00 1158.00    0.00 16696.00     0.00    28.84     0.17    0.15    0.15    0.00   0.13  15.50
sdc              19.00     0.00 1077.00    0.00 19260.00     0.00    35.77     0.20    0.18    0.18    0.00   0.16  17.60
sdd              18.00     0.00 1124.00    0.00 18848.00     0.00    33.54     0.21    0.19    0.19    0.00   0.17  18.90
sde              20.00     0.00 1161.00    0.00 18820.00     0.00    32.42     0.22    0.19    0.19    0.00   0.17  19.40
sdf              20.00     0.00 1160.00    0.00 19004.00     0.00    32.77     0.22    0.19    0.19    0.00   0.17  19.50
sdg               0.00     0.00    0.00    0.00     0.00     0.00     0.00     0.00    0.00    0.00    0.00   0.00   0.00
sdh               0.00     0.00    0.00    0.00     0.00     0.00     0.00     0.00    0.00    0.00    0.00   0.00   0.00
md0               0.00     0.00 6972.00    0.00 137500.00     0.00    39.44     0.00    0.00    0.00    0.00   0.00   0.00

avg-cpu:  %user   %nice %system %iowait  %steal   %idle
           0.00    0.00    2.28    1.52    0.00   96.19

Device:         rrqm/s   wrqm/s     r/s     w/s    rkB/s    wkB/s avgrq-sz avgqu-sz   await r_await w_await  svctm  %util
sda              25.00     0.00 1143.00    0.00 22388.00     0.00    39.17     0.19    0.17    0.17    0.00   0.15  17.40
sdb              28.00     0.00 1104.00    0.00 22616.00     0.00    40.97     0.19    0.17    0.17    0.00   0.16  17.30
sdc              26.00     0.00 1159.00    0.00 22964.00     0.00    39.63     0.26    0.22    0.22    0.00   0.18  21.20
sdd              28.00     0.00 1083.00    0.00 23444.00     0.00    43.29     0.23    0.22    0.22    0.00   0.18  20.00
sde              30.00     0.00 1105.00    0.00 23868.00     0.00    43.20     0.26    0.23    0.23    0.00   0.20  21.70
sdf              29.00     0.00 1095.00    0.00 24396.00     0.00    44.56     0.24    0.22    0.22    0.00   0.19  21.10
sdg               0.00     0.00    0.00    0.00     0.00     0.00     0.00     0.00    0.00    0.00    0.00   0.00   0.00
sdh               0.00     0.00    0.00    0.00     0.00     0.00     0.00     0.00    0.00    0.00    0.00   0.00   0.00
md0               0.00     0.00 6856.00    0.00 195352.00     0.00    56.99     0.00    0.00    0.00    0.00   0.00   0.00

avg-cpu:  %user   %nice %system %iowait  %steal   %idle
           0.25    0.00    3.01   15.79    0.00   80.95

Device:         rrqm/s   wrqm/s     r/s     w/s    rkB/s    wkB/s avgrq-sz avgqu-sz   await r_await w_await  svctm  %util
sda              23.00     0.00 1164.00    0.00 21544.00     0.00    37.02     0.18    0.16    0.16    0.00   0.15  17.10
sdb              21.00     0.00 1098.00    0.00 20352.00     0.00    37.07     0.18    0.16    0.16    0.00   0.15  16.40
sdc              21.00     0.00 1122.00    0.00 20824.00     0.00    37.12     0.24    0.21    0.21    0.00   0.17  19.40
sdd              22.00     0.00 1106.00    0.00 20724.00     0.00    37.48     0.23    0.21    0.21    0.00   0.18  19.60
sde              23.00     0.00 1142.00    0.00 19796.00     0.00    34.67     0.23    0.21    0.21    0.00   0.17  19.40
sdf              20.00     0.00 1206.00    0.00 18940.00     0.00    31.41     0.23    0.19    0.19    0.00   0.16  19.50
sdg               0.00     0.00    0.00    0.00     0.00     0.00     0.00     0.00    0.00    0.00    0.00   0.00   0.00
sdh               0.00     0.00    0.00    0.00     0.00     0.00     0.00     0.00    0.00    0.00    0.00   0.00   0.00
md0               0.00     0.00 6969.00    0.00 156852.00     0.00    45.01     0.00    0.00    0.00    0.00   0.00   0.00

avg-cpu:  %user   %nice %system %iowait  %steal   %idle
           0.00    0.00    2.80    7.38    0.00   89.82

Device:         rrqm/s   wrqm/s     r/s     w/s    rkB/s    wkB/s avgrq-sz avgqu-sz   await r_await w_await  svctm  %util
sda              23.00     0.00 1321.00    0.00 24996.00     0.00    37.84     0.37    0.28    0.28    0.00   0.12  16.50
sdb              18.00     0.00 1385.00    0.00 21252.00     0.00    30.69     0.36    0.26    0.26    0.00   0.12  17.20
sdc              20.00     0.00 1336.00    0.00 22996.00     0.00    34.43     0.57    0.42    0.42    0.00   0.15  20.70
sdd              21.00     0.00 1304.00    0.00 24664.00     0.00    37.83     0.60    0.46    0.46    0.00   0.17  22.30
sde              22.00     0.00 1281.00    0.00 24136.00     0.00    37.68     0.52    0.41    0.41    0.00   0.16  20.80
sdf              26.00     0.00 1303.00    0.00 24240.00     0.00    37.21     0.54    0.42    0.42    0.00   0.16  20.70
sdg               0.00     0.00    0.00    0.00     0.00     0.00     0.00     0.00    0.00    0.00    0.00   0.00   0.00
sdh               0.00     0.00    0.00    0.00     0.00     0.00     0.00     0.00    0.00    0.00    0.00   0.00   0.00
md0               0.00     0.00 8060.00    0.00 171416.00     0.00    42.53     0.00    0.00    0.00    0.00   0.00   0.00

avg-cpu:  %user   %nice %system %iowait  %steal   %idle
           0.25    0.00    4.31    9.90    0.00   85.53

Device:         rrqm/s   wrqm/s     r/s     w/s    rkB/s    wkB/s avgrq-sz avgqu-sz   await r_await w_await  svctm  %util
sda              10.00     0.00 2721.00    0.00 56064.00     0.00    41.21     2.18    0.80    0.80    0.00   0.10  26.00
sdb               7.00     0.00 2735.00    0.00 55352.00     0.00    40.48     2.10    0.77    0.77    0.00   0.09  25.50
sdc               7.00     0.00 2547.00    0.00 55364.00     0.00    43.47     3.60    1.40    1.40    0.00   0.13  33.50
sdd               9.00     0.00 2557.00    0.00 54544.00     0.00    42.66     3.49    1.37    1.37    0.00   0.13  33.10
sde               9.00     0.00 2597.00    0.00 54060.00     0.00    41.63     3.66    1.41    1.41    0.00   0.13  32.90
sdf               7.00     0.00 2614.00    0.00 54316.00     0.00    41.56     3.63    1.39    1.39    0.00   0.13  33.30
sdg               0.00     0.00    0.00    0.00     0.00     0.00     0.00     0.00    0.00    0.00    0.00   0.00   0.00
sdh               0.00     0.00    0.00    0.00     0.00     0.00     0.00     0.00    0.00    0.00    0.00   0.00   0.00
md0               0.00     0.00 15824.00    0.00 346960.00     0.00    43.85     0.00    0.00    0.00    0.00   0.00   0.00

avg-cpu:  %user   %nice %system %iowait  %steal   %idle
           0.00    0.00    3.59    6.92    0.00   89.49

Device:         rrqm/s   wrqm/s     r/s     w/s    rkB/s    wkB/s avgrq-sz avgqu-sz   await r_await w_await  svctm  %util
sda               5.00     0.00 2273.00    0.00 57180.00     0.00    50.31     1.86    0.82    0.82    0.00   0.11  25.90
sdb               5.00     0.00 2339.00    0.00 60216.00     0.00    51.49     2.15    0.92    0.92    0.00   0.11  26.20
sdc               7.00     0.00 2318.00    0.00 57200.00     0.00    49.35     3.32    1.45    1.45    0.00   0.15  35.50
sdd              12.00     0.00 2240.00    0.00 58008.00     0.00    51.79     3.50    1.56    1.56    0.00   0.15  34.30
sde               7.00     0.00 2275.00    0.00 58352.00     0.00    51.30     3.44    1.51    1.51    0.00   0.15  35.00
sdf               6.00     0.00 2265.00    0.00 58764.00     0.00    51.89     3.47    1.53    1.53    0.00   0.15  34.60
sdg               0.00     0.00   19.00    0.00   136.00     0.00    14.32     0.00    0.05    0.05    0.00   0.05   0.10
sdh               0.00     0.00    0.00    0.00     0.00     0.00     0.00     0.00    0.00    0.00    0.00   0.00   0.00
md0               0.00     0.00 13748.00    0.00 371432.00     0.00    54.03     0.00    0.00    0.00    0.00   0.00   0.00

avg-cpu:  %user   %nice %system %iowait  %steal   %idle
           1.03    0.00    8.23    2.31    0.00   88.43

Device:         rrqm/s   wrqm/s     r/s     w/s    rkB/s    wkB/s avgrq-sz avgqu-sz   await r_await w_await  svctm  %util
sda               8.00     0.00 3846.00    0.00 62296.00     0.00    32.40     3.11    0.81    0.81    0.00   0.06  24.00
sdb               7.00     0.00 3919.00    0.00 65780.00     0.00    33.57     3.45    0.88    0.88    0.00   0.07  25.80
sdc              10.00     0.00 3728.00    0.00 62536.00     0.00    33.55     5.58    1.50    1.50    0.00   0.09  33.70
sdd               8.00     0.00 3593.00    0.00 59492.00     0.00    33.12     5.21    1.45    1.45    0.00   0.09  33.80
sde               7.00     0.00 3719.00    0.00 60828.00     0.00    32.71     5.57    1.50    1.50    0.00   0.09  34.80
sdf               8.00     0.00 3730.00    0.00 61612.00     0.00    33.04     5.12    1.37    1.37    0.00   0.09  34.80
sdg               0.00     0.00    0.00    0.00     0.00     0.00     0.00     0.00    0.00    0.00    0.00   0.00   0.00
sdh               0.00     0.00    0.00    0.00     0.00     0.00     0.00     0.00    0.00    0.00    0.00   0.00   0.00
md0               0.00     0.00 22580.00    0.00 383004.00     0.00    33.92     0.00    0.00    0.00    0.00   0.00   0.00

avg-cpu:  %user   %nice %system %iowait  %steal   %idle
           4.01    0.00   20.55    0.50    0.00   74.94

Device:         rrqm/s   wrqm/s     r/s     w/s    rkB/s    wkB/s avgrq-sz avgqu-sz   await r_await w_await  svctm  %util
sda               0.00     0.00  190.10    0.00  1568.32     0.00    16.50     0.05    0.30    0.30    0.00   0.07   1.29
sdb               0.00     0.00  132.67    0.00  1120.79     0.00    16.90     0.05    0.37    0.37    0.00   0.07   0.89
sdc               0.00     0.00   92.08    0.00   752.48     0.00    16.34     0.03    0.32    0.32    0.00   0.06   0.59
sdd               0.99     0.00  149.50    0.00  1275.25     0.00    17.06     0.04    0.29    0.29    0.00   0.05   0.79
sde               0.00     0.00  147.52    0.00  1263.37     0.00    17.13     0.04    0.29    0.29    0.00   0.05   0.69
sdf               0.00     0.00  122.77    0.00  1045.54     0.00    17.03     0.05    0.37    0.37    0.00   0.09   1.09
sdg               0.00   114.85    0.00 1622.77     0.00  8091.09     9.97     9.11    5.62    0.00    5.62   0.04   6.83
sdh               0.00     0.00    0.00    0.00     0.00     0.00     0.00     0.00    0.00    0.00    0.00   0.00   0.00
md0               0.00     0.00  835.64    0.00  7085.15     0.00    16.96     0.00    0.00    0.00    0.00   0.00   0.00

avg-cpu:  %user   %nice %system %iowait  %steal   %idle
           4.01    0.00   20.80    0.00    0.00   75.19

Device:         rrqm/s   wrqm/s     r/s     w/s    rkB/s    wkB/s avgrq-sz avgqu-sz   await r_await w_await  svctm  %util
sda               0.00     0.00    2.00    0.00     8.00     0.00     8.00     0.00    0.00    0.00    0.00   0.00   0.00
sdb               0.00     0.00    0.00    0.00     0.00     0.00     0.00     0.00    0.00    0.00    0.00   0.00   0.00
sdc               0.00     0.00    0.00    0.00     0.00     0.00     0.00     0.00    0.00    0.00    0.00   0.00   0.00
sdd               0.00     0.00    0.00    0.00     0.00     0.00     0.00     0.00    0.00    0.00    0.00   0.00   0.00
sde               0.00     0.00    0.00    0.00     0.00     0.00     0.00     0.00    0.00    0.00    0.00   0.00   0.00
sdf               0.00     0.00    0.00    0.00     0.00     0.00     0.00     0.00    0.00    0.00    0.00   0.00   0.00
sdg               0.00     0.00    0.00    0.00     0.00     0.00     0.00     0.00    0.00    0.00    0.00   0.00   0.00
sdh               0.00     0.00    0.00    0.00     0.00     0.00     0.00     0.00    0.00    0.00    0.00   0.00   0.00
md0               0.00     0.00    2.00    0.00     8.00     0.00     8.00     0.00    0.00    0.00    0.00   0.00   0.00

avg-cpu:  %user   %nice %system %iowait  %steal   %idle
           4.99    0.00   20.20    0.00    0.00   74.81

Device:         rrqm/s   wrqm/s     r/s     w/s    rkB/s    wkB/s avgrq-sz avgqu-sz   await r_await w_await  svctm  %util
sda               0.00     0.00    0.00    0.00     0.00     0.00     0.00     0.00    0.00    0.00    0.00   0.00   0.00
sdb               0.00     0.00    0.00    0.00     0.00     0.00     0.00     0.00    0.00    0.00    0.00   0.00   0.00
sdc               0.00     0.00    0.00    0.00     0.00     0.00     0.00     0.00    0.00    0.00    0.00   0.00   0.00
sdd               0.00     0.00    0.00    0.00     0.00     0.00     0.00     0.00    0.00    0.00    0.00   0.00   0.00
sde               0.00     0.00    0.00    0.00     0.00     0.00     0.00     0.00    0.00    0.00    0.00   0.00   0.00
sdf               0.00     0.00    0.00    0.00     0.00     0.00     0.00     0.00    0.00    0.00    0.00   0.00   0.00
sdg               0.00     0.00    0.00    0.00     0.00     0.00     0.00     0.00    0.00    0.00    0.00   0.00   0.00
sdh               0.00     0.00    0.00    0.00     0.00     0.00     0.00     0.00    0.00    0.00    0.00   0.00   0.00
md0               0.00     0.00    0.00    0.00     0.00     0.00     0.00     0.00    0.00    0.00    0.00   0.00   0.00

avg-cpu:  %user   %nice %system %iowait  %steal   %idle
           4.50    0.00   20.50    0.00    0.00   75.00

Device:         rrqm/s   wrqm/s     r/s     w/s    rkB/s    wkB/s avgrq-sz avgqu-sz   await r_await w_await  svctm  %util
sda               0.00     0.00    0.00    0.00     0.00     0.00     0.00     0.00    0.00    0.00    0.00   0.00   0.00
sdb               0.00     0.00    0.00    0.00     0.00     0.00     0.00     0.00    0.00    0.00    0.00   0.00   0.00
sdc               0.00     0.00    0.00    0.00     0.00     0.00     0.00     0.00    0.00    0.00    0.00   0.00   0.00
sdd               0.00     0.00    0.00    0.00     0.00     0.00     0.00     0.00    0.00    0.00    0.00   0.00   0.00
sde               0.00     0.00    0.00    0.00     0.00     0.00     0.00     0.00    0.00    0.00    0.00   0.00   0.00
sdf               0.00     0.00    0.00    0.00     0.00     0.00     0.00     0.00    0.00    0.00    0.00   0.00   0.00
sdg               0.00     0.00    0.00    0.00     0.00     0.00     0.00     0.00    0.00    0.00    0.00   0.00   0.00
sdh               0.00     0.00    0.00    0.00     0.00     0.00     0.00     0.00    0.00    0.00    0.00   0.00   0.00
md0               0.00     0.00    0.00    0.00     0.00     0.00     0.00     0.00    0.00    0.00    0.00   0.00   0.00

avg-cpu:  %user   %nice %system %iowait  %steal   %idle
           4.25    0.00   20.75    0.00    0.00   75.00

Device:         rrqm/s   wrqm/s     r/s     w/s    rkB/s    wkB/s avgrq-sz avgqu-sz   await r_await w_await  svctm  %util
sda               0.00     0.00    0.00    0.00     0.00     0.00     0.00     0.00    0.00    0.00    0.00   0.00   0.00
sdb               0.00     0.00    0.00    0.00     0.00     0.00     0.00     0.00    0.00    0.00    0.00   0.00   0.00
sdc               0.00     0.00    0.00    0.00     0.00     0.00     0.00     0.00    0.00    0.00    0.00   0.00   0.00
sdd               0.00     0.00    0.00    0.00     0.00     0.00     0.00     0.00    0.00    0.00    0.00   0.00   0.00
sde               0.00     0.00    0.00    0.00     0.00     0.00     0.00     0.00    0.00    0.00    0.00   0.00   0.00
sdf               0.00     0.00    0.00    0.00     0.00     0.00     0.00     0.00    0.00    0.00    0.00   0.00   0.00
sdg               0.00     0.00    0.00    0.00     0.00     0.00     0.00     0.00    0.00    0.00    0.00   0.00   0.00
sdh               0.00     0.00    0.00    0.00     0.00     0.00     0.00     0.00    0.00    0.00    0.00   0.00   0.00
md0               0.00     0.00    0.00    0.00     0.00     0.00     0.00     0.00    0.00    0.00    0.00   0.00   0.00

avg-cpu:  %user   %nice %system %iowait  %steal   %idle
           4.75    0.00   20.25    0.00    0.00   75.00

Device:         rrqm/s   wrqm/s     r/s     w/s    rkB/s    wkB/s avgrq-sz avgqu-sz   await r_await w_await  svctm  %util
sda               0.00     0.00    0.00    0.00     0.00     0.00     0.00     0.00    0.00    0.00    0.00   0.00   0.00
sdb               0.00     0.00    0.00    0.00     0.00     0.00     0.00     0.00    0.00    0.00    0.00   0.00   0.00
sdc               0.00     0.00    0.00    0.00     0.00     0.00     0.00     0.00    0.00    0.00    0.00   0.00   0.00
sdd               0.00     0.00    0.00    0.00     0.00     0.00     0.00     0.00    0.00    0.00    0.00   0.00   0.00
sde               0.00     0.00    0.00    0.00     0.00     0.00     0.00     0.00    0.00    0.00    0.00   0.00   0.00
sdf               0.00     0.00    0.00    0.00     0.00     0.00     0.00     0.00    0.00    0.00    0.00   0.00   0.00
sdg               0.00     0.00    0.00    0.00     0.00     0.00     0.00     0.00    0.00    0.00    0.00   0.00   0.00
sdh               0.00     0.00    0.00    0.00     0.00     0.00     0.00     0.00    0.00    0.00    0.00   0.00   0.00
md0               0.00     0.00    0.00    0.00     0.00     0.00     0.00     0.00    0.00    0.00    0.00   0.00   0.00

avg-cpu:  %user   %nice %system %iowait  %steal   %idle
           4.75    0.00   20.25    0.00    0.00   75.00

Device:         rrqm/s   wrqm/s     r/s     w/s    rkB/s    wkB/s avgrq-sz avgqu-sz   await r_await w_await  svctm  %util
sda               0.00     0.00    0.00    0.00     0.00     0.00     0.00     0.00    0.00    0.00    0.00   0.00   0.00
sdb               0.00     0.00    0.00    0.00     0.00     0.00     0.00     0.00    0.00    0.00    0.00   0.00   0.00
sdc               0.00     0.00    0.00    0.00     0.00     0.00     0.00     0.00    0.00    0.00    0.00   0.00   0.00
sdd               0.00     0.00    0.00    0.00     0.00     0.00     0.00     0.00    0.00    0.00    0.00   0.00   0.00
sde               0.00     0.00    0.00    0.00     0.00     0.00     0.00     0.00    0.00    0.00    0.00   0.00   0.00
sdf               0.00     0.00    0.00    0.00     0.00     0.00     0.00     0.00    0.00    0.00    0.00   0.00   0.00
sdg               0.00     0.00    0.00    0.00     0.00     0.00     0.00     0.00    0.00    0.00    0.00   0.00   0.00
sdh               0.00     0.00    0.00    0.00     0.00     0.00     0.00     0.00    0.00    0.00    0.00   0.00   0.00
md0               0.00     0.00    0.00    0.00     0.00     0.00     0.00     0.00    0.00    0.00    0.00   0.00   0.00

avg-cpu:  %user   %nice %system %iowait  %steal   %idle
           3.76    0.00   21.05    0.00    0.00   75.19

Device:         rrqm/s   wrqm/s     r/s     w/s    rkB/s    wkB/s avgrq-sz avgqu-sz   await r_await w_await  svctm  %util
sda               0.00     0.00    0.00    0.00     0.00     0.00     0.00     0.00    0.00    0.00    0.00   0.00   0.00
sdb               0.00     0.00    0.00    0.00     0.00     0.00     0.00     0.00    0.00    0.00    0.00   0.00   0.00
sdc               0.00     0.00    0.00    0.00     0.00     0.00     0.00     0.00    0.00    0.00    0.00   0.00   0.00
sdd               0.00     0.00    0.00    0.00     0.00     0.00     0.00     0.00    0.00    0.00    0.00   0.00   0.00
sde               0.00     0.00    0.00    0.00     0.00     0.00     0.00     0.00    0.00    0.00    0.00   0.00   0.00
sdf               0.00     0.00    0.00    0.00     0.00     0.00     0.00     0.00    0.00    0.00    0.00   0.00   0.00
sdg               0.00     0.00    0.00    0.00     0.00     0.00     0.00     0.00    0.00    0.00    0.00   0.00   0.00
sdh               0.00     0.00    0.00    0.00     0.00     0.00     0.00     0.00    0.00    0.00    0.00   0.00   0.00
md0               0.00     0.00    0.00    0.00     0.00     0.00     0.00     0.00    0.00    0.00    0.00   0.00   0.00

avg-cpu:  %user   %nice %system %iowait  %steal   %idle
           4.75    0.25   20.50    0.00    0.00   74.50

Device:         rrqm/s   wrqm/s     r/s     w/s    rkB/s    wkB/s avgrq-sz avgqu-sz   await r_await w_await  svctm  %util
sda               0.00     0.00    0.00    0.00     0.00     0.00     0.00     0.00    0.00    0.00    0.00   0.00   0.00
sdb               0.00     0.00    0.00    0.00     0.00     0.00     0.00     0.00    0.00    0.00    0.00   0.00   0.00
sdc               0.00     0.00    0.00    0.00     0.00     0.00     0.00     0.00    0.00    0.00    0.00   0.00   0.00
sdd               0.00     0.00    0.00    0.00     0.00     0.00     0.00     0.00    0.00    0.00    0.00   0.00   0.00
sde               0.00     0.00    0.00    0.00     0.00     0.00     0.00     0.00    0.00    0.00    0.00   0.00   0.00
sdf               0.00     0.00    0.00    0.00     0.00     0.00     0.00     0.00    0.00    0.00    0.00   0.00   0.00
sdg               0.00     0.00    4.00    0.00    16.00     0.00     8.00     0.00    0.75    0.75    0.00   0.75   0.30
sdh               0.00     0.00    0.00    0.00     0.00     0.00     0.00     0.00    0.00    0.00    0.00   0.00   0.00
md0               0.00     0.00    0.00    0.00     0.00     0.00     0.00     0.00    0.00    0.00    0.00   0.00   0.00

avg-cpu:  %user   %nice %system %iowait  %steal   %idle
           4.49    0.00   20.70    0.00    0.00   74.81

Device:         rrqm/s   wrqm/s     r/s     w/s    rkB/s    wkB/s avgrq-sz avgqu-sz   await r_await w_await  svctm  %util
sda               0.00     0.00    0.00    0.00     0.00     0.00     0.00     0.00    0.00    0.00    0.00   0.00   0.00
sdb               0.00     0.00    0.00    0.00     0.00     0.00     0.00     0.00    0.00    0.00    0.00   0.00   0.00
sdc               0.00     0.00    0.00    0.00     0.00     0.00     0.00     0.00    0.00    0.00    0.00   0.00   0.00
sdd               0.00     0.00    0.00    0.00     0.00     0.00     0.00     0.00    0.00    0.00    0.00   0.00   0.00
sde               0.00     0.00    0.00    0.00     0.00     0.00     0.00     0.00    0.00    0.00    0.00   0.00   0.00
sdf               0.00     0.00    0.00    0.00     0.00     0.00     0.00     0.00    0.00    0.00    0.00   0.00   0.00
sdg               0.00     0.00    0.00    0.00     0.00     0.00     0.00     0.00    0.00    0.00    0.00   0.00   0.00
sdh               0.00     0.00    0.00    0.00     0.00     0.00     0.00     0.00    0.00    0.00    0.00   0.00   0.00
md0               0.00     0.00    0.00    0.00     0.00     0.00     0.00     0.00    0.00    0.00    0.00   0.00   0.00

avg-cpu:  %user   %nice %system %iowait  %steal   %idle
           4.50    0.00   20.50    0.00    0.00   75.00

Device:         rrqm/s   wrqm/s     r/s     w/s    rkB/s    wkB/s avgrq-sz avgqu-sz   await r_await w_await  svctm  %util
sda               0.00     0.00    0.00    0.00     0.00     0.00     0.00     0.00    0.00    0.00    0.00   0.00   0.00
sdb               0.00     0.00    0.00    0.00     0.00     0.00     0.00     0.00    0.00    0.00    0.00   0.00   0.00
sdc               0.00     0.00    0.00    0.00     0.00     0.00     0.00     0.00    0.00    0.00    0.00   0.00   0.00
sdd               0.00     0.00    0.00    0.00     0.00     0.00     0.00     0.00    0.00    0.00    0.00   0.00   0.00
sde               0.00     0.00    0.00    0.00     0.00     0.00     0.00     0.00    0.00    0.00    0.00   0.00   0.00
sdf               0.00     0.00    0.00    0.00     0.00     0.00     0.00     0.00    0.00    0.00    0.00   0.00   0.00
sdg               0.00     0.00    0.00    0.00     0.00     0.00     0.00     0.00    0.00    0.00    0.00   0.00   0.00
sdh               0.00     0.00    0.00    0.00     0.00     0.00     0.00     0.00    0.00    0.00    0.00   0.00   0.00
md0               0.00     0.00    0.00    0.00     0.00     0.00     0.00     0.00    0.00    0.00    0.00   0.00   0.00

avg-cpu:  %user   %nice %system %iowait  %steal   %idle
           4.51    0.00   20.30    0.00    0.00   75.19

Device:         rrqm/s   wrqm/s     r/s     w/s    rkB/s    wkB/s avgrq-sz avgqu-sz   await r_await w_await  svctm  %util
sda               0.00     0.00    0.00    0.00     0.00     0.00     0.00     0.00    0.00    0.00    0.00   0.00   0.00
sdb               0.00     0.00    0.00    0.00     0.00     0.00     0.00     0.00    0.00    0.00    0.00   0.00   0.00
sdc               0.00     0.00    0.00    0.00     0.00     0.00     0.00     0.00    0.00    0.00    0.00   0.00   0.00
sdd               0.00     0.00    0.00    0.00     0.00     0.00     0.00     0.00    0.00    0.00    0.00   0.00   0.00
sde               0.00     0.00    0.00    0.00     0.00     0.00     0.00     0.00    0.00    0.00    0.00   0.00   0.00
sdf               0.00     0.00    0.00    0.00     0.00     0.00     0.00     0.00    0.00    0.00    0.00   0.00   0.00
sdg               0.00     0.00    0.00    0.00     0.00     0.00     0.00     0.00    0.00    0.00    0.00   0.00   0.00
sdh               0.00     0.00    0.00    0.00     0.00     0.00     0.00     0.00    0.00    0.00    0.00   0.00   0.00
md0               0.00     0.00    0.00    0.00     0.00     0.00     0.00     0.00    0.00    0.00    0.00   0.00   0.00

