Linux 4.17.2 (bench) 	08/04/2018 	_x86_64_	(4 CPU)

avg-cpu:  %user   %nice %system %iowait  %steal   %idle
          10.25    0.02    4.20    2.77    0.00   82.76

Device:         rrqm/s   wrqm/s     r/s     w/s    rkB/s    wkB/s avgrq-sz avgqu-sz   await r_await w_await  svctm  %util
sda              55.64     4.17 1742.93  100.81 21465.37  3084.81    26.63     1.05    0.57    0.26    5.92   0.06  11.11
sdb              55.42     4.13 1742.95  100.95 21454.89  3081.53    26.61     1.05    0.57    0.26    5.85   0.06  10.99
sdc              93.17     4.19 1703.10  100.51 21447.13  3083.95    27.20     1.47    0.82    0.44    7.12   0.08  14.50
sdd              86.74     4.16 1708.73  100.57 21432.23  3080.21    27.10     1.48    0.82    0.43    7.33   0.08  14.59
sde              88.72     4.21 1713.80  100.67 21491.43  3084.39    27.09     1.50    0.83    0.44    7.44   0.08  14.61
sdf              85.88     4.18 1715.90  100.62 21472.98  3081.30    27.03     1.54    0.85    0.44    7.90   0.08  14.64
sdg               0.00     3.16   26.95   73.25   326.59   392.03    14.34     0.44    4.39    0.20    5.93   0.08   0.79
sdh               0.00     0.13    0.02    0.23     2.17     4.98    56.82     0.00    1.15    0.65    1.19   0.21   0.01
md0               0.00     0.00 10800.69  472.34 147168.58 21114.99    29.86     0.00    0.00    0.00    0.00   0.00   0.00

avg-cpu:  %user   %nice %system %iowait  %steal   %idle
           0.12    0.01   20.59    0.03    0.00   79.25

Device:         rrqm/s   wrqm/s     r/s     w/s    rkB/s    wkB/s avgrq-sz avgqu-sz   await r_await w_await  svctm  %util
sda               3.10     0.00 25406.10    0.00 101636.80     0.00     8.00    11.18    0.44    0.44    0.00   0.04  89.54
sdb               3.65     0.00 25405.95    0.00 101638.40     0.00     8.00    11.35    0.45    0.45    0.00   0.04  89.67
sdc               3.45     0.00 25396.40    0.00 101599.40     0.00     8.00    11.05    0.44    0.44    0.00   0.04  90.38
sdd               2.75     0.00 25345.10    0.00 101391.40     0.00     8.00    11.23    0.44    0.44    0.00   0.04  91.16
sde               3.05     0.00 25326.10    0.00 101316.60     0.00     8.00    11.42    0.45    0.45    0.00   0.04  91.70
sdf               3.40     0.00 25303.75    0.00 101228.60     0.00     8.00    11.66    0.46    0.46    0.00   0.04  92.43
sdg               0.00     0.05   95.55    0.45   414.00     8.60     8.80     0.01    0.13    0.12    0.56   0.12   1.17
sdh               0.00     0.00    0.00    0.00     0.00     0.00     0.00     0.00    0.00    0.00    0.00   0.00   0.00
md0               0.00     0.00 152204.80    0.00 608819.20     0.00     8.00     0.00    0.00    0.00    0.00   0.00   0.00

