Linux 4.17.2 (bench) 	08/04/2018 	_x86_64_	(4 CPU)

avg-cpu:  %user   %nice %system %iowait  %steal   %idle
          10.25    0.02    4.25    2.79    0.00   82.70

Device:         rrqm/s   wrqm/s     r/s     w/s    rkB/s    wkB/s avgrq-sz avgqu-sz   await r_await w_await  svctm  %util
sda              56.50     4.16 1749.52  100.44 21458.93  3073.44    26.52     1.05    0.57    0.26    5.92   0.06  11.13
sdb              56.29     4.12 1749.54  100.58 21448.50  3070.17    26.51     1.05    0.57    0.26    5.85   0.06  11.01
sdc              93.90     4.18 1709.83  100.14 21440.80  3072.58    27.09     1.47    0.81    0.44    7.12   0.08  14.51
sdd              87.49     4.15 1715.44  100.20 21425.92  3068.85    26.98     1.48    0.81    0.43    7.33   0.08  14.61
sde              89.46     4.19 1720.48  100.30 21484.83  3073.02    26.98     1.50    0.82    0.44    7.44   0.08  14.63
sdf              86.64     4.16 1722.56  100.25 21466.44  3069.94    26.92     1.54    0.85    0.44    7.90   0.08  14.66
sdg               0.00     3.16   27.03   73.20   326.68   391.87    14.34     0.44    4.38    0.20    5.93   0.08   0.79
sdh               0.00     0.13    0.02    0.23     2.17     4.96    56.82     0.00    1.15    0.65    1.19   0.21   0.01
md0               0.00     0.00 10845.39  470.60 147089.95 21037.17    29.71     0.00    0.00    0.00    0.00   0.00   0.00

avg-cpu:  %user   %nice %system %iowait  %steal   %idle
           0.00    0.00    2.05    1.28    0.00   96.67

Device:         rrqm/s   wrqm/s     r/s     w/s    rkB/s    wkB/s avgrq-sz avgqu-sz   await r_await w_await  svctm  %util
sda               0.00     0.00 1389.00    0.00  5584.00     0.00     8.04     0.17    0.13    0.13    0.00   0.13  17.50
sdb               0.00     0.00 1442.00    0.00  5768.00     0.00     8.00     0.15    0.11    0.11    0.00   0.11  15.40
sdc               0.00     0.00 1381.00    0.00  5536.00     0.00     8.02     0.14    0.10    0.10    0.00   0.10  13.90
sdd               0.00     0.00 1350.00    0.00  5424.00     0.00     8.04     0.17    0.13    0.13    0.00   0.13  17.20
sde               0.00     0.00 1423.00    0.00  5736.00     0.00     8.06     0.16    0.11    0.11    0.00   0.11  15.90
sdf               0.00     0.00 1375.00    0.00  5524.00     0.00     8.03     0.15    0.11    0.11    0.00   0.11  14.90
sdg               0.00     0.00   17.00    0.00   388.00     0.00    45.65     0.00    0.24    0.24    0.00   0.24   0.40
sdh               0.00     0.00    0.00    0.00     0.00     0.00     0.00     0.00    0.00    0.00    0.00   0.00   0.00
md0               0.00     0.00 8361.00    0.00 33584.00     0.00     8.03     0.00    0.00    0.00    0.00   0.00   0.00

avg-cpu:  %user   %nice %system %iowait  %steal   %idle
           0.00    0.00    1.80    1.03    0.00   97.17

Device:         rrqm/s   wrqm/s     r/s     w/s    rkB/s    wkB/s avgrq-sz avgqu-sz   await r_await w_await  svctm  %util
sda               0.00     0.00 1446.00    0.00  5844.00     0.00     8.08     0.15    0.11    0.11    0.00   0.11  15.40
sdb               0.00     0.00 1463.00    0.00  5880.00     0.00     8.04     0.13    0.09    0.09    0.00   0.09  12.80
sdc               0.00     0.00 1390.00    0.00  5620.00     0.00     8.09     0.14    0.10    0.10    0.00   0.10  13.90
sdd               0.00     0.00 1526.00    0.00  6132.00     0.00     8.04     0.18    0.12    0.12    0.00   0.12  18.30
sde               0.00     0.00 1460.00    0.00  5856.00     0.00     8.02     0.17    0.11    0.11    0.00   0.11  16.50
sdf               0.00     0.00 1432.00    0.00  5736.00     0.00     8.01     0.16    0.12    0.12    0.00   0.11  16.40
sdg               0.00     0.00    1.00    0.00     4.00     0.00     8.00     0.00    0.00    0.00    0.00   0.00   0.00
sdh               0.00     0.00    0.00    0.00     0.00     0.00     0.00     0.00    0.00    0.00    0.00   0.00   0.00
md0               0.00     0.00 8717.00    0.00 35068.00     0.00     8.05     0.00    0.00    0.00    0.00   0.00   0.00

avg-cpu:  %user   %nice %system %iowait  %steal   %idle
           0.00    0.00    1.54    1.03    0.00   97.43

Device:         rrqm/s   wrqm/s     r/s     w/s    rkB/s    wkB/s avgrq-sz avgqu-sz   await r_await w_await  svctm  %util
sda               0.00     0.00 1391.00    0.00  5596.00     0.00     8.05     0.17    0.12    0.12    0.00   0.12  16.80
sdb               0.00     0.00 1494.00    0.00  5992.00     0.00     8.02     0.17    0.11    0.11    0.00   0.11  16.50
sdc               0.00     0.00 1401.00    0.00  5632.00     0.00     8.04     0.15    0.11    0.11    0.00   0.11  15.50
sdd               0.00     0.00 1449.00    0.00  5872.00     0.00     8.10     0.14    0.10    0.10    0.00   0.10  14.30
sde               0.00     0.00 1517.00    0.00  6100.00     0.00     8.04     0.16    0.10    0.10    0.00   0.10  15.70
sdf               0.00     0.00 1474.00    0.00  5944.00     0.00     8.07     0.16    0.11    0.11    0.00   0.11  15.90
sdg               0.00     0.00    0.00    0.00     0.00     0.00     0.00     0.00    0.00    0.00    0.00   0.00   0.00
sdh               0.00     0.00    0.00    0.00     0.00     0.00     0.00     0.00    0.00    0.00    0.00   0.00   0.00
md0               0.00     0.00 8727.00    0.00 35140.00     0.00     8.05     0.00    0.00    0.00    0.00   0.00   0.00

avg-cpu:  %user   %nice %system %iowait  %steal   %idle
           0.26    0.00    1.79    1.03    0.00   96.92

Device:         rrqm/s   wrqm/s     r/s     w/s    rkB/s    wkB/s avgrq-sz avgqu-sz   await r_await w_await  svctm  %util
sda               0.00     0.00 1467.00    0.00  5936.00     0.00     8.09     0.16    0.11    0.11    0.00   0.10  15.40
sdb               0.00     0.00 1454.00    0.00  5972.00     0.00     8.21     0.15    0.10    0.10    0.00   0.10  14.80
sdc               0.00     0.00 1447.00    0.00  5912.00     0.00     8.17     0.17    0.11    0.11    0.00   0.11  16.50
sdd               0.00     0.00 1438.00    0.00  5912.00     0.00     8.22     0.15    0.10    0.10    0.00   0.10  14.60
sde               0.00     0.00 1463.00    0.00  5996.00     0.00     8.20     0.18    0.12    0.12    0.00   0.12  17.50
sdf               0.00     0.00 1432.00    0.00  5796.00     0.00     8.09     0.15    0.10    0.10    0.00   0.10  14.90
sdg               0.00     0.00    0.00    0.00     0.00     0.00     0.00     0.00    0.00    0.00    0.00   0.00   0.00
sdh               0.00     0.00    0.00    0.00     0.00     0.00     0.00     0.00    0.00    0.00    0.00   0.00   0.00
md0               0.00     0.00 8700.00    0.00 35532.00     0.00     8.17     0.00    0.00    0.00    0.00   0.00   0.00

avg-cpu:  %user   %nice %system %iowait  %steal   %idle
           0.00    0.00    2.05    1.02    0.00   96.93

Device:         rrqm/s   wrqm/s     r/s     w/s    rkB/s    wkB/s avgrq-sz avgqu-sz   await r_await w_await  svctm  %util
sda               0.00     0.00 1519.00    0.00  6224.00     0.00     8.19     0.16    0.11    0.11    0.00   0.11  16.40
sdb               0.00     0.00 1445.00    0.00  5904.00     0.00     8.17     0.16    0.11    0.11    0.00   0.11  15.90
sdc               0.00     0.00 1457.00    0.00  5972.00     0.00     8.20     0.16    0.11    0.11    0.00   0.11  15.60
sdd               0.00     0.00 1440.00    0.00  5976.00     0.00     8.30     0.14    0.10    0.10    0.00   0.09  13.50
sde               0.00     0.00 1436.00    0.00  5932.00     0.00     8.26     0.15    0.10    0.10    0.00   0.10  14.90
sdf               0.00     0.00 1418.00    0.00  5744.00     0.00     8.10     0.17    0.12    0.12    0.00   0.12  17.30
sdg               0.00     0.00    0.00    0.00     0.00     0.00     0.00     0.00    0.00    0.00    0.00   0.00   0.00
sdh               0.00     0.00    0.00    0.00     0.00     0.00     0.00     0.00    0.00    0.00    0.00   0.00   0.00
md0               0.00     0.00 8715.00    0.00 35792.00     0.00     8.21     0.00    0.00    0.00    0.00   0.00   0.00

avg-cpu:  %user   %nice %system %iowait  %steal   %idle
           0.00    0.00    2.05    1.28    0.00   96.68

Device:         rrqm/s   wrqm/s     r/s     w/s    rkB/s    wkB/s avgrq-sz avgqu-sz   await r_await w_await  svctm  %util
sda               0.00     0.00 1461.00    0.00  5976.00     0.00     8.18     0.16    0.11    0.11    0.00   0.11  16.30
sdb               0.00     0.00 1437.00    0.00  5952.00     0.00     8.28     0.17    0.12    0.12    0.00   0.12  17.20
sdc               0.00     0.00 1420.00    0.00  5844.00     0.00     8.23     0.16    0.11    0.11    0.00   0.11  16.10
sdd               0.00     0.00 1426.00    0.00  5872.00     0.00     8.24     0.13    0.09    0.09    0.00   0.09  13.30
sde               0.00     0.00 1479.00    0.00  6224.00     0.00     8.42     0.15    0.10    0.10    0.00   0.10  15.00
sdf               0.00     0.00 1455.00    0.00  5952.00     0.00     8.18     0.17    0.11    0.11    0.00   0.11  16.40
sdg               0.00     0.00    0.00    0.00     0.00     0.00     0.00     0.00    0.00    0.00    0.00   0.00   0.00
sdh               0.00     0.00    0.00    0.00     0.00     0.00     0.00     0.00    0.00    0.00    0.00   0.00   0.00
md0               0.00     0.00 8680.00    0.00 35920.00     0.00     8.28     0.00    0.00    0.00    0.00   0.00   0.00

avg-cpu:  %user   %nice %system %iowait  %steal   %idle
           0.00    0.00    1.80    1.03    0.00   97.17

Device:         rrqm/s   wrqm/s     r/s     w/s    rkB/s    wkB/s avgrq-sz avgqu-sz   await r_await w_await  svctm  %util
sda               0.00     0.00 1480.00    0.00  6280.00     0.00     8.49     0.13    0.09    0.09    0.00   0.09  13.30
sdb               0.00     0.00 1399.00    0.00  5856.00     0.00     8.37     0.15    0.11    0.11    0.00   0.11  15.00
sdc               0.00     0.00 1452.00    0.00  6100.00     0.00     8.40     0.17    0.12    0.12    0.00   0.12  16.80
sdd               0.00     0.00 1464.00    0.00  6048.00     0.00     8.26     0.17    0.12    0.12    0.00   0.12  17.10
sde               0.00     0.00 1469.00    0.00  6168.00     0.00     8.40     0.16    0.11    0.11    0.00   0.11  16.40
sdf               0.00     0.00 1457.00    0.00  5996.00     0.00     8.23     0.17    0.12    0.12    0.00   0.12  16.80
sdg               0.00     0.00    0.00    0.00     0.00     0.00     0.00     0.00    0.00    0.00    0.00   0.00   0.00
sdh               0.00     0.00    0.00    0.00     0.00     0.00     0.00     0.00    0.00    0.00    0.00   0.00   0.00
md0               0.00     0.00 8720.00    0.00 36484.00     0.00     8.37     0.00    0.00    0.00    0.00   0.00   0.00

avg-cpu:  %user   %nice %system %iowait  %steal   %idle
           0.00    0.26    2.05    3.07    0.00   94.63

Device:         rrqm/s   wrqm/s     r/s     w/s    rkB/s    wkB/s avgrq-sz avgqu-sz   await r_await w_await  svctm  %util
sda               0.00     0.00 1465.00    0.00  6240.00     0.00     8.52     0.17    0.12    0.12    0.00   0.12  17.00
sdb               0.00     0.00 1479.00    0.00  6268.00     0.00     8.48     0.14    0.10    0.10    0.00   0.09  14.00
sdc               0.00     0.00 1390.00    0.00  6040.00     0.00     8.69     0.16    0.11    0.11    0.00   0.11  15.70
sdd               0.00     0.00 1460.00    0.00  6244.00     0.00     8.55     0.16    0.11    0.11    0.00   0.11  16.00
sde               0.00     0.00 1413.00    0.00  6184.00     0.00     8.75     0.15    0.11    0.11    0.00   0.11  15.20
sdf               0.00     0.00 1372.00    0.00  5804.00     0.00     8.46     0.18    0.13    0.13    0.00   0.13  17.40
sdg               0.00     0.00   30.00    7.00   180.00    36.00    11.68     0.01    0.16    0.20    0.00   0.16   0.60
sdh               0.00     0.00    0.00    0.00     0.00     0.00     0.00     0.00    0.00    0.00    0.00   0.00   0.00
md0               0.00     0.00 8580.00    0.00 36820.00     0.00     8.58     0.00    0.00    0.00    0.00   0.00   0.00

avg-cpu:  %user   %nice %system %iowait  %steal   %idle
           0.25    0.00    2.78   21.01    0.00   75.95

Device:         rrqm/s   wrqm/s     r/s     w/s    rkB/s    wkB/s avgrq-sz avgqu-sz   await r_await w_await  svctm  %util
sda               0.00     0.00 1482.00    0.00  6364.00     0.00     8.59     0.16    0.11    0.11    0.00   0.11  15.90
sdb               0.00     0.00 1423.00    0.00  6024.00     0.00     8.47     0.13    0.09    0.09    0.00   0.09  12.90
sdc               0.00     0.00 1391.00    0.00  5828.00     0.00     8.38     0.16    0.11    0.11    0.00   0.11  15.70
sdd               0.00     0.00 1476.00    0.00  6344.00     0.00     8.60     0.15    0.10    0.10    0.00   0.10  14.90
sde               0.00     0.00 1517.00    0.00  6324.00     0.00     8.34     0.18    0.12    0.12    0.00   0.12  17.70
sdf               0.00     0.00 1474.00    0.00  6196.00     0.00     8.41     0.18    0.12    0.12    0.00   0.12  17.80
sdg               0.00     0.00    0.00    0.00     0.00     0.00     0.00     0.00    0.00    0.00    0.00   0.00   0.00
sdh               0.00     0.00    0.00    0.00     0.00     0.00     0.00     0.00    0.00    0.00    0.00   0.00   0.00
md0               0.00     0.00 8761.00    0.00 37112.00     0.00     8.47     0.00    0.00    0.00    0.00   0.00   0.00

avg-cpu:  %user   %nice %system %iowait  %steal   %idle
           0.00    0.00    2.79   16.24    0.00   80.96

Device:         rrqm/s   wrqm/s     r/s     w/s    rkB/s    wkB/s avgrq-sz avgqu-sz   await r_await w_await  svctm  %util
sda               0.00     0.00 1466.00    0.00  6312.00     0.00     8.61     0.18    0.12    0.12    0.00   0.12  17.10
sdb               0.00     0.00 1474.00    0.00  6440.00     0.00     8.74     0.16    0.11    0.11    0.00   0.11  15.80
sdc               0.00     0.00 1512.00    0.00  6664.00     0.00     8.81     0.17    0.11    0.11    0.00   0.11  16.90
sdd               0.00     0.00 1404.00    0.00  6084.00     0.00     8.67     0.17    0.13    0.13    0.00   0.12  17.40
sde               0.00     0.00 1419.00    0.00  6224.00     0.00     8.77     0.14    0.10    0.10    0.00   0.09  13.30
sdf               0.00     0.00 1398.00    0.00  6048.00     0.00     8.65     0.14    0.10    0.10    0.00   0.10  14.20
sdg               0.00     0.00    0.00    0.00     0.00     0.00     0.00     0.00    0.00    0.00    0.00   0.00   0.00
sdh               0.00     0.00    0.00    0.00     0.00     0.00     0.00     0.00    0.00    0.00    0.00   0.00   0.00
md0               0.00     0.00 8674.00    0.00 37824.00     0.00     8.72     0.00    0.00    0.00    0.00   0.00   0.00

avg-cpu:  %user   %nice %system %iowait  %steal   %idle
           0.00    0.00    1.54    1.28    0.00   97.18

Device:         rrqm/s   wrqm/s     r/s     w/s    rkB/s    wkB/s avgrq-sz avgqu-sz   await r_await w_await  svctm  %util
sda               0.00     0.00 1392.00    0.00  6008.00     0.00     8.63     0.15    0.11    0.11    0.00   0.10  14.50
sdb               0.00     0.00 1416.00    0.00  6148.00     0.00     8.68     0.14    0.10    0.10    0.00   0.10  14.00
sdc               0.00     0.00 1467.00    0.00  6372.00     0.00     8.69     0.17    0.11    0.11    0.00   0.11  16.20
sdd               0.00     0.00 1346.00    0.00  5780.00     0.00     8.59     0.17    0.13    0.13    0.00   0.13  17.00
sde               0.00     0.00 1411.00    0.00  6372.00     0.00     9.03     0.17    0.12    0.12    0.00   0.12  16.90
sdf               0.00     0.00 1397.00    0.00  5952.00     0.00     8.52     0.16    0.11    0.11    0.00   0.11  15.50
sdg               0.00     0.00    0.00    0.00     0.00     0.00     0.00     0.00    0.00    0.00    0.00   0.00   0.00
sdh               0.00     0.00    0.00    0.00     0.00     0.00     0.00     0.00    0.00    0.00    0.00   0.00   0.00
md0               0.00     0.00 8429.00    0.00 36696.00     0.00     8.71     0.00    0.00    0.00    0.00   0.00   0.00

avg-cpu:  %user   %nice %system %iowait  %steal   %idle
           0.00    0.00    2.05    1.02    0.00   96.93

Device:         rrqm/s   wrqm/s     r/s     w/s    rkB/s    wkB/s avgrq-sz avgqu-sz   await r_await w_await  svctm  %util
sda               0.00     0.00 1496.00    0.00  6612.00     0.00     8.84     0.14    0.10    0.10    0.00   0.10  14.40
sdb               0.00     0.00 1400.00    0.00  6244.00     0.00     8.92     0.15    0.11    0.11    0.00   0.10  14.30
sdc               0.00     0.00 1369.00    0.00  6108.00     0.00     8.92     0.18    0.13    0.13    0.00   0.12  17.10
sdd               0.00     0.00 1393.00    0.00  6256.00     0.00     8.98     0.16    0.11    0.11    0.00   0.11  15.50
sde               0.00     0.00 1409.00    0.00  6416.00     0.00     9.11     0.17    0.12    0.12    0.00   0.11  15.90
sdf               0.00     0.00 1396.00    0.00  6104.00     0.00     8.74     0.17    0.12    0.12    0.00   0.12  16.60
sdg               0.00     0.00    0.00    0.00     0.00     0.00     0.00     0.00    0.00    0.00    0.00   0.00   0.00
sdh               0.00     0.00    0.00    0.00     0.00     0.00     0.00     0.00    0.00    0.00    0.00   0.00   0.00
md0               0.00     0.00 8463.00    0.00 37792.00     0.00     8.93     0.00    0.00    0.00    0.00   0.00   0.00

avg-cpu:  %user   %nice %system %iowait  %steal   %idle
           0.00    0.00    2.05    1.03    0.00   96.92

Device:         rrqm/s   wrqm/s     r/s     w/s    rkB/s    wkB/s avgrq-sz avgqu-sz   await r_await w_await  svctm  %util
sda               0.00     0.00 1453.00    0.00  6600.00     0.00     9.08     0.15    0.11    0.11    0.00   0.11  15.30
sdb               0.00     0.00 1451.00    0.00  6848.00     0.00     9.44     0.18    0.12    0.12    0.00   0.11  16.60
sdc               0.00     0.00 1406.00    0.00  6388.00     0.00     9.09     0.17    0.12    0.12    0.00   0.12  16.20
sdd               0.00     0.00 1418.00    0.00  6260.00     0.00     8.83     0.18    0.13    0.13    0.00   0.12  17.60
sde               0.00     0.00 1378.00    0.00  6148.00     0.00     8.92     0.16    0.11    0.11    0.00   0.11  15.30
sdf               0.00     0.00 1418.00    0.00  6316.00     0.00     8.91     0.15    0.10    0.10    0.00   0.10  14.00
sdg               0.00     1.00    0.00    2.00     0.00    36.00    36.00     0.00    0.00    0.00    0.00   0.00   0.00
sdh               0.00     0.00    0.00    0.00     0.00     0.00     0.00     0.00    0.00    0.00    0.00   0.00   0.00
md0               0.00     0.00 8523.00    0.00 38604.00     0.00     9.06     0.00    0.00    0.00    0.00   0.00   0.00

avg-cpu:  %user   %nice %system %iowait  %steal   %idle
           0.00    0.00    2.30    1.02    0.00   96.68

Device:         rrqm/s   wrqm/s     r/s     w/s    rkB/s    wkB/s avgrq-sz avgqu-sz   await r_await w_await  svctm  %util
sda               0.00     0.00 1380.20    0.00  6891.09     0.00     9.99     0.18    0.13    0.13    0.00   0.10  14.26
sdb               0.00     0.00 1414.85    0.00  6930.69     0.00     9.80     0.18    0.12    0.12    0.00   0.12  16.44
sdc               0.00     0.00 1382.18    0.00  6249.50     0.00     9.04     0.14    0.10    0.10    0.00   0.10  13.66
sdd               0.00     0.00 1443.56    0.00  6946.53     0.00     9.62     0.17    0.12    0.12    0.00   0.10  15.15
sde               0.00     0.00 1479.21    0.00  6910.89     0.00     9.34     0.19    0.13    0.13    0.00   0.11  15.64
sdf               0.00     0.00 1443.56    0.00  6922.77     0.00     9.59     0.22    0.15    0.15    0.00   0.11  16.34
sdg               0.00     0.00    0.00    0.00     0.00     0.00     0.00     0.00    0.00    0.00    0.00   0.00   0.00
sdh               0.00     0.00    0.00    0.00     0.00     0.00     0.00     0.00    0.00    0.00    0.00   0.00   0.00
md0               0.00     0.00 8544.55    0.00 40958.42     0.00     9.59     0.00    0.00    0.00    0.00   0.00   0.00

avg-cpu:  %user   %nice %system %iowait  %steal   %idle
           0.25    0.00    2.79    1.02    0.00   95.94

Device:         rrqm/s   wrqm/s     r/s     w/s    rkB/s    wkB/s avgrq-sz avgqu-sz   await r_await w_await  svctm  %util
sda               0.00     0.00 1414.00    0.00  6716.00     0.00     9.50     0.14    0.10    0.10    0.00   0.09  13.30
sdb               0.00     0.00 1401.00    0.00  6688.00     0.00     9.55     0.15    0.11    0.11    0.00   0.10  13.60
sdc               0.00     0.00 1471.00    0.00  6824.00     0.00     9.28     0.18    0.12    0.12    0.00   0.12  17.10
sdd               0.00     0.00 1406.00    0.00  6604.00     0.00     9.39     0.17    0.12    0.12    0.00   0.11  15.70
sde               0.00     0.00 1447.00    0.00  6896.00     0.00     9.53     0.17    0.12    0.12    0.00   0.11  16.50
sdf               0.00     0.00 1444.00    0.00  6600.00     0.00     9.14     0.16    0.11    0.11    0.00   0.11  15.50
sdg               0.00     0.00    0.00    0.00     0.00     0.00     0.00     0.00    0.00    0.00    0.00   0.00   0.00
sdh               0.00     0.00    0.00    0.00     0.00     0.00     0.00     0.00    0.00    0.00    0.00   0.00   0.00
md0               0.00     0.00 8583.00    0.00 40436.00     0.00     9.42     0.00    0.00    0.00    0.00   0.00   0.00

avg-cpu:  %user   %nice %system %iowait  %steal   %idle
           0.00    0.00    2.30    1.28    0.00   96.43

Device:         rrqm/s   wrqm/s     r/s     w/s    rkB/s    wkB/s avgrq-sz avgqu-sz   await r_await w_await  svctm  %util
sda               0.00     0.00 1451.00    0.00  7280.00     0.00    10.03     0.17    0.12    0.12    0.00   0.09  13.10
sdb               0.00     0.00 1432.00    0.00  6520.00     0.00     9.11     0.16    0.11    0.11    0.00   0.11  15.70
sdc               0.00     0.00 1435.00    0.00  7028.00     0.00     9.80     0.17    0.12    0.12    0.00   0.11  15.40
sdd               0.00     0.00 1416.00    0.00  6692.00     0.00     9.45     0.18    0.13    0.13    0.00   0.12  16.80
sde               0.00     0.00 1444.00    0.00  7128.00     0.00     9.87     0.17    0.12    0.12    0.00   0.09  13.30
sdf               0.00     0.00 1590.00    0.00  7936.00     0.00     9.98     0.27    0.17    0.17    0.00   0.12  18.70
sdg               0.00     0.00    0.00    0.00     0.00     0.00     0.00     0.00    0.00    0.00    0.00   0.00   0.00
sdh               0.00     0.00    0.00    0.00     0.00     0.00     0.00     0.00    0.00    0.00    0.00   0.00   0.00
md0               0.00     0.00 8767.00    0.00 42712.00     0.00     9.74     0.00    0.00    0.00    0.00   0.00   0.00

avg-cpu:  %user   %nice %system %iowait  %steal   %idle
           0.00    0.00    2.30    1.02    0.00   96.68

Device:         rrqm/s   wrqm/s     r/s     w/s    rkB/s    wkB/s avgrq-sz avgqu-sz   await r_await w_await  svctm  %util
sda               0.00     0.00 1467.00    0.00  7344.00     0.00    10.01     0.19    0.13    0.13    0.00   0.11  16.80
sdb               0.00     0.00 1418.00    0.00  6956.00     0.00     9.81     0.15    0.11    0.11    0.00   0.10  14.00
sdc               0.00     0.00 1472.00    0.00  7308.00     0.00     9.93     0.19    0.13    0.13    0.00   0.11  16.00
sdd               0.00     0.00 1420.00    0.00  6776.00     0.00     9.54     0.18    0.13    0.13    0.00   0.12  16.50
sde               0.00     0.00 1507.00    0.00  7636.00     0.00    10.13     0.22    0.15    0.15    0.00   0.11  16.30
sdf               0.00     0.00 1459.00    0.00  7400.00     0.00    10.14     0.19    0.13    0.13    0.00   0.10  14.50
sdg               0.00     0.00    0.00    0.00     0.00     0.00     0.00     0.00    0.00    0.00    0.00   0.00   0.00
sdh               0.00     0.00    0.00    0.00     0.00     0.00     0.00     0.00    0.00    0.00    0.00   0.00   0.00
md0               0.00     0.00 8743.00    0.00 43564.00     0.00     9.97     0.00    0.00    0.00    0.00   0.00   0.00

avg-cpu:  %user   %nice %system %iowait  %steal   %idle
           0.00    0.26    2.31    1.03    0.00   96.41

Device:         rrqm/s   wrqm/s     r/s     w/s    rkB/s    wkB/s avgrq-sz avgqu-sz   await r_await w_await  svctm  %util
sda               0.00     0.00 1615.00    0.00  8348.00     0.00    10.34     0.18    0.11    0.11    0.00   0.10  16.40
sdb               0.00     0.00 1522.00    0.00  7944.00     0.00    10.44     0.18    0.12    0.12    0.00   0.09  14.20
sdc               0.00     0.00 1508.00    0.00  7692.00     0.00    10.20     0.24    0.16    0.16    0.00   0.11  16.20
sdd               0.00     0.00 1476.00    0.00  7136.00     0.00     9.67     0.19    0.13    0.13    0.00   0.11  16.90
sde               0.00     0.00 1468.00    0.00  7368.00     0.00    10.04     0.20    0.13    0.13    0.00   0.11  16.10
sdf               0.00     0.00 1468.00    0.00  7152.00     0.00     9.74     0.19    0.13    0.13    0.00   0.10  15.30
sdg               0.00     0.00    2.00    0.00     8.00     0.00     8.00     0.00    0.50    0.50    0.00   0.50   0.10
sdh               0.00     0.00    0.00    0.00     0.00     0.00     0.00     0.00    0.00    0.00    0.00   0.00   0.00
md0               0.00     0.00 9057.00    0.00 45756.00     0.00    10.10     0.00    0.00    0.00    0.00   0.00   0.00

avg-cpu:  %user   %nice %system %iowait  %steal   %idle
           0.00    0.00    3.29   20.76    0.00   75.95

Device:         rrqm/s   wrqm/s     r/s     w/s    rkB/s    wkB/s avgrq-sz avgqu-sz   await r_await w_await  svctm  %util
sda               0.00     0.00 1478.00    0.00  7332.00     0.00     9.92     0.19    0.13    0.13    0.00   0.11  16.20
sdb               0.00     0.00 1550.00    0.00  7768.00     0.00    10.02     0.18    0.12    0.12    0.00   0.09  13.80
sdc               0.00     0.00 1588.00    0.00  8164.00     0.00    10.28     0.22    0.14    0.14    0.00   0.10  16.60
sdd               0.00     0.00 1600.00    0.00  8004.00     0.00    10.01     0.21    0.13    0.13    0.00   0.11  17.70
sde               0.00     0.00 1594.00    0.00  8460.00     0.00    10.61     0.26    0.15    0.15    0.00   0.11  17.20
sdf               0.00     0.00 1541.00    0.00  8104.00     0.00    10.52     0.18    0.12    0.12    0.00   0.10  15.10
sdg               0.00     0.00    0.00    0.00     0.00     0.00     0.00     0.00    0.00    0.00    0.00   0.00   0.00
sdh               0.00     0.00    0.00    0.00     0.00     0.00     0.00     0.00    0.00    0.00    0.00   0.00   0.00
md0               0.00     0.00 9366.00    0.00 48224.00     0.00    10.30     0.00    0.00    0.00    0.00   0.00   0.00

avg-cpu:  %user   %nice %system %iowait  %steal   %idle
           0.00    0.00    3.78   14.11    0.00   82.12

Device:         rrqm/s   wrqm/s     r/s     w/s    rkB/s    wkB/s avgrq-sz avgqu-sz   await r_await w_await  svctm  %util
sda               0.00     0.00 1596.00    0.00  8648.00     0.00    10.84     0.22    0.14    0.14    0.00   0.09  15.10
sdb               0.00     0.00 1676.00    0.00  9096.00     0.00    10.85     0.22    0.13    0.13    0.00   0.09  15.70
sdc               0.00     0.00 1671.00    0.00  9156.00     0.00    10.96     0.33    0.19    0.19    0.00   0.10  16.00
sdd               0.00     0.00 1689.00    0.00  9664.00     0.00    11.44     0.31    0.18    0.18    0.00   0.10  17.10
sde               0.00     0.00 1680.00    0.00  9716.00     0.00    11.57     0.31    0.19    0.19    0.00   0.10  17.60
sdf               0.00     0.00 1676.00    0.00  9560.00     0.00    11.41     0.31    0.19    0.19    0.00   0.10  16.40
sdg               0.00     0.00    0.00    0.00     0.00     0.00     0.00     0.00    0.00    0.00    0.00   0.00   0.00
sdh               0.00     0.00    0.00    0.00     0.00     0.00     0.00     0.00    0.00    0.00    0.00   0.00   0.00
md0               0.00     0.00 9973.00    0.00 55924.00     0.00    11.22     0.00    0.00    0.00    0.00   0.00   0.00

