Linux 4.17.2 (bench) 	08/04/2018 	_x86_64_	(4 CPU)

avg-cpu:  %user   %nice %system %iowait  %steal   %idle
          10.25    0.02    4.29    2.82    0.00   82.62

Device:         rrqm/s   wrqm/s     r/s     w/s    rkB/s    wkB/s avgrq-sz avgqu-sz   await r_await w_await  svctm  %util
sda              57.63     4.14 1758.52   99.96 21448.20  3058.74    26.37     1.05    0.57    0.26    5.92   0.06  11.17
sdb              57.42     4.10 1758.54  100.09 21437.84  3055.48    26.36     1.05    0.56    0.26    5.85   0.06  11.05
sdc              94.86     4.16 1719.01   99.66 21430.17  3057.89    26.93     1.47    0.81    0.44    7.12   0.08  14.54
sdd              88.48     4.13 1724.58   99.72 21415.32  3054.18    26.83     1.48    0.81    0.43    7.33   0.08  14.64
sde              90.44     4.17 1729.58   99.82 21473.81  3058.32    26.82     1.50    0.82    0.44    7.44   0.08  14.66
sdf              87.63     4.14 1731.66   99.77 21455.54  3055.26    26.77     1.54    0.84    0.43    7.90   0.08  14.69
sdg               0.00     3.16   27.12   73.15   326.83   391.66    14.33     0.44    4.38    0.20    5.93   0.08   0.79
sdh               0.00     0.13    0.02    0.23     2.16     4.94    56.82     0.00    1.15    0.65    1.19   0.21   0.01
md0               0.00     0.00 10906.08  468.35 146964.98 20936.54    29.52     0.00    0.00    0.00    0.00   0.00   0.00

avg-cpu:  %user   %nice %system %iowait  %steal   %idle
           9.88    0.01   15.15    0.00    0.00   74.96

Device:         rrqm/s   wrqm/s     r/s     w/s    rkB/s    wkB/s avgrq-sz avgqu-sz   await r_await w_await  svctm  %util
sda               0.00     0.00    0.00    0.00     0.00     0.00     0.00     0.00    0.00    0.00    0.00   0.00   0.00
sdb               0.00     0.00    0.00    0.00     0.00     0.00     0.00     0.00    0.00    0.00    0.00   0.00   0.00
sdc               0.00     0.00    0.00    0.00     0.00     0.00     0.00     0.00    0.00    0.00    0.00   0.00   0.00
sdd               0.00     0.00    0.00    0.00     0.00     0.00     0.00     0.00    0.00    0.00    0.00   0.00   0.00
sde               0.00     0.00    0.00    0.00     0.00     0.00     0.00     0.00    0.00    0.00    0.00   0.00   0.00
sdf               0.00     0.00    0.00    0.00     0.00     0.00     0.00     0.00    0.00    0.00    0.00   0.00   0.00
sdg               0.00     0.00    0.70    0.20     6.60     1.60    18.22     0.00    0.06    0.07    0.00   0.00   0.00
sdh               0.00     0.00    0.00    0.00     0.00     0.00     0.00     0.00    0.00    0.00    0.00   0.00   0.00
md0               0.00     0.00    0.00    0.00     0.00     0.00     0.00     0.00    0.00    0.00    0.00   0.00   0.00

