Linux 4.17.2 (bench) 	08/04/2018 	_x86_64_	(4 CPU)

avg-cpu:  %user   %nice %system %iowait  %steal   %idle
          10.25    0.02    4.21    2.79    0.00   82.74

Device:         rrqm/s   wrqm/s     r/s     w/s    rkB/s    wkB/s avgrq-sz avgqu-sz   await r_await w_await  svctm  %util
sda              56.60     4.17 1749.62  100.69 21479.95  3081.03    26.55     1.05    0.57    0.26    5.92   0.06  11.14
sdb              56.38     4.13 1749.64  100.82 21469.50  3077.75    26.53     1.05    0.57    0.26    5.85   0.06  11.01
sdc              94.09     4.19 1709.84  100.38 21461.77  3080.17    27.11     1.47    0.81    0.44    7.12   0.08  14.52
sdd              87.66     4.16 1715.46  100.45 21446.86  3076.44    27.01     1.48    0.82    0.43    7.33   0.08  14.62
sde              89.64     4.20 1720.52  100.55 21505.96  3080.61    27.00     1.50    0.82    0.44    7.44   0.08  14.64
sdf              86.81     4.17 1722.61  100.49 21487.52  3077.53    26.95     1.54    0.85    0.44    7.90   0.08  14.67
sdg               0.00     3.16   26.98   73.23   326.65   391.97    14.34     0.44    4.39    0.20    5.93   0.08   0.79
sdh               0.00     0.13    0.02    0.23     2.17     4.97    56.82     0.00    1.15    0.65    1.19   0.21   0.01
md0               0.00     0.00 10846.55  471.76 147235.71 21089.14    29.74     0.00    0.00    0.00    0.00   0.00   0.00

avg-cpu:  %user   %nice %system %iowait  %steal   %idle
           1.50    0.25    8.73    9.48    0.00   80.05

Device:         rrqm/s   wrqm/s     r/s     w/s    rkB/s    wkB/s avgrq-sz avgqu-sz   await r_await w_await  svctm  %util
sda             329.00     0.00  373.00    0.00 175928.00     0.00   943.31     0.96    2.57    2.57    0.00   1.35  50.20
sdb             330.00     0.00  364.00    0.00 176248.00     0.00   968.40     0.95    2.60    2.60    0.00   1.36  49.50
sdc             324.00     0.00  403.00    0.00 175880.00     0.00   872.85     2.02    5.02    5.02    0.00   2.06  82.90
sdd             326.00     0.00  365.00    0.00 176140.00     0.00   965.15     1.96    5.37    5.37    0.00   2.26  82.40
sde             330.00     0.00  363.00    0.00 175968.00     0.00   969.52     1.98    5.44    5.44    0.00   2.28  82.60
sdf             319.00     0.00  402.00    0.00 175680.00     0.00   874.03     1.98    4.94    4.94    0.00   2.08  83.60
sdg               0.00     0.00 1361.00    1.00  5768.00    12.00     8.49     0.16    0.12    0.12    0.00   0.11  15.40
sdh               0.00     0.00    0.00    0.00     0.00     0.00     0.00     0.00    0.00    0.00    0.00   0.00   0.00
md0               0.00     0.00 4230.00    0.00 1464664.00     0.00   692.51     0.00    0.00    0.00    0.00   0.00   0.00

avg-cpu:  %user   %nice %system %iowait  %steal   %idle
           1.27    0.00    6.84    4.81    0.00   87.09

Device:         rrqm/s   wrqm/s     r/s     w/s    rkB/s    wkB/s avgrq-sz avgqu-sz   await r_await w_await  svctm  %util
sda             325.00     0.00  375.00    0.00 170492.00     0.00   909.29     0.90    2.41    2.41    0.00   1.31  49.10
sdb             319.00     0.00  369.00    0.00 170464.00     0.00   923.92     0.92    2.48    2.48    0.00   1.35  49.70
sdc             322.00     0.00  384.00    0.00 171220.00     0.00   891.77     1.89    4.93    4.93    0.00   2.13  81.90
sdd             324.00     0.00  368.00    0.00 171312.00     0.00   931.04     1.96    5.33    5.33    0.00   2.22  81.70
sde             317.00     0.00  388.00    0.00 170640.00     0.00   879.59     1.92    4.94    4.94    0.00   2.09  81.20
sdf             321.00     0.00  381.00    0.00 170544.00     0.00   895.24     1.91    5.01    5.01    0.00   2.15  81.80
sdg               0.00     0.00    0.00    0.00     0.00     0.00     0.00     0.00    0.00    0.00    0.00   0.00   0.00
sdh               0.00     0.00    0.00    0.00     0.00     0.00     0.00     0.00    0.00    0.00    0.00   0.00   0.00
md0               0.00     0.00 4191.00    0.00 1624340.00     0.00   775.16     0.00    0.00    0.00    0.00   0.00   0.00

