Linux 4.17.2 (bench) 	08/04/2018 	_x86_64_	(4 CPU)

avg-cpu:  %user   %nice %system %iowait  %steal   %idle
          10.25    0.02    4.32    2.83    0.00   82.59

Device:         rrqm/s   wrqm/s     r/s     w/s    rkB/s    wkB/s avgrq-sz avgqu-sz   await r_await w_await  svctm  %util
sda              57.75     4.13 1758.56   99.76 21430.99  3052.57    26.35     1.05    0.56    0.26    5.92   0.06  11.17
sdb              57.54     4.09 1758.59   99.89 21420.65  3049.32    26.33     1.05    0.56    0.26    5.85   0.06  11.04
sdc              94.92     4.15 1719.12   99.46 21413.00  3051.72    26.91     1.47    0.81    0.44    7.12   0.08  14.54
sdd              88.55     4.12 1724.68   99.52 21398.17  3048.02    26.80     1.48    0.81    0.43    7.33   0.08  14.63
sde              90.50     4.16 1729.67   99.62 21456.52  3052.15    26.80     1.50    0.82    0.44    7.44   0.08  14.65
sdf              87.69     4.13 1731.74   99.56 21438.27  3049.10    26.74     1.54    0.84    0.43    7.90   0.08  14.69
sdg               0.00     3.15   27.15   73.12   326.88   391.57    14.33     0.44    4.38    0.20    5.93   0.08   0.79
sdh               0.00     0.12    0.02    0.23     2.15     4.93    56.82     0.00    1.15    0.65    1.19   0.21   0.01
md0               0.00     0.00 10907.09  467.41 146843.10 20894.31    29.49     0.00    0.00    0.00    0.00   0.00   0.00

avg-cpu:  %user   %nice %system %iowait  %steal   %idle
           0.08    0.03    8.87    0.00    0.00   91.02

Device:         rrqm/s   wrqm/s     r/s     w/s    rkB/s    wkB/s avgrq-sz avgqu-sz   await r_await w_await  svctm  %util
sda               1.05     0.00 15671.90    0.00 62691.80     0.00     8.00     3.37    0.22    0.22    0.00   0.05  74.44
sdb               0.95     0.00 15680.20    0.00 62724.80     0.00     8.00     3.42    0.22    0.22    0.00   0.05  74.66
sdc               1.30     0.00 15701.60    0.00 62811.80     0.00     8.00     3.44    0.22    0.22    0.00   0.05  76.29
sdd               0.65     0.00 15683.20    0.00 62735.40     0.00     8.00     3.48    0.22    0.22    0.00   0.05  77.00
sde               0.70     0.00 15650.60    0.00 62605.20     0.00     8.00     3.63    0.23    0.23    0.00   0.05  84.83
sdf               0.90     0.00 15625.75    0.00 62506.60     0.00     8.00     3.57    0.23    0.23    0.00   0.05  77.89
sdg               0.00     6.35    3.30   73.35    44.20   386.60    11.24     0.40    5.16    0.20    5.38   0.05   0.42
sdh               0.00     0.00    0.00    0.00     0.00     0.00     0.00     0.00    0.00    0.00    0.00   0.00   0.00
md0               0.00     0.00 94020.80    0.00 376083.20     0.00     8.00     0.00    0.00    0.00    0.00   0.00   0.00

