Linux 4.17.2 (bench) 	08/04/2018 	_x86_64_	(4 CPU)

avg-cpu:  %user   %nice %system %iowait  %steal   %idle
          10.25    0.02    4.32    2.82    0.00   82.59

Device:         rrqm/s   wrqm/s     r/s     w/s    rkB/s    wkB/s avgrq-sz avgqu-sz   await r_await w_await  svctm  %util
sda              57.70     4.13 1758.22   99.80 21435.44  3053.87    26.36     1.05    0.57    0.26    5.92   0.06  11.16
sdb              57.48     4.09 1758.24   99.94 21425.09  3050.62    26.34     1.05    0.56    0.26    5.85   0.06  11.04
sdc              94.88     4.15 1718.76   99.50 21417.43  3053.02    26.92     1.47    0.81    0.44    7.12   0.08  14.53
sdd              88.51     4.12 1724.32   99.57 21402.61  3049.31    26.81     1.48    0.81    0.43    7.33   0.08  14.63
sde              90.46     4.16 1729.31   99.66 21460.98  3053.45    26.81     1.50    0.82    0.44    7.44   0.08  14.65
sdf              87.65     4.14 1731.39   99.61 21442.74  3050.40    26.75     1.54    0.84    0.43    7.90   0.08  14.68
sdg               0.00     3.15   27.15   73.13   326.87   391.59    14.33     0.44    4.38    0.20    5.93   0.08   0.79
sdh               0.00     0.12    0.02    0.23     2.15     4.93    56.82     0.00    1.15    0.65    1.19   0.21   0.01
md0               0.00     0.00 10904.72  467.60 146877.58 20903.21    29.51     0.00    0.00    0.00    0.00   0.00   0.00

avg-cpu:  %user   %nice %system %iowait  %steal   %idle
           0.00    0.00    1.54    0.00    0.00   98.46

Device:         rrqm/s   wrqm/s     r/s     w/s    rkB/s    wkB/s avgrq-sz avgqu-sz   await r_await w_await  svctm  %util
sda               0.00     0.00 1434.00    0.00  5736.00     0.00     8.00     0.16    0.11    0.11    0.00   0.11  15.90
sdb               0.00     0.00 1463.00    0.00  5852.00     0.00     8.00     0.15    0.10    0.10    0.00   0.10  15.00
sdc               0.00     0.00 1423.00    0.00  5692.00     0.00     8.00     0.17    0.12    0.12    0.00   0.12  17.00
sdd               0.00     0.00 1481.00    0.00  5924.00     0.00     8.00     0.16    0.11    0.11    0.00   0.11  15.70
sde               0.00     0.00 1451.00    0.00  5804.00     0.00     8.00     0.16    0.11    0.11    0.00   0.11  16.10
sdf               0.00     0.00 1414.00    0.00  5656.00     0.00     8.00     0.15    0.10    0.10    0.00   0.10  14.70
sdg               0.00     0.00    6.00    5.00   112.00   144.00    46.55     0.00    0.36    0.17    0.60   0.18   0.20
sdh               0.00     0.00    0.00    0.00     0.00     0.00     0.00     0.00    0.00    0.00    0.00   0.00   0.00
md0               0.00     0.00 8668.00    0.00 34672.00     0.00     8.00     0.00    0.00    0.00    0.00   0.00   0.00

avg-cpu:  %user   %nice %system %iowait  %steal   %idle
           0.26    0.00    1.28    0.00    0.00   98.47

Device:         rrqm/s   wrqm/s     r/s     w/s    rkB/s    wkB/s avgrq-sz avgqu-sz   await r_await w_await  svctm  %util
sda               0.00     0.00 1456.00    0.00  5824.00     0.00     8.00     0.14    0.10    0.10    0.00   0.10  13.90
sdb               0.00     0.00 1459.00    0.00  5836.00     0.00     8.00     0.15    0.11    0.11    0.00   0.11  15.40
sdc               0.00     0.00 1483.00    0.00  5932.00     0.00     8.00     0.15    0.10    0.10    0.00   0.10  14.60
sdd               0.00     0.00 1519.00    0.00  6076.00     0.00     8.00     0.15    0.10    0.10    0.00   0.10  15.30
sde               0.00     0.00 1476.00    0.00  5904.00     0.00     8.00     0.17    0.12    0.12    0.00   0.11  16.90
sdf               0.00     0.00 1569.00    0.00  6276.00     0.00     8.00     0.18    0.12    0.12    0.00   0.12  18.20
sdg               0.00     0.00    0.00    0.00     0.00     0.00     0.00     0.00    0.00    0.00    0.00   0.00   0.00
sdh               0.00     0.00    0.00    0.00     0.00     0.00     0.00     0.00    0.00    0.00    0.00   0.00   0.00
md0               0.00     0.00 8962.00    0.00 35848.00     0.00     8.00     0.00    0.00    0.00    0.00   0.00   0.00

avg-cpu:  %user   %nice %system %iowait  %steal   %idle
           0.00    0.00    1.53    0.00    0.00   98.47

Device:         rrqm/s   wrqm/s     r/s     w/s    rkB/s    wkB/s avgrq-sz avgqu-sz   await r_await w_await  svctm  %util
sda               0.00     0.00 1536.00    0.00  6144.00     0.00     8.00     0.16    0.11    0.11    0.00   0.11  16.20
sdb               0.00     0.00 1501.00    0.00  6004.00     0.00     8.00     0.16    0.11    0.11    0.00   0.11  16.10
sdc               0.00     0.00 1479.00    0.00  5916.00     0.00     8.00     0.15    0.10    0.10    0.00   0.10  14.80
sdd               0.00     0.00 1498.00    0.00  5992.00     0.00     8.00     0.14    0.09    0.09    0.00   0.09  13.90
sde               0.00     0.00 1521.00    0.00  6084.00     0.00     8.00     0.17    0.11    0.11    0.00   0.11  17.30
sdf               0.00     0.00 1531.00    0.00  6124.00     0.00     8.00     0.17    0.11    0.11    0.00   0.11  16.90
sdg               0.00     0.00    0.00    0.00     0.00     0.00     0.00     0.00    0.00    0.00    0.00   0.00   0.00
sdh               0.00     0.00    0.00    0.00     0.00     0.00     0.00     0.00    0.00    0.00    0.00   0.00   0.00
md0               0.00     0.00 9065.00    0.00 36260.00     0.00     8.00     0.00    0.00    0.00    0.00   0.00   0.00

avg-cpu:  %user   %nice %system %iowait  %steal   %idle
           0.26    0.00    1.28    0.00    0.00   98.46

Device:         rrqm/s   wrqm/s     r/s     w/s    rkB/s    wkB/s avgrq-sz avgqu-sz   await r_await w_await  svctm  %util
sda               0.00     0.00 1455.00    0.00  5820.00     0.00     8.00     0.17    0.12    0.12    0.00   0.12  17.10
sdb               0.00     0.00 1500.00    0.00  6000.00     0.00     8.00     0.15    0.10    0.10    0.00   0.10  15.10
sdc               0.00     0.00 1547.00    0.00  6188.00     0.00     8.00     0.16    0.10    0.10    0.00   0.10  15.80
sdd               0.00     0.00 1562.00    0.00  6248.00     0.00     8.00     0.16    0.10    0.10    0.00   0.10  15.80
sde               0.00     0.00 1449.00    0.00  5796.00     0.00     8.00     0.16    0.11    0.11    0.00   0.11  16.20
sdf               0.00     0.00 1535.00    0.00  6140.00     0.00     8.00     0.14    0.09    0.09    0.00   0.09  14.30
sdg               0.00     0.00    0.00    5.00     0.00    28.00    11.20     0.00    0.00    0.00    0.00   0.00   0.00
sdh               0.00     0.00    0.00    0.00     0.00     0.00     0.00     0.00    0.00    0.00    0.00   0.00   0.00
md0               0.00     0.00 9049.00    0.00 36196.00     0.00     8.00     0.00    0.00    0.00    0.00   0.00   0.00

avg-cpu:  %user   %nice %system %iowait  %steal   %idle
           0.26    0.00    1.53    0.00    0.00   98.21

Device:         rrqm/s   wrqm/s     r/s     w/s    rkB/s    wkB/s avgrq-sz avgqu-sz   await r_await w_await  svctm  %util
sda               0.00     0.00 1490.00    0.00  5960.00     0.00     8.00     0.17    0.11    0.11    0.00   0.11  16.80
sdb               0.00     0.00 1520.00    0.00  6080.00     0.00     8.00     0.16    0.11    0.11    0.00   0.11  16.20
sdc               0.00     0.00 1481.00    0.00  5924.00     0.00     8.00     0.14    0.10    0.10    0.00   0.10  14.50
sdd               0.00     0.00 1537.00    0.00  6148.00     0.00     8.00     0.18    0.11    0.11    0.00   0.11  17.60
sde               0.00     0.00 1517.00    0.00  6068.00     0.00     8.00     0.15    0.10    0.10    0.00   0.10  15.30
sdf               0.00     0.00 1466.00    0.00  5864.00     0.00     8.00     0.14    0.09    0.09    0.00   0.09  13.60
sdg               0.00     0.00    0.00    0.00     0.00     0.00     0.00     0.00    0.00    0.00    0.00   0.00   0.00
sdh               0.00     0.00    0.00    0.00     0.00     0.00     0.00     0.00    0.00    0.00    0.00   0.00   0.00
md0               0.00     0.00 9011.00    0.00 36044.00     0.00     8.00     0.00    0.00    0.00    0.00   0.00   0.00

avg-cpu:  %user   %nice %system %iowait  %steal   %idle
           0.00    0.00    1.79    0.00    0.00   98.21

Device:         rrqm/s   wrqm/s     r/s     w/s    rkB/s    wkB/s avgrq-sz avgqu-sz   await r_await w_await  svctm  %util
sda               0.00     0.00 1510.00    0.00  6040.00     0.00     8.00     0.13    0.09    0.09    0.00   0.09  13.00
sdb               0.00     0.00 1500.00    0.00  6000.00     0.00     8.00     0.15    0.10    0.10    0.00   0.10  15.20
sdc               0.00     0.00 1498.00    0.00  5992.00     0.00     8.00     0.16    0.11    0.11    0.00   0.11  16.30
sdd               0.00     0.00 1500.00    0.00  6000.00     0.00     8.00     0.17    0.11    0.11    0.00   0.11  16.90
sde               0.00     0.00 1498.00    0.00  5992.00     0.00     8.00     0.16    0.11    0.11    0.00   0.11  16.00
sdf               0.00     0.00 1525.00    0.00  6100.00     0.00     8.00     0.17    0.11    0.11    0.00   0.11  16.90
sdg               0.00     0.00    0.00    0.00     0.00     0.00     0.00     0.00    0.00    0.00    0.00   0.00   0.00
sdh               0.00     0.00    0.00    0.00     0.00     0.00     0.00     0.00    0.00    0.00    0.00   0.00   0.00
md0               0.00     0.00 9031.00    0.00 36124.00     0.00     8.00     0.00    0.00    0.00    0.00   0.00   0.00

avg-cpu:  %user   %nice %system %iowait  %steal   %idle
           0.26    0.00    1.53    0.00    0.00   98.21

Device:         rrqm/s   wrqm/s     r/s     w/s    rkB/s    wkB/s avgrq-sz avgqu-sz   await r_await w_await  svctm  %util
sda               0.00     0.00 1536.00    0.00  6144.00     0.00     8.00     0.15    0.10    0.10    0.00   0.10  15.40
sdb               0.00     0.00 1505.00    0.00  6020.00     0.00     8.00     0.13    0.08    0.08    0.00   0.08  12.60
sdc               0.00     0.00 1489.00    0.00  5956.00     0.00     8.00     0.15    0.10    0.10    0.00   0.10  14.80
sdd               0.00     0.00 1467.00    0.00  5868.00     0.00     8.00     0.16    0.11    0.11    0.00   0.11  15.90
sde               0.00     0.00 1504.00    0.00  6016.00     0.00     8.00     0.17    0.11    0.11    0.00   0.11  17.20
sdf               0.00     0.00 1528.00    0.00  6112.00     0.00     8.00     0.17    0.11    0.11    0.00   0.11  16.90
sdg               0.00     0.00    0.00    0.00     0.00     0.00     0.00     0.00    0.00    0.00    0.00   0.00   0.00
sdh               0.00     0.00    0.00    0.00     0.00     0.00     0.00     0.00    0.00    0.00    0.00   0.00   0.00
md0               0.00     0.00 9028.00    0.00 36112.00     0.00     8.00     0.00    0.00    0.00    0.00   0.00   0.00

avg-cpu:  %user   %nice %system %iowait  %steal   %idle
           0.26    0.00    1.79    0.00    0.00   97.96

Device:         rrqm/s   wrqm/s     r/s     w/s    rkB/s    wkB/s avgrq-sz avgqu-sz   await r_await w_await  svctm  %util
sda               0.00     0.00 1502.00    0.00  6008.00     0.00     8.00     0.16    0.10    0.10    0.00   0.10  15.70
sdb               0.00     0.00 1503.00    0.00  6012.00     0.00     8.00     0.16    0.10    0.10    0.00   0.10  15.60
sdc               0.00     0.00 1481.00    0.00  5924.00     0.00     8.00     0.15    0.10    0.10    0.00   0.10  14.80
sdd               0.00     0.00 1483.00    0.00  5932.00     0.00     8.00     0.16    0.11    0.11    0.00   0.11  16.10
sde               0.00     0.00 1554.00    0.00  6216.00     0.00     8.00     0.16    0.10    0.10    0.00   0.10  15.80
sdf               0.00     0.00 1474.00    0.00  5896.00     0.00     8.00     0.16    0.11    0.11    0.00   0.11  15.80
sdg               0.00     0.00    0.00    0.00     0.00     0.00     0.00     0.00    0.00    0.00    0.00   0.00   0.00
sdh               0.00     0.00    0.00    0.00     0.00     0.00     0.00     0.00    0.00    0.00    0.00   0.00   0.00
md0               0.00     0.00 8997.00    0.00 35988.00     0.00     8.00     0.00    0.00    0.00    0.00   0.00   0.00

avg-cpu:  %user   %nice %system %iowait  %steal   %idle
           0.00    0.00    1.53    0.00    0.00   98.47

Device:         rrqm/s   wrqm/s     r/s     w/s    rkB/s    wkB/s avgrq-sz avgqu-sz   await r_await w_await  svctm  %util
sda               0.00     0.00 1503.00    0.00  6016.00     0.00     8.01     0.16    0.10    0.10    0.00   0.11  15.80
sdb               0.00     0.00 1510.00    0.00  6040.00     0.00     8.00     0.15    0.10    0.10    0.00   0.10  15.20
sdc               0.00     0.00 1535.00    0.00  6140.00     0.00     8.00     0.16    0.11    0.11    0.00   0.11  16.30
sdd               0.00     0.00 1504.00    0.00  6016.00     0.00     8.00     0.15    0.10    0.10    0.00   0.10  15.00
sde               0.00     0.00 1492.00    0.00  5968.00     0.00     8.00     0.16    0.11    0.11    0.00   0.11  16.20
sdf               0.00     0.00 1528.00    0.00  6112.00     0.00     8.00     0.16    0.11    0.11    0.00   0.11  16.30
sdg               0.00     0.00   12.00    3.00    48.00    20.00     9.07     0.00    0.27    0.33    0.00   0.27   0.40
sdh               0.00     0.00    0.00    0.00     0.00     0.00     0.00     0.00    0.00    0.00    0.00   0.00   0.00
md0               0.00     0.00 9073.00    0.00 36292.00     0.00     8.00     0.00    0.00    0.00    0.00   0.00   0.00

avg-cpu:  %user   %nice %system %iowait  %steal   %idle
           0.26    0.26    1.53    0.00    0.00   97.95

Device:         rrqm/s   wrqm/s     r/s     w/s    rkB/s    wkB/s avgrq-sz avgqu-sz   await r_await w_await  svctm  %util
sda               0.00     0.00 1520.00    0.00  6076.00     0.00     7.99     0.15    0.10    0.10    0.00   0.10  15.00
sdb               0.00     0.00 1534.00    0.00  6136.00     0.00     8.00     0.16    0.10    0.10    0.00   0.10  15.90
sdc               0.00     0.00 1544.00    0.00  6176.00     0.00     8.00     0.15    0.10    0.10    0.00   0.10  15.50
sdd               0.00     0.00 1433.00    0.00  5732.00     0.00     8.00     0.15    0.10    0.10    0.00   0.10  15.00
sde               0.00     0.00 1458.00    0.00  5832.00     0.00     8.00     0.15    0.11    0.11    0.00   0.11  15.40
sdf               0.00     0.00 1520.00    0.00  6080.00     0.00     8.00     0.18    0.12    0.12    0.00   0.12  18.50
sdg               0.00     0.00   39.00    0.00   468.00     0.00    24.00     0.01    0.15    0.15    0.00   0.13   0.50
sdh               0.00     0.00    0.00    0.00     0.00     0.00     0.00     0.00    0.00    0.00    0.00   0.00   0.00
md0               0.00     0.00 9009.00    0.00 36036.00     0.00     8.00     0.00    0.00    0.00    0.00   0.00   0.00

avg-cpu:  %user   %nice %system %iowait  %steal   %idle
           0.00    0.00    1.79    0.00    0.00   98.21

Device:         rrqm/s   wrqm/s     r/s     w/s    rkB/s    wkB/s avgrq-sz avgqu-sz   await r_await w_await  svctm  %util
sda               0.00     0.00 1497.00    0.00  5988.00     0.00     8.00     0.14    0.09    0.09    0.00   0.09  14.20
sdb               0.00     0.00 1544.00    0.00  6176.00     0.00     8.00     0.17    0.11    0.11    0.00   0.11  17.00
sdc               0.00     0.00 1483.00    0.00  5932.00     0.00     8.00     0.15    0.10    0.10    0.00   0.10  14.90
sdd               0.00     0.00 1473.00    0.00  5892.00     0.00     8.00     0.17    0.11    0.11    0.00   0.11  16.80
sde               0.00     0.00 1439.00    0.00  5756.00     0.00     8.00     0.15    0.10    0.10    0.00   0.10  15.10
sdf               0.00     0.00 1424.00    0.00  5696.00     0.00     8.00     0.16    0.11    0.11    0.00   0.11  16.00
sdg               0.00     0.00    0.00    0.00     0.00     0.00     0.00     0.00    0.00    0.00    0.00   0.00   0.00
sdh               0.00     0.00    0.00    0.00     0.00     0.00     0.00     0.00    0.00    0.00    0.00   0.00   0.00
md0               0.00     0.00 8860.00    0.00 35440.00     0.00     8.00     0.00    0.00    0.00    0.00   0.00   0.00

avg-cpu:  %user   %nice %system %iowait  %steal   %idle
           0.26    0.00    1.28    0.00    0.00   98.46

Device:         rrqm/s   wrqm/s     r/s     w/s    rkB/s    wkB/s avgrq-sz avgqu-sz   await r_await w_await  svctm  %util
sda               0.00     0.00 1548.00    0.00  6192.00     0.00     8.00     0.16    0.10    0.10    0.00   0.10  15.70
sdb               0.00     0.00 1492.00    0.00  5968.00     0.00     8.00     0.15    0.10    0.10    0.00   0.10  15.10
sdc               0.00     0.00 1513.00    0.00  6052.00     0.00     8.00     0.17    0.11    0.11    0.00   0.11  16.90
sdd               0.00     0.00 1452.00    0.00  5808.00     0.00     8.00     0.15    0.10    0.10    0.00   0.10  15.10
sde               0.00     0.00 1517.00    0.00  6068.00     0.00     8.00     0.17    0.11    0.11    0.00   0.11  16.60
sdf               0.00     0.00 1492.00    0.00  5968.00     0.00     8.00     0.16    0.10    0.10    0.00   0.10  15.60
sdg               0.00     0.00    0.00    0.00     0.00     0.00     0.00     0.00    0.00    0.00    0.00   0.00   0.00
sdh               0.00     0.00    0.00    0.00     0.00     0.00     0.00     0.00    0.00    0.00    0.00   0.00   0.00
md0               0.00     0.00 9013.00    0.00 36052.00     0.00     8.00     0.00    0.00    0.00    0.00   0.00   0.00

avg-cpu:  %user   %nice %system %iowait  %steal   %idle
           0.00    0.00    1.28    0.00    0.00   98.72

Device:         rrqm/s   wrqm/s     r/s     w/s    rkB/s    wkB/s avgrq-sz avgqu-sz   await r_await w_await  svctm  %util
sda               0.00     0.00 1492.00    0.00  5968.00     0.00     8.00     0.16    0.11    0.11    0.00   0.10  15.60
sdb               0.00     0.00 1472.00    0.00  5888.00     0.00     8.00     0.13    0.09    0.09    0.00   0.09  13.30
sdc               0.00     0.00 1564.00    0.00  6256.00     0.00     8.00     0.17    0.11    0.11    0.00   0.11  17.40
sdd               0.00     0.00 1489.00    0.00  5956.00     0.00     8.00     0.17    0.11    0.11    0.00   0.11  16.80
sde               0.00     0.00 1532.00    0.00  6128.00     0.00     8.00     0.17    0.11    0.11    0.00   0.11  16.50
sdf               0.00     0.00 1492.00    0.00  5968.00     0.00     8.00     0.16    0.11    0.11    0.00   0.11  16.10
sdg               0.00     0.00    0.00    0.00     0.00     0.00     0.00     0.00    0.00    0.00    0.00   0.00   0.00
sdh               0.00     0.00    0.00    0.00     0.00     0.00     0.00     0.00    0.00    0.00    0.00   0.00   0.00
md0               0.00     0.00 9042.00    0.00 36168.00     0.00     8.00     0.00    0.00    0.00    0.00   0.00   0.00

avg-cpu:  %user   %nice %system %iowait  %steal   %idle
           0.26    0.00    1.53    0.00    0.00   98.21

Device:         rrqm/s   wrqm/s     r/s     w/s    rkB/s    wkB/s avgrq-sz avgqu-sz   await r_await w_await  svctm  %util
sda               0.00     0.00 1545.00    0.00  6180.00     0.00     8.00     0.16    0.10    0.10    0.00   0.10  15.90
sdb               0.00     0.00 1505.00    0.00  6020.00     0.00     8.00     0.15    0.10    0.10    0.00   0.10  15.30
sdc               0.00     0.00 1558.00    0.00  6232.00     0.00     8.00     0.15    0.10    0.10    0.00   0.10  15.40
sdd               0.00     0.00 1458.00    0.00  5832.00     0.00     8.00     0.17    0.12    0.12    0.00   0.12  17.20
sde               0.00     0.00 1526.00    0.00  6104.00     0.00     8.00     0.15    0.10    0.10    0.00   0.10  15.50
sdf               0.00     0.00 1456.00    0.00  5824.00     0.00     8.00     0.15    0.11    0.11    0.00   0.11  15.50
sdg               0.00     1.00    0.00    2.00     0.00    36.00    36.00     0.00    0.00    0.00    0.00   0.00   0.00
sdh               0.00     0.00    0.00    0.00     0.00     0.00     0.00     0.00    0.00    0.00    0.00   0.00   0.00
md0               0.00     0.00 9048.00    0.00 36192.00     0.00     8.00     0.00    0.00    0.00    0.00   0.00   0.00

avg-cpu:  %user   %nice %system %iowait  %steal   %idle
           0.00    0.00    1.54    0.00    0.00   98.46

Device:         rrqm/s   wrqm/s     r/s     w/s    rkB/s    wkB/s avgrq-sz avgqu-sz   await r_await w_await  svctm  %util
sda               0.00     0.00 1554.00    0.00  6216.00     0.00     8.00     0.16    0.10    0.10    0.00   0.10  16.20
sdb               0.00     0.00 1475.00    0.00  5900.00     0.00     8.00     0.13    0.09    0.09    0.00   0.09  13.20
sdc               0.00     0.00 1475.00    0.00  5900.00     0.00     8.00     0.17    0.12    0.12    0.00   0.12  17.40
sdd               0.00     0.00 1562.00    0.00  6248.00     0.00     8.00     0.14    0.09    0.09    0.00   0.09  13.80
sde               0.00     0.00 1464.00    0.00  5856.00     0.00     8.00     0.18    0.12    0.12    0.00   0.12  18.10
sdf               0.00     0.00 1504.00    0.00  6016.00     0.00     8.00     0.16    0.10    0.10    0.00   0.10  15.60
sdg               0.00     0.00    0.00    0.00     0.00     0.00     0.00     0.00    0.00    0.00    0.00   0.00   0.00
sdh               0.00     0.00    0.00    0.00     0.00     0.00     0.00     0.00    0.00    0.00    0.00   0.00   0.00
md0               0.00     0.00 9034.00    0.00 36136.00     0.00     8.00     0.00    0.00    0.00    0.00   0.00   0.00

avg-cpu:  %user   %nice %system %iowait  %steal   %idle
           0.26    0.00    1.03    0.00    0.00   98.72

Device:         rrqm/s   wrqm/s     r/s     w/s    rkB/s    wkB/s avgrq-sz avgqu-sz   await r_await w_await  svctm  %util
sda               0.00     0.00 1498.00    0.00  5992.00     0.00     8.00     0.15    0.10    0.10    0.00   0.10  14.60
sdb               0.00     0.00 1456.00    0.00  5824.00     0.00     8.00     0.15    0.10    0.10    0.00   0.10  14.90
sdc               0.00     0.00 1553.00    0.00  6212.00     0.00     8.00     0.16    0.11    0.11    0.00   0.11  16.40
sdd               0.00     0.00 1539.00    0.00  6156.00     0.00     8.00     0.17    0.11    0.11    0.00   0.11  16.90
sde               0.00     0.00 1487.00    0.00  5948.00     0.00     8.00     0.15    0.10    0.10    0.00   0.10  15.00
sdf               0.00     0.00 1500.00    0.00  6000.00     0.00     8.00     0.17    0.11    0.11    0.00   0.11  16.70
sdg               0.00     0.00    0.00    0.00     0.00     0.00     0.00     0.00    0.00    0.00    0.00   0.00   0.00
sdh               0.00     0.00    0.00    0.00     0.00     0.00     0.00     0.00    0.00    0.00    0.00   0.00   0.00
md0               0.00     0.00 9033.00    0.00 36132.00     0.00     8.00     0.00    0.00    0.00    0.00   0.00   0.00

avg-cpu:  %user   %nice %system %iowait  %steal   %idle
           0.26    0.00    1.53    0.00    0.00   98.21

Device:         rrqm/s   wrqm/s     r/s     w/s    rkB/s    wkB/s avgrq-sz avgqu-sz   await r_await w_await  svctm  %util
sda               0.00     0.00 1468.00    0.00  5872.00     0.00     8.00     0.17    0.12    0.12    0.00   0.12  17.50
sdb               0.00     0.00 1497.00    0.00  5988.00     0.00     8.00     0.14    0.10    0.10    0.00   0.10  14.30
sdc               0.00     0.00 1533.00    0.00  6132.00     0.00     8.00     0.16    0.10    0.10    0.00   0.10  15.60
sdd               0.00     0.00 1503.00    0.00  6012.00     0.00     8.00     0.17    0.11    0.11    0.00   0.11  17.10
sde               0.00     0.00 1496.00    0.00  5984.00     0.00     8.00     0.16    0.11    0.11    0.00   0.11  16.00
sdf               0.00     0.00 1548.00    0.00  6192.00     0.00     8.00     0.15    0.10    0.10    0.00   0.10  15.40
sdg               0.00     0.00    0.00    0.00     0.00     0.00     0.00     0.00    0.00    0.00    0.00   0.00   0.00
sdh               0.00     0.00    0.00    0.00     0.00     0.00     0.00     0.00    0.00    0.00    0.00   0.00   0.00
md0               0.00     0.00 9045.00    0.00 36180.00     0.00     8.00     0.00    0.00    0.00    0.00   0.00   0.00

avg-cpu:  %user   %nice %system %iowait  %steal   %idle
           0.00    0.00    1.28    0.00    0.00   98.72

Device:         rrqm/s   wrqm/s     r/s     w/s    rkB/s    wkB/s avgrq-sz avgqu-sz   await r_await w_await  svctm  %util
sda               0.00     0.00 1505.00    0.00  6020.00     0.00     8.00     0.17    0.11    0.11    0.00   0.11  16.70
sdb               0.00     0.00 1476.00    0.00  5904.00     0.00     8.00     0.12    0.08    0.08    0.00   0.08  12.40
sdc               0.00     0.00 1532.00    0.00  6128.00     0.00     8.00     0.15    0.10    0.10    0.00   0.10  15.50
sdd               0.00     0.00 1474.00    0.00  5896.00     0.00     8.00     0.18    0.12    0.12    0.00   0.12  18.30
sde               0.00     0.00 1486.00    0.00  5944.00     0.00     8.00     0.17    0.11    0.11    0.00   0.11  16.90
sdf               0.00     0.00 1410.00    0.00  5640.00     0.00     8.00     0.16    0.11    0.11    0.00   0.11  15.70
sdg               0.00     0.00    0.00    0.00     0.00     0.00     0.00     0.00    0.00    0.00    0.00   0.00   0.00
sdh               0.00     0.00    0.00    0.00     0.00     0.00     0.00     0.00    0.00    0.00    0.00   0.00   0.00
md0               0.00     0.00 8882.00    0.00 35528.00     0.00     8.00     0.00    0.00    0.00    0.00   0.00   0.00

avg-cpu:  %user   %nice %system %iowait  %steal   %idle
           0.00    0.00    2.04    0.00    0.00   97.96

Device:         rrqm/s   wrqm/s     r/s     w/s    rkB/s    wkB/s avgrq-sz avgqu-sz   await r_await w_await  svctm  %util
sda               0.00     0.00 1540.00    0.00  6160.00     0.00     8.00     0.13    0.08    0.08    0.00   0.08  12.90
sdb               0.00     0.00 1496.00    0.00  5984.00     0.00     8.00     0.17    0.12    0.12    0.00   0.12  17.30
sdc               0.00     0.00 1515.00    0.00  6060.00     0.00     8.00     0.18    0.12    0.12    0.00   0.12  18.00
sdd               0.00     0.00 1394.00    0.00  5576.00     0.00     8.00     0.15    0.11    0.11    0.00   0.11  14.80
sde               0.00     0.00 1470.00    0.00  5880.00     0.00     8.00     0.17    0.12    0.12    0.00   0.12  17.10
sdf               0.00     0.00 1503.00    0.00  6012.00     0.00     8.00     0.15    0.10    0.10    0.00   0.10  15.00
sdg               0.00     0.00    0.00    0.00     0.00     0.00     0.00     0.00    0.00    0.00    0.00   0.00   0.00
sdh               0.00     0.00    0.00    0.00     0.00     0.00     0.00     0.00    0.00    0.00    0.00   0.00   0.00
md0               0.00     0.00 8919.00    0.00 35676.00     0.00     8.00     0.00    0.00    0.00    0.00   0.00   0.00

avg-cpu:  %user   %nice %system %iowait  %steal   %idle
           0.25    0.00    2.28    0.25    0.00   97.22

Device:         rrqm/s   wrqm/s     r/s     w/s    rkB/s    wkB/s avgrq-sz avgqu-sz   await r_await w_await  svctm  %util
sda               0.00     0.00 1437.00    0.00  5748.00     0.00     8.00     0.14    0.10    0.10    0.00   0.10  14.20
sdb               0.00     0.00 1451.00    0.00  5804.00     0.00     8.00     0.15    0.10    0.10    0.00   0.10  14.80
sdc               0.00     0.00 1437.00    0.00  5748.00     0.00     8.00     0.14    0.10    0.10    0.00   0.10  14.50
sdd               0.00     0.00 1512.00    0.00  6048.00     0.00     8.00     0.20    0.13    0.13    0.00   0.13  20.00
sde               0.00     0.00 1489.00    0.00  5956.00     0.00     8.00     0.17    0.12    0.12    0.00   0.12  17.50
sdf               0.00     0.00 1445.00    0.00  5780.00     0.00     8.00     0.15    0.11    0.11    0.00   0.11  15.30
sdg               0.00     0.00    4.00    0.00    16.00     0.00     8.00     0.00    0.00    0.00    0.00   0.00   0.00
sdh               0.00     0.00    0.00    0.00     0.00     0.00     0.00     0.00    0.00    0.00    0.00   0.00   0.00
md0               0.00     0.00 8771.00    0.00 35084.00     0.00     8.00     0.00    0.00    0.00    0.00   0.00   0.00

