Linux 4.17.2 (bench) 	08/04/2018 	_x86_64_	(4 CPU)

avg-cpu:  %user   %nice %system %iowait  %steal   %idle
          10.25    0.02    4.31    2.82    0.00   82.60

Device:         rrqm/s   wrqm/s     r/s     w/s    rkB/s    wkB/s avgrq-sz avgqu-sz   await r_await w_await  svctm  %util
sda              57.64     4.13 1758.36   99.84 21438.13  3055.04    26.36     1.05    0.57    0.26    5.92   0.06  11.16
sdb              57.43     4.09 1758.38   99.97 21427.77  3051.79    26.35     1.05    0.56    0.26    5.85   0.06  11.04
sdc              94.84     4.15 1718.89   99.54 21420.11  3054.19    26.92     1.47    0.81    0.44    7.12   0.08  14.54
sdd              88.46     4.12 1724.45   99.60 21405.28  3050.49    26.81     1.48    0.81    0.43    7.33   0.08  14.63
sde              90.41     4.16 1729.45   99.70 21463.68  3054.62    26.81     1.50    0.82    0.44    7.44   0.08  14.65
sdf              87.61     4.14 1731.52   99.65 21445.43  3051.57    26.76     1.54    0.84    0.43    7.90   0.08  14.69
sdg               0.00     3.15   27.14   73.13   326.86   391.61    14.33     0.44    4.38    0.20    5.93   0.08   0.79
sdh               0.00     0.12    0.02    0.23     2.15     4.93    56.82     0.00    1.15    0.65    1.19   0.21   0.01
md0               0.00     0.00 10905.23  467.78 146894.60 20911.24    29.51     0.00    0.00    0.00    0.00   0.00   0.00

avg-cpu:  %user   %nice %system %iowait  %steal   %idle
           2.21    0.01   14.18    2.69    0.00   80.91

Device:         rrqm/s   wrqm/s     r/s     w/s    rkB/s    wkB/s avgrq-sz avgqu-sz   await r_await w_await  svctm  %util
sda               5.60     0.00  789.25    0.00 15119.20     0.00    38.31     0.49    0.62    0.62    0.00   0.12   9.11
sdb               4.95     0.00  796.35    0.00 15238.80     0.00    38.27     0.47    0.59    0.59    0.00   0.10   8.12
sdc               5.20     0.00  800.50    0.00 15158.20     0.00    37.87     0.80    1.00    1.00    0.00   0.13  10.67
sdd               5.30     0.00  799.65    0.00 15171.80     0.00    37.95     0.81    1.01    1.01    0.00   0.13  10.67
sde               5.00     0.00  799.90    0.00 15265.60     0.00    38.17     0.78    0.97    0.97    0.00   0.14  10.81
sdf               5.40     0.00  802.90    0.00 15251.60     0.00    37.99     0.81    1.00    1.00    0.00   0.14  10.84
sdg               0.00     0.05   78.00    0.65   326.00    10.40     8.55     0.01    0.12    0.12    0.54   0.12   0.92
sdh               0.00     0.00    0.00    0.00     0.00     0.00     0.00     0.00    0.00    0.00    0.00   0.00   0.00
md0               0.00     0.00 4820.00    0.00 102248.00     0.00    42.43     0.00    0.00    0.00    0.00   0.00   0.00

