Linux 4.17.2 (bench) 	08/04/2018 	_x86_64_	(4 CPU)

avg-cpu:  %user   %nice %system %iowait  %steal   %idle
          10.25    0.02    4.32    2.83    0.00   82.59

Device:         rrqm/s   wrqm/s     r/s     w/s    rkB/s    wkB/s avgrq-sz avgqu-sz   await r_await w_await  svctm  %util
sda              57.74     4.13 1758.94   99.75 21431.54  3052.36    26.35     1.05    0.56    0.26    5.92   0.06  11.17
sdb              57.53     4.09 1758.97   99.89 21421.20  3049.11    26.33     1.05    0.56    0.26    5.85   0.06  11.05
sdc              94.91     4.15 1719.51   99.45 21413.55  3051.51    26.90     1.47    0.81    0.44    7.12   0.08  14.54
sdd              88.54     4.12 1725.06   99.52 21398.72  3047.81    26.80     1.47    0.81    0.43    7.33   0.08  14.63
sde              90.49     4.16 1730.05   99.61 21457.06  3051.94    26.79     1.50    0.82    0.44    7.44   0.08  14.66
sdf              87.69     4.13 1732.13   99.56 21438.82  3048.89    26.74     1.54    0.84    0.43    7.90   0.08  14.69
sdg               0.00     3.15   27.16   73.12   326.88   391.56    14.33     0.44    4.38    0.20    5.93   0.08   0.79
sdh               0.00     0.12    0.02    0.23     2.15     4.93    56.82     0.00    1.15    0.65    1.19   0.21   0.01
md0               0.00     0.00 10909.36  467.37 146845.12 20892.88    29.49     0.00    0.00    0.00    0.00   0.00   0.00

avg-cpu:  %user   %nice %system %iowait  %steal   %idle
           2.75    0.00    6.61    0.00    0.00   90.63

Device:         rrqm/s   wrqm/s     r/s     w/s    rkB/s    wkB/s avgrq-sz avgqu-sz   await r_await w_await  svctm  %util
sda             254.00     0.00 14307.00    0.00 58244.00     0.00     8.14     3.24    0.23    0.23    0.00   0.05  69.60
sdb             279.00     0.00 14093.00    0.00 57488.00     0.00     8.16     3.08    0.22    0.22    0.00   0.05  70.30
sdc             281.00     0.00 14247.00    0.00 58116.00     0.00     8.16     3.02    0.21    0.21    0.00   0.05  70.20
sdd             287.00     0.00 14056.00    0.00 57372.00     0.00     8.16     3.12    0.22    0.22    0.00   0.05  68.50
sde             240.00     0.00 13933.00    0.00 56692.00     0.00     8.14     3.19    0.23    0.23    0.00   0.05  71.80
sdf             283.00     0.00 14133.00    0.00 57664.00     0.00     8.16     3.34    0.24    0.24    0.00   0.05  73.10
sdg               0.00     0.00    9.00   44.00   112.00   756.00    32.75     0.16    6.15    1.11    7.18   0.17   0.90
sdh               0.00     0.00    0.00    0.00     0.00     0.00     0.00     0.00    0.00    0.00    0.00   0.00   0.00
md0               0.00     0.00 86432.00    0.00 345728.00     0.00     8.00     0.00    0.00    0.00    0.00   0.00   0.00

avg-cpu:  %user   %nice %system %iowait  %steal   %idle
           2.49    0.00    6.65    0.00    0.00   90.86

Device:         rrqm/s   wrqm/s     r/s     w/s    rkB/s    wkB/s avgrq-sz avgqu-sz   await r_await w_await  svctm  %util
sda             274.00     0.00 14426.00    0.00 58800.00     0.00     8.15     3.07    0.21    0.21    0.00   0.05  70.00
sdb             206.00     0.00 14359.00    0.00 58256.00     0.00     8.11     3.23    0.22    0.22    0.00   0.05  70.40
sdc             279.00     0.00 14359.00    0.00 58548.00     0.00     8.15     3.14    0.22    0.22    0.00   0.05  69.20
sdd             290.00     0.00 14299.00    0.00 58356.00     0.00     8.16     3.10    0.22    0.22    0.00   0.05  71.50
sde             265.00     0.00 14043.00    0.00 57232.00     0.00     8.15     3.16    0.23    0.23    0.00   0.05  70.50
sdf             259.00     0.00 14237.00    0.00 57984.00     0.00     8.15     3.22    0.23    0.23    0.00   0.05  71.80
sdg               0.00     0.00    0.00    0.00     0.00     0.00     0.00     0.00    0.00    0.00    0.00   0.00   0.00
sdh               0.00     0.00    0.00    0.00     0.00     0.00     0.00     0.00    0.00    0.00    0.00   0.00   0.00
md0               0.00     0.00 87287.00    0.00 349148.00     0.00     8.00     0.00    0.00    0.00    0.00   0.00   0.00

avg-cpu:  %user   %nice %system %iowait  %steal   %idle
           2.49    0.00    6.65    0.00    0.00   90.86

Device:         rrqm/s   wrqm/s     r/s     w/s    rkB/s    wkB/s avgrq-sz avgqu-sz   await r_await w_await  svctm  %util
sda             270.00     0.00 14191.00    0.00 57844.00     0.00     8.15     3.06    0.22    0.22    0.00   0.05  70.10
sdb             266.00     0.00 14300.00    0.00 58268.00     0.00     8.15     3.15    0.22    0.22    0.00   0.05  69.40
sdc             258.00     0.00 14147.00    0.00 57620.00     0.00     8.15     3.08    0.22    0.22    0.00   0.05  70.20
sdd             264.00     0.00 14226.00    0.00 57960.00     0.00     8.15     3.13    0.22    0.22    0.00   0.05  71.60
sde             260.00     0.00 14260.00    0.00 58080.00     0.00     8.15     3.38    0.24    0.24    0.00   0.05  73.00
sdf             275.00     0.00 14191.00    0.00 57864.00     0.00     8.16     3.23    0.23    0.23    0.00   0.05  72.40
sdg               0.00     0.00    0.00    0.00     0.00     0.00     0.00     0.00    0.00    0.00    0.00   0.00   0.00
sdh               0.00     0.00    0.00    0.00     0.00     0.00     0.00     0.00    0.00    0.00    0.00   0.00   0.00
md0               0.00     0.00 86914.00    0.00 347656.00     0.00     8.00     0.00    0.00    0.00    0.00   0.00   0.00

avg-cpu:  %user   %nice %system %iowait  %steal   %idle
           2.72    0.27    7.88    0.00    0.00   89.13

Device:         rrqm/s   wrqm/s     r/s     w/s    rkB/s    wkB/s avgrq-sz avgqu-sz   await r_await w_await  svctm  %util
sda             267.00     0.00 14085.00    0.00 57408.00     0.00     8.15     2.94    0.21    0.21    0.00   0.05  68.30
sdb             277.00     0.00 13929.00    0.00 56824.00     0.00     8.16     3.06    0.22    0.22    0.00   0.05  69.40
sdc             277.00     0.00 14148.00    0.00 57700.00     0.00     8.16     3.09    0.22    0.22    0.00   0.05  66.30
sdd             251.00     0.00 14063.00    0.00 57256.00     0.00     8.14     3.10    0.22    0.22    0.00   0.05  68.10
sde             252.00     0.00 14194.00    0.00 57784.00     0.00     8.14     3.03    0.21    0.21    0.00   0.05  69.30
sdf             278.00     0.00 14374.00    0.00 58608.00     0.00     8.15     3.15    0.22    0.22    0.00   0.05  70.80
sdg               0.00     0.00   25.00    0.00   160.00     0.00    12.80     0.00    0.08    0.08    0.00   0.08   0.20
sdh               0.00     0.00    0.00    0.00     0.00     0.00     0.00     0.00    0.00    0.00    0.00   0.00   0.00
md0               0.00     0.00 86375.00    0.00 345500.00     0.00     8.00     0.00    0.00    0.00    0.00   0.00   0.00

avg-cpu:  %user   %nice %system %iowait  %steal   %idle
           2.32    0.00   11.60    0.00    0.00   86.08

Device:         rrqm/s   wrqm/s     r/s     w/s    rkB/s    wkB/s avgrq-sz avgqu-sz   await r_await w_await  svctm  %util
sda             257.00     0.00 14503.00    0.00 59040.00     0.00     8.14     3.02    0.21    0.21    0.00   0.05  68.30
sdb             287.00     0.00 14310.00    0.00 58388.00     0.00     8.16     2.95    0.21    0.21    0.00   0.05  67.70
sdc             257.00     0.00 14479.00    0.00 58936.00     0.00     8.14     3.03    0.21    0.21    0.00   0.05  68.80
sdd             270.00     0.00 14449.00    0.00 58876.00     0.00     8.15     2.94    0.20    0.20    0.00   0.05  69.20
sde             274.00     0.00 14573.00    0.00 59388.00     0.00     8.15     3.18    0.22    0.22    0.00   0.05  70.40
sdf             274.00     0.00 14533.00    0.00 59228.00     0.00     8.15     3.17    0.22    0.22    0.00   0.05  70.80
sdg               0.00     0.00    0.00    0.00     0.00     0.00     0.00     0.00    0.00    0.00    0.00   0.00   0.00
sdh               0.00     0.00    0.00    0.00     0.00     0.00     0.00     0.00    0.00    0.00    0.00   0.00   0.00
md0               0.00     0.00 88480.00    0.00 353920.00     0.00     8.00     0.00    0.00    0.00    0.00   0.00   0.00

avg-cpu:  %user   %nice %system %iowait  %steal   %idle
           2.49    0.00    6.65    0.00    0.00   90.86

Device:         rrqm/s   wrqm/s     r/s     w/s    rkB/s    wkB/s avgrq-sz avgqu-sz   await r_await w_await  svctm  %util
sda             251.00     0.00 14502.00    0.00 59012.00     0.00     8.14     3.11    0.21    0.21    0.00   0.05  68.20
sdb             286.00     0.00 14150.00    0.00 57744.00     0.00     8.16     2.99    0.21    0.21    0.00   0.05  69.90
sdc             274.00     0.00 14472.00    0.00 58992.00     0.00     8.15     3.07    0.21    0.21    0.00   0.05  69.30
sdd             255.00     0.00 14425.00    0.00 58720.00     0.00     8.14     2.98    0.21    0.21    0.00   0.05  69.70
sde             305.00     0.00 14336.00    0.00 58564.00     0.00     8.17     3.21    0.22    0.22    0.00   0.05  71.10
sdf             278.00     0.00 14465.00    0.00 58972.00     0.00     8.15     3.24    0.22    0.22    0.00   0.05  72.40
sdg               0.00     0.00    0.00    0.00     0.00     0.00     0.00     0.00    0.00    0.00    0.00   0.00   0.00
sdh               0.00     0.00    0.00    0.00     0.00     0.00     0.00     0.00    0.00    0.00    0.00   0.00   0.00
md0               0.00     0.00 88000.00    0.00 352000.00     0.00     8.00     0.00    0.00    0.00    0.00   0.00   0.00

avg-cpu:  %user   %nice %system %iowait  %steal   %idle
           2.51    0.00    5.87    0.00    0.00   91.62

Device:         rrqm/s   wrqm/s     r/s     w/s    rkB/s    wkB/s avgrq-sz avgqu-sz   await r_await w_await  svctm  %util
sda             274.00     0.00 14575.00    0.00 59396.00     0.00     8.15     3.04    0.21    0.21    0.00   0.05  69.70
sdb             284.00     0.00 14536.00    0.00 59280.00     0.00     8.16     3.09    0.21    0.21    0.00   0.05  69.30
sdc             282.00     0.00 14527.00    0.00 59236.00     0.00     8.16     3.13    0.22    0.22    0.00   0.05  70.20
sdd             250.00     0.00 14475.00    0.00 58900.00     0.00     8.14     3.17    0.22    0.22    0.00   0.05  68.50
sde             284.00     0.00 14427.00    0.00 58844.00     0.00     8.16     3.26    0.23    0.23    0.00   0.05  71.40
sdf             283.00     0.00 14570.00    0.00 59412.00     0.00     8.16     3.21    0.22    0.22    0.00   0.05  70.70
sdg               0.00     0.00    0.00    0.00     0.00     0.00     0.00     0.00    0.00    0.00    0.00   0.00   0.00
sdh               0.00     0.00    0.00    0.00     0.00     0.00     0.00     0.00    0.00    0.00    0.00   0.00   0.00
md0               0.00     0.00 88768.00    0.00 355072.00     0.00     8.00     0.00    0.00    0.00    0.00   0.00   0.00

avg-cpu:  %user   %nice %system %iowait  %steal   %idle
           3.06    0.00    6.11    0.00    0.00   90.83

Device:         rrqm/s   wrqm/s     r/s     w/s    rkB/s    wkB/s avgrq-sz avgqu-sz   await r_await w_await  svctm  %util
sda             262.00     0.00 14371.00    0.00 58532.00     0.00     8.15     3.04    0.21    0.21    0.00   0.05  68.60
sdb             270.00     0.00 14569.00    0.00 59356.00     0.00     8.15     3.18    0.22    0.22    0.00   0.05  70.80
sdc             277.00     0.00 14549.00    0.00 59308.00     0.00     8.15     3.11    0.21    0.21    0.00   0.05  70.90
sdd             292.00     0.00 14560.00    0.00 59408.00     0.00     8.16     3.23    0.22    0.22    0.00   0.05  70.50
sde             253.00     0.00 14432.00    0.00 58740.00     0.00     8.14     3.38    0.23    0.23    0.00   0.05  73.10
sdf             264.00     0.00 14427.00    0.00 58764.00     0.00     8.15     3.33    0.23    0.23    0.00   0.05  73.00
sdg               0.00     0.00   15.00    0.00   304.00     0.00    40.53     0.01    0.33    0.33    0.00   0.33   0.50
sdh               0.00     0.00    0.00    0.00     0.00     0.00     0.00     0.00    0.00    0.00    0.00   0.00   0.00
md0               0.00     0.00 88534.00    0.00 354136.00     0.00     8.00     0.00    0.00    0.00    0.00   0.00   0.00

avg-cpu:  %user   %nice %system %iowait  %steal   %idle
           2.50    0.00    6.39    0.00    0.00   91.11

Device:         rrqm/s   wrqm/s     r/s     w/s    rkB/s    wkB/s avgrq-sz avgqu-sz   await r_await w_await  svctm  %util
sda             277.00     0.00 14580.00    0.00 59428.00     0.00     8.15     3.17    0.22    0.22    0.00   0.05  70.50
sdb             253.00     0.00 14457.00    0.00 58840.00     0.00     8.14     3.15    0.22    0.22    0.00   0.05  70.50
sdc             265.00     0.00 14811.00    0.00 60300.00     0.00     8.14     3.25    0.22    0.22    0.00   0.05  72.60
sdd             245.00     0.00 14678.00    0.00 59692.00     0.00     8.13     3.32    0.23    0.23    0.00   0.05  72.50
sde             259.00     0.00 14535.00    0.00 59176.00     0.00     8.14     3.25    0.22    0.22    0.00   0.05  73.10
sdf             303.00     0.00 14641.00    0.00 59776.00     0.00     8.17     3.30    0.22    0.22    0.00   0.05  72.80
sdg               0.00     0.00    0.00    0.00     0.00     0.00     0.00     0.00    0.00    0.00    0.00   0.00   0.00
sdh               0.00     0.00    0.00    0.00     0.00     0.00     0.00     0.00    0.00    0.00    0.00   0.00   0.00
md0               0.00     0.00 89290.00    0.00 357160.00     0.00     8.00     0.00    0.00    0.00    0.00   0.00   0.00

avg-cpu:  %user   %nice %system %iowait  %steal   %idle
           2.22    0.00    6.67    0.00    0.00   91.11

Device:         rrqm/s   wrqm/s     r/s     w/s    rkB/s    wkB/s avgrq-sz avgqu-sz   await r_await w_await  svctm  %util
sda             306.00     0.00 14629.00    0.00 59740.00     0.00     8.17     3.06    0.21    0.21    0.00   0.05  69.10
sdb             243.00     0.00 14375.00    0.00 58472.00     0.00     8.14     2.96    0.21    0.21    0.00   0.05  68.20
sdc             251.00     0.00 14317.00    0.00 58272.00     0.00     8.14     3.03    0.21    0.21    0.00   0.05  71.20
sdd             296.00     0.00 14453.00    0.00 58996.00     0.00     8.16     3.09    0.21    0.21    0.00   0.05  69.90
sde             273.00     0.00 14645.00    0.00 59672.00     0.00     8.15     3.16    0.22    0.22    0.00   0.05  70.90
sdf             255.00     0.00 14226.00    0.00 57924.00     0.00     8.14     3.12    0.22    0.22    0.00   0.05  72.10
sdg               0.00     0.00    0.00    0.00     0.00     0.00     0.00     0.00    0.00    0.00    0.00   0.00   0.00
sdh               0.00     0.00    0.00    0.00     0.00     0.00     0.00     0.00    0.00    0.00    0.00   0.00   0.00
md0               0.00     0.00 88256.00    0.00 353024.00     0.00     8.00     0.00    0.00    0.00    0.00   0.00   0.00

avg-cpu:  %user   %nice %system %iowait  %steal   %idle
           2.49    0.00    6.65    0.00    0.00   90.86

Device:         rrqm/s   wrqm/s     r/s     w/s    rkB/s    wkB/s avgrq-sz avgqu-sz   await r_await w_await  svctm  %util
sda             281.00     0.00 14459.00    0.00 58960.00     0.00     8.16     3.04    0.21    0.21    0.00   0.05  70.50
sdb             280.00     0.00 14909.00    0.00 60756.00     0.00     8.15     3.27    0.22    0.22    0.00   0.05  70.40
sdc             265.00     0.00 14683.00    0.00 59792.00     0.00     8.14     3.25    0.22    0.22    0.00   0.05  71.40
sdd             270.00     0.00 14788.00    0.00 60232.00     0.00     8.15     3.22    0.22    0.22    0.00   0.05  72.20
sde             279.00     0.00 14512.00    0.00 59164.00     0.00     8.15     3.34    0.23    0.23    0.00   0.05  73.40
sdf             241.00     0.00 14519.00    0.00 59036.00     0.00     8.13     3.32    0.23    0.23    0.00   0.05  74.30
sdg               0.00     0.00    0.00    0.00     0.00     0.00     0.00     0.00    0.00    0.00    0.00   0.00   0.00
sdh               0.00     0.00    0.00    0.00     0.00     0.00     0.00     0.00    0.00    0.00    0.00   0.00   0.00
md0               0.00     0.00 89504.00    0.00 358016.00     0.00     8.00     0.00    0.00    0.00    0.00   0.00   0.00

avg-cpu:  %user   %nice %system %iowait  %steal   %idle
           2.51    0.00    5.85    0.00    0.00   91.64

Device:         rrqm/s   wrqm/s     r/s     w/s    rkB/s    wkB/s avgrq-sz avgqu-sz   await r_await w_await  svctm  %util
sda             253.00     0.00 14474.00    0.00 58908.00     0.00     8.14     3.04    0.21    0.21    0.00   0.05  69.40
sdb             259.00     0.00 14618.00    0.00 59508.00     0.00     8.14     3.10    0.21    0.21    0.00   0.05  69.40
sdc             251.00     0.00 14487.00    0.00 58952.00     0.00     8.14     3.07    0.21    0.21    0.00   0.05  68.40
sdd             261.00     0.00 14588.00    0.00 59396.00     0.00     8.14     3.19    0.22    0.22    0.00   0.05  71.50
sde             275.00     0.00 14548.00    0.00 59292.00     0.00     8.15     3.18    0.22    0.22    0.00   0.05  70.80
sdf             298.00     0.00 14489.00    0.00 59152.00     0.00     8.17     3.18    0.22    0.22    0.00   0.05  72.70
sdg               0.00     0.00    0.00    0.00     0.00     0.00     0.00     0.00    0.00    0.00    0.00   0.00   0.00
sdh               0.00     0.00    0.00    0.00     0.00     0.00     0.00     0.00    0.00    0.00    0.00   0.00   0.00
md0               0.00     0.00 88800.00    0.00 355200.00     0.00     8.00     0.00    0.00    0.00    0.00   0.00   0.00

avg-cpu:  %user   %nice %system %iowait  %steal   %idle
           2.51    0.00    6.13    0.00    0.00   91.36

Device:         rrqm/s   wrqm/s     r/s     w/s    rkB/s    wkB/s avgrq-sz avgqu-sz   await r_await w_await  svctm  %util
sda             241.00     0.00 14456.00    0.00 58788.00     0.00     8.13     3.06    0.21    0.21    0.00   0.05  69.10
sdb             269.00     0.00 14808.00    0.00 60308.00     0.00     8.15     3.26    0.22    0.22    0.00   0.05  70.70
sdc             266.00     0.00 14718.00    0.00 59936.00     0.00     8.14     3.18    0.22    0.22    0.00   0.05  71.90
sdd             256.00     0.00 14705.00    0.00 59844.00     0.00     8.14     3.13    0.21    0.21    0.00   0.05  71.90
sde             284.00     0.00 14839.00    0.00 60492.00     0.00     8.15     3.33    0.22    0.22    0.00   0.05  74.00
sdf             271.00     0.00 14709.00    0.00 59920.00     0.00     8.15     3.46    0.24    0.24    0.00   0.05  72.80
sdg               0.00     0.00    0.00    0.00     0.00     0.00     0.00     0.00    0.00    0.00    0.00   0.00   0.00
sdh               0.00     0.00    0.00    0.00     0.00     0.00     0.00     0.00    0.00    0.00    0.00   0.00   0.00
md0               0.00     0.00 89824.00    0.00 359296.00     0.00     8.00     0.00    0.00    0.00    0.00   0.00   0.00

avg-cpu:  %user   %nice %system %iowait  %steal   %idle
           2.77    0.28    6.37    0.00    0.00   90.58

Device:         rrqm/s   wrqm/s     r/s     w/s    rkB/s    wkB/s avgrq-sz avgqu-sz   await r_await w_await  svctm  %util
sda             296.00     0.00 14634.00    0.00 59720.00     0.00     8.16     3.13    0.21    0.21    0.00   0.05  68.80
sdb             249.00     0.00 14532.00    0.00 59124.00     0.00     8.14     3.16    0.22    0.22    0.00   0.05  69.80
sdc             263.00     0.00 14786.00    0.00 60196.00     0.00     8.14     3.01    0.20    0.20    0.00   0.05  68.90
sdd             281.00     0.00 14662.00    0.00 59772.00     0.00     8.15     3.24    0.22    0.22    0.00   0.05  71.80
sde             290.00     0.00 14806.00    0.00 60380.00     0.00     8.16     3.28    0.22    0.22    0.00   0.05  72.00
sdf             263.00     0.00 14603.00    0.00 59464.00     0.00     8.14     3.24    0.22    0.22    0.00   0.05  70.70
sdg               0.00     0.00    4.00    0.00    16.00     0.00     8.00     0.00    0.25    0.25    0.00   0.25   0.10
sdh               0.00     0.00    0.00    0.00     0.00     0.00     0.00     0.00    0.00    0.00    0.00   0.00   0.00
md0               0.00     0.00 89664.00    0.00 358656.00     0.00     8.00     0.00    0.00    0.00    0.00   0.00   0.00

avg-cpu:  %user   %nice %system %iowait  %steal   %idle
           2.74    0.00    7.40    0.00    0.00   89.86

Device:         rrqm/s   wrqm/s     r/s     w/s    rkB/s    wkB/s avgrq-sz avgqu-sz   await r_await w_await  svctm  %util
sda             258.00     0.00 14706.00    0.00 59856.00     0.00     8.14     3.15    0.21    0.21    0.00   0.05  70.10
sdb             281.00     0.00 14631.00    0.00 59648.00     0.00     8.15     3.08    0.21    0.21    0.00   0.05  68.90
sdc             306.00     0.00 14905.00    0.00 60844.00     0.00     8.16     3.17    0.21    0.21    0.00   0.05  72.50
sdd             285.00     0.00 14785.00    0.00 60280.00     0.00     8.15     3.28    0.22    0.22    0.00   0.05  72.40
sde             280.00     0.00 14814.00    0.00 60380.00     0.00     8.15     3.24    0.22    0.22    0.00   0.05  72.50
sdf             297.00     0.00 14563.00    0.00 59440.00     0.00     8.16     3.34    0.23    0.23    0.00   0.05  73.10
sdg               0.00     1.00    9.00    4.00    36.00    48.00    12.92     0.01    0.62    0.00    2.00   0.62   0.80
sdh               0.00     0.00    0.00    0.00     0.00     0.00     0.00     0.00    0.00    0.00    0.00   0.00   0.00
md0               0.00     0.00 90112.00    0.00 360448.00     0.00     8.00     0.00    0.00    0.00    0.00   0.00   0.00

avg-cpu:  %user   %nice %system %iowait  %steal   %idle
           2.76    0.00    6.91    0.00    0.00   90.33

Device:         rrqm/s   wrqm/s     r/s     w/s    rkB/s    wkB/s avgrq-sz avgqu-sz   await r_await w_await  svctm  %util
sda             259.00     0.00 14831.00    0.00 60360.00     0.00     8.14     3.04    0.20    0.20    0.00   0.05  68.80
sdb             283.00     0.00 14995.00    0.00 61112.00     0.00     8.15     3.10    0.21    0.21    0.00   0.05  69.80
sdc             267.00     0.00 14970.00    0.00 60948.00     0.00     8.14     3.00    0.20    0.20    0.00   0.05  68.80
sdd             268.00     0.00 14577.00    0.00 59380.00     0.00     8.15     3.09    0.21    0.21    0.00   0.05  70.00
sde             257.00     0.00 15003.00    0.00 61040.00     0.00     8.14     3.25    0.22    0.22    0.00   0.05  70.30
sdf             284.00     0.00 14760.00    0.00 60172.00     0.00     8.15     3.26    0.22    0.22    0.00   0.05  71.30
sdg               0.00     0.00    0.00    0.00     0.00     0.00     0.00     0.00    0.00    0.00    0.00   0.00   0.00
sdh               0.00     0.00    0.00    0.00     0.00     0.00     0.00     0.00    0.00    0.00    0.00   0.00   0.00
md0               0.00     0.00 90752.00    0.00 363008.00     0.00     8.00     0.00    0.00    0.00    0.00   0.00   0.00

avg-cpu:  %user   %nice %system %iowait  %steal   %idle
           2.78    0.00    6.11    0.00    0.00   91.11

Device:         rrqm/s   wrqm/s     r/s     w/s    rkB/s    wkB/s avgrq-sz avgqu-sz   await r_await w_await  svctm  %util
sda             292.00     0.00 14925.00    0.00 60864.00     0.00     8.16     3.17    0.21    0.21    0.00   0.05  68.40
sdb             288.00     0.00 14965.00    0.00 61012.00     0.00     8.15     3.13    0.21    0.21    0.00   0.05  70.10
sdc             267.00     0.00 14603.00    0.00 59480.00     0.00     8.15     3.03    0.21    0.21    0.00   0.05  69.00
sdd             294.00     0.00 14829.00    0.00 60492.00     0.00     8.16     3.17    0.21    0.21    0.00   0.05  71.20
sde             268.00     0.00 14592.00    0.00 59440.00     0.00     8.15     3.12    0.21    0.21    0.00   0.05  71.00
sdf             270.00     0.00 14838.00    0.00 60436.00     0.00     8.15     3.33    0.22    0.22    0.00   0.05  71.40
sdg               0.00     0.00    0.00    0.00     0.00     0.00     0.00     0.00    0.00    0.00    0.00   0.00   0.00
sdh               0.00     0.00    0.00    0.00     0.00     0.00     0.00     0.00    0.00    0.00    0.00   0.00   0.00
md0               0.00     0.00 90432.00    0.00 361728.00     0.00     8.00     0.00    0.00    0.00    0.00   0.00   0.00

avg-cpu:  %user   %nice %system %iowait  %steal   %idle
           2.79    0.00    5.59    0.00    0.00   91.62

Device:         rrqm/s   wrqm/s     r/s     w/s    rkB/s    wkB/s avgrq-sz avgqu-sz   await r_await w_await  svctm  %util
sda             331.00     0.00 14809.00    0.00 60564.00     0.00     8.18     3.06    0.21    0.21    0.00   0.05  69.40
sdb             243.00     0.00 14775.00    0.00 60072.00     0.00     8.13     3.27    0.22    0.22    0.00   0.05  70.30
sdc             279.00     0.00 14526.00    0.00 59220.00     0.00     8.15     3.17    0.22    0.22    0.00   0.05  71.10
sdd             261.00     0.00 14844.00    0.00 60420.00     0.00     8.14     3.25    0.22    0.22    0.00   0.05  73.00
sde             294.00     0.00 14753.00    0.00 60188.00     0.00     8.16     3.36    0.23    0.23    0.00   0.05  73.50
sdf             280.00     0.00 14969.00    0.00 60996.00     0.00     8.15     3.37    0.23    0.23    0.00   0.05  72.20
sdg               0.00     0.00    0.00    0.00     0.00     0.00     0.00     0.00    0.00    0.00    0.00   0.00   0.00
sdh               0.00     0.00    0.00    0.00     0.00     0.00     0.00     0.00    0.00    0.00    0.00   0.00   0.00
md0               0.00     0.00 90354.00    0.00 361416.00     0.00     8.00     0.00    0.00    0.00    0.00   0.00   0.00

avg-cpu:  %user   %nice %system %iowait  %steal   %idle
           2.65    0.00    9.02    0.00    0.00   88.33

Device:         rrqm/s   wrqm/s     r/s     w/s    rkB/s    wkB/s avgrq-sz avgqu-sz   await r_await w_await  svctm  %util
sda             264.00     0.00 14954.00    0.00 60872.00     0.00     8.14     3.17    0.21    0.21    0.00   0.05  69.50
sdb             294.00     0.00 14854.00    0.00 60592.00     0.00     8.16     3.23    0.22    0.22    0.00   0.05  68.80
sdc             276.00     0.00 14929.00    0.00 60820.00     0.00     8.15     3.23    0.22    0.22    0.00   0.05  70.70
sdd             305.00     0.00 14766.00    0.00 60284.00     0.00     8.17     3.16    0.21    0.21    0.00   0.05  70.80
sde             278.00     0.00 14762.00    0.00 60156.00     0.00     8.15     3.12    0.21    0.21    0.00   0.05  71.30
sdf             277.00     0.00 14926.00    0.00 60812.00     0.00     8.15     3.31    0.22    0.22    0.00   0.05  72.90
sdg               0.00     2.00    1.00   23.00    16.00   240.00    21.33     0.03    1.21    2.00    1.17   0.12   0.30
sdh               0.00     0.00    0.00    0.00     0.00     0.00     0.00     0.00    0.00    0.00    0.00   0.00   0.00
md0               0.00     0.00 90894.00    0.00 363576.00     0.00     8.00     0.00    0.00    0.00    0.00   0.00   0.00

avg-cpu:  %user   %nice %system %iowait  %steal   %idle
           1.78    0.00   12.69    0.00    0.00   85.53

Device:         rrqm/s   wrqm/s     r/s     w/s    rkB/s    wkB/s avgrq-sz avgqu-sz   await r_await w_await  svctm  %util
sda             274.00     0.00 14750.00    0.00 60096.00     0.00     8.15     3.19    0.22    0.22    0.00   0.05  68.70
sdb             290.00     0.00 14779.00    0.00 60276.00     0.00     8.16     3.11    0.21    0.21    0.00   0.05  70.90
sdc             307.00     0.00 14887.00    0.00 60776.00     0.00     8.16     3.22    0.22    0.22    0.00   0.05  71.20
sdd             278.00     0.00 14892.00    0.00 60680.00     0.00     8.15     3.25    0.22    0.22    0.00   0.05  72.10
sde             281.00     0.00 14763.00    0.00 60180.00     0.00     8.15     3.25    0.22    0.22    0.00   0.05  73.20
sdf             281.00     0.00 14933.00    0.00 60856.00     0.00     8.15     3.25    0.22    0.22    0.00   0.05  71.90
sdg               0.00     0.00    0.00    0.00     0.00     0.00     0.00     0.00    0.00    0.00    0.00   0.00   0.00
sdh               0.00     0.00    0.00    0.00     0.00     0.00     0.00     0.00    0.00    0.00    0.00   0.00   0.00
md0               0.00     0.00 90701.00    0.00 362804.00     0.00     8.00     0.00    0.00    0.00    0.00   0.00   0.00

