Linux 4.17.2 (bench) 	08/04/2018 	_x86_64_	(4 CPU)

avg-cpu:  %user   %nice %system %iowait  %steal   %idle
          10.25    0.02    4.23    2.79    0.00   82.71

Device:         rrqm/s   wrqm/s     r/s     w/s    rkB/s    wkB/s avgrq-sz avgqu-sz   await r_await w_await  svctm  %util
sda              56.51     4.16 1749.67  100.52 21465.65  3075.94    26.53     1.05    0.57    0.26    5.92   0.06  11.14
sdb              56.30     4.12 1749.70  100.66 21455.22  3072.66    26.51     1.05    0.57    0.26    5.85   0.06  11.01
sdc              93.94     4.18 1709.96  100.22 21447.50  3075.08    27.09     1.47    0.81    0.44    7.12   0.08  14.52
sdd              87.52     4.15 1715.57  100.29 21432.62  3071.35    26.99     1.48    0.81    0.43    7.33   0.08  14.61
sde              89.50     4.19 1720.62  100.38 21491.59  3075.51    26.98     1.50    0.82    0.44    7.44   0.08  14.64
sdf              86.67     4.17 1722.71  100.33 21473.18  3072.44    26.93     1.54    0.85    0.44    7.90   0.08  14.67
sdg               0.00     3.16   27.01   73.21   326.68   391.91    14.34     0.44    4.38    0.20    5.93   0.08   0.79
sdh               0.00     0.13    0.02    0.23     2.17     4.96    56.82     0.00    1.15    0.65    1.19   0.21   0.01
md0               0.00     0.00 10846.37  470.98 147135.75 21054.26    29.72     0.00    0.00    0.00    0.00   0.00   0.00

avg-cpu:  %user   %nice %system %iowait  %steal   %idle
          13.92    0.01   10.92    0.20    0.00   74.95

Device:         rrqm/s   wrqm/s     r/s     w/s    rkB/s    wkB/s avgrq-sz avgqu-sz   await r_await w_await  svctm  %util
sda               0.00     0.00   57.75    0.00   231.00     0.00     8.00     0.01    0.10    0.10    0.00   0.09   0.55
sdb               0.00     0.00   56.55    0.00   226.20     0.00     8.00     0.01    0.11    0.11    0.00   0.11   0.62
sdc               0.00     0.00   60.35    0.00   241.40     0.00     8.00     0.01    0.11    0.11    0.00   0.10   0.63
sdd               0.00     0.00   57.85    0.00   231.40     0.00     8.00     0.01    0.11    0.11    0.00   0.11   0.62
sde               0.00     0.00   54.15    0.00   216.60     0.00     8.00     0.01    0.12    0.12    0.00   0.11   0.60
sdf               0.00     0.00   58.15    0.00   232.60     0.00     8.00     0.01    0.10    0.10    0.00   0.09   0.55
sdg               0.00     4.15   67.10   91.25   272.20   459.40     9.24     0.51    3.20    0.13    5.45   0.08   1.22
sdh               0.00     0.00    0.00    0.00     0.00     0.00     0.00     0.00    0.00    0.00    0.00   0.00   0.00
md0               0.00     0.00  344.80    0.00  1379.20     0.00     8.00     0.00    0.00    0.00    0.00   0.00   0.00

