Linux 4.17.2 (bench) 	08/04/2018 	_x86_64_	(4 CPU)

avg-cpu:  %user   %nice %system %iowait  %steal   %idle
          10.25    0.02    4.23    2.79    0.00   82.71

Device:         rrqm/s   wrqm/s     r/s     w/s    rkB/s    wkB/s avgrq-sz avgqu-sz   await r_await w_await  svctm  %util
sda              56.52     4.16 1749.57  100.54 21467.04  3076.36    26.53     1.05    0.57    0.26    5.92   0.06  11.13
sdb              56.31     4.12 1749.59  100.67 21456.61  3073.09    26.51     1.05    0.57    0.26    5.85   0.06  11.01
sdc              93.95     4.18 1709.85  100.23 21448.89  3075.50    27.10     1.47    0.81    0.44    7.12   0.08  14.52
sdd              87.54     4.15 1715.46  100.30 21434.00  3071.77    26.99     1.48    0.81    0.43    7.33   0.08  14.61
sde              89.51     4.19 1720.51  100.39 21492.98  3075.94    26.99     1.50    0.82    0.44    7.44   0.08  14.64
sdf              86.68     4.17 1722.59  100.34 21474.57  3072.86    26.93     1.54    0.85    0.44    7.90   0.08  14.67
sdg               0.00     3.16   27.01   73.22   326.69   391.91    14.34     0.44    4.38    0.20    5.93   0.08   0.79
sdh               0.00     0.13    0.02    0.23     2.17     4.96    56.82     0.00    1.15    0.65    1.19   0.21   0.01
md0               0.00     0.00 10845.77  471.05 147146.61 21057.16    29.73     0.00    0.00    0.00    0.00   0.00   0.00

avg-cpu:  %user   %nice %system %iowait  %steal   %idle
           0.75    0.00   23.31    0.75    0.00   75.19

Device:         rrqm/s   wrqm/s     r/s     w/s    rkB/s    wkB/s avgrq-sz avgqu-sz   await r_await w_await  svctm  %util
sda               0.00     0.00 20126.00    0.00 80504.00     0.00     8.00     2.37    0.12    0.12    0.00   0.04  82.20
sdb               0.00     0.00 19911.00    0.00 79644.00     0.00     8.00     2.23    0.11    0.11    0.00   0.04  79.80
sdc               0.00     0.00 20015.00    0.00 80060.00     0.00     8.00     2.61    0.13    0.13    0.00   0.04  84.10
sdd               0.00     0.00 20016.00    0.00 80064.00     0.00     8.00     2.63    0.13    0.13    0.00   0.04  84.50
sde               0.00     0.00 19888.00    0.00 79552.00     0.00     8.00     2.56    0.13    0.13    0.00   0.04  83.30
sdf               0.00     0.00 19933.00    0.00 79732.00     0.00     8.00     2.53    0.13    0.13    0.00   0.04  83.20
sdg               0.00    17.00   27.00   66.00   432.00  1248.00    36.13     0.19    2.03    0.30    2.74   0.14   1.30
sdh               0.00     0.00    0.00    0.00     0.00     0.00     0.00     0.00    0.00    0.00    0.00   0.00   0.00
md0               0.00     0.00 119842.00    0.00 479368.00     0.00     8.00     0.00    0.00    0.00    0.00   0.00   0.00

avg-cpu:  %user   %nice %system %iowait  %steal   %idle
           1.00    0.00   23.50    0.50    0.00   75.00

Device:         rrqm/s   wrqm/s     r/s     w/s    rkB/s    wkB/s avgrq-sz avgqu-sz   await r_await w_await  svctm  %util
sda               0.00     0.00 18628.00    0.00 74512.00     0.00     8.00     2.06    0.11    0.11    0.00   0.04  77.60
sdb               0.00     0.00 18567.00    0.00 74268.00     0.00     8.00     2.08    0.11    0.11    0.00   0.04  79.20
sdc               0.00     0.00 18547.00    0.00 74188.00     0.00     8.00     2.42    0.13    0.13    0.00   0.04  82.00
sdd               0.00     0.00 18537.00    0.00 74148.00     0.00     8.00     2.40    0.13    0.13    0.00   0.04  81.40
sde               0.00     0.00 18719.00    0.00 74876.00     0.00     8.00     2.30    0.12    0.12    0.00   0.04  80.80
sdf               0.00     0.00 18452.00    0.00 73808.00     0.00     8.00     2.37    0.13    0.13    0.00   0.04  81.00
sdg               0.00     0.00    0.00    0.00     0.00     0.00     0.00     0.00    0.00    0.00    0.00   0.00   0.00
sdh               0.00     0.00    0.00    0.00     0.00     0.00     0.00     0.00    0.00    0.00    0.00   0.00   0.00
md0               0.00     0.00 111467.00    0.00 445868.00     0.00     8.00     0.00    0.00    0.00    0.00   0.00   0.00

avg-cpu:  %user   %nice %system %iowait  %steal   %idle
           1.50    0.00   23.25    0.50    0.00   74.75

Device:         rrqm/s   wrqm/s     r/s     w/s    rkB/s    wkB/s avgrq-sz avgqu-sz   await r_await w_await  svctm  %util
sda               0.00     0.00 16785.00    0.00 67140.00     0.00     8.00     1.81    0.11    0.11    0.00   0.04  74.00
sdb               0.00     0.00 16761.00    0.00 67044.00     0.00     8.00     1.76    0.11    0.11    0.00   0.04  72.50
sdc               0.00     0.00 16771.00    0.00 67084.00     0.00     8.00     2.08    0.12    0.12    0.00   0.05  79.20
sdd               0.00     0.00 16701.00    0.00 66804.00     0.00     8.00     2.04    0.12    0.12    0.00   0.05  77.80
sde               0.00     0.00 16844.00    0.00 67376.00     0.00     8.00     2.13    0.13    0.13    0.00   0.05  76.90
sdf               0.00     0.00 16746.00    0.00 66984.00     0.00     8.00     2.03    0.12    0.12    0.00   0.05  77.40
sdg               0.00     1.00    7.00    2.00    28.00    24.00    11.56     0.01    1.00    0.14    4.00   1.00   0.90
sdh               0.00     0.00    0.00    0.00     0.00     0.00     0.00     0.00    0.00    0.00    0.00   0.00   0.00
md0               0.00     0.00 100601.00    0.00 402404.00     0.00     8.00     0.00    0.00    0.00    0.00   0.00   0.00

avg-cpu:  %user   %nice %system %iowait  %steal   %idle
           1.25    0.00   23.06    0.50    0.00   75.19

Device:         rrqm/s   wrqm/s     r/s     w/s    rkB/s    wkB/s avgrq-sz avgqu-sz   await r_await w_await  svctm  %util
sda               0.00     0.00 13921.00    0.00 55684.00     0.00     8.00     1.43    0.10    0.10    0.00   0.05  64.40
sdb               0.00     0.00 14133.00    0.00 56532.00     0.00     8.00     1.49    0.11    0.11    0.00   0.05  65.20
sdc               0.00     0.00 14169.00    0.00 56676.00     0.00     8.00     1.61    0.11    0.11    0.00   0.05  70.70
sdd               0.00     0.00 13980.00    0.00 55920.00     0.00     8.00     1.68    0.12    0.12    0.00   0.05  69.00
sde               0.00     0.00 14052.00    0.00 56208.00     0.00     8.00     1.73    0.12    0.12    0.00   0.05  71.30
sdf               0.00     0.00 14211.00    0.00 56844.00     0.00     8.00     1.75    0.12    0.12    0.00   0.05  70.60
sdg               0.00     0.00    0.00    0.00     0.00     0.00     0.00     0.00    0.00    0.00    0.00   0.00   0.00
sdh               0.00     0.00    0.00    0.00     0.00     0.00     0.00     0.00    0.00    0.00    0.00   0.00   0.00
md0               0.00     0.00 84461.00    0.00 337844.00     0.00     8.00     0.00    0.00    0.00    0.00   0.00   0.00

avg-cpu:  %user   %nice %system %iowait  %steal   %idle
           2.25    0.00   22.25    0.50    0.00   75.00

Device:         rrqm/s   wrqm/s     r/s     w/s    rkB/s    wkB/s avgrq-sz avgqu-sz   await r_await w_await  svctm  %util
sda               0.00     0.00 10095.00    0.00 40380.00     0.00     8.00     1.04    0.10    0.10    0.00   0.05  51.00
sdb               0.00     0.00 10190.00    0.00 40760.00     0.00     8.00     1.05    0.10    0.10    0.00   0.05  52.20
sdc               0.00     0.00 10050.00    0.00 40200.00     0.00     8.00     1.14    0.11    0.11    0.00   0.06  56.60
sdd               0.00     0.00 10390.00    0.00 41560.00     0.00     8.00     1.12    0.11    0.11    0.00   0.05  55.20
sde               0.00     0.00 10042.00    0.00 40168.00     0.00     8.00     1.14    0.11    0.11    0.00   0.06  56.80
sdf               0.00     0.00 10148.00    0.00 40592.00     0.00     8.00     1.18    0.12    0.12    0.00   0.06  56.70
sdg               0.00     0.00    0.00    0.00     0.00     0.00     0.00     0.00    0.00    0.00    0.00   0.00   0.00
sdh               0.00     0.00    0.00    0.00     0.00     0.00     0.00     0.00    0.00    0.00    0.00   0.00   0.00
md0               0.00     0.00 60904.00    0.00 243616.00     0.00     8.00     0.00    0.00    0.00    0.00   0.00   0.00

avg-cpu:  %user   %nice %system %iowait  %steal   %idle
           3.08    0.00   18.72    0.26    0.00   77.95

Device:         rrqm/s   wrqm/s     r/s     w/s    rkB/s    wkB/s avgrq-sz avgqu-sz   await r_await w_await  svctm  %util
sda               0.00     0.00 5329.00    0.00 21316.00     0.00     8.00     0.50    0.09    0.09    0.00   0.07  35.50
sdb               0.00     0.00 5270.00    0.00 21080.00     0.00     8.00     0.53    0.10    0.10    0.00   0.07  36.30
sdc               0.00     0.00 5245.00    0.00 20980.00     0.00     8.00     0.63    0.12    0.12    0.00   0.08  40.40
sdd               0.00     0.00 5206.00    0.00 20824.00     0.00     8.00     0.56    0.11    0.11    0.00   0.07  38.10
sde               0.00     0.00 5143.00    0.00 20572.00     0.00     8.00     0.59    0.11    0.11    0.00   0.07  38.40
sdf               0.00     0.00 5216.00    0.00 20864.00     0.00     8.00     0.59    0.11    0.11    0.00   0.07  38.60
sdg               0.00     0.00    0.00    0.00     0.00     0.00     0.00     0.00    0.00    0.00    0.00   0.00   0.00
sdh               0.00     0.00    0.00    0.00     0.00     0.00     0.00     0.00    0.00    0.00    0.00   0.00   0.00
md0               0.00     0.00 31408.00    0.00 125632.00     0.00     8.00     0.00    0.00    0.00    0.00   0.00   0.00

avg-cpu:  %user   %nice %system %iowait  %steal   %idle
           3.30    0.00   18.27    0.00    0.00   78.43

Device:         rrqm/s   wrqm/s     r/s     w/s    rkB/s    wkB/s avgrq-sz avgqu-sz   await r_await w_await  svctm  %util
sda               0.00     0.00 1842.00    0.00  7368.00     0.00     8.00     0.16    0.09    0.09    0.00   0.07  13.80
sdb               0.00     0.00 1852.00    0.00  7408.00     0.00     8.00     0.20    0.11    0.11    0.00   0.09  16.80
sdc               0.00     0.00 1906.00    0.00  7624.00     0.00     8.00     0.19    0.10    0.10    0.00   0.09  16.30
sdd               0.00     0.00 1845.00    0.00  7380.00     0.00     8.00     0.18    0.10    0.10    0.00   0.08  15.60
sde               0.00     0.00 1853.00    0.00  7412.00     0.00     8.00     0.20    0.11    0.11    0.00   0.09  16.90
sdf               0.00     0.00 1845.00    0.00  7380.00     0.00     8.00     0.19    0.10    0.10    0.00   0.09  16.20
sdg               0.00     0.00    0.00    0.00     0.00     0.00     0.00     0.00    0.00    0.00    0.00   0.00   0.00
sdh               0.00     0.00    0.00    0.00     0.00     0.00     0.00     0.00    0.00    0.00    0.00   0.00   0.00
md0               0.00     0.00 11139.00    0.00 44556.00     0.00     8.00     0.00    0.00    0.00    0.00   0.00   0.00

avg-cpu:  %user   %nice %system %iowait  %steal   %idle
           3.29    0.25   20.25    5.32    0.00   70.89

Device:         rrqm/s   wrqm/s     r/s     w/s    rkB/s    wkB/s avgrq-sz avgqu-sz   await r_await w_await  svctm  %util
sda               0.00     0.00  514.00    0.00  2056.00     0.00     8.00     0.04    0.09    0.09    0.00   0.08   4.30
sdb               0.00     0.00  546.00    0.00  2184.00     0.00     8.00     0.06    0.10    0.10    0.00   0.10   5.50
sdc               0.00     0.00  527.00    0.00  2108.00     0.00     8.00     0.07    0.13    0.13    0.00   0.12   6.10
sdd               0.00     0.00  546.00    0.00  2184.00     0.00     8.00     0.06    0.10    0.10    0.00   0.10   5.70
sde               0.00     0.00  548.00    0.00  2192.00     0.00     8.00     0.06    0.11    0.11    0.00   0.11   6.00
sdf               0.00     0.00  530.00    0.00  2120.00     0.00     8.00     0.06    0.11    0.11    0.00   0.10   5.50
sdg               0.00     0.00 1349.00 1829.00  5444.00  9132.00     9.17    16.07    5.06    0.21    8.63   0.09  27.70
sdh               0.00     0.00    0.00    0.00     0.00     0.00     0.00     0.00    0.00    0.00    0.00   0.00   0.00
md0               0.00     0.00 3210.00    0.00 12840.00     0.00     8.00     0.00    0.00    0.00    0.00   0.00   0.00

avg-cpu:  %user   %nice %system %iowait  %steal   %idle
           3.27    0.00   20.40    0.00    0.00   76.32

Device:         rrqm/s   wrqm/s     r/s     w/s    rkB/s    wkB/s avgrq-sz avgqu-sz   await r_await w_await  svctm  %util
sda               0.00     0.00  120.00    0.00   480.00     0.00     8.00     0.02    0.13    0.13    0.00   0.14   1.70
sdb               0.00     0.00  122.00    0.00   488.00     0.00     8.00     0.02    0.13    0.13    0.00   0.13   1.60
sdc               0.00     0.00  130.00    0.00   520.00     0.00     8.00     0.01    0.09    0.09    0.00   0.09   1.20
sdd               0.00     0.00  129.00    0.00   516.00     0.00     8.00     0.02    0.12    0.12    0.00   0.12   1.60
sde               0.00     0.00  129.00    0.00   516.00     0.00     8.00     0.02    0.15    0.15    0.00   0.15   1.90
sdf               0.00     0.00  126.00    0.00   504.00     0.00     8.00     0.02    0.17    0.17    0.00   0.17   2.20
sdg               0.00     0.00    0.00    0.00     0.00     0.00     0.00     0.00    0.00    0.00    0.00   0.00   0.00
sdh               0.00     0.00    0.00    0.00     0.00     0.00     0.00     0.00    0.00    0.00    0.00   0.00   0.00
md0               0.00     0.00  756.00    0.00  3024.00     0.00     8.00     0.00    0.00    0.00    0.00   0.00   0.00

