Linux 4.17.2 (bench) 	08/04/2018 	_x86_64_	(4 CPU)

avg-cpu:  %user   %nice %system %iowait  %steal   %idle
          10.25    0.02    4.21    2.79    0.00   82.74

Device:         rrqm/s   wrqm/s     r/s     w/s    rkB/s    wkB/s avgrq-sz avgqu-sz   await r_await w_await  svctm  %util
sda              56.59     4.17 1749.63  100.68 21478.75  3080.66    26.55     1.05    0.57    0.26    5.92   0.06  11.14
sdb              56.38     4.13 1749.66  100.81 21468.31  3077.39    26.53     1.05    0.57    0.26    5.85   0.06  11.01
sdc              94.08     4.19 1709.86  100.37 21460.58  3079.81    27.11     1.47    0.81    0.44    7.12   0.08  14.52
sdd              87.65     4.16 1715.47  100.44 21445.67  3076.07    27.01     1.48    0.82    0.43    7.33   0.08  14.62
sde              89.63     4.20 1720.54  100.53 21504.76  3080.24    27.00     1.50    0.82    0.44    7.44   0.08  14.64
sdf              86.80     4.17 1722.63  100.48 21486.32  3077.16    26.95     1.54    0.85    0.44    7.90   0.08  14.67
sdg               0.00     3.16   26.98   73.23   326.66   391.97    14.34     0.44    4.39    0.20    5.93   0.08   0.79
sdh               0.00     0.13    0.02    0.23     2.17     4.97    56.82     0.00    1.15    0.65    1.19   0.21   0.01
md0               0.00     0.00 10846.59  471.71 147227.54 21086.62    29.74     0.00    0.00    0.00    0.00   0.00   0.00

avg-cpu:  %user   %nice %system %iowait  %steal   %idle
           1.79    0.00    8.18   13.30    0.00   76.73

Device:         rrqm/s   wrqm/s     r/s     w/s    rkB/s    wkB/s avgrq-sz avgqu-sz   await r_await w_await  svctm  %util
sda               0.00     0.00 6745.00    0.00 26980.00     0.00     8.00     0.70    0.10    0.10    0.00   0.06  43.20
sdb               0.00     0.00 6778.00    0.00 27112.00     0.00     8.00     0.71    0.11    0.11    0.00   0.06  43.80
sdc               0.00     0.00 6695.00    0.00 26784.00     0.00     8.00     0.77    0.12    0.12    0.00   0.07  48.00
sdd               0.00     0.00 6749.00    0.00 26996.00     0.00     8.00     0.82    0.12    0.12    0.00   0.07  48.90
sde               0.00     0.00 6810.00    0.00 27240.00     0.00     8.00     0.80    0.12    0.12    0.00   0.07  47.90
sdf               0.00     0.00 6652.00    0.00 26608.00     0.00     8.00     0.76    0.11    0.11    0.00   0.07  49.00
sdg               0.00     0.00    0.00    0.00     0.00     0.00     0.00     0.00    0.00    0.00    0.00   0.00   0.00
sdh               0.00     0.00    0.00    0.00     0.00     0.00     0.00     0.00    0.00    0.00    0.00   0.00   0.00
md0               0.00     0.00 40420.00    0.00 161680.00     0.00     8.00     0.00    0.00    0.00    0.00   0.00   0.00

