Linux 4.17.2 (bench) 	08/04/2018 	_x86_64_	(4 CPU)

avg-cpu:  %user   %nice %system %iowait  %steal   %idle
          10.25    0.02    4.28    2.82    0.00   82.64

Device:         rrqm/s   wrqm/s     r/s     w/s    rkB/s    wkB/s avgrq-sz avgqu-sz   await r_await w_await  svctm  %util
sda              57.69     4.14 1758.36  100.08 21458.79  3062.43    26.39     1.05    0.57    0.26    5.92   0.06  11.17
sdb              57.48     4.10 1758.39  100.22 21448.41  3059.18    26.37     1.05    0.57    0.26    5.85   0.06  11.05
sdc              94.97     4.16 1718.81   99.78 21440.74  3061.58    26.95     1.47    0.81    0.44    7.12   0.08  14.55
sdd              88.58     4.13 1724.38   99.85 21425.87  3057.87    26.84     1.48    0.81    0.43    7.33   0.08  14.64
sde              90.54     4.17 1729.39   99.94 21484.45  3062.01    26.84     1.50    0.82    0.44    7.44   0.08  14.66
sdf              87.73     4.15 1731.48   99.89 21466.16  3058.95    26.78     1.54    0.84    0.43    7.90   0.08  14.69
sdg               0.00     3.16   27.10   73.16   326.83   391.72    14.33     0.44    4.38    0.20    5.93   0.08   0.79
sdh               0.00     0.13    0.02    0.23     2.16     4.94    56.82     0.00    1.15    0.65    1.19   0.21   0.01
md0               0.00     0.00 10905.54  468.92 147040.94 20961.84    29.54     0.00    0.00    0.00    0.00   0.00   0.00

avg-cpu:  %user   %nice %system %iowait  %steal   %idle
           0.51    0.00   17.14    4.86    0.00   77.49

Device:         rrqm/s   wrqm/s     r/s     w/s    rkB/s    wkB/s avgrq-sz avgqu-sz   await r_await w_await  svctm  %util
sda               0.00     0.00 15554.00    0.00 62216.00     0.00     8.00     1.83    0.12    0.12    0.00   0.04  59.00
sdb               0.00     0.00 15276.00    0.00 61104.00     0.00     8.00     1.78    0.12    0.12    0.00   0.04  58.70
sdc               0.00     0.00 15545.00    0.00 62180.00     0.00     8.00     1.98    0.13    0.13    0.00   0.04  65.50
sdd               0.00     0.00 15557.00    0.00 62228.00     0.00     8.00     2.04    0.13    0.13    0.00   0.04  63.10
sde               0.00     0.00 15755.00    0.00 63020.00     0.00     8.00     2.15    0.14    0.14    0.00   0.04  66.10
sdf               0.00     0.00 15537.00    0.00 62148.00     0.00     8.00     2.21    0.14    0.14    0.00   0.05  75.30
sdg               0.00     0.00    0.00    0.00     0.00     0.00     0.00     0.00    0.00    0.00    0.00   0.00   0.00
sdh               0.00     0.00    0.00    0.00     0.00     0.00     0.00     0.00    0.00    0.00    0.00   0.00   0.00
md0               0.00     0.00 93168.00    0.00 372672.00     0.00     8.00     0.00    0.00    0.00    0.00   0.00   0.00

avg-cpu:  %user   %nice %system %iowait  %steal   %idle
           0.83    0.00   10.47    1.65    0.00   87.05

Device:         rrqm/s   wrqm/s     r/s     w/s    rkB/s    wkB/s avgrq-sz avgqu-sz   await r_await w_await  svctm  %util
sda               0.00     0.00 14430.00    0.00 57720.00     0.00     8.00     1.52    0.11    0.11    0.00   0.04  58.10
sdb               0.00     0.00 14199.00    0.00 56796.00     0.00     8.00     1.60    0.11    0.11    0.00   0.04  58.50
sdc               0.00     0.00 14056.00    0.00 56224.00     0.00     8.00     1.65    0.12    0.12    0.00   0.04  62.70
sdd               0.00     0.00 14157.00    0.00 56628.00     0.00     8.00     1.76    0.12    0.12    0.00   0.04  63.30
sde               0.00     0.00 14072.00    0.00 56288.00     0.00     8.00     1.66    0.12    0.12    0.00   0.04  61.80
sdf               0.00     0.00 14168.00    0.00 56672.00     0.00     8.00     1.86    0.13    0.13    0.00   0.05  73.40
sdg               0.00     0.00    0.00    0.00     0.00     0.00     0.00     0.00    0.00    0.00    0.00   0.00   0.00
sdh               0.00     0.00    0.00    0.00     0.00     0.00     0.00     0.00    0.00    0.00    0.00   0.00   0.00
md0               0.00     0.00 85077.00    0.00 340308.00     0.00     8.00     0.00    0.00    0.00    0.00   0.00   0.00

avg-cpu:  %user   %nice %system %iowait  %steal   %idle
           0.79    0.26   15.22    5.77    0.00   77.95

Device:         rrqm/s   wrqm/s     r/s     w/s    rkB/s    wkB/s avgrq-sz avgqu-sz   await r_await w_await  svctm  %util
sda               0.00     0.00 12312.00    0.00 49248.00     0.00     8.00     1.32    0.11    0.11    0.00   0.05  57.10
sdb               0.00     0.00 12448.00    0.00 49792.00     0.00     8.00     1.33    0.11    0.11    0.00   0.05  57.40
sdc               0.00     0.00 12441.00    0.00 49764.00     0.00     8.00     1.46    0.12    0.12    0.00   0.05  60.70
sdd               0.00     0.00 12409.00    0.00 49636.00     0.00     8.00     1.42    0.11    0.11    0.00   0.05  58.10
sde               0.00     0.00 12322.00    0.00 49288.00     0.00     8.00     1.47    0.12    0.12    0.00   0.05  60.00
sdf               0.00     0.00 12192.00    0.00 48768.00     0.00     8.00     1.59    0.13    0.13    0.00   0.06  72.20
sdg               0.00     0.00 3183.00    0.00 12972.00     0.00     8.15     0.40    0.13    0.13    0.00   0.12  39.40
sdh               0.00     0.00    0.00    0.00     0.00     0.00     0.00     0.00    0.00    0.00    0.00   0.00   0.00
md0               0.00     0.00 74124.00    0.00 296496.00     0.00     8.00     0.00    0.00    0.00    0.00   0.00   0.00

avg-cpu:  %user   %nice %system %iowait  %steal   %idle
           0.80    0.00   10.70    1.34    0.00   87.17

Device:         rrqm/s   wrqm/s     r/s     w/s    rkB/s    wkB/s avgrq-sz avgqu-sz   await r_await w_await  svctm  %util
sda               0.00     0.00 10463.00    0.00 41852.00     0.00     8.00     1.07    0.10    0.10    0.00   0.05  53.90
sdb               0.00     0.00 10727.00    0.00 42908.00     0.00     8.00     1.14    0.11    0.11    0.00   0.05  54.30
sdc               0.00     0.00 10568.00    0.00 42272.00     0.00     8.00     1.20    0.11    0.11    0.00   0.06  58.20
sdd               0.00     0.00 10567.00    0.00 42268.00     0.00     8.00     1.24    0.12    0.12    0.00   0.05  58.00
sde               0.00     0.00 10674.00    0.00 42696.00     0.00     8.00     1.26    0.12    0.12    0.00   0.05  58.10
sdf               0.00     0.00 10657.00    0.00 42628.00     0.00     8.00     1.36    0.13    0.13    0.00   0.06  69.20
sdg               0.00     0.00    0.00    0.00     0.00     0.00     0.00     0.00    0.00    0.00    0.00   0.00   0.00
sdh               0.00     0.00    0.00    0.00     0.00     0.00     0.00     0.00    0.00    0.00    0.00   0.00   0.00
md0               0.00     0.00 63652.00    0.00 254608.00     0.00     8.00     0.00    0.00    0.00    0.00   0.00   0.00

avg-cpu:  %user   %nice %system %iowait  %steal   %idle
           1.06    0.00   10.05    0.79    0.00   88.10

Device:         rrqm/s   wrqm/s     r/s     w/s    rkB/s    wkB/s avgrq-sz avgqu-sz   await r_await w_await  svctm  %util
sda               0.00     0.00 8488.00    0.00 33952.00     0.00     8.00     0.88    0.10    0.10    0.00   0.06  47.70
sdb               0.00     0.00 8643.00    0.00 34572.00     0.00     8.00     0.88    0.10    0.10    0.00   0.06  50.00
sdc               0.00     0.00 8716.00    0.00 34864.00     0.00     8.00     0.94    0.11    0.11    0.00   0.06  51.70
sdd               0.00     0.00 8654.00    0.00 34616.00     0.00     8.00     0.95    0.11    0.11    0.00   0.06  51.70
sde               0.00     0.00 8569.00    0.00 34276.00     0.00     8.00     0.98    0.11    0.11    0.00   0.06  54.30
sdf               0.00     0.00 8651.00    0.00 34604.00     0.00     8.00     1.07    0.12    0.12    0.00   0.07  61.40
sdg               0.00     0.00    0.00    0.00     0.00     0.00     0.00     0.00    0.00    0.00    0.00   0.00   0.00
sdh               0.00     0.00    0.00    0.00     0.00     0.00     0.00     0.00    0.00    0.00    0.00   0.00   0.00
md0               0.00     0.00 51720.00    0.00 206880.00     0.00     8.00     0.00    0.00    0.00    0.00   0.00   0.00

avg-cpu:  %user   %nice %system %iowait  %steal   %idle
           1.04    0.00   10.16    0.78    0.00   88.02

Device:         rrqm/s   wrqm/s     r/s     w/s    rkB/s    wkB/s avgrq-sz avgqu-sz   await r_await w_await  svctm  %util
sda               0.00     0.00 6815.00    0.00 27260.00     0.00     8.00     0.73    0.11    0.11    0.00   0.07  45.00
sdb               0.00     0.00 6736.00    0.00 26944.00     0.00     8.00     0.69    0.10    0.10    0.00   0.07  45.00
sdc               0.00     0.00 6736.00    0.00 26944.00     0.00     8.00     0.78    0.12    0.12    0.00   0.07  49.80
sdd               0.00     0.00 6843.00    0.00 27372.00     0.00     8.00     0.81    0.12    0.12    0.00   0.07  49.90
sde               0.00     0.00 6738.00    0.00 26952.00     0.00     8.00     0.77    0.11    0.11    0.00   0.07  47.70
sdf               0.00     0.00 6899.00    0.00 27596.00     0.00     8.00     0.90    0.13    0.13    0.00   0.08  55.60
sdg               0.00     0.00    0.00    0.00     0.00     0.00     0.00     0.00    0.00    0.00    0.00   0.00   0.00
sdh               0.00     0.00    0.00    0.00     0.00     0.00     0.00     0.00    0.00    0.00    0.00   0.00   0.00
md0               0.00     0.00 40758.00    0.00 163032.00     0.00     8.00     0.00    0.00    0.00    0.00   0.00   0.00

