Linux 4.17.2 (bench) 	08/04/2018 	_x86_64_	(4 CPU)

avg-cpu:  %user   %nice %system %iowait  %steal   %idle
          10.25    0.02    4.33    2.86    0.00   82.55

Device:         rrqm/s   wrqm/s     r/s     w/s    rkB/s    wkB/s avgrq-sz avgqu-sz   await r_await w_await  svctm  %util
sda              58.82     4.12 1767.04   99.56 21443.93  3046.41    26.24     1.05    0.56    0.26    5.92   0.06  11.20
sdb              58.61     4.08 1767.06   99.69 21433.59  3043.17    26.22     1.05    0.56    0.26    5.85   0.06  11.08
sdc              95.92     4.14 1727.68   99.25 21425.97  3045.56    26.79     1.47    0.80    0.44    7.12   0.08  14.57
sdd              89.56     4.11 1733.22   99.32 21411.17  3041.87    26.69     1.48    0.81    0.43    7.33   0.08  14.67
sde              91.51     4.15 1738.18   99.42 21469.33  3045.99    26.68     1.50    0.81    0.44    7.44   0.08  14.69
sdf              88.70     4.13 1740.26   99.36 21451.12  3042.94    26.63     1.54    0.84    0.43    7.90   0.08  14.72
sdg               0.00     3.15   27.19   73.10   326.95   391.49    14.33     0.44    4.37    0.20    5.93   0.08   0.79
sdh               0.00     0.12    0.02    0.23     2.15     4.92    56.82     0.00    1.15    0.65    1.19   0.21   0.01
md0               0.00     0.00 10964.33  466.46 146888.83 20852.15    29.35     0.00    0.00    0.00    0.00   0.00   0.00

avg-cpu:  %user   %nice %system %iowait  %steal   %idle
           0.52    0.00    3.92    0.78    0.00   94.78

Device:         rrqm/s   wrqm/s     r/s     w/s    rkB/s    wkB/s avgrq-sz avgqu-sz   await r_await w_await  svctm  %util
sda               0.00     0.00 5201.00    0.00 20804.00     0.00     8.00     0.58    0.11    0.11    0.00   0.03  17.30
sdb               0.00     0.00 5189.00    0.00 20756.00     0.00     8.00     0.59    0.11    0.11    0.00   0.04  18.80
sdc               0.00     0.00 5241.00    0.00 20964.00     0.00     8.00     0.76    0.15    0.15    0.00   0.04  22.40
sdd               0.00     0.00 5242.00    0.00 20968.00     0.00     8.00     0.66    0.13    0.13    0.00   0.04  20.70
sde               0.00     0.00 5128.00    0.00 20512.00     0.00     8.00     0.74    0.14    0.14    0.00   0.05  23.10
sdf               0.00     0.00 5228.00    0.00 20912.00     0.00     8.00     0.67    0.13    0.13    0.00   0.04  19.60
sdg               0.00     0.00    3.00    0.00    88.00     0.00    58.67     0.00    0.00    0.00    0.00   0.00   0.00
sdh               0.00     0.00    0.00    0.00     0.00     0.00     0.00     0.00    0.00    0.00    0.00   0.00   0.00
md0               0.00     0.00 31238.00    0.00 124952.00     0.00     8.00     0.00    0.00    0.00    0.00   0.00   0.00

avg-cpu:  %user   %nice %system %iowait  %steal   %idle
           0.52    0.00    4.66    3.89    0.00   90.93

Device:         rrqm/s   wrqm/s     r/s     w/s    rkB/s    wkB/s avgrq-sz avgqu-sz   await r_await w_await  svctm  %util
sda               0.00     0.00 5048.00    0.00 20192.00     0.00     8.00     0.53    0.10    0.10    0.00   0.03  16.70
sdb               0.00     0.00 5100.00    0.00 20400.00     0.00     8.00     0.69    0.14    0.14    0.00   0.04  20.70
sdc               0.00     0.00 5058.00    0.00 20232.00     0.00     8.00     0.68    0.13    0.13    0.00   0.04  20.80
sdd               0.00     0.00 5076.00    0.00 20304.00     0.00     8.00     0.68    0.13    0.13    0.00   0.04  20.40
sde               0.00     0.00 4978.00    0.00 19912.00     0.00     8.00     0.64    0.13    0.13    0.00   0.04  21.50
sdf               0.00     0.00 5154.00    0.00 20616.00     0.00     8.00     0.68    0.13    0.13    0.00   0.04  21.10
sdg               0.00     0.00    0.00    0.00     0.00     0.00     0.00     0.00    0.00    0.00    0.00   0.00   0.00
sdh               0.00     0.00    0.00    0.00     0.00     0.00     0.00     0.00    0.00    0.00    0.00   0.00   0.00
md0               0.00     0.00 30415.00    0.00 121660.00     0.00     8.00     0.00    0.00    0.00    0.00   0.00   0.00

avg-cpu:  %user   %nice %system %iowait  %steal   %idle
           0.75    0.00    6.28   17.59    0.00   75.38

Device:         rrqm/s   wrqm/s     r/s     w/s    rkB/s    wkB/s avgrq-sz avgqu-sz   await r_await w_await  svctm  %util
sda               0.00     0.00 4973.00    0.00 19892.00     0.00     8.00     0.60    0.12    0.12    0.00   0.04  19.80
sdb               0.00     0.00 5090.00    0.00 20360.00     0.00     8.00     0.63    0.12    0.12    0.00   0.04  19.70
sdc               0.00     0.00 4828.00    0.00 19312.00     0.00     8.00     0.59    0.12    0.12    0.00   0.04  19.30
sdd               0.00     0.00 4979.00    0.00 19916.00     0.00     8.00     0.67    0.13    0.13    0.00   0.04  21.30
sde               0.00     0.00 5046.00    0.00 20184.00     0.00     8.00     0.70    0.14    0.14    0.00   0.04  20.90
sdf               0.00     0.00 4999.00    0.00 19996.00     0.00     8.00     0.65    0.13    0.13    0.00   0.04  20.10
sdg               0.00     0.00    0.00    0.00     0.00     0.00     0.00     0.00    0.00    0.00    0.00   0.00   0.00
sdh               0.00     0.00    0.00    0.00     0.00     0.00     0.00     0.00    0.00    0.00    0.00   0.00   0.00
md0               0.00     0.00 29911.00    0.00 119644.00     0.00     8.00     0.00    0.00    0.00    0.00   0.00   0.00

avg-cpu:  %user   %nice %system %iowait  %steal   %idle
           0.25    0.00    5.84   14.47    0.00   79.44

Device:         rrqm/s   wrqm/s     r/s     w/s    rkB/s    wkB/s avgrq-sz avgqu-sz   await r_await w_await  svctm  %util
sda               0.00     0.00 4700.00    0.00 18800.00     0.00     8.00     0.57    0.12    0.12    0.00   0.04  19.70
sdb               0.00     0.00 4599.00    0.00 18396.00     0.00     8.00     0.49    0.11    0.11    0.00   0.04  17.10
sdc               0.00     0.00 4680.00    0.00 18720.00     0.00     8.00     0.59    0.13    0.13    0.00   0.04  20.30
sdd               0.00     0.00 4655.00    0.00 18620.00     0.00     8.00     0.67    0.14    0.14    0.00   0.05  23.30
sde               0.00     0.00 4773.00    0.00 19092.00     0.00     8.00     0.56    0.12    0.12    0.00   0.04  19.80
sdf               0.00     0.00 4675.00    0.00 18700.00     0.00     8.00     0.57    0.12    0.12    0.00   0.04  19.60
sdg               0.00     0.00    0.00    0.00     0.00     0.00     0.00     0.00    0.00    0.00    0.00   0.00   0.00
sdh               0.00     0.00    0.00    0.00     0.00     0.00     0.00     0.00    0.00    0.00    0.00   0.00   0.00
md0               0.00     0.00 28079.00    0.00 112316.00     0.00     8.00     0.00    0.00    0.00    0.00   0.00   0.00

avg-cpu:  %user   %nice %system %iowait  %steal   %idle
           0.77    0.00    4.64    7.22    0.00   87.37

Device:         rrqm/s   wrqm/s     r/s     w/s    rkB/s    wkB/s avgrq-sz avgqu-sz   await r_await w_await  svctm  %util
sda               0.00     0.00 4297.00    0.00 17188.00     0.00     8.00     0.48    0.11    0.11    0.00   0.04  16.70
sdb               0.00     0.00 4353.00    0.00 17412.00     0.00     8.00     0.50    0.11    0.11    0.00   0.04  18.60
sdc               0.00     0.00 4421.00    0.00 17684.00     0.00     8.00     0.53    0.12    0.12    0.00   0.05  20.50
sdd               0.00     0.00 4396.00    0.00 17584.00     0.00     8.00     0.50    0.11    0.11    0.00   0.04  19.40
sde               0.00     0.00 4431.00    0.00 17724.00     0.00     8.00     0.60    0.13    0.13    0.00   0.05  20.60
sdf               0.00     0.00 4362.00    0.00 17448.00     0.00     8.00     0.55    0.13    0.13    0.00   0.05  19.90
sdg               0.00     0.00    0.00    2.00     0.00     8.00     8.00     0.00    0.00    0.00    0.00   0.00   0.00
sdh               0.00     0.00    0.00    0.00     0.00     0.00     0.00     0.00    0.00    0.00    0.00   0.00   0.00
md0               0.00     0.00 26258.00    0.00 105032.00     0.00     8.00     0.00    0.00    0.00    0.00   0.00   0.00

avg-cpu:  %user   %nice %system %iowait  %steal   %idle
           0.52    0.26    4.66    0.78    0.00   93.78

Device:         rrqm/s   wrqm/s     r/s     w/s    rkB/s    wkB/s avgrq-sz avgqu-sz   await r_await w_await  svctm  %util
sda               0.00     0.00 4115.00    0.00 16460.00     0.00     8.00     0.46    0.11    0.11    0.00   0.04  18.40
sdb               0.00     0.00 4101.00    0.00 16404.00     0.00     8.00     0.47    0.11    0.11    0.00   0.04  17.80
sdc               0.00     0.00 4146.00    0.00 16584.00     0.00     8.00     0.50    0.12    0.12    0.00   0.05  19.40
sdd               0.00     0.00 4138.00    0.00 16552.00     0.00     8.00     0.51    0.12    0.12    0.00   0.05  20.50
sde               0.00     0.00 4221.00    0.00 16884.00     0.00     8.00     0.56    0.13    0.13    0.00   0.05  21.70
sdf               0.00     0.00 4132.00    0.00 16528.00     0.00     8.00     0.47    0.11    0.11    0.00   0.05  19.80
sdg               0.00     0.00   20.00    0.00   128.00     0.00    12.80     0.00    0.05    0.05    0.00   0.05   0.10
sdh               0.00     0.00    0.00    0.00     0.00     0.00     0.00     0.00    0.00    0.00    0.00   0.00   0.00
md0               0.00     0.00 24856.00    0.00 99424.00     0.00     8.00     0.00    0.00    0.00    0.00   0.00   0.00

avg-cpu:  %user   %nice %system %iowait  %steal   %idle
           0.52    0.00    3.91    0.78    0.00   94.79

Device:         rrqm/s   wrqm/s     r/s     w/s    rkB/s    wkB/s avgrq-sz avgqu-sz   await r_await w_await  svctm  %util
sda               0.00     0.00 3906.00    0.00 15624.00     0.00     8.00     0.38    0.10    0.10    0.00   0.04  16.10
sdb               0.00     0.00 4058.00    0.00 16232.00     0.00     8.00     0.52    0.13    0.13    0.00   0.05  18.90
sdc               0.00     0.00 4136.00    0.00 16544.00     0.00     8.00     0.54    0.13    0.13    0.00   0.05  20.30
sdd               0.00     0.00 3983.00    0.00 15932.00     0.00     8.00     0.43    0.11    0.11    0.00   0.04  17.30
sde               0.00     0.00 3876.00    0.00 15504.00     0.00     8.00     0.51    0.13    0.13    0.00   0.05  19.40
sdf               0.00     0.00 3958.00    0.00 15832.00     0.00     8.00     0.51    0.13    0.13    0.00   0.05  20.10
sdg               0.00     0.00    0.00    0.00     0.00     0.00     0.00     0.00    0.00    0.00    0.00   0.00   0.00
sdh               0.00     0.00    0.00    0.00     0.00     0.00     0.00     0.00    0.00    0.00    0.00   0.00   0.00
md0               0.00     0.00 23917.00    0.00 95668.00     0.00     8.00     0.00    0.00    0.00    0.00   0.00   0.00

avg-cpu:  %user   %nice %system %iowait  %steal   %idle
           0.78    0.00    3.89    0.78    0.00   94.56

Device:         rrqm/s   wrqm/s     r/s     w/s    rkB/s    wkB/s avgrq-sz avgqu-sz   await r_await w_await  svctm  %util
sda               0.00     0.00 3730.00    0.00 14920.00     0.00     8.00     0.43    0.11    0.11    0.00   0.05  18.20
sdb               0.00     0.00 3841.00    0.00 15364.00     0.00     8.00     0.37    0.10    0.10    0.00   0.04  16.50
sdc               0.00     0.00 3881.00    0.00 15524.00     0.00     8.00     0.51    0.13    0.13    0.00   0.05  20.30
sdd               0.00     0.00 3738.00    0.00 14952.00     0.00     8.00     0.43    0.12    0.12    0.00   0.05  18.20
sde               0.00     0.00 3851.00    0.00 15404.00     0.00     8.00     0.49    0.13    0.13    0.00   0.05  20.80
sdf               0.00     0.00 3790.00    0.00 15160.00     0.00     8.00     0.46    0.12    0.12    0.00   0.05  18.60
sdg               0.00     0.00    0.00    0.00     0.00     0.00     0.00     0.00    0.00    0.00    0.00   0.00   0.00
sdh               0.00     0.00    0.00    0.00     0.00     0.00     0.00     0.00    0.00    0.00    0.00   0.00   0.00
md0               0.00     0.00 22829.00    0.00 91316.00     0.00     8.00     0.00    0.00    0.00    0.00   0.00   0.00

avg-cpu:  %user   %nice %system %iowait  %steal   %idle
           0.78    0.00    3.89    1.04    0.00   94.30

Device:         rrqm/s   wrqm/s     r/s     w/s    rkB/s    wkB/s avgrq-sz avgqu-sz   await r_await w_await  svctm  %util
sda               0.00     0.00 3586.00    0.00 14344.00     0.00     8.00     0.35    0.10    0.10    0.00   0.04  15.50
sdb               0.00     0.00 3571.00    0.00 14284.00     0.00     8.00     0.38    0.11    0.11    0.00   0.05  17.50
sdc               0.00     0.00 3498.00    0.00 13992.00     0.00     8.00     0.47    0.14    0.14    0.00   0.06  20.20
sdd               0.00     0.00 3541.00    0.00 14164.00     0.00     8.00     0.37    0.11    0.11    0.00   0.05  17.50
sde               0.00     0.00 3577.00    0.00 14308.00     0.00     8.00     0.48    0.13    0.13    0.00   0.06  21.90
sdf               0.00     0.00 3507.00    0.00 14028.00     0.00     8.00     0.45    0.13    0.13    0.00   0.06  19.80
sdg               0.00     0.00    0.00    0.00     0.00     0.00     0.00     0.00    0.00    0.00    0.00   0.00   0.00
sdh               0.00     0.00    0.00    0.00     0.00     0.00     0.00     0.00    0.00    0.00    0.00   0.00   0.00
md0               0.00     0.00 21282.00    0.00 85128.00     0.00     8.00     0.00    0.00    0.00    0.00   0.00   0.00

avg-cpu:  %user   %nice %system %iowait  %steal   %idle
           0.51    0.00    5.13    6.15    0.00   88.21

Device:         rrqm/s   wrqm/s     r/s     w/s    rkB/s    wkB/s avgrq-sz avgqu-sz   await r_await w_await  svctm  %util
sda               0.00     0.00 3326.00    0.00 13304.00     0.00     8.00     0.38    0.11    0.11    0.00   0.06  18.60
sdb               0.00     0.00 3315.00    0.00 13260.00     0.00     8.00     0.36    0.11    0.11    0.00   0.05  15.80
sdc               0.00     0.00 3370.00    0.00 13480.00     0.00     8.00     0.39    0.12    0.12    0.00   0.06  18.60
sdd               0.00     0.00 3244.00    0.00 12976.00     0.00     8.00     0.42    0.13    0.13    0.00   0.06  20.20
sde               0.00     0.00 3307.00    0.00 13228.00     0.00     8.00     0.36    0.11    0.11    0.00   0.05  17.60
sdf               0.00     0.00 3290.00    0.00 13160.00     0.00     8.00     0.39    0.12    0.12    0.00   0.06  18.20
sdg               0.00     2.00   22.00    3.00   308.00    48.00    28.48     0.01    0.24    0.27    0.00   0.24   0.60
sdh               0.00     0.00    0.00    0.00     0.00     0.00     0.00     0.00    0.00    0.00    0.00   0.00   0.00
md0               0.00     0.00 19852.00    0.00 79408.00     0.00     8.00     0.00    0.00    0.00    0.00   0.00   0.00

avg-cpu:  %user   %nice %system %iowait  %steal   %idle
           0.52    0.00    4.64    5.15    0.00   89.69

Device:         rrqm/s   wrqm/s     r/s     w/s    rkB/s    wkB/s avgrq-sz avgqu-sz   await r_await w_await  svctm  %util
sda               0.00     0.00 3155.00    0.00 12620.00     0.00     8.00     0.33    0.11    0.11    0.00   0.05  16.10
sdb               0.00     0.00 3138.00    0.00 12552.00     0.00     8.00     0.37    0.12    0.12    0.00   0.06  18.50
sdc               0.00     0.00 3127.00    0.00 12508.00     0.00     8.00     0.37    0.12    0.12    0.00   0.06  17.80
sdd               0.00     0.00 3114.00    0.00 12456.00     0.00     8.00     0.37    0.12    0.12    0.00   0.06  18.40
sde               0.00     0.00 3040.00    0.00 12160.00     0.00     8.00     0.36    0.12    0.12    0.00   0.06  19.20
sdf               0.00     0.00 3068.00    0.00 12272.00     0.00     8.00     0.36    0.12    0.12    0.00   0.06  17.60
sdg               0.00     0.00    0.00    0.00     0.00     0.00     0.00     0.00    0.00    0.00    0.00   0.00   0.00
sdh               0.00     0.00    0.00    0.00     0.00     0.00     0.00     0.00    0.00    0.00    0.00   0.00   0.00
md0               0.00     0.00 18642.00    0.00 74568.00     0.00     8.00     0.00    0.00    0.00    0.00   0.00   0.00

avg-cpu:  %user   %nice %system %iowait  %steal   %idle
           0.76    0.00    5.34   17.56    0.00   76.34

Device:         rrqm/s   wrqm/s     r/s     w/s    rkB/s    wkB/s avgrq-sz avgqu-sz   await r_await w_await  svctm  %util
sda               0.00     0.00 2915.00    0.00 11660.00     0.00     8.00     0.31    0.11    0.11    0.00   0.06  16.10
sdb               0.00     0.00 2875.00    0.00 11500.00     0.00     8.00     0.31    0.11    0.11    0.00   0.06  16.40
sdc               0.00     0.00 2952.00    0.00 11808.00     0.00     8.00     0.34    0.12    0.12    0.00   0.06  17.30
sdd               0.00     0.00 2966.00    0.00 11864.00     0.00     8.00     0.34    0.11    0.11    0.00   0.07  19.40
sde               0.00     0.00 2981.00    0.00 11924.00     0.00     8.00     0.34    0.11    0.11    0.00   0.06  17.10
sdf               0.00     0.00 2890.00    0.00 11560.00     0.00     8.00     0.32    0.11    0.11    0.00   0.06  16.70
sdg               0.00     0.00    0.00    0.00     0.00     0.00     0.00     0.00    0.00    0.00    0.00   0.00   0.00
sdh               0.00     0.00    0.00    0.00     0.00     0.00     0.00     0.00    0.00    0.00    0.00   0.00   0.00
md0               0.00     0.00 17577.00    0.00 70308.00     0.00     8.00     0.00    0.00    0.00    0.00   0.00   0.00

avg-cpu:  %user   %nice %system %iowait  %steal   %idle
           0.76    0.00    6.09   17.01    0.00   76.14

Device:         rrqm/s   wrqm/s     r/s     w/s    rkB/s    wkB/s avgrq-sz avgqu-sz   await r_await w_await  svctm  %util
sda               0.00     0.00 2702.00    0.00 10808.00     0.00     8.00     0.29    0.11    0.11    0.00   0.06  16.00
sdb               0.00     0.00 2733.00    0.00 10932.00     0.00     8.00     0.25    0.09    0.09    0.00   0.06  15.40
sdc               0.00     0.00 2747.00    0.00 10988.00     0.00     8.00     0.31    0.11    0.11    0.00   0.06  17.10
sdd               0.00     0.00 2686.00    0.00 10744.00     0.00     8.00     0.29    0.11    0.11    0.00   0.06  16.70
sde               0.00     0.00 2645.00    0.00 10580.00     0.00     8.00     0.30    0.11    0.11    0.00   0.06  16.50
sdf               0.00     0.00 2740.00    0.00 10960.00     0.00     8.00     0.29    0.11    0.11    0.00   0.06  17.50
sdg               0.00     0.00    0.00    0.00     0.00     0.00     0.00     0.00    0.00    0.00    0.00   0.00   0.00
sdh               0.00     0.00    0.00    0.00     0.00     0.00     0.00     0.00    0.00    0.00    0.00   0.00   0.00
md0               0.00     0.00 16253.00    0.00 65012.00     0.00     8.00     0.00    0.00    0.00    0.00   0.00   0.00

avg-cpu:  %user   %nice %system %iowait  %steal   %idle
           0.77    0.00    5.10    7.91    0.00   86.22

Device:         rrqm/s   wrqm/s     r/s     w/s    rkB/s    wkB/s avgrq-sz avgqu-sz   await r_await w_await  svctm  %util
sda               0.00     0.00 2650.00    0.00 10600.00     0.00     8.00     0.28    0.11    0.11    0.00   0.06  16.30
sdb               0.00     0.00 2578.00    0.00 10312.00     0.00     8.00     0.28    0.11    0.11    0.00   0.07  17.30
sdc               0.00     0.00 2547.00    0.00 10188.00     0.00     8.00     0.30    0.12    0.12    0.00   0.07  17.70
sdd               0.00     0.00 2589.00    0.00 10356.00     0.00     8.00     0.28    0.11    0.11    0.00   0.07  17.30
sde               0.00     0.00 2589.00    0.00 10356.00     0.00     8.00     0.27    0.11    0.11    0.00   0.06  16.10
sdf               0.00     0.00 2615.00    0.00 10460.00     0.00     8.00     0.32    0.12    0.12    0.00   0.07  17.90
sdg               0.00     0.00    0.00    0.00     0.00     0.00     0.00     0.00    0.00    0.00    0.00   0.00   0.00
sdh               0.00     0.00    0.00    0.00     0.00     0.00     0.00     0.00    0.00    0.00    0.00   0.00   0.00
md0               0.00     0.00 15568.00    0.00 62272.00     0.00     8.00     0.00    0.00    0.00    0.00   0.00   0.00

avg-cpu:  %user   %nice %system %iowait  %steal   %idle
           1.27    0.00    5.08    7.11    0.00   86.55

Device:         rrqm/s   wrqm/s     r/s     w/s    rkB/s    wkB/s avgrq-sz avgqu-sz   await r_await w_await  svctm  %util
sda               0.00     0.00 2454.00    0.00  9816.00     0.00     8.00     0.25    0.10    0.10    0.00   0.06  15.90
sdb               0.00     0.00 2458.00    0.00  9832.00     0.00     8.00     0.25    0.10    0.10    0.00   0.06  15.70
sdc               0.00     0.00 2482.00    0.00  9928.00     0.00     8.00     0.28    0.11    0.11    0.00   0.07  17.80
sdd               0.00     0.00 2353.00    0.00  9412.00     0.00     8.00     0.28    0.12    0.12    0.00   0.07  17.40
sde               0.00     0.00 2445.00    0.00  9780.00     0.00     8.00     0.24    0.10    0.10    0.00   0.06  15.20
sdf               0.00     0.00 2400.00    0.00  9600.00     0.00     8.00     0.27    0.11    0.11    0.00   0.07  17.00
sdg               0.00     0.00    0.00    0.00     0.00     0.00     0.00     0.00    0.00    0.00    0.00   0.00   0.00
sdh               0.00     0.00    0.00    0.00     0.00     0.00     0.00     0.00    0.00    0.00    0.00   0.00   0.00
md0               0.00     0.00 14597.00    0.00 58388.00     0.00     8.00     0.00    0.00    0.00    0.00   0.00   0.00

avg-cpu:  %user   %nice %system %iowait  %steal   %idle
           0.77    0.00    5.37   21.48    0.00   72.38

Device:         rrqm/s   wrqm/s     r/s     w/s    rkB/s    wkB/s avgrq-sz avgqu-sz   await r_await w_await  svctm  %util
sda               0.00     0.00 2306.00    0.00  9224.00     0.00     8.00     0.25    0.11    0.11    0.00   0.07  16.50
sdb               0.00     0.00 2276.00    0.00  9104.00     0.00     8.00     0.23    0.10    0.10    0.00   0.07  15.30
sdc               0.00     0.00 2271.00    0.00  9084.00     0.00     8.00     0.28    0.12    0.12    0.00   0.08  17.90
sdd               0.00     0.00 2288.00    0.00  9152.00     0.00     8.00     0.20    0.09    0.09    0.00   0.06  14.50
sde               0.00     0.00 2317.00    0.00  9268.00     0.00     8.00     0.28    0.12    0.12    0.00   0.08  17.60
sdf               0.00     0.00 2358.00    0.00  9432.00     0.00     8.00     0.24    0.10    0.10    0.00   0.07  15.80
sdg               0.00     0.00 1328.00    0.00  5312.00     0.00     8.00     0.16    0.12    0.12    0.00   0.12  15.90
sdh               0.00     0.00    0.00    0.00     0.00     0.00     0.00     0.00    0.00    0.00    0.00   0.00   0.00
md0               0.00     0.00 13812.00    0.00 55248.00     0.00     8.00     0.00    0.00    0.00    0.00   0.00   0.00

avg-cpu:  %user   %nice %system %iowait  %steal   %idle
           1.27    0.00    5.82   14.43    0.00   78.48

Device:         rrqm/s   wrqm/s     r/s     w/s    rkB/s    wkB/s avgrq-sz avgqu-sz   await r_await w_await  svctm  %util
sda               0.00     0.00 2069.00    0.00  8276.00     0.00     8.00     0.21    0.10    0.10    0.00   0.07  15.30
sdb               0.00     0.00 2117.00    0.00  8468.00     0.00     8.00     0.22    0.11    0.11    0.00   0.08  16.30
sdc               0.00     0.00 2003.00    0.00  8012.00     0.00     8.00     0.25    0.13    0.13    0.00   0.09  17.50
sdd               0.00     0.00 2059.00    0.00  8236.00     0.00     8.00     0.21    0.10    0.10    0.00   0.07  14.60
sde               0.00     0.00 2082.00    0.00  8328.00     0.00     8.00     0.19    0.09    0.09    0.00   0.06  13.00
sdf               0.00     0.00 2024.00    0.00  8096.00     0.00     8.00     0.23    0.11    0.11    0.00   0.08  15.50
sdg               0.00     0.00    0.00    0.00     0.00     0.00     0.00     0.00    0.00    0.00    0.00   0.00   0.00
sdh               0.00     0.00    0.00    0.00     0.00     0.00     0.00     0.00    0.00    0.00    0.00   0.00   0.00
md0               0.00     0.00 12354.00    0.00 49416.00     0.00     8.00     0.00    0.00    0.00    0.00   0.00   0.00

avg-cpu:  %user   %nice %system %iowait  %steal   %idle
           1.02    0.00    4.86    6.65    0.00   87.47

Device:         rrqm/s   wrqm/s     r/s     w/s    rkB/s    wkB/s avgrq-sz avgqu-sz   await r_await w_await  svctm  %util
sda               0.00     0.00 1995.00    0.00  7980.00     0.00     8.00     0.18    0.09    0.09    0.00   0.07  13.40
sdb               0.00     0.00 2033.00    0.00  8132.00     0.00     8.00     0.20    0.10    0.10    0.00   0.08  15.70
sdc               0.00     0.00 2006.00    0.00  8024.00     0.00     8.00     0.23    0.11    0.11    0.00   0.08  16.50
sdd               0.00     0.00 1938.00    0.00  7752.00     0.00     8.00     0.21    0.11    0.11    0.00   0.08  16.20
sde               0.00     0.00 1970.00    0.00  7880.00     0.00     8.00     0.22    0.11    0.11    0.00   0.08  16.30
sdf               0.00     0.00 1992.00    0.00  7968.00     0.00     8.00     0.21    0.10    0.10    0.00   0.08  15.30
sdg               0.00     0.00    0.00    0.00     0.00     0.00     0.00     0.00    0.00    0.00    0.00   0.00   0.00
sdh               0.00     0.00    0.00    0.00     0.00     0.00     0.00     0.00    0.00    0.00    0.00   0.00   0.00
md0               0.00     0.00 11935.00    0.00 47740.00     0.00     8.00     0.00    0.00    0.00    0.00   0.00   0.00

avg-cpu:  %user   %nice %system %iowait  %steal   %idle
           1.03    0.00    3.88    0.52    0.00   94.57

Device:         rrqm/s   wrqm/s     r/s     w/s    rkB/s    wkB/s avgrq-sz avgqu-sz   await r_await w_await  svctm  %util
sda               0.00     0.00 1865.00    0.00  7460.00     0.00     8.00     0.23    0.13    0.13    0.00   0.09  16.70
sdb               0.00     0.00 1882.00    0.00  7528.00     0.00     8.00     0.20    0.11    0.11    0.00   0.08  15.10
sdc               0.00     0.00 1903.00    0.00  7612.00     0.00     8.00     0.21    0.11    0.11    0.00   0.08  15.60
sdd               0.00     0.00 1987.00    0.00  7948.00     0.00     8.00     0.24    0.12    0.12    0.00   0.09  17.60
sde               0.00     0.00 1865.00    0.00  7460.00     0.00     8.00     0.20    0.11    0.11    0.00   0.08  14.20
sdf               0.00     0.00 1936.00    0.00  7744.00     0.00     8.00     0.19    0.10    0.10    0.00   0.07  14.50
sdg               0.00     0.00    0.00    0.00     0.00     0.00     0.00     0.00    0.00    0.00    0.00   0.00   0.00
sdh               0.00     0.00    0.00    0.00     0.00     0.00     0.00     0.00    0.00    0.00    0.00   0.00   0.00
md0               0.00     0.00 11437.00    0.00 45748.00     0.00     8.00     0.00    0.00    0.00    0.00   0.00   0.00

avg-cpu:  %user   %nice %system %iowait  %steal   %idle
           1.29    0.00    4.37    0.77    0.00   93.57

Device:         rrqm/s   wrqm/s     r/s     w/s    rkB/s    wkB/s avgrq-sz avgqu-sz   await r_await w_await  svctm  %util
sda               0.00     0.00 1722.00    0.00  6888.00     0.00     8.00     0.16    0.09    0.09    0.00   0.07  12.90
sdb               0.00     0.00 1690.00    0.00  6760.00     0.00     8.00     0.18    0.11    0.11    0.00   0.09  14.40
sdc               0.00     0.00 1706.00    0.00  6824.00     0.00     8.00     0.19    0.11    0.11    0.00   0.10  16.30
sdd               0.00     0.00 1786.00    0.00  7144.00     0.00     8.00     0.22    0.12    0.12    0.00   0.09  15.80
sde               0.00     0.00 1759.00    0.00  7036.00     0.00     8.00     0.19    0.11    0.11    0.00   0.09  15.70
sdf               0.00     0.00 1793.00    0.00  7172.00     0.00     8.00     0.18    0.10    0.10    0.00   0.08  13.80
sdg               0.00     0.00    0.00    0.00     0.00     0.00     0.00     0.00    0.00    0.00    0.00   0.00   0.00
sdh               0.00     0.00    0.00    0.00     0.00     0.00     0.00     0.00    0.00    0.00    0.00   0.00   0.00
md0               0.00     0.00 10454.00    0.00 41816.00     0.00     8.00     0.00    0.00    0.00    0.00   0.00   0.00

