Linux 4.17.2 (bench) 	08/04/2018 	_x86_64_	(4 CPU)

avg-cpu:  %user   %nice %system %iowait  %steal   %idle
          10.25    0.02    4.33    2.86    0.00   82.55

Device:         rrqm/s   wrqm/s     r/s     w/s    rkB/s    wkB/s avgrq-sz avgqu-sz   await r_await w_await  svctm  %util
sda              58.84     4.12 1766.97   99.58 21446.19  3047.25    26.24     1.05    0.56    0.26    5.92   0.06  11.20
sdb              58.63     4.08 1766.99   99.72 21435.84  3044.01    26.23     1.05    0.56    0.26    5.85   0.06  11.08
sdc              95.94     4.14 1727.60   99.28 21428.22  3046.40    26.79     1.47    0.80    0.44    7.12   0.08  14.57
sdd              89.59     4.11 1733.14   99.35 21413.41  3042.71    26.69     1.48    0.81    0.43    7.33   0.08  14.67
sde              91.53     4.15 1738.11   99.44 21471.60  3046.83    26.69     1.50    0.81    0.44    7.44   0.08  14.69
sdf              88.73     4.13 1740.19   99.39 21453.39  3043.79    26.63     1.54    0.84    0.43    7.90   0.08  14.72
sdg               0.00     3.15   27.18   73.10   326.95   391.50    14.33     0.44    4.37    0.20    5.93   0.08   0.79
sdh               0.00     0.12    0.02    0.23     2.15     4.92    56.82     0.00    1.15    0.65    1.19   0.21   0.01
md0               0.00     0.00 10964.05  466.59 146905.64 20857.93    29.35     0.00    0.00    0.00    0.00   0.00   0.00

avg-cpu:  %user   %nice %system %iowait  %steal   %idle
           0.51    0.00    9.87   13.67    0.00   75.95

Device:         rrqm/s   wrqm/s     r/s     w/s    rkB/s    wkB/s avgrq-sz avgqu-sz   await r_await w_await  svctm  %util
sda               0.00     0.00 6566.00    0.00 26264.00     0.00     8.00     0.64    0.10    0.10    0.00   0.07  46.10
sdb               0.00     0.00 6642.00    0.00 26568.00     0.00     8.00     0.65    0.10    0.10    0.00   0.07  44.20
sdc               0.00     0.00 6911.00    0.00 27644.00     0.00     8.00     0.75    0.11    0.11    0.00   0.07  51.00
sdd               0.00     0.00 6719.00    0.00 26876.00     0.00     8.00     0.73    0.11    0.11    0.00   0.08  51.20
sde               0.00     0.00 6666.00    0.00 26664.00     0.00     8.00     0.67    0.10    0.10    0.00   0.07  49.20
sdf               0.00     0.00 6703.00    0.00 26812.00     0.00     8.00     0.77    0.11    0.11    0.00   0.08  51.50
sdg               0.00     0.00    2.00    0.00    84.00     0.00    84.00     0.00    0.00    0.00    0.00   0.00   0.00
sdh               0.00     0.00    0.00    0.00     0.00     0.00     0.00     0.00    0.00    0.00    0.00   0.00   0.00
md0               0.00     0.00 40216.00    0.00 160864.00     0.00     8.00     0.00    0.00    0.00    0.00   0.00   0.00

avg-cpu:  %user   %nice %system %iowait  %steal   %idle
           0.52    0.00    7.03    2.34    0.00   90.10

Device:         rrqm/s   wrqm/s     r/s     w/s    rkB/s    wkB/s avgrq-sz avgqu-sz   await r_await w_await  svctm  %util
sda               0.00     0.00 6319.00    0.00 25276.00     0.00     8.00     0.63    0.10    0.10    0.00   0.07  45.50
sdb               0.00     0.00 6184.00    0.00 24736.00     0.00     8.00     0.63    0.10    0.10    0.00   0.07  45.90
sdc               0.00     0.00 6299.00    0.00 25196.00     0.00     8.00     0.72    0.11    0.11    0.00   0.08  49.20
sdd               0.00     0.00 6272.00    0.00 25088.00     0.00     8.00     0.68    0.11    0.11    0.00   0.08  49.30
sde               0.00     0.00 6248.00    0.00 24992.00     0.00     8.00     0.69    0.11    0.11    0.00   0.08  49.30
sdf               0.00     0.00 6297.00    0.00 25188.00     0.00     8.00     0.69    0.11    0.11    0.00   0.08  50.20
sdg               0.00     0.00    0.00    0.00     0.00     0.00     0.00     0.00    0.00    0.00    0.00   0.00   0.00
sdh               0.00     0.00    0.00    0.00     0.00     0.00     0.00     0.00    0.00    0.00    0.00   0.00   0.00
md0               0.00     0.00 37615.00    0.00 150460.00     0.00     8.00     0.00    0.00    0.00    0.00   0.00   0.00

avg-cpu:  %user   %nice %system %iowait  %steal   %idle
           0.52    0.00    6.02    0.79    0.00   92.67

Device:         rrqm/s   wrqm/s     r/s     w/s    rkB/s    wkB/s avgrq-sz avgqu-sz   await r_await w_await  svctm  %util
sda               0.00     0.00 5856.00    0.00 23424.00     0.00     8.00     0.63    0.11    0.11    0.00   0.07  43.80
sdb               0.00     0.00 5855.00    0.00 23420.00     0.00     8.00     0.62    0.11    0.11    0.00   0.08  44.30
sdc               0.00     0.00 5748.00    0.00 22992.00     0.00     8.00     0.62    0.11    0.11    0.00   0.08  45.80
sdd               0.00     0.00 5668.00    0.00 22672.00     0.00     8.00     0.61    0.11    0.11    0.00   0.08  45.50
sde               0.00     0.00 5752.00    0.00 23008.00     0.00     8.00     0.65    0.11    0.11    0.00   0.08  47.50
sdf               0.00     0.00 5730.00    0.00 22920.00     0.00     8.00     0.65    0.11    0.11    0.00   0.09  48.80
sdg               0.00     0.00    0.00    0.00     0.00     0.00     0.00     0.00    0.00    0.00    0.00   0.00   0.00
sdh               0.00     0.00    0.00    0.00     0.00     0.00     0.00     0.00    0.00    0.00    0.00   0.00   0.00
md0               0.00     0.00 34610.00    0.00 138440.00     0.00     8.00     0.00    0.00    0.00    0.00   0.00   0.00

avg-cpu:  %user   %nice %system %iowait  %steal   %idle
           0.26    0.00    5.53    0.79    0.00   93.42

Device:         rrqm/s   wrqm/s     r/s     w/s    rkB/s    wkB/s avgrq-sz avgqu-sz   await r_await w_await  svctm  %util
sda               0.00     0.00 5534.00    0.00 22136.00     0.00     8.00     0.55    0.10    0.10    0.00   0.07  41.10
sdb               0.00     0.00 5351.00    0.00 21404.00     0.00     8.00     0.56    0.10    0.10    0.00   0.08  43.00
sdc               0.00     0.00 5343.00    0.00 21372.00     0.00     8.00     0.59    0.11    0.11    0.00   0.09  46.10
sdd               0.00     0.00 5367.00    0.00 21468.00     0.00     8.00     0.60    0.11    0.11    0.00   0.09  46.10
sde               0.00     0.00 5421.00    0.00 21684.00     0.00     8.00     0.64    0.12    0.12    0.00   0.09  47.40
sdf               0.00     0.00 5439.00    0.00 21756.00     0.00     8.00     0.68    0.12    0.12    0.00   0.09  49.10
sdg               0.00     0.00    0.00    4.00     0.00   128.00    64.00     0.00    0.75    0.00    0.75   0.25   0.10
sdh               0.00     0.00    0.00    0.00     0.00     0.00     0.00     0.00    0.00    0.00    0.00   0.00   0.00
md0               0.00     0.00 32455.00    0.00 129820.00     0.00     8.00     0.00    0.00    0.00    0.00   0.00   0.00

avg-cpu:  %user   %nice %system %iowait  %steal   %idle
           0.52    0.00    5.76    0.52    0.00   93.19

Device:         rrqm/s   wrqm/s     r/s     w/s    rkB/s    wkB/s avgrq-sz avgqu-sz   await r_await w_await  svctm  %util
sda               0.00     0.00 5002.00    0.00 20008.00     0.00     8.00     0.50    0.10    0.10    0.00   0.08  38.30
sdb               0.00     0.00 4949.00    0.00 19796.00     0.00     8.00     0.50    0.10    0.10    0.00   0.08  38.70
sdc               0.00     0.00 4862.00    0.00 19448.00     0.00     8.00     0.55    0.11    0.11    0.00   0.09  42.00
sdd               0.00     0.00 4968.00    0.00 19872.00     0.00     8.00     0.54    0.11    0.11    0.00   0.08  40.80
sde               0.00     0.00 5053.00    0.00 20212.00     0.00     8.00     0.53    0.10    0.10    0.00   0.08  40.50
sdf               0.00     0.00 4920.00    0.00 19680.00     0.00     8.00     0.58    0.12    0.12    0.00   0.09  45.70
sdg               0.00     0.00    0.00    0.00     0.00     0.00     0.00     0.00    0.00    0.00    0.00   0.00   0.00
sdh               0.00     0.00    0.00    0.00     0.00     0.00     0.00     0.00    0.00    0.00    0.00   0.00   0.00
md0               0.00     0.00 29753.00    0.00 119012.00     0.00     8.00     0.00    0.00    0.00    0.00   0.00   0.00

avg-cpu:  %user   %nice %system %iowait  %steal   %idle
           0.51    0.00    6.92   10.26    0.00   82.31

Device:         rrqm/s   wrqm/s     r/s     w/s    rkB/s    wkB/s avgrq-sz avgqu-sz   await r_await w_await  svctm  %util
sda               0.00     0.00 4305.00    0.00 17220.00     0.00     8.00     0.40    0.09    0.09    0.00   0.08  32.40
sdb               0.00     0.00 4421.00    0.00 17684.00     0.00     8.00     0.41    0.09    0.09    0.00   0.07  32.40
sdc               0.00     0.00 4475.00    0.00 17900.00     0.00     8.00     0.48    0.11    0.11    0.00   0.08  37.60
sdd               0.00     0.00 4568.00    0.00 18272.00     0.00     8.00     0.52    0.11    0.11    0.00   0.09  40.50
sde               0.00     0.00 4473.00    0.00 17892.00     0.00     8.00     0.48    0.11    0.11    0.00   0.09  38.20
sdf               0.00     0.00 4551.00    0.00 18204.00     0.00     8.00     0.50    0.11    0.11    0.00   0.09  39.40
sdg               0.00     0.00    0.00    0.00     0.00     0.00     0.00     0.00    0.00    0.00    0.00   0.00   0.00
sdh               0.00     0.00    0.00    0.00     0.00     0.00     0.00     0.00    0.00    0.00    0.00   0.00   0.00
md0               0.00     0.00 26793.00    0.00 107172.00     0.00     8.00     0.00    0.00    0.00    0.00   0.00   0.00

avg-cpu:  %user   %nice %system %iowait  %steal   %idle
           0.77    0.00    6.41    6.41    0.00   86.41

Device:         rrqm/s   wrqm/s     r/s     w/s    rkB/s    wkB/s avgrq-sz avgqu-sz   await r_await w_await  svctm  %util
sda               0.00     0.00 4082.00    0.00 16328.00     0.00     8.00     0.37    0.09    0.09    0.00   0.07  30.60
sdb               0.00     0.00 4029.00    0.00 16116.00     0.00     8.00     0.40    0.10    0.10    0.00   0.08  31.40
sdc               0.00     0.00 4074.00    0.00 16296.00     0.00     8.00     0.43    0.11    0.11    0.00   0.08  34.60
sdd               0.00     0.00 3975.00    0.00 15900.00     0.00     8.00     0.44    0.11    0.11    0.00   0.09  35.60
sde               0.00     0.00 3972.00    0.00 15888.00     0.00     8.00     0.42    0.10    0.10    0.00   0.09  34.80
sdf               0.00     0.00 4047.00    0.00 16188.00     0.00     8.00     0.41    0.10    0.10    0.00   0.08  33.10
sdg               0.00     0.00    0.00    0.00     0.00     0.00     0.00     0.00    0.00    0.00    0.00   0.00   0.00
sdh               0.00     0.00    0.00    0.00     0.00     0.00     0.00     0.00    0.00    0.00    0.00   0.00   0.00
md0               0.00     0.00 24181.00    0.00 96724.00     0.00     8.00     0.00    0.00    0.00    0.00   0.00   0.00

avg-cpu:  %user   %nice %system %iowait  %steal   %idle
           0.26    0.00    5.45    0.52    0.00   93.77

Device:         rrqm/s   wrqm/s     r/s     w/s    rkB/s    wkB/s avgrq-sz avgqu-sz   await r_await w_await  svctm  %util
sda               0.00     0.00 3760.00    0.00 15040.00     0.00     8.00     0.41    0.11    0.11    0.00   0.09  32.90
sdb               0.00     0.00 3776.00    0.00 15104.00     0.00     8.00     0.37    0.10    0.10    0.00   0.08  31.00
sdc               0.00     0.00 3913.00    0.00 15652.00     0.00     8.00     0.41    0.11    0.11    0.00   0.09  33.30
sdd               0.00     0.00 3883.00    0.00 15532.00     0.00     8.00     0.43    0.11    0.11    0.00   0.09  36.00
sde               0.00     0.00 3802.00    0.00 15208.00     0.00     8.00     0.41    0.11    0.11    0.00   0.09  34.30
sdf               0.00     0.00 3840.00    0.00 15360.00     0.00     8.00     0.42    0.11    0.11    0.00   0.09  34.30
sdg               0.00     0.00    0.00    0.00     0.00     0.00     0.00     0.00    0.00    0.00    0.00   0.00   0.00
sdh               0.00     0.00    0.00    0.00     0.00     0.00     0.00     0.00    0.00    0.00    0.00   0.00   0.00
md0               0.00     0.00 22970.00    0.00 91880.00     0.00     8.00     0.00    0.00    0.00    0.00   0.00   0.00

avg-cpu:  %user   %nice %system %iowait  %steal   %idle
           0.77    0.26    6.14    0.77    0.00   92.07

Device:         rrqm/s   wrqm/s     r/s     w/s    rkB/s    wkB/s avgrq-sz avgqu-sz   await r_await w_await  svctm  %util
sda               0.00     0.00 3612.00    0.00 14448.00     0.00     8.00     0.34    0.09    0.09    0.00   0.08  29.10
sdb               0.00     0.00 3433.00    0.00 13732.00     0.00     8.00     0.30    0.09    0.09    0.00   0.08  26.70
sdc               0.00     0.00 3477.00    0.00 13908.00     0.00     8.00     0.35    0.10    0.10    0.00   0.08  29.50
sdd               0.00     0.00 3554.00    0.00 14216.00     0.00     8.00     0.36    0.10    0.10    0.00   0.09  30.80
sde               0.00     0.00 3533.00    0.00 14132.00     0.00     8.00     0.35    0.10    0.10    0.00   0.09  30.40
sdf               0.00     0.00 3490.00    0.00 13960.00     0.00     8.00     0.38    0.11    0.11    0.00   0.09  31.30
sdg               0.00     2.00   13.00    4.00    52.00    48.00    11.76     0.00    0.12    0.08    0.25   0.06   0.10
sdh               0.00     0.00    0.00    0.00     0.00     0.00     0.00     0.00    0.00    0.00    0.00   0.00   0.00
md0               0.00     0.00 21099.00    0.00 84396.00     0.00     8.00     0.00    0.00    0.00    0.00   0.00   0.00

avg-cpu:  %user   %nice %system %iowait  %steal   %idle
           0.77    0.00    5.90    0.51    0.00   92.82

Device:         rrqm/s   wrqm/s     r/s     w/s    rkB/s    wkB/s avgrq-sz avgqu-sz   await r_await w_await  svctm  %util
sda               0.00     0.00 3042.00    0.00 12168.00     0.00     8.00     0.28    0.09    0.09    0.00   0.08  24.30
sdb               0.00     0.00 3133.00    0.00 12532.00     0.00     8.00     0.31    0.10    0.10    0.00   0.09  27.30
sdc               0.00     0.00 3133.00    0.00 12532.00     0.00     8.00     0.32    0.10    0.10    0.00   0.09  27.10
sdd               0.00     0.00 3088.00    0.00 12352.00     0.00     8.00     0.33    0.11    0.11    0.00   0.09  28.40
sde               0.00     0.00 3134.00    0.00 12536.00     0.00     8.00     0.35    0.11    0.11    0.00   0.10  30.00
sdf               0.00     0.00 3251.00    0.00 13004.00     0.00     8.00     0.33    0.10    0.10    0.00   0.09  29.40
sdg               0.00     0.00    0.00    0.00     0.00     0.00     0.00     0.00    0.00    0.00    0.00   0.00   0.00
sdh               0.00     0.00    0.00    0.00     0.00     0.00     0.00     0.00    0.00    0.00    0.00   0.00   0.00
md0               0.00     0.00 18781.00    0.00 75124.00     0.00     8.00     0.00    0.00    0.00    0.00   0.00   0.00

avg-cpu:  %user   %nice %system %iowait  %steal   %idle
           0.51    0.00    5.90    0.51    0.00   93.08

Device:         rrqm/s   wrqm/s     r/s     w/s    rkB/s    wkB/s avgrq-sz avgqu-sz   await r_await w_await  svctm  %util
sda               0.00     0.00 2931.00    0.00 11724.00     0.00     8.00     0.30    0.10    0.10    0.00   0.09  25.20
sdb               0.00     0.00 2890.00    0.00 11560.00     0.00     8.00     0.27    0.09    0.09    0.00   0.08  23.70
sdc               0.00     0.00 2990.00    0.00 11960.00     0.00     8.00     0.31    0.10    0.10    0.00   0.09  27.20
sdd               0.00     0.00 2819.00    0.00 11276.00     0.00     8.00     0.30    0.11    0.11    0.00   0.10  27.20
sde               0.00     0.00 2793.00    0.00 11172.00     0.00     8.00     0.29    0.10    0.10    0.00   0.09  26.10
sdf               0.00     0.00 2823.00    0.00 11292.00     0.00     8.00     0.29    0.10    0.10    0.00   0.09  26.10
sdg               0.00     0.00    0.00    0.00     0.00     0.00     0.00     0.00    0.00    0.00    0.00   0.00   0.00
sdh               0.00     0.00    0.00    0.00     0.00     0.00     0.00     0.00    0.00    0.00    0.00   0.00   0.00
md0               0.00     0.00 17248.00    0.00 68992.00     0.00     8.00     0.00    0.00    0.00    0.00   0.00   0.00

avg-cpu:  %user   %nice %system %iowait  %steal   %idle
           0.51    0.00    5.40    0.51    0.00   93.57

Device:         rrqm/s   wrqm/s     r/s     w/s    rkB/s    wkB/s avgrq-sz avgqu-sz   await r_await w_await  svctm  %util
sda               0.00     0.00 2621.00    0.00 10484.00     0.00     8.00     0.26    0.10    0.10    0.00   0.09  22.70
sdb               0.00     0.00 2713.00    0.00 10852.00     0.00     8.00     0.25    0.09    0.09    0.00   0.08  22.40
sdc               0.00     0.00 2733.00    0.00 10932.00     0.00     8.00     0.30    0.11    0.11    0.00   0.10  26.70
sdd               0.00     0.00 2640.00    0.00 10560.00     0.00     8.00     0.26    0.10    0.10    0.00   0.09  23.60
sde               0.00     0.00 2733.00    0.00 10932.00     0.00     8.00     0.30    0.11    0.11    0.00   0.10  26.70
sdf               0.00     0.00 2675.00    0.00 10700.00     0.00     8.00     0.28    0.10    0.10    0.00   0.09  24.50
sdg               0.00     0.00    0.00    0.00     0.00     0.00     0.00     0.00    0.00    0.00    0.00   0.00   0.00
sdh               0.00     0.00    0.00    0.00     0.00     0.00     0.00     0.00    0.00    0.00    0.00   0.00   0.00
md0               0.00     0.00 16111.00    0.00 64444.00     0.00     8.00     0.00    0.00    0.00    0.00   0.00   0.00

avg-cpu:  %user   %nice %system %iowait  %steal   %idle
           0.77    0.00    4.90    0.52    0.00   93.81

Device:         rrqm/s   wrqm/s     r/s     w/s    rkB/s    wkB/s avgrq-sz avgqu-sz   await r_await w_await  svctm  %util
sda               0.00     0.00 2477.00    0.00  9908.00     0.00     8.00     0.27    0.11    0.11    0.00   0.10  23.70
sdb               0.00     0.00 2492.00    0.00  9968.00     0.00     8.00     0.27    0.11    0.11    0.00   0.10  24.90
sdc               0.00     0.00 2489.00    0.00  9956.00     0.00     8.00     0.24    0.10    0.10    0.00   0.09  21.80
sdd               0.00     0.00 2513.00    0.00 10052.00     0.00     8.00     0.27    0.11    0.11    0.00   0.10  24.60
sde               0.00     0.00 2467.00    0.00  9868.00     0.00     8.00     0.26    0.10    0.10    0.00   0.09  23.30
sdf               0.00     0.00 2431.00    0.00  9724.00     0.00     8.00     0.28    0.12    0.12    0.00   0.10  25.30
sdg               0.00     0.00    0.00    0.00     0.00     0.00     0.00     0.00    0.00    0.00    0.00   0.00   0.00
sdh               0.00     0.00    0.00    0.00     0.00     0.00     0.00     0.00    0.00    0.00    0.00   0.00   0.00
md0               0.00     0.00 14872.00    0.00 59488.00     0.00     8.00     0.00    0.00    0.00    0.00   0.00   0.00

avg-cpu:  %user   %nice %system %iowait  %steal   %idle
           0.51    0.00    4.88    8.48    0.00   86.12

Device:         rrqm/s   wrqm/s     r/s     w/s    rkB/s    wkB/s avgrq-sz avgqu-sz   await r_await w_await  svctm  %util
sda               0.00     0.00 2189.00    0.00  8756.00     0.00     8.00     0.23    0.10    0.10    0.00   0.09  20.50
sdb               0.00     0.00 2302.00    0.00  9208.00     0.00     8.00     0.19    0.08    0.08    0.00   0.08  18.50
sdc               0.00     0.00 2275.00    0.00  9100.00     0.00     8.00     0.26    0.11    0.11    0.00   0.10  23.70
sdd               0.00     0.00 2317.00    0.00  9268.00     0.00     8.00     0.25    0.11    0.11    0.00   0.10  23.30
sde               0.00     0.00 2230.00    0.00  8920.00     0.00     8.00     0.24    0.11    0.11    0.00   0.10  22.10
sdf               0.00     0.00 2299.00    0.00  9196.00     0.00     8.00     0.23    0.10    0.10    0.00   0.09  21.80
sdg               0.00     0.00    0.00    0.00     0.00     0.00     0.00     0.00    0.00    0.00    0.00   0.00   0.00
sdh               0.00     0.00    0.00    0.00     0.00     0.00     0.00     0.00    0.00    0.00    0.00   0.00   0.00
md0               0.00     0.00 13611.00    0.00 54444.00     0.00     8.00     0.00    0.00    0.00    0.00   0.00   0.00

avg-cpu:  %user   %nice %system %iowait  %steal   %idle
           0.51    0.00    5.64    9.74    0.00   84.10

Device:         rrqm/s   wrqm/s     r/s     w/s    rkB/s    wkB/s avgrq-sz avgqu-sz   await r_await w_await  svctm  %util
sda               0.00     0.00 1986.00    0.00  7944.00     0.00     8.00     0.20    0.10    0.10    0.00   0.09  18.00
sdb               0.00     0.00 1981.00    0.00  7924.00     0.00     8.00     0.21    0.11    0.11    0.00   0.10  19.40
sdc               0.00     0.00 1925.00    0.00  7700.00     0.00     8.00     0.22    0.11    0.11    0.00   0.11  20.40
sdd               0.00     0.00 2047.00    0.00  8188.00     0.00     8.00     0.24    0.12    0.12    0.00   0.11  22.40
sde               0.00     0.00 2006.00    0.00  8024.00     0.00     8.00     0.22    0.11    0.11    0.00   0.10  20.20
sdf               0.00     0.00 1920.00    0.00  7680.00     0.00     8.00     0.23    0.12    0.12    0.00   0.11  21.00
sdg               0.00     0.00    0.00    0.00     0.00     0.00     0.00     0.00    0.00    0.00    0.00   0.00   0.00
sdh               0.00     0.00    0.00    0.00     0.00     0.00     0.00     0.00    0.00    0.00    0.00   0.00   0.00
md0               0.00     0.00 11863.00    0.00 47452.00     0.00     8.00     0.00    0.00    0.00    0.00   0.00   0.00

avg-cpu:  %user   %nice %system %iowait  %steal   %idle
           0.77    0.00    5.38    0.51    0.00   93.33

Device:         rrqm/s   wrqm/s     r/s     w/s    rkB/s    wkB/s avgrq-sz avgqu-sz   await r_await w_await  svctm  %util
sda               0.00     0.00 1870.00    0.00  7480.00     0.00     8.00     0.19    0.10    0.10    0.00   0.10  18.20
sdb               0.00     0.00 1950.00    0.00  7800.00     0.00     8.00     0.18    0.09    0.09    0.00   0.09  17.00
sdc               0.00     0.00 1861.00    0.00  7444.00     0.00     8.00     0.20    0.11    0.11    0.00   0.10  18.80
sdd               0.00     0.00 1934.00    0.00  7736.00     0.00     8.00     0.19    0.10    0.10    0.00   0.09  18.10
sde               0.00     0.00 1961.00    0.00  7844.00     0.00     8.00     0.22    0.11    0.11    0.00   0.10  20.40
sdf               0.00     0.00 1887.00    0.00  7548.00     0.00     8.00     0.20    0.11    0.11    0.00   0.10  19.20
sdg               0.00     0.00    0.00    0.00     0.00     0.00     0.00     0.00    0.00    0.00    0.00   0.00   0.00
sdh               0.00     0.00    0.00    0.00     0.00     0.00     0.00     0.00    0.00    0.00    0.00   0.00   0.00
md0               0.00     0.00 11464.00    0.00 45856.00     0.00     8.00     0.00    0.00    0.00    0.00   0.00   0.00

avg-cpu:  %user   %nice %system %iowait  %steal   %idle
           1.03    0.00    5.64    0.51    0.00   92.82

Device:         rrqm/s   wrqm/s     r/s     w/s    rkB/s    wkB/s avgrq-sz avgqu-sz   await r_await w_await  svctm  %util
sda               0.00     0.00 1690.00    0.00  6760.00     0.00     8.00     0.15    0.09    0.09    0.00   0.09  14.50
sdb               0.00     0.00 1712.00    0.00  6848.00     0.00     8.00     0.16    0.09    0.09    0.00   0.09  14.80
sdc               0.00     0.00 1742.00    0.00  6968.00     0.00     8.00     0.20    0.11    0.11    0.00   0.10  17.90
sdd               0.00     0.00 1785.00    0.00  7140.00     0.00     8.00     0.19    0.11    0.11    0.00   0.10  17.90
sde               0.00     0.00 1812.00    0.00  7248.00     0.00     8.00     0.18    0.10    0.10    0.00   0.10  17.30
sdf               0.00     0.00 1730.00    0.00  6920.00     0.00     8.00     0.18    0.10    0.10    0.00   0.10  17.20
sdg               0.00     0.00    0.00    0.00     0.00     0.00     0.00     0.00    0.00    0.00    0.00   0.00   0.00
sdh               0.00     0.00    0.00    0.00     0.00     0.00     0.00     0.00    0.00    0.00    0.00   0.00   0.00
md0               0.00     0.00 10472.00    0.00 41888.00     0.00     8.00     0.00    0.00    0.00    0.00   0.00   0.00

avg-cpu:  %user   %nice %system %iowait  %steal   %idle
           0.52    0.00    5.41    0.77    0.00   93.30

Device:         rrqm/s   wrqm/s     r/s     w/s    rkB/s    wkB/s avgrq-sz avgqu-sz   await r_await w_await  svctm  %util
sda               0.00     0.00 1600.00    0.00  6400.00     0.00     8.00     0.17    0.11    0.11    0.00   0.10  16.70
sdb               0.00     0.00 1640.00    0.00  6560.00     0.00     8.00     0.17    0.10    0.10    0.00   0.10  16.00
sdc               0.00     0.00 1632.00    0.00  6528.00     0.00     8.00     0.17    0.11    0.11    0.00   0.10  16.10
sdd               0.00     0.00 1726.00    0.00  6904.00     0.00     8.00     0.20    0.11    0.11    0.00   0.11  18.60
sde               0.00     0.00 1636.00    0.00  6544.00     0.00     8.00     0.20    0.12    0.12    0.00   0.11  18.70
sdf               0.00     0.00 1620.00    0.00  6480.00     0.00     8.00     0.18    0.11    0.11    0.00   0.10  16.80
sdg               0.00     0.00    0.00    0.00     0.00     0.00     0.00     0.00    0.00    0.00    0.00   0.00   0.00
sdh               0.00     0.00    0.00    0.00     0.00     0.00     0.00     0.00    0.00    0.00    0.00   0.00   0.00
md0               0.00     0.00 9852.00    0.00 39408.00     0.00     8.00     0.00    0.00    0.00    0.00   0.00   0.00

avg-cpu:  %user   %nice %system %iowait  %steal   %idle
           1.27    0.00    6.60    0.51    0.00   91.62

Device:         rrqm/s   wrqm/s     r/s     w/s    rkB/s    wkB/s avgrq-sz avgqu-sz   await r_await w_await  svctm  %util
sda               0.00     0.00 1391.00    0.00  5564.00     0.00     8.00     0.14    0.10    0.10    0.00   0.10  13.50
sdb               0.00     0.00 1453.00    0.00  5812.00     0.00     8.00     0.13    0.09    0.09    0.00   0.09  12.90
sdc               0.00     0.00 1452.00    0.00  5808.00     0.00     8.00     0.15    0.10    0.10    0.00   0.10  14.50
sdd               0.00     0.00 1387.00    0.00  5548.00     0.00     8.00     0.16    0.11    0.11    0.00   0.11  15.10
sde               0.00     0.00 1447.00    0.00  5788.00     0.00     8.00     0.15    0.11    0.11    0.00   0.10  14.70
sdf               0.00     0.00 1467.00    0.00  5868.00     0.00     8.00     0.16    0.11    0.11    0.00   0.11  15.60
sdg               0.00     0.00    2.00    0.00     8.00     0.00     8.00     0.00    0.00    0.00    0.00   0.00   0.00
sdh               0.00     0.00    0.00    0.00     0.00     0.00     0.00     0.00    0.00    0.00    0.00   0.00   0.00
md0               0.00     0.00 8598.00    0.00 34392.00     0.00     8.00     0.00    0.00    0.00    0.00   0.00   0.00

avg-cpu:  %user   %nice %system %iowait  %steal   %idle
           1.26    0.00    7.30    1.26    0.00   90.18

Device:         rrqm/s   wrqm/s     r/s     w/s    rkB/s    wkB/s avgrq-sz avgqu-sz   await r_await w_await  svctm  %util
sda               0.00     0.00 1257.00    0.00  5028.00     0.00     8.00     0.13    0.10    0.10    0.00   0.10  12.40
sdb               0.00     0.00 1297.00    0.00  5188.00     0.00     8.00     0.12    0.09    0.09    0.00   0.09  11.60
sdc               0.00     0.00 1279.00    0.00  5116.00     0.00     8.00     0.12    0.10    0.10    0.00   0.10  12.30
sdd               0.00     0.00 1274.00    0.00  5096.00     0.00     8.00     0.13    0.10    0.10    0.00   0.10  12.80
sde               0.00     0.00 1227.00    0.00  4908.00     0.00     8.00     0.13    0.11    0.11    0.00   0.11  12.90
sdf               0.00     0.00 1285.00    0.00  5140.00     0.00     8.00     0.15    0.12    0.12    0.00   0.11  14.70
sdg               0.00     0.00    0.00    0.00     0.00     0.00     0.00     0.00    0.00    0.00    0.00   0.00   0.00
sdh               0.00     0.00    0.00    0.00     0.00     0.00     0.00     0.00    0.00    0.00    0.00   0.00   0.00
md0               0.00     0.00 7622.00    0.00 30488.00     0.00     8.00     0.00    0.00    0.00    0.00   0.00   0.00

