Linux 4.17.2 (bench) 	08/04/2018 	_x86_64_	(4 CPU)

avg-cpu:  %user   %nice %system %iowait  %steal   %idle
          10.25    0.02    4.31    2.82    0.00   82.60

Device:         rrqm/s   wrqm/s     r/s     w/s    rkB/s    wkB/s avgrq-sz avgqu-sz   await r_await w_await  svctm  %util
sda              57.61     4.13 1758.45   99.86 21439.24  3055.52    26.36     1.05    0.57    0.26    5.92   0.06  11.17
sdb              57.40     4.09 1758.47   99.99 21428.88  3052.27    26.35     1.05    0.56    0.26    5.85   0.06  11.04
sdc              94.81     4.15 1718.98   99.55 21421.22  3054.67    26.92     1.47    0.81    0.44    7.12   0.08  14.54
sdd              88.43     4.12 1724.54   99.62 21406.39  3050.96    26.81     1.48    0.81    0.43    7.33   0.08  14.63
sde              90.38     4.17 1729.54   99.71 21464.81  3055.10    26.81     1.50    0.82    0.44    7.44   0.08  14.65
sdf              87.58     4.14 1731.62   99.66 21446.55  3052.05    26.76     1.54    0.84    0.43    7.90   0.08  14.69
sdg               0.00     3.15   27.14   73.13   326.86   391.62    14.33     0.44    4.38    0.20    5.93   0.08   0.79
sdh               0.00     0.12    0.02    0.23     2.15     4.93    56.82     0.00    1.15    0.65    1.19   0.21   0.01
md0               0.00     0.00 10905.59  467.86 146901.69 20914.52    29.51     0.00    0.00    0.00    0.00   0.00   0.00

avg-cpu:  %user   %nice %system %iowait  %steal   %idle
          18.54    0.01   17.19    3.42    0.00   60.84

Device:         rrqm/s   wrqm/s     r/s     w/s    rkB/s    wkB/s avgrq-sz avgqu-sz   await r_await w_await  svctm  %util
sda               0.65     0.00  742.90    0.00 14313.00     0.00    38.53     0.29    0.39    0.39    0.00   0.11   8.21
sdb               0.75     0.00  740.65    0.00 14261.20     0.00    38.51     0.28    0.38    0.38    0.00   0.11   7.86
sdc               0.50     0.00  739.00    0.00 14284.00     0.00    38.66     0.39    0.53    0.53    0.00   0.14  10.16
sdd               0.45     0.00  753.05    0.00 14316.40     0.00    38.02     0.39    0.52    0.52    0.00   0.13  10.08
sde               0.45     0.00  732.85    0.00 14106.00     0.00    38.50     0.37    0.50    0.50    0.00   0.14  10.00
sdf               0.20     0.00  730.65    0.00 14213.80     0.00    38.91     0.39    0.53    0.53    0.00   0.14   9.89
sdg               0.00     3.15    1.90  128.55    17.40   637.40    10.04     0.79    6.05    0.32    6.14   0.05   0.61
sdh               0.00     0.00    0.00    0.00     0.00     0.00     0.00     0.00    0.00    0.00    0.00   0.00   0.00
md0               0.00     0.00 4442.10    0.00 90230.60     0.00    40.63     0.00    0.00    0.00    0.00   0.00   0.00

