Linux 4.17.2 (bench) 	08/04/2018 	_x86_64_	(4 CPU)

avg-cpu:  %user   %nice %system %iowait  %steal   %idle
          10.24    0.02    4.35    2.86    0.00   82.53

Device:         rrqm/s   wrqm/s     r/s     w/s    rkB/s    wkB/s avgrq-sz avgqu-sz   await r_await w_await  svctm  %util
sda              58.75     4.12 1767.15   99.42 21431.89  3042.09    26.22     1.05    0.56    0.26    5.92   0.06  11.20
sdb              58.54     4.08 1767.17   99.55 21421.56  3038.85    26.21     1.05    0.56    0.26    5.85   0.06  11.08
sdc              95.79     4.13 1727.85   99.11 21413.95  3041.24    26.77     1.47    0.80    0.44    7.12   0.08  14.57
sdd              89.44     4.10 1733.38   99.18 21399.17  3037.55    26.67     1.47    0.80    0.43    7.33   0.08  14.66
sde              91.38     4.15 1738.34   99.28 21457.22  3041.67    26.66     1.49    0.81    0.43    7.44   0.08  14.68
sdf              88.59     4.12 1740.41   99.22 21439.04  3038.63    26.61     1.54    0.84    0.43    7.90   0.08  14.72
sdg               0.00     3.15   27.22   73.08   326.98   391.43    14.33     0.44    4.37    0.20    5.93   0.08   0.79
sdh               0.00     0.12    0.02    0.23     2.14     4.91    56.82     0.00    1.15    0.65    1.19   0.21   0.01
md0               0.00     0.00 10964.58  465.80 146804.10 20822.59    29.33     0.00    0.00    0.00    0.00   0.00   0.00

avg-cpu:  %user   %nice %system %iowait  %steal   %idle
          17.47    0.01   17.79    2.52    0.00   62.21

Device:         rrqm/s   wrqm/s     r/s     w/s    rkB/s    wkB/s avgrq-sz avgqu-sz   await r_await w_await  svctm  %util
sda               0.50     0.00  691.70    0.00 14004.40     0.00    40.49     0.27    0.40    0.40    0.00   0.11   7.64
sdb               0.90     0.00  677.35    0.00 14266.60     0.00    42.12     0.28    0.42    0.42    0.00   0.11   7.53
sdc               0.45     0.00  679.55    0.00 14065.40     0.00    41.40     0.40    0.58    0.58    0.00   0.14   9.83
sdd               0.60     0.00  682.30    0.00 13977.00     0.00    40.97     0.37    0.55    0.55    0.00   0.14   9.83
sde               0.75     0.00  693.25    0.00 14023.20     0.00    40.46     0.38    0.55    0.55    0.00   0.14   9.82
sdf               0.60     0.00  673.45    0.00 13945.20     0.00    41.41     0.38    0.57    0.57    0.00   0.14   9.53
sdg               0.00     9.50    0.65   71.65     6.40   381.40    10.73     0.42    5.79    0.08    5.84   0.04   0.32
sdh               0.00     0.00    0.00    0.00     0.00     0.00     0.00     0.00    0.00    0.00    0.00   0.00   0.00
md0               0.00     0.00 4101.40    0.00 89502.80     0.00    43.64     0.00    0.00    0.00    0.00   0.00   0.00

