Linux 4.17.2 (bench) 	08/04/2018 	_x86_64_	(4 CPU)

avg-cpu:  %user   %nice %system %iowait  %steal   %idle
          10.25    0.02    4.27    2.81    0.00   82.65

Device:         rrqm/s   wrqm/s     r/s     w/s    rkB/s    wkB/s avgrq-sz avgqu-sz   await r_await w_await  svctm  %util
sda              57.10     4.15 1755.56  100.20 21457.16  3066.10    26.43     1.05    0.57    0.26    5.92   0.06  11.16
sdb              56.89     4.11 1755.58  100.34 21446.77  3062.84    26.41     1.05    0.57    0.26    5.85   0.06  11.03
sdc              94.42     4.17 1715.96   99.90 21439.09  3065.25    26.99     1.47    0.81    0.44    7.12   0.08  14.53
sdd              88.03     4.14 1721.54   99.96 21424.21  3061.53    26.89     1.48    0.81    0.43    7.33   0.08  14.63
sde              89.99     4.18 1726.56  100.06 21482.91  3065.68    26.88     1.50    0.82    0.44    7.44   0.08  14.65
sdf              87.17     4.15 1728.65  100.01 21464.60  3062.61    26.83     1.54    0.84    0.43    7.90   0.08  14.68
sdg               0.00     3.16   27.07   73.17   326.77   391.76    14.34     0.44    4.38    0.20    5.93   0.08   0.79
sdh               0.00     0.13    0.02    0.23     2.16     4.95    56.82     0.00    1.15    0.65    1.19   0.21   0.01
md0               0.00     0.00 10885.17  469.48 147044.36 20986.94    29.60     0.00    0.00    0.00    0.00   0.00   0.00

avg-cpu:  %user   %nice %system %iowait  %steal   %idle
          24.93    0.01    1.81    2.97    0.00   70.27

Device:         rrqm/s   wrqm/s     r/s     w/s    rkB/s    wkB/s avgrq-sz avgqu-sz   await r_await w_await  svctm  %util
sda               0.00     0.00 1520.30    0.00  6081.20     0.00     8.00     0.15    0.10    0.10    0.00   0.10  14.80
sdb               0.00     0.00 1514.10    0.00  6056.40     0.00     8.00     0.15    0.10    0.10    0.00   0.10  14.87
sdc               0.00     0.00 1528.95    0.00  6115.80     0.00     8.00     0.16    0.11    0.11    0.00   0.11  16.27
sdd               0.00     0.00 1521.75    0.00  6087.00     0.00     8.00     0.16    0.10    0.10    0.00   0.10  15.78
sde               0.00     0.00 1517.25    0.00  6069.00     0.00     8.00     0.16    0.11    0.11    0.00   0.11  16.16
sdf               0.00     0.00 1508.65    0.00  6034.60     0.00     8.00     0.16    0.11    0.11    0.00   0.11  15.96
sdg               0.00     8.25   68.35  129.50   278.80   662.80     9.52     0.77    3.91    0.12    5.91   0.07   1.41
sdh               0.00     0.00    0.00    0.00     0.00     0.00     0.00     0.00    0.00    0.00    0.00   0.00   0.00
md0               0.00     0.00 9111.10    0.00 36444.40     0.00     8.00     0.00    0.00    0.00    0.00   0.00   0.00

