Linux 4.17.2 (bench) 	08/04/2018 	_x86_64_	(4 CPU)

avg-cpu:  %user   %nice %system %iowait  %steal   %idle
          10.25    0.02    4.20    2.77    0.00   82.76

Device:         rrqm/s   wrqm/s     r/s     w/s    rkB/s    wkB/s avgrq-sz avgqu-sz   await r_await w_await  svctm  %util
sda              55.83     4.17 1744.88  100.78 21469.83  3083.93    26.61     1.05    0.57    0.26    5.92   0.06  11.12
sdb              55.61     4.13 1744.90  100.92 21459.35  3080.65    26.59     1.05    0.57    0.26    5.85   0.06  10.99
sdc              93.35     4.19 1705.05  100.48 21451.60  3083.07    27.18     1.47    0.82    0.44    7.12   0.08  14.50
sdd              86.91     4.16 1710.68  100.55 21436.68  3079.33    27.07     1.48    0.82    0.43    7.33   0.08  14.60
sde              88.89     4.20 1715.75  100.64 21495.85  3083.51    27.06     1.50    0.83    0.44    7.44   0.08  14.62
sdf              86.06     4.18 1717.84  100.59 21477.41  3080.42    27.01     1.54    0.85    0.44    7.90   0.08  14.65
sdg               0.00     3.16   26.97   73.24   326.64   392.02    14.34     0.44    4.39    0.20    5.93   0.08   0.79
sdh               0.00     0.13    0.02    0.23     2.17     4.98    56.82     0.00    1.15    0.65    1.19   0.21   0.01
md0               0.00     0.00 10813.44  472.21 147190.04 21108.99    29.83     0.00    0.00    0.00    0.00   0.00   0.00

avg-cpu:  %user   %nice %system %iowait  %steal   %idle
          24.82    0.01    1.84    6.61    0.00   66.72

Device:         rrqm/s   wrqm/s     r/s     w/s    rkB/s    wkB/s avgrq-sz avgqu-sz   await r_await w_await  svctm  %util
sda               0.00     0.00 1509.40    0.00  6037.60     0.00     8.00     0.15    0.10    0.10    0.00   0.10  15.14
sdb               0.00     0.00 1502.75    0.00  6011.00     0.00     8.00     0.15    0.10    0.10    0.00   0.10  14.70
sdc               0.00     0.00 1524.20    0.00  6096.80     0.00     8.00     0.16    0.10    0.10    0.00   0.10  15.78
sdd               0.00     0.00 1504.25    0.00  6017.00     0.00     8.00     0.16    0.10    0.10    0.00   0.10  15.79
sde               0.00     0.00 1525.45    0.00  6101.80     0.00     8.00     0.16    0.10    0.10    0.00   0.10  15.99
sdf               0.00     0.00 1501.35    0.00  6005.40     0.00     8.00     0.17    0.11    0.11    0.00   0.11  17.12
sdg               0.00     0.10  161.55    0.40   670.20     9.40     8.39     0.02    0.12    0.12    0.00   0.12   1.94
sdh               0.00     0.00    0.00    0.00     0.00     0.00     0.00     0.00    0.00    0.00    0.00   0.00   0.00
md0               0.00     0.00 9067.50    0.00 36270.00     0.00     8.00     0.00    0.00    0.00    0.00   0.00   0.00

