Linux 4.17.2 (bench) 	08/04/2018 	_x86_64_	(4 CPU)

avg-cpu:  %user   %nice %system %iowait  %steal   %idle
          10.25    0.02    4.27    2.82    0.00   82.64

Device:         rrqm/s   wrqm/s     r/s     w/s    rkB/s    wkB/s avgrq-sz avgqu-sz   await r_await w_await  svctm  %util
sda              57.72     4.15 1758.34  100.13 21462.40  3063.89    26.39     1.05    0.57    0.26    5.92   0.06  11.17
sdb              57.51     4.11 1758.37  100.26 21452.02  3060.63    26.38     1.05    0.57    0.26    5.85   0.06  11.05
sdc              95.02     4.16 1718.77   99.82 21444.34  3063.03    26.95     1.47    0.81    0.44    7.12   0.08  14.55
sdd              88.62     4.13 1724.34   99.89 21429.47  3059.32    26.85     1.48    0.81    0.43    7.33   0.08  14.64
sde              90.58     4.18 1729.36   99.99 21488.09  3063.47    26.84     1.50    0.82    0.44    7.44   0.08  14.66
sdf              87.77     4.15 1731.44   99.93 21469.78  3060.40    26.79     1.54    0.84    0.43    7.90   0.08  14.69
sdg               0.00     3.16   27.09   73.17   326.81   391.74    14.33     0.44    4.38    0.20    5.93   0.08   0.79
sdh               0.00     0.13    0.02    0.23     2.16     4.94    56.82     0.00    1.15    0.65    1.19   0.21   0.01
md0               0.00     0.00 10905.57  469.14 147065.79 20971.80    29.55     0.00    0.00    0.00    0.00   0.00   0.00

avg-cpu:  %user   %nice %system %iowait  %steal   %idle
          23.40    0.01    3.42    0.64    0.00   72.53

Device:         rrqm/s   wrqm/s     r/s     w/s    rkB/s    wkB/s avgrq-sz avgqu-sz   await r_await w_await  svctm  %util
sda               0.00     0.00 1567.80    0.00  7158.60     0.00     9.13     0.16    0.10    0.10    0.00   0.09  14.31
sdb               0.00     0.00 1576.05    0.00  7188.00     0.00     9.12     0.17    0.11    0.11    0.00   0.09  14.80
sdc               0.00     0.00 1583.40    0.00  7283.40     0.00     9.20     0.19    0.12    0.12    0.00   0.10  16.21
sdd               0.00     0.00 1560.20    0.00  7100.60     0.00     9.10     0.18    0.11    0.11    0.00   0.10  15.89
sde               0.00     0.00 1563.70    0.00  7102.60     0.00     9.08     0.18    0.11    0.11    0.00   0.10  15.98
sdf               0.00     0.00 1556.80    0.00  7054.80     0.00     9.06     0.18    0.12    0.12    0.00   0.10  15.95
sdg               0.00     0.15    1.60    0.55     8.80    10.20    17.67     0.00    0.26    0.16    0.55   0.16   0.04
sdh               0.00     0.00    0.00    0.00     0.00     0.00     0.00     0.00    0.00    0.00    0.00   0.00   0.00
md0               0.00     0.00 9408.00    0.00 42982.20     0.00     9.14     0.00    0.00    0.00    0.00   0.00   0.00

