Linux 4.17.2 (bench) 	08/04/2018 	_x86_64_	(4 CPU)

avg-cpu:  %user   %nice %system %iowait  %steal   %idle
          10.24    0.02    4.34    2.86    0.00   82.54

Device:         rrqm/s   wrqm/s     r/s     w/s    rkB/s    wkB/s avgrq-sz avgqu-sz   await r_await w_await  svctm  %util
sda              58.78     4.12 1767.09   99.48 21437.18  3043.94    26.23     1.05    0.56    0.26    5.92   0.06  11.20
sdb              58.57     4.08 1767.11   99.61 21426.85  3040.70    26.21     1.05    0.56    0.26    5.85   0.06  11.08
sdc              95.84     4.14 1727.76   99.17 21419.23  3043.09    26.78     1.47    0.80    0.44    7.12   0.08  14.57
sdd              89.49     4.11 1733.30   99.24 21404.44  3039.40    26.68     1.47    0.80    0.43    7.33   0.08  14.66
sde              91.44     4.15 1738.26   99.34 21462.54  3043.52    26.67     1.50    0.81    0.43    7.44   0.08  14.69
sdf              88.64     4.12 1740.33   99.28 21444.35  3040.48    26.62     1.54    0.84    0.43    7.90   0.08  14.72
sdg               0.00     3.15   27.21   73.09   326.97   391.46    14.33     0.44    4.37    0.20    5.93   0.08   0.79
sdh               0.00     0.12    0.02    0.23     2.14     4.91    56.82     0.00    1.15    0.65    1.19   0.21   0.01
md0               0.00     0.00 10964.39  466.08 146840.87 20835.24    29.34     0.00    0.00    0.00    0.00   0.00   0.00

avg-cpu:  %user   %nice %system %iowait  %steal   %idle
          23.68    0.00    3.02    1.26    0.00   72.04

Device:         rrqm/s   wrqm/s     r/s     w/s    rkB/s    wkB/s avgrq-sz avgqu-sz   await r_await w_await  svctm  %util
sda              50.00     0.00 1188.00    0.00 33612.00     0.00    56.59     0.24    0.20    0.20    0.00   0.16  19.40
sdb              50.00     0.00 1123.00    0.00 34536.00     0.00    61.51     0.26    0.23    0.23    0.00   0.19  20.90
sdc              54.00     0.00 1074.00    0.00 35984.00     0.00    67.01     0.34    0.31    0.31    0.00   0.23  24.50
sdd              55.00     0.00 1039.00    0.00 35584.00     0.00    68.50     0.38    0.36    0.36    0.00   0.25  25.50
sde              48.00     0.00 1180.00    0.00 34508.00     0.00    58.49     0.36    0.30    0.30    0.00   0.21  25.20
sdf              48.00     0.00 1126.00    0.00 34260.00     0.00    60.85     0.36    0.32    0.32    0.00   0.23  26.00
sdg               0.00     0.00    0.00    0.00     0.00     0.00     0.00     0.00    0.00    0.00    0.00   0.00   0.00
sdh               0.00     0.00    0.00    0.00     0.00     0.00     0.00     0.00    0.00    0.00    0.00   0.00   0.00
md0               0.00     0.00 7046.00    0.00 284860.00     0.00    80.86     0.00    0.00    0.00    0.00   0.00   0.00

avg-cpu:  %user   %nice %system %iowait  %steal   %idle
          23.62    0.00    2.76    1.26    0.00   72.36

Device:         rrqm/s   wrqm/s     r/s     w/s    rkB/s    wkB/s avgrq-sz avgqu-sz   await r_await w_await  svctm  %util
sda              23.00     0.00 1175.00    0.00 23120.00     0.00    39.35     0.18    0.16    0.16    0.00   0.14  16.50
sdb              26.00     0.00 1198.00    0.00 24132.00     0.00    40.29     0.19    0.16    0.16    0.00   0.14  17.20
sdc              23.00     0.00 1199.00    0.00 22748.00     0.00    37.94     0.25    0.21    0.21    0.00   0.17  20.60
sdd              23.00     0.00 1187.00    0.00 23468.00     0.00    39.54     0.25    0.21    0.21    0.00   0.18  20.90
sde              20.00     0.00 1241.00    0.00 21924.00     0.00    35.33     0.24    0.20    0.20    0.00   0.16  20.40
sdf              18.00     0.00 1220.00    0.00 21888.00     0.00    35.88     0.24    0.20    0.20    0.00   0.17  21.00
sdg               0.00     0.00    0.00    0.00     0.00     0.00     0.00     0.00    0.00    0.00    0.00   0.00   0.00
sdh               0.00     0.00    0.00    0.00     0.00     0.00     0.00     0.00    0.00    0.00    0.00   0.00   0.00
md0               0.00     0.00 7342.00    0.00 176900.00     0.00    48.19     0.00    0.00    0.00    0.00   0.00   0.00

