Linux 4.17.2 (bench) 	08/04/2018 	_x86_64_	(4 CPU)

avg-cpu:  %user   %nice %system %iowait  %steal   %idle
          10.25    0.02    4.31    2.82    0.00   82.60

Device:         rrqm/s   wrqm/s     r/s     w/s    rkB/s    wkB/s avgrq-sz avgqu-sz   await r_await w_await  svctm  %util
sda              57.64     4.13 1758.36   99.83 21437.60  3054.82    26.36     1.05    0.57    0.26    5.92   0.06  11.16
sdb              57.43     4.09 1758.39   99.97 21427.24  3051.57    26.34     1.05    0.56    0.26    5.85   0.06  11.04
sdc              94.83     4.15 1718.90   99.53 21419.58  3053.96    26.92     1.47    0.81    0.44    7.12   0.08  14.54
sdd              88.46     4.12 1724.46   99.60 21404.75  3050.26    26.81     1.48    0.81    0.43    7.33   0.08  14.63
sde              90.41     4.16 1729.45   99.69 21463.15  3054.40    26.81     1.50    0.82    0.44    7.44   0.08  14.65
sdf              87.60     4.14 1731.53   99.64 21444.90  3051.34    26.75     1.54    0.84    0.43    7.90   0.08  14.69
sdg               0.00     3.15   27.14   73.13   326.86   391.60    14.33     0.44    4.38    0.20    5.93   0.08   0.79
sdh               0.00     0.12    0.02    0.23     2.15     4.93    56.82     0.00    1.15    0.65    1.19   0.21   0.01
md0               0.00     0.00 10905.25  467.75 146890.52 20909.69    29.51     0.00    0.00    0.00    0.00   0.00   0.00

avg-cpu:  %user   %nice %system %iowait  %steal   %idle
          23.99    0.00    4.55   10.10    0.00   61.36

Device:         rrqm/s   wrqm/s     r/s     w/s    rkB/s    wkB/s avgrq-sz avgqu-sz   await r_await w_await  svctm  %util
sda               3.00     0.00 2124.00    0.00 51460.00     0.00    48.46     1.52    0.72    0.72    0.00   0.11  23.20
sdb               8.00     0.00 2156.00    0.00 49808.00     0.00    46.20     1.55    0.72    0.72    0.00   0.11  23.20
sdc               1.00     0.00 2075.00    0.00 48644.00     0.00    46.89     2.89    1.39    1.39    0.00   0.15  31.30
sdd               7.00     0.00 2202.00    0.00 51548.00     0.00    46.82     3.08    1.40    1.40    0.00   0.15  32.10
sde               3.00     0.00 2194.00    0.00 54340.00     0.00    49.54     3.17    1.44    1.44    0.00   0.15  32.00
sdf               2.00     0.00 2130.00    0.00 53576.00     0.00    50.31     3.19    1.50    1.50    0.00   0.15  31.40
sdg               0.00     0.00    3.00    0.00    88.00     0.00    58.67     0.00    0.00    0.00    0.00   0.00   0.00
sdh               0.00     0.00    0.00    0.00     0.00     0.00     0.00     0.00    0.00    0.00    0.00   0.00   0.00
md0               0.00     0.00 12908.00    0.00 328148.00     0.00    50.84     0.00    0.00    0.00    0.00   0.00   0.00

avg-cpu:  %user   %nice %system %iowait  %steal   %idle
          24.81    0.00    2.28    7.85    0.00   65.06

Device:         rrqm/s   wrqm/s     r/s     w/s    rkB/s    wkB/s avgrq-sz avgqu-sz   await r_await w_await  svctm  %util
sda              19.00     0.00 1184.00    0.00 20296.00     0.00    34.28     0.19    0.16    0.16    0.00   0.15  17.60
sdb              18.00     0.00 1176.00    0.00 19488.00     0.00    33.14     0.18    0.15    0.15    0.00   0.13  15.70
sdc              16.00     0.00 1216.00    0.00 18464.00     0.00    30.37     0.23    0.19    0.19    0.00   0.17  20.30
sdd              16.00     0.00 1184.00    0.00 19592.00     0.00    33.09     0.21    0.18    0.18    0.00   0.16  19.20
sde              20.00     0.00 1138.00    0.00 21364.00     0.00    37.55     0.22    0.20    0.20    0.00   0.17  19.90
sdf              21.00     0.00 1121.00    0.00 21484.00     0.00    38.33     0.21    0.19    0.19    0.00   0.17  19.10
sdg               0.00     0.00    0.00    0.00     0.00     0.00     0.00     0.00    0.00    0.00    0.00   0.00   0.00
sdh               0.00     0.00    0.00    0.00     0.00     0.00     0.00     0.00    0.00    0.00    0.00   0.00   0.00
md0               0.00     0.00 7128.00    0.00 155956.00     0.00    43.76     0.00    0.00    0.00    0.00   0.00   0.00

avg-cpu:  %user   %nice %system %iowait  %steal   %idle
          24.81    0.00    2.03    7.59    0.00   65.57

Device:         rrqm/s   wrqm/s     r/s     w/s    rkB/s    wkB/s avgrq-sz avgqu-sz   await r_await w_await  svctm  %util
sda              12.00     0.00 1260.00    0.00 15856.00     0.00    25.17     0.17    0.14    0.14    0.00   0.13  16.30
sdb              11.00     0.00 1130.00    0.00 17972.00     0.00    31.81     0.17    0.15    0.15    0.00   0.14  15.80
sdc              14.00     0.00 1165.00    0.00 15924.00     0.00    27.34     0.20    0.17    0.17    0.00   0.15  17.90
sdd              13.00     0.00 1164.00    0.00 17728.00     0.00    30.46     0.19    0.17    0.17    0.00   0.15  17.90
sde              11.00     0.00 1222.00    0.00 16492.00     0.00    26.99     0.20    0.17    0.17    0.00   0.15  18.50
sdf              13.00     0.00 1197.00    0.00 17040.00     0.00    28.47     0.21    0.18    0.18    0.00   0.16  19.40
sdg               0.00     0.00    0.00    0.00     0.00     0.00     0.00     0.00    0.00    0.00    0.00   0.00   0.00
sdh               0.00     0.00    0.00    0.00     0.00     0.00     0.00     0.00    0.00    0.00    0.00   0.00   0.00
md0               0.00     0.00 7212.00    0.00 129960.00     0.00    36.04     0.00    0.00    0.00    0.00   0.00   0.00

avg-cpu:  %user   %nice %system %iowait  %steal   %idle
          24.43    0.00    2.52   10.83    0.00   62.22

Device:         rrqm/s   wrqm/s     r/s     w/s    rkB/s    wkB/s avgrq-sz avgqu-sz   await r_await w_await  svctm  %util
sda              16.00     0.00 1233.00    0.00 19320.00     0.00    31.34     0.18    0.15    0.15    0.00   0.14  16.70
sdb              21.00     0.00 1134.00    0.00 20892.00     0.00    36.85     0.18    0.16    0.16    0.00   0.14  16.30
sdc              22.00     0.00 1172.00    0.00 21912.00     0.00    37.39     0.23    0.19    0.19    0.00   0.17  19.70
sdd              21.00     0.00 1135.00    0.00 21768.00     0.00    38.36     0.21    0.19    0.19    0.00   0.16  18.30
sde              22.00     0.00 1085.00    0.00 21568.00     0.00    39.76     0.21    0.20    0.20    0.00   0.17  18.80
sdf              17.00     0.00 1181.00    0.00 19240.00     0.00    32.58     0.21    0.18    0.18    0.00   0.16  19.00
sdg               0.00     0.00    0.00    0.00     0.00     0.00     0.00     0.00    0.00    0.00    0.00   0.00   0.00
sdh               0.00     0.00    0.00    0.00     0.00     0.00     0.00     0.00    0.00    0.00    0.00   0.00   0.00
md0               0.00     0.00 7059.00    0.00 158372.00     0.00    44.87     0.00    0.00    0.00    0.00   0.00   0.00

avg-cpu:  %user   %nice %system %iowait  %steal   %idle
          23.74    0.00    5.05    8.84    0.00   62.37

Device:         rrqm/s   wrqm/s     r/s     w/s    rkB/s    wkB/s avgrq-sz avgqu-sz   await r_await w_await  svctm  %util
sda              12.00     0.00 1783.00    0.00 30952.00     0.00    34.72     0.82    0.46    0.46    0.00   0.11  18.80
sdb              16.00     0.00 1907.00    0.00 34044.00     0.00    35.70     0.98    0.51    0.51    0.00   0.10  18.60
sdc              17.00     0.00 1835.00    0.00 36892.00     0.00    40.21     1.55    0.85    0.85    0.00   0.14  25.60
sdd              19.00     0.00 1807.00    0.00 35260.00     0.00    39.03     1.71    0.95    0.95    0.00   0.13  23.40
sde              17.00     0.00 1834.00    0.00 33560.00     0.00    36.60     1.50    0.82    0.82    0.00   0.14  24.80
sdf              14.00     0.00 1699.00    0.00 31152.00     0.00    36.67     1.24    0.73    0.73    0.00   0.14  23.10
sdg               0.00     1.00    9.00    5.00    36.00    40.00    10.86     0.00    0.07    0.11    0.00   0.07   0.10
sdh               0.00     0.00    0.00    0.00     0.00     0.00     0.00     0.00    0.00    0.00    0.00   0.00   0.00
md0               0.00     0.00 10958.00    0.00 237088.00     0.00    43.27     0.00    0.00    0.00    0.00   0.00   0.00

avg-cpu:  %user   %nice %system %iowait  %steal   %idle
          23.29    0.00    5.57    7.85    0.00   63.29

Device:         rrqm/s   wrqm/s     r/s     w/s    rkB/s    wkB/s avgrq-sz avgqu-sz   await r_await w_await  svctm  %util
sda               1.00     0.00 2380.00    0.00 51816.00     0.00    43.54     1.87    0.78    0.78    0.00   0.09  22.60
sdb               1.00     0.00 2299.00    0.00 50516.00     0.00    43.95     1.75    0.75    0.75    0.00   0.10  23.00
sdc               4.00     0.00 2423.00    0.00 50240.00     0.00    41.47     3.15    1.29    1.29    0.00   0.13  31.00
sdd               2.00     0.00 2251.00    0.00 47796.00     0.00    42.47     2.70    1.18    1.18    0.00   0.14  31.40
sde               1.00     0.00 2309.00    0.00 49188.00     0.00    42.61     3.08    1.32    1.32    0.00   0.13  29.50
sdf               2.00     0.00 2221.00    0.00 48872.00     0.00    44.01     2.79    1.24    1.24    0.00   0.14  30.90
sdg               0.00     0.00    0.00    0.00     0.00     0.00     0.00     0.00    0.00    0.00    0.00   0.00   0.00
sdh               0.00     0.00    0.00    0.00     0.00     0.00     0.00     0.00    0.00    0.00    0.00   0.00   0.00
md0               0.00     0.00 14033.00    0.00 320128.00     0.00    45.63     0.00    0.00    0.00    0.00   0.00   0.00

avg-cpu:  %user   %nice %system %iowait  %steal   %idle
          24.11    0.00    4.06    8.38    0.00   63.45

Device:         rrqm/s   wrqm/s     r/s     w/s    rkB/s    wkB/s avgrq-sz avgqu-sz   await r_await w_await  svctm  %util
sda               6.00     0.00 2164.00    0.00 50944.00     0.00    47.08     1.69    0.79    0.79    0.00   0.10  22.70
sdb               5.00     0.00 2065.00    0.00 48228.00     0.00    46.71     1.67    0.82    0.82    0.00   0.11  22.50
sdc               7.00     0.00 2050.00    0.00 47880.00     0.00    46.71     2.93    1.44    1.44    0.00   0.15  29.80
sdd               4.00     0.00 2028.00    0.00 46328.00     0.00    45.69     2.80    1.40    1.40    0.00   0.15  29.80
sde               8.00     0.00 2061.00    0.00 48236.00     0.00    46.81     2.98    1.46    1.46    0.00   0.14  29.70
sdf               4.00     0.00 2073.00    0.00 51964.00     0.00    50.13     3.33    1.62    1.62    0.00   0.15  30.90
sdg               0.00     0.00    0.00    0.00     0.00     0.00     0.00     0.00    0.00    0.00    0.00   0.00   0.00
sdh               0.00     0.00    0.00    0.00     0.00     0.00     0.00     0.00    0.00    0.00    0.00   0.00   0.00
md0               0.00     0.00 12337.00    0.00 307496.00     0.00    49.85     0.00    0.00    0.00    0.00   0.00   0.00

avg-cpu:  %user   %nice %system %iowait  %steal   %idle
          19.75    0.25   14.18    2.28    0.00   63.54

Device:         rrqm/s   wrqm/s     r/s     w/s    rkB/s    wkB/s avgrq-sz avgqu-sz   await r_await w_await  svctm  %util
sda               2.00     0.00 3036.00    0.00 55472.00     0.00    36.54     2.71    0.89    0.89    0.00   0.07  21.30
sdb               3.00     0.00 3053.00    0.00 56356.00     0.00    36.92     2.80    0.92    0.92    0.00   0.07  21.10
sdc               6.00     0.00 3136.00    0.00 56308.00     0.00    35.91     4.68    1.49    1.49    0.00   0.09  29.20
sdd               5.00     0.00 3181.00    0.00 58520.00     0.00    36.79     4.95    1.56    1.56    0.00   0.09  29.80
sde               5.00     0.00 3064.00    0.00 56852.00     0.00    37.11     4.76    1.55    1.55    0.00   0.10  30.20
sdf               4.00     0.00 2896.00    0.00 54640.00     0.00    37.73     4.45    1.54    1.54    0.00   0.10  29.50
sdg               0.00     0.00   40.00    0.00   472.00     0.00    23.60     0.01    0.15    0.15    0.00   0.15   0.60
sdh               0.00     0.00    0.00    0.00     0.00     0.00     0.00     0.00    0.00    0.00    0.00   0.00   0.00
md0               0.00     0.00 18390.00    0.00 348672.00     0.00    37.92     0.00    0.00    0.00    0.00   0.00   0.00

avg-cpu:  %user   %nice %system %iowait  %steal   %idle
          15.40    0.00   20.96    1.01    0.00   62.63

Device:         rrqm/s   wrqm/s     r/s     w/s    rkB/s    wkB/s avgrq-sz avgqu-sz   await r_await w_await  svctm  %util
sda               0.00     0.00  862.00    0.00 11216.00     0.00    26.02     0.52    0.61    0.61    0.00   0.05   4.30
sdb               0.00     0.00  828.00    0.00 11300.00     0.00    27.29     0.44    0.53    0.53    0.00   0.05   3.80
sdc               0.00     0.00  823.00    0.00 11192.00     0.00    27.20     0.82    0.99    0.99    0.00   0.07   6.00
sdd               0.00     0.00  821.00    0.00 10472.00     0.00    25.51     0.79    0.97    0.97    0.00   0.07   5.60
sde               0.00     0.00  722.00    0.00  9612.00     0.00    26.63     0.79    1.09    1.09    0.00   0.07   4.70
sdf               1.00     0.00  715.00    0.00  9000.00     0.00    25.17     0.62    0.87    0.87    0.00   0.07   4.80
sdg               0.00     0.00    0.00    0.00     0.00     0.00     0.00     0.00    0.00    0.00    0.00   0.00   0.00
sdh               0.00     0.00    0.00    0.00     0.00     0.00     0.00     0.00    0.00    0.00    0.00   0.00   0.00
md0               0.00     0.00 4772.00    0.00 63740.00     0.00    26.71     0.00    0.00    0.00    0.00   0.00   0.00

avg-cpu:  %user   %nice %system %iowait  %steal   %idle
          14.32    0.00   22.86    0.00    0.00   62.81

Device:         rrqm/s   wrqm/s     r/s     w/s    rkB/s    wkB/s avgrq-sz avgqu-sz   await r_await w_await  svctm  %util
sda               0.00     0.00   30.00    0.00   232.00     0.00    15.47     0.01    0.23    0.23    0.00   0.10   0.30
sdb               0.00     0.00    9.00    0.00    52.00     0.00    11.56     0.01    0.89    0.89    0.00   0.22   0.20
sdc               0.00     0.00   38.00    0.00   268.00     0.00    14.11     0.01    0.16    0.16    0.00   0.11   0.40
sdd               0.00     0.00   37.00    0.00   268.00     0.00    14.49     0.02    0.49    0.49    0.00   0.08   0.30
sde               0.00     0.00   23.00    0.00   216.00     0.00    18.78     0.00    0.17    0.17    0.00   0.09   0.20
sdf               0.00     0.00   23.00    0.00   132.00     0.00    11.48     0.00    0.04    0.04    0.00   0.04   0.10
sdg               0.00     1.00    0.00    2.00     0.00    36.00    36.00     0.00    0.00    0.00    0.00   0.00   0.00
sdh               0.00     0.00    0.00    0.00     0.00     0.00     0.00     0.00    0.00    0.00    0.00   0.00   0.00
md0               0.00     0.00  160.00    0.00  1172.00     0.00    14.65     0.00    0.00    0.00    0.00   0.00   0.00

avg-cpu:  %user   %nice %system %iowait  %steal   %idle
          13.72    0.00   24.19    0.00    0.00   62.09

Device:         rrqm/s   wrqm/s     r/s     w/s    rkB/s    wkB/s avgrq-sz avgqu-sz   await r_await w_await  svctm  %util
sda               0.00     0.00    3.00    0.00    12.00     0.00     8.00     0.00    0.00    0.00    0.00   0.00   0.00
sdb               0.00     0.00    0.00    0.00     0.00     0.00     0.00     0.00    0.00    0.00    0.00   0.00   0.00
sdc               0.00     0.00    1.00    0.00    16.00     0.00    32.00     0.00    0.00    0.00    0.00   0.00   0.00
sdd               0.00     0.00    1.00    0.00     4.00     0.00     8.00     0.00    0.00    0.00    0.00   0.00   0.00
sde               0.00     0.00    2.00    0.00     8.00     0.00     8.00     0.00    0.00    0.00    0.00   0.00   0.00
sdf               0.00     0.00    0.00    0.00     0.00     0.00     0.00     0.00    0.00    0.00    0.00   0.00   0.00
sdg               0.00     0.00    0.00    0.00     0.00     0.00     0.00     0.00    0.00    0.00    0.00   0.00   0.00
sdh               0.00     0.00    0.00    0.00     0.00     0.00     0.00     0.00    0.00    0.00    0.00   0.00   0.00
md0               0.00     0.00    7.00    0.00    40.00     0.00    11.43     0.00    0.00    0.00    0.00   0.00   0.00

avg-cpu:  %user   %nice %system %iowait  %steal   %idle
          13.68    0.00   24.13    0.00    0.00   62.19

Device:         rrqm/s   wrqm/s     r/s     w/s    rkB/s    wkB/s avgrq-sz avgqu-sz   await r_await w_await  svctm  %util
sda               0.00     0.00    0.00    0.00     0.00     0.00     0.00     0.00    0.00    0.00    0.00   0.00   0.00
sdb               0.00     0.00    0.00    0.00     0.00     0.00     0.00     0.00    0.00    0.00    0.00   0.00   0.00
sdc               0.00     0.00    5.00    0.00    24.00     0.00     9.60     0.00    0.00    0.00    0.00   0.00   0.00
sdd               0.00     0.00    1.00    0.00     4.00     0.00     8.00     0.00    0.00    0.00    0.00   0.00   0.00
sde               0.00     0.00    0.00    0.00     0.00     0.00     0.00     0.00    0.00    0.00    0.00   0.00   0.00
sdf               0.00     0.00    0.00    0.00     0.00     0.00     0.00     0.00    0.00    0.00    0.00   0.00   0.00
sdg               0.00     0.00    0.00    0.00     0.00     0.00     0.00     0.00    0.00    0.00    0.00   0.00   0.00
sdh               0.00     0.00    0.00    0.00     0.00     0.00     0.00     0.00    0.00    0.00    0.00   0.00   0.00
md0               0.00     0.00    6.00    0.00    28.00     0.00     9.33     0.00    0.00    0.00    0.00   0.00   0.00

avg-cpu:  %user   %nice %system %iowait  %steal   %idle
          13.47    0.00   24.44    0.00    0.00   62.09

Device:         rrqm/s   wrqm/s     r/s     w/s    rkB/s    wkB/s avgrq-sz avgqu-sz   await r_await w_await  svctm  %util
sda               0.00     0.00    0.00    0.00     0.00     0.00     0.00     0.00    0.00    0.00    0.00   0.00   0.00
sdb               0.00     0.00    0.00    0.00     0.00     0.00     0.00     0.00    0.00    0.00    0.00   0.00   0.00
sdc               0.00     0.00    0.00    0.00     0.00     0.00     0.00     0.00    0.00    0.00    0.00   0.00   0.00
sdd               0.00     0.00    3.00    0.00    12.00     0.00     8.00     0.00    0.00    0.00    0.00   0.00   0.00
sde               0.00     0.00    0.00    0.00     0.00     0.00     0.00     0.00    0.00    0.00    0.00   0.00   0.00
sdf               0.00     0.00    0.00    0.00     0.00     0.00     0.00     0.00    0.00    0.00    0.00   0.00   0.00
sdg               0.00     0.00    0.00    0.00     0.00     0.00     0.00     0.00    0.00    0.00    0.00   0.00   0.00
sdh               0.00     0.00    0.00    0.00     0.00     0.00     0.00     0.00    0.00    0.00    0.00   0.00   0.00
md0               0.00     0.00    3.00    0.00    12.00     0.00     8.00     0.00    0.00    0.00    0.00   0.00   0.00

avg-cpu:  %user   %nice %system %iowait  %steal   %idle
          14.39    0.00   23.82    0.00    0.00   61.79

Device:         rrqm/s   wrqm/s     r/s     w/s    rkB/s    wkB/s avgrq-sz avgqu-sz   await r_await w_await  svctm  %util
sda               0.00     0.00    0.00    0.00     0.00     0.00     0.00     0.00    0.00    0.00    0.00   0.00   0.00
sdb               0.00     0.00    0.00    0.00     0.00     0.00     0.00     0.00    0.00    0.00    0.00   0.00   0.00
sdc               0.00     0.00    0.00    0.00     0.00     0.00     0.00     0.00    0.00    0.00    0.00   0.00   0.00
sdd               0.00     0.00    1.00    0.00     4.00     0.00     8.00     0.00    0.00    0.00    0.00   0.00   0.00
sde               0.00     0.00    0.00    0.00     0.00     0.00     0.00     0.00    0.00    0.00    0.00   0.00   0.00
sdf               0.00     0.00    0.00    0.00     0.00     0.00     0.00     0.00    0.00    0.00    0.00   0.00   0.00
sdg               0.00     0.00    0.00    0.00     0.00     0.00     0.00     0.00    0.00    0.00    0.00   0.00   0.00
sdh               0.00     0.00    0.00    0.00     0.00     0.00     0.00     0.00    0.00    0.00    0.00   0.00   0.00
md0               0.00     0.00    1.00    0.00     4.00     0.00     8.00     0.00    0.00    0.00    0.00   0.00   0.00

avg-cpu:  %user   %nice %system %iowait  %steal   %idle
          14.29    0.00   23.31    0.00    0.00   62.41

Device:         rrqm/s   wrqm/s     r/s     w/s    rkB/s    wkB/s avgrq-sz avgqu-sz   await r_await w_await  svctm  %util
sda               0.00     0.00    0.00    0.00     0.00     0.00     0.00     0.00    0.00    0.00    0.00   0.00   0.00
sdb               0.00     0.00    0.00    0.00     0.00     0.00     0.00     0.00    0.00    0.00    0.00   0.00   0.00
sdc               0.00     0.00    0.00    0.00     0.00     0.00     0.00     0.00    0.00    0.00    0.00   0.00   0.00
sdd               0.00     0.00    0.00    0.00     0.00     0.00     0.00     0.00    0.00    0.00    0.00   0.00   0.00
sde               0.00     0.00    0.00    0.00     0.00     0.00     0.00     0.00    0.00    0.00    0.00   0.00   0.00
sdf               0.00     0.00    0.00    0.00     0.00     0.00     0.00     0.00    0.00    0.00    0.00   0.00   0.00
sdg               0.00     0.00    0.00    0.00     0.00     0.00     0.00     0.00    0.00    0.00    0.00   0.00   0.00
sdh               0.00     0.00    0.00    0.00     0.00     0.00     0.00     0.00    0.00    0.00    0.00   0.00   0.00
md0               0.00     0.00    0.00    0.00     0.00     0.00     0.00     0.00    0.00    0.00    0.00   0.00   0.00

avg-cpu:  %user   %nice %system %iowait  %steal   %idle
          13.71    0.00   23.60    0.76    0.00   61.93

Device:         rrqm/s   wrqm/s     r/s     w/s    rkB/s    wkB/s avgrq-sz avgqu-sz   await r_await w_await  svctm  %util
sda               0.00     0.00    0.00    0.00     0.00     0.00     0.00     0.00    0.00    0.00    0.00   0.00   0.00
sdb               0.00     0.00    0.00    0.00     0.00     0.00     0.00     0.00    0.00    0.00    0.00   0.00   0.00
sdc               0.00     0.00    0.00    0.00     0.00     0.00     0.00     0.00    0.00    0.00    0.00   0.00   0.00
sdd               0.00     0.00    0.00    0.00     0.00     0.00     0.00     0.00    0.00    0.00    0.00   0.00   0.00
sde               0.00     0.00    0.00    0.00     0.00     0.00     0.00     0.00    0.00    0.00    0.00   0.00   0.00
sdf               0.00     0.00    0.00    0.00     0.00     0.00     0.00     0.00    0.00    0.00    0.00   0.00   0.00
sdg               0.00     6.00    0.00 1433.00     0.00  7468.00    10.42     8.72    6.09    0.00    6.09   0.05   6.50
sdh               0.00     0.00    0.00    0.00     0.00     0.00     0.00     0.00    0.00    0.00    0.00   0.00   0.00
md0               0.00     0.00    0.00    0.00     0.00     0.00     0.00     0.00    0.00    0.00    0.00   0.00   0.00

avg-cpu:  %user   %nice %system %iowait  %steal   %idle
          14.21    0.00   23.94    0.00    0.00   61.85

Device:         rrqm/s   wrqm/s     r/s     w/s    rkB/s    wkB/s avgrq-sz avgqu-sz   await r_await w_await  svctm  %util
sda               0.00     0.00    0.00    0.00     0.00     0.00     0.00     0.00    0.00    0.00    0.00   0.00   0.00
sdb               0.00     0.00    0.00    0.00     0.00     0.00     0.00     0.00    0.00    0.00    0.00   0.00   0.00
sdc               0.00     0.00    0.00    0.00     0.00     0.00     0.00     0.00    0.00    0.00    0.00   0.00   0.00
sdd               0.00     0.00    0.00    0.00     0.00     0.00     0.00     0.00    0.00    0.00    0.00   0.00   0.00
sde               0.00     0.00    0.00    0.00     0.00     0.00     0.00     0.00    0.00    0.00    0.00   0.00   0.00
sdf               0.00     0.00    0.00    0.00     0.00     0.00     0.00     0.00    0.00    0.00    0.00   0.00   0.00
sdg               0.00     0.00   42.00    1.00   664.00     4.00    31.07     0.01    0.16    0.17    0.00   0.16   0.70
sdh               0.00     0.00    0.00    0.00     0.00     0.00     0.00     0.00    0.00    0.00    0.00   0.00   0.00
md0               0.00     0.00    0.00    0.00     0.00     0.00     0.00     0.00    0.00    0.00    0.00   0.00   0.00

avg-cpu:  %user   %nice %system %iowait  %steal   %idle
          13.82    0.25   24.62    2.76    0.00   58.54

Device:         rrqm/s   wrqm/s     r/s     w/s    rkB/s    wkB/s avgrq-sz avgqu-sz   await r_await w_await  svctm  %util
sda               0.00     0.00    0.00    0.00     0.00     0.00     0.00     0.00    0.00    0.00    0.00   0.00   0.00
sdb               0.00     0.00    0.00    0.00     0.00     0.00     0.00     0.00    0.00    0.00    0.00   0.00   0.00
sdc               0.00     0.00    0.00    0.00     0.00     0.00     0.00     0.00    0.00    0.00    0.00   0.00   0.00
sdd               0.00     0.00    0.00    0.00     0.00     0.00     0.00     0.00    0.00    0.00    0.00   0.00   0.00
sde               0.00     0.00    0.00    0.00     0.00     0.00     0.00     0.00    0.00    0.00    0.00   0.00   0.00
sdf               0.00     0.00    0.00    0.00     0.00     0.00     0.00     0.00    0.00    0.00    0.00   0.00   0.00
sdg               0.00     0.00 1321.00    0.00  5284.00     0.00     8.00     0.15    0.11    0.11    0.00   0.11  14.60
sdh               0.00     0.00    0.00    0.00     0.00     0.00     0.00     0.00    0.00    0.00    0.00   0.00   0.00
md0               0.00     0.00    0.00    0.00     0.00     0.00     0.00     0.00    0.00    0.00    0.00   0.00   0.00

avg-cpu:  %user   %nice %system %iowait  %steal   %idle
          13.78    0.00   23.81    0.00    0.00   62.41

Device:         rrqm/s   wrqm/s     r/s     w/s    rkB/s    wkB/s avgrq-sz avgqu-sz   await r_await w_await  svctm  %util
sda               0.00     0.00    0.00    0.00     0.00     0.00     0.00     0.00    0.00    0.00    0.00   0.00   0.00
sdb               0.00     0.00    0.00    0.00     0.00     0.00     0.00     0.00    0.00    0.00    0.00   0.00   0.00
sdc               0.00     0.00    0.00    0.00     0.00     0.00     0.00     0.00    0.00    0.00    0.00   0.00   0.00
sdd               0.00     0.00    0.00    0.00     0.00     0.00     0.00     0.00    0.00    0.00    0.00   0.00   0.00
sde               0.00     0.00    0.00    0.00     0.00     0.00     0.00     0.00    0.00    0.00    0.00   0.00   0.00
sdf               0.00     0.00    0.00    0.00     0.00     0.00     0.00     0.00    0.00    0.00    0.00   0.00   0.00
sdg               0.00     0.00    0.00    0.00     0.00     0.00     0.00     0.00    0.00    0.00    0.00   0.00   0.00
sdh               0.00     0.00    0.00    0.00     0.00     0.00     0.00     0.00    0.00    0.00    0.00   0.00   0.00
md0               0.00     0.00    0.00    0.00     0.00     0.00     0.00     0.00    0.00    0.00    0.00   0.00   0.00

avg-cpu:  %user   %nice %system %iowait  %steal   %idle
          13.75    0.00   24.00    0.00    0.00   62.25

Device:         rrqm/s   wrqm/s     r/s     w/s    rkB/s    wkB/s avgrq-sz avgqu-sz   await r_await w_await  svctm  %util
sda               0.00     0.00    0.00    0.00     0.00     0.00     0.00     0.00    0.00    0.00    0.00   0.00   0.00
sdb               0.00     0.00    0.00    0.00     0.00     0.00     0.00     0.00    0.00    0.00    0.00   0.00   0.00
sdc               0.00     0.00    0.00    0.00     0.00     0.00     0.00     0.00    0.00    0.00    0.00   0.00   0.00
sdd               0.00     0.00    0.00    0.00     0.00     0.00     0.00     0.00    0.00    0.00    0.00   0.00   0.00
sde               0.00     0.00    0.00    0.00     0.00     0.00     0.00     0.00    0.00    0.00    0.00   0.00   0.00
sdf               0.00     0.00    0.00    0.00     0.00     0.00     0.00     0.00    0.00    0.00    0.00   0.00   0.00
sdg               0.00     0.00    0.00    0.00     0.00     0.00     0.00     0.00    0.00    0.00    0.00   0.00   0.00
sdh               0.00     0.00    0.00    0.00     0.00     0.00     0.00     0.00    0.00    0.00    0.00   0.00   0.00
md0               0.00     0.00    0.00    0.00     0.00     0.00     0.00     0.00    0.00    0.00    0.00   0.00   0.00

