Linux 4.17.2 (bench) 	08/04/2018 	_x86_64_	(4 CPU)

avg-cpu:  %user   %nice %system %iowait  %steal   %idle
          10.25    0.02    4.32    2.82    0.00   82.59

Device:         rrqm/s   wrqm/s     r/s     w/s    rkB/s    wkB/s avgrq-sz avgqu-sz   await r_await w_await  svctm  %util
sda              57.69     4.13 1758.20   99.80 21434.61  3053.71    26.36     1.05    0.57    0.26    5.92   0.06  11.16
sdb              57.48     4.09 1758.22   99.93 21424.25  3050.46    26.34     1.05    0.56    0.26    5.85   0.06  11.04
sdc              94.87     4.15 1718.75   99.49 21416.60  3052.85    26.92     1.47    0.81    0.44    7.12   0.08  14.53
sdd              88.50     4.12 1724.30   99.56 21401.77  3049.15    26.81     1.48    0.81    0.43    7.33   0.08  14.63
sde              90.45     4.16 1729.29   99.65 21460.14  3053.29    26.81     1.50    0.82    0.44    7.44   0.08  14.65
sdf              87.65     4.13 1731.37   99.60 21441.90  3050.23    26.75     1.54    0.84    0.43    7.90   0.08  14.68
sdg               0.00     3.15   27.15   73.13   326.87   391.59    14.33     0.44    4.38    0.20    5.93   0.08   0.79
sdh               0.00     0.12    0.02    0.23     2.15     4.93    56.82     0.00    1.15    0.65    1.19   0.21   0.01
md0               0.00     0.00 10904.60  467.58 146871.59 20902.10    29.51     0.00    0.00    0.00    0.00   0.00   0.00

avg-cpu:  %user   %nice %system %iowait  %steal   %idle
          23.87    0.01    6.34    8.56    0.00   61.22

Device:         rrqm/s   wrqm/s     r/s     w/s    rkB/s    wkB/s avgrq-sz avgqu-sz   await r_await w_await  svctm  %util
sda               0.00     0.00 1406.10    0.00  5624.40     0.00     8.00     0.13    0.09    0.09    0.00   0.09  13.19
sdb               0.00     0.00 1416.05    0.00  5664.20     0.00     8.00     0.14    0.10    0.10    0.00   0.10  13.50
sdc               0.00     0.00 1413.30    0.00  5653.20     0.00     8.00     0.15    0.10    0.10    0.00   0.10  14.51
sdd               0.00     0.00 1384.10    0.00  5536.40     0.00     8.00     0.14    0.10    0.10    0.00   0.10  14.48
sde               0.00     0.00 1447.20    0.00  5788.80     0.00     8.00     0.15    0.10    0.10    0.00   0.10  14.54
sdf               0.00     0.00 1405.00    0.00  5620.00     0.00     8.00     0.15    0.10    0.10    0.00   0.10  14.52
sdg               0.00     0.20    1.75   72.80    16.00   379.60    10.61     0.43    5.76    0.34    5.89   0.05   0.40
sdh               0.00     0.00    0.00    0.00     0.00     0.00     0.00     0.00    0.00    0.00    0.00   0.00   0.00
md0               0.00     0.00 8471.80    0.00 33887.20     0.00     8.00     0.00    0.00    0.00    0.00   0.00   0.00

