Linux 4.17.2 (bench) 	08/04/2018 	_x86_64_	(4 CPU)

avg-cpu:  %user   %nice %system %iowait  %steal   %idle
          10.25    0.02    4.24    2.79    0.00   82.70

Device:         rrqm/s   wrqm/s     r/s     w/s    rkB/s    wkB/s avgrq-sz avgqu-sz   await r_await w_await  svctm  %util
sda              56.49     4.16 1749.63  100.46 21460.63  3074.18    26.52     1.05    0.57    0.26    5.92   0.06  11.13
sdb              56.27     4.12 1749.66  100.60 21450.20  3070.91    26.51     1.05    0.57    0.26    5.85   0.06  11.01
sdc              93.89     4.18 1709.94  100.16 21442.49  3073.32    27.09     1.47    0.81    0.44    7.12   0.08  14.52
sdd              87.48     4.15 1715.55  100.23 21427.61  3069.59    26.98     1.48    0.81    0.43    7.33   0.08  14.61
sde              89.45     4.19 1720.59  100.32 21486.54  3073.76    26.98     1.50    0.82    0.44    7.44   0.08  14.63
sdf              86.63     4.16 1722.68  100.27 21468.14  3070.68    26.92     1.54    0.85    0.44    7.90   0.08  14.66
sdg               0.00     3.16   27.02   73.21   326.68   391.87    14.34     0.44    4.38    0.20    5.93   0.08   0.79
sdh               0.00     0.13    0.02    0.23     2.17     4.96    56.82     0.00    1.15    0.65    1.19   0.21   0.01
md0               0.00     0.00 10845.99  470.71 147099.26 21042.24    29.72     0.00    0.00    0.00    0.00   0.00   0.00

avg-cpu:  %user   %nice %system %iowait  %steal   %idle
          23.81    0.00    4.01    7.77    0.00   64.41

Device:         rrqm/s   wrqm/s     r/s     w/s    rkB/s    wkB/s avgrq-sz avgqu-sz   await r_await w_await  svctm  %util
sda             100.00     0.00  704.00    0.00 66928.00     0.00   190.14     0.35    0.49    0.49    0.00   0.35  24.40
sdb              97.00     0.00  702.00    0.00 68704.00     0.00   195.74     0.34    0.49    0.49    0.00   0.35  24.90
sdc             100.00     0.00  703.00    0.00 66444.00     0.00   189.03     0.53    0.76    0.76    0.00   0.50  34.80
sdd              99.00     0.00  754.00    0.00 66144.00     0.00   175.45     0.53    0.71    0.71    0.00   0.47  35.80
sde              97.00     0.00  663.00    0.00 67032.00     0.00   202.21     0.55    0.83    0.83    0.00   0.54  36.00
sdf             103.00     0.00  671.00    0.00 68240.00     0.00   203.40     0.56    0.83    0.83    0.00   0.55  37.20
sdg               0.00     0.00    1.00    2.00    16.00    24.00    26.67     0.00    0.00    0.00    0.00   0.00   0.00
sdh               0.00     0.00    0.00    0.00     0.00     0.00     0.00     0.00    0.00    0.00    0.00   0.00   0.00
md0               0.00     0.00 4791.00    0.00 574904.00     0.00   239.99     0.00    0.00    0.00    0.00   0.00   0.00

avg-cpu:  %user   %nice %system %iowait  %steal   %idle
          23.93    0.00    3.53    9.32    0.00   63.22

Device:         rrqm/s   wrqm/s     r/s     w/s    rkB/s    wkB/s avgrq-sz avgqu-sz   await r_await w_await  svctm  %util
sda              82.00     0.00  753.00    0.00 60988.00     0.00   161.99     0.31    0.41    0.41    0.00   0.32  24.00
sdb              89.00     0.00  682.00    0.00 63412.00     0.00   185.96     0.30    0.45    0.45    0.00   0.35  24.20
sdc              86.00     0.00  718.00    0.00 64676.00     0.00   180.16     0.47    0.65    0.65    0.00   0.49  35.30
sdd              95.00     0.00  672.00    0.00 64052.00     0.00   190.63     0.45    0.67    0.67    0.00   0.51  34.10
sde              94.00     0.00  705.00    0.00 65036.00     0.00   184.50     0.47    0.67    0.67    0.00   0.51  36.00
sdf              86.00     0.00  738.00    0.00 63484.00     0.00   172.04     0.46    0.62    0.62    0.00   0.47  34.90
sdg               0.00     0.00    5.00    4.00    20.00    28.00    10.67     0.00    0.00    0.00    0.00   0.00   0.00
sdh               0.00     0.00    0.00    0.00     0.00     0.00     0.00     0.00    0.00    0.00    0.00   0.00   0.00
md0               0.00     0.00 4800.00    0.00 552156.00     0.00   230.06     0.00    0.00    0.00    0.00   0.00   0.00

