Linux 4.17.2 (bench) 	08/04/2018 	_x86_64_	(4 CPU)

avg-cpu:  %user   %nice %system %iowait  %steal   %idle
          10.25    0.02    4.26    2.79    0.00   82.68

Device:         rrqm/s   wrqm/s     r/s     w/s    rkB/s    wkB/s avgrq-sz avgqu-sz   await r_await w_await  svctm  %util
sda              56.62     4.15 1750.07  100.30 21447.33  3069.13    26.50     1.05    0.57    0.26    5.92   0.06  11.13
sdb              56.40     4.11 1750.10  100.43 21436.91  3065.86    26.48     1.05    0.57    0.26    5.85   0.06  11.01
sdc              93.98     4.17 1710.43  100.00 21429.22  3068.27    27.06     1.47    0.81    0.44    7.12   0.08  14.51
sdd              87.58     4.14 1716.03  100.06 21414.36  3064.55    26.96     1.48    0.81    0.43    7.33   0.08  14.61
sde              89.54     4.18 1721.06  100.16 21473.16  3068.71    26.95     1.50    0.82    0.44    7.44   0.08  14.63
sdf              86.72     4.16 1723.14  100.10 21454.79  3065.64    26.90     1.54    0.85    0.44    7.90   0.08  14.66
sdg               0.00     3.16   27.05   73.18   326.71   391.79    14.34     0.44    4.38    0.20    5.93   0.08   0.79
sdh               0.00     0.13    0.02    0.23     2.16     4.95    56.82     0.00    1.15    0.65    1.19   0.21   0.01
md0               0.00     0.00 10849.42  469.94 147003.46 21007.65    29.69     0.00    0.00    0.00    0.00   0.00   0.00

avg-cpu:  %user   %nice %system %iowait  %steal   %idle
          23.59    0.02    4.69    4.58    0.00   67.12

Device:         rrqm/s   wrqm/s     r/s     w/s    rkB/s    wkB/s avgrq-sz avgqu-sz   await r_await w_await  svctm  %util
sda               0.00     0.00 1551.05    0.00  6204.20     0.00     8.00     0.15    0.10    0.10    0.00   0.10  14.80
sdb               0.00     0.00 1523.40    0.00  6093.60     0.00     8.00     0.14    0.10    0.10    0.00   0.10  14.49
sdc               0.00     0.00 1531.70    0.00  6126.80     0.00     8.00     0.16    0.10    0.10    0.00   0.10  15.90
sdd               0.00     0.00 1543.85    0.00  6175.40     0.00     8.00     0.16    0.10    0.10    0.00   0.10  15.94
sde               0.00     0.00 1535.05    0.00  6140.20     0.00     8.00     0.16    0.10    0.10    0.00   0.10  15.92
sdf               0.00     0.00 1539.70    0.00  6158.80     0.00     8.00     0.16    0.10    0.10    0.00   0.10  15.54
sdg               0.00     3.90   68.20  129.30   280.00   651.40     9.43     0.80    4.06    0.11    6.14   0.07   1.40
sdh               0.00     0.00    0.00    0.00     0.00     0.00     0.00     0.00    0.00    0.00    0.00   0.00   0.00
md0               0.00     0.00 9224.85    0.00 36899.40     0.00     8.00     0.00    0.00    0.00    0.00   0.00   0.00

