Linux 4.17.2 (bench) 	08/04/2018 	_x86_64_	(4 CPU)

avg-cpu:  %user   %nice %system %iowait  %steal   %idle
          10.25    0.02    4.27    2.82    0.00   82.65

Device:         rrqm/s   wrqm/s     r/s     w/s    rkB/s    wkB/s avgrq-sz avgqu-sz   await r_await w_await  svctm  %util
sda              57.39     4.15 1756.49  100.19 21460.11  3065.68    26.42     1.05    0.57    0.26    5.92   0.06  11.16
sdb              57.18     4.11 1756.52  100.32 21449.73  3062.42    26.40     1.05    0.57    0.26    5.85   0.06  11.04
sdc              94.71     4.17 1716.90   99.88 21442.04  3064.82    26.98     1.47    0.81    0.44    7.12   0.08  14.54
sdd              88.31     4.14 1722.48   99.95 21427.16  3061.11    26.87     1.48    0.81    0.43    7.33   0.08  14.63
sde              90.27     4.18 1727.50  100.05 21485.84  3065.26    26.87     1.50    0.82    0.44    7.44   0.08  14.65
sdf              87.46     4.15 1729.58   99.99 21467.53  3062.19    26.81     1.54    0.84    0.43    7.90   0.08  14.69
sdg               0.00     3.16   27.07   73.17   326.78   391.76    14.34     0.44    4.38    0.20    5.93   0.08   0.79
sdh               0.00     0.13    0.02    0.23     2.16     4.95    56.82     0.00    1.15    0.65    1.19   0.21   0.01
md0               0.00     0.00 10892.52  469.41 147059.50 20984.06    29.58     0.00    0.00    0.00    0.00   0.00   0.00

avg-cpu:  %user   %nice %system %iowait  %steal   %idle
          22.56    0.00    4.26    1.00    0.00   72.18

Device:         rrqm/s   wrqm/s     r/s     w/s    rkB/s    wkB/s avgrq-sz avgqu-sz   await r_await w_await  svctm  %util
sda               0.00     0.00 2352.00    0.00  9408.00     0.00     8.00     0.16    0.07    0.07    0.00   0.07  15.80
sdb               0.00     0.00 2493.00    0.00  9972.00     0.00     8.00     0.15    0.06    0.06    0.00   0.06  15.40
sdc               0.00     0.00 2501.00    0.00 10004.00     0.00     8.00     0.17    0.07    0.07    0.00   0.07  16.90
sdd               0.00     0.00 2382.00    0.00  9528.00     0.00     8.00     0.15    0.07    0.07    0.00   0.07  15.50
sde               0.00     0.00 2120.00    0.00  8480.00     0.00     8.00     0.14    0.06    0.06    0.00   0.06  13.70
sdf               0.00     0.00 1906.00    0.00  7624.00     0.00     8.00     0.14    0.07    0.07    0.00   0.07  13.80
sdg               0.00     0.00    6.00    4.00    96.00   128.00    44.80     0.01    0.70    0.67    0.75   0.40   0.40
sdh               0.00     0.00    0.00    0.00     0.00     0.00     0.00     0.00    0.00    0.00    0.00   0.00   0.00
md0               0.00     0.00 13755.00    0.00 55020.00     0.00     8.00     0.00    0.00    0.00    0.00   0.00   0.00

avg-cpu:  %user   %nice %system %iowait  %steal   %idle
          22.92    0.00    3.78    1.01    0.00   72.29

Device:         rrqm/s   wrqm/s     r/s     w/s    rkB/s    wkB/s avgrq-sz avgqu-sz   await r_await w_await  svctm  %util
sda               0.00     0.00 2339.00    0.00  9356.00     0.00     8.00     0.16    0.07    0.07    0.00   0.07  16.40
sdb               0.00     0.00 2169.00    0.00  8676.00     0.00     8.00     0.14    0.07    0.07    0.00   0.07  14.30
sdc               0.00     0.00 2218.00    0.00  8872.00     0.00     8.00     0.15    0.07    0.07    0.00   0.07  15.30
sdd               0.00     0.00 2291.00    0.00  9164.00     0.00     8.00     0.15    0.07    0.07    0.00   0.07  15.10
sde               0.00     0.00 2463.00    0.00  9852.00     0.00     8.00     0.17    0.07    0.07    0.00   0.07  17.40
sdf               0.00     0.00 2075.00    0.00  8300.00     0.00     8.00     0.14    0.07    0.07    0.00   0.07  14.50
sdg               0.00     0.00    0.00    0.00     0.00     0.00     0.00     0.00    0.00    0.00    0.00   0.00   0.00
sdh               0.00     0.00    0.00    0.00     0.00     0.00     0.00     0.00    0.00    0.00    0.00   0.00   0.00
md0               0.00     0.00 13556.00    0.00 54224.00     0.00     8.00     0.00    0.00    0.00    0.00   0.00   0.00

avg-cpu:  %user   %nice %system %iowait  %steal   %idle
          23.06    0.00    4.01    0.75    0.00   72.18

Device:         rrqm/s   wrqm/s     r/s     w/s    rkB/s    wkB/s avgrq-sz avgqu-sz   await r_await w_await  svctm  %util
sda               0.00     0.00 2401.00    0.00  9604.00     0.00     8.00     0.17    0.07    0.07    0.00   0.07  16.70
sdb               0.00     0.00 2102.00    0.00  8408.00     0.00     8.00     0.14    0.07    0.07    0.00   0.07  14.20
sdc               0.00     0.00 2392.00    0.00  9568.00     0.00     8.00     0.17    0.07    0.07    0.00   0.07  16.60
sdd               0.00     0.00 2092.00    0.00  8368.00     0.00     8.00     0.14    0.07    0.07    0.00   0.07  14.30
sde               0.00     0.00 1868.00    0.00  7472.00     0.00     8.00     0.14    0.08    0.08    0.00   0.08  14.20
sdf               0.00     0.00 2212.00    0.00  8848.00     0.00     8.00     0.15    0.07    0.07    0.00   0.07  15.10
sdg               0.00     0.00    0.00    0.00     0.00     0.00     0.00     0.00    0.00    0.00    0.00   0.00   0.00
sdh               0.00     0.00    0.00    0.00     0.00     0.00     0.00     0.00    0.00    0.00    0.00   0.00   0.00
md0               0.00     0.00 13067.00    0.00 52268.00     0.00     8.00     0.00    0.00    0.00    0.00   0.00   0.00

avg-cpu:  %user   %nice %system %iowait  %steal   %idle
          23.99    0.00    3.03    1.01    0.00   71.97

Device:         rrqm/s   wrqm/s     r/s     w/s    rkB/s    wkB/s avgrq-sz avgqu-sz   await r_await w_await  svctm  %util
sda               0.00     0.00 2263.00    0.00  9052.00     0.00     8.00     0.15    0.06    0.06    0.00   0.06  14.70
sdb               0.00     0.00 2203.00    0.00  8812.00     0.00     8.00     0.14    0.06    0.06    0.00   0.06  14.00
sdc               0.00     0.00 2259.00    0.00  9036.00     0.00     8.00     0.15    0.07    0.07    0.00   0.07  15.30
sdd               0.00     0.00 1993.00    0.00  7972.00     0.00     8.00     0.14    0.07    0.07    0.00   0.07  14.50
sde               0.00     0.00 2435.00    0.00  9740.00     0.00     8.00     0.16    0.07    0.07    0.00   0.07  15.90
sdf               0.00     0.00 2255.00    0.00  9020.00     0.00     8.00     0.17    0.07    0.07    0.00   0.07  16.90
sdg               0.00     0.00    0.00    0.00     0.00     0.00     0.00     0.00    0.00    0.00    0.00   0.00   0.00
sdh               0.00     0.00    0.00    0.00     0.00     0.00     0.00     0.00    0.00    0.00    0.00   0.00   0.00
md0               0.00     0.00 13410.00    0.00 53640.00     0.00     8.00     0.00    0.00    0.00    0.00   0.00   0.00

avg-cpu:  %user   %nice %system %iowait  %steal   %idle
          24.62    0.00    3.05    0.76    0.00   71.57

Device:         rrqm/s   wrqm/s     r/s     w/s    rkB/s    wkB/s avgrq-sz avgqu-sz   await r_await w_await  svctm  %util
sda               0.00     0.00 2177.00    0.00  8708.00     0.00     8.00     0.14    0.07    0.07    0.00   0.07  14.50
sdb               0.00     0.00 2191.00    0.00  8764.00     0.00     8.00     0.13    0.06    0.06    0.00   0.06  12.90
sdc               0.00     0.00 2381.00    0.00  9524.00     0.00     8.00     0.16    0.07    0.07    0.00   0.07  15.70
sdd               0.00     0.00 2406.00    0.00  9624.00     0.00     8.00     0.15    0.06    0.06    0.00   0.06  15.30
sde               0.00     0.00 2385.00    0.00  9540.00     0.00     8.00     0.16    0.07    0.07    0.00   0.07  15.70
sdf               0.00     0.00 2188.00    0.00  8752.00     0.00     8.00     0.14    0.07    0.07    0.00   0.06  14.20
sdg               0.00     0.00    0.00    0.00     0.00     0.00     0.00     0.00    0.00    0.00    0.00   0.00   0.00
sdh               0.00     0.00    0.00    0.00     0.00     0.00     0.00     0.00    0.00    0.00    0.00   0.00   0.00
md0               0.00     0.00 13725.00    0.00 54900.00     0.00     8.00     0.00    0.00    0.00    0.00   0.00   0.00

avg-cpu:  %user   %nice %system %iowait  %steal   %idle
          25.00    0.00    2.04    0.77    0.00   72.19

Device:         rrqm/s   wrqm/s     r/s     w/s    rkB/s    wkB/s avgrq-sz avgqu-sz   await r_await w_await  svctm  %util
sda               0.00     0.00 2458.00    0.00  9832.00     0.00     8.00     0.16    0.07    0.07    0.00   0.07  16.00
sdb               0.00     0.00 2234.00    0.00  8936.00     0.00     8.00     0.14    0.06    0.06    0.00   0.06  14.50
sdc               0.00     0.00 2142.00    0.00  8568.00     0.00     8.00     0.14    0.07    0.07    0.00   0.07  14.10
sdd               0.00     0.00 2173.00    0.00  8692.00     0.00     8.00     0.14    0.06    0.06    0.00   0.06  13.50
sde               0.00     0.00 2354.00    0.00  9416.00     0.00     8.00     0.17    0.07    0.07    0.00   0.07  17.30
sdf               0.00     0.00 2194.00    0.00  8776.00     0.00     8.00     0.14    0.06    0.06    0.00   0.06  13.70
sdg               0.00     0.00    0.00    0.00     0.00     0.00     0.00     0.00    0.00    0.00    0.00   0.00   0.00
sdh               0.00     0.00    0.00    0.00     0.00     0.00     0.00     0.00    0.00    0.00    0.00   0.00   0.00
md0               0.00     0.00 13555.00    0.00 54220.00     0.00     8.00     0.00    0.00    0.00    0.00   0.00   0.00

avg-cpu:  %user   %nice %system %iowait  %steal   %idle
          24.94    0.00    2.29    1.02    0.00   71.76

Device:         rrqm/s   wrqm/s     r/s     w/s    rkB/s    wkB/s avgrq-sz avgqu-sz   await r_await w_await  svctm  %util
sda               0.00     0.00 2081.00    0.00  8324.00     0.00     8.00     0.14    0.07    0.07    0.00   0.07  13.70
sdb               0.00     0.00 2313.00    0.00  9252.00     0.00     8.00     0.14    0.06    0.06    0.00   0.06  14.40
sdc               0.00     0.00 2511.00    0.00 10044.00     0.00     8.00     0.17    0.07    0.07    0.00   0.07  17.40
sdd               0.00     0.00 2164.00    0.00  8656.00     0.00     8.00     0.15    0.07    0.07    0.00   0.07  15.20
sde               0.00     0.00 2260.00    0.00  9040.00     0.00     8.00     0.16    0.07    0.07    0.00   0.07  15.70
sdf               0.00     0.00 2206.00    0.00  8824.00     0.00     8.00     0.15    0.07    0.07    0.00   0.07  15.00
sdg               0.00     0.00    0.00    0.00     0.00     0.00     0.00     0.00    0.00    0.00    0.00   0.00   0.00
sdh               0.00     0.00    0.00    0.00     0.00     0.00     0.00     0.00    0.00    0.00    0.00   0.00   0.00
md0               0.00     0.00 13537.00    0.00 54148.00     0.00     8.00     0.00    0.00    0.00    0.00   0.00   0.00

avg-cpu:  %user   %nice %system %iowait  %steal   %idle
          24.87    0.00    2.54    3.55    0.00   69.04

Device:         rrqm/s   wrqm/s     r/s     w/s    rkB/s    wkB/s avgrq-sz avgqu-sz   await r_await w_await  svctm  %util
sda               0.00     0.00 2284.00    0.00  9136.00     0.00     8.00     0.14    0.06    0.06    0.00   0.06  14.50
sdb               0.00     0.00 2318.00    0.00  9272.00     0.00     8.00     0.14    0.06    0.06    0.00   0.06  14.50
sdc               0.00     0.00 2259.00    0.00  9036.00     0.00     8.00     0.15    0.07    0.07    0.00   0.07  15.40
sdd               0.00     0.00 2048.00    0.00  8192.00     0.00     8.00     0.15    0.07    0.07    0.00   0.07  14.70
sde               0.00     0.00 2045.00    0.00  8180.00     0.00     8.00     0.14    0.07    0.07    0.00   0.07  13.70
sdf               0.00     0.00 2507.00    0.00 10028.00     0.00     8.00     0.17    0.07    0.07    0.00   0.07  17.30
sdg               0.00     1.00    4.00    2.00    16.00    12.00     9.33     0.00    0.00    0.00    0.00   0.00   0.00
sdh               0.00     0.00    0.00    0.00     0.00     0.00     0.00     0.00    0.00    0.00    0.00   0.00   0.00
md0               0.00     0.00 13460.00    0.00 53840.00     0.00     8.00     0.00    0.00    0.00    0.00   0.00   0.00

avg-cpu:  %user   %nice %system %iowait  %steal   %idle
          24.56    0.25    3.29    3.54    0.00   68.35

Device:         rrqm/s   wrqm/s     r/s     w/s    rkB/s    wkB/s avgrq-sz avgqu-sz   await r_await w_await  svctm  %util
sda               0.00     0.00 2041.00    0.00  8164.00     0.00     8.00     0.14    0.07    0.07    0.00   0.07  14.50
sdb               0.00     0.00 2220.00    0.00  8880.00     0.00     8.00     0.14    0.06    0.06    0.00   0.06  14.20
sdc               0.00     0.00 2269.00    0.00  9076.00     0.00     8.00     0.15    0.06    0.06    0.00   0.06  14.60
sdd               0.00     0.00 2133.00    0.00  8532.00     0.00     8.00     0.15    0.07    0.07    0.00   0.07  14.90
sde               0.00     0.00 2577.00    0.00 10308.00     0.00     8.00     0.18    0.07    0.07    0.00   0.07  17.60
sdf               0.00     0.00 2152.00    0.00  8608.00     0.00     8.00     0.14    0.06    0.06    0.00   0.06  13.90
sdg               0.00     0.00   40.00    0.00   472.00     0.00    23.60     0.01    0.17    0.17    0.00   0.10   0.40
sdh               0.00     0.00    0.00    0.00     0.00     0.00     0.00     0.00    0.00    0.00    0.00   0.00   0.00
md0               0.00     0.00 13391.00    0.00 53564.00     0.00     8.00     0.00    0.00    0.00    0.00   0.00   0.00

avg-cpu:  %user   %nice %system %iowait  %steal   %idle
          25.19    0.00    2.29    0.76    0.00   71.76

Device:         rrqm/s   wrqm/s     r/s     w/s    rkB/s    wkB/s avgrq-sz avgqu-sz   await r_await w_await  svctm  %util
sda               0.00     0.00 2308.00    0.00  9232.00     0.00     8.00     0.16    0.07    0.07    0.00   0.07  16.00
sdb               0.00     0.00 2215.00    0.00  8860.00     0.00     8.00     0.15    0.07    0.07    0.00   0.07  15.10
sdc               0.00     0.00 2317.00    0.00  9268.00     0.00     8.00     0.15    0.07    0.07    0.00   0.07  15.20
sdd               0.00     0.00 2285.00    0.00  9140.00     0.00     8.00     0.15    0.07    0.07    0.00   0.07  15.10
sde               0.00     0.00 2130.00    0.00  8520.00     0.00     8.00     0.14    0.07    0.07    0.00   0.07  14.30
sdf               0.00     0.00 2168.00    0.00  8672.00     0.00     8.00     0.15    0.07    0.07    0.00   0.07  15.50
sdg               0.00     0.00    0.00    0.00     0.00     0.00     0.00     0.00    0.00    0.00    0.00   0.00   0.00
sdh               0.00     0.00    0.00    0.00     0.00     0.00     0.00     0.00    0.00    0.00    0.00   0.00   0.00
md0               0.00     0.00 13424.00    0.00 53696.00     0.00     8.00     0.00    0.00    0.00    0.00   0.00   0.00

avg-cpu:  %user   %nice %system %iowait  %steal   %idle
          24.87    0.00    2.28    0.76    0.00   72.08

Device:         rrqm/s   wrqm/s     r/s     w/s    rkB/s    wkB/s avgrq-sz avgqu-sz   await r_await w_await  svctm  %util
sda               0.00     0.00 2300.00    0.00  9200.00     0.00     8.00     0.15    0.07    0.07    0.00   0.07  15.10
sdb               0.00     0.00 2364.00    0.00  9456.00     0.00     8.00     0.15    0.06    0.06    0.00   0.06  15.30
sdc               0.00     0.00 2410.00    0.00  9640.00     0.00     8.00     0.16    0.07    0.07    0.00   0.07  16.20
sdd               0.00     0.00 2246.00    0.00  8984.00     0.00     8.00     0.16    0.07    0.07    0.00   0.07  16.20
sde               0.00     0.00 2116.00    0.00  8464.00     0.00     8.00     0.14    0.07    0.07    0.00   0.07  14.30
sdf               0.00     0.00 1945.00    0.00  7780.00     0.00     8.00     0.14    0.07    0.07    0.00   0.07  14.10
sdg               0.00     0.00    0.00    0.00     0.00     0.00     0.00     0.00    0.00    0.00    0.00   0.00   0.00
sdh               0.00     0.00    0.00    0.00     0.00     0.00     0.00     0.00    0.00    0.00    0.00   0.00   0.00
md0               0.00     0.00 13381.00    0.00 53524.00     0.00     8.00     0.00    0.00    0.00    0.00   0.00   0.00

avg-cpu:  %user   %nice %system %iowait  %steal   %idle
          25.13    0.00    1.79    0.77    0.00   72.31

Device:         rrqm/s   wrqm/s     r/s     w/s    rkB/s    wkB/s avgrq-sz avgqu-sz   await r_await w_await  svctm  %util
sda               0.00     0.00 2404.00    0.00  9616.00     0.00     8.00     0.15    0.06    0.06    0.00   0.06  15.30
sdb               0.00     0.00 2409.00    0.00  9636.00     0.00     8.00     0.15    0.06    0.06    0.00   0.06  15.30
sdc               0.00     0.00 2156.00    0.00  8624.00     0.00     8.00     0.15    0.07    0.07    0.00   0.07  15.40
sdd               0.00     0.00 2252.00    0.00  9008.00     0.00     8.00     0.16    0.07    0.07    0.00   0.07  15.60
sde               0.00     0.00 2259.00    0.00  9036.00     0.00     8.00     0.15    0.07    0.07    0.00   0.07  14.90
sdf               0.00     0.00 2176.00    0.00  8704.00     0.00     8.00     0.14    0.07    0.07    0.00   0.07  14.50
sdg               0.00     0.00    0.00    0.00     0.00     0.00     0.00     0.00    0.00    0.00    0.00   0.00   0.00
sdh               0.00     0.00    0.00    0.00     0.00     0.00     0.00     0.00    0.00    0.00    0.00   0.00   0.00
md0               0.00     0.00 13656.00    0.00 54624.00     0.00     8.00     0.00    0.00    0.00    0.00   0.00   0.00

avg-cpu:  %user   %nice %system %iowait  %steal   %idle
          24.74    0.00    3.06    4.34    0.00   67.86

Device:         rrqm/s   wrqm/s     r/s     w/s    rkB/s    wkB/s avgrq-sz avgqu-sz   await r_await w_await  svctm  %util
sda               0.00     0.00 2226.00    0.00  8904.00     0.00     8.00     0.15    0.07    0.07    0.00   0.07  14.80
sdb               0.00     0.00 2168.00    0.00  8672.00     0.00     8.00     0.13    0.06    0.06    0.00   0.06  13.40
sdc               0.00     0.00 2025.00    0.00  8100.00     0.00     8.00     0.14    0.07    0.07    0.00   0.07  14.50
sdd               0.00     0.00 2239.00    0.00  8956.00     0.00     8.00     0.16    0.07    0.07    0.00   0.07  15.70
sde               0.00     0.00 2289.00    0.00  9156.00     0.00     8.00     0.17    0.07    0.07    0.00   0.07  16.80
sdf               0.00     0.00 2285.00    0.00  9140.00     0.00     8.00     0.17    0.08    0.08    0.00   0.08  17.20
sdg               0.00   172.00    8.00 2549.00    32.00 12788.00    10.03    16.12    6.30    2.12    6.32   0.05  12.20
sdh               0.00     0.00    0.00    0.00     0.00     0.00     0.00     0.00    0.00    0.00    0.00   0.00   0.00
md0               0.00     0.00 13232.00    0.00 52928.00     0.00     8.00     0.00    0.00    0.00    0.00   0.00   0.00

avg-cpu:  %user   %nice %system %iowait  %steal   %idle
          24.94    0.00    3.02   15.62    0.00   56.42

Device:         rrqm/s   wrqm/s     r/s     w/s    rkB/s    wkB/s avgrq-sz avgqu-sz   await r_await w_await  svctm  %util
sda               0.00     0.00 2482.00    0.00  9928.00     0.00     8.00     0.17    0.07    0.07    0.00   0.07  17.30
sdb               0.00     0.00 2315.00    0.00  9260.00     0.00     8.00     0.14    0.06    0.06    0.00   0.06  14.40
sdc               0.00     0.00 2077.00    0.00  8308.00     0.00     8.00     0.15    0.07    0.07    0.00   0.07  14.70
sdd               0.00     0.00 2163.00    0.00  8652.00     0.00     8.00     0.15    0.07    0.07    0.00   0.07  14.90
sde               0.00     0.00 2131.00    0.00  8524.00     0.00     8.00     0.15    0.07    0.07    0.00   0.07  15.50
sdf               0.00     0.00 2445.00    0.00  9780.00     0.00     8.00     0.15    0.06    0.06    0.00   0.06  15.10
sdg               0.00     0.00    0.00    0.00     0.00     0.00     0.00     0.00    0.00    0.00    0.00   0.00   0.00
sdh               0.00     0.00    0.00    0.00     0.00     0.00     0.00     0.00    0.00    0.00    0.00   0.00   0.00
md0               0.00     0.00 13612.00    0.00 54448.00     0.00     8.00     0.00    0.00    0.00    0.00   0.00   0.00

avg-cpu:  %user   %nice %system %iowait  %steal   %idle
          24.94    0.00    2.29    0.76    0.00   72.01

Device:         rrqm/s   wrqm/s     r/s     w/s    rkB/s    wkB/s avgrq-sz avgqu-sz   await r_await w_await  svctm  %util
sda               0.00     0.00 2293.00    0.00  9172.00     0.00     8.00     0.15    0.06    0.06    0.00   0.06  14.90
sdb               0.00     0.00 2282.00    0.00  9128.00     0.00     8.00     0.15    0.07    0.07    0.00   0.07  14.90
sdc               0.00     0.00 2084.00    0.00  8336.00     0.00     8.00     0.15    0.07    0.07    0.00   0.07  15.00
sdd               0.00     0.00 2120.00    0.00  8480.00     0.00     8.00     0.14    0.07    0.07    0.00   0.07  13.90
sde               0.00     0.00 2434.00    0.00  9736.00     0.00     8.00     0.16    0.06    0.06    0.00   0.06  15.70
sdf               0.00     0.00 2200.00    0.00  8800.00     0.00     8.00     0.15    0.07    0.07    0.00   0.07  14.70
sdg               0.00     0.00    1.00   20.00    16.00   224.00    22.86     0.00    0.05    0.00    0.05   0.05   0.10
sdh               0.00     0.00    0.00    0.00     0.00     0.00     0.00     0.00    0.00    0.00    0.00   0.00   0.00
md0               0.00     0.00 13416.00    0.00 53664.00     0.00     8.00     0.00    0.00    0.00    0.00   0.00   0.00

avg-cpu:  %user   %nice %system %iowait  %steal   %idle
          24.87    0.00    2.79    0.76    0.00   71.57

Device:         rrqm/s   wrqm/s     r/s     w/s    rkB/s    wkB/s avgrq-sz avgqu-sz   await r_await w_await  svctm  %util
sda               0.00     0.00 2351.00    0.00  9404.00     0.00     8.00     0.16    0.07    0.07    0.00   0.07  15.70
sdb               0.00     0.00 2277.00    0.00  9108.00     0.00     8.00     0.14    0.06    0.06    0.00   0.06  13.70
sdc               0.00     0.00 2039.00    0.00  8156.00     0.00     8.00     0.15    0.07    0.07    0.00   0.07  14.90
sdd               0.00     0.00 2330.00    0.00  9320.00     0.00     8.00     0.16    0.07    0.07    0.00   0.07  15.70
sde               0.00     0.00 2148.00    0.00  8592.00     0.00     8.00     0.15    0.07    0.07    0.00   0.07  15.00
sdf               0.00     0.00 2406.00    0.00  9624.00     0.00     8.00     0.17    0.07    0.07    0.00   0.07  16.50
sdg               0.00     0.00    0.00    0.00     0.00     0.00     0.00     0.00    0.00    0.00    0.00   0.00   0.00
sdh               0.00     0.00    0.00    0.00     0.00     0.00     0.00     0.00    0.00    0.00    0.00   0.00   0.00
md0               0.00     0.00 13552.00    0.00 54208.00     0.00     8.00     0.00    0.00    0.00    0.00   0.00   0.00

avg-cpu:  %user   %nice %system %iowait  %steal   %idle
          24.87    0.00    2.28    1.02    0.00   71.83

Device:         rrqm/s   wrqm/s     r/s     w/s    rkB/s    wkB/s avgrq-sz avgqu-sz   await r_await w_await  svctm  %util
sda               0.00     0.00 2026.00    0.00  8104.00     0.00     8.00     0.13    0.06    0.06    0.00   0.06  13.00
sdb               0.00     0.00 2565.00    0.00 10260.00     0.00     8.00     0.16    0.06    0.06    0.00   0.06  16.10
sdc               0.00     0.00 2460.00    0.00  9840.00     0.00     8.00     0.16    0.07    0.07    0.00   0.07  16.20
sdd               0.00     0.00 2286.00    0.00  9144.00     0.00     8.00     0.16    0.07    0.07    0.00   0.07  16.30
sde               0.00     0.00 2135.00    0.00  8540.00     0.00     8.00     0.15    0.07    0.07    0.00   0.07  14.60
sdf               0.00     0.00 2187.00    0.00  8748.00     0.00     8.00     0.15    0.07    0.07    0.00   0.07  14.70
sdg               0.00     0.00    0.00    0.00     0.00     0.00     0.00     0.00    0.00    0.00    0.00   0.00   0.00
sdh               0.00     0.00    0.00    0.00     0.00     0.00     0.00     0.00    0.00    0.00    0.00   0.00   0.00
md0               0.00     0.00 13655.00    0.00 54620.00     0.00     8.00     0.00    0.00    0.00    0.00   0.00   0.00

avg-cpu:  %user   %nice %system %iowait  %steal   %idle
          24.87    0.00    2.79    0.76    0.00   71.57

Device:         rrqm/s   wrqm/s     r/s     w/s    rkB/s    wkB/s avgrq-sz avgqu-sz   await r_await w_await  svctm  %util
sda               0.00     0.00 1984.00    0.00  7936.00     0.00     8.00     0.14    0.07    0.07    0.00   0.07  13.80
sdb               0.00     0.00 2552.00    0.00 10208.00     0.00     8.00     0.16    0.06    0.06    0.00   0.06  15.60
sdc               0.00     0.00 2439.00    0.00  9756.00     0.00     8.00     0.15    0.06    0.06    0.00   0.06  15.50
sdd               0.00     0.00 2201.00    0.00  8804.00     0.00     8.00     0.14    0.07    0.07    0.00   0.06  14.30
sde               0.00     0.00 2236.00    0.00  8944.00     0.00     8.00     0.15    0.07    0.07    0.00   0.07  15.50
sdf               0.00     0.00 2175.00    0.00  8700.00     0.00     8.00     0.15    0.07    0.07    0.00   0.07  15.00
sdg               0.00     0.00    0.00    0.00     0.00     0.00     0.00     0.00    0.00    0.00    0.00   0.00   0.00
sdh               0.00     0.00    0.00    0.00     0.00     0.00     0.00     0.00    0.00    0.00    0.00   0.00   0.00
md0               0.00     0.00 13589.00    0.00 54356.00     0.00     8.00     0.00    0.00    0.00    0.00   0.00   0.00

avg-cpu:  %user   %nice %system %iowait  %steal   %idle
          25.06    0.26    2.05    1.02    0.00   71.61

Device:         rrqm/s   wrqm/s     r/s     w/s    rkB/s    wkB/s avgrq-sz avgqu-sz   await r_await w_await  svctm  %util
sda               0.00     0.00 2458.00    0.00  9832.00     0.00     8.00     0.15    0.06    0.06    0.00   0.06  15.30
sdb               0.00     0.00 2206.00    0.00  8824.00     0.00     8.00     0.15    0.07    0.07    0.00   0.07  15.40
sdc               0.00     0.00 2293.00    0.00  9172.00     0.00     8.00     0.15    0.06    0.06    0.00   0.06  14.80
sdd               0.00     0.00 2233.00    0.00  8932.00     0.00     8.00     0.15    0.07    0.07    0.00   0.07  15.40
sde               0.00     0.00 2185.00    0.00  8740.00     0.00     8.00     0.15    0.07    0.07    0.00   0.07  14.70
sdf               0.00     0.00 2072.00    0.00  8288.00     0.00     8.00     0.15    0.07    0.07    0.00   0.07  15.40
sdg               0.00     0.00    4.00    0.00    16.00     0.00     8.00     0.00    0.25    0.25    0.00   0.25   0.10
sdh               0.00     0.00    0.00    0.00     0.00     0.00     0.00     0.00    0.00    0.00    0.00   0.00   0.00
md0               0.00     0.00 13448.00    0.00 53792.00     0.00     8.00     0.00    0.00    0.00    0.00   0.00   0.00

avg-cpu:  %user   %nice %system %iowait  %steal   %idle
          24.81    0.00    2.78   12.66    0.00   59.75

Device:         rrqm/s   wrqm/s     r/s     w/s    rkB/s    wkB/s avgrq-sz avgqu-sz   await r_await w_await  svctm  %util
sda               0.00     0.00 1962.00    0.00  7848.00     0.00     8.00     0.13    0.07    0.07    0.00   0.06  12.70
sdb               0.00     0.00 2383.00    0.00  9532.00     0.00     8.00     0.15    0.06    0.06    0.00   0.06  15.10
sdc               0.00     0.00 2313.00    0.00  9252.00     0.00     8.00     0.16    0.07    0.07    0.00   0.07  15.70
sdd               0.00     0.00 2317.00    0.00  9268.00     0.00     8.00     0.16    0.07    0.07    0.00   0.07  15.60
sde               0.00     0.00 2372.00    0.00  9488.00     0.00     8.00     0.16    0.07    0.07    0.00   0.07  15.70
sdf               0.00     0.00 2365.00    0.00  9460.00     0.00     8.00     0.15    0.07    0.07    0.00   0.07  15.40
sdg               0.00     0.00    0.00    0.00     0.00     0.00     0.00     0.00    0.00    0.00    0.00   0.00   0.00
sdh               0.00     0.00    0.00    0.00     0.00     0.00     0.00     0.00    0.00    0.00    0.00   0.00   0.00
md0               0.00     0.00 13710.00    0.00 54840.00     0.00     8.00     0.00    0.00    0.00    0.00   0.00   0.00

