Linux 4.17.2 (bench) 	08/04/2018 	_x86_64_	(4 CPU)

avg-cpu:  %user   %nice %system %iowait  %steal   %idle
          10.25    0.02    4.25    2.79    0.00   82.69

Device:         rrqm/s   wrqm/s     r/s     w/s    rkB/s    wkB/s avgrq-sz avgqu-sz   await r_await w_await  svctm  %util
sda              56.51     4.16 1749.60  100.39 21454.47  3071.89    26.52     1.05    0.57    0.26    5.92   0.06  11.13
sdb              56.30     4.12 1749.62  100.53 21444.05  3068.62    26.50     1.05    0.57    0.26    5.85   0.06  11.01
sdc              93.90     4.18 1709.93  100.09 21436.35  3071.03    27.08     1.47    0.81    0.44    7.12   0.08  14.51
sdd              87.49     4.14 1715.53  100.15 21421.48  3067.31    26.97     1.48    0.81    0.43    7.33   0.08  14.61
sde              89.46     4.19 1720.57  100.25 21480.35  3071.47    26.97     1.50    0.82    0.44    7.44   0.08  14.63
sdf              86.64     4.16 1722.65  100.19 21461.97  3068.40    26.91     1.54    0.85    0.44    7.90   0.08  14.66
sdg               0.00     3.16   27.03   73.20   326.69   391.85    14.34     0.44    4.38    0.20    5.93   0.08   0.79
sdh               0.00     0.13    0.02    0.23     2.16     4.96    56.82     0.00    1.15    0.65    1.19   0.21   0.01
md0               0.00     0.00 10845.94  470.36 147056.51 21026.56    29.71     0.00    0.00    0.00    0.00   0.00   0.00

avg-cpu:  %user   %nice %system %iowait  %steal   %idle
          15.80    0.03   18.71    0.14    0.00   65.33

Device:         rrqm/s   wrqm/s     r/s     w/s    rkB/s    wkB/s avgrq-sz avgqu-sz   await r_await w_await  svctm  %util
sda               6.15     0.00   91.05    0.00  9278.20     0.00   203.80     0.05    0.55    0.55    0.00   0.37   3.38
sdb               5.85     0.00   88.55    0.00  9336.40     0.00   210.87     0.05    0.53    0.53    0.00   0.37   3.29
sdc               5.80     0.00   92.20    0.00  9484.40     0.00   205.74     0.07    0.80    0.80    0.00   0.50   4.65
sdd               5.35     0.00   94.30    0.00  9528.40     0.00   202.09     0.07    0.76    0.76    0.00   0.49   4.65
sde               5.75     0.00   95.45    0.00  9247.40     0.00   193.76     0.07    0.77    0.77    0.00   0.50   4.75
sdf               5.05     0.00   92.20    0.00  9418.20     0.00   204.30     0.07    0.79    0.79    0.00   0.50   4.60
sdg               0.00     0.00    5.60    0.65    32.80     9.80    13.63     0.00    0.11    0.12    0.00   0.11   0.07
sdh               0.00     0.00    0.00    0.00     0.00     0.00     0.00     0.00    0.00    0.00    0.00   0.00   0.00
md0               0.00     0.00  587.75    0.00 73361.40     0.00   249.63     0.00    0.00    0.00    0.00   0.00   0.00

