Linux 4.17.2 (bench) 	08/04/2018 	_x86_64_	(4 CPU)

avg-cpu:  %user   %nice %system %iowait  %steal   %idle
          10.25    0.02    4.25    2.79    0.00   82.69

Device:         rrqm/s   wrqm/s     r/s     w/s    rkB/s    wkB/s avgrq-sz avgqu-sz   await r_await w_await  svctm  %util
sda              56.52     4.16 1749.59  100.38 21453.49  3071.49    26.51     1.05    0.57    0.26    5.92   0.06  11.13
sdb              56.31     4.12 1749.61  100.51 21443.07  3068.22    26.50     1.05    0.57    0.26    5.85   0.06  11.01
sdc              93.90     4.17 1709.92  100.07 21435.37  3070.63    27.08     1.47    0.81    0.44    7.12   0.08  14.51
sdd              87.49     4.14 1715.52  100.14 21420.51  3066.91    26.97     1.48    0.81    0.43    7.33   0.08  14.61
sde              89.46     4.19 1720.56  100.23 21479.37  3071.07    26.97     1.50    0.82    0.44    7.44   0.08  14.63
sdf              86.64     4.16 1722.64  100.18 21460.99  3067.99    26.91     1.54    0.85    0.44    7.90   0.08  14.66
sdg               0.00     3.16   27.04   73.19   326.69   391.83    14.34     0.44    4.38    0.20    5.93   0.08   0.79
sdh               0.00     0.13    0.02    0.23     2.16     4.96    56.82     0.00    1.15    0.65    1.19   0.21   0.01
md0               0.00     0.00 10845.90  470.30 147049.24 21023.82    29.70     0.00    0.00    0.00    0.00   0.00   0.00

avg-cpu:  %user   %nice %system %iowait  %steal   %idle
          22.92    0.00    4.53    1.01    0.00   71.54

Device:         rrqm/s   wrqm/s     r/s     w/s    rkB/s    wkB/s avgrq-sz avgqu-sz   await r_await w_await  svctm  %util
sda               4.00     0.00 1817.00    0.00 37740.00     0.00    41.54     1.15    0.63    0.63    0.00   0.11  19.40
sdb               2.00     0.00 1820.00    0.00 36228.00     0.00    39.81     1.14    0.63    0.63    0.00   0.11  19.40
sdc               1.00     0.00 1824.00    0.00 35320.00     0.00    38.73     1.75    0.96    0.96    0.00   0.14  25.00
sdd               3.00     0.00 1778.00    0.00 36768.00     0.00    41.36     1.77    0.99    0.99    0.00   0.15  25.80
sde               2.00     0.00 1811.00    0.00 35800.00     0.00    39.54     2.07    1.14    1.14    0.00   0.14  24.90
sdf               4.00     0.00 1717.00    0.00 35404.00     0.00    41.24     2.00    1.17    1.17    0.00   0.14  24.40
sdg               0.00     0.00    3.00    0.00   100.00     0.00    66.67     0.00    0.33    0.33    0.00   0.33   0.10
sdh               0.00     0.00    0.00    0.00     0.00     0.00     0.00     0.00    0.00    0.00    0.00   0.00   0.00
md0               0.00     0.00 10785.00    0.00 230568.00     0.00    42.76     0.00    0.00    0.00    0.00   0.00   0.00

avg-cpu:  %user   %nice %system %iowait  %steal   %idle
          23.17    0.25    3.78    1.26    0.00   71.54

Device:         rrqm/s   wrqm/s     r/s     w/s    rkB/s    wkB/s avgrq-sz avgqu-sz   await r_await w_await  svctm  %util
sda              21.00     0.00 1203.00    0.00 21892.00     0.00    36.40     0.26    0.22    0.22    0.00   0.13  16.00
sdb              16.00     0.00 1257.00    0.00 20024.00     0.00    31.86     0.23    0.18    0.18    0.00   0.13  16.40
sdc              17.00     0.00 1224.00    0.00 20032.00     0.00    32.73     0.25    0.21    0.21    0.00   0.16  19.90
sdd              18.00     0.00 1205.00    0.00 20792.00     0.00    34.51     0.28    0.23    0.23    0.00   0.16  19.10
sde              17.00     0.00 1173.00    0.00 21252.00     0.00    36.24     0.32    0.27    0.27    0.00   0.16  19.10
sdf              20.00     0.00 1216.00    0.00 21840.00     0.00    35.92     0.34    0.28    0.28    0.00   0.17  20.40
sdg               0.00     0.00   42.00    0.00   480.00     0.00    22.86     0.01    0.17    0.17    0.00   0.12   0.50
sdh               0.00     0.00    0.00    0.00     0.00     0.00     0.00     0.00    0.00    0.00    0.00   0.00   0.00
md0               0.00     0.00 7387.00    0.00 158284.00     0.00    42.85     0.00    0.00    0.00    0.00   0.00   0.00

avg-cpu:  %user   %nice %system %iowait  %steal   %idle
          23.50    0.00    3.50    1.50    0.00   71.50

Device:         rrqm/s   wrqm/s     r/s     w/s    rkB/s    wkB/s avgrq-sz avgqu-sz   await r_await w_await  svctm  %util
sda              28.00     0.00 1138.00    0.00 24544.00     0.00    43.14     0.18    0.16    0.16    0.00   0.14  16.20
sdb              24.00     0.00 1161.00    0.00 21308.00     0.00    36.71     0.17    0.15    0.15    0.00   0.14  16.10
sdc              22.00     0.00 1176.00    0.00 23084.00     0.00    39.26     0.24    0.20    0.20    0.00   0.18  21.10
sdd              30.00     0.00 1095.00    0.00 24388.00     0.00    44.54     0.22    0.20    0.20    0.00   0.18  19.80
sde              29.00     0.00 1092.00    0.00 26092.00     0.00    47.79     0.25    0.23    0.23    0.00   0.19  20.50
sdf              28.00     0.00 1139.00    0.00 25868.00     0.00    45.42     0.26    0.23    0.23    0.00   0.19  21.90
sdg               0.00     1.00    1.00   11.00    16.00   184.00    33.33     0.00    0.25    0.00    0.27   0.08   0.10
sdh               0.00     0.00    0.00    0.00     0.00     0.00     0.00     0.00    0.00    0.00    0.00   0.00   0.00
md0               0.00     0.00 6961.00    0.00 190332.00     0.00    54.69     0.00    0.00    0.00    0.00   0.00   0.00

avg-cpu:  %user   %nice %system %iowait  %steal   %idle
          23.75    0.00    3.25    1.50    0.00   71.50

Device:         rrqm/s   wrqm/s     r/s     w/s    rkB/s    wkB/s avgrq-sz avgqu-sz   await r_await w_await  svctm  %util
sda              32.00     0.00 1043.00    0.00 27180.00     0.00    52.12     0.19    0.18    0.18    0.00   0.16  16.90
sdb              33.00     0.00 1119.00    0.00 27032.00     0.00    48.31     0.20    0.18    0.18    0.00   0.16  17.50
sdc              28.00     0.00 1160.00    0.00 26416.00     0.00    45.54     0.25    0.22    0.22    0.00   0.19  21.70
sdd              31.00     0.00 1094.00    0.00 28112.00     0.00    51.39     0.25    0.23    0.23    0.00   0.20  21.90
sde              34.00     0.00 1106.00    0.00 27224.00     0.00    49.23     0.25    0.23    0.23    0.00   0.21  22.70
sdf              31.00     0.00 1097.00    0.00 26756.00     0.00    48.78     0.25    0.23    0.23    0.00   0.20  22.10
sdg               0.00     0.00    0.00    0.00     0.00     0.00     0.00     0.00    0.00    0.00    0.00   0.00   0.00
sdh               0.00     0.00    0.00    0.00     0.00     0.00     0.00     0.00    0.00    0.00    0.00   0.00   0.00
md0               0.00     0.00 6809.00    0.00 220708.00     0.00    64.83     0.00    0.00    0.00    0.00   0.00   0.00

avg-cpu:  %user   %nice %system %iowait  %steal   %idle
          21.86    0.00    6.53    1.26    0.00   70.35

Device:         rrqm/s   wrqm/s     r/s     w/s    rkB/s    wkB/s avgrq-sz avgqu-sz   await r_await w_await  svctm  %util
sda              18.00     0.00 2349.00    0.00 46564.00     0.00    39.65     1.56    0.67    0.67    0.00   0.09  20.70
sdb              17.00     0.00 2482.00    0.00 49224.00     0.00    39.66     1.84    0.74    0.74    0.00   0.09  22.40
sdc              27.00     0.00 2534.00    0.00 49888.00     0.00    39.37     4.02    1.56    1.56    0.00   0.12  30.60
sdd              19.00     0.00 2466.00    0.00 48660.00     0.00    39.46     3.26    1.31    1.31    0.00   0.12  29.60
sde              19.00     0.00 2421.00    0.00 49520.00     0.00    40.91     3.36    1.38    1.38    0.00   0.13  30.60
sdf              21.00     0.00 2338.00    0.00 46712.00     0.00    39.96     2.95    1.24    1.24    0.00   0.13  29.50
sdg               0.00     0.00    0.00    0.00     0.00     0.00     0.00     0.00    0.00    0.00    0.00   0.00   0.00
sdh               0.00     0.00    0.00    0.00     0.00     0.00     0.00     0.00    0.00    0.00    0.00   0.00   0.00
md0               0.00     0.00 14788.00    0.00 319496.00     0.00    43.21     0.00    0.00    0.00    0.00   0.00   0.00

avg-cpu:  %user   %nice %system %iowait  %steal   %idle
          22.17    0.00    6.55    1.76    0.00   69.52

Device:         rrqm/s   wrqm/s     r/s     w/s    rkB/s    wkB/s avgrq-sz avgqu-sz   await r_await w_await  svctm  %util
sda               6.00     0.00 2167.00    0.00 54308.00     0.00    50.12     1.70    0.78    0.78    0.00   0.11  24.40
sdb               2.00     0.00 2351.00    0.00 57784.00     0.00    49.16     1.75    0.75    0.75    0.00   0.11  24.90
sdc               3.00     0.00 2245.00    0.00 56188.00     0.00    50.06     3.04    1.39    1.39    0.00   0.14  32.50
sdd               4.00     0.00 2170.00    0.00 57192.00     0.00    52.71     3.11    1.44    1.44    0.00   0.15  32.50
sde               7.00     0.00 2202.00    0.00 56160.00     0.00    51.01     3.10    1.42    1.42    0.00   0.15  33.80
sdf               4.00     0.00 2158.00    0.00 52620.00     0.00    48.77     3.14    1.48    1.48    0.00   0.15  31.40
sdg               0.00    76.00   12.00 2410.00    48.00 11924.00     9.89    14.83    6.12    1.42    6.15   0.05  11.50
sdh               0.00     0.00    0.00    0.00     0.00     0.00     0.00     0.00    0.00    0.00    0.00   0.00   0.00
md0               0.00     0.00 13240.00    0.00 353644.00     0.00    53.42     0.00    0.00    0.00    0.00   0.00   0.00

avg-cpu:  %user   %nice %system %iowait  %steal   %idle
          21.27    0.00    7.85    1.01    0.00   69.87

Device:         rrqm/s   wrqm/s     r/s     w/s    rkB/s    wkB/s avgrq-sz avgqu-sz   await r_await w_await  svctm  %util
sda               1.00     0.00 2149.00    0.00 45284.00     0.00    42.14     1.63    0.76    0.76    0.00   0.09  19.90
sdb               1.00     0.00 2089.00    0.00 42532.00     0.00    40.72     1.60    0.76    0.76    0.00   0.09  18.70
sdc               9.00     0.00 2236.00    0.00 43660.00     0.00    39.05     3.31    1.47    1.47    0.00   0.12  27.20
sdd               2.00     0.00 2109.00    0.00 40472.00     0.00    38.38     2.81    1.33    1.33    0.00   0.12  25.60
sde               6.00     0.00 2094.00    0.00 42100.00     0.00    40.21     2.92    1.40    1.40    0.00   0.12  25.50
sdf               4.00     0.00 2278.00    0.00 46676.00     0.00    40.98     2.99    1.31    1.31    0.00   0.12  27.90
sdg               0.00     0.00    0.00    0.00     0.00     0.00     0.00     0.00    0.00    0.00    0.00   0.00   0.00
sdh               0.00     0.00    0.00    0.00     0.00     0.00     0.00     0.00    0.00    0.00    0.00   0.00   0.00
md0               0.00     0.00 12989.00    0.00 274972.00     0.00    42.34     0.00    0.00    0.00    0.00   0.00   0.00

avg-cpu:  %user   %nice %system %iowait  %steal   %idle
          18.59    0.00   16.08    3.27    0.00   62.06

Device:         rrqm/s   wrqm/s     r/s     w/s    rkB/s    wkB/s avgrq-sz avgqu-sz   await r_await w_await  svctm  %util
sda               0.00     0.00 2255.00    0.00 36996.00     0.00    32.81     1.73    0.77    0.77    0.00   0.06  14.00
sdb               0.00     0.00 2394.00    0.00 38676.00     0.00    32.31     1.82    0.76    0.76    0.00   0.06  14.30
sdc               1.00     0.00 2417.00    0.00 39768.00     0.00    32.91     3.05    1.28    1.28    0.00   0.09  21.90
sdd               1.00     0.00 2354.00    0.00 38136.00     0.00    32.40     3.01    1.28    1.28    0.00   0.09  21.10
sde               0.00     0.00 2238.00    0.00 35480.00     0.00    31.71     2.75    1.23    1.23    0.00   0.09  19.70
sdf               2.00     0.00 2236.00    0.00 36536.00     0.00    32.68     2.71    1.22    1.22    0.00   0.09  20.10
sdg               0.00     0.00    0.00    0.00     0.00     0.00     0.00     0.00    0.00    0.00    0.00   0.00   0.00
sdh               0.00     0.00    0.00    0.00     0.00     0.00     0.00     0.00    0.00    0.00    0.00   0.00   0.00
md0               0.00     0.00 13887.00    0.00 231396.00     0.00    33.33     0.00    0.00    0.00    0.00   0.00   0.00

avg-cpu:  %user   %nice %system %iowait  %steal   %idle
          14.50    0.00   22.50    0.25    0.00   62.75

Device:         rrqm/s   wrqm/s     r/s     w/s    rkB/s    wkB/s avgrq-sz avgqu-sz   await r_await w_await  svctm  %util
sda               0.00     0.00   96.00    0.00   948.00     0.00    19.75     0.01    0.10    0.10    0.00   0.03   0.30
sdb               0.00     0.00   75.00    0.00   736.00     0.00    19.63     0.02    0.29    0.29    0.00   0.05   0.40
sdc               0.00     0.00  137.00    0.00  1236.00     0.00    18.04     0.05    0.39    0.39    0.00   0.04   0.60
sdd               0.00     0.00  143.00    0.00  1240.00     0.00    17.34     0.05    0.36    0.36    0.00   0.06   0.90
sde               0.00     0.00  125.00    0.00  1188.00     0.00    19.01     0.07    0.58    0.58    0.00   0.08   1.00
sdf               0.00     0.00  111.00    0.00   984.00     0.00    17.73     0.04    0.33    0.33    0.00   0.05   0.50
sdg               0.00     0.00    0.00    0.00     0.00     0.00     0.00     0.00    0.00    0.00    0.00   0.00   0.00
sdh               0.00     0.00    0.00    0.00     0.00     0.00     0.00     0.00    0.00    0.00    0.00   0.00   0.00
md0               0.00     0.00  687.00    0.00  6440.00     0.00    18.75     0.00    0.00    0.00    0.00   0.00   0.00

avg-cpu:  %user   %nice %system %iowait  %steal   %idle
          14.57    0.00   22.61    0.00    0.00   62.81

Device:         rrqm/s   wrqm/s     r/s     w/s    rkB/s    wkB/s avgrq-sz avgqu-sz   await r_await w_await  svctm  %util
sda               0.00     0.00   10.00    0.00    72.00     0.00    14.40     0.00    0.00    0.00    0.00   0.00   0.00
sdb               0.00     0.00   17.00    0.00   128.00     0.00    15.06     0.01    0.29    0.29    0.00   0.06   0.10
sdc               0.00     0.00   32.00    0.00   256.00     0.00    16.00     0.02    0.56    0.56    0.00   0.12   0.40
sdd               0.00     0.00   25.00    0.00   180.00     0.00    14.40     0.01    0.32    0.32    0.00   0.04   0.10
sde               0.00     0.00   48.00    0.00   372.00     0.00    15.50     0.01    0.15    0.15    0.00   0.04   0.20
sdf               0.00     0.00   41.00    0.00   276.00     0.00    13.46     0.01    0.15    0.15    0.00   0.10   0.40
sdg               0.00     0.00    0.00    0.00     0.00     0.00     0.00     0.00    0.00    0.00    0.00   0.00   0.00
sdh               0.00     0.00    0.00    0.00     0.00     0.00     0.00     0.00    0.00    0.00    0.00   0.00   0.00
md0               0.00     0.00  173.00    0.00  1320.00     0.00    15.26     0.00    0.00    0.00    0.00   0.00   0.00

avg-cpu:  %user   %nice %system %iowait  %steal   %idle
          14.11    0.00   22.92    0.00    0.00   62.97

Device:         rrqm/s   wrqm/s     r/s     w/s    rkB/s    wkB/s avgrq-sz avgqu-sz   await r_await w_await  svctm  %util
sda               0.00     0.00    0.00    0.00     0.00     0.00     0.00     0.00    0.00    0.00    0.00   0.00   0.00
sdb               0.00     0.00    0.00    0.00     0.00     0.00     0.00     0.00    0.00    0.00    0.00   0.00   0.00
sdc               0.00     0.00    2.00    0.00    12.00     0.00    12.00     0.00    0.00    0.00    0.00   0.00   0.00
sdd               0.00     0.00    3.00    0.00    16.00     0.00    10.67     0.00    0.00    0.00    0.00   0.00   0.00
sde               0.00     0.00    0.00    0.00     0.00     0.00     0.00     0.00    0.00    0.00    0.00   0.00   0.00
sdf               0.00     0.00    3.00    0.00    20.00     0.00    13.33     0.00    0.00    0.00    0.00   0.00   0.00
sdg               0.00     0.00    0.00    3.00     0.00    36.00    24.00     0.00    0.00    0.00    0.00   0.00   0.00
sdh               0.00     0.00    0.00    0.00     0.00     0.00     0.00     0.00    0.00    0.00    0.00   0.00   0.00
md0               0.00     0.00    8.00    0.00    48.00     0.00    12.00     0.00    0.00    0.00    0.00   0.00   0.00

avg-cpu:  %user   %nice %system %iowait  %steal   %idle
          14.29    0.25   23.31    0.00    0.00   62.16

Device:         rrqm/s   wrqm/s     r/s     w/s    rkB/s    wkB/s avgrq-sz avgqu-sz   await r_await w_await  svctm  %util
sda               0.00     0.00    0.00    0.00     0.00     0.00     0.00     0.00    0.00    0.00    0.00   0.00   0.00
sdb               0.00     0.00    0.00    0.00     0.00     0.00     0.00     0.00    0.00    0.00    0.00   0.00   0.00
sdc               0.00     0.00    1.00    0.00     4.00     0.00     8.00     0.00    1.00    1.00    0.00   1.00   0.10
sdd               0.00     0.00    2.00    0.00     8.00     0.00     8.00     0.00    0.00    0.00    0.00   0.00   0.00
sde               0.00     0.00    0.00    0.00     0.00     0.00     0.00     0.00    0.00    0.00    0.00   0.00   0.00
sdf               0.00     0.00    0.00    0.00     0.00     0.00     0.00     0.00    0.00    0.00    0.00   0.00   0.00
sdg               0.00     0.00    0.00    0.00     0.00     0.00     0.00     0.00    0.00    0.00    0.00   0.00   0.00
sdh               0.00     0.00    0.00    0.00     0.00     0.00     0.00     0.00    0.00    0.00    0.00   0.00   0.00
md0               0.00     0.00    3.00    0.00    12.00     0.00     8.00     0.00    0.00    0.00    0.00   0.00   0.00

avg-cpu:  %user   %nice %system %iowait  %steal   %idle
          14.00    0.00   23.75    0.00    0.00   62.25

Device:         rrqm/s   wrqm/s     r/s     w/s    rkB/s    wkB/s avgrq-sz avgqu-sz   await r_await w_await  svctm  %util
sda               0.00     0.00    0.00    0.00     0.00     0.00     0.00     0.00    0.00    0.00    0.00   0.00   0.00
sdb               0.00     0.00    0.00    0.00     0.00     0.00     0.00     0.00    0.00    0.00    0.00   0.00   0.00
sdc               0.00     0.00    2.00    0.00    12.00     0.00    12.00     0.00    0.00    0.00    0.00   0.00   0.00
sdd               0.00     0.00    0.00    0.00     0.00     0.00     0.00     0.00    0.00    0.00    0.00   0.00   0.00
sde               0.00     0.00    0.00    0.00     0.00     0.00     0.00     0.00    0.00    0.00    0.00   0.00   0.00
sdf               0.00     0.00    0.00    0.00     0.00     0.00     0.00     0.00    0.00    0.00    0.00   0.00   0.00
sdg               0.00     0.00    0.00    0.00     0.00     0.00     0.00     0.00    0.00    0.00    0.00   0.00   0.00
sdh               0.00     0.00    0.00    0.00     0.00     0.00     0.00     0.00    0.00    0.00    0.00   0.00   0.00
md0               0.00     0.00    2.00    0.00    12.00     0.00    12.00     0.00    0.00    0.00    0.00   0.00   0.00

avg-cpu:  %user   %nice %system %iowait  %steal   %idle
          13.72    0.00   24.44    0.00    0.00   61.85

Device:         rrqm/s   wrqm/s     r/s     w/s    rkB/s    wkB/s avgrq-sz avgqu-sz   await r_await w_await  svctm  %util
sda               0.00     0.00    0.00    0.00     0.00     0.00     0.00     0.00    0.00    0.00    0.00   0.00   0.00
sdb               0.00     0.00    0.00    0.00     0.00     0.00     0.00     0.00    0.00    0.00    0.00   0.00   0.00
sdc               0.00     0.00    0.00    0.00     0.00     0.00     0.00     0.00    0.00    0.00    0.00   0.00   0.00
sdd               0.00     0.00    1.00    0.00     4.00     0.00     8.00     0.00    0.00    0.00    0.00   0.00   0.00
sde               0.00     0.00    0.00    0.00     0.00     0.00     0.00     0.00    0.00    0.00    0.00   0.00   0.00
sdf               0.00     0.00    0.00    0.00     0.00     0.00     0.00     0.00    0.00    0.00    0.00   0.00   0.00
sdg               0.00     0.00    0.00    0.00     0.00     0.00     0.00     0.00    0.00    0.00    0.00   0.00   0.00
sdh               0.00     0.00    0.00    0.00     0.00     0.00     0.00     0.00    0.00    0.00    0.00   0.00   0.00
md0               0.00     0.00    1.00    0.00     4.00     0.00     8.00     0.00    0.00    0.00    0.00   0.00   0.00

avg-cpu:  %user   %nice %system %iowait  %steal   %idle
          13.40    0.00   24.81    0.00    0.00   61.79

Device:         rrqm/s   wrqm/s     r/s     w/s    rkB/s    wkB/s avgrq-sz avgqu-sz   await r_await w_await  svctm  %util
sda               0.00     0.00    0.00    0.00     0.00     0.00     0.00     0.00    0.00    0.00    0.00   0.00   0.00
sdb               0.00     0.00    0.00    0.00     0.00     0.00     0.00     0.00    0.00    0.00    0.00   0.00   0.00
sdc               0.00     0.00    0.00    0.00     0.00     0.00     0.00     0.00    0.00    0.00    0.00   0.00   0.00
sdd               0.00     0.00    0.00    0.00     0.00     0.00     0.00     0.00    0.00    0.00    0.00   0.00   0.00
sde               0.00     0.00    0.00    0.00     0.00     0.00     0.00     0.00    0.00    0.00    0.00   0.00   0.00
sdf               0.00     0.00    0.00    0.00     0.00     0.00     0.00     0.00    0.00    0.00    0.00   0.00   0.00
sdg               0.00     0.00    0.00    0.00     0.00     0.00     0.00     0.00    0.00    0.00    0.00   0.00   0.00
sdh               0.00     0.00    0.00    0.00     0.00     0.00     0.00     0.00    0.00    0.00    0.00   0.00   0.00
md0               0.00     0.00    0.00    0.00     0.00     0.00     0.00     0.00    0.00    0.00    0.00   0.00   0.00

avg-cpu:  %user   %nice %system %iowait  %steal   %idle
          14.46    0.00   23.69    0.00    0.00   61.85

Device:         rrqm/s   wrqm/s     r/s     w/s    rkB/s    wkB/s avgrq-sz avgqu-sz   await r_await w_await  svctm  %util
sda               0.00     0.00    0.00    0.00     0.00     0.00     0.00     0.00    0.00    0.00    0.00   0.00   0.00
sdb               0.00     0.00    0.00    0.00     0.00     0.00     0.00     0.00    0.00    0.00    0.00   0.00   0.00
sdc               0.00     0.00    0.00    0.00     0.00     0.00     0.00     0.00    0.00    0.00    0.00   0.00   0.00
sdd               0.00     0.00    0.00    0.00     0.00     0.00     0.00     0.00    0.00    0.00    0.00   0.00   0.00
sde               0.00     0.00    0.00    0.00     0.00     0.00     0.00     0.00    0.00    0.00    0.00   0.00   0.00
sdf               0.00     0.00    0.00    0.00     0.00     0.00     0.00     0.00    0.00    0.00    0.00   0.00   0.00
sdg               0.00     2.00   14.00  165.00   288.00   776.00    11.89     0.39    2.15    0.14    2.32   0.04   0.70
sdh               0.00     0.00    0.00    0.00     0.00     0.00     0.00     0.00    0.00    0.00    0.00   0.00   0.00
md0               0.00     0.00    0.00    0.00     0.00     0.00     0.00     0.00    0.00    0.00    0.00   0.00   0.00

avg-cpu:  %user   %nice %system %iowait  %steal   %idle
          13.07    0.00   24.62    0.00    0.00   62.31

Device:         rrqm/s   wrqm/s     r/s     w/s    rkB/s    wkB/s avgrq-sz avgqu-sz   await r_await w_await  svctm  %util
sda               0.00     0.00    0.00    0.00     0.00     0.00     0.00     0.00    0.00    0.00    0.00   0.00   0.00
sdb               0.00     0.00    0.00    0.00     0.00     0.00     0.00     0.00    0.00    0.00    0.00   0.00   0.00
sdc               0.00     0.00    0.00    0.00     0.00     0.00     0.00     0.00    0.00    0.00    0.00   0.00   0.00
sdd               0.00     0.00    0.00    0.00     0.00     0.00     0.00     0.00    0.00    0.00    0.00   0.00   0.00
sde               0.00     0.00    0.00    0.00     0.00     0.00     0.00     0.00    0.00    0.00    0.00   0.00   0.00
sdf               0.00     0.00    0.00    0.00     0.00     0.00     0.00     0.00    0.00    0.00    0.00   0.00   0.00
sdg               0.00     0.00    0.00    0.00     0.00     0.00     0.00     0.00    0.00    0.00    0.00   0.00   0.00
sdh               0.00     0.00    0.00    0.00     0.00     0.00     0.00     0.00    0.00    0.00    0.00   0.00   0.00
md0               0.00     0.00    0.00    0.00     0.00     0.00     0.00     0.00    0.00    0.00    0.00   0.00   0.00

avg-cpu:  %user   %nice %system %iowait  %steal   %idle
          13.25    0.00   24.75    0.00    0.00   62.00

Device:         rrqm/s   wrqm/s     r/s     w/s    rkB/s    wkB/s avgrq-sz avgqu-sz   await r_await w_await  svctm  %util
sda               0.00     0.00    0.00    0.00     0.00     0.00     0.00     0.00    0.00    0.00    0.00   0.00   0.00
sdb               0.00     0.00    0.00    0.00     0.00     0.00     0.00     0.00    0.00    0.00    0.00   0.00   0.00
sdc               0.00     0.00    0.00    0.00     0.00     0.00     0.00     0.00    0.00    0.00    0.00   0.00   0.00
sdd               0.00     0.00    0.00    0.00     0.00     0.00     0.00     0.00    0.00    0.00    0.00   0.00   0.00
sde               0.00     0.00    0.00    0.00     0.00     0.00     0.00     0.00    0.00    0.00    0.00   0.00   0.00
sdf               0.00     0.00    0.00    0.00     0.00     0.00     0.00     0.00    0.00    0.00    0.00   0.00   0.00
sdg               0.00     0.00    0.00    0.00     0.00     0.00     0.00     0.00    0.00    0.00    0.00   0.00   0.00
sdh               0.00     0.00    0.00    0.00     0.00     0.00     0.00     0.00    0.00    0.00    0.00   0.00   0.00
md0               0.00     0.00    0.00    0.00     0.00     0.00     0.00     0.00    0.00    0.00    0.00   0.00   0.00

avg-cpu:  %user   %nice %system %iowait  %steal   %idle
          13.64    0.00   23.48    0.00    0.00   62.88

Device:         rrqm/s   wrqm/s     r/s     w/s    rkB/s    wkB/s avgrq-sz avgqu-sz   await r_await w_await  svctm  %util
sda               0.00     0.00    0.00    0.00     0.00     0.00     0.00     0.00    0.00    0.00    0.00   0.00   0.00
sdb               0.00     0.00    0.00    0.00     0.00     0.00     0.00     0.00    0.00    0.00    0.00   0.00   0.00
sdc               0.00     0.00    0.00    0.00     0.00     0.00     0.00     0.00    0.00    0.00    0.00   0.00   0.00
sdd               0.00     0.00    0.00    0.00     0.00     0.00     0.00     0.00    0.00    0.00    0.00   0.00   0.00
sde               0.00     0.00    0.00    0.00     0.00     0.00     0.00     0.00    0.00    0.00    0.00   0.00   0.00
sdf               0.00     0.00    0.00    0.00     0.00     0.00     0.00     0.00    0.00    0.00    0.00   0.00   0.00
sdg               0.00     0.00    0.00    0.00     0.00     0.00     0.00     0.00    0.00    0.00    0.00   0.00   0.00
sdh               0.00     0.00    0.00    0.00     0.00     0.00     0.00     0.00    0.00    0.00    0.00   0.00   0.00
md0               0.00     0.00    0.00    0.00     0.00     0.00     0.00     0.00    0.00    0.00    0.00   0.00   0.00

avg-cpu:  %user   %nice %system %iowait  %steal   %idle
          14.00    0.00   24.00    0.00    0.00   62.00

Device:         rrqm/s   wrqm/s     r/s     w/s    rkB/s    wkB/s avgrq-sz avgqu-sz   await r_await w_await  svctm  %util
sda               0.00     0.00    0.00    0.00     0.00     0.00     0.00     0.00    0.00    0.00    0.00   0.00   0.00
sdb               0.00     0.00    0.00    0.00     0.00     0.00     0.00     0.00    0.00    0.00    0.00   0.00   0.00
sdc               0.00     0.00    0.00    0.00     0.00     0.00     0.00     0.00    0.00    0.00    0.00   0.00   0.00
sdd               0.00     0.00    0.00    0.00     0.00     0.00     0.00     0.00    0.00    0.00    0.00   0.00   0.00
sde               0.00     0.00    0.00    0.00     0.00     0.00     0.00     0.00    0.00    0.00    0.00   0.00   0.00
sdf               0.00     0.00    0.00    0.00     0.00     0.00     0.00     0.00    0.00    0.00    0.00   0.00   0.00
sdg               0.00     0.00    0.00    0.00     0.00     0.00     0.00     0.00    0.00    0.00    0.00   0.00   0.00
sdh               0.00     0.00    0.00    0.00     0.00     0.00     0.00     0.00    0.00    0.00    0.00   0.00   0.00
md0               0.00     0.00    0.00    0.00     0.00     0.00     0.00     0.00    0.00    0.00    0.00   0.00   0.00

