Linux 4.17.2 (bench) 	08/04/2018 	_x86_64_	(4 CPU)

avg-cpu:  %user   %nice %system %iowait  %steal   %idle
          10.25    0.02    4.26    2.81    0.00   82.66

Device:         rrqm/s   wrqm/s     r/s     w/s    rkB/s    wkB/s avgrq-sz avgqu-sz   await r_await w_await  svctm  %util
sda              56.95     4.15 1753.64  100.23 21452.81  3066.95    26.45     1.05    0.57    0.26    5.92   0.06  11.15
sdb              56.74     4.11 1753.66  100.36 21442.40  3063.68    26.44     1.05    0.57    0.26    5.85   0.06  11.03
sdc              94.29     4.17 1714.02   99.92 21434.73  3066.09    27.01     1.47    0.81    0.44    7.12   0.08  14.53
sdd              87.89     4.14 1719.61   99.99 21419.84  3062.37    26.91     1.48    0.81    0.43    7.33   0.08  14.62
sde              89.85     4.18 1724.63  100.09 21478.57  3066.52    26.90     1.50    0.82    0.44    7.44   0.08  14.64
sdf              87.03     4.15 1726.72  100.03 21460.26  3063.46    26.85     1.54    0.84    0.43    7.90   0.08  14.68
sdg               0.00     3.16   27.06   73.18   326.75   391.77    14.34     0.44    4.38    0.20    5.93   0.08   0.79
sdh               0.00     0.13    0.02    0.23     2.16     4.95    56.82     0.00    1.15    0.65    1.19   0.21   0.01
md0               0.00     0.00 10872.77  469.61 147023.26 20992.72    29.63     0.00    0.00    0.00    0.00   0.00   0.00

avg-cpu:  %user   %nice %system %iowait  %steal   %idle
          24.83    0.01    2.35   10.58    0.00   62.23

Device:         rrqm/s   wrqm/s     r/s     w/s    rkB/s    wkB/s avgrq-sz avgqu-sz   await r_await w_await  svctm  %util
sda               0.00     0.00 1487.35    0.00  5949.40     0.00     8.00     0.15    0.10    0.10    0.00   0.10  14.64
sdb               0.00     0.00 1475.20    0.00  5900.80     0.00     8.00     0.15    0.10    0.10    0.00   0.10  14.65
sdc               0.00     0.00 1502.35    0.00  6009.40     0.00     8.00     0.16    0.11    0.11    0.00   0.11  15.95
sdd               0.00     0.00 1498.45    0.00  5993.80     0.00     8.00     0.16    0.11    0.11    0.00   0.11  15.88
sde               0.00     0.00 1501.50    0.00  6006.00     0.00     8.00     0.16    0.11    0.11    0.00   0.11  15.78
sdf               0.00     0.00 1498.60    0.00  5994.40     0.00     8.00     0.16    0.11    0.11    0.00   0.11  16.31
sdg               0.00     0.95    1.50    4.60     9.60    77.60    28.59     0.01    1.75    0.27    2.24   0.16   0.10
sdh               0.00     0.00    0.00    0.00     0.00     0.00     0.00     0.00    0.00    0.00    0.00   0.00   0.00
md0               0.00     0.00 8963.55    0.00 35854.20     0.00     8.00     0.00    0.00    0.00    0.00   0.00   0.00

