Linux 4.17.2 (bench) 	08/04/2018 	_x86_64_	(4 CPU)

avg-cpu:  %user   %nice %system %iowait  %steal   %idle
          10.25    0.02    4.32    2.83    0.00   82.59

Device:         rrqm/s   wrqm/s     r/s     w/s    rkB/s    wkB/s avgrq-sz avgqu-sz   await r_await w_await  svctm  %util
sda              57.77     4.13 1759.34   99.74 21432.16  3052.13    26.34     1.05    0.56    0.26    5.92   0.06  11.17
sdb              57.56     4.09 1759.37   99.88 21421.82  3048.88    26.32     1.05    0.56    0.26    5.85   0.06  11.05
sdc              94.93     4.15 1719.91   99.44 21414.17  3051.28    26.89     1.47    0.81    0.44    7.12   0.08  14.54
sdd              88.56     4.12 1725.47   99.51 21399.34  3047.57    26.79     1.47    0.81    0.43    7.33   0.08  14.64
sde              90.51     4.16 1730.45   99.60 21457.68  3051.71    26.79     1.50    0.82    0.44    7.44   0.08  14.66
sdf              87.71     4.13 1732.53   99.55 21439.44  3048.66    26.73     1.54    0.84    0.43    7.90   0.08  14.69
sdg               0.00     3.15   27.16   73.12   326.89   391.56    14.33     0.44    4.38    0.20    5.93   0.08   0.79
sdh               0.00     0.12    0.02    0.23     2.15     4.93    56.82     0.00    1.15    0.65    1.19   0.21   0.01
md0               0.00     0.00 10911.91  467.34 146847.47 20891.29    29.48     0.00    0.00    0.00    0.00   0.00   0.00

avg-cpu:  %user   %nice %system %iowait  %steal   %idle
          23.81    0.00    2.51    1.00    0.00   72.68

Device:         rrqm/s   wrqm/s     r/s     w/s    rkB/s    wkB/s avgrq-sz avgqu-sz   await r_await w_await  svctm  %util
sda               0.00     0.00 1560.00    0.00  6240.00     0.00     8.00     0.14    0.09    0.09    0.00   0.09  14.20
sdb               0.00     0.00 1584.00    0.00  6336.00     0.00     8.00     0.15    0.10    0.10    0.00   0.10  15.10
sdc               0.00     0.00 1677.00    0.00  6708.00     0.00     8.00     0.16    0.10    0.10    0.00   0.10  16.10
sdd               0.00     0.00 1572.00    0.00  6288.00     0.00     8.00     0.16    0.10    0.10    0.00   0.10  16.20
sde               0.00     0.00 1542.00    0.00  6168.00     0.00     8.00     0.16    0.10    0.10    0.00   0.10  16.00
sdf               0.00     0.00 1570.00    0.00  6280.00     0.00     8.00     0.16    0.10    0.10    0.00   0.10  15.80
sdg               0.00     0.00    4.00    1.00    76.00    12.00    35.20     0.00    0.00    0.00    0.00   0.00   0.00
sdh               0.00     0.00    0.00    0.00     0.00     0.00     0.00     0.00    0.00    0.00    0.00   0.00   0.00
md0               0.00     0.00 9507.00    0.00 38028.00     0.00     8.00     0.00    0.00    0.00    0.00   0.00   0.00

avg-cpu:  %user   %nice %system %iowait  %steal   %idle
          23.81    0.00    2.51    0.75    0.00   72.93

Device:         rrqm/s   wrqm/s     r/s     w/s    rkB/s    wkB/s avgrq-sz avgqu-sz   await r_await w_await  svctm  %util
sda               0.00     0.00 1667.00    0.00  6668.00     0.00     8.00     0.15    0.09    0.09    0.00   0.09  15.00
sdb               0.00     0.00 1562.00    0.00  6248.00     0.00     8.00     0.15    0.10    0.10    0.00   0.10  15.00
sdc               0.00     0.00 1609.00    0.00  6436.00     0.00     8.00     0.17    0.10    0.10    0.00   0.10  16.60
sdd               0.00     0.00 1488.00    0.00  5952.00     0.00     8.00     0.15    0.10    0.10    0.00   0.10  15.30
sde               0.00     0.00 1646.00    0.00  6584.00     0.00     8.00     0.17    0.11    0.11    0.00   0.11  17.40
sdf               0.00     0.00 1595.00    0.00  6380.00     0.00     8.00     0.15    0.09    0.09    0.00   0.09  14.80
sdg               0.00     0.00    0.00    0.00     0.00     0.00     0.00     0.00    0.00    0.00    0.00   0.00   0.00
sdh               0.00     0.00    0.00    0.00     0.00     0.00     0.00     0.00    0.00    0.00    0.00   0.00   0.00
md0               0.00     0.00 9566.00    0.00 38264.00     0.00     8.00     0.00    0.00    0.00    0.00   0.00   0.00

avg-cpu:  %user   %nice %system %iowait  %steal   %idle
          23.81    0.50    3.26    2.51    0.00   69.92

Device:         rrqm/s   wrqm/s     r/s     w/s    rkB/s    wkB/s avgrq-sz avgqu-sz   await r_await w_await  svctm  %util
sda               0.00     0.00 1582.00    0.00  6328.00     0.00     8.00     0.16    0.10    0.10    0.00   0.10  16.30
sdb               0.00     0.00 1638.00    0.00  6552.00     0.00     8.00     0.16    0.10    0.10    0.00   0.10  15.60
sdc               0.00     0.00 1682.00    0.00  6728.00     0.00     8.00     0.16    0.10    0.10    0.00   0.10  16.00
sdd               0.00     0.00 1643.00    0.00  6572.00     0.00     8.00     0.17    0.10    0.10    0.00   0.10  17.20
sde               0.00     0.00 1418.00    0.00  5672.00     0.00     8.00     0.13    0.09    0.09    0.00   0.09  12.60
sdf               0.00     0.00 1568.00    0.00  6272.00     0.00     8.00     0.17    0.11    0.11    0.00   0.11  16.90
sdg               0.00     0.00 1110.00    0.00  4572.00     0.00     8.24     0.14    0.12    0.12    0.00   0.12  13.00
sdh               0.00     0.00    0.00    0.00     0.00     0.00     0.00     0.00    0.00    0.00    0.00   0.00   0.00
md0               0.00     0.00 9532.00    0.00 38128.00     0.00     8.00     0.00    0.00    0.00    0.00   0.00   0.00

avg-cpu:  %user   %nice %system %iowait  %steal   %idle
          25.13    0.00    1.27    1.52    0.00   72.08

Device:         rrqm/s   wrqm/s     r/s     w/s    rkB/s    wkB/s avgrq-sz avgqu-sz   await r_await w_await  svctm  %util
sda               0.00     0.00 1669.00    0.00  6676.00     0.00     8.00     0.16    0.10    0.10    0.00   0.10  16.30
sdb               0.00     0.00 1618.00    0.00  6472.00     0.00     8.00     0.15    0.09    0.09    0.00   0.09  14.60
sdc               0.00     0.00 1611.00    0.00  6444.00     0.00     8.00     0.17    0.10    0.10    0.00   0.10  16.70
sdd               0.00     0.00 1637.00    0.00  6548.00     0.00     8.00     0.15    0.09    0.09    0.00   0.09  15.30
sde               0.00     0.00 1567.00    0.00  6268.00     0.00     8.00     0.17    0.11    0.11    0.00   0.11  16.60
sdf               0.00     0.00 1486.00    0.00  5944.00     0.00     8.00     0.16    0.11    0.11    0.00   0.11  15.80
sdg               0.00     0.00  242.00    0.00   968.00     0.00     8.00     0.03    0.11    0.11    0.00   0.10   2.50
sdh               0.00     0.00    0.00    0.00     0.00     0.00     0.00     0.00    0.00    0.00    0.00   0.00   0.00
md0               0.00     0.00 9588.00    0.00 38352.00     0.00     8.00     0.00    0.00    0.00    0.00   0.00   0.00

avg-cpu:  %user   %nice %system %iowait  %steal   %idle
          25.13    0.00    1.52    0.76    0.00   72.59

Device:         rrqm/s   wrqm/s     r/s     w/s    rkB/s    wkB/s avgrq-sz avgqu-sz   await r_await w_await  svctm  %util
sda               0.00     0.00 1492.00    0.00  5968.00     0.00     8.00     0.13    0.09    0.09    0.00   0.09  13.30
sdb               0.00     0.00 1611.00    0.00  6444.00     0.00     8.00     0.13    0.08    0.08    0.00   0.08  13.30
sdc               0.00     0.00 1499.00    0.00  5996.00     0.00     8.00     0.15    0.10    0.10    0.00   0.10  15.30
sdd               0.00     0.00 1661.00    0.00  6644.00     0.00     8.00     0.17    0.10    0.10    0.00   0.10  16.70
sde               0.00     0.00 1697.00    0.00  6788.00     0.00     8.00     0.18    0.11    0.11    0.00   0.11  18.00
sdf               0.00     0.00 1542.00    0.00  6168.00     0.00     8.00     0.17    0.11    0.11    0.00   0.11  17.10
sdg               0.00     0.00    0.00    0.00     0.00     0.00     0.00     0.00    0.00    0.00    0.00   0.00   0.00
sdh               0.00     0.00    0.00    0.00     0.00     0.00     0.00     0.00    0.00    0.00    0.00   0.00   0.00
md0               0.00     0.00 9502.00    0.00 38008.00     0.00     8.00     0.00    0.00    0.00    0.00   0.00   0.00

avg-cpu:  %user   %nice %system %iowait  %steal   %idle
          25.00    0.00    1.77    0.76    0.00   72.47

Device:         rrqm/s   wrqm/s     r/s     w/s    rkB/s    wkB/s avgrq-sz avgqu-sz   await r_await w_await  svctm  %util
sda               0.00     0.00 1443.00    0.00  5772.00     0.00     8.00     0.14    0.10    0.10    0.00   0.10  13.80
sdb               0.00     0.00 1694.00    0.00  6776.00     0.00     8.00     0.16    0.10    0.10    0.00   0.10  16.20
sdc               0.00     0.00 1592.00    0.00  6368.00     0.00     8.00     0.16    0.10    0.10    0.00   0.10  16.30
sdd               0.00     0.00 1516.00    0.00  6064.00     0.00     8.00     0.16    0.10    0.10    0.00   0.10  15.70
sde               0.00     0.00 1681.00    0.00  6724.00     0.00     8.00     0.16    0.09    0.09    0.00   0.09  15.70
sdf               0.00     0.00 1636.00    0.00  6544.00     0.00     8.00     0.18    0.11    0.11    0.00   0.11  17.90
sdg               0.00     0.00    0.00    0.00     0.00     0.00     0.00     0.00    0.00    0.00    0.00   0.00   0.00
sdh               0.00     0.00    0.00    0.00     0.00     0.00     0.00     0.00    0.00    0.00    0.00   0.00   0.00
md0               0.00     0.00 9561.00    0.00 38244.00     0.00     8.00     0.00    0.00    0.00    0.00   0.00   0.00

avg-cpu:  %user   %nice %system %iowait  %steal   %idle
          25.13    0.00    1.27    1.02    0.00   72.59

Device:         rrqm/s   wrqm/s     r/s     w/s    rkB/s    wkB/s avgrq-sz avgqu-sz   await r_await w_await  svctm  %util
sda               0.00     0.00 1619.00    0.00  6476.00     0.00     8.00     0.14    0.09    0.09    0.00   0.09  14.40
sdb               0.00     0.00 1554.00    0.00  6216.00     0.00     8.00     0.14    0.09    0.09    0.00   0.09  14.20
sdc               0.00     0.00 1594.00    0.00  6376.00     0.00     8.00     0.17    0.10    0.10    0.00   0.10  16.50
sdd               0.00     0.00 1662.00    0.00  6648.00     0.00     8.00     0.17    0.10    0.10    0.00   0.10  17.30
sde               0.00     0.00 1561.00    0.00  6244.00     0.00     8.00     0.16    0.11    0.11    0.00   0.10  16.30
sdf               0.00     0.00 1582.00    0.00  6328.00     0.00     8.00     0.17    0.10    0.10    0.00   0.10  16.50
sdg               0.00     0.00    0.00    0.00     0.00     0.00     0.00     0.00    0.00    0.00    0.00   0.00   0.00
sdh               0.00     0.00    0.00    0.00     0.00     0.00     0.00     0.00    0.00    0.00    0.00   0.00   0.00
md0               0.00     0.00 9572.00    0.00 38288.00     0.00     8.00     0.00    0.00    0.00    0.00   0.00   0.00

avg-cpu:  %user   %nice %system %iowait  %steal   %idle
          24.81    0.00    1.77    0.76    0.00   72.66

Device:         rrqm/s   wrqm/s     r/s     w/s    rkB/s    wkB/s avgrq-sz avgqu-sz   await r_await w_await  svctm  %util
sda               0.00     0.00 1483.00    0.00  5932.00     0.00     8.00     0.14    0.10    0.10    0.00   0.10  14.30
sdb               0.00     0.00 1579.00    0.00  6316.00     0.00     8.00     0.14    0.09    0.09    0.00   0.09  13.90
sdc               0.00     0.00 1626.00    0.00  6504.00     0.00     8.00     0.17    0.11    0.11    0.00   0.11  17.10
sdd               0.00     0.00 1583.00    0.00  6332.00     0.00     8.00     0.15    0.10    0.10    0.00   0.10  15.20
sde               0.00     0.00 1593.00    0.00  6372.00     0.00     8.00     0.17    0.10    0.10    0.00   0.10  16.60
sdf               0.00     0.00 1670.00    0.00  6680.00     0.00     8.00     0.17    0.10    0.10    0.00   0.10  17.20
sdg               0.00     0.00    0.00    0.00     0.00     0.00     0.00     0.00    0.00    0.00    0.00   0.00   0.00
sdh               0.00     0.00    0.00    0.00     0.00     0.00     0.00     0.00    0.00    0.00    0.00   0.00   0.00
md0               0.00     0.00 9535.00    0.00 38140.00     0.00     8.00     0.00    0.00    0.00    0.00   0.00   0.00

avg-cpu:  %user   %nice %system %iowait  %steal   %idle
          25.06    0.00    1.52    1.01    0.00   72.41

Device:         rrqm/s   wrqm/s     r/s     w/s    rkB/s    wkB/s avgrq-sz avgqu-sz   await r_await w_await  svctm  %util
sda               0.00     0.00 1518.00    0.00  6072.00     0.00     8.00     0.15    0.10    0.10    0.00   0.10  14.70
sdb               0.00     0.00 1668.00    0.00  6672.00     0.00     8.00     0.17    0.10    0.10    0.00   0.10  16.80
sdc               0.00     0.00 1668.00    0.00  6672.00     0.00     8.00     0.17    0.10    0.10    0.00   0.10  16.50
sdd               0.00     0.00 1539.00    0.00  6156.00     0.00     8.00     0.17    0.11    0.11    0.00   0.11  16.60
sde               0.00     0.00 1532.00    0.00  6128.00     0.00     8.00     0.17    0.11    0.11    0.00   0.11  16.90
sdf               0.00     0.00 1560.00    0.00  6240.00     0.00     8.00     0.14    0.09    0.09    0.00   0.09  13.70
sdg               0.00     0.00    0.00    0.00     0.00     0.00     0.00     0.00    0.00    0.00    0.00   0.00   0.00
sdh               0.00     0.00    0.00    0.00     0.00     0.00     0.00     0.00    0.00    0.00    0.00   0.00   0.00
md0               0.00     0.00 9485.00    0.00 37940.00     0.00     8.00     0.00    0.00    0.00    0.00   0.00   0.00

avg-cpu:  %user   %nice %system %iowait  %steal   %idle
          24.75    0.00    2.02    1.26    0.00   71.97

Device:         rrqm/s   wrqm/s     r/s     w/s    rkB/s    wkB/s avgrq-sz avgqu-sz   await r_await w_await  svctm  %util
sda               0.00     0.00 1580.00    0.00  6320.00     0.00     8.00     0.16    0.10    0.10    0.00   0.10  15.60
sdb               0.00     0.00 1474.00    0.00  5896.00     0.00     8.00     0.12    0.08    0.08    0.00   0.08  12.30
sdc               0.00     0.00 1616.00    0.00  6464.00     0.00     8.00     0.17    0.10    0.10    0.00   0.11  17.00
sdd               0.00     0.00 1594.00    0.00  6376.00     0.00     8.00     0.17    0.11    0.11    0.00   0.11  17.40
sde               0.00     0.00 1659.00    0.00  6636.00     0.00     8.00     0.17    0.10    0.10    0.00   0.10  16.90
sdf               0.00     0.00 1581.00    0.00  6324.00     0.00     8.00     0.15    0.09    0.09    0.00   0.09  14.90
sdg               0.00     0.00    0.00    0.00     0.00     0.00     0.00     0.00    0.00    0.00    0.00   0.00   0.00
sdh               0.00     0.00    0.00    0.00     0.00     0.00     0.00     0.00    0.00    0.00    0.00   0.00   0.00
md0               0.00     0.00 9503.00    0.00 38012.00     0.00     8.00     0.00    0.00    0.00    0.00   0.00   0.00

avg-cpu:  %user   %nice %system %iowait  %steal   %idle
          25.06    0.00    1.52    4.05    0.00   69.37

Device:         rrqm/s   wrqm/s     r/s     w/s    rkB/s    wkB/s avgrq-sz avgqu-sz   await r_await w_await  svctm  %util
sda               0.00     0.00 1552.00    0.00  6208.00     0.00     8.00     0.15    0.10    0.10    0.00   0.10  15.40
sdb               0.00     0.00 1596.00    0.00  6384.00     0.00     8.00     0.14    0.09    0.09    0.00   0.09  14.20
sdc               0.00     0.00 1618.00    0.00  6472.00     0.00     8.00     0.16    0.10    0.10    0.00   0.10  16.30
sdd               0.00     0.00 1543.00    0.00  6172.00     0.00     8.00     0.16    0.10    0.10    0.00   0.10  15.60
sde               0.00     0.00 1603.00    0.00  6412.00     0.00     8.00     0.17    0.11    0.11    0.00   0.11  17.10
sdf               0.00     0.00 1636.00    0.00  6544.00     0.00     8.00     0.17    0.10    0.10    0.00   0.10  17.00
sdg               0.00     0.00    0.00    0.00     0.00     0.00     0.00     0.00    0.00    0.00    0.00   0.00   0.00
sdh               0.00     0.00    0.00    0.00     0.00     0.00     0.00     0.00    0.00    0.00    0.00   0.00   0.00
md0               0.00     0.00 9549.00    0.00 38196.00     0.00     8.00     0.00    0.00    0.00    0.00   0.00   0.00

avg-cpu:  %user   %nice %system %iowait  %steal   %idle
          24.94    0.00    2.02    1.01    0.00   72.04

Device:         rrqm/s   wrqm/s     r/s     w/s    rkB/s    wkB/s avgrq-sz avgqu-sz   await r_await w_await  svctm  %util
sda               0.00     0.00 1550.00    0.00  6200.00     0.00     8.00     0.15    0.10    0.10    0.00   0.10  15.10
sdb               0.00     0.00 1564.00    0.00  6256.00     0.00     8.00     0.15    0.09    0.09    0.00   0.09  14.80
sdc               0.00     0.00 1550.00    0.00  6200.00     0.00     8.00     0.16    0.10    0.10    0.00   0.10  15.80
sdd               0.00     0.00 1641.00    0.00  6564.00     0.00     8.00     0.16    0.10    0.10    0.00   0.10  15.60
sde               0.00     0.00 1621.00    0.00  6484.00     0.00     8.00     0.16    0.10    0.10    0.00   0.10  16.40
sdf               0.00     0.00 1595.00    0.00  6380.00     0.00     8.00     0.17    0.11    0.11    0.00   0.11  16.90
sdg               0.00     0.00    0.00    0.00     0.00     0.00     0.00     0.00    0.00    0.00    0.00   0.00   0.00
sdh               0.00     0.00    0.00    0.00     0.00     0.00     0.00     0.00    0.00    0.00    0.00   0.00   0.00
md0               0.00     0.00 9520.00    0.00 38080.00     0.00     8.00     0.00    0.00    0.00    0.00   0.00   0.00

avg-cpu:  %user   %nice %system %iowait  %steal   %idle
          24.94    0.00    1.78    0.76    0.00   72.52

Device:         rrqm/s   wrqm/s     r/s     w/s    rkB/s    wkB/s avgrq-sz avgqu-sz   await r_await w_await  svctm  %util
sda               0.00     0.00 1528.00    0.00  6112.00     0.00     8.00     0.16    0.11    0.11    0.00   0.11  16.40
sdb               0.00     0.00 1558.00    0.00  6232.00     0.00     8.00     0.14    0.09    0.09    0.00   0.09  14.10
sdc               0.00     0.00 1506.00    0.00  6024.00     0.00     8.00     0.16    0.10    0.10    0.00   0.10  15.80
sdd               0.00     0.00 1585.00    0.00  6340.00     0.00     8.00     0.15    0.10    0.10    0.00   0.10  15.50
sde               0.00     0.00 1661.00    0.00  6644.00     0.00     8.00     0.17    0.10    0.10    0.00   0.10  17.40
sdf               0.00     0.00 1671.00    0.00  6684.00     0.00     8.00     0.16    0.09    0.09    0.00   0.09  15.70
sdg               0.00     0.00    7.00    0.00    28.00     0.00     8.00     0.00    0.14    0.14    0.00   0.14   0.10
sdh               0.00     0.00    0.00    0.00     0.00     0.00     0.00     0.00    0.00    0.00    0.00   0.00   0.00
md0               0.00     0.00 9509.00    0.00 38036.00     0.00     8.00     0.00    0.00    0.00    0.00   0.00   0.00

avg-cpu:  %user   %nice %system %iowait  %steal   %idle
          24.94    0.00    2.02   22.42    0.00   50.63

Device:         rrqm/s   wrqm/s     r/s     w/s    rkB/s    wkB/s avgrq-sz avgqu-sz   await r_await w_await  svctm  %util
sda               0.00     0.00 1503.00    0.00  6012.00     0.00     8.00     0.15    0.10    0.10    0.00   0.10  14.80
sdb               0.00     0.00 1691.00    0.00  6764.00     0.00     8.00     0.16    0.09    0.09    0.00   0.09  15.80
sdc               0.00     0.00 1615.00    0.00  6460.00     0.00     8.00     0.17    0.11    0.11    0.00   0.11  17.00
sdd               0.00     0.00 1590.00    0.00  6360.00     0.00     8.00     0.17    0.11    0.11    0.00   0.11  17.10
sde               0.00     0.00 1501.00    0.00  6004.00     0.00     8.00     0.15    0.10    0.10    0.00   0.10  15.40
sdf               0.00     0.00 1615.00    0.00  6460.00     0.00     8.00     0.15    0.09    0.09    0.00   0.09  15.10
sdg               0.00     0.00    0.00    0.00     0.00     0.00     0.00     0.00    0.00    0.00    0.00   0.00   0.00
sdh               0.00     0.00    0.00    0.00     0.00     0.00     0.00     0.00    0.00    0.00    0.00   0.00   0.00
md0               0.00     0.00 9516.00    0.00 38064.00     0.00     8.00     0.00    0.00    0.00    0.00   0.00   0.00

avg-cpu:  %user   %nice %system %iowait  %steal   %idle
          25.06    0.00    2.28   17.97    0.00   54.68

Device:         rrqm/s   wrqm/s     r/s     w/s    rkB/s    wkB/s avgrq-sz avgqu-sz   await r_await w_await  svctm  %util
sda               0.00     0.00 1627.00    0.00  6508.00     0.00     8.00     0.16    0.10    0.10    0.00   0.10  16.10
sdb               0.00     0.00 1528.00    0.00  6112.00     0.00     8.00     0.15    0.10    0.10    0.00   0.10  14.60
sdc               0.00     0.00 1597.00    0.00  6388.00     0.00     8.00     0.15    0.10    0.10    0.00   0.10  15.30
sdd               0.00     0.00 1584.00    0.00  6336.00     0.00     8.00     0.16    0.10    0.10    0.00   0.10  16.00
sde               0.00     0.00 1540.00    0.00  6160.00     0.00     8.00     0.17    0.11    0.11    0.00   0.11  16.60
sdf               0.00     0.00 1614.00    0.00  6456.00     0.00     8.00     0.16    0.10    0.10    0.00   0.10  15.70
sdg               0.00    72.00    3.00 2437.00    12.00 12148.00     9.97    15.14    6.21    0.00    6.21   0.04  10.80
sdh               0.00     0.00    0.00    0.00     0.00     0.00     0.00     0.00    0.00    0.00    0.00   0.00   0.00
md0               0.00     0.00 9490.00    0.00 37960.00     0.00     8.00     0.00    0.00    0.00    0.00   0.00   0.00

avg-cpu:  %user   %nice %system %iowait  %steal   %idle
          24.81    0.00    1.77    0.76    0.00   72.66

Device:         rrqm/s   wrqm/s     r/s     w/s    rkB/s    wkB/s avgrq-sz avgqu-sz   await r_await w_await  svctm  %util
sda               0.00     0.00 1531.00    0.00  6124.00     0.00     8.00     0.15    0.10    0.10    0.00   0.10  15.40
sdb               0.00     0.00 1536.00    0.00  6144.00     0.00     8.00     0.14    0.09    0.09    0.00   0.09  14.30
sdc               0.00     0.00 1617.00    0.00  6468.00     0.00     8.00     0.16    0.10    0.10    0.00   0.10  16.10
sdd               0.00     0.00 1562.00    0.00  6248.00     0.00     8.00     0.15    0.10    0.10    0.00   0.10  15.40
sde               0.00     0.00 1623.00    0.00  6492.00     0.00     8.00     0.18    0.11    0.11    0.00   0.11  18.30
sdf               0.00     0.00 1638.00    0.00  6552.00     0.00     8.00     0.15    0.09    0.09    0.00   0.09  15.50
sdg               0.00     0.00    0.00    0.00     0.00     0.00     0.00     0.00    0.00    0.00    0.00   0.00   0.00
sdh               0.00     0.00    0.00    0.00     0.00     0.00     0.00     0.00    0.00    0.00    0.00   0.00   0.00
md0               0.00     0.00 9506.00    0.00 38024.00     0.00     8.00     0.00    0.00    0.00    0.00   0.00   0.00

avg-cpu:  %user   %nice %system %iowait  %steal   %idle
          24.87    0.00    1.52    1.02    0.00   72.59

Device:         rrqm/s   wrqm/s     r/s     w/s    rkB/s    wkB/s avgrq-sz avgqu-sz   await r_await w_await  svctm  %util
sda               0.00     0.00 1552.00    0.00  6208.00     0.00     8.00     0.13    0.09    0.09    0.00   0.09  13.40
sdb               0.00     0.00 1617.00    0.00  6468.00     0.00     8.00     0.17    0.10    0.10    0.00   0.10  16.50
sdc               0.00     0.00 1532.00    0.00  6128.00     0.00     8.00     0.17    0.11    0.11    0.00   0.11  16.70
sdd               0.00     0.00 1698.00    0.00  6792.00     0.00     8.00     0.16    0.09    0.09    0.00   0.09  16.10
sde               0.00     0.00 1581.00    0.00  6324.00     0.00     8.00     0.17    0.10    0.10    0.00   0.10  16.60
sdf               0.00     0.00 1576.00    0.00  6304.00     0.00     8.00     0.16    0.10    0.10    0.00   0.10  15.60
sdg               0.00     0.00    0.00    0.00     0.00     0.00     0.00     0.00    0.00    0.00    0.00   0.00   0.00
sdh               0.00     0.00    0.00    0.00     0.00     0.00     0.00     0.00    0.00    0.00    0.00   0.00   0.00
md0               0.00     0.00 9556.00    0.00 38224.00     0.00     8.00     0.00    0.00    0.00    0.00   0.00   0.00

avg-cpu:  %user   %nice %system %iowait  %steal   %idle
          25.13    0.00    1.27    0.76    0.00   72.84

Device:         rrqm/s   wrqm/s     r/s     w/s    rkB/s    wkB/s avgrq-sz avgqu-sz   await r_await w_await  svctm  %util
sda               0.00     0.00 1555.00    0.00  6220.00     0.00     8.00     0.15    0.10    0.10    0.00   0.10  15.40
sdb               0.00     0.00 1511.00    0.00  6044.00     0.00     8.00     0.15    0.10    0.10    0.00   0.10  14.90
sdc               0.00     0.00 1508.00    0.00  6032.00     0.00     8.00     0.14    0.09    0.09    0.00   0.09  14.10
sdd               0.00     0.00 1712.00    0.00  6848.00     0.00     8.00     0.19    0.11    0.11    0.00   0.11  18.60
sde               0.00     0.00 1628.00    0.00  6512.00     0.00     8.00     0.16    0.10    0.10    0.00   0.10  15.60
sdf               0.00     0.00 1625.00    0.00  6500.00     0.00     8.00     0.16    0.10    0.10    0.00   0.10  16.10
sdg               0.00     0.00    0.00    0.00     0.00     0.00     0.00     0.00    0.00    0.00    0.00   0.00   0.00
sdh               0.00     0.00    0.00    0.00     0.00     0.00     0.00     0.00    0.00    0.00    0.00   0.00   0.00
md0               0.00     0.00 9540.00    0.00 38160.00     0.00     8.00     0.00    0.00    0.00    0.00   0.00   0.00

avg-cpu:  %user   %nice %system %iowait  %steal   %idle
          25.06    0.00    1.52    1.01    0.00   72.41

Device:         rrqm/s   wrqm/s     r/s     w/s    rkB/s    wkB/s avgrq-sz avgqu-sz   await r_await w_await  svctm  %util
sda               0.00     0.00 1456.00    0.00  5824.00     0.00     8.00     0.14    0.09    0.09    0.00   0.09  13.60
sdb               0.00     0.00 1641.00    0.00  6564.00     0.00     8.00     0.16    0.10    0.10    0.00   0.10  16.00
sdc               0.00     0.00 1602.00    0.00  6408.00     0.00     8.00     0.16    0.10    0.10    0.00   0.10  16.30
sdd               0.00     0.00 1671.00    0.00  6684.00     0.00     8.00     0.17    0.10    0.10    0.00   0.10  16.50
sde               0.00     0.00 1558.00    0.00  6232.00     0.00     8.00     0.16    0.10    0.10    0.00   0.10  16.30
sdf               0.00     0.00 1623.00    0.00  6492.00     0.00     8.00     0.16    0.10    0.10    0.00   0.10  15.70
sdg               0.00     0.00    0.00    0.00     0.00     0.00     0.00     0.00    0.00    0.00    0.00   0.00   0.00
sdh               0.00     0.00    0.00    0.00     0.00     0.00     0.00     0.00    0.00    0.00    0.00   0.00   0.00
md0               0.00     0.00 9551.00    0.00 38204.00     0.00     8.00     0.00    0.00    0.00    0.00   0.00   0.00

avg-cpu:  %user   %nice %system %iowait  %steal   %idle
          24.75    0.00    2.27   16.67    0.00   56.31

Device:         rrqm/s   wrqm/s     r/s     w/s    rkB/s    wkB/s avgrq-sz avgqu-sz   await r_await w_await  svctm  %util
sda               0.00     0.00 1671.00    0.00  6684.00     0.00     8.00     0.14    0.09    0.09    0.00   0.09  14.50
sdb               0.00     0.00 1531.00    0.00  6124.00     0.00     8.00     0.15    0.10    0.10    0.00   0.10  15.10
sdc               0.00     0.00 1616.00    0.00  6464.00     0.00     8.00     0.16    0.10    0.10    0.00   0.10  15.60
sdd               0.00     0.00 1597.00    0.00  6388.00     0.00     8.00     0.17    0.11    0.11    0.00   0.11  17.50
sde               0.00     0.00 1504.00    0.00  6016.00     0.00     8.00     0.16    0.10    0.10    0.00   0.10  15.60
sdf               0.00     0.00 1566.00    0.00  6264.00     0.00     8.00     0.16    0.10    0.10    0.00   0.10  15.90
sdg               0.00     2.00    8.00  123.00    32.00   624.00    10.02     0.33    2.54    0.88    2.65   0.05   0.70
sdh               0.00     0.00    0.00    0.00     0.00     0.00     0.00     0.00    0.00    0.00    0.00   0.00   0.00
md0               0.00     0.00 9485.00    0.00 37940.00     0.00     8.00     0.00    0.00    0.00    0.00   0.00   0.00

