Linux 4.17.2 (bench) 	08/04/2018 	_x86_64_	(4 CPU)

avg-cpu:  %user   %nice %system %iowait  %steal   %idle
          10.25    0.02    4.32    2.83    0.00   82.59

Device:         rrqm/s   wrqm/s     r/s     w/s    rkB/s    wkB/s avgrq-sz avgqu-sz   await r_await w_await  svctm  %util
sda              57.73     4.13 1758.50   99.77 21431.65  3052.78    26.35     1.05    0.56    0.26    5.92   0.06  11.17
sdb              57.52     4.09 1758.53   99.90 21421.31  3049.53    26.33     1.05    0.56    0.26    5.85   0.06  11.04
sdc              94.90     4.15 1719.06   99.46 21413.65  3051.93    26.91     1.47    0.81    0.44    7.12   0.08  14.54
sdd              88.53     4.12 1724.62   99.53 21398.82  3048.22    26.80     1.48    0.81    0.43    7.33   0.08  14.63
sde              90.48     4.16 1729.61   99.62 21457.17  3052.36    26.80     1.50    0.82    0.44    7.44   0.08  14.65
sdf              87.67     4.13 1731.68   99.57 21438.93  3049.31    26.74     1.54    0.84    0.43    7.90   0.08  14.69
sdg               0.00     3.15   27.15   73.12   326.87   391.57    14.33     0.44    4.38    0.20    5.93   0.08   0.79
sdh               0.00     0.12    0.02    0.23     2.15     4.93    56.82     0.00    1.15    0.65    1.19   0.21   0.01
md0               0.00     0.00 10906.62  467.44 146848.29 20895.74    29.50     0.00    0.00    0.00    0.00   0.00   0.00

avg-cpu:  %user   %nice %system %iowait  %steal   %idle
          23.19    0.01    5.12    1.42    0.00   70.26

Device:         rrqm/s   wrqm/s     r/s     w/s    rkB/s    wkB/s avgrq-sz avgqu-sz   await r_await w_await  svctm  %util
sda               0.00     0.00 1554.20    0.00  6216.80     0.00     8.00     0.15    0.10    0.10    0.00   0.10  15.09
sdb               0.00     0.00 1512.50    0.00  6050.00     0.00     8.00     0.14    0.10    0.10    0.00   0.09  14.36
sdc               0.00     0.00 1522.20    0.00  6088.80     0.00     8.00     0.16    0.10    0.10    0.00   0.10  15.54
sdd               0.00     0.00 1534.35    0.00  6137.40     0.00     8.00     0.16    0.10    0.10    0.00   0.10  15.83
sde               0.00     0.00 1511.90    0.00  6047.60     0.00     8.00     0.16    0.10    0.10    0.00   0.10  15.53
sdf               0.00     0.00 1518.45    0.00  6073.80     0.00     8.00     0.16    0.10    0.10    0.00   0.10  15.75
sdg               0.00     0.05   76.15    1.25   327.60    13.80     8.82     0.01    0.14    0.12    1.12   0.12   0.93
sdh               0.00     0.00    0.00    0.00     0.00     0.00     0.00     0.00    0.00    0.00    0.00   0.00   0.00
md0               0.00     0.00 9153.60    0.00 36614.40     0.00     8.00     0.00    0.00    0.00    0.00   0.00   0.00

