Linux 4.17.2 (bench) 	08/04/2018 	_x86_64_	(4 CPU)

avg-cpu:  %user   %nice %system %iowait  %steal   %idle
          10.25    0.02    4.26    2.81    0.00   82.66

Device:         rrqm/s   wrqm/s     r/s     w/s    rkB/s    wkB/s avgrq-sz avgqu-sz   await r_await w_await  svctm  %util
sda              57.10     4.15 1754.58  100.21 21454.56  3066.38    26.44     1.05    0.57    0.26    5.92   0.06  11.15
sdb              56.89     4.11 1754.60  100.34 21444.17  3063.12    26.42     1.05    0.57    0.26    5.85   0.06  11.03
sdc              94.43     4.17 1714.98   99.91 21436.49  3065.53    27.00     1.47    0.81    0.44    7.12   0.08  14.53
sdd              88.03     4.14 1720.56   99.97 21421.61  3061.81    26.90     1.48    0.81    0.43    7.33   0.08  14.63
sde              89.99     4.18 1725.58  100.07 21480.32  3065.96    26.89     1.50    0.82    0.44    7.44   0.08  14.65
sdf              87.18     4.15 1727.67  100.01 21462.01  3062.90    26.84     1.54    0.84    0.43    7.90   0.08  14.68
sdg               0.00     3.16   27.07   73.17   326.77   391.76    14.34     0.44    4.38    0.20    5.93   0.08   0.79
sdh               0.00     0.13    0.02    0.23     2.16     4.95    56.82     0.00    1.15    0.65    1.19   0.21   0.01
md0               0.00     0.00 10879.32  469.52 147030.47 20988.87    29.61     0.00    0.00    0.00    0.00   0.00   0.00

avg-cpu:  %user   %nice %system %iowait  %steal   %idle
          24.68    0.00    2.29    1.27    0.00   71.76

Device:         rrqm/s   wrqm/s     r/s     w/s    rkB/s    wkB/s avgrq-sz avgqu-sz   await r_await w_await  svctm  %util
sda               0.00     0.00 2364.00    0.00  9456.00     0.00     8.00     0.16    0.07    0.07    0.00   0.07  15.90
sdb               0.00     0.00 1982.00    0.00  7928.00     0.00     8.00     0.14    0.07    0.07    0.00   0.07  13.50
sdc               0.00     0.00 2383.00    0.00  9532.00     0.00     8.00     0.17    0.07    0.07    0.00   0.07  16.50
sdd               0.00     0.00 2301.00    0.00  9204.00     0.00     8.00     0.14    0.06    0.06    0.00   0.06  14.50
sde               0.00     0.00 2324.00    0.00  9296.00     0.00     8.00     0.15    0.06    0.06    0.00   0.06  14.90
sdf               0.00     0.00 2199.00    0.00  8796.00     0.00     8.00     0.15    0.07    0.07    0.00   0.07  15.40
sdg               0.00     4.00    4.00   63.00    76.00  1224.00    38.81     0.17    2.94    2.50    2.97   0.13   0.90
sdh               0.00     0.00    0.00    0.00     0.00     0.00     0.00     0.00    0.00    0.00    0.00   0.00   0.00
md0               0.00     0.00 13555.00    0.00 54220.00     0.00     8.00     0.00    0.00    0.00    0.00   0.00   0.00

avg-cpu:  %user   %nice %system %iowait  %steal   %idle
          25.00    0.26    2.30    1.02    0.00   71.43

Device:         rrqm/s   wrqm/s     r/s     w/s    rkB/s    wkB/s avgrq-sz avgqu-sz   await r_await w_await  svctm  %util
sda               0.00     0.00 2131.00    0.00  8524.00     0.00     8.00     0.15    0.07    0.07    0.00   0.07  15.10
sdb               0.00     0.00 2152.00    0.00  8608.00     0.00     8.00     0.14    0.07    0.07    0.00   0.07  14.10
sdc               0.00     0.00 2368.00    0.00  9472.00     0.00     8.00     0.16    0.07    0.07    0.00   0.07  16.20
sdd               0.00     0.00 2252.00    0.00  9008.00     0.00     8.00     0.16    0.07    0.07    0.00   0.07  16.40
sde               0.00     0.00 2043.00    0.00  8172.00     0.00     8.00     0.14    0.07    0.07    0.00   0.07  14.10
sdf               0.00     0.00 2149.00    0.00  8596.00     0.00     8.00     0.15    0.07    0.07    0.00   0.07  15.40
sdg               0.00     0.00   17.00    0.00   116.00     0.00    13.65     0.00    0.18    0.18    0.00   0.18   0.30
sdh               0.00     0.00    0.00    0.00     0.00     0.00     0.00     0.00    0.00    0.00    0.00   0.00   0.00
md0               0.00     0.00 13095.00    0.00 52380.00     0.00     8.00     0.00    0.00    0.00    0.00   0.00   0.00

avg-cpu:  %user   %nice %system %iowait  %steal   %idle
          25.06    0.00    2.78    2.78    0.00   69.37

Device:         rrqm/s   wrqm/s     r/s     w/s    rkB/s    wkB/s avgrq-sz avgqu-sz   await r_await w_await  svctm  %util
sda               0.00     0.00 2190.00    0.00  8760.00     0.00     8.00     0.15    0.07    0.07    0.00   0.07  14.80
sdb               0.00     0.00 2248.00    0.00  8992.00     0.00     8.00     0.16    0.07    0.07    0.00   0.07  16.10
sdc               0.00     0.00 2305.00    0.00  9220.00     0.00     8.00     0.16    0.07    0.07    0.00   0.07  16.30
sdd               0.00     0.00 2066.00    0.00  8264.00     0.00     8.00     0.15    0.07    0.07    0.00   0.07  14.80
sde               0.00     0.00 2202.00    0.00  8808.00     0.00     8.00     0.15    0.07    0.07    0.00   0.07  15.00
sdf               0.00     0.00 2252.00    0.00  9008.00     0.00     8.00     0.15    0.07    0.07    0.00   0.07  14.70
sdg               0.00    69.00    0.00 1424.00     0.00  7328.00    10.29     8.26    5.80    0.00    5.80   0.04   6.10
sdh               0.00     0.00    0.00    0.00     0.00     0.00     0.00     0.00    0.00    0.00    0.00   0.00   0.00
md0               0.00     0.00 13262.00    0.00 53048.00     0.00     8.00     0.00    0.00    0.00    0.00   0.00   0.00

avg-cpu:  %user   %nice %system %iowait  %steal   %idle
          24.81    0.00    2.78   10.38    0.00   62.03

Device:         rrqm/s   wrqm/s     r/s     w/s    rkB/s    wkB/s avgrq-sz avgqu-sz   await r_await w_await  svctm  %util
sda               0.00     0.00 2237.00    0.00  8948.00     0.00     8.00     0.16    0.07    0.07    0.00   0.07  16.20
sdb               0.00     0.00 2093.00    0.00  8372.00     0.00     8.00     0.14    0.07    0.07    0.00   0.07  14.40
sdc               0.00     0.00 2181.00    0.00  8724.00     0.00     8.00     0.14    0.07    0.07    0.00   0.07  14.40
sdd               0.00     0.00 2287.00    0.00  9148.00     0.00     8.00     0.16    0.07    0.07    0.00   0.07  16.30
sde               0.00     0.00 2261.00    0.00  9044.00     0.00     8.00     0.15    0.07    0.07    0.00   0.07  15.40
sdf               0.00     0.00 2182.00    0.00  8728.00     0.00     8.00     0.15    0.07    0.07    0.00   0.07  15.10
sdg               0.00     0.00    0.00    0.00     0.00     0.00     0.00     0.00    0.00    0.00    0.00   0.00   0.00
sdh               0.00     0.00    0.00    0.00     0.00     0.00     0.00     0.00    0.00    0.00    0.00   0.00   0.00
md0               0.00     0.00 13241.00    0.00 52964.00     0.00     8.00     0.00    0.00    0.00    0.00   0.00   0.00

avg-cpu:  %user   %nice %system %iowait  %steal   %idle
          25.00    0.00    2.04    0.77    0.00   72.19

Device:         rrqm/s   wrqm/s     r/s     w/s    rkB/s    wkB/s avgrq-sz avgqu-sz   await r_await w_await  svctm  %util
sda               0.00     0.00 2128.00    0.00  8512.00     0.00     8.00     0.16    0.07    0.07    0.00   0.07  15.60
sdb               0.00     0.00 2303.00    0.00  9212.00     0.00     8.00     0.14    0.06    0.06    0.00   0.06  14.40
sdc               0.00     0.00 2262.00    0.00  9048.00     0.00     8.00     0.16    0.07    0.07    0.00   0.07  16.20
sdd               0.00     0.00 2157.00    0.00  8628.00     0.00     8.00     0.16    0.08    0.08    0.00   0.08  16.20
sde               0.00     0.00 2188.00    0.00  8752.00     0.00     8.00     0.16    0.07    0.07    0.00   0.07  15.60
sdf               0.00     0.00 2223.00    0.00  8892.00     0.00     8.00     0.15    0.07    0.07    0.00   0.07  14.70
sdg               0.00     0.00    0.00    0.00     0.00     0.00     0.00     0.00    0.00    0.00    0.00   0.00   0.00
sdh               0.00     0.00    0.00    0.00     0.00     0.00     0.00     0.00    0.00    0.00    0.00   0.00   0.00
md0               0.00     0.00 13262.00    0.00 53048.00     0.00     8.00     0.00    0.00    0.00    0.00   0.00   0.00

avg-cpu:  %user   %nice %system %iowait  %steal   %idle
          24.87    0.00    2.28    1.02    0.00   71.83

Device:         rrqm/s   wrqm/s     r/s     w/s    rkB/s    wkB/s avgrq-sz avgqu-sz   await r_await w_await  svctm  %util
sda               0.00     0.00 2190.00    0.00  8760.00     0.00     8.00     0.14    0.06    0.06    0.00   0.06  14.20
sdb               0.00     0.00 2179.00    0.00  8716.00     0.00     8.00     0.15    0.07    0.07    0.00   0.07  15.20
sdc               0.00     0.00 2234.00    0.00  8936.00     0.00     8.00     0.16    0.07    0.07    0.00   0.07  15.90
sdd               0.00     0.00 2102.00    0.00  8408.00     0.00     8.00     0.15    0.07    0.07    0.00   0.07  15.10
sde               0.00     0.00 2227.00    0.00  8908.00     0.00     8.00     0.16    0.07    0.07    0.00   0.07  16.10
sdf               0.00     0.00 2135.00    0.00  8540.00     0.00     8.00     0.16    0.07    0.07    0.00   0.07  15.80
sdg               0.00     0.00    0.00    0.00     0.00     0.00     0.00     0.00    0.00    0.00    0.00   0.00   0.00
sdh               0.00     0.00    0.00    0.00     0.00     0.00     0.00     0.00    0.00    0.00    0.00   0.00   0.00
md0               0.00     0.00 13066.00    0.00 52264.00     0.00     8.00     0.00    0.00    0.00    0.00   0.00   0.00

avg-cpu:  %user   %nice %system %iowait  %steal   %idle
          24.74    0.00    2.30    1.02    0.00   71.94

Device:         rrqm/s   wrqm/s     r/s     w/s    rkB/s    wkB/s avgrq-sz avgqu-sz   await r_await w_await  svctm  %util
sda               0.00     0.00 2233.00    0.00  8932.00     0.00     8.00     0.16    0.07    0.07    0.00   0.07  15.90
sdb               0.00     0.00 2059.00    0.00  8236.00     0.00     8.00     0.13    0.06    0.06    0.00   0.06  13.10
sdc               0.00     0.00 2217.00    0.00  8868.00     0.00     8.00     0.16    0.07    0.07    0.00   0.07  15.70
sdd               0.00     0.00 2381.00    0.00  9524.00     0.00     8.00     0.16    0.07    0.07    0.00   0.07  15.90
sde               0.00     0.00 2099.00    0.00  8396.00     0.00     8.00     0.15    0.07    0.07    0.00   0.07  15.20
sdf               0.00     0.00 2298.00    0.00  9192.00     0.00     8.00     0.16    0.07    0.07    0.00   0.07  15.90
sdg               0.00     0.00    0.00    0.00     0.00     0.00     0.00     0.00    0.00    0.00    0.00   0.00   0.00
sdh               0.00     0.00    0.00    0.00     0.00     0.00     0.00     0.00    0.00    0.00    0.00   0.00   0.00
md0               0.00     0.00 13291.00    0.00 53164.00     0.00     8.00     0.00    0.00    0.00    0.00   0.00   0.00

avg-cpu:  %user   %nice %system %iowait  %steal   %idle
          24.94    0.00    2.29    1.02    0.00   71.76

Device:         rrqm/s   wrqm/s     r/s     w/s    rkB/s    wkB/s avgrq-sz avgqu-sz   await r_await w_await  svctm  %util
sda               0.00     0.00 2310.00    0.00  9240.00     0.00     8.00     0.15    0.07    0.07    0.00   0.07  15.30
sdb               0.00     0.00 2151.00    0.00  8604.00     0.00     8.00     0.15    0.07    0.07    0.00   0.07  15.10
sdc               0.00     0.00 2345.00    0.00  9380.00     0.00     8.00     0.16    0.07    0.07    0.00   0.07  16.10
sdd               0.00     0.00 2061.00    0.00  8244.00     0.00     8.00     0.15    0.07    0.07    0.00   0.07  14.70
sde               0.00     0.00 2313.00    0.00  9252.00     0.00     8.00     0.15    0.07    0.07    0.00   0.07  15.50
sdf               0.00     0.00 2207.00    0.00  8828.00     0.00     8.00     0.15    0.07    0.07    0.00   0.07  15.00
sdg               0.00     0.00    0.00    0.00     0.00     0.00     0.00     0.00    0.00    0.00    0.00   0.00   0.00
sdh               0.00     0.00    0.00    0.00     0.00     0.00     0.00     0.00    0.00    0.00    0.00   0.00   0.00
md0               0.00     0.00 13384.00    0.00 53536.00     0.00     8.00     0.00    0.00    0.00    0.00   0.00   0.00

avg-cpu:  %user   %nice %system %iowait  %steal   %idle
          25.00    0.00    2.04    0.77    0.00   72.19

Device:         rrqm/s   wrqm/s     r/s     w/s    rkB/s    wkB/s avgrq-sz avgqu-sz   await r_await w_await  svctm  %util
sda               0.00     0.00 2307.00    0.00  9228.00     0.00     8.00     0.15    0.07    0.07    0.00   0.07  15.40
sdb               0.00     0.00 2291.00    0.00  9164.00     0.00     8.00     0.15    0.07    0.07    0.00   0.07  15.30
sdc               0.00     0.00 2197.00    0.00  8788.00     0.00     8.00     0.15    0.07    0.07    0.00   0.07  15.40
sdd               0.00     0.00 2234.00    0.00  8936.00     0.00     8.00     0.16    0.07    0.07    0.00   0.07  15.70
sde               0.00     0.00 2219.00    0.00  8876.00     0.00     8.00     0.16    0.07    0.07    0.00   0.07  15.90
sdf               0.00     0.00 2106.00    0.00  8424.00     0.00     8.00     0.14    0.07    0.07    0.00   0.07  14.40
sdg               0.00     0.00    0.00    0.00     0.00     0.00     0.00     0.00    0.00    0.00    0.00   0.00   0.00
sdh               0.00     0.00    0.00    0.00     0.00     0.00     0.00     0.00    0.00    0.00    0.00   0.00   0.00
md0               0.00     0.00 13354.00    0.00 53416.00     0.00     8.00     0.00    0.00    0.00    0.00   0.00   0.00

avg-cpu:  %user   %nice %system %iowait  %steal   %idle
          25.26    0.00    1.79    1.02    0.00   71.94

Device:         rrqm/s   wrqm/s     r/s     w/s    rkB/s    wkB/s avgrq-sz avgqu-sz   await r_await w_await  svctm  %util
sda               0.00     0.00 2105.00    0.00  8420.00     0.00     8.00     0.15    0.07    0.07    0.00   0.07  14.90
sdb               0.00     0.00 2130.00    0.00  8520.00     0.00     8.00     0.15    0.07    0.07    0.00   0.07  15.50
sdc               0.00     0.00 2153.00    0.00  8612.00     0.00     8.00     0.15    0.07    0.07    0.00   0.07  15.40
sdd               0.00     0.00 2198.00    0.00  8792.00     0.00     8.00     0.15    0.07    0.07    0.00   0.07  15.50
sde               0.00     0.00 2327.00    0.00  9308.00     0.00     8.00     0.17    0.07    0.07    0.00   0.07  16.70
sdf               0.00     0.00 2284.00    0.00  9136.00     0.00     8.00     0.15    0.07    0.07    0.00   0.07  15.40
sdg               0.00     0.00    0.00    0.00     0.00     0.00     0.00     0.00    0.00    0.00    0.00   0.00   0.00
sdh               0.00     0.00    0.00    0.00     0.00     0.00     0.00     0.00    0.00    0.00    0.00   0.00   0.00
md0               0.00     0.00 13199.00    0.00 52796.00     0.00     8.00     0.00    0.00    0.00    0.00   0.00   0.00

avg-cpu:  %user   %nice %system %iowait  %steal   %idle
          25.06    0.00    2.53    0.76    0.00   71.65

Device:         rrqm/s   wrqm/s     r/s     w/s    rkB/s    wkB/s avgrq-sz avgqu-sz   await r_await w_await  svctm  %util
sda               0.00     0.00 2188.00    0.00  8752.00     0.00     8.00     0.15    0.07    0.07    0.00   0.07  14.70
sdb               0.00     0.00 2103.00    0.00  8412.00     0.00     8.00     0.14    0.07    0.07    0.00   0.07  13.80
sdc               0.00     0.00 2172.00    0.00  8688.00     0.00     8.00     0.16    0.07    0.07    0.00   0.07  15.80
sdd               0.00     0.00 2324.00    0.00  9296.00     0.00     8.00     0.15    0.06    0.06    0.00   0.06  14.90
sde               0.00     0.00 2413.00    0.00  9652.00     0.00     8.00     0.16    0.07    0.07    0.00   0.07  16.10
sdf               0.00     0.00 2307.00    0.00  9228.00     0.00     8.00     0.15    0.07    0.07    0.00   0.07  15.50
sdg               0.00     0.00    0.00    0.00     0.00     0.00     0.00     0.00    0.00    0.00    0.00   0.00   0.00
sdh               0.00     0.00    0.00    0.00     0.00     0.00     0.00     0.00    0.00    0.00    0.00   0.00   0.00
md0               0.00     0.00 13507.00    0.00 54028.00     0.00     8.00     0.00    0.00    0.00    0.00   0.00   0.00

avg-cpu:  %user   %nice %system %iowait  %steal   %idle
          24.56    0.25    3.04    1.01    0.00   71.14

Device:         rrqm/s   wrqm/s     r/s     w/s    rkB/s    wkB/s avgrq-sz avgqu-sz   await r_await w_await  svctm  %util
sda               0.00     0.00 2194.00    0.00  8776.00     0.00     8.00     0.14    0.07    0.07    0.00   0.07  14.30
sdb               0.00     0.00 2167.00    0.00  8668.00     0.00     8.00     0.14    0.07    0.07    0.00   0.07  14.50
sdc               0.00     0.00 1949.00    0.00  7796.00     0.00     8.00     0.14    0.07    0.07    0.00   0.07  14.50
sdd               0.00     0.00 2234.00    0.00  8936.00     0.00     8.00     0.16    0.07    0.07    0.00   0.07  15.70
sde               0.00     0.00 2170.00    0.00  8680.00     0.00     8.00     0.15    0.07    0.07    0.00   0.07  14.90
sdf               0.00     0.00 2342.00    0.00  9368.00     0.00     8.00     0.17    0.07    0.07    0.00   0.07  17.20
sdg               0.00     0.00    4.00    0.00    16.00     0.00     8.00     0.00    0.25    0.25    0.00   0.25   0.10
sdh               0.00     0.00    0.00    0.00     0.00     0.00     0.00     0.00    0.00    0.00    0.00   0.00   0.00
md0               0.00     0.00 13055.00    0.00 52220.00     0.00     8.00     0.00    0.00    0.00    0.00   0.00   0.00

avg-cpu:  %user   %nice %system %iowait  %steal   %idle
          24.69    0.00    3.27   20.15    0.00   51.89

Device:         rrqm/s   wrqm/s     r/s     w/s    rkB/s    wkB/s avgrq-sz avgqu-sz   await r_await w_await  svctm  %util
sda               0.00     0.00 2266.00    0.00  9064.00     0.00     8.00     0.15    0.07    0.07    0.00   0.07  15.50
sdb               0.00     0.00 2241.00    0.00  8964.00     0.00     8.00     0.16    0.07    0.07    0.00   0.07  16.00
sdc               0.00     0.00 2268.00    0.00  9072.00     0.00     8.00     0.16    0.07    0.07    0.00   0.07  15.60
sdd               0.00     0.00 2060.00    0.00  8240.00     0.00     8.00     0.14    0.07    0.07    0.00   0.07  14.50
sde               0.00     0.00 2016.00    0.00  8064.00     0.00     8.00     0.14    0.07    0.07    0.00   0.07  14.30
sdf               0.00     0.00 2333.00    0.00  9332.00     0.00     8.00     0.17    0.07    0.07    0.00   0.07  16.50
sdg               0.00     0.00    8.00   12.00    32.00    80.00    11.20     0.00    0.15    0.12    0.17   0.10   0.20
sdh               0.00     0.00    0.00    0.00     0.00     0.00     0.00     0.00    0.00    0.00    0.00   0.00   0.00
md0               0.00     0.00 13183.00    0.00 52732.00     0.00     8.00     0.00    0.00    0.00    0.00   0.00   0.00

avg-cpu:  %user   %nice %system %iowait  %steal   %idle
          23.62    0.00    3.52    1.01    0.00   71.86

Device:         rrqm/s   wrqm/s     r/s     w/s    rkB/s    wkB/s avgrq-sz avgqu-sz   await r_await w_await  svctm  %util
sda               0.00     0.00 2235.00    0.00  8940.00     0.00     8.00     0.14    0.06    0.06    0.00   0.06  14.20
sdb               0.00     0.00 2233.00    0.00  8932.00     0.00     8.00     0.15    0.07    0.07    0.00   0.07  15.00
sdc               0.00     0.00 2244.00    0.00  8976.00     0.00     8.00     0.16    0.07    0.07    0.00   0.07  16.00
sdd               0.00     0.00 2269.00    0.00  9076.00     0.00     8.00     0.15    0.07    0.07    0.00   0.07  15.30
sde               0.00     0.00 2168.00    0.00  8672.00     0.00     8.00     0.15    0.07    0.07    0.00   0.07  14.90
sdf               0.00     0.00 2320.00    0.00  9280.00     0.00     8.00     0.16    0.07    0.07    0.00   0.07  16.00
sdg               0.00     1.00    0.00   19.00     0.00   236.00    24.84     0.01    0.32    0.00    0.32   0.05   0.10
sdh               0.00     0.00    0.00    0.00     0.00     0.00     0.00     0.00    0.00    0.00    0.00   0.00   0.00
md0               0.00     0.00 13468.00    0.00 53872.00     0.00     8.00     0.00    0.00    0.00    0.00   0.00   0.00

avg-cpu:  %user   %nice %system %iowait  %steal   %idle
          23.56    0.00    3.51    1.00    0.00   71.93

Device:         rrqm/s   wrqm/s     r/s     w/s    rkB/s    wkB/s avgrq-sz avgqu-sz   await r_await w_await  svctm  %util
sda               0.00     0.00 2256.00    0.00  9024.00     0.00     8.00     0.16    0.07    0.07    0.00   0.07  16.10
sdb               0.00     0.00 2069.00    0.00  8276.00     0.00     8.00     0.15    0.07    0.07    0.00   0.07  14.80
sdc               0.00     0.00 2229.00    0.00  8916.00     0.00     8.00     0.16    0.07    0.07    0.00   0.07  15.60
sdd               0.00     0.00 2212.00    0.00  8848.00     0.00     8.00     0.16    0.07    0.07    0.00   0.07  15.90
sde               0.00     0.00 2188.00    0.00  8752.00     0.00     8.00     0.15    0.07    0.07    0.00   0.07  15.00
sdf               0.00     0.00 2069.00    0.00  8276.00     0.00     8.00     0.14    0.07    0.07    0.00   0.07  14.50
sdg               0.00     0.00    0.00    0.00     0.00     0.00     0.00     0.00    0.00    0.00    0.00   0.00   0.00
sdh               0.00     0.00    0.00    0.00     0.00     0.00     0.00     0.00    0.00    0.00    0.00   0.00   0.00
md0               0.00     0.00 13023.00    0.00 52092.00     0.00     8.00     0.00    0.00    0.00    0.00   0.00   0.00

avg-cpu:  %user   %nice %system %iowait  %steal   %idle
          23.06    0.00    3.76    1.25    0.00   71.93

Device:         rrqm/s   wrqm/s     r/s     w/s    rkB/s    wkB/s avgrq-sz avgqu-sz   await r_await w_await  svctm  %util
sda               0.00     0.00 2304.00    0.00  9216.00     0.00     8.00     0.15    0.07    0.07    0.00   0.07  15.50
sdb               0.00     0.00 2197.00    0.00  8788.00     0.00     8.00     0.15    0.07    0.07    0.00   0.07  15.10
sdc               0.00     0.00 2232.00    0.00  8928.00     0.00     8.00     0.15    0.07    0.07    0.00   0.07  14.90
sdd               0.00     0.00 2335.00    0.00  9340.00     0.00     8.00     0.18    0.08    0.08    0.00   0.08  17.60
sde               0.00     0.00 2120.00    0.00  8480.00     0.00     8.00     0.15    0.07    0.07    0.00   0.07  15.00
sdf               0.00     0.00 2083.00    0.00  8332.00     0.00     8.00     0.14    0.07    0.07    0.00   0.07  14.00
sdg               0.00     0.00    0.00    0.00     0.00     0.00     0.00     0.00    0.00    0.00    0.00   0.00   0.00
sdh               0.00     0.00    0.00    0.00     0.00     0.00     0.00     0.00    0.00    0.00    0.00   0.00   0.00
md0               0.00     0.00 13272.00    0.00 53088.00     0.00     8.00     0.00    0.00    0.00    0.00   0.00   0.00

avg-cpu:  %user   %nice %system %iowait  %steal   %idle
          23.06    0.00    4.01    0.75    0.00   72.18

Device:         rrqm/s   wrqm/s     r/s     w/s    rkB/s    wkB/s avgrq-sz avgqu-sz   await r_await w_await  svctm  %util
sda               0.00     0.00 2211.00    0.00  8844.00     0.00     8.00     0.15    0.07    0.07    0.00   0.07  15.40
sdb               0.00     0.00 2261.00    0.00  9044.00     0.00     8.00     0.14    0.06    0.06    0.00   0.06  13.90
sdc               0.00     0.00 2295.00    0.00  9180.00     0.00     8.00     0.17    0.07    0.07    0.00   0.07  16.60
sdd               0.00     0.00 2329.00    0.00  9316.00     0.00     8.00     0.16    0.07    0.07    0.00   0.07  15.60
sde               0.00     0.00 2151.00    0.00  8604.00     0.00     8.00     0.15    0.07    0.07    0.00   0.07  15.10
sdf               0.00     0.00 2094.00    0.00  8376.00     0.00     8.00     0.15    0.07    0.07    0.00   0.07  14.90
sdg               0.00     0.00    0.00    0.00     0.00     0.00     0.00     0.00    0.00    0.00    0.00   0.00   0.00
sdh               0.00     0.00    0.00    0.00     0.00     0.00     0.00     0.00    0.00    0.00    0.00   0.00   0.00
md0               0.00     0.00 13342.00    0.00 53368.00     0.00     8.00     0.00    0.00    0.00    0.00   0.00   0.00

avg-cpu:  %user   %nice %system %iowait  %steal   %idle
          23.37    0.00    3.27    1.26    0.00   72.11

Device:         rrqm/s   wrqm/s     r/s     w/s    rkB/s    wkB/s avgrq-sz avgqu-sz   await r_await w_await  svctm  %util
sda               0.00     0.00 2294.00    0.00  9176.00     0.00     8.00     0.15    0.07    0.07    0.00   0.07  15.30
sdb               0.00     0.00 2121.00    0.00  8484.00     0.00     8.00     0.14    0.07    0.07    0.00   0.07  13.90
sdc               0.00     0.00 2028.00    0.00  8112.00     0.00     8.00     0.14    0.07    0.07    0.00   0.07  14.50
sdd               0.00     0.00 2291.00    0.00  9164.00     0.00     8.00     0.15    0.07    0.07    0.00   0.07  15.00
sde               0.00     0.00 2300.00    0.00  9200.00     0.00     8.00     0.17    0.07    0.07    0.00   0.07  17.00
sdf               0.00     0.00 2253.00    0.00  9012.00     0.00     8.00     0.16    0.07    0.07    0.00   0.07  15.70
sdg               0.00     0.00    0.00    0.00     0.00     0.00     0.00     0.00    0.00    0.00    0.00   0.00   0.00
sdh               0.00     0.00    0.00    0.00     0.00     0.00     0.00     0.00    0.00    0.00    0.00   0.00   0.00
md0               0.00     0.00 13285.00    0.00 53140.00     0.00     8.00     0.00    0.00    0.00    0.00   0.00   0.00

avg-cpu:  %user   %nice %system %iowait  %steal   %idle
          23.37    0.00    3.52    1.01    0.00   72.11

Device:         rrqm/s   wrqm/s     r/s     w/s    rkB/s    wkB/s avgrq-sz avgqu-sz   await r_await w_await  svctm  %util
sda               0.00     0.00 2237.00    0.00  8948.00     0.00     8.00     0.16    0.07    0.07    0.00   0.07  16.30
sdb               0.00     0.00 2262.00    0.00  9048.00     0.00     8.00     0.15    0.07    0.07    0.00   0.07  15.30
sdc               0.00     0.00 2365.00    0.00  9460.00     0.00     8.00     0.15    0.06    0.06    0.00   0.06  14.90
sdd               0.00     0.00 2104.00    0.00  8416.00     0.00     8.00     0.16    0.07    0.07    0.00   0.07  15.70
sde               0.00     0.00 2130.00    0.00  8520.00     0.00     8.00     0.14    0.07    0.07    0.00   0.07  14.20
sdf               0.00     0.00 2232.00    0.00  8928.00     0.00     8.00     0.16    0.07    0.07    0.00   0.07  16.30
sdg               0.00     0.00    0.00    0.00     0.00     0.00     0.00     0.00    0.00    0.00    0.00   0.00   0.00
sdh               0.00     0.00    0.00    0.00     0.00     0.00     0.00     0.00    0.00    0.00    0.00   0.00   0.00
md0               0.00     0.00 13330.00    0.00 53320.00     0.00     8.00     0.00    0.00    0.00    0.00   0.00   0.00

avg-cpu:  %user   %nice %system %iowait  %steal   %idle
          23.62    0.00    3.27    1.01    0.00   72.11

Device:         rrqm/s   wrqm/s     r/s     w/s    rkB/s    wkB/s avgrq-sz avgqu-sz   await r_await w_await  svctm  %util
sda               0.00     0.00 2144.00    0.00  8576.00     0.00     8.00     0.15    0.07    0.07    0.00   0.07  15.50
sdb               0.00     0.00 2170.00    0.00  8680.00     0.00     8.00     0.14    0.07    0.07    0.00   0.07  14.30
sdc               0.00     0.00 1915.00    0.00  7660.00     0.00     8.00     0.14    0.08    0.08    0.00   0.08  14.50
sdd               0.00     0.00 2259.00    0.00  9036.00     0.00     8.00     0.17    0.07    0.07    0.00   0.07  16.50
sde               0.00     0.00 2383.00    0.00  9532.00     0.00     8.00     0.16    0.07    0.07    0.00   0.07  16.40
sdf               0.00     0.00 2161.00    0.00  8644.00     0.00     8.00     0.15    0.07    0.07    0.00   0.07  15.40
sdg               0.00     0.00    0.00    0.00     0.00     0.00     0.00     0.00    0.00    0.00    0.00   0.00   0.00
sdh               0.00     0.00    0.00    0.00     0.00     0.00     0.00     0.00    0.00    0.00    0.00   0.00   0.00
md0               0.00     0.00 13032.00    0.00 52128.00     0.00     8.00     0.00    0.00    0.00    0.00   0.00   0.00

