Linux 4.17.2 (bench) 	08/04/2018 	_x86_64_	(4 CPU)

avg-cpu:  %user   %nice %system %iowait  %steal   %idle
          10.25    0.02    4.20    2.78    0.00   82.75

Device:         rrqm/s   wrqm/s     r/s     w/s    rkB/s    wkB/s avgrq-sz avgqu-sz   await r_await w_await  svctm  %util
sda              55.97     4.17 1746.18  100.76 21472.66  3083.29    26.59     1.05    0.57    0.26    5.92   0.06  11.12
sdb              55.76     4.13 1746.20  100.90 21462.19  3080.01    26.57     1.05    0.57    0.26    5.85   0.06  11.00
sdc              93.49     4.19 1706.36  100.46 21454.43  3082.43    27.16     1.47    0.82    0.44    7.12   0.08  14.51
sdd              87.05     4.16 1711.98  100.53 21439.52  3078.69    27.05     1.48    0.82    0.43    7.33   0.08  14.60
sde              89.03     4.20 1717.05  100.62 21498.67  3082.87    27.05     1.50    0.83    0.44    7.44   0.08  14.62
sdf              86.20     4.17 1719.15  100.57 21480.23  3079.78    26.99     1.54    0.85    0.44    7.90   0.08  14.66
sdg               0.00     3.16   26.97   73.24   326.65   392.01    14.34     0.44    4.39    0.20    5.93   0.08   0.79
sdh               0.00     0.13    0.02    0.23     2.17     4.98    56.82     0.00    1.15    0.65    1.19   0.21   0.01
md0               0.00     0.00 10822.12  472.11 147203.19 21104.61    29.80     0.00    0.00    0.00    0.00   0.00   0.00

avg-cpu:  %user   %nice %system %iowait  %steal   %idle
          24.20    0.03    2.45    3.58    0.00   69.75

Device:         rrqm/s   wrqm/s     r/s     w/s    rkB/s    wkB/s avgrq-sz avgqu-sz   await r_await w_await  svctm  %util
sda               0.00     0.00 1540.50    0.00  6162.00     0.00     8.00     0.15    0.09    0.09    0.00   0.09  14.56
sdb               0.00     0.00 1537.85    0.00  6151.40     0.00     8.00     0.15    0.10    0.10    0.00   0.10  14.83
sdc               0.00     0.00 1526.85    0.00  6107.40     0.00     8.00     0.16    0.10    0.10    0.00   0.10  15.53
sdd               0.00     0.00 1548.60    0.00  6194.40     0.00     8.00     0.16    0.10    0.10    0.00   0.10  15.82
sde               0.00     0.00 1524.20    0.00  6096.80     0.00     8.00     0.16    0.11    0.11    0.00   0.11  16.33
sdf               0.00     0.00 1545.15    0.00  6180.60     0.00     8.00     0.16    0.10    0.10    0.00   0.10  15.70
sdg               0.00     3.70    3.00   68.60    31.20   361.80    10.98     0.40    5.52    0.35    5.74   0.05   0.35
sdh               0.00     0.00    0.00    0.00     0.00     0.00     0.00     0.00    0.00    0.00    0.00   0.00   0.00
md0               0.00     0.00 9223.20    0.00 36892.80     0.00     8.00     0.00    0.00    0.00    0.00   0.00   0.00

