Linux 4.17.2 (bench) 	08/04/2018 	_x86_64_	(4 CPU)

avg-cpu:  %user   %nice %system %iowait  %steal   %idle
          10.25    0.02    4.32    2.84    0.00   82.57

Device:         rrqm/s   wrqm/s     r/s     w/s    rkB/s    wkB/s avgrq-sz avgqu-sz   await r_await w_await  svctm  %util
sda              57.94     4.13 1761.52   99.70 21434.77  3050.67    26.31     1.05    0.56    0.26    5.92   0.06  11.18
sdb              57.73     4.09 1761.55   99.83 21424.43  3047.42    26.29     1.05    0.56    0.26    5.85   0.06  11.06
sdc              95.08     4.15 1722.11   99.39 21416.79  3049.82    26.86     1.47    0.81    0.44    7.12   0.08  14.55
sdd              88.72     4.12 1727.66   99.46 21401.94  3046.12    26.76     1.47    0.81    0.43    7.33   0.08  14.64
sde              90.66     4.16 1732.64   99.56 21460.27  3050.25    26.76     1.50    0.82    0.44    7.44   0.08  14.66
sdf              87.86     4.13 1734.72   99.50 21442.01  3047.20    26.70     1.54    0.84    0.43    7.90   0.08  14.70
sdg               0.00     3.15   27.17   73.11   326.90   391.55    14.33     0.44    4.38    0.20    5.93   0.08   0.79
sdh               0.00     0.12    0.02    0.23     2.15     4.92    56.82     0.00    1.15    0.65    1.19   0.21   0.01
md0               0.00     0.00 10925.98  467.11 146854.31 20881.29    29.45     0.00    0.00    0.00    0.00   0.00   0.00

avg-cpu:  %user   %nice %system %iowait  %steal   %idle
          24.84    0.01    1.83    4.14    0.00   69.17

Device:         rrqm/s   wrqm/s     r/s     w/s    rkB/s    wkB/s avgrq-sz avgqu-sz   await r_await w_await  svctm  %util
sda               0.00     0.00 1576.10    0.00  6304.40     0.00     8.00     0.15    0.10    0.10    0.00   0.10  15.00
sdb               0.00     0.00 1594.30    0.00  6377.20     0.00     8.00     0.15    0.09    0.09    0.00   0.09  15.12
sdc               0.00     0.00 1607.70    0.00  6430.80     0.00     8.00     0.16    0.10    0.10    0.00   0.10  16.23
sdd               0.00     0.00 1583.45    0.00  6333.80     0.00     8.00     0.16    0.10    0.10    0.00   0.10  16.02
sde               0.00     0.00 1566.40    0.00  6265.60     0.00     8.00     0.16    0.10    0.10    0.00   0.10  16.21
sdf               0.00     0.00 1605.20    0.00  6420.80     0.00     8.00     0.16    0.10    0.10    0.00   0.10  16.11
sdg               0.00     3.40    2.10  129.25    14.40   645.00    10.04     0.80    6.09    0.50    6.18   0.05   0.63
sdh               0.00     0.00    0.00    0.00     0.00     0.00     0.00     0.00    0.00    0.00    0.00   0.00   0.00
md0               0.00     0.00 9533.25    0.00 38133.00     0.00     8.00     0.00    0.00    0.00    0.00   0.00   0.00

