Linux 4.17.2 (bench) 	08/04/2018 	_x86_64_	(4 CPU)

avg-cpu:  %user   %nice %system %iowait  %steal   %idle
          10.24    0.02    4.35    2.86    0.00   82.53

Device:         rrqm/s   wrqm/s     r/s     w/s    rkB/s    wkB/s avgrq-sz avgqu-sz   await r_await w_await  svctm  %util
sda              58.75     4.12 1767.12   99.42 21432.61  3042.33    26.22     1.05    0.56    0.26    5.92   0.06  11.20
sdb              58.54     4.08 1767.14   99.56 21422.28  3039.09    26.21     1.05    0.56    0.26    5.85   0.06  11.08
sdc              95.80     4.14 1727.81   99.12 21414.67  3041.48    26.77     1.47    0.80    0.44    7.12   0.08  14.57
sdd              89.45     4.10 1733.34   99.19 21399.88  3037.79    26.67     1.47    0.80    0.43    7.33   0.08  14.66
sde              91.39     4.15 1738.29   99.28 21457.94  3041.91    26.67     1.49    0.81    0.43    7.44   0.08  14.68
sdf              88.59     4.12 1740.37   99.23 21439.76  3038.87    26.61     1.54    0.84    0.43    7.90   0.08  14.72
sdg               0.00     3.15   27.22   73.08   326.98   391.43    14.33     0.44    4.37    0.20    5.93   0.08   0.79
sdh               0.00     0.12    0.02    0.23     2.14     4.91    56.82     0.00    1.15    0.65    1.19   0.21   0.01
md0               0.00     0.00 10964.38  465.84 146809.76 20824.24    29.33     0.00    0.00    0.00    0.00   0.00   0.00

avg-cpu:  %user   %nice %system %iowait  %steal   %idle
          23.87    0.00    3.27    4.52    0.00   68.34

Device:         rrqm/s   wrqm/s     r/s     w/s    rkB/s    wkB/s avgrq-sz avgqu-sz   await r_await w_await  svctm  %util
sda               0.00     0.00 1460.00    0.00  6216.00     0.00     8.52     0.14    0.09    0.09    0.00   0.09  13.50
sdb               0.00     0.00 1517.00    0.00  6524.00     0.00     8.60     0.15    0.10    0.10    0.00   0.10  15.10
sdc               0.00     0.00 1489.00    0.00  6668.00     0.00     8.96     0.16    0.11    0.11    0.00   0.11  15.70
sdd               0.00     0.00 1456.00    0.00  6760.00     0.00     9.29     0.16    0.11    0.11    0.00   0.11  15.80
sde               0.00     0.00 1437.00    0.00  6368.00     0.00     8.86     0.16    0.11    0.11    0.00   0.11  16.30
sdf               0.00     0.00 1484.00    0.00  6596.00     0.00     8.89     0.15    0.10    0.10    0.00   0.10  15.00
sdg               0.00    17.00   38.00   84.00   608.00  1360.00    32.26     0.25    2.03    0.26    2.83   0.13   1.60
sdh               0.00     0.00    0.00    0.00     0.00     0.00     0.00     0.00    0.00    0.00    0.00   0.00   0.00
md0               0.00     0.00 8841.00    0.00 39428.00     0.00     8.92     0.00    0.00    0.00    0.00   0.00   0.00

avg-cpu:  %user   %nice %system %iowait  %steal   %idle
          24.50    0.00    3.25   17.00    0.00   55.25

Device:         rrqm/s   wrqm/s     r/s     w/s    rkB/s    wkB/s avgrq-sz avgqu-sz   await r_await w_await  svctm  %util
sda               0.00     0.00 1541.00    0.00  6892.00     0.00     8.94     0.15    0.10    0.10    0.00   0.10  14.90
sdb               0.00     0.00 1505.00    0.00  6472.00     0.00     8.60     0.15    0.10    0.10    0.00   0.10  15.30
sdc               0.00     0.00 1415.00    0.00  6068.00     0.00     8.58     0.15    0.10    0.10    0.00   0.10  14.50
sdd               0.00     0.00 1454.00    0.00  6404.00     0.00     8.81     0.14    0.10    0.10    0.00   0.10  13.90
sde               0.00     0.00 1564.00    0.00  6928.00     0.00     8.86     0.17    0.11    0.11    0.00   0.11  16.80
sdf               0.00     0.00 1506.00    0.00  6384.00     0.00     8.48     0.17    0.12    0.12    0.00   0.12  17.40
sdg               0.00     0.00    0.00    0.00     0.00     0.00     0.00     0.00    0.00    0.00    0.00   0.00   0.00
sdh               0.00     0.00    0.00    0.00     0.00     0.00     0.00     0.00    0.00    0.00    0.00   0.00   0.00
md0               0.00     0.00 8985.00    0.00 39160.00     0.00     8.72     0.00    0.00    0.00    0.00   0.00   0.00

