Linux 4.17.2 (bench) 	08/04/2018 	_x86_64_	(4 CPU)

avg-cpu:  %user   %nice %system %iowait  %steal   %idle
          10.25    0.02    4.28    2.82    0.00   82.64

Device:         rrqm/s   wrqm/s     r/s     w/s    rkB/s    wkB/s avgrq-sz avgqu-sz   await r_await w_await  svctm  %util
sda              57.69     4.14 1758.41  100.07 21458.04  3062.23    26.39     1.05    0.57    0.26    5.92   0.06  11.17
sdb              57.48     4.10 1758.43  100.21 21447.67  3058.97    26.37     1.05    0.57    0.26    5.85   0.06  11.05
sdc              94.97     4.16 1718.85   99.77 21439.99  3061.37    26.94     1.47    0.81    0.44    7.12   0.08  14.55
sdd              88.58     4.13 1724.43   99.84 21425.13  3057.66    26.84     1.48    0.81    0.43    7.33   0.08  14.64
sde              90.53     4.17 1729.44   99.93 21483.70  3061.81    26.83     1.50    0.82    0.44    7.44   0.08  14.66
sdf              87.72     4.15 1731.52   99.88 21465.41  3058.74    26.78     1.54    0.84    0.43    7.90   0.08  14.69
sdg               0.00     3.16   27.10   73.16   326.83   391.72    14.33     0.44    4.38    0.20    5.93   0.08   0.79
sdh               0.00     0.13    0.02    0.23     2.16     4.94    56.82     0.00    1.15    0.65    1.19   0.21   0.01
md0               0.00     0.00 10905.78  468.88 147035.22 20960.42    29.54     0.00    0.00    0.00    0.00   0.00   0.00

avg-cpu:  %user   %nice %system %iowait  %steal   %idle
          24.70    0.03    2.33    2.54    0.00   70.40

Device:         rrqm/s   wrqm/s     r/s     w/s    rkB/s    wkB/s avgrq-sz avgqu-sz   await r_await w_await  svctm  %util
sda               0.00     0.00 1585.10    0.00  7183.40     0.00     9.06     0.17    0.10    0.10    0.00   0.09  14.98
sdb               0.00     0.00 1562.30    0.00  7140.60     0.00     9.14     0.17    0.11    0.11    0.00   0.09  14.77
sdc               0.00     0.00 1566.55    0.00  7214.20     0.00     9.21     0.18    0.12    0.12    0.00   0.10  15.96
sdd               0.00     0.00 1574.90    0.00  7224.80     0.00     9.17     0.18    0.12    0.12    0.00   0.10  16.18
sde               0.00     0.00 1566.05    0.00  7123.00     0.00     9.10     0.18    0.12    0.12    0.00   0.10  15.84
sdf               0.00     0.00 1562.55    0.00  7093.60     0.00     9.08     0.18    0.11    0.11    0.00   0.10  15.74
sdg               0.00     0.05    2.95   72.10    30.00   378.20    10.88     0.42    5.58    0.17    5.80   0.05   0.35
sdh               0.00     0.00    0.00    0.00     0.00     0.00     0.00     0.00    0.00    0.00    0.00   0.00   0.00
md0               0.00     0.00 9417.55    0.00 43071.20     0.00     9.15     0.00    0.00    0.00    0.00   0.00   0.00

