Linux 4.17.2 (bench) 	08/03/2018 	_x86_64_	(4 CPU)

avg-cpu:  %user   %nice %system %iowait  %steal   %idle
          10.25    0.02    4.20    2.76    0.00   82.78

Device:         rrqm/s   wrqm/s     r/s     w/s    rkB/s    wkB/s avgrq-sz avgqu-sz   await r_await w_await  svctm  %util
sda              55.43     4.18 1740.82  100.88 21465.62  3086.87    26.66     1.05    0.57    0.26    5.92   0.06  11.10
sdb              55.21     4.14 1740.85  101.02 21455.14  3083.59    26.65     1.05    0.57    0.26    5.85   0.06  10.98
sdc              92.98     4.20 1700.96  100.57 21447.38  3086.01    27.24     1.47    0.82    0.44    7.12   0.08  14.49
sdd              86.54     4.16 1706.60  100.64 21432.47  3082.27    27.13     1.48    0.82    0.43    7.33   0.08  14.58
sde              88.53     4.21 1711.68  100.74 21491.73  3086.45    27.12     1.50    0.83    0.44    7.44   0.08  14.60
sdf              85.69     4.18 1713.78  100.68 21473.27  3083.36    27.07     1.54    0.85    0.44    7.90   0.08  14.64
sdg               0.00     3.16   26.94   73.25   326.53   392.03    14.34     0.44    4.39    0.20    5.93   0.08   0.79
sdh               0.00     0.13    0.02    0.23     2.18     4.98    56.82     0.00    1.15    0.65    1.19   0.21   0.01
md0               0.00     0.00 10786.77  472.66 147182.46 21129.12    29.90     0.00    0.00    0.00    0.00   0.00   0.00

avg-cpu:  %user   %nice %system %iowait  %steal   %idle
          24.94    0.01    1.85    7.52    0.00   65.68

Device:         rrqm/s   wrqm/s     r/s     w/s    rkB/s    wkB/s avgrq-sz avgqu-sz   await r_await w_await  svctm  %util
sda               0.00     0.00 1558.55    0.00  6234.20     0.00     8.00     0.15    0.10    0.10    0.00   0.10  14.88
sdb               0.00     0.00 1561.65    0.00  6246.60     0.00     8.00     0.15    0.09    0.09    0.00   0.09  14.73
sdc               0.00     0.00 1568.40    0.00  6273.60     0.00     8.00     0.16    0.10    0.10    0.00   0.10  15.89
sdd               0.00     0.00 1530.75    0.00  6123.00     0.00     8.00     0.15    0.10    0.10    0.00   0.10  15.27
sde               0.00     0.00 1575.45    0.00  6301.80     0.00     8.00     0.17    0.11    0.11    0.00   0.11  16.93
sdf               0.00     0.00 1586.30    0.00  6345.20     0.00     8.00     0.16    0.10    0.10    0.00   0.10  16.11
sdg               0.00     4.00   69.15  130.10   295.40   675.80     9.75     0.82    4.16    0.13    6.30   0.08   1.50
sdh               0.00     0.00    0.00    0.00     0.00     0.00     0.00     0.00    0.00    0.00    0.00   0.00   0.00
md0               0.00     0.00 9381.20    0.00 37524.80     0.00     8.00     0.00    0.00    0.00    0.00   0.00   0.00

