Linux 4.17.2 (bench) 	08/04/2018 	_x86_64_	(4 CPU)

avg-cpu:  %user   %nice %system %iowait  %steal   %idle
          10.25    0.02    4.21    2.79    0.00   82.73

Device:         rrqm/s   wrqm/s     r/s     w/s    rkB/s    wkB/s avgrq-sz avgqu-sz   await r_await w_await  svctm  %util
sda              56.58     4.17 1749.66  100.65 21477.00  3079.97    26.54     1.05    0.57    0.26    5.92   0.06  11.14
sdb              56.36     4.13 1749.68  100.79 21466.55  3076.69    26.53     1.05    0.57    0.26    5.85   0.06  11.01
sdc              94.06     4.19 1709.89  100.35 21458.83  3079.11    27.11     1.47    0.81    0.44    7.12   0.08  14.52
sdd              87.63     4.16 1715.50  100.42 21443.92  3075.38    27.00     1.48    0.82    0.43    7.33   0.08  14.62
sde              89.61     4.20 1720.57  100.51 21502.99  3079.55    27.00     1.50    0.82    0.44    7.44   0.08  14.64
sdf              86.78     4.17 1722.65  100.46 21484.56  3076.47    26.94     1.54    0.85    0.44    7.90   0.08  14.67
sdg               0.00     3.16   26.99   73.23   326.67   391.97    14.34     0.44    4.39    0.20    5.93   0.08   0.79
sdh               0.00     0.13    0.02    0.23     2.17     4.97    56.82     0.00    1.15    0.65    1.19   0.21   0.01
md0               0.00     0.00 10846.66  471.60 147214.71 21081.88    29.74     0.00    0.00    0.00    0.00   0.00   0.00

avg-cpu:  %user   %nice %system %iowait  %steal   %idle
          24.69    0.25    4.28   19.90    0.00   50.88

Device:         rrqm/s   wrqm/s     r/s     w/s    rkB/s    wkB/s avgrq-sz avgqu-sz   await r_await w_await  svctm  %util
sda              18.00     0.00 1239.00    0.00 20080.00     0.00    32.41     0.18    0.14    0.14    0.00   0.13  16.40
sdb              20.00     0.00 1202.00    0.00 20144.00     0.00    33.52     0.17    0.14    0.14    0.00   0.13  15.20
sdc              21.00     0.00 1196.00    0.00 21424.00     0.00    35.83     0.23    0.20    0.20    0.00   0.17  20.60
sdd              17.00     0.00 1200.00    0.00 20340.00     0.00    33.90     0.23    0.19    0.19    0.00   0.17  20.00
sde              16.00     0.00 1241.00    0.00 19696.00     0.00    31.74     0.22    0.18    0.18    0.00   0.16  19.50
sdf              16.00     0.00 1263.00    0.00 18932.00     0.00    29.98     0.22    0.17    0.17    0.00   0.16  20.40
sdg               0.00     0.00 1917.00    0.00  8544.00     0.00     8.91     0.25    0.13    0.13    0.00   0.12  22.40
sdh               0.00     0.00    0.00    0.00     0.00     0.00     0.00     0.00    0.00    0.00    0.00   0.00   0.00
md0               0.00     0.00 7443.00    0.00 165240.00     0.00    44.40     0.00    0.00    0.00    0.00   0.00   0.00

