Linux 4.17.2 (bench) 	08/04/2018 	_x86_64_	(4 CPU)

avg-cpu:  %user   %nice %system %iowait  %steal   %idle
          10.25    0.02    4.25    2.79    0.00   82.70

Device:         rrqm/s   wrqm/s     r/s     w/s    rkB/s    wkB/s avgrq-sz avgqu-sz   await r_await w_await  svctm  %util
sda              56.49     4.16 1749.65  100.42 21456.80  3072.81    26.52     1.05    0.57    0.26    5.92   0.06  11.13
sdb              56.28     4.12 1749.67  100.56 21446.37  3069.54    26.50     1.05    0.57    0.26    5.85   0.06  11.01
sdc              93.88     4.18 1709.97  100.12 21438.67  3071.95    27.08     1.47    0.81    0.44    7.12   0.08  14.51
sdd              87.47     4.15 1715.58  100.18 21423.80  3068.23    26.98     1.48    0.81    0.43    7.33   0.08  14.61
sde              89.45     4.19 1720.62  100.28 21482.69  3072.39    26.97     1.50    0.82    0.44    7.44   0.08  14.63
sdf              86.62     4.16 1722.70  100.22 21464.30  3069.31    26.92     1.54    0.85    0.44    7.90   0.08  14.66
sdg               0.00     3.16   27.03   73.20   326.69   391.86    14.34     0.44    4.38    0.20    5.93   0.08   0.79
sdh               0.00     0.13    0.02    0.23     2.17     4.96    56.82     0.00    1.15    0.65    1.19   0.21   0.01
md0               0.00     0.00 10846.12  470.50 147073.46 21032.86    29.71     0.00    0.00    0.00    0.00   0.00   0.00

avg-cpu:  %user   %nice %system %iowait  %steal   %idle
          25.06    0.25    2.03    3.04    0.00   69.62

Device:         rrqm/s   wrqm/s     r/s     w/s    rkB/s    wkB/s avgrq-sz avgqu-sz   await r_await w_await  svctm  %util
sda               0.00     0.00 1486.00    0.00  7604.00     0.00    10.23     0.15    0.10    0.10    0.00   0.10  14.70
sdb               0.00     0.00 1500.00    0.00  7456.00     0.00     9.94     0.16    0.10    0.10    0.00   0.10  15.60
sdc               0.00     0.00 1528.00    0.00  7068.00     0.00     9.25     0.16    0.11    0.11    0.00   0.10  15.40
sdd               0.00     0.00 1550.00    0.00  6976.00     0.00     9.00     0.17    0.11    0.11    0.00   0.11  17.40
sde               0.00     0.00 1525.00    0.00  6956.00     0.00     9.12     0.17    0.11    0.11    0.00   0.11  16.40
sdf               0.00     0.00 1471.00    0.00  7100.00     0.00     9.65     0.16    0.11    0.11    0.00   0.11  15.50
sdg               0.00     0.00 1146.00    0.00  4672.00     0.00     8.15     0.14    0.12    0.12    0.00   0.12  13.90
sdh               0.00     0.00    0.00    0.00     0.00     0.00     0.00     0.00    0.00    0.00    0.00   0.00   0.00
md0               0.00     0.00 9061.00    0.00 43872.00     0.00     9.68     0.00    0.00    0.00    0.00   0.00   0.00

avg-cpu:  %user   %nice %system %iowait  %steal   %idle
          24.49    0.00    2.53    1.01    0.00   71.97

Device:         rrqm/s   wrqm/s     r/s     w/s    rkB/s    wkB/s avgrq-sz avgqu-sz   await r_await w_await  svctm  %util
sda               0.00     0.00 1508.00    0.00  7440.00     0.00     9.87     0.17    0.11    0.11    0.00   0.10  15.10
sdb               0.00     0.00 1471.00    0.00  7100.00     0.00     9.65     0.15    0.10    0.10    0.00   0.09  13.60
sdc               0.00     0.00 1536.00    0.00  6976.00     0.00     9.08     0.17    0.11    0.11    0.00   0.10  15.90
sdd               0.00     0.00 1559.00    0.00  7332.00     0.00     9.41     0.16    0.10    0.10    0.00   0.10  15.30
sde               0.00     0.00 1545.00    0.00  7092.00     0.00     9.18     0.18    0.12    0.12    0.00   0.11  16.40
sdf               0.00     0.00 1528.00    0.00  6924.00     0.00     9.06     0.17    0.11    0.11    0.00   0.11  16.50
sdg               0.00     0.00    0.00    0.00     0.00     0.00     0.00     0.00    0.00    0.00    0.00   0.00   0.00
sdh               0.00     0.00    0.00    0.00     0.00     0.00     0.00     0.00    0.00    0.00    0.00   0.00   0.00
md0               0.00     0.00 9149.00    0.00 43132.00     0.00     9.43     0.00    0.00    0.00    0.00   0.00   0.00

avg-cpu:  %user   %nice %system %iowait  %steal   %idle
          25.19    0.00    1.53    0.76    0.00   72.52

Device:         rrqm/s   wrqm/s     r/s     w/s    rkB/s    wkB/s avgrq-sz avgqu-sz   await r_await w_await  svctm  %util
sda               0.00     0.00 1461.00    0.00  6948.00     0.00     9.51     0.17    0.12    0.12    0.00   0.11  15.80
sdb               0.00     0.00 1432.00    0.00  6784.00     0.00     9.47     0.16    0.11    0.11    0.00   0.10  14.40
sdc               0.00     0.00 1593.00    0.00  8160.00     0.00    10.24     0.20    0.13    0.13    0.00   0.11  18.20
sdd               0.00     0.00 1491.00    0.00  7516.00     0.00    10.08     0.15    0.10    0.10    0.00   0.09  13.50
sde               0.00     0.00 1589.00    0.00  7424.00     0.00     9.34     0.18    0.12    0.12    0.00   0.11  16.70
sdf               0.00     0.00 1590.00    0.00  8160.00     0.00    10.26     0.20    0.13    0.13    0.00   0.11  17.40
sdg               0.00     0.00    0.00    0.00     0.00     0.00     0.00     0.00    0.00    0.00    0.00   0.00   0.00
sdh               0.00     0.00    0.00    0.00     0.00     0.00     0.00     0.00    0.00    0.00    0.00   0.00   0.00
md0               0.00     0.00 9154.00    0.00 45648.00     0.00     9.97     0.00    0.00    0.00    0.00   0.00   0.00

avg-cpu:  %user   %nice %system %iowait  %steal   %idle
          24.62    0.00    2.03    1.78    0.00   71.57

Device:         rrqm/s   wrqm/s     r/s     w/s    rkB/s    wkB/s avgrq-sz avgqu-sz   await r_await w_await  svctm  %util
sda               0.00     0.00 1524.00    0.00  7232.00     0.00     9.49     0.17    0.11    0.11    0.00   0.10  15.90
sdb               0.00     0.00 1468.00    0.00  7340.00     0.00    10.00     0.15    0.10    0.10    0.00   0.10  14.20
sdc               0.00     0.00 1463.00    0.00  7432.00     0.00    10.16     0.16    0.11    0.11    0.00   0.10  14.00
sdd               0.00     0.00 1527.00    0.00  7912.00     0.00    10.36     0.20    0.13    0.13    0.00   0.11  17.40
sde               0.00     0.00 1539.00    0.00  7212.00     0.00     9.37     0.17    0.11    0.11    0.00   0.10  15.90
sdf               0.00     0.00 1538.00    0.00  6996.00     0.00     9.10     0.18    0.12    0.12    0.00   0.11  17.50
sdg               0.00     0.00   14.00    0.00   288.00     0.00    41.14     0.01    0.36    0.36    0.00   0.36   0.50
sdh               0.00     0.00    0.00    0.00     0.00     0.00     0.00     0.00    0.00    0.00    0.00   0.00   0.00
md0               0.00     0.00 9059.00    0.00 44608.00     0.00     9.85     0.00    0.00    0.00    0.00   0.00   0.00

avg-cpu:  %user   %nice %system %iowait  %steal   %idle
          24.50    0.00    3.25   21.50    0.00   50.75

Device:         rrqm/s   wrqm/s     r/s     w/s    rkB/s    wkB/s avgrq-sz avgqu-sz   await r_await w_await  svctm  %util
sda               0.00     0.00 1514.00    0.00  7180.00     0.00     9.48     0.15    0.10    0.10    0.00   0.10  14.80
sdb               0.00     0.00 1396.00    0.00  6264.00     0.00     8.97     0.14    0.10    0.10    0.00   0.10  14.30
sdc               0.00     0.00 1499.00    0.00  7260.00     0.00     9.69     0.16    0.11    0.11    0.00   0.10  14.50
sdd               0.00     0.00 1565.00    0.00  7232.00     0.00     9.24     0.17    0.11    0.11    0.00   0.10  15.90
sde               0.00     0.00 1571.00    0.00  7748.00     0.00     9.86     0.18    0.12    0.12    0.00   0.11  16.80
sdf               0.00     0.00 1526.00    0.00  7440.00     0.00     9.75     0.19    0.13    0.13    0.00   0.11  17.00
sdg               0.00     0.00    0.00    0.00     0.00     0.00     0.00     0.00    0.00    0.00    0.00   0.00   0.00
sdh               0.00     0.00    0.00    0.00     0.00     0.00     0.00     0.00    0.00    0.00    0.00   0.00   0.00
md0               0.00     0.00 9071.00    0.00 43356.00     0.00     9.56     0.00    0.00    0.00    0.00   0.00   0.00

avg-cpu:  %user   %nice %system %iowait  %steal   %idle
          24.43    0.00    3.02   21.66    0.00   50.88

Device:         rrqm/s   wrqm/s     r/s     w/s    rkB/s    wkB/s avgrq-sz avgqu-sz   await r_await w_await  svctm  %util
sda               0.00     0.00 1546.00    0.00  8024.00     0.00    10.38     0.20    0.13    0.13    0.00   0.11  17.00
sdb               0.00     0.00 1543.00    0.00  8468.00     0.00    10.98     0.18    0.12    0.12    0.00   0.10  15.60
sdc               0.00     0.00 1592.00    0.00  7992.00     0.00    10.04     0.19    0.12    0.12    0.00   0.11  17.00
sdd               0.00     0.00 1554.00    0.00  7288.00     0.00     9.38     0.18    0.12    0.12    0.00   0.11  17.10
sde               0.00     0.00 1495.00    0.00  6812.00     0.00     9.11     0.15    0.10    0.10    0.00   0.10  14.50
sdf               0.00     0.00 1495.00    0.00  6796.00     0.00     9.09     0.13    0.09    0.09    0.00   0.08  12.60
sdg               0.00     0.00    0.00    0.00     0.00     0.00     0.00     0.00    0.00    0.00    0.00   0.00   0.00
sdh               0.00     0.00    0.00    0.00     0.00     0.00     0.00     0.00    0.00    0.00    0.00   0.00   0.00
md0               0.00     0.00 9226.00    0.00 45640.00     0.00     9.89     0.00    0.00    0.00    0.00   0.00   0.00

avg-cpu:  %user   %nice %system %iowait  %steal   %idle
          24.62    0.00    3.02   21.61    0.00   50.75

Device:         rrqm/s   wrqm/s     r/s     w/s    rkB/s    wkB/s avgrq-sz avgqu-sz   await r_await w_await  svctm  %util
sda               0.00     0.00 1574.00    0.00  8056.00     0.00    10.24     0.20    0.12    0.12    0.00   0.11  16.80
sdb               0.00     0.00 1562.00    0.00  8128.00     0.00    10.41     0.19    0.12    0.12    0.00   0.11  17.20
sdc               0.00     0.00 1442.00    0.00  7088.00     0.00     9.83     0.13    0.09    0.09    0.00   0.08  11.90
sdd               0.00     0.00 1558.00    0.00  7152.00     0.00     9.18     0.15    0.10    0.10    0.00   0.10  14.90
sde               0.00     0.00 1470.00    0.00  7276.00     0.00     9.90     0.18    0.12    0.12    0.00   0.10  14.80
sdf               0.00     0.00 1615.00    0.00  8928.00     0.00    11.06     0.23    0.15    0.15    0.00   0.12  18.70
sdg               0.00     0.00    0.00    0.00     0.00     0.00     0.00     0.00    0.00    0.00    0.00   0.00   0.00
sdh               0.00     0.00    0.00    0.00     0.00     0.00     0.00     0.00    0.00    0.00    0.00   0.00   0.00
md0               0.00     0.00 9221.00    0.00 46776.00     0.00    10.15     0.00    0.00    0.00    0.00   0.00   0.00

avg-cpu:  %user   %nice %system %iowait  %steal   %idle
          24.37    0.00    3.02   21.61    0.00   51.01

Device:         rrqm/s   wrqm/s     r/s     w/s    rkB/s    wkB/s avgrq-sz avgqu-sz   await r_await w_await  svctm  %util
sda               0.00     0.00 1499.00    0.00  7100.00     0.00     9.47     0.14    0.10    0.10    0.00   0.09  14.00
sdb               0.00     0.00 1472.00    0.00  7088.00     0.00     9.63     0.16    0.11    0.11    0.00   0.10  14.70
sdc               0.00     0.00 1569.00    0.00  7824.00     0.00     9.97     0.18    0.12    0.12    0.00   0.11  16.50
sdd               0.00     0.00 1576.00    0.00  7920.00     0.00    10.05     0.18    0.11    0.11    0.00   0.10  15.50
sde               0.00     0.00 1585.00    0.00  8104.00     0.00    10.23     0.22    0.14    0.14    0.00   0.12  18.70
sdf               0.00     0.00 1522.00    0.00  7836.00     0.00    10.30     0.20    0.13    0.13    0.00   0.09  14.40
sdg               0.00     0.00    0.00    0.00     0.00     0.00     0.00     0.00    0.00    0.00    0.00   0.00   0.00
sdh               0.00     0.00    0.00    0.00     0.00     0.00     0.00     0.00    0.00    0.00    0.00   0.00   0.00
md0               0.00     0.00 9223.00    0.00 46036.00     0.00     9.98     0.00    0.00    0.00    0.00   0.00   0.00

avg-cpu:  %user   %nice %system %iowait  %steal   %idle
          24.49    0.00    2.78   16.16    0.00   56.57

Device:         rrqm/s   wrqm/s     r/s     w/s    rkB/s    wkB/s avgrq-sz avgqu-sz   await r_await w_await  svctm  %util
sda               0.00     0.00 1517.00    0.00  7372.00     0.00     9.72     0.15    0.10    0.10    0.00   0.09  14.20
sdb               0.00     0.00 1549.00    0.00  7584.00     0.00     9.79     0.17    0.11    0.11    0.00   0.10  15.20
sdc               0.00     0.00 1556.00    0.00  8164.00     0.00    10.49     0.18    0.12    0.12    0.00   0.10  14.90
sdd               0.00     0.00 1453.00    0.00  6852.00     0.00     9.43     0.18    0.13    0.13    0.00   0.12  17.70
sde               0.00     0.00 1530.00    0.00  7600.00     0.00     9.93     0.19    0.12    0.12    0.00   0.11  16.80
sdf               0.00     0.00 1594.00    0.00  8200.00     0.00    10.29     0.19    0.12    0.12    0.00   0.10  15.90
sdg               0.00     0.00    0.00    0.00     0.00     0.00     0.00     0.00    0.00    0.00    0.00   0.00   0.00
sdh               0.00     0.00    0.00    0.00     0.00     0.00     0.00     0.00    0.00    0.00    0.00   0.00   0.00
md0               0.00     0.00 9198.00    0.00 45964.00     0.00     9.99     0.00    0.00    0.00    0.00   0.00   0.00

avg-cpu:  %user   %nice %system %iowait  %steal   %idle
          24.81    0.00    2.78   14.43    0.00   57.97

Device:         rrqm/s   wrqm/s     r/s     w/s    rkB/s    wkB/s avgrq-sz avgqu-sz   await r_await w_await  svctm  %util
sda               0.00     0.00 1529.00    0.00  8548.00     0.00    11.18     0.24    0.16    0.16    0.00   0.11  16.90
sdb               0.00     0.00 1601.00    0.00  9352.00     0.00    11.68     0.25    0.16    0.16    0.00   0.10  15.80
sdc               0.00     0.00 1524.00    0.00  9092.00     0.00    11.93     0.32    0.21    0.21    0.00   0.11  16.30
sdd               0.00     0.00 1652.00    0.00  9892.00     0.00    11.98     0.29    0.18    0.18    0.00   0.09  14.90
sde               1.00     0.00 1594.00    0.00  8564.00     0.00    10.75     0.28    0.18    0.18    0.00   0.09  14.90
sdf               0.00     0.00 1598.00    0.00  9060.00     0.00    11.34     0.28    0.18    0.18    0.00   0.11  18.20
sdg               0.00     0.00    0.00    0.00     0.00     0.00     0.00     0.00    0.00    0.00    0.00   0.00   0.00
sdh               0.00     0.00    0.00    0.00     0.00     0.00     0.00     0.00    0.00    0.00    0.00   0.00   0.00
md0               0.00     0.00 9500.00    0.00 54884.00     0.00    11.55     0.00    0.00    0.00    0.00   0.00   0.00

avg-cpu:  %user   %nice %system %iowait  %steal   %idle
          24.43    0.00    3.02   16.88    0.00   55.67

Device:         rrqm/s   wrqm/s     r/s     w/s    rkB/s    wkB/s avgrq-sz avgqu-sz   await r_await w_await  svctm  %util
sda               0.00     0.00 1609.00    0.00  9972.00     0.00    12.40     0.20    0.12    0.12    0.00   0.08  13.40
sdb               0.00     0.00 1536.00    0.00  8720.00     0.00    11.35     0.21    0.14    0.14    0.00   0.10  15.80
sdc               0.00     0.00 1559.00    0.00  8028.00     0.00    10.30     0.22    0.14    0.14    0.00   0.11  16.50
sdd               0.00     0.00 1516.00    0.00  7624.00     0.00    10.06     0.20    0.13    0.13    0.00   0.10  15.80
sde               0.00     0.00 1643.00    0.00  8972.00     0.00    10.92     0.25    0.15    0.15    0.00   0.10  16.40
sdf               0.00     0.00 1714.00    0.00  9796.00     0.00    11.43     0.26    0.15    0.15    0.00   0.10  17.40
sdg               0.00     0.00    0.00    0.00     0.00     0.00     0.00     0.00    0.00    0.00    0.00   0.00   0.00
sdh               0.00     0.00    0.00    0.00     0.00     0.00     0.00     0.00    0.00    0.00    0.00   0.00   0.00
md0               0.00     0.00 9576.00    0.00 53536.00     0.00    11.18     0.00    0.00    0.00    0.00   0.00   0.00

avg-cpu:  %user   %nice %system %iowait  %steal   %idle
          24.24    0.00    3.03    3.79    0.00   68.94

Device:         rrqm/s   wrqm/s     r/s     w/s    rkB/s    wkB/s avgrq-sz avgqu-sz   await r_await w_await  svctm  %util
sda               0.00     0.00 1685.00    0.00  9964.00     0.00    11.83     0.22    0.13    0.13    0.00   0.09  15.80
sdb               0.00     0.00 1557.00    0.00  7976.00     0.00    10.25     0.18    0.11    0.11    0.00   0.10  15.10
sdc               0.00     0.00 1594.00    0.00  8432.00     0.00    10.58     0.20    0.13    0.13    0.00   0.09  14.90
sdd               0.00     0.00 1654.00    0.00  9104.00     0.00    11.01     0.23    0.14    0.14    0.00   0.09  15.60
sde               0.00     0.00 1593.00    0.00  9472.00     0.00    11.89     0.26    0.16    0.16    0.00   0.10  15.70
sdf               0.00     0.00 1675.00    0.00  9852.00     0.00    11.76     0.33    0.20    0.20    0.00   0.12  19.30
sdg               0.00     0.00    0.00    0.00     0.00     0.00     0.00     0.00    0.00    0.00    0.00   0.00   0.00
sdh               0.00     0.00    0.00    0.00     0.00     0.00     0.00     0.00    0.00    0.00    0.00   0.00   0.00
md0               0.00     0.00 9759.00    0.00 55268.00     0.00    11.33     0.00    0.00    0.00    0.00   0.00   0.00

avg-cpu:  %user   %nice %system %iowait  %steal   %idle
          24.49    0.00    2.30    6.12    0.00   67.09

Device:         rrqm/s   wrqm/s     r/s     w/s    rkB/s    wkB/s avgrq-sz avgqu-sz   await r_await w_await  svctm  %util
sda               0.00     0.00 1552.00    0.00  8960.00     0.00    11.55     0.21    0.14    0.14    0.00   0.08  12.30
sdb               0.00     0.00 1640.00    0.00  9928.00     0.00    12.11     0.30    0.18    0.18    0.00   0.09  15.50
sdc               1.00     0.00 1646.00    0.00 10376.00     0.00    12.61     0.46    0.28    0.28    0.00   0.11  17.30
sdd               0.00     0.00 1621.00    0.00  9304.00     0.00    11.48     0.42    0.26    0.26    0.00   0.10  16.40
sde               0.00     0.00 1662.00    0.00  9712.00     0.00    11.69     0.31    0.18    0.18    0.00   0.10  16.90
sdf               1.00     0.00 1532.00    0.00  8844.00     0.00    11.55     0.32    0.21    0.21    0.00   0.11  16.50
sdg               0.00     0.00    0.00    0.00     0.00     0.00     0.00     0.00    0.00    0.00    0.00   0.00   0.00
sdh               0.00     0.00    0.00    0.00     0.00     0.00     0.00     0.00    0.00    0.00    0.00   0.00   0.00
md0               0.00     0.00 9655.00    0.00 57492.00     0.00    11.91     0.00    0.00    0.00    0.00   0.00   0.00

avg-cpu:  %user   %nice %system %iowait  %steal   %idle
          24.75    0.00    2.78    8.84    0.00   63.64

Device:         rrqm/s   wrqm/s     r/s     w/s    rkB/s    wkB/s avgrq-sz avgqu-sz   await r_await w_await  svctm  %util
sda               0.00     0.00 1627.00    0.00  9408.00     0.00    11.56     0.21    0.13    0.13    0.00   0.09  14.50
sdb               0.00     0.00 1673.00    0.00 10700.00     0.00    12.79     0.30    0.18    0.18    0.00   0.09  14.30
sdc               0.00     0.00 1589.00    0.00 10068.00     0.00    12.67     0.38    0.24    0.24    0.00   0.10  16.60
sdd               0.00     0.00 1748.00    0.00 10880.00     0.00    12.45     0.40    0.23    0.23    0.00   0.10  17.80
sde               0.00     0.00 1661.00    0.00 10728.00     0.00    12.92     0.35    0.21    0.21    0.00   0.11  18.80
sdf               0.00     0.00 1699.00    0.00  9952.00     0.00    11.72     0.28    0.17    0.17    0.00   0.10  16.70
sdg               0.00     0.00    0.00    4.00     0.00   124.00    62.00     0.00    0.75    0.00    0.75   0.25   0.10
sdh               0.00     0.00    0.00    0.00     0.00     0.00     0.00     0.00    0.00    0.00    0.00   0.00   0.00
md0               0.00     0.00 9997.00    0.00 62188.00     0.00    12.44     0.00    0.00    0.00    0.00   0.00   0.00

avg-cpu:  %user   %nice %system %iowait  %steal   %idle
          24.43    0.00    2.80    8.65    0.00   64.12

Device:         rrqm/s   wrqm/s     r/s     w/s    rkB/s    wkB/s avgrq-sz avgqu-sz   await r_await w_await  svctm  %util
sda               1.00     0.00 1834.00    0.00 12116.00     0.00    13.21     0.43    0.24    0.24    0.00   0.08  14.30
sdb               0.00     0.00 1826.00    0.00 12084.00     0.00    13.24     0.44    0.24    0.24    0.00   0.09  16.30
sdc               0.00     0.00 1929.00    0.00 13708.00     0.00    14.21     0.64    0.33    0.33    0.00   0.09  17.90
sdd               1.00     0.00 1757.00    0.00 10932.00     0.00    12.44     0.61    0.35    0.35    0.00   0.10  18.10
sde               2.00     0.00 1841.00    0.00 11908.00     0.00    12.94     0.59    0.32    0.32    0.00   0.08  15.60
sdf               2.00     0.00 1795.00    0.00 11276.00     0.00    12.56     0.58    0.32    0.32    0.00   0.10  18.40
sdg               0.00     0.00    0.00    0.00     0.00     0.00     0.00     0.00    0.00    0.00    0.00   0.00   0.00
sdh               0.00     0.00    0.00    0.00     0.00     0.00     0.00     0.00    0.00    0.00    0.00   0.00   0.00
md0               0.00     0.00 10988.00    0.00 72496.00     0.00    13.20     0.00    0.00    0.00    0.00   0.00   0.00

avg-cpu:  %user   %nice %system %iowait  %steal   %idle
          24.56    0.00    2.78   11.39    0.00   61.27

Device:         rrqm/s   wrqm/s     r/s     w/s    rkB/s    wkB/s avgrq-sz avgqu-sz   await r_await w_await  svctm  %util
sda               0.00     0.00 1995.00    0.00 14672.00     0.00    14.71     0.48    0.24    0.24    0.00   0.08  16.10
sdb               0.00     0.00 2043.00    0.00 14400.00     0.00    14.10     0.43    0.21    0.21    0.00   0.08  16.20
sdc               0.00     0.00 1923.00    0.00 13808.00     0.00    14.36     0.76    0.39    0.39    0.00   0.09  17.40
sdd               1.00     0.00 2053.00    0.00 14396.00     0.00    14.02     0.80    0.39    0.39    0.00   0.10  19.60
sde               1.00     0.00 1980.00    0.00 14108.00     0.00    14.25     0.81    0.41    0.41    0.00   0.08  16.70
sdf               1.00     0.00 1979.00    0.00 13684.00     0.00    13.83     0.81    0.41    0.41    0.00   0.09  18.20
sdg               0.00     0.00    0.00    0.00     0.00     0.00     0.00     0.00    0.00    0.00    0.00   0.00   0.00
sdh               0.00     0.00    0.00    0.00     0.00     0.00     0.00     0.00    0.00    0.00    0.00   0.00   0.00
md0               0.00     0.00 11977.00    0.00 86144.00     0.00    14.38     0.00    0.00    0.00    0.00   0.00   0.00

avg-cpu:  %user   %nice %system %iowait  %steal   %idle
          24.00    0.00    4.50   20.50    0.00   51.00

Device:         rrqm/s   wrqm/s     r/s     w/s    rkB/s    wkB/s avgrq-sz avgqu-sz   await r_await w_await  svctm  %util
sda               0.00     0.00 2048.00    0.00 14556.00     0.00    14.21     0.47    0.23    0.23    0.00   0.07  14.80
sdb               0.00     0.00 2018.00    0.00 14076.00     0.00    13.95     0.52    0.26    0.26    0.00   0.09  17.70
sdc               0.00     0.00 1974.00    0.00 13632.00     0.00    13.81     0.79    0.40    0.40    0.00   0.08  16.40
sdd               1.00     0.00 2047.00    0.00 13736.00     0.00    13.42     0.78    0.38    0.38    0.00   0.09  18.10
sde               1.00     0.00 1934.00    0.00 13308.00     0.00    13.76     0.81    0.42    0.42    0.00   0.08  16.10
sdf               0.00     0.00 2050.00    0.00 13788.00     0.00    13.45     0.73    0.36    0.36    0.00   0.09  18.60
sdg               0.00     0.00    0.00    0.00     0.00     0.00     0.00     0.00    0.00    0.00    0.00   0.00   0.00
sdh               0.00     0.00    0.00    0.00     0.00     0.00     0.00     0.00    0.00    0.00    0.00   0.00   0.00
md0               0.00     0.00 12071.00    0.00 83928.00     0.00    13.91     0.00    0.00    0.00    0.00   0.00   0.00

avg-cpu:  %user   %nice %system %iowait  %steal   %idle
          24.18    0.00    4.03    9.32    0.00   62.47

Device:         rrqm/s   wrqm/s     r/s     w/s    rkB/s    wkB/s avgrq-sz avgqu-sz   await r_await w_await  svctm  %util
sda               1.00     0.00 2087.00    0.00 14300.00     0.00    13.70     0.52    0.24    0.24    0.00   0.08  16.20
sdb               0.00     0.00 2169.00    0.00 15460.00     0.00    14.26     0.64    0.29    0.29    0.00   0.08  17.90
sdc               0.00     0.00 2050.00    0.00 14624.00     0.00    14.27     0.77    0.36    0.36    0.00   0.09  17.60
sdd               0.00     0.00 2147.00    0.00 15160.00     0.00    14.12     0.78    0.35    0.35    0.00   0.09  18.60
sde               0.00     0.00 2037.00    0.00 14488.00     0.00    14.22     0.62    0.30    0.30    0.00   0.08  16.90
sdf               0.00     0.00 1989.00    0.00 13340.00     0.00    13.41     0.64    0.31    0.31    0.00   0.09  17.20
sdg               0.00     0.00    0.00    0.00     0.00     0.00     0.00     0.00    0.00    0.00    0.00   0.00   0.00
sdh               0.00     0.00    0.00    0.00     0.00     0.00     0.00     0.00    0.00    0.00    0.00   0.00   0.00
md0               0.00     0.00 12601.00    0.00 90128.00     0.00    14.30     0.00    0.00    0.00    0.00   0.00   0.00

avg-cpu:  %user   %nice %system %iowait  %steal   %idle
          24.49    0.00    3.32    1.02    0.00   71.17

Device:         rrqm/s   wrqm/s     r/s     w/s    rkB/s    wkB/s avgrq-sz avgqu-sz   await r_await w_await  svctm  %util
sda               0.00     0.00 2416.00    0.00 18288.00     0.00    15.14     0.79    0.33    0.33    0.00   0.06  15.40
sdb               0.00     0.00 2385.00    0.00 18184.00     0.00    15.25     0.86    0.37    0.37    0.00   0.07  15.60
sdc               0.00     0.00 2428.00    0.00 19256.00     0.00    15.86     1.35    0.57    0.57    0.00   0.08  19.60
sdd               1.00     0.00 2587.00    0.00 20268.00     0.00    15.67     1.43    0.56    0.56    0.00   0.08  20.70
sde               1.00     0.00 2487.00    0.00 19612.00     0.00    15.77     1.61    0.65    0.65    0.00   0.09  21.20
sdf               5.00     0.00 2524.00    0.00 19968.00     0.00    15.82     1.56    0.63    0.63    0.00   0.08  20.70
sdg               0.00     0.00    0.00    0.00     0.00     0.00     0.00     0.00    0.00    0.00    0.00   0.00   0.00
sdh               0.00     0.00    0.00    0.00     0.00     0.00     0.00     0.00    0.00    0.00    0.00   0.00   0.00
md0               0.00     0.00 14714.00    0.00 115208.00     0.00    15.66     0.00    0.00    0.00    0.00   0.00   0.00

avg-cpu:  %user   %nice %system %iowait  %steal   %idle
          24.30    0.26    3.84    1.28    0.00   70.33

Device:         rrqm/s   wrqm/s     r/s     w/s    rkB/s    wkB/s avgrq-sz avgqu-sz   await r_await w_await  svctm  %util
sda               0.00     0.00 2811.00    0.00 22560.00     0.00    16.05     1.04    0.37    0.37    0.00   0.06  16.20
sdb               2.00     0.00 2940.00    0.00 24056.00     0.00    16.36     1.14    0.39    0.39    0.00   0.06  17.90
sdc               1.00     0.00 2973.00    0.00 23496.00     0.00    15.81     1.61    0.54    0.54    0.00   0.08  22.70
sdd               2.00     0.00 2851.00    0.00 22536.00     0.00    15.81     1.81    0.63    0.63    0.00   0.07  21.10
sde               4.00     0.00 2663.00    0.00 20576.00     0.00    15.45     1.54    0.58    0.58    0.00   0.07  19.80
sdf               0.00     0.00 2724.00    0.00 21024.00     0.00    15.44     1.48    0.54    0.54    0.00   0.07  19.50
sdg               0.00     0.00    4.00    0.00    16.00     0.00     8.00     0.00    0.25    0.25    0.00   0.25   0.10
sdh               0.00     0.00    0.00    0.00     0.00     0.00     0.00     0.00    0.00    0.00    0.00   0.00   0.00
md0               0.00     0.00 16970.00    0.00 135692.00     0.00    15.99     0.00    0.00    0.00    0.00   0.00   0.00

