Linux 4.17.2 (bench) 	08/04/2018 	_x86_64_	(4 CPU)

avg-cpu:  %user   %nice %system %iowait  %steal   %idle
          10.25    0.02    4.20    2.77    0.00   82.76

Device:         rrqm/s   wrqm/s     r/s     w/s    rkB/s    wkB/s avgrq-sz avgqu-sz   await r_await w_await  svctm  %util
sda              55.68     4.17 1744.11  100.79 21467.71  3084.26    26.62     1.05    0.57    0.26    5.92   0.06  11.11
sdb              55.46     4.13 1744.13  100.93 21457.24  3080.98    26.60     1.05    0.57    0.26    5.85   0.06  10.99
sdc              93.20     4.19 1704.29  100.49 21449.48  3083.40    27.19     1.47    0.82    0.44    7.12   0.08  14.50
sdd              86.77     4.16 1709.91  100.56 21434.58  3079.66    27.08     1.48    0.82    0.43    7.33   0.08  14.60
sde              88.75     4.20 1714.99  100.65 21493.76  3083.84    27.07     1.50    0.83    0.44    7.44   0.08  14.62
sdf              85.92     4.18 1717.08  100.60 21475.32  3080.76    27.02     1.54    0.85    0.44    7.90   0.08  14.65
sdg               0.00     3.16   26.96   73.25   326.62   392.02    14.34     0.44    4.39    0.20    5.93   0.08   0.79
sdh               0.00     0.13    0.02    0.23     2.17     4.98    56.82     0.00    1.15    0.65    1.19   0.21   0.01
md0               0.00     0.00 10807.98  472.26 147179.39 21111.26    29.84     0.00    0.00    0.00    0.00   0.00   0.00

avg-cpu:  %user   %nice %system %iowait  %steal   %idle
          24.97    0.03    1.79    3.24    0.00   69.98

Device:         rrqm/s   wrqm/s     r/s     w/s    rkB/s    wkB/s avgrq-sz avgqu-sz   await r_await w_await  svctm  %util
sda               0.00     0.00 1600.05    0.00  6400.20     0.00     8.00     0.15    0.10    0.10    0.00   0.10  15.32
sdb               0.00     0.00 1611.40    0.00  6445.60     0.00     8.00     0.15    0.09    0.09    0.00   0.09  15.22
sdc               0.00     0.00 1576.45    0.00  6305.80     0.00     8.00     0.16    0.10    0.10    0.00   0.10  15.60
sdd               0.00     0.00 1590.55    0.00  6362.20     0.00     8.00     0.16    0.10    0.10    0.00   0.10  16.27
sde               0.00     0.00 1603.85    0.00  6415.40     0.00     8.00     0.16    0.10    0.10    0.00   0.10  15.68
sdf               0.00     0.00 1599.65    0.00  6398.60     0.00     8.00     0.16    0.10    0.10    0.00   0.10  16.32
sdg               0.00     0.00  163.15    0.10   703.20     1.00     8.63     0.02    0.11    0.11    0.00   0.11   1.82
sdh               0.00     0.00    0.00    0.00     0.00     0.00     0.00     0.00    0.00    0.00    0.00   0.00   0.00
md0               0.00     0.00 9582.05    0.00 38328.20     0.00     8.00     0.00    0.00    0.00    0.00   0.00   0.00

