Linux 4.17.2 (bench) 	08/04/2018 	_x86_64_	(4 CPU)

avg-cpu:  %user   %nice %system %iowait  %steal   %idle
          10.25    0.02    4.32    2.83    0.00   82.59

Device:         rrqm/s   wrqm/s     r/s     w/s    rkB/s    wkB/s avgrq-sz avgqu-sz   await r_await w_await  svctm  %util
sda              57.77     4.13 1759.34   99.74 21431.93  3052.08    26.34     1.05    0.56    0.26    5.92   0.06  11.17
sdb              57.56     4.09 1759.37   99.88 21421.59  3048.83    26.32     1.05    0.56    0.26    5.85   0.06  11.05
sdc              94.93     4.15 1719.91   99.44 21413.94  3051.23    26.89     1.47    0.81    0.44    7.12   0.08  14.54
sdd              88.56     4.12 1725.46   99.51 21399.11  3047.53    26.79     1.47    0.81    0.43    7.33   0.08  14.64
sde              90.51     4.16 1730.45   99.60 21457.45  3051.66    26.79     1.50    0.82    0.44    7.44   0.08  14.66
sdf              87.71     4.13 1732.53   99.55 21439.20  3048.61    26.73     1.54    0.84    0.43    7.90   0.08  14.69
sdg               0.00     3.15   27.16   73.12   326.89   391.56    14.33     0.44    4.38    0.20    5.93   0.08   0.79
sdh               0.00     0.12    0.02    0.23     2.15     4.93    56.82     0.00    1.15    0.65    1.19   0.21   0.01
md0               0.00     0.00 10911.89  467.33 146845.80 20890.97    29.48     0.00    0.00    0.00    0.00   0.00   0.00

avg-cpu:  %user   %nice %system %iowait  %steal   %idle
          24.55    0.02    3.61   11.83    0.00   59.98

Device:         rrqm/s   wrqm/s     r/s     w/s    rkB/s    wkB/s avgrq-sz avgqu-sz   await r_await w_await  svctm  %util
sda               0.00     0.00 1521.75    0.00  6087.00     0.00     8.00     0.14    0.10    0.10    0.00   0.10  14.46
sdb               0.00     0.00 1560.20    0.00  6240.80     0.00     8.00     0.15    0.09    0.09    0.00   0.09  14.70
sdc               0.00     0.00 1568.85    0.00  6275.40     0.00     8.00     0.16    0.10    0.10    0.00   0.10  16.19
sdd               0.00     0.00 1534.00    0.00  6136.00     0.00     8.00     0.15    0.10    0.10    0.00   0.10  15.46
sde               0.00     0.00 1578.55    0.00  6314.20     0.00     8.00     0.17    0.10    0.10    0.00   0.10  16.52
sdf               0.00     0.00 1564.95    0.00  6259.80     0.00     8.00     0.16    0.10    0.10    0.00   0.10  16.22
sdg               0.00     0.10    3.85   73.30    46.20   387.80    11.25     0.42    5.45    0.17    5.73   0.05   0.38
sdh               0.00     0.00    0.00    0.00     0.00     0.00     0.00     0.00    0.00    0.00    0.00   0.00   0.00
md0               0.00     0.00 9328.35    0.00 37313.40     0.00     8.00     0.00    0.00    0.00    0.00   0.00   0.00

