Linux 4.17.2 (bench) 	08/04/2018 	_x86_64_	(4 CPU)

avg-cpu:  %user   %nice %system %iowait  %steal   %idle
          10.25    0.02    4.26    2.79    0.00   82.69

Device:         rrqm/s   wrqm/s     r/s     w/s    rkB/s    wkB/s avgrq-sz avgqu-sz   await r_await w_await  svctm  %util
sda              56.52     4.15 1749.57  100.37 21452.77  3071.17    26.51     1.05    0.57    0.26    5.92   0.06  11.13
sdb              56.30     4.12 1749.59  100.50 21442.35  3067.90    26.50     1.05    0.57    0.26    5.85   0.06  11.01
sdc              93.89     4.17 1709.91  100.06 21434.65  3070.31    27.08     1.47    0.81    0.44    7.12   0.08  14.51
sdd              87.49     4.14 1715.50  100.13 21419.79  3066.59    26.97     1.48    0.81    0.43    7.33   0.08  14.61
sde              89.46     4.19 1720.54  100.22 21478.64  3070.75    26.97     1.50    0.82    0.44    7.44   0.08  14.63
sdf              86.64     4.16 1722.63  100.17 21460.26  3067.68    26.91     1.54    0.85    0.44    7.90   0.08  14.66
sdg               0.00     3.16   27.04   73.19   326.69   391.83    14.34     0.44    4.38    0.20    5.93   0.08   0.79
sdh               0.00     0.13    0.02    0.23     2.16     4.96    56.82     0.00    1.15    0.65    1.19   0.21   0.01
md0               0.00     0.00 10845.78  470.25 147044.38 21021.64    29.70     0.00    0.00    0.00    0.00   0.00   0.00

avg-cpu:  %user   %nice %system %iowait  %steal   %idle
          15.08    0.03   19.81    0.23    0.00   64.85

Device:         rrqm/s   wrqm/s     r/s     w/s    rkB/s    wkB/s avgrq-sz avgqu-sz   await r_await w_await  svctm  %util
sda              12.05     0.00  183.30    0.00 11015.00     0.00   120.19     0.10    0.55    0.55    0.00   0.22   4.06
sdb              11.80     0.00  187.20    0.00 11012.20     0.00   117.65     0.11    0.57    0.57    0.00   0.21   4.00
sdc              12.05     0.00  188.30    0.00 11038.40     0.00   117.24     0.16    0.86    0.86    0.00   0.32   5.95
sdd              12.30     0.00  189.00    0.00 10951.40     0.00   115.89     0.16    0.85    0.85    0.00   0.31   5.88
sde              11.55     0.00  194.80    0.00 10975.00     0.00   112.68     0.17    0.86    0.86    0.00   0.30   5.92
sdf              11.65     0.00  187.95    0.00 11017.00     0.00   117.23     0.17    0.88    0.88    0.00   0.32   5.99
sdg               0.00     3.95   67.60  120.60   277.80   604.80     9.38     0.72    3.81    0.12    5.88   0.07   1.31
sdh               0.00     0.00    0.00    0.00     0.00     0.00     0.00     0.00    0.00    0.00    0.00   0.00   0.00
md0               0.00     0.00 1201.95    0.00 86461.80     0.00   143.87     0.00    0.00    0.00    0.00   0.00   0.00

