Linux 4.17.2 (bench) 	08/04/2018 	_x86_64_	(4 CPU)

avg-cpu:  %user   %nice %system %iowait  %steal   %idle
          10.25    0.02    4.27    2.82    0.00   82.64

Device:         rrqm/s   wrqm/s     r/s     w/s    rkB/s    wkB/s avgrq-sz avgqu-sz   await r_await w_await  svctm  %util
sda              57.71     4.14 1758.41  100.10 21460.41  3063.16    26.39     1.05    0.57    0.26    5.92   0.06  11.17
sdb              57.49     4.11 1758.43  100.24 21450.04  3059.90    26.37     1.05    0.57    0.26    5.85   0.06  11.05
sdc              94.99     4.16 1718.84   99.80 21442.36  3062.31    26.95     1.47    0.81    0.44    7.12   0.08  14.55
sdd              88.60     4.13 1724.42   99.87 21427.49  3058.59    26.84     1.48    0.81    0.43    7.33   0.08  14.64
sde              90.56     4.18 1729.43   99.96 21486.09  3062.74    26.84     1.50    0.82    0.44    7.44   0.08  14.66
sdf              87.74     4.15 1731.52   99.91 21467.79  3059.68    26.79     1.54    0.84    0.43    7.90   0.08  14.70
sdg               0.00     3.16   27.09   73.16   326.83   391.73    14.33     0.44    4.38    0.20    5.93   0.08   0.79
sdh               0.00     0.13    0.02    0.23     2.16     4.94    56.82     0.00    1.15    0.65    1.19   0.21   0.01
md0               0.00     0.00 10905.88  469.03 147050.83 20966.83    29.54     0.00    0.00    0.00    0.00   0.00   0.00

avg-cpu:  %user   %nice %system %iowait  %steal   %idle
          13.32    0.01   25.11    1.34    0.00   60.21

Device:         rrqm/s   wrqm/s     r/s     w/s    rkB/s    wkB/s avgrq-sz avgqu-sz   await r_await w_await  svctm  %util
sda               5.15     0.00  100.10    0.00  9413.60     0.00   188.08     0.05    0.48    0.48    0.00   0.34   3.44
sdb               5.45     0.00   96.50    0.00  9288.40     0.00   192.51     0.05    0.49    0.49    0.00   0.35   3.36
sdc               4.85     0.00   95.20    0.00  9196.40     0.00   193.20     0.07    0.72    0.72    0.00   0.48   4.53
sdd               5.10     0.00   95.85    0.00  9214.60     0.00   192.27     0.07    0.71    0.71    0.00   0.48   4.56
sde               5.20     0.00   99.35    0.00  9251.80     0.00   186.25     0.07    0.69    0.69    0.00   0.47   4.65
sdf               4.55     0.00  101.45    0.00  9218.80     0.00   181.74     0.07    0.70    0.70    0.00   0.46   4.64
sdg               0.00     2.95    3.10  127.10    41.60   637.00    10.42     0.76    5.87    0.23    6.00   0.05   0.61
sdh               0.00     0.00    0.00    0.00     0.00     0.00     0.00     0.00    0.00    0.00    0.00   0.00   0.00
md0               0.00     0.00  618.80    0.00 71963.00     0.00   232.59     0.00    0.00    0.00    0.00   0.00   0.00

