Linux 4.17.2 (bench) 	08/04/2018 	_x86_64_	(4 CPU)

avg-cpu:  %user   %nice %system %iowait  %steal   %idle
          10.25    0.02    4.32    2.82    0.00   82.59

Device:         rrqm/s   wrqm/s     r/s     w/s    rkB/s    wkB/s avgrq-sz avgqu-sz   await r_await w_await  svctm  %util
sda              57.69     4.13 1758.24   99.78 21433.14  3053.36    26.36     1.05    0.56    0.26    5.92   0.06  11.16
sdb              57.47     4.09 1758.27   99.92 21422.79  3050.11    26.34     1.05    0.56    0.26    5.85   0.06  11.04
sdc              94.86     4.15 1718.80   99.48 21415.13  3052.51    26.91     1.47    0.81    0.44    7.12   0.08  14.54
sdd              88.49     4.12 1724.35   99.55 21400.31  3048.80    26.81     1.48    0.81    0.43    7.33   0.08  14.63
sde              90.44     4.16 1729.34   99.64 21458.67  3052.94    26.80     1.50    0.82    0.44    7.44   0.08  14.65
sdf              87.64     4.13 1731.42   99.59 21440.43  3049.88    26.75     1.54    0.84    0.43    7.90   0.08  14.68
sdg               0.00     3.15   27.15   73.13   326.87   391.58    14.33     0.44    4.38    0.20    5.93   0.08   0.79
sdh               0.00     0.12    0.02    0.23     2.15     4.93    56.82     0.00    1.15    0.65    1.19   0.21   0.01
md0               0.00     0.00 10904.82  467.53 146860.70 20899.72    29.50     0.00    0.00    0.00    0.00   0.00   0.00

avg-cpu:  %user   %nice %system %iowait  %steal   %idle
          24.38    0.00    4.23    2.24    0.00   69.15

Device:         rrqm/s   wrqm/s     r/s     w/s    rkB/s    wkB/s avgrq-sz avgqu-sz   await r_await w_await  svctm  %util
sda               0.00     0.00 1509.00    0.00  6036.00     0.00     8.00     0.15    0.10    0.10    0.00   0.10  15.50
sdb               0.00     0.00 1496.00    0.00  5984.00     0.00     8.00     0.15    0.10    0.10    0.00   0.10  15.20
sdc               0.00     0.00 1475.00    0.00  5900.00     0.00     8.00     0.15    0.10    0.10    0.00   0.10  15.20
sdd               0.00     0.00 1570.00    0.00  6280.00     0.00     8.00     0.17    0.11    0.11    0.00   0.11  16.60
sde               0.00     0.00 1474.00    0.00  5896.00     0.00     8.00     0.13    0.09    0.09    0.00   0.09  13.10
sdf               0.00     0.00 1497.00    0.00  5988.00     0.00     8.00     0.14    0.10    0.10    0.00   0.10  14.50
sdg               0.00     0.00    4.00    5.00    76.00    28.00    23.11     0.00    0.11    0.25    0.00   0.11   0.10
sdh               0.00     0.00    0.00    0.00     0.00     0.00     0.00     0.00    0.00    0.00    0.00   0.00   0.00
md0               0.00     0.00 9022.00    0.00 36088.00     0.00     8.00     0.00    0.00    0.00    0.00   0.00   0.00

avg-cpu:  %user   %nice %system %iowait  %steal   %idle
          24.32    0.00    4.22    4.71    0.00   66.75

Device:         rrqm/s   wrqm/s     r/s     w/s    rkB/s    wkB/s avgrq-sz avgqu-sz   await r_await w_await  svctm  %util
sda               0.00     0.00 1456.00    0.00  5824.00     0.00     8.00     0.15    0.10    0.10    0.00   0.10  15.10
sdb               0.00     0.00 1491.00    0.00  5964.00     0.00     8.00     0.12    0.08    0.08    0.00   0.08  12.20
sdc               0.00     0.00 1573.00    0.00  6292.00     0.00     8.00     0.14    0.09    0.09    0.00   0.09  13.70
sdd               0.00     0.00 1540.00    0.00  6160.00     0.00     8.00     0.17    0.11    0.11    0.00   0.11  17.50
sde               0.00     0.00 1513.00    0.00  6052.00     0.00     8.00     0.15    0.10    0.10    0.00   0.10  15.30
sdf               0.00     0.00 1418.00    0.00  5672.00     0.00     8.00     0.17    0.12    0.12    0.00   0.12  16.70
sdg               0.00     0.00    0.00    0.00     0.00     0.00     0.00     0.00    0.00    0.00    0.00   0.00   0.00
sdh               0.00     0.00    0.00    0.00     0.00     0.00     0.00     0.00    0.00    0.00    0.00   0.00   0.00
md0               0.00     0.00 8991.00    0.00 35964.00     0.00     8.00     0.00    0.00    0.00    0.00   0.00   0.00

avg-cpu:  %user   %nice %system %iowait  %steal   %idle
          24.69    0.00    3.99    5.49    0.00   65.84

Device:         rrqm/s   wrqm/s     r/s     w/s    rkB/s    wkB/s avgrq-sz avgqu-sz   await r_await w_await  svctm  %util
sda               0.00     0.00 1532.00    0.00  6128.00     0.00     8.00     0.15    0.10    0.10    0.00   0.10  15.10
sdb               0.00     0.00 1508.00    0.00  6032.00     0.00     8.00     0.16    0.10    0.10    0.00   0.10  15.70
sdc               0.00     0.00 1528.00    0.00  6112.00     0.00     8.00     0.15    0.10    0.10    0.00   0.10  14.90
sdd               0.00     0.00 1491.00    0.00  5964.00     0.00     8.00     0.15    0.10    0.10    0.00   0.10  15.10
sde               0.00     0.00 1456.00    0.00  5824.00     0.00     8.00     0.14    0.10    0.10    0.00   0.10  14.30
sdf               0.00     0.00 1504.00    0.00  6016.00     0.00     8.00     0.15    0.10    0.10    0.00   0.10  14.80
sdg               0.00     0.00    0.00    0.00     0.00     0.00     0.00     0.00    0.00    0.00    0.00   0.00   0.00
sdh               0.00     0.00    0.00    0.00     0.00     0.00     0.00     0.00    0.00    0.00    0.00   0.00   0.00
md0               0.00     0.00 9020.00    0.00 36080.00     0.00     8.00     0.00    0.00    0.00    0.00   0.00   0.00

avg-cpu:  %user   %nice %system %iowait  %steal   %idle
          23.96    0.00    5.87   10.27    0.00   59.90

Device:         rrqm/s   wrqm/s     r/s     w/s    rkB/s    wkB/s avgrq-sz avgqu-sz   await r_await w_await  svctm  %util
sda               0.00     0.00 1554.00    0.00  6216.00     0.00     8.00     0.16    0.10    0.10    0.00   0.10  15.90
sdb               0.00     0.00 1525.00    0.00  6100.00     0.00     8.00     0.13    0.08    0.08    0.00   0.08  12.90
sdc               0.00     0.00 1462.00    0.00  5848.00     0.00     8.00     0.17    0.11    0.11    0.00   0.11  16.60
sdd               0.00     0.00 1562.00    0.00  6248.00     0.00     8.00     0.15    0.09    0.09    0.00   0.09  14.80
sde               0.00     0.00 1521.00    0.00  6084.00     0.00     8.00     0.15    0.10    0.10    0.00   0.10  15.00
sdf               0.00     0.00 1492.00    0.00  5968.00     0.00     8.00     0.16    0.11    0.11    0.00   0.10  15.60
sdg               0.00     0.00    0.00    0.00     0.00     0.00     0.00     0.00    0.00    0.00    0.00   0.00   0.00
sdh               0.00     0.00    0.00    0.00     0.00     0.00     0.00     0.00    0.00    0.00    0.00   0.00   0.00
md0               0.00     0.00 9115.00    0.00 36460.00     0.00     8.00     0.00    0.00    0.00    0.00   0.00   0.00

avg-cpu:  %user   %nice %system %iowait  %steal   %idle
          24.32    0.00    4.47    5.71    0.00   65.51

Device:         rrqm/s   wrqm/s     r/s     w/s    rkB/s    wkB/s avgrq-sz avgqu-sz   await r_await w_await  svctm  %util
sda               0.00     0.00 1531.00    0.00  6124.00     0.00     8.00     0.13    0.08    0.08    0.00   0.08  12.90
sdb               0.00     0.00 1478.00    0.00  5912.00     0.00     8.00     0.14    0.09    0.09    0.00   0.09  13.90
sdc               0.00     0.00 1494.00    0.00  5976.00     0.00     8.00     0.16    0.11    0.11    0.00   0.11  16.40
sdd               0.00     0.00 1543.00    0.00  6172.00     0.00     8.00     0.18    0.12    0.12    0.00   0.12  17.80
sde               0.00     0.00 1509.00    0.00  6036.00     0.00     8.00     0.14    0.09    0.09    0.00   0.09  13.70
sdf               0.00     0.00 1480.00    0.00  5920.00     0.00     8.00     0.16    0.11    0.11    0.00   0.11  15.90
sdg               0.00     0.00    0.00    0.00     0.00     0.00     0.00     0.00    0.00    0.00    0.00   0.00   0.00
sdh               0.00     0.00    0.00    0.00     0.00     0.00     0.00     0.00    0.00    0.00    0.00   0.00   0.00
md0               0.00     0.00 9036.00    0.00 36144.00     0.00     8.00     0.00    0.00    0.00    0.00   0.00   0.00

avg-cpu:  %user   %nice %system %iowait  %steal   %idle
          24.50    0.00    3.75    4.25    0.00   67.50

Device:         rrqm/s   wrqm/s     r/s     w/s    rkB/s    wkB/s avgrq-sz avgqu-sz   await r_await w_await  svctm  %util
sda               0.00     0.00 1466.00    0.00  5864.00     0.00     8.00     0.14    0.10    0.10    0.00   0.10  14.50
sdb               0.00     0.00 1459.00    0.00  5836.00     0.00     8.00     0.13    0.09    0.09    0.00   0.09  13.10
sdc               0.00     0.00 1588.00    0.00  6352.00     0.00     8.00     0.16    0.10    0.10    0.00   0.10  16.00
sdd               0.00     0.00 1495.00    0.00  5980.00     0.00     8.00     0.16    0.11    0.11    0.00   0.11  15.80
sde               0.00     0.00 1443.00    0.00  5772.00     0.00     8.00     0.14    0.10    0.10    0.00   0.10  14.20
sdf               0.00     0.00 1547.00    0.00  6188.00     0.00     8.00     0.17    0.11    0.11    0.00   0.11  17.40
sdg               0.00     0.00    0.00    0.00     0.00     0.00     0.00     0.00    0.00    0.00    0.00   0.00   0.00
sdh               0.00     0.00    0.00    0.00     0.00     0.00     0.00     0.00    0.00    0.00    0.00   0.00   0.00
md0               0.00     0.00 8997.00    0.00 35988.00     0.00     8.00     0.00    0.00    0.00    0.00   0.00   0.00

avg-cpu:  %user   %nice %system %iowait  %steal   %idle
          24.69    0.00    4.69    9.63    0.00   60.99

Device:         rrqm/s   wrqm/s     r/s     w/s    rkB/s    wkB/s avgrq-sz avgqu-sz   await r_await w_await  svctm  %util
sda               0.00     0.00 1567.00    0.00  6268.00     0.00     8.00     0.16    0.10    0.10    0.00   0.10  15.60
sdb               0.00     0.00 1511.00    0.00  6044.00     0.00     8.00     0.17    0.11    0.11    0.00   0.11  17.30
sdc               0.00     0.00 1566.00    0.00  6264.00     0.00     8.00     0.14    0.09    0.09    0.00   0.09  14.30
sdd               0.00     0.00 1472.00    0.00  5888.00     0.00     8.00     0.14    0.10    0.10    0.00   0.10  14.30
sde               0.00     0.00 1493.00    0.00  5972.00     0.00     8.00     0.15    0.10    0.10    0.00   0.10  15.30
sdf               0.00     0.00 1484.00    0.00  5936.00     0.00     8.00     0.15    0.10    0.10    0.00   0.10  15.00
sdg               0.00    19.00   75.00   80.00  1200.00  1344.00    32.83     0.31    1.99    0.17    3.69   0.14   2.20
sdh               0.00     0.00    0.00    0.00     0.00     0.00     0.00     0.00    0.00    0.00    0.00   0.00   0.00
md0               0.00     0.00 9094.00    0.00 36376.00     0.00     8.00     0.00    0.00    0.00    0.00   0.00   0.00

avg-cpu:  %user   %nice %system %iowait  %steal   %idle
          24.08    0.25    5.41   11.55    0.00   58.72

Device:         rrqm/s   wrqm/s     r/s     w/s    rkB/s    wkB/s avgrq-sz avgqu-sz   await r_await w_await  svctm  %util
sda               0.00     0.00 1470.00    0.00  5880.00     0.00     8.00     0.15    0.10    0.10    0.00   0.10  14.80
sdb               0.00     0.00 1527.00    0.00  6108.00     0.00     8.00     0.14    0.09    0.09    0.00   0.09  13.50
sdc               0.00     0.00 1550.00    0.00  6200.00     0.00     8.00     0.16    0.10    0.10    0.00   0.10  16.20
sdd               0.00     0.00 1504.00    0.00  6016.00     0.00     8.00     0.15    0.10    0.10    0.00   0.10  14.80
sde               0.00     0.00 1504.00    0.00  6016.00     0.00     8.00     0.15    0.10    0.10    0.00   0.10  15.00
sdf               0.00     0.00 1521.00    0.00  6084.00     0.00     8.00     0.16    0.11    0.11    0.00   0.11  16.40
sdg               0.00     0.00   18.00    0.00   120.00     0.00    13.33     0.00    0.17    0.17    0.00   0.17   0.30
sdh               0.00     0.00    0.00    0.00     0.00     0.00     0.00     0.00    0.00    0.00    0.00   0.00   0.00
md0               0.00     0.00 9077.00    0.00 36308.00     0.00     8.00     0.00    0.00    0.00    0.00   0.00   0.00

avg-cpu:  %user   %nice %system %iowait  %steal   %idle
          24.26    0.00    4.70   10.15    0.00   60.89

Device:         rrqm/s   wrqm/s     r/s     w/s    rkB/s    wkB/s avgrq-sz avgqu-sz   await r_await w_await  svctm  %util
sda               0.00     0.00 1526.00    0.00  6104.00     0.00     8.00     0.13    0.09    0.09    0.00   0.09  13.30
sdb               0.00     0.00 1457.00    0.00  5828.00     0.00     8.00     0.13    0.09    0.09    0.00   0.09  13.20
sdc               0.00     0.00 1527.00    0.00  6108.00     0.00     8.00     0.15    0.10    0.10    0.00   0.10  15.20
sdd               0.00     0.00 1513.00    0.00  6052.00     0.00     8.00     0.16    0.11    0.11    0.00   0.10  15.70
sde               0.00     0.00 1561.00    0.00  6244.00     0.00     8.00     0.16    0.10    0.10    0.00   0.10  15.60
sdf               0.00     0.00 1491.00    0.00  5964.00     0.00     8.00     0.18    0.12    0.12    0.00   0.12  18.50
sdg               0.00     0.00    0.00    0.00     0.00     0.00     0.00     0.00    0.00    0.00    0.00   0.00   0.00
sdh               0.00     0.00    0.00    0.00     0.00     0.00     0.00     0.00    0.00    0.00    0.00   0.00   0.00
md0               0.00     0.00 9074.00    0.00 36296.00     0.00     8.00     0.00    0.00    0.00    0.00   0.00   0.00

avg-cpu:  %user   %nice %system %iowait  %steal   %idle
          24.33    0.00    5.84   11.44    0.00   58.39

Device:         rrqm/s   wrqm/s     r/s     w/s    rkB/s    wkB/s avgrq-sz avgqu-sz   await r_await w_await  svctm  %util
sda               0.00     0.00 1616.00    0.00  6464.00     0.00     8.00     0.17    0.11    0.11    0.00   0.11  17.50
sdb               0.00     0.00 1537.00    0.00  6148.00     0.00     8.00     0.14    0.09    0.09    0.00   0.09  14.30
sdc               0.00     0.00 1460.00    0.00  5840.00     0.00     8.00     0.14    0.09    0.09    0.00   0.10  13.90
sdd               0.00     0.00 1468.00    0.00  5872.00     0.00     8.00     0.16    0.11    0.11    0.00   0.11  16.20
sde               0.00     0.00 1495.00    0.00  5980.00     0.00     8.00     0.14    0.09    0.09    0.00   0.09  13.90
sdf               0.00     0.00 1535.00    0.00  6140.00     0.00     8.00     0.16    0.11    0.11    0.00   0.11  16.30
sdg               0.00     0.00    0.00    0.00     0.00     0.00     0.00     0.00    0.00    0.00    0.00   0.00   0.00
sdh               0.00     0.00    0.00    0.00     0.00     0.00     0.00     0.00    0.00    0.00    0.00   0.00   0.00
md0               0.00     0.00 9111.00    0.00 36444.00     0.00     8.00     0.00    0.00    0.00    0.00   0.00   0.00

avg-cpu:  %user   %nice %system %iowait  %steal   %idle
          24.32    0.00    5.16   10.81    0.00   59.71

Device:         rrqm/s   wrqm/s     r/s     w/s    rkB/s    wkB/s avgrq-sz avgqu-sz   await r_await w_await  svctm  %util
sda               0.00     0.00 1584.00    0.00  6336.00     0.00     8.00     0.16    0.10    0.10    0.00   0.10  15.70
sdb               0.00     0.00 1518.00    0.00  6072.00     0.00     8.00     0.13    0.08    0.08    0.00   0.08  12.60
sdc               0.00     0.00 1548.00    0.00  6192.00     0.00     8.00     0.17    0.11    0.11    0.00   0.11  17.10
sdd               0.00     0.00 1464.00    0.00  5856.00     0.00     8.00     0.17    0.12    0.12    0.00   0.12  17.30
sde               0.00     0.00 1492.00    0.00  5968.00     0.00     8.00     0.15    0.10    0.10    0.00   0.10  15.30
sdf               0.00     0.00 1497.00    0.00  5988.00     0.00     8.00     0.15    0.10    0.10    0.00   0.10  14.70
sdg               0.00     0.00    0.00    0.00     0.00     0.00     0.00     0.00    0.00    0.00    0.00   0.00   0.00
sdh               0.00     0.00    0.00    0.00     0.00     0.00     0.00     0.00    0.00    0.00    0.00   0.00   0.00
md0               0.00     0.00 9102.00    0.00 36408.00     0.00     8.00     0.00    0.00    0.00    0.00   0.00   0.00

avg-cpu:  %user   %nice %system %iowait  %steal   %idle
          24.39    0.00    5.61   11.46    0.00   58.54

Device:         rrqm/s   wrqm/s     r/s     w/s    rkB/s    wkB/s avgrq-sz avgqu-sz   await r_await w_await  svctm  %util
sda               0.00     0.00 1502.00    0.00  6008.00     0.00     8.00     0.14    0.10    0.10    0.00   0.10  14.30
sdb               0.00     0.00 1542.00    0.00  6168.00     0.00     8.00     0.16    0.10    0.10    0.00   0.10  15.80
sdc               0.00     0.00 1569.00    0.00  6276.00     0.00     8.00     0.17    0.11    0.11    0.00   0.11  17.10
sdd               0.00     0.00 1541.00    0.00  6164.00     0.00     8.00     0.15    0.10    0.10    0.00   0.10  14.90
sde               0.00     0.00 1485.00    0.00  5940.00     0.00     8.00     0.15    0.10    0.10    0.00   0.10  15.40
sdf               0.00     0.00 1459.00    0.00  5836.00     0.00     8.00     0.15    0.10    0.10    0.00   0.10  15.10
sdg               0.00     0.00    0.00    0.00     0.00     0.00     0.00     0.00    0.00    0.00    0.00   0.00   0.00
sdh               0.00     0.00    0.00    0.00     0.00     0.00     0.00     0.00    0.00    0.00    0.00   0.00   0.00
md0               0.00     0.00 9098.00    0.00 36392.00     0.00     8.00     0.00    0.00    0.00    0.00   0.00   0.00

avg-cpu:  %user   %nice %system %iowait  %steal   %idle
          23.76    0.00    5.20    9.16    0.00   61.88

Device:         rrqm/s   wrqm/s     r/s     w/s    rkB/s    wkB/s avgrq-sz avgqu-sz   await r_await w_await  svctm  %util
sda               0.00     0.00 1478.00    0.00  5912.00     0.00     8.00     0.12    0.08    0.08    0.00   0.08  12.30
sdb               0.00     0.00 1544.00    0.00  6176.00     0.00     8.00     0.12    0.08    0.08    0.00   0.08  12.50
sdc               0.00     0.00 1594.00    0.00  6376.00     0.00     8.00     0.17    0.11    0.11    0.00   0.11  17.40
sdd               0.00     0.00 1496.00    0.00  5984.00     0.00     8.00     0.16    0.11    0.11    0.00   0.11  16.20
sde               0.00     0.00 1496.00    0.00  5984.00     0.00     8.00     0.17    0.11    0.11    0.00   0.11  16.70
sdf               0.00     0.00 1473.00    0.00  5892.00     0.00     8.00     0.15    0.10    0.10    0.00   0.10  15.40
sdg               0.00     8.00   12.00 1336.00    48.00  6896.00    10.30     8.02    5.95    1.17    5.99   0.05   6.60
sdh               0.00     0.00    0.00    0.00     0.00     0.00     0.00     0.00    0.00    0.00    0.00   0.00   0.00
md0               0.00     0.00 9081.00    0.00 36324.00     0.00     8.00     0.00    0.00    0.00    0.00   0.00   0.00

avg-cpu:  %user   %nice %system %iowait  %steal   %idle
          23.96    0.00    5.87   11.00    0.00   59.17

Device:         rrqm/s   wrqm/s     r/s     w/s    rkB/s    wkB/s avgrq-sz avgqu-sz   await r_await w_await  svctm  %util
sda               0.00     0.00 1487.00    0.00  5948.00     0.00     8.00     0.15    0.10    0.10    0.00   0.10  15.00
sdb               0.00     0.00 1568.00    0.00  6272.00     0.00     8.00     0.14    0.09    0.09    0.00   0.09  14.40
sdc               0.00     0.00 1498.00    0.00  5992.00     0.00     8.00     0.15    0.10    0.10    0.00   0.10  15.10
sdd               0.00     0.00 1497.00    0.00  5988.00     0.00     8.00     0.15    0.10    0.10    0.00   0.10  15.00
sde               0.00     0.00 1527.00    0.00  6108.00     0.00     8.00     0.16    0.11    0.11    0.00   0.11  16.20
sdf               0.00     0.00 1540.00    0.00  6160.00     0.00     8.00     0.16    0.11    0.11    0.00   0.11  16.30
sdg               0.00     0.00    0.00    0.00     0.00     0.00     0.00     0.00    0.00    0.00    0.00   0.00   0.00
sdh               0.00     0.00    0.00    0.00     0.00     0.00     0.00     0.00    0.00    0.00    0.00   0.00   0.00
md0               0.00     0.00 9118.00    0.00 36472.00     0.00     8.00     0.00    0.00    0.00    0.00   0.00   0.00

avg-cpu:  %user   %nice %system %iowait  %steal   %idle
          24.38    0.00    5.17   10.59    0.00   59.85

Device:         rrqm/s   wrqm/s     r/s     w/s    rkB/s    wkB/s avgrq-sz avgqu-sz   await r_await w_await  svctm  %util
sda               0.00     0.00 1507.00    0.00  6028.00     0.00     8.00     0.14    0.09    0.09    0.00   0.09  14.00
sdb               0.00     0.00 1493.00    0.00  5972.00     0.00     8.00     0.15    0.10    0.10    0.00   0.10  15.40
sdc               0.00     0.00 1543.00    0.00  6172.00     0.00     8.00     0.16    0.10    0.10    0.00   0.10  15.70
sdd               0.00     0.00 1505.00    0.00  6020.00     0.00     8.00     0.14    0.09    0.09    0.00   0.09  14.10
sde               0.00     0.00 1586.00    0.00  6344.00     0.00     8.00     0.16    0.10    0.10    0.00   0.10  15.70
sdf               0.00     0.00 1462.00    0.00  5848.00     0.00     8.00     0.17    0.11    0.11    0.00   0.11  16.60
sdg               0.00     0.00    0.00    0.00     0.00     0.00     0.00     0.00    0.00    0.00    0.00   0.00   0.00
sdh               0.00     0.00    0.00    0.00     0.00     0.00     0.00     0.00    0.00    0.00    0.00   0.00   0.00
md0               0.00     0.00 9095.00    0.00 36380.00     0.00     8.00     0.00    0.00    0.00    0.00   0.00   0.00

avg-cpu:  %user   %nice %system %iowait  %steal   %idle
          23.90    0.00    6.10   10.49    0.00   59.51

Device:         rrqm/s   wrqm/s     r/s     w/s    rkB/s    wkB/s avgrq-sz avgqu-sz   await r_await w_await  svctm  %util
sda               0.00     0.00 1467.00    0.00  5868.00     0.00     8.00     0.14    0.10    0.10    0.00   0.10  14.10
sdb               0.00     0.00 1574.00    0.00  6296.00     0.00     8.00     0.16    0.10    0.10    0.00   0.10  15.90
sdc               0.00     0.00 1560.00    0.00  6240.00     0.00     8.00     0.15    0.10    0.10    0.00   0.10  15.50
sdd               0.00     0.00 1517.00    0.00  6068.00     0.00     8.00     0.15    0.10    0.10    0.00   0.10  14.60
sde               0.00     0.00 1506.00    0.00  6024.00     0.00     8.00     0.16    0.11    0.11    0.00   0.11  16.30
sdf               0.00     0.00 1499.00    0.00  5996.00     0.00     8.00     0.14    0.09    0.09    0.00   0.09  13.60
sdg               0.00     0.00    0.00    0.00     0.00     0.00     0.00     0.00    0.00    0.00    0.00   0.00   0.00
sdh               0.00     0.00    0.00    0.00     0.00     0.00     0.00     0.00    0.00    0.00    0.00   0.00   0.00
md0               0.00     0.00 9124.00    0.00 36496.00     0.00     8.00     0.00    0.00    0.00    0.00   0.00   0.00

avg-cpu:  %user   %nice %system %iowait  %steal   %idle
          24.21    0.00    5.38   11.00    0.00   59.41

Device:         rrqm/s   wrqm/s     r/s     w/s    rkB/s    wkB/s avgrq-sz avgqu-sz   await r_await w_await  svctm  %util
sda               0.00     0.00 1481.00    0.00  5924.00     0.00     8.00     0.15    0.10    0.10    0.00   0.10  14.60
sdb               0.00     0.00 1603.00    0.00  6412.00     0.00     8.00     0.17    0.11    0.11    0.00   0.11  17.10
sdc               0.00     0.00 1543.00    0.00  6172.00     0.00     8.00     0.17    0.11    0.11    0.00   0.11  16.50
sdd               0.00     0.00 1507.00    0.00  6028.00     0.00     8.00     0.15    0.10    0.10    0.00   0.10  14.60
sde               0.00     0.00 1464.00    0.00  5856.00     0.00     8.00     0.13    0.09    0.09    0.00   0.09  13.20
sdf               0.00     0.00 1515.00    0.00  6060.00     0.00     8.00     0.16    0.10    0.10    0.00   0.10  15.80
sdg               0.00     0.00    0.00    0.00     0.00     0.00     0.00     0.00    0.00    0.00    0.00   0.00   0.00
sdh               0.00     0.00    0.00    0.00     0.00     0.00     0.00     0.00    0.00    0.00    0.00   0.00   0.00
md0               0.00     0.00 9113.00    0.00 36452.00     0.00     8.00     0.00    0.00    0.00    0.00   0.00   0.00

avg-cpu:  %user   %nice %system %iowait  %steal   %idle
          24.26    0.25    5.20   10.15    0.00   60.15

Device:         rrqm/s   wrqm/s     r/s     w/s    rkB/s    wkB/s avgrq-sz avgqu-sz   await r_await w_await  svctm  %util
sda               0.00     0.00 1490.00    0.00  5960.00     0.00     8.00     0.14    0.09    0.09    0.00   0.09  13.60
sdb               0.00     0.00 1479.00    0.00  5916.00     0.00     8.00     0.13    0.09    0.09    0.00   0.09  12.70
sdc               0.00     0.00 1568.00    0.00  6272.00     0.00     8.00     0.15    0.09    0.09    0.00   0.09  14.70
sdd               0.00     0.00 1493.00    0.00  5972.00     0.00     8.00     0.18    0.12    0.12    0.00   0.12  17.60
sde               0.00     0.00 1502.00    0.00  6008.00     0.00     8.00     0.17    0.11    0.11    0.00   0.11  16.80
sdf               0.00     0.00 1517.00    0.00  6068.00     0.00     8.00     0.15    0.10    0.10    0.00   0.10  15.50
sdg               0.00     0.00 1325.00    0.00  5300.00     0.00     8.00     0.15    0.11    0.11    0.00   0.11  15.10
sdh               0.00     0.00    0.00    0.00     0.00     0.00     0.00     0.00    0.00    0.00    0.00   0.00   0.00
md0               0.00     0.00 9048.00    0.00 36192.00     0.00     8.00     0.00    0.00    0.00    0.00   0.00   0.00

avg-cpu:  %user   %nice %system %iowait  %steal   %idle
          24.32    0.00    5.16   11.30    0.00   59.21

Device:         rrqm/s   wrqm/s     r/s     w/s    rkB/s    wkB/s avgrq-sz avgqu-sz   await r_await w_await  svctm  %util
sda               0.00     0.00 1570.00    0.00  6280.00     0.00     8.00     0.15    0.10    0.10    0.00   0.10  15.10
sdb               0.00     0.00 1540.00    0.00  6160.00     0.00     8.00     0.14    0.09    0.09    0.00   0.09  14.30
sdc               0.00     0.00 1467.00    0.00  5868.00     0.00     8.00     0.16    0.11    0.11    0.00   0.11  16.00
sdd               0.00     0.00 1538.00    0.00  6152.00     0.00     8.00     0.15    0.10    0.10    0.00   0.10  15.50
sde               0.00     0.00 1501.00    0.00  6004.00     0.00     8.00     0.16    0.10    0.10    0.00   0.10  15.60
sdf               0.00     0.00 1480.00    0.00  5920.00     0.00     8.00     0.15    0.10    0.10    0.00   0.10  15.10
sdg               0.00     0.00    0.00    0.00     0.00     0.00     0.00     0.00    0.00    0.00    0.00   0.00   0.00
sdh               0.00     0.00    0.00    0.00     0.00     0.00     0.00     0.00    0.00    0.00    0.00   0.00   0.00
md0               0.00     0.00 9097.00    0.00 36388.00     0.00     8.00     0.00    0.00    0.00    0.00   0.00   0.00

avg-cpu:  %user   %nice %system %iowait  %steal   %idle
          24.26    0.00    5.39   10.29    0.00   60.05

Device:         rrqm/s   wrqm/s     r/s     w/s    rkB/s    wkB/s avgrq-sz avgqu-sz   await r_await w_await  svctm  %util
sda               0.00     0.00 1490.00    0.00  5960.00     0.00     8.00     0.15    0.10    0.10    0.00   0.10  15.50
sdb               0.00     0.00 1513.00    0.00  6052.00     0.00     8.00     0.15    0.10    0.10    0.00   0.10  15.00
sdc               0.00     0.00 1535.00    0.00  6140.00     0.00     8.00     0.15    0.10    0.10    0.00   0.10  15.40
sdd               0.00     0.00 1479.00    0.00  5916.00     0.00     8.00     0.16    0.11    0.11    0.00   0.11  15.90
sde               0.00     0.00 1513.00    0.00  6052.00     0.00     8.00     0.13    0.09    0.09    0.00   0.09  13.10
sdf               0.00     0.00 1544.00    0.00  6176.00     0.00     8.00     0.16    0.11    0.11    0.00   0.11  16.40
sdg               0.00     0.00    0.00    0.00     0.00     0.00     0.00     0.00    0.00    0.00    0.00   0.00   0.00
sdh               0.00     0.00    0.00    0.00     0.00     0.00     0.00     0.00    0.00    0.00    0.00   0.00   0.00
md0               0.00     0.00 9074.00    0.00 36296.00     0.00     8.00     0.00    0.00    0.00    0.00   0.00   0.00

