Linux 4.17.2 (bench) 	08/04/2018 	_x86_64_	(4 CPU)

avg-cpu:  %user   %nice %system %iowait  %steal   %idle
          10.25    0.02    4.29    2.82    0.00   82.62

Device:         rrqm/s   wrqm/s     r/s     w/s    rkB/s    wkB/s avgrq-sz avgqu-sz   await r_await w_await  svctm  %util
sda              57.65     4.14 1758.39  100.00 21451.36  3059.80    26.38     1.05    0.57    0.26    5.92   0.06  11.17
sdb              57.44     4.10 1758.41  100.13 21440.98  3056.55    26.36     1.05    0.56    0.26    5.85   0.06  11.05
sdc              94.90     4.16 1718.87   99.69 21433.31  3058.95    26.94     1.47    0.81    0.44    7.12   0.08  14.54
sdd              88.51     4.13 1724.44   99.76 21418.46  3055.24    26.83     1.48    0.81    0.43    7.33   0.08  14.64
sde              90.47     4.17 1729.44   99.85 21476.98  3059.38    26.83     1.50    0.82    0.44    7.44   0.08  14.66
sdf              87.66     4.14 1731.52   99.80 21458.70  3056.32    26.77     1.54    0.84    0.43    7.90   0.08  14.69
sdg               0.00     3.16   27.11   73.15   326.83   391.68    14.33     0.44    4.38    0.20    5.93   0.08   0.79
sdh               0.00     0.13    0.02    0.23     2.16     4.94    56.82     0.00    1.15    0.65    1.19   0.21   0.01
md0               0.00     0.00 10905.42  468.51 146987.89 20943.83    29.53     0.00    0.00    0.00    0.00   0.00   0.00

avg-cpu:  %user   %nice %system %iowait  %steal   %idle
          19.04    0.00   12.69   11.42    0.00   56.85

Device:         rrqm/s   wrqm/s     r/s     w/s    rkB/s    wkB/s avgrq-sz avgqu-sz   await r_await w_await  svctm  %util
sda             315.00     0.00  359.00    0.00 166532.00     0.00   927.75     0.92    2.57    2.57    0.00   1.35  48.50
sdb             311.00     0.00  361.00    0.00 166448.00     0.00   922.15     0.94    2.59    2.59    0.00   1.35  48.60
sdc             312.00     0.00  376.00    0.00 165732.00     0.00   881.55     1.81    4.81    4.81    0.00   2.10  79.10
sdd             316.00     0.00  357.00    0.00 166096.00     0.00   930.51     1.80    5.03    5.03    0.00   2.21  79.00
sde             313.00     0.00  356.00    0.00 164984.00     0.00   926.88     1.79    5.01    5.01    0.00   2.22  79.20
sdf             309.00     0.00  387.00    0.00 165264.00     0.00   854.08     1.89    4.86    4.86    0.00   2.06  79.60
sdg               0.00     0.00    0.00    0.00     0.00     0.00     0.00     0.00    0.00    0.00    0.00   0.00   0.00
sdh               0.00     0.00    0.00    0.00     0.00     0.00     0.00     0.00    0.00    0.00    0.00   0.00   0.00
md0               0.00     0.00 4075.00    0.00 1435476.00     0.00   704.53     0.00    0.00    0.00    0.00   0.00   0.00

