Linux 4.17.2 (bench) 	08/03/2018 	_x86_64_	(4 CPU)

avg-cpu:  %user   %nice %system %iowait  %steal   %idle
          10.25    0.02    4.20    2.76    0.00   82.78

Device:         rrqm/s   wrqm/s     r/s     w/s    rkB/s    wkB/s avgrq-sz avgqu-sz   await r_await w_await  svctm  %util
sda              55.48     4.18 1741.14  100.86 21464.37  3086.28    26.66     1.05    0.57    0.26    5.92   0.06  11.10
sdb              55.27     4.14 1741.16  101.00 21453.88  3083.00    26.64     1.05    0.57    0.26    5.85   0.06  10.98
sdc              93.04     4.19 1701.29  100.55 21446.13  3085.42    27.23     1.47    0.82    0.44    7.12   0.08  14.49
sdd              86.60     4.16 1706.92  100.62 21431.23  3081.68    27.12     1.48    0.82    0.43    7.33   0.08  14.58
sde              88.58     4.21 1712.00  100.72 21490.46  3085.86    27.12     1.50    0.83    0.44    7.44   0.08  14.61
sdf              85.74     4.18 1714.10  100.66 21472.02  3082.77    27.06     1.54    0.85    0.44    7.90   0.08  14.64
sdg               0.00     3.16   26.94   73.25   326.55   392.04    14.34     0.44    4.39    0.20    5.93   0.08   0.79
sdh               0.00     0.13    0.02    0.23     2.17     4.98    56.82     0.00    1.15    0.65    1.19   0.21   0.01
md0               0.00     0.00 10789.00  472.57 147171.42 21125.06    29.89     0.00    0.00    0.00    0.00   0.00   0.00

avg-cpu:  %user   %nice %system %iowait  %steal   %idle
          24.92    0.01    1.81    4.17    0.00   69.09

Device:         rrqm/s   wrqm/s     r/s     w/s    rkB/s    wkB/s avgrq-sz avgqu-sz   await r_await w_await  svctm  %util
sda               0.00     0.00 1560.25    0.00  6241.00     0.00     8.00     0.15    0.10    0.10    0.00   0.10  14.85
sdb               0.00     0.00 1562.15    0.00  6248.60     0.00     8.00     0.15    0.10    0.10    0.00   0.10  14.90
sdc               0.00     0.00 1573.85    0.00  6295.40     0.00     8.00     0.16    0.10    0.10    0.00   0.10  16.17
sdd               0.00     0.00 1550.55    0.00  6202.20     0.00     8.00     0.16    0.11    0.11    0.00   0.11  16.30
sde               0.00     0.00 1564.05    0.00  6256.20     0.00     8.00     0.16    0.10    0.10    0.00   0.10  15.64
sdf               0.00     0.00 1558.65    0.00  6234.60     0.00     8.00     0.16    0.10    0.10    0.00   0.10  16.12
sdg               0.00     0.90    1.60    4.45    13.60    76.60    29.82     0.01    2.23    0.62    2.81   0.21   0.13
sdh               0.00     0.00    0.00    0.00     0.00     0.00     0.00     0.00    0.00    0.00    0.00   0.00   0.00
md0               0.00     0.00 9369.60    0.00 37478.40     0.00     8.00     0.00    0.00    0.00    0.00   0.00   0.00

