Linux 4.17.2 (bench) 	08/04/2018 	_x86_64_	(4 CPU)

avg-cpu:  %user   %nice %system %iowait  %steal   %idle
          10.25    0.02    4.33    2.86    0.00   82.55

Device:         rrqm/s   wrqm/s     r/s     w/s    rkB/s    wkB/s avgrq-sz avgqu-sz   await r_await w_await  svctm  %util
sda              58.85     4.12 1767.14   99.61 21448.14  3047.87    26.24     1.05    0.56    0.26    5.92   0.06  11.20
sdb              58.64     4.08 1767.16   99.74 21437.79  3044.63    26.23     1.05    0.56    0.26    5.85   0.06  11.08
sdc              95.96     4.14 1727.77   99.30 21430.17  3047.02    26.79     1.47    0.80    0.44    7.12   0.08  14.57
sdd              89.60     4.11 1733.31   99.37 21415.35  3043.33    26.69     1.48    0.81    0.43    7.33   0.08  14.67
sde              91.55     4.15 1738.28   99.46 21473.56  3047.46    26.69     1.50    0.81    0.44    7.44   0.08  14.69
sdf              88.74     4.13 1740.35   99.41 21455.34  3044.41    26.63     1.54    0.84    0.43    7.90   0.08  14.72
sdg               0.00     3.15   27.18   73.10   326.93   391.51    14.33     0.44    4.38    0.20    5.93   0.08   0.79
sdh               0.00     0.12    0.02    0.23     2.15     4.92    56.82     0.00    1.15    0.65    1.19   0.21   0.01
md0               0.00     0.00 10965.13  466.69 146917.81 20862.18    29.35     0.00    0.00    0.00    0.00   0.00   0.00

avg-cpu:  %user   %nice %system %iowait  %steal   %idle
          18.34    0.01   20.38    3.20    0.00   58.07

Device:         rrqm/s   wrqm/s     r/s     w/s    rkB/s    wkB/s avgrq-sz avgqu-sz   await r_await w_await  svctm  %util
sda               0.40     0.00  712.50    0.00 14471.60     0.00    40.62     0.29    0.40    0.40    0.00   0.12   8.43
sdb               0.35     0.00  707.40    0.00 14487.20     0.00    40.96     0.27    0.38    0.38    0.00   0.11   8.07
sdc               0.75     0.00  719.10    0.00 14625.80     0.00    40.68     0.41    0.57    0.57    0.00   0.14  10.05
sdd               0.70     0.00  717.95    0.00 14540.00     0.00    40.50     0.39    0.54    0.54    0.00   0.14  10.13
sde               0.90     0.00  723.90    0.00 14283.20     0.00    39.46     0.41    0.57    0.57    0.00   0.14  10.10
sdf               0.85     0.00  704.85    0.00 14348.40     0.00    40.71     0.39    0.56    0.56    0.00   0.14  10.00
sdg               0.00     0.15    0.65   71.95     7.00   370.20    10.39     0.43    5.98    0.08    6.03   0.04   0.33
sdh               0.00     0.00    0.00    0.00     0.00     0.00     0.00     0.00    0.00    0.00    0.00   0.00   0.00
md0               0.00     0.00 4289.65    0.00 91692.60     0.00    42.75     0.00    0.00    0.00    0.00   0.00   0.00

