Linux 4.17.2 (bench) 	08/04/2018 	_x86_64_	(4 CPU)

avg-cpu:  %user   %nice %system %iowait  %steal   %idle
          10.24    0.02    4.38    2.86    0.00   82.50

Device:         rrqm/s   wrqm/s     r/s     w/s    rkB/s    wkB/s avgrq-sz avgqu-sz   await r_await w_await  svctm  %util
sda              58.77     4.11 1766.95   99.27 21420.24  3037.67    26.21     1.05    0.56    0.26    5.92   0.06  11.20
sdb              58.56     4.07 1766.96   99.41 21409.93  3034.43    26.19     1.05    0.56    0.26    5.85   0.06  11.07
sdc              95.77     4.13 1727.69   98.97 21402.33  3036.82    26.76     1.47    0.80    0.44    7.12   0.08  14.56
sdd              89.43     4.10 1733.21   99.04 21387.56  3033.14    26.66     1.47    0.80    0.43    7.33   0.08  14.66
sde              91.37     4.14 1738.16   99.13 21445.51  3037.25    26.65     1.49    0.81    0.43    7.44   0.08  14.68
sdf              88.57     4.11 1740.22   99.08 21427.35  3034.21    26.60     1.54    0.84    0.43    7.90   0.08  14.71
sdg               0.00     3.15   27.24   73.06   327.00   391.35    14.32     0.44    4.37    0.20    5.93   0.08   0.79
sdh               0.00     0.12    0.02    0.23     2.14     4.90    56.82     0.00    1.15    0.65    1.19   0.21   0.01
md0               0.00     0.00 10963.50  465.12 146722.50 20792.31    29.31     0.00    0.00    0.00    0.00   0.00   0.00

avg-cpu:  %user   %nice %system %iowait  %steal   %idle
          18.04    0.00   14.95    1.80    0.00   65.21

Device:         rrqm/s   wrqm/s     r/s     w/s    rkB/s    wkB/s avgrq-sz avgqu-sz   await r_await w_await  svctm  %util
sda             276.00     0.00  337.00    0.00 149584.00     0.00   887.74     0.80    2.38    2.38    0.00   1.27  42.90
sdb             282.00     0.00  314.00    0.00 149776.00     0.00   953.99     0.83    2.64    2.64    0.00   1.40  44.00
sdc             279.00     0.00  309.00    0.00 149708.00     0.00   968.98     1.48    4.80    4.80    0.00   2.31  71.40
sdd             275.00     0.00  347.00    0.00 149628.00     0.00   862.41     1.55    4.48    4.48    0.00   2.12  73.40
sde             279.00     0.00  314.00    0.00 149792.00     0.00   954.09     1.47    4.68    4.68    0.00   2.29  71.90
sdf             282.00     0.00  317.00    0.00 149124.00     0.00   940.85     1.48    4.67    4.67    0.00   2.26  71.80
sdg               0.00    17.00   24.00   63.00   384.00  1236.00    37.24     0.16    1.82    0.21    2.43   0.11   1.00
sdh               0.00     0.00    0.00    0.00     0.00     0.00     0.00     0.00    0.00    0.00    0.00   0.00   0.00
md0               0.00     0.00 3621.00    0.00 1405068.00     0.00   776.07     0.00    0.00    0.00    0.00   0.00   0.00

avg-cpu:  %user   %nice %system %iowait  %steal   %idle
          18.11    0.00   15.05    1.79    0.00   65.05

Device:         rrqm/s   wrqm/s     r/s     w/s    rkB/s    wkB/s avgrq-sz avgqu-sz   await r_await w_await  svctm  %util
sda             270.00     0.00  330.00    0.00 142100.00     0.00   861.21     0.72    2.15    2.15    0.00   1.22  40.40
sdb             255.00     0.00  347.00    0.00 142184.00     0.00   819.50     0.75    2.14    2.14    0.00   1.20  41.80
sdc             271.00     0.00  303.00    0.00 142744.00     0.00   942.20     1.34    4.37    4.37    0.00   2.21  67.10
sdd             265.00     0.00  319.00    0.00 142388.00     0.00   892.71     1.41    4.37    4.37    0.00   2.11  67.40
sde             259.00     0.00  343.00    0.00 140760.00     0.00   820.76     1.37    3.96    3.96    0.00   1.95  66.90
sdf             268.00     0.00  314.00    0.00 141436.00     0.00   900.87     1.31    4.14    4.14    0.00   2.12  66.60
sdg               0.00     0.00    0.00    0.00     0.00     0.00     0.00     0.00    0.00    0.00    0.00   0.00   0.00
sdh               0.00     0.00    0.00    0.00     0.00     0.00     0.00     0.00    0.00    0.00    0.00   0.00   0.00
md0               0.00     0.00 3549.00    0.00 1308688.00     0.00   737.50     0.00    0.00    0.00    0.00   0.00   0.00

