Linux 4.17.2 (bench) 	08/04/2018 	_x86_64_	(4 CPU)

avg-cpu:  %user   %nice %system %iowait  %steal   %idle
          10.25    0.02    4.27    2.82    0.00   82.64

Device:         rrqm/s   wrqm/s     r/s     w/s    rkB/s    wkB/s avgrq-sz avgqu-sz   await r_await w_await  svctm  %util
sda              57.72     4.15 1758.34  100.13 21462.75  3063.99    26.39     1.05    0.57    0.26    5.92   0.06  11.17
sdb              57.51     4.11 1758.36  100.27 21452.37  3060.73    26.38     1.05    0.57    0.26    5.85   0.06  11.05
sdc              95.02     4.16 1718.76   99.83 21444.69  3063.14    26.95     1.47    0.81    0.44    7.12   0.08  14.55
sdd              88.63     4.13 1724.34   99.90 21429.82  3059.42    26.85     1.48    0.81    0.43    7.33   0.08  14.64
sde              90.58     4.18 1729.35   99.99 21488.44  3063.57    26.84     1.50    0.82    0.44    7.44   0.08  14.66
sdf              87.77     4.15 1731.44   99.94 21470.13  3060.51    26.79     1.54    0.84    0.43    7.90   0.08  14.69
sdg               0.00     3.16   27.08   73.17   326.81   391.74    14.33     0.44    4.38    0.20    5.93   0.08   0.79
sdh               0.00     0.13    0.02    0.23     2.16     4.94    56.82     0.00    1.15    0.65    1.19   0.21   0.01
md0               0.00     0.00 10905.56  469.15 147068.13 20972.52    29.55     0.00    0.00    0.00    0.00   0.00   0.00

avg-cpu:  %user   %nice %system %iowait  %steal   %idle
           4.88    0.00   15.94    3.86    0.00   75.32

Device:         rrqm/s   wrqm/s     r/s     w/s    rkB/s    wkB/s avgrq-sz avgqu-sz   await r_await w_await  svctm  %util
sda             282.00     0.00  330.00    0.00 148708.00     0.00   901.26     0.79    2.40    2.40    0.00   1.27  42.00
sdb             277.00     0.00  335.00    0.00 148388.00     0.00   885.90     0.83    2.48    2.48    0.00   1.30  43.50
sdc             283.00     0.00  321.00    0.00 147808.00     0.00   920.92     1.44    4.44    4.44    0.00   2.21  70.80
sdd             279.00     0.00  327.00    0.00 148220.00     0.00   906.54     1.45    4.39    4.39    0.00   2.17  71.00
sde             279.00     0.00  325.00    0.00 148160.00     0.00   911.75     1.42    4.34    4.34    0.00   2.16  70.10
sdf             281.00     0.00  315.00    0.00 148228.00     0.00   941.13     1.46    4.60    4.60    0.00   2.24  70.50
sdg               0.00     0.00    0.00    0.00     0.00     0.00     0.00     0.00    0.00    0.00    0.00   0.00   0.00
sdh               0.00     0.00    0.00    0.00     0.00     0.00     0.00     0.00    0.00    0.00    0.00   0.00   0.00
md0               0.00     0.00 3635.00    0.00 1272976.00     0.00   700.40     0.00    0.00    0.00    0.00   0.00   0.00

avg-cpu:  %user   %nice %system %iowait  %steal   %idle
           4.39    0.00   14.99    4.65    0.00   75.97

Device:         rrqm/s   wrqm/s     r/s     w/s    rkB/s    wkB/s avgrq-sz avgqu-sz   await r_await w_await  svctm  %util
sda             261.00     0.00  322.00    0.00 138888.00     0.00   862.66     0.76    2.36    2.36    0.00   1.24  40.00
sdb             259.00     0.00  313.00    0.00 138980.00     0.00   888.05     0.78    2.48    2.48    0.00   1.27  39.80
sdc             258.00     0.00  304.00    0.00 140428.00     0.00   923.87     1.39    4.60    4.60    0.00   2.19  66.50
sdd             259.00     0.00  323.00    0.00 140240.00     0.00   868.36     1.42    4.43    4.43    0.00   2.05  66.20
sde             259.00     0.00  318.00    0.00 139892.00     0.00   879.82     1.37    4.35    4.35    0.00   2.07  65.80
sdf             258.00     0.00  318.00    0.00 140008.00     0.00   880.55     1.37    4.35    4.35    0.00   2.08  66.00
sdg               0.00     0.00    0.00    0.00     0.00     0.00     0.00     0.00    0.00    0.00    0.00   0.00   0.00
sdh               0.00     0.00    0.00    0.00     0.00     0.00     0.00     0.00    0.00    0.00    0.00   0.00   0.00
md0               0.00     0.00 3445.00    0.00 1263492.00     0.00   733.52     0.00    0.00    0.00    0.00   0.00   0.00

