Linux 4.17.2 (bench) 	08/04/2018 	_x86_64_	(4 CPU)

avg-cpu:  %user   %nice %system %iowait  %steal   %idle
          10.24    0.02    4.35    2.86    0.00   82.53

Device:         rrqm/s   wrqm/s     r/s     w/s    rkB/s    wkB/s avgrq-sz avgqu-sz   await r_await w_await  svctm  %util
sda              58.75     4.12 1767.15   99.42 21431.83  3042.06    26.22     1.05    0.56    0.26    5.92   0.06  11.20
sdb              58.54     4.08 1767.16   99.55 21421.50  3038.83    26.21     1.05    0.56    0.26    5.85   0.06  11.08
sdc              95.79     4.13 1727.84   99.11 21413.89  3041.22    26.77     1.47    0.80    0.44    7.12   0.08  14.57
sdd              89.44     4.10 1733.37   99.18 21399.11  3037.53    26.67     1.47    0.80    0.43    7.33   0.08  14.66
sde              91.38     4.15 1738.33   99.27 21457.17  3041.65    26.66     1.49    0.81    0.43    7.44   0.08  14.68
sdf              88.58     4.12 1740.40   99.22 21438.99  3038.60    26.61     1.54    0.84    0.43    7.90   0.08  14.72
sdg               0.00     3.15   27.22   73.08   326.98   391.42    14.33     0.44    4.37    0.20    5.93   0.08   0.79
sdh               0.00     0.12    0.02    0.23     2.14     4.91    56.82     0.00    1.15    0.65    1.19   0.21   0.01
md0               0.00     0.00 10964.52  465.80 146803.65 20822.41    29.33     0.00    0.00    0.00    0.00   0.00   0.00

avg-cpu:  %user   %nice %system %iowait  %steal   %idle
           0.25    0.00    2.53   21.01    0.00   76.20

Device:         rrqm/s   wrqm/s     r/s     w/s    rkB/s    wkB/s avgrq-sz avgqu-sz   await r_await w_await  svctm  %util
sda               2.00     0.00 1158.00    0.00 21580.00     0.00    37.27     0.21    0.18    0.18    0.00   0.14  16.10
sdb               5.00     0.00 1251.00    0.00 22880.00     0.00    36.58     0.25    0.20    0.20    0.00   0.14  18.00
sdc               2.00     0.00 1225.00    0.00 25540.00     0.00    41.70     0.28    0.23    0.23    0.00   0.17  20.50
sdd               4.00     0.00 1205.00    0.00 22208.00     0.00    36.86     0.28    0.23    0.23    0.00   0.18  21.60
sde               2.00     0.00 1234.00    0.00 23488.00     0.00    38.07     0.32    0.26    0.26    0.00   0.18  22.40
sdf               1.00     0.00 1212.00    0.00 21788.00     0.00    35.95     0.28    0.23    0.23    0.00   0.15  18.40
sdg               0.00     0.00    3.00    0.00    88.00     0.00    58.67     0.00    0.00    0.00    0.00   0.00   0.00
sdh               0.00     0.00    0.00    0.00     0.00     0.00     0.00     0.00    0.00    0.00    0.00   0.00   0.00
md0               0.00     0.00 7302.00    0.00 154488.00     0.00    42.31     0.00    0.00    0.00    0.00   0.00   0.00

avg-cpu:  %user   %nice %system %iowait  %steal   %idle
           0.25    0.00    2.53   21.01    0.00   76.20

Device:         rrqm/s   wrqm/s     r/s     w/s    rkB/s    wkB/s avgrq-sz avgqu-sz   await r_await w_await  svctm  %util
sda               2.00     0.00 1366.00    0.00 23732.00     0.00    34.75     0.24    0.18    0.18    0.00   0.14  19.10
sdb               0.00     0.00 1294.00    0.00 24200.00     0.00    37.40     0.24    0.19    0.19    0.00   0.12  15.20
sdc               0.00     0.00 1308.00    0.00 24656.00     0.00    37.70     0.29    0.23    0.23    0.00   0.15  20.10
sdd               0.00     0.00 1354.00    0.00 22984.00     0.00    33.95     0.28    0.21    0.21    0.00   0.15  20.40
sde               0.00     0.00 1292.00    0.00 21384.00     0.00    33.10     0.26    0.20    0.20    0.00   0.15  19.00
sdf               1.00     0.00 1215.00    0.00 19616.00     0.00    32.29     0.26    0.21    0.21    0.00   0.17  21.20
sdg               0.00     0.00    0.00    0.00     0.00     0.00     0.00     0.00    0.00    0.00    0.00   0.00   0.00
sdh               0.00     0.00    0.00    0.00     0.00     0.00     0.00     0.00    0.00    0.00    0.00   0.00   0.00
md0               0.00     0.00 7834.00    0.00 148840.00     0.00    38.00     0.00    0.00    0.00    0.00   0.00   0.00

avg-cpu:  %user   %nice %system %iowait  %steal   %idle
           0.51    0.00    2.78   12.88    0.00   83.84

Device:         rrqm/s   wrqm/s     r/s     w/s    rkB/s    wkB/s avgrq-sz avgqu-sz   await r_await w_await  svctm  %util
sda               0.00     0.00 1358.42    0.00 25449.50     0.00    37.47     0.29    0.22    0.22    0.00   0.14  19.01
sdb               0.99     0.00 1247.52    0.00 22942.57     0.00    36.78     0.23    0.19    0.19    0.00   0.13  15.84
sdc               0.99     0.00 1287.13    0.00 21417.82     0.00    33.28     0.28    0.22    0.22    0.00   0.15  19.01
sdd               0.00     0.00 1262.38    0.00 18344.55     0.00    29.06     0.27    0.21    0.21    0.00   0.15  19.01
sde               0.00     0.00 1330.69    0.00 20487.13     0.00    30.79     0.28    0.21    0.21    0.00   0.15  19.80
sdf               0.00     0.00 1377.23    0.00 24495.05     0.00    35.57     0.34    0.25    0.25    0.00   0.15  20.00
sdg               0.00     0.00    0.00    0.00     0.00     0.00     0.00     0.00    0.00    0.00    0.00   0.00   0.00
sdh               0.00     0.00    0.00    0.00     0.00     0.00     0.00     0.00    0.00    0.00    0.00   0.00   0.00
md0               0.00     0.00 7864.36    0.00 142867.33     0.00    36.33     0.00    0.00    0.00    0.00   0.00   0.00

avg-cpu:  %user   %nice %system %iowait  %steal   %idle
           0.51    0.00    2.28   21.07    0.00   76.14

Device:         rrqm/s   wrqm/s     r/s     w/s    rkB/s    wkB/s avgrq-sz avgqu-sz   await r_await w_await  svctm  %util
sda               0.00     0.00 1400.00    0.00 25136.00     0.00    35.91     0.32    0.23    0.23    0.00   0.13  18.40
sdb               0.00     0.00 1382.00    0.00 24400.00     0.00    35.31     0.31    0.22    0.22    0.00   0.13  17.30
sdc               0.00     0.00 1478.00    0.00 25024.00     0.00    33.86     0.41    0.27    0.27    0.00   0.14  21.40
sdd               0.00     0.00 1379.00    0.00 26836.00     0.00    38.92     0.48    0.35    0.35    0.00   0.16  21.70
sde               0.00     0.00 1444.00    0.00 26372.00     0.00    36.53     0.46    0.32    0.32    0.00   0.16  23.10
sdf               0.00     0.00 1544.00    0.00 28108.00     0.00    36.41     0.49    0.32    0.32    0.00   0.16  24.30
sdg               0.00     0.00    0.00    0.00     0.00     0.00     0.00     0.00    0.00    0.00    0.00   0.00   0.00
sdh               0.00     0.00    0.00    0.00     0.00     0.00     0.00     0.00    0.00    0.00    0.00   0.00   0.00
md0               0.00     0.00 8628.00    0.00 166552.00     0.00    38.61     0.00    0.00    0.00    0.00   0.00   0.00

avg-cpu:  %user   %nice %system %iowait  %steal   %idle
           0.25    0.00    3.03   20.71    0.00   76.01

Device:         rrqm/s   wrqm/s     r/s     w/s    rkB/s    wkB/s avgrq-sz avgqu-sz   await r_await w_await  svctm  %util
sda               0.00     0.00 1593.00    0.00 30704.00     0.00    38.55     0.43    0.27    0.27    0.00   0.13  21.30
sdb               0.00     0.00 1596.00    0.00 30200.00     0.00    37.84     0.42    0.26    0.26    0.00   0.12  19.80
sdc               0.00     0.00 1472.00    0.00 27304.00     0.00    37.10     0.47    0.32    0.32    0.00   0.15  21.90
sdd               0.00     0.00 1567.00    0.00 29440.00     0.00    37.57     0.55    0.35    0.35    0.00   0.14  22.50
sde               0.00     0.00 1578.00    0.00 29296.00     0.00    37.13     0.56    0.35    0.35    0.00   0.15  23.30
sdf               0.00     0.00 1518.00    0.00 28044.00     0.00    36.95     0.58    0.39    0.39    0.00   0.14  21.50
sdg               0.00     0.00    0.00    0.00     0.00     0.00     0.00     0.00    0.00    0.00    0.00   0.00   0.00
sdh               0.00     0.00    0.00    0.00     0.00     0.00     0.00     0.00    0.00    0.00    0.00   0.00   0.00
md0               0.00     0.00 9325.00    0.00 185964.00     0.00    39.89     0.00    0.00    0.00    0.00   0.00   0.00

avg-cpu:  %user   %nice %system %iowait  %steal   %idle
           0.51    0.00    2.80    4.33    0.00   92.37

Device:         rrqm/s   wrqm/s     r/s     w/s    rkB/s    wkB/s avgrq-sz avgqu-sz   await r_await w_await  svctm  %util
sda               0.00     0.00 1539.00    0.00 32184.00     0.00    41.82     0.50    0.33    0.33    0.00   0.12  18.30
sdb               2.00     0.00 1533.00    0.00 32204.00     0.00    42.01     0.58    0.38    0.38    0.00   0.12  18.40
sdc               1.00     0.00 1643.00    0.00 33740.00     0.00    41.07     0.80    0.49    0.49    0.00   0.14  23.60
sdd               1.00     0.00 1673.00    0.00 32784.00     0.00    39.19     0.79    0.48    0.48    0.00   0.16  26.50
sde               0.00     0.00 1495.00    0.00 29828.00     0.00    39.90     0.68    0.45    0.45    0.00   0.15  21.90
sdf               0.00     0.00 1717.00    0.00 34828.00     0.00    40.57     0.91    0.53    0.53    0.00   0.15  25.00
sdg               0.00     0.00    0.00    0.00     0.00     0.00     0.00     0.00    0.00    0.00    0.00   0.00   0.00
sdh               0.00     0.00    0.00    0.00     0.00     0.00     0.00     0.00    0.00    0.00    0.00   0.00   0.00
md0               0.00     0.00 9601.00    0.00 207248.00     0.00    43.17     0.00    0.00    0.00    0.00   0.00   0.00

avg-cpu:  %user   %nice %system %iowait  %steal   %idle
           0.76    0.25    3.31   12.21    0.00   83.46

Device:         rrqm/s   wrqm/s     r/s     w/s    rkB/s    wkB/s avgrq-sz avgqu-sz   await r_await w_await  svctm  %util
sda               2.00     0.00 1897.00    0.00 40452.00     0.00    42.65     0.88    0.47    0.47    0.00   0.11  21.50
sdb               4.00     0.00 1915.00    0.00 39380.00     0.00    41.13     0.79    0.41    0.41    0.00   0.10  19.70
sdc               4.00     0.00 2037.00    0.00 42128.00     0.00    41.36     1.25    0.62    0.62    0.00   0.14  28.50
sdd               3.00     0.00 2003.00    0.00 42992.00     0.00    42.93     1.40    0.70    0.70    0.00   0.13  26.50
sde               1.00     0.00 1918.00    0.00 39780.00     0.00    41.48     1.30    0.68    0.68    0.00   0.14  26.90
sdf               0.00     0.00 1883.00    0.00 40264.00     0.00    42.77     1.36    0.72    0.72    0.00   0.15  28.20
sdg               0.00     0.00   52.00    2.00   520.00    12.00    19.70     0.01    0.19    0.19    0.00   0.15   0.80
sdh               0.00     0.00    0.00    0.00     0.00     0.00     0.00     0.00    0.00    0.00    0.00   0.00   0.00
md0               0.00     0.00 11668.00    0.00 258672.00     0.00    44.34     0.00    0.00    0.00    0.00   0.00   0.00

avg-cpu:  %user   %nice %system %iowait  %steal   %idle
           0.51    0.00    4.07   18.83    0.00   76.59

Device:         rrqm/s   wrqm/s     r/s     w/s    rkB/s    wkB/s avgrq-sz avgqu-sz   await r_await w_await  svctm  %util
sda               1.00     0.00 2581.00    0.00 55340.00     0.00    42.88     1.31    0.51    0.51    0.00   0.10  24.80
sdb               4.00     0.00 2485.00    0.00 55692.00     0.00    44.82     1.25    0.50    0.50    0.00   0.10  25.60
sdc               4.00     0.00 2535.00    0.00 53392.00     0.00    42.12     1.92    0.76    0.76    0.00   0.12  31.60
sdd               1.00     0.00 2458.00    0.00 53504.00     0.00    43.53     2.00    0.81    0.81    0.00   0.13  32.50
sde               3.00     0.00 2573.00    0.00 55928.00     0.00    43.47     2.28    0.89    0.89    0.00   0.13  33.40
sdf               4.00     0.00 2498.00    0.00 55072.00     0.00    44.09     2.04    0.81    0.81    0.00   0.14  34.00
sdg               0.00     0.00    0.00    0.00     0.00     0.00     0.00     0.00    0.00    0.00    0.00   0.00   0.00
sdh               0.00     0.00    0.00    0.00     0.00     0.00     0.00     0.00    0.00    0.00    0.00   0.00   0.00
md0               0.00     0.00 15147.00    0.00 345084.00     0.00    45.56     0.00    0.00    0.00    0.00   0.00   0.00

avg-cpu:  %user   %nice %system %iowait  %steal   %idle
           2.27    0.00    8.06   13.60    0.00   76.07

Device:         rrqm/s   wrqm/s     r/s     w/s    rkB/s    wkB/s avgrq-sz avgqu-sz   await r_await w_await  svctm  %util
sda               8.00     0.00 2696.00    0.00 55184.00     0.00    40.94     1.51    0.56    0.56    0.00   0.08  22.50
sdb               6.00     0.00 2779.00    0.00 56988.00     0.00    41.01     1.45    0.52    0.52    0.00   0.08  23.20
sdc               6.00     0.00 2758.00    0.00 56708.00     0.00    41.12     2.18    0.79    0.79    0.00   0.12  32.10
sdd               4.00     0.00 2893.00    0.00 59812.00     0.00    41.35     2.36    0.82    0.82    0.00   0.12  34.50
sde               7.00     0.00 2772.00    0.00 57868.00     0.00    41.75     2.23    0.81    0.81    0.00   0.12  32.20
sdf               4.00     0.00 2732.00    0.00 55352.00     0.00    40.52     2.15    0.79    0.79    0.00   0.12  31.90
sdg               0.00     0.00    0.00    0.00     0.00     0.00     0.00     0.00    0.00    0.00    0.00   0.00   0.00
sdh               0.00     0.00    0.00    0.00     0.00     0.00     0.00     0.00    0.00    0.00    0.00   0.00   0.00
md0               0.00     0.00 16663.00    0.00 354104.00     0.00    42.50     0.00    0.00    0.00    0.00   0.00   0.00

avg-cpu:  %user   %nice %system %iowait  %steal   %idle
           9.23    0.00   14.46    0.25    0.00   76.06

Device:         rrqm/s   wrqm/s     r/s     w/s    rkB/s    wkB/s avgrq-sz avgqu-sz   await r_await w_await  svctm  %util
sda               0.00     0.00   38.00    0.00   500.00     0.00    26.32     0.00    0.11    0.11    0.00   0.08   0.30
sdb               0.00     0.00   29.00    0.00   376.00     0.00    25.93     0.00    0.14    0.14    0.00   0.07   0.20
sdc               0.00     0.00   56.00    0.00   732.00     0.00    26.14     0.01    0.14    0.14    0.00   0.07   0.40
sdd               0.00     0.00   63.00    0.00   808.00     0.00    25.65     0.02    0.33    0.33    0.00   0.08   0.50
sde               0.00     0.00   63.00    0.00   856.00     0.00    27.17     0.02    0.27    0.27    0.00   0.08   0.50
sdf               0.00     0.00   32.00    0.00   604.00     0.00    37.75     0.01    0.25    0.25    0.00   0.06   0.20
sdg               0.00     0.00   15.00    0.00   292.00     0.00    38.93     0.00    0.07    0.07    0.00   0.07   0.10
sdh               0.00     0.00    0.00    0.00     0.00     0.00     0.00     0.00    0.00    0.00    0.00   0.00   0.00
md0               0.00     0.00  281.00    0.00  4016.00     0.00    28.58     0.00    0.00    0.00    0.00   0.00   0.00

avg-cpu:  %user   %nice %system %iowait  %steal   %idle
           8.98    0.00   14.71    0.00    0.00   76.31

Device:         rrqm/s   wrqm/s     r/s     w/s    rkB/s    wkB/s avgrq-sz avgqu-sz   await r_await w_await  svctm  %util
sda               0.00     0.00    9.00    0.00    48.00     0.00    10.67     0.00    0.00    0.00    0.00   0.00   0.00
sdb               0.00     0.00    0.00    0.00     0.00     0.00     0.00     0.00    0.00    0.00    0.00   0.00   0.00
sdc               0.00     0.00    0.00    0.00     0.00     0.00     0.00     0.00    0.00    0.00    0.00   0.00   0.00
sdd               0.00     0.00    0.00    0.00     0.00     0.00     0.00     0.00    0.00    0.00    0.00   0.00   0.00
sde               0.00     0.00    0.00    0.00     0.00     0.00     0.00     0.00    0.00    0.00    0.00   0.00   0.00
sdf               0.00     0.00    0.00    0.00     0.00     0.00     0.00     0.00    0.00    0.00    0.00   0.00   0.00
sdg               0.00     0.00    0.00    0.00     0.00     0.00     0.00     0.00    0.00    0.00    0.00   0.00   0.00
sdh               0.00     0.00    0.00    0.00     0.00     0.00     0.00     0.00    0.00    0.00    0.00   0.00   0.00
md0               0.00     0.00    9.00    0.00    48.00     0.00    10.67     0.00    0.00    0.00    0.00   0.00   0.00

avg-cpu:  %user   %nice %system %iowait  %steal   %idle
           9.95    0.00   13.93    0.00    0.00   76.12

Device:         rrqm/s   wrqm/s     r/s     w/s    rkB/s    wkB/s avgrq-sz avgqu-sz   await r_await w_await  svctm  %util
sda               0.00     0.00    0.00    0.00     0.00     0.00     0.00     0.00    0.00    0.00    0.00   0.00   0.00
sdb               0.00     0.00    0.00    0.00     0.00     0.00     0.00     0.00    0.00    0.00    0.00   0.00   0.00
sdc               0.00     0.00    0.00    0.00     0.00     0.00     0.00     0.00    0.00    0.00    0.00   0.00   0.00
sdd               0.00     0.00    0.00    0.00     0.00     0.00     0.00     0.00    0.00    0.00    0.00   0.00   0.00
sde               0.00     0.00    0.00    0.00     0.00     0.00     0.00     0.00    0.00    0.00    0.00   0.00   0.00
sdf               0.00     0.00    0.00    0.00     0.00     0.00     0.00     0.00    0.00    0.00    0.00   0.00   0.00
sdg               0.00     1.00    0.00    2.00     0.00    36.00    36.00     0.00    0.00    0.00    0.00   0.00   0.00
sdh               0.00     0.00    0.00    0.00     0.00     0.00     0.00     0.00    0.00    0.00    0.00   0.00   0.00
md0               0.00     0.00    0.00    0.00     0.00     0.00     0.00     0.00    0.00    0.00    0.00   0.00   0.00

avg-cpu:  %user   %nice %system %iowait  %steal   %idle
           9.73    0.00   14.21    0.00    0.00   76.06

Device:         rrqm/s   wrqm/s     r/s     w/s    rkB/s    wkB/s avgrq-sz avgqu-sz   await r_await w_await  svctm  %util
sda               0.00     0.00    0.00    0.00     0.00     0.00     0.00     0.00    0.00    0.00    0.00   0.00   0.00
sdb               0.00     0.00    0.00    0.00     0.00     0.00     0.00     0.00    0.00    0.00    0.00   0.00   0.00
sdc               0.00     0.00    0.00    0.00     0.00     0.00     0.00     0.00    0.00    0.00    0.00   0.00   0.00
sdd               0.00     0.00    0.00    0.00     0.00     0.00     0.00     0.00    0.00    0.00    0.00   0.00   0.00
sde               0.00     0.00    0.00    0.00     0.00     0.00     0.00     0.00    0.00    0.00    0.00   0.00   0.00
sdf               0.00     0.00    0.00    0.00     0.00     0.00     0.00     0.00    0.00    0.00    0.00   0.00   0.00
sdg               0.00     0.00    0.00    0.00     0.00     0.00     0.00     0.00    0.00    0.00    0.00   0.00   0.00
sdh               0.00     0.00    0.00    0.00     0.00     0.00     0.00     0.00    0.00    0.00    0.00   0.00   0.00
md0               0.00     0.00    0.00    0.00     0.00     0.00     0.00     0.00    0.00    0.00    0.00   0.00   0.00

avg-cpu:  %user   %nice %system %iowait  %steal   %idle
          12.69    0.00   11.44    0.00    0.00   75.87

Device:         rrqm/s   wrqm/s     r/s     w/s    rkB/s    wkB/s avgrq-sz avgqu-sz   await r_await w_await  svctm  %util
sda               0.00     0.00    0.00    0.00     0.00     0.00     0.00     0.00    0.00    0.00    0.00   0.00   0.00
sdb               0.00     0.00    0.00    0.00     0.00     0.00     0.00     0.00    0.00    0.00    0.00   0.00   0.00
sdc               0.00     0.00    0.00    0.00     0.00     0.00     0.00     0.00    0.00    0.00    0.00   0.00   0.00
sdd               0.00     0.00    0.00    0.00     0.00     0.00     0.00     0.00    0.00    0.00    0.00   0.00   0.00
sde               0.00     0.00    0.00    0.00     0.00     0.00     0.00     0.00    0.00    0.00    0.00   0.00   0.00
sdf               0.00     0.00    0.00    0.00     0.00     0.00     0.00     0.00    0.00    0.00    0.00   0.00   0.00
sdg               0.00     0.00    0.00    0.00     0.00     0.00     0.00     0.00    0.00    0.00    0.00   0.00   0.00
sdh               0.00     0.00    0.00    0.00     0.00     0.00     0.00     0.00    0.00    0.00    0.00   0.00   0.00
md0               0.00     0.00    0.00    0.00     0.00     0.00     0.00     0.00    0.00    0.00    0.00   0.00   0.00

avg-cpu:  %user   %nice %system %iowait  %steal   %idle
          11.75    0.00   12.00    0.00    0.00   76.25

Device:         rrqm/s   wrqm/s     r/s     w/s    rkB/s    wkB/s avgrq-sz avgqu-sz   await r_await w_await  svctm  %util
sda               0.00     0.00    0.00    0.00     0.00     0.00     0.00     0.00    0.00    0.00    0.00   0.00   0.00
sdb               0.00     0.00    0.00    0.00     0.00     0.00     0.00     0.00    0.00    0.00    0.00   0.00   0.00
sdc               0.00     0.00    0.00    0.00     0.00     0.00     0.00     0.00    0.00    0.00    0.00   0.00   0.00
sdd               0.00     0.00    0.00    0.00     0.00     0.00     0.00     0.00    0.00    0.00    0.00   0.00   0.00
sde               0.00     0.00    0.00    0.00     0.00     0.00     0.00     0.00    0.00    0.00    0.00   0.00   0.00
sdf               0.00     0.00    0.00    0.00     0.00     0.00     0.00     0.00    0.00    0.00    0.00   0.00   0.00
sdg               0.00     0.00    0.00    0.00     0.00     0.00     0.00     0.00    0.00    0.00    0.00   0.00   0.00
sdh               0.00     0.00    0.00    0.00     0.00     0.00     0.00     0.00    0.00    0.00    0.00   0.00   0.00
md0               0.00     0.00    0.00    0.00     0.00     0.00     0.00     0.00    0.00    0.00    0.00   0.00   0.00

avg-cpu:  %user   %nice %system %iowait  %steal   %idle
          12.50    0.00   11.25    0.00    0.00   76.25

Device:         rrqm/s   wrqm/s     r/s     w/s    rkB/s    wkB/s avgrq-sz avgqu-sz   await r_await w_await  svctm  %util
sda               0.00     0.00    0.00    0.00     0.00     0.00     0.00     0.00    0.00    0.00    0.00   0.00   0.00
sdb               0.00     0.00    0.00    0.00     0.00     0.00     0.00     0.00    0.00    0.00    0.00   0.00   0.00
sdc               0.00     0.00    0.00    0.00     0.00     0.00     0.00     0.00    0.00    0.00    0.00   0.00   0.00
sdd               0.00     0.00    0.00    0.00     0.00     0.00     0.00     0.00    0.00    0.00    0.00   0.00   0.00
sde               0.00     0.00    0.00    0.00     0.00     0.00     0.00     0.00    0.00    0.00    0.00   0.00   0.00
sdf               0.00     0.00    0.00    0.00     0.00     0.00     0.00     0.00    0.00    0.00    0.00   0.00   0.00
sdg               0.00     0.00    0.00    0.00     0.00     0.00     0.00     0.00    0.00    0.00    0.00   0.00   0.00
sdh               0.00     0.00    0.00    0.00     0.00     0.00     0.00     0.00    0.00    0.00    0.00   0.00   0.00
md0               0.00     0.00    0.00    0.00     0.00     0.00     0.00     0.00    0.00    0.00    0.00   0.00   0.00

avg-cpu:  %user   %nice %system %iowait  %steal   %idle
          12.50    0.00   12.50    3.25    0.00   71.75

Device:         rrqm/s   wrqm/s     r/s     w/s    rkB/s    wkB/s avgrq-sz avgqu-sz   await r_await w_await  svctm  %util
sda               0.00     0.00    0.00    0.00     0.00     0.00     0.00     0.00    0.00    0.00    0.00   0.00   0.00
sdb               0.00     0.00    0.00    0.00     0.00     0.00     0.00     0.00    0.00    0.00    0.00   0.00   0.00
sdc               0.00     0.00    0.00    0.00     0.00     0.00     0.00     0.00    0.00    0.00    0.00   0.00   0.00
sdd               0.00     0.00    0.00    0.00     0.00     0.00     0.00     0.00    0.00    0.00    0.00   0.00   0.00
sde               0.00     0.00    0.00    0.00     0.00     0.00     0.00     0.00    0.00    0.00    0.00   0.00   0.00
sdf               0.00     0.00    0.00    0.00     0.00     0.00     0.00     0.00    0.00    0.00    0.00   0.00   0.00
sdg               0.00     0.00 1331.00    0.00  5324.00     0.00     8.00     0.16    0.12    0.12    0.00   0.12  15.60
sdh               0.00     0.00    0.00    0.00     0.00     0.00     0.00     0.00    0.00    0.00    0.00   0.00   0.00
md0               0.00     0.00    0.00    0.00     0.00     0.00     0.00     0.00    0.00    0.00    0.00   0.00   0.00

avg-cpu:  %user   %nice %system %iowait  %steal   %idle
          12.25    0.00   11.50    0.00    0.00   76.25

Device:         rrqm/s   wrqm/s     r/s     w/s    rkB/s    wkB/s avgrq-sz avgqu-sz   await r_await w_await  svctm  %util
sda               0.00     0.00    0.00    0.00     0.00     0.00     0.00     0.00    0.00    0.00    0.00   0.00   0.00
sdb               0.00     0.00    0.00    0.00     0.00     0.00     0.00     0.00    0.00    0.00    0.00   0.00   0.00
sdc               0.00     0.00    0.00    0.00     0.00     0.00     0.00     0.00    0.00    0.00    0.00   0.00   0.00
sdd               0.00     0.00    0.00    0.00     0.00     0.00     0.00     0.00    0.00    0.00    0.00   0.00   0.00
sde               0.00     0.00    0.00    0.00     0.00     0.00     0.00     0.00    0.00    0.00    0.00   0.00   0.00
sdf               0.00     0.00    0.00    0.00     0.00     0.00     0.00     0.00    0.00    0.00    0.00   0.00   0.00
sdg               0.00     0.00    0.00    0.00     0.00     0.00     0.00     0.00    0.00    0.00    0.00   0.00   0.00
sdh               0.00     0.00    0.00    0.00     0.00     0.00     0.00     0.00    0.00    0.00    0.00   0.00   0.00
md0               0.00     0.00    0.00    0.00     0.00     0.00     0.00     0.00    0.00    0.00    0.00   0.00   0.00

avg-cpu:  %user   %nice %system %iowait  %steal   %idle
          13.18    0.00   10.95    0.00    0.00   75.87

Device:         rrqm/s   wrqm/s     r/s     w/s    rkB/s    wkB/s avgrq-sz avgqu-sz   await r_await w_await  svctm  %util
sda               0.00     0.00    0.00    0.00     0.00     0.00     0.00     0.00    0.00    0.00    0.00   0.00   0.00
sdb               0.00     0.00    0.00    0.00     0.00     0.00     0.00     0.00    0.00    0.00    0.00   0.00   0.00
sdc               0.00     0.00    0.00    0.00     0.00     0.00     0.00     0.00    0.00    0.00    0.00   0.00   0.00
sdd               0.00     0.00    0.00    0.00     0.00     0.00     0.00     0.00    0.00    0.00    0.00   0.00   0.00
sde               0.00     0.00    0.00    0.00     0.00     0.00     0.00     0.00    0.00    0.00    0.00   0.00   0.00
sdf               0.00     0.00    0.00    0.00     0.00     0.00     0.00     0.00    0.00    0.00    0.00   0.00   0.00
sdg               0.00     0.00    0.00    0.00     0.00     0.00     0.00     0.00    0.00    0.00    0.00   0.00   0.00
sdh               0.00     0.00    0.00    0.00     0.00     0.00     0.00     0.00    0.00    0.00    0.00   0.00   0.00
md0               0.00     0.00    0.00    0.00     0.00     0.00     0.00     0.00    0.00    0.00    0.00   0.00   0.00

avg-cpu:  %user   %nice %system %iowait  %steal   %idle
          12.03    0.00   11.53    0.00    0.00   76.44

Device:         rrqm/s   wrqm/s     r/s     w/s    rkB/s    wkB/s avgrq-sz avgqu-sz   await r_await w_await  svctm  %util
sda               0.00     0.00    0.00    0.00     0.00     0.00     0.00     0.00    0.00    0.00    0.00   0.00   0.00
sdb               0.00     0.00    0.00    0.00     0.00     0.00     0.00     0.00    0.00    0.00    0.00   0.00   0.00
sdc               0.00     0.00    0.00    0.00     0.00     0.00     0.00     0.00    0.00    0.00    0.00   0.00   0.00
sdd               0.00     0.00    0.00    0.00     0.00     0.00     0.00     0.00    0.00    0.00    0.00   0.00   0.00
sde               0.00     0.00    0.00    0.00     0.00     0.00     0.00     0.00    0.00    0.00    0.00   0.00   0.00
sdf               0.00     0.00    0.00    0.00     0.00     0.00     0.00     0.00    0.00    0.00    0.00   0.00   0.00
sdg               0.00     0.00    0.00    0.00     0.00     0.00     0.00     0.00    0.00    0.00    0.00   0.00   0.00
sdh               0.00     0.00    0.00    0.00     0.00     0.00     0.00     0.00    0.00    0.00    0.00   0.00   0.00
md0               0.00     0.00    0.00    0.00     0.00     0.00     0.00     0.00    0.00    0.00    0.00   0.00   0.00

