Linux 4.17.2 (bench) 	08/04/2018 	_x86_64_	(4 CPU)

avg-cpu:  %user   %nice %system %iowait  %steal   %idle
          10.25    0.02    4.27    2.82    0.00   82.64

Device:         rrqm/s   wrqm/s     r/s     w/s    rkB/s    wkB/s avgrq-sz avgqu-sz   await r_await w_await  svctm  %util
sda              57.72     4.14 1758.36  100.13 21461.98  3063.78    26.39     1.05    0.57    0.26    5.92   0.06  11.17
sdb              57.50     4.11 1758.38  100.26 21451.60  3060.52    26.38     1.05    0.57    0.26    5.85   0.06  11.05
sdc              95.01     4.16 1718.78   99.82 21443.92  3062.93    26.95     1.47    0.81    0.44    7.12   0.08  14.55
sdd              88.62     4.13 1724.36   99.89 21429.05  3059.21    26.85     1.48    0.81    0.43    7.33   0.08  14.64
sde              90.58     4.18 1729.37   99.98 21487.67  3063.36    26.84     1.50    0.82    0.44    7.44   0.08  14.66
sdf              87.76     4.15 1731.46   99.93 21469.37  3060.30    26.79     1.54    0.84    0.43    7.90   0.08  14.69
sdg               0.00     3.16   27.09   73.17   326.81   391.74    14.33     0.44    4.38    0.20    5.93   0.08   0.79
sdh               0.00     0.13    0.02    0.23     2.16     4.94    56.82     0.00    1.15    0.65    1.19   0.21   0.01
md0               0.00     0.00 10905.65  469.12 147062.66 20971.07    29.54     0.00    0.00    0.00    0.00   0.00   0.00

avg-cpu:  %user   %nice %system %iowait  %steal   %idle
           7.45    0.01   36.93    6.96    0.00   48.65

Device:         rrqm/s   wrqm/s     r/s     w/s    rkB/s    wkB/s avgrq-sz avgqu-sz   await r_await w_await  svctm  %util
sda               0.05     0.00 2205.05    0.00 13381.40     0.00    12.14     0.58    0.26    0.26    0.00   0.05  11.86
sdb               0.05     0.00 2181.95    0.00 13375.20     0.00    12.26     0.58    0.27    0.27    0.00   0.05  11.64
sdc               0.10     0.00 2166.45    0.00 13364.00     0.00    12.34     0.77    0.36    0.36    0.00   0.06  14.06
sdd               0.15     0.00 2186.30    0.00 13300.40     0.00    12.17     0.82    0.38    0.38    0.00   0.07  15.97
sde               0.05     0.00 2195.90    0.00 13356.00     0.00    12.16     0.81    0.37    0.37    0.00   0.06  14.10
sdf               0.05     0.00 2166.80    0.00 13325.20     0.00    12.30     0.80    0.37    0.37    0.00   0.06  13.83
sdg               0.00     0.10    3.50   72.05    46.20   381.80    11.33     0.42    5.55    0.31    5.80   0.05   0.41
sdh               0.00     0.00    0.00    0.00     0.00     0.00     0.00     0.00    0.00    0.00    0.00   0.00   0.00
md0               0.00     0.00 13102.90    0.00 80552.80     0.00    12.30     0.00    0.00    0.00    0.00   0.00   0.00

