Linux 4.17.2 (bench) 	08/04/2018 	_x86_64_	(4 CPU)

avg-cpu:  %user   %nice %system %iowait  %steal   %idle
          10.25    0.02    4.22    2.79    0.00   82.73

Device:         rrqm/s   wrqm/s     r/s     w/s    rkB/s    wkB/s avgrq-sz avgqu-sz   await r_await w_await  svctm  %util
sda              56.55     4.16 1749.78  100.59 21472.00  3078.15    26.54     1.05    0.57    0.26    5.92   0.06  11.14
sdb              56.33     4.13 1749.80  100.73 21461.56  3074.88    26.52     1.05    0.57    0.26    5.85   0.06  11.02
sdc              94.00     4.18 1710.03  100.29 21453.84  3077.30    27.10     1.47    0.81    0.44    7.12   0.08  14.52
sdd              87.58     4.15 1715.65  100.36 21438.95  3073.56    27.00     1.48    0.81    0.43    7.33   0.08  14.62
sde              89.56     4.20 1720.70  100.45 21497.97  3077.73    26.99     1.50    0.82    0.44    7.44   0.08  14.64
sdf              86.73     4.17 1722.79  100.40 21479.55  3074.65    26.94     1.54    0.85    0.44    7.90   0.08  14.67
sdg               0.00     3.16   27.00   73.22   326.67   391.94    14.34     0.44    4.39    0.20    5.93   0.08   0.79
sdh               0.00     0.13    0.02    0.23     2.17     4.97    56.82     0.00    1.15    0.65    1.19   0.21   0.01
md0               0.00     0.00 10847.20  471.32 147178.14 21069.44    29.73     0.00    0.00    0.00    0.00   0.00   0.00

avg-cpu:  %user   %nice %system %iowait  %steal   %idle
           6.15    0.00   17.18    3.08    0.00   73.59

Device:         rrqm/s   wrqm/s     r/s     w/s    rkB/s    wkB/s avgrq-sz avgqu-sz   await r_await w_await  svctm  %util
sda               0.00     0.00 3738.00    0.00 14952.00     0.00     8.00     0.38    0.10    0.10    0.00   0.07  26.70
sdb               0.00     0.00 3736.00    0.00 14944.00     0.00     8.00     0.41    0.11    0.11    0.00   0.07  26.90
sdc               0.00     0.00 3884.00    0.00 15536.00     0.00     8.00     0.45    0.11    0.11    0.00   0.08  29.80
sdd               0.00     0.00 3857.00    0.00 15428.00     0.00     8.00     0.42    0.11    0.11    0.00   0.08  29.40
sde               0.00     0.00 3784.00    0.00 15136.00     0.00     8.00     0.42    0.11    0.11    0.00   0.08  29.60
sdf               0.00     0.00 3639.00    0.00 14556.00     0.00     8.00     0.37    0.10    0.10    0.00   0.07  26.20
sdg               0.00     0.00    3.00    0.00    88.00     0.00    58.67     0.00    0.33    0.33    0.00   0.33   0.10
sdh               0.00     0.00    0.00    0.00     0.00     0.00     0.00     0.00    0.00    0.00    0.00   0.00   0.00
md0               0.00     0.00 22641.00    0.00 90564.00     0.00     8.00     0.00    0.00    0.00    0.00   0.00   0.00

avg-cpu:  %user   %nice %system %iowait  %steal   %idle
           5.94    0.00   16.54    2.84    0.00   74.68

Device:         rrqm/s   wrqm/s     r/s     w/s    rkB/s    wkB/s avgrq-sz avgqu-sz   await r_await w_await  svctm  %util
sda               0.00     0.00 3029.00    0.00 12116.00     0.00     8.00     0.31    0.10    0.10    0.00   0.07  22.70
sdb               0.00     0.00 3005.00    0.00 12020.00     0.00     8.00     0.29    0.10    0.10    0.00   0.07  20.70
sdc               0.00     0.00 3099.00    0.00 12396.00     0.00     8.00     0.34    0.11    0.11    0.00   0.08  25.80
sdd               0.00     0.00 2956.00    0.00 11824.00     0.00     8.00     0.30    0.10    0.10    0.00   0.08  23.30
sde               0.00     0.00 3146.00    0.00 12584.00     0.00     8.00     0.35    0.11    0.11    0.00   0.09  27.50
sdf               0.00     0.00 3082.00    0.00 12328.00     0.00     8.00     0.34    0.11    0.11    0.00   0.08  23.90
sdg               0.00     0.00    0.00    0.00     0.00     0.00     0.00     0.00    0.00    0.00    0.00   0.00   0.00
sdh               0.00     0.00    0.00    0.00     0.00     0.00     0.00     0.00    0.00    0.00    0.00   0.00   0.00
md0               0.00     0.00 18315.00    0.00 73260.00     0.00     8.00     0.00    0.00    0.00    0.00   0.00   0.00

avg-cpu:  %user   %nice %system %iowait  %steal   %idle
           6.67    0.00   17.69    3.08    0.00   72.56

Device:         rrqm/s   wrqm/s     r/s     w/s    rkB/s    wkB/s avgrq-sz avgqu-sz   await r_await w_await  svctm  %util
sda               0.00     0.00 2352.00    0.00  9408.00     0.00     8.00     0.24    0.10    0.10    0.00   0.08  19.20
sdb               0.00     0.00 2535.00    0.00 10140.00     0.00     8.00     0.24    0.09    0.09    0.00   0.07  18.30
sdc               0.00     0.00 2437.00    0.00  9748.00     0.00     8.00     0.24    0.10    0.10    0.00   0.08  19.60
sdd               0.00     0.00 2354.00    0.00  9416.00     0.00     8.00     0.24    0.10    0.10    0.00   0.08  19.40
sde               0.00     0.00 2402.00    0.00  9608.00     0.00     8.00     0.26    0.11    0.11    0.00   0.08  19.90
sdf               0.00     0.00 2427.00    0.00  9708.00     0.00     8.00     0.25    0.10    0.10    0.00   0.08  20.10
sdg               0.00     2.00    9.00    3.00    36.00    44.00    13.33     0.00    0.08    0.11    0.00   0.08   0.10
sdh               0.00     0.00    0.00    0.00     0.00     0.00     0.00     0.00    0.00    0.00    0.00   0.00   0.00
md0               0.00     0.00 14508.00    0.00 58032.00     0.00     8.00     0.00    0.00    0.00    0.00   0.00   0.00

avg-cpu:  %user   %nice %system %iowait  %steal   %idle
           7.52    0.00   19.55    2.51    0.00   70.43

Device:         rrqm/s   wrqm/s     r/s     w/s    rkB/s    wkB/s avgrq-sz avgqu-sz   await r_await w_await  svctm  %util
sda               0.00     0.00 1907.00    0.00  7628.00     0.00     8.00     0.17    0.09    0.09    0.00   0.08  14.50
sdb               0.00     0.00 1914.00    0.00  7656.00     0.00     8.00     0.20    0.10    0.10    0.00   0.09  16.40
sdc               0.00     0.00 1916.00    0.00  7664.00     0.00     8.00     0.21    0.11    0.11    0.00   0.09  16.70
sdd               0.00     0.00 1856.00    0.00  7424.00     0.00     8.00     0.19    0.10    0.10    0.00   0.09  15.80
sde               0.00     0.00 1910.00    0.00  7640.00     0.00     8.00     0.19    0.10    0.10    0.00   0.08  15.70
sdf               0.00     0.00 1902.00    0.00  7608.00     0.00     8.00     0.20    0.10    0.10    0.00   0.09  17.00
sdg               0.00     0.00    0.00    0.00     0.00     0.00     0.00     0.00    0.00    0.00    0.00   0.00   0.00
sdh               0.00     0.00    0.00    0.00     0.00     0.00     0.00     0.00    0.00    0.00    0.00   0.00   0.00
md0               0.00     0.00 11405.00    0.00 45620.00     0.00     8.00     0.00    0.00    0.00    0.00   0.00   0.00

avg-cpu:  %user   %nice %system %iowait  %steal   %idle
           8.06    0.00   20.65    3.02    0.00   68.26

Device:         rrqm/s   wrqm/s     r/s     w/s    rkB/s    wkB/s avgrq-sz avgqu-sz   await r_await w_await  svctm  %util
sda               0.00     0.00 1534.00    0.00  6136.00     0.00     8.00     0.16    0.10    0.10    0.00   0.09  13.50
sdb               0.00     0.00 1463.00    0.00  5852.00     0.00     8.00     0.16    0.11    0.11    0.00   0.09  13.00
sdc               0.00     0.00 1522.00    0.00  6088.00     0.00     8.00     0.16    0.10    0.10    0.00   0.09  14.00
sdd               0.00     0.00 1560.00    0.00  6240.00     0.00     8.00     0.17    0.11    0.11    0.00   0.09  14.80
sde               0.00     0.00 1485.00    0.00  5940.00     0.00     8.00     0.13    0.09    0.09    0.00   0.08  11.80
sdf               0.00     0.00 1484.00    0.00  5936.00     0.00     8.00     0.16    0.11    0.11    0.00   0.09  13.70
sdg               0.00     0.00    0.00    0.00     0.00     0.00     0.00     0.00    0.00    0.00    0.00   0.00   0.00
sdh               0.00     0.00    0.00    0.00     0.00     0.00     0.00     0.00    0.00    0.00    0.00   0.00   0.00
md0               0.00     0.00 9049.00    0.00 36196.00     0.00     8.00     0.00    0.00    0.00    0.00   0.00   0.00

avg-cpu:  %user   %nice %system %iowait  %steal   %idle
           8.67    0.26   21.68    4.59    0.00   64.80

Device:         rrqm/s   wrqm/s     r/s     w/s    rkB/s    wkB/s avgrq-sz avgqu-sz   await r_await w_await  svctm  %util
sda               0.00     0.00 1138.00    0.00  4552.00     0.00     8.00     0.11    0.10    0.10    0.00   0.09  10.10
sdb               0.00     0.00 1170.00    0.00  4680.00     0.00     8.00     0.12    0.11    0.11    0.00   0.10  11.50
sdc               0.00     0.00 1152.00    0.00  4608.00     0.00     8.00     0.12    0.11    0.11    0.00   0.10  11.60
sdd               0.00     0.00 1120.00    0.00  4480.00     0.00     8.00     0.12    0.10    0.10    0.00   0.09  10.00
sde               0.00     0.00 1216.00    0.00  4864.00     0.00     8.00     0.13    0.11    0.11    0.00   0.09  11.10
sdf               0.00     0.00 1248.00    0.00  4992.00     0.00     8.00     0.16    0.13    0.13    0.00   0.11  13.50
sdg               0.00     0.00 1319.00    0.00  5276.00     0.00     8.00     0.15    0.11    0.11    0.00   0.11  14.90
sdh               0.00     0.00    0.00    0.00     0.00     0.00     0.00     0.00    0.00    0.00    0.00   0.00   0.00
md0               0.00     0.00 7041.00    0.00 28164.00     0.00     8.00     0.00    0.00    0.00    0.00   0.00   0.00

avg-cpu:  %user   %nice %system %iowait  %steal   %idle
           9.64    0.00   22.14    2.08    0.00   66.15

Device:         rrqm/s   wrqm/s     r/s     w/s    rkB/s    wkB/s avgrq-sz avgqu-sz   await r_await w_await  svctm  %util
sda               0.00     0.00  923.00    0.00  3692.00     0.00     8.00     0.09    0.10    0.10    0.00   0.09   8.60
sdb               0.00     0.00  876.00    0.00  3504.00     0.00     8.00     0.08    0.09    0.09    0.00   0.08   7.40
sdc               0.00     0.00  900.00    0.00  3600.00     0.00     8.00     0.11    0.12    0.12    0.00   0.11   9.50
sdd               0.00     0.00  857.00    0.00  3428.00     0.00     8.00     0.09    0.10    0.10    0.00   0.10   8.20
sde               0.00     0.00  888.00    0.00  3552.00     0.00     8.00     0.12    0.14    0.14    0.00   0.13  11.30
sdf               0.00     0.00  884.00    0.00  3536.00     0.00     8.00     0.09    0.11    0.11    0.00   0.10   8.40
sdg               0.00     0.00    0.00    0.00     0.00     0.00     0.00     0.00    0.00    0.00    0.00   0.00   0.00
sdh               0.00     0.00    0.00    0.00     0.00     0.00     0.00     0.00    0.00    0.00    0.00   0.00   0.00
md0               0.00     0.00 5328.00    0.00 21312.00     0.00     8.00     0.00    0.00    0.00    0.00   0.00   0.00

avg-cpu:  %user   %nice %system %iowait  %steal   %idle
          11.65    0.00   25.57    2.53    0.00   60.25

Device:         rrqm/s   wrqm/s     r/s     w/s    rkB/s    wkB/s avgrq-sz avgqu-sz   await r_await w_await  svctm  %util
sda               0.00     0.00  642.00    0.00  2568.00     0.00     8.00     0.06    0.09    0.09    0.00   0.09   5.80
sdb               0.00     0.00  593.00    0.00  2372.00     0.00     8.00     0.05    0.09    0.09    0.00   0.08   4.90
sdc               0.00     0.00  605.00    0.00  2420.00     0.00     8.00     0.05    0.08    0.08    0.00   0.08   4.90
sdd               0.00     0.00  619.00    0.00  2476.00     0.00     8.00     0.07    0.11    0.11    0.00   0.11   6.60
sde               0.00     0.00  632.00    0.00  2528.00     0.00     8.00     0.06    0.10    0.10    0.00   0.10   6.20
sdf               0.00     0.00  612.00    0.00  2448.00     0.00     8.00     0.06    0.10    0.10    0.00   0.10   6.00
sdg               0.00     0.00    0.00 1218.00     0.00  6000.00     9.85     7.34    5.60    0.00    5.60   0.04   5.20
sdh               0.00     0.00    0.00    0.00     0.00     0.00     0.00     0.00    0.00    0.00    0.00   0.00   0.00
md0               0.00     0.00 3704.00    0.00 14816.00     0.00     8.00     0.00    0.00    0.00    0.00   0.00   0.00

avg-cpu:  %user   %nice %system %iowait  %steal   %idle
          11.08    0.00   28.61    2.06    0.00   58.25

Device:         rrqm/s   wrqm/s     r/s     w/s    rkB/s    wkB/s avgrq-sz avgqu-sz   await r_await w_await  svctm  %util
sda               0.00     0.00  436.00    0.00  1744.00     0.00     8.00     0.04    0.10    0.10    0.00   0.10   4.30
sdb               0.00     0.00  419.00    0.00  1676.00     0.00     8.00     0.04    0.10    0.10    0.00   0.10   4.00
sdc               0.00     0.00  417.00    0.00  1668.00     0.00     8.00     0.04    0.11    0.11    0.00   0.10   4.30
sdd               0.00     0.00  437.00    0.00  1748.00     0.00     8.00     0.04    0.10    0.10    0.00   0.10   4.20
sde               0.00     0.00  433.00    0.00  1732.00     0.00     8.00     0.04    0.09    0.09    0.00   0.09   3.70
sdf               0.00     0.00  413.00    0.00  1652.00     0.00     8.00     0.04    0.10    0.10    0.00   0.10   4.20
sdg               0.00     0.00    0.00 1349.00     0.00  6756.00    10.02     8.77    6.89    0.00    6.89   0.05   6.50
sdh               0.00     0.00    0.00    0.00     0.00     0.00     0.00     0.00    0.00    0.00    0.00   0.00   0.00
md0               0.00     0.00 2555.00    0.00 10220.00     0.00     8.00     0.00    0.00    0.00    0.00   0.00   0.00

avg-cpu:  %user   %nice %system %iowait  %steal   %idle
          13.81    0.00   29.16    1.02    0.00   56.01

Device:         rrqm/s   wrqm/s     r/s     w/s    rkB/s    wkB/s avgrq-sz avgqu-sz   await r_await w_await  svctm  %util
sda               0.00     0.00  264.00    0.00  1056.00     0.00     8.00     0.02    0.09    0.09    0.00   0.09   2.40
sdb               0.00     0.00  265.00    0.00  1060.00     0.00     8.00     0.03    0.12    0.12    0.00   0.12   3.10
sdc               0.00     0.00  288.00    0.00  1152.00     0.00     8.00     0.03    0.10    0.10    0.00   0.10   2.80
sdd               0.00     0.00  285.00    0.00  1140.00     0.00     8.00     0.03    0.10    0.10    0.00   0.10   2.80
sde               0.00     0.00  226.00    0.00   904.00     0.00     8.00     0.02    0.10    0.10    0.00   0.10   2.20
sdf               0.00     0.00  245.00    0.00   980.00     0.00     8.00     0.04    0.15    0.15    0.00   0.14   3.50
sdg               0.00     0.00    0.00    0.00     0.00     0.00     0.00     0.00    0.00    0.00    0.00   0.00   0.00
sdh               0.00     0.00    0.00    0.00     0.00     0.00     0.00     0.00    0.00    0.00    0.00   0.00   0.00
md0               0.00     0.00 1572.00    0.00  6288.00     0.00     8.00     0.00    0.00    0.00    0.00   0.00   0.00

avg-cpu:  %user   %nice %system %iowait  %steal   %idle
          13.70    0.00   31.01    0.52    0.00   54.78

Device:         rrqm/s   wrqm/s     r/s     w/s    rkB/s    wkB/s avgrq-sz avgqu-sz   await r_await w_await  svctm  %util
sda               0.00     0.00  144.00    0.00   576.00     0.00     8.00     0.01    0.05    0.05    0.00   0.05   0.70
sdb               0.00     0.00  141.00    0.00   564.00     0.00     8.00     0.01    0.10    0.10    0.00   0.10   1.40
sdc               0.00     0.00  158.00    0.00   632.00     0.00     8.00     0.01    0.09    0.09    0.00   0.09   1.40
sdd               0.00     0.00  145.00    0.00   580.00     0.00     8.00     0.03    0.17    0.17    0.00   0.17   2.50
sde               0.00     0.00  168.00    0.00   672.00     0.00     8.00     0.01    0.09    0.09    0.00   0.09   1.50
sdf               0.00     0.00  167.00    0.00   668.00     0.00     8.00     0.02    0.12    0.12    0.00   0.12   2.00
sdg               0.00     0.00    0.00    0.00     0.00     0.00     0.00     0.00    0.00    0.00    0.00   0.00   0.00
sdh               0.00     0.00    0.00    0.00     0.00     0.00     0.00     0.00    0.00    0.00    0.00   0.00   0.00
md0               0.00     0.00  923.00    0.00  3692.00     0.00     8.00     0.00    0.00    0.00    0.00   0.00   0.00

avg-cpu:  %user   %nice %system %iowait  %steal   %idle
          13.40    0.00   34.99    0.25    0.00   51.36

Device:         rrqm/s   wrqm/s     r/s     w/s    rkB/s    wkB/s avgrq-sz avgqu-sz   await r_await w_await  svctm  %util
sda               0.00     0.00   97.00    0.00   388.00     0.00     8.00     0.01    0.08    0.08    0.00   0.08   0.80
sdb               0.00     0.00   87.00    0.00   348.00     0.00     8.00     0.01    0.08    0.08    0.00   0.08   0.70
sdc               0.00     0.00   78.00    0.00   312.00     0.00     8.00     0.01    0.10    0.10    0.00   0.10   0.80
sdd               0.00     0.00   87.00    0.00   348.00     0.00     8.00     0.01    0.16    0.16    0.00   0.16   1.40
sde               0.00     0.00   99.00    0.00   396.00     0.00     8.00     0.01    0.09    0.09    0.00   0.09   0.90
sdf               0.00     0.00  113.00    0.00   452.00     0.00     8.00     0.01    0.11    0.11    0.00   0.11   1.20
sdg               0.00     0.00    0.00    0.00     0.00     0.00     0.00     0.00    0.00    0.00    0.00   0.00   0.00
sdh               0.00     0.00    0.00    0.00     0.00     0.00     0.00     0.00    0.00    0.00    0.00   0.00   0.00
md0               0.00     0.00  561.00    0.00  2244.00     0.00     8.00     0.00    0.00    0.00    0.00   0.00   0.00

avg-cpu:  %user   %nice %system %iowait  %steal   %idle
          14.68    0.00   33.67    0.25    0.00   51.39

Device:         rrqm/s   wrqm/s     r/s     w/s    rkB/s    wkB/s avgrq-sz avgqu-sz   await r_await w_await  svctm  %util
sda               0.00     0.00   55.00    0.00   220.00     0.00     8.00     0.01    0.09    0.09    0.00   0.09   0.50
sdb               0.00     0.00   54.00    0.00   216.00     0.00     8.00     0.01    0.19    0.19    0.00   0.19   1.00
sdc               0.00     0.00   41.00    0.00   164.00     0.00     8.00     0.00    0.10    0.10    0.00   0.10   0.40
sdd               0.00     0.00   56.00    0.00   224.00     0.00     8.00     0.01    0.09    0.09    0.00   0.09   0.50
sde               0.00     0.00   44.00    0.00   176.00     0.00     8.00     0.00    0.05    0.05    0.00   0.05   0.20
sdf               0.00     0.00   49.00    0.00   196.00     0.00     8.00     0.01    0.12    0.12    0.00   0.12   0.60
sdg               0.00     0.00    0.00    0.00     0.00     0.00     0.00     0.00    0.00    0.00    0.00   0.00   0.00
sdh               0.00     0.00    0.00    0.00     0.00     0.00     0.00     0.00    0.00    0.00    0.00   0.00   0.00
md0               0.00     0.00  299.00    0.00  1196.00     0.00     8.00     0.00    0.00    0.00    0.00   0.00   0.00

avg-cpu:  %user   %nice %system %iowait  %steal   %idle
          14.25    0.00   34.61    0.00    0.00   51.15

Device:         rrqm/s   wrqm/s     r/s     w/s    rkB/s    wkB/s avgrq-sz avgqu-sz   await r_await w_await  svctm  %util
sda               0.00     0.00   25.00    0.00   100.00     0.00     8.00     0.00    0.00    0.00    0.00   0.00   0.00
sdb               0.00     0.00   20.00    0.00    80.00     0.00     8.00     0.00    0.05    0.05    0.00   0.05   0.10
sdc               0.00     0.00   24.00    0.00    96.00     0.00     8.00     0.00    0.00    0.00    0.00   0.00   0.00
sdd               0.00     0.00   22.00    0.00    88.00     0.00     8.00     0.00    0.14    0.14    0.00   0.14   0.30
sde               0.00     0.00   26.00    0.00   104.00     0.00     8.00     0.00    0.15    0.15    0.00   0.15   0.40
sdf               0.00     0.00   34.00    0.00   136.00     0.00     8.00     0.01    0.15    0.15    0.00   0.15   0.50
sdg               0.00     0.00    0.00    0.00     0.00     0.00     0.00     0.00    0.00    0.00    0.00   0.00   0.00
sdh               0.00     0.00    0.00    0.00     0.00     0.00     0.00     0.00    0.00    0.00    0.00   0.00   0.00
md0               0.00     0.00  151.00    0.00   604.00     0.00     8.00     0.00    0.00    0.00    0.00   0.00   0.00

avg-cpu:  %user   %nice %system %iowait  %steal   %idle
          14.55    0.00   33.25    0.00    0.00   52.21

Device:         rrqm/s   wrqm/s     r/s     w/s    rkB/s    wkB/s avgrq-sz avgqu-sz   await r_await w_await  svctm  %util
sda               0.00     0.00   18.00    0.00    72.00     0.00     8.00     0.00    0.06    0.06    0.00   0.06   0.10
sdb               0.00     0.00   13.00    0.00    52.00     0.00     8.00     0.00    0.15    0.15    0.00   0.15   0.20
sdc               0.00     0.00   18.00    0.00    72.00     0.00     8.00     0.00    0.17    0.17    0.00   0.17   0.30
sdd               0.00     0.00   12.00    0.00    48.00     0.00     8.00     0.00    0.33    0.33    0.00   0.33   0.40
sde               0.00     0.00   14.00    0.00    56.00     0.00     8.00     0.00    0.14    0.14    0.00   0.14   0.20
sdf               0.00     0.00   15.00    0.00    60.00     0.00     8.00     0.00    0.33    0.33    0.00   0.27   0.40
sdg               0.00     0.00    0.00    0.00     0.00     0.00     0.00     0.00    0.00    0.00    0.00   0.00   0.00
sdh               0.00     0.00    0.00    0.00     0.00     0.00     0.00     0.00    0.00    0.00    0.00   0.00   0.00
md0               0.00     0.00   90.00    0.00   360.00     0.00     8.00     0.00    0.00    0.00    0.00   0.00   0.00

avg-cpu:  %user   %nice %system %iowait  %steal   %idle
          14.50    0.25   34.86    0.00    0.00   50.38

Device:         rrqm/s   wrqm/s     r/s     w/s    rkB/s    wkB/s avgrq-sz avgqu-sz   await r_await w_await  svctm  %util
sda               0.00     0.00    7.00    0.00    28.00     0.00     8.00     0.00    0.29    0.29    0.00   0.29   0.20
sdb               0.00     0.00    7.00    0.00    28.00     0.00     8.00     0.00    0.00    0.00    0.00   0.00   0.00
sdc               0.00     0.00    5.00    0.00    20.00     0.00     8.00     0.00    0.20    0.20    0.00   0.20   0.10
sdd               0.00     0.00   11.00    0.00    44.00     0.00     8.00     0.00    0.36    0.36    0.00   0.36   0.40
sde               0.00     0.00   12.00    0.00    48.00     0.00     8.00     0.00    0.08    0.08    0.00   0.08   0.10
sdf               0.00     0.00    2.00    0.00     8.00     0.00     8.00     0.00    0.00    0.00    0.00   0.00   0.00
sdg               0.00     0.00    1.00    0.00     4.00     0.00     8.00     0.00    0.00    0.00    0.00   0.00   0.00
sdh               0.00     0.00    0.00    0.00     0.00     0.00     0.00     0.00    0.00    0.00    0.00   0.00   0.00
md0               0.00     0.00   44.00    0.00   176.00     0.00     8.00     0.00    0.00    0.00    0.00   0.00   0.00

avg-cpu:  %user   %nice %system %iowait  %steal   %idle
          14.32    0.00   33.59    0.00    0.00   52.08

Device:         rrqm/s   wrqm/s     r/s     w/s    rkB/s    wkB/s avgrq-sz avgqu-sz   await r_await w_await  svctm  %util
sda               0.00     0.00    5.00    0.00    20.00     0.00     8.00     0.00    0.00    0.00    0.00   0.00   0.00
sdb               0.00     0.00    2.00    0.00     8.00     0.00     8.00     0.00    0.00    0.00    0.00   0.00   0.00
sdc               0.00     0.00    2.00    0.00     8.00     0.00     8.00     0.00    0.00    0.00    0.00   0.00   0.00
sdd               0.00     0.00    2.00    0.00     8.00     0.00     8.00     0.00    0.00    0.00    0.00   0.00   0.00
sde               0.00     0.00    7.00    0.00    28.00     0.00     8.00     0.00    0.14    0.14    0.00   0.14   0.10
sdf               0.00     0.00    4.00    0.00    16.00     0.00     8.00     0.00    0.50    0.50    0.00   0.50   0.20
sdg               0.00     0.00    0.00    0.00     0.00     0.00     0.00     0.00    0.00    0.00    0.00   0.00   0.00
sdh               0.00     0.00    0.00    0.00     0.00     0.00     0.00     0.00    0.00    0.00    0.00   0.00   0.00
md0               0.00     0.00   22.00    0.00    88.00     0.00     8.00     0.00    0.00    0.00    0.00   0.00   0.00

avg-cpu:  %user   %nice %system %iowait  %steal   %idle
          15.35    0.00   33.76    0.00    0.00   50.90

Device:         rrqm/s   wrqm/s     r/s     w/s    rkB/s    wkB/s avgrq-sz avgqu-sz   await r_await w_await  svctm  %util
sda               0.00     0.00    1.00    0.00     4.00     0.00     8.00     0.00    0.00    0.00    0.00   0.00   0.00
sdb               0.00     0.00    0.00    0.00     0.00     0.00     0.00     0.00    0.00    0.00    0.00   0.00   0.00
sdc               0.00     0.00    2.00    0.00     8.00     0.00     8.00     0.00    0.00    0.00    0.00   0.00   0.00
sdd               0.00     0.00    1.00    0.00     4.00     0.00     8.00     0.00    1.00    1.00    0.00   1.00   0.10
sde               0.00     0.00    2.00    0.00     8.00     0.00     8.00     0.00    0.00    0.00    0.00   0.00   0.00
sdf               0.00     0.00    2.00    0.00     8.00     0.00     8.00     0.00    0.00    0.00    0.00   0.00   0.00
sdg               0.00     0.00    0.00    0.00     0.00     0.00     0.00     0.00    0.00    0.00    0.00   0.00   0.00
sdh               0.00     0.00    0.00    0.00     0.00     0.00     0.00     0.00    0.00    0.00    0.00   0.00   0.00
md0               0.00     0.00    8.00    0.00    32.00     0.00     8.00     0.00    0.00    0.00    0.00   0.00   0.00

avg-cpu:  %user   %nice %system %iowait  %steal   %idle
          15.90    0.00   33.08    0.00    0.00   51.03

Device:         rrqm/s   wrqm/s     r/s     w/s    rkB/s    wkB/s avgrq-sz avgqu-sz   await r_await w_await  svctm  %util
sda               0.00     0.00    2.00    0.00     8.00     0.00     8.00     0.00    0.00    0.00    0.00   0.00   0.00
sdb               0.00     0.00    0.00    0.00     0.00     0.00     0.00     0.00    0.00    0.00    0.00   0.00   0.00
sdc               0.00     0.00    0.00    0.00     0.00     0.00     0.00     0.00    0.00    0.00    0.00   0.00   0.00
sdd               0.00     0.00    0.00    0.00     0.00     0.00     0.00     0.00    0.00    0.00    0.00   0.00   0.00
sde               0.00     0.00    1.00    0.00     4.00     0.00     8.00     0.00    0.00    0.00    0.00   0.00   0.00
sdf               0.00     0.00    2.00    0.00     8.00     0.00     8.00     0.00    0.50    0.50    0.00   0.50   0.10
sdg               0.00     0.00    0.00    0.00     0.00     0.00     0.00     0.00    0.00    0.00    0.00   0.00   0.00
sdh               0.00     0.00    0.00    0.00     0.00     0.00     0.00     0.00    0.00    0.00    0.00   0.00   0.00
md0               0.00     0.00    5.00    0.00    20.00     0.00     8.00     0.00    0.00    0.00    0.00   0.00   0.00

avg-cpu:  %user   %nice %system %iowait  %steal   %idle
          14.97    0.00   34.26    0.00    0.00   50.76

Device:         rrqm/s   wrqm/s     r/s     w/s    rkB/s    wkB/s avgrq-sz avgqu-sz   await r_await w_await  svctm  %util
sda               0.00     0.00    0.00    0.00     0.00     0.00     0.00     0.00    0.00    0.00    0.00   0.00   0.00
sdb               0.00     0.00    0.00    0.00     0.00     0.00     0.00     0.00    0.00    0.00    0.00   0.00   0.00
sdc               0.00     0.00    1.00    0.00     4.00     0.00     8.00     0.00    0.00    0.00    0.00   0.00   0.00
sdd               0.00     0.00    1.00    0.00     4.00     0.00     8.00     0.00    0.00    0.00    0.00   0.00   0.00
sde               0.00     0.00    0.00    0.00     0.00     0.00     0.00     0.00    0.00    0.00    0.00   0.00   0.00
sdf               0.00     0.00    1.00    0.00     4.00     0.00     8.00     0.00    0.00    0.00    0.00   0.00   0.00
sdg               0.00     0.00    0.00    0.00     0.00     0.00     0.00     0.00    0.00    0.00    0.00   0.00   0.00
sdh               0.00     0.00    0.00    0.00     0.00     0.00     0.00     0.00    0.00    0.00    0.00   0.00   0.00
md0               0.00     0.00    3.00    0.00    12.00     0.00     8.00     0.00    0.00    0.00    0.00   0.00   0.00

