Linux 4.17.2 (bench) 	08/04/2018 	_x86_64_	(4 CPU)

avg-cpu:  %user   %nice %system %iowait  %steal   %idle
          10.25    0.02    4.27    2.82    0.00   82.64

Device:         rrqm/s   wrqm/s     r/s     w/s    rkB/s    wkB/s avgrq-sz avgqu-sz   await r_await w_await  svctm  %util
sda              57.70     4.14 1758.36  100.08 21459.13  3062.51    26.39     1.05    0.57    0.26    5.92   0.06  11.17
sdb              57.48     4.10 1758.38  100.22 21448.76  3059.25    26.37     1.05    0.57    0.26    5.85   0.06  11.05
sdc              94.98     4.16 1718.80   99.78 21441.08  3061.66    26.95     1.47    0.81    0.44    7.12   0.08  14.55
sdd              88.59     4.13 1724.38   99.85 21426.21  3057.94    26.84     1.48    0.81    0.43    7.33   0.08  14.64
sde              90.54     4.17 1729.39   99.94 21484.80  3062.09    26.84     1.50    0.82    0.44    7.44   0.08  14.66
sdf              87.73     4.15 1731.47   99.89 21466.50  3059.03    26.78     1.54    0.84    0.43    7.90   0.08  14.69
sdg               0.00     3.16   27.10   73.16   326.83   391.72    14.33     0.44    4.38    0.20    5.93   0.08   0.79
sdh               0.00     0.13    0.02    0.23     2.16     4.94    56.82     0.00    1.15    0.65    1.19   0.21   0.01
md0               0.00     0.00 10905.53  468.93 147043.46 20962.37    29.54     0.00    0.00    0.00    0.00   0.00   0.00

avg-cpu:  %user   %nice %system %iowait  %steal   %idle
          13.19    0.03   50.60    0.01    0.00   36.17

Device:         rrqm/s   wrqm/s     r/s     w/s    rkB/s    wkB/s avgrq-sz avgqu-sz   await r_await w_await  svctm  %util
sda               0.00     0.00    3.30    0.00    54.00     0.00    32.73     0.00    0.26    0.26    0.00   0.11   0.04
sdb               0.00     0.00    2.85    0.00    77.60     0.00    54.46     0.00    0.23    0.23    0.00   0.11   0.03
sdc               0.00     0.00    1.95    0.00    67.60     0.00    69.33     0.00    0.31    0.31    0.00   0.21   0.04
sdd               0.00     0.00    1.85    0.00    48.00     0.00    51.89     0.00    0.51    0.51    0.00   0.24   0.04
sde               0.00     0.00    3.40    0.00    54.20     0.00    31.88     0.00    0.19    0.19    0.00   0.10   0.04
sdf               0.05     0.00    2.85    0.00    72.60     0.00    50.95     0.00    0.28    0.28    0.00   0.14   0.04
sdg               0.00     0.10    1.60    0.50    18.60     9.20    26.48     0.00    0.12    0.16    0.00   0.12   0.03
sdh               0.00     0.00    0.00    0.00     0.00     0.00     0.00     0.00    0.00    0.00    0.00   0.00   0.00
md0               0.00     0.00   16.35    0.00   387.80     0.00    47.44     0.00    0.00    0.00    0.00   0.00   0.00

