Linux 4.17.2 (bench) 	08/04/2018 	_x86_64_	(4 CPU)

avg-cpu:  %user   %nice %system %iowait  %steal   %idle
          10.25    0.02    4.20    2.78    0.00   82.75

Device:         rrqm/s   wrqm/s     r/s     w/s    rkB/s    wkB/s avgrq-sz avgqu-sz   await r_await w_await  svctm  %util
sda              55.97     4.17 1746.97  100.75 21474.05  3082.91    26.58     1.05    0.57    0.26    5.92   0.06  11.12
sdb              55.75     4.13 1746.99  100.89 21463.59  3079.63    26.56     1.05    0.57    0.26    5.85   0.06  11.00
sdc              93.48     4.19 1707.16  100.44 21455.84  3082.05    27.15     1.47    0.81    0.44    7.12   0.08  14.51
sdd              87.05     4.16 1712.78  100.51 21440.92  3078.31    27.04     1.48    0.82    0.43    7.33   0.08  14.61
sde              89.03     4.20 1717.85  100.61 21500.06  3082.49    27.04     1.50    0.83    0.44    7.44   0.08  14.63
sdf              86.20     4.17 1719.94  100.55 21481.63  3079.41    26.98     1.54    0.85    0.44    7.90   0.08  14.66
sdg               0.00     3.16   26.97   73.24   326.65   392.00    14.34     0.44    4.39    0.20    5.93   0.08   0.79
sdh               0.00     0.13    0.02    0.23     2.17     4.97    56.82     0.00    1.15    0.65    1.19   0.21   0.01
md0               0.00     0.00 10826.85  472.05 147209.31 21102.01    29.79     0.00    0.00    0.00    0.00   0.00   0.00

avg-cpu:  %user   %nice %system %iowait  %steal   %idle
           4.54    0.03   34.32   44.95    0.00   16.16

Device:         rrqm/s   wrqm/s     r/s     w/s    rkB/s    wkB/s avgrq-sz avgqu-sz   await r_await w_await  svctm  %util
sda               0.00     0.00 23911.55    0.00 95646.20     0.00     8.00     3.55    0.15    0.15    0.00   0.03  80.09
sdb               0.00     0.00 23899.30    0.00 95597.20     0.00     8.00     3.37    0.14    0.14    0.00   0.03  78.88
sdc               0.00     0.00 23969.85    0.00 95879.40     0.00     8.00     4.16    0.17    0.17    0.00   0.03  79.61
sdd               0.00     0.00 23866.70    0.00 95466.80     0.00     8.00     4.17    0.17    0.17    0.00   0.03  79.83
sde               0.00     0.00 23911.70    0.00 95647.00     0.00     8.00     4.18    0.17    0.17    0.00   0.03  80.13
sdf               0.00     0.00 23845.20    0.00 95380.80     0.00     8.00     4.15    0.17    0.17    0.00   0.03  80.27
sdg               0.00     8.35    1.70  130.35    12.80   678.00    10.46     0.75    5.81    0.35    5.88   0.05   0.68
sdh               0.00     0.00    0.00    0.00     0.00     0.00     0.00     0.00    0.00    0.00    0.00   0.00   0.00
md0               0.00     0.00 143406.60    0.00 573626.40     0.00     8.00     0.00    0.00    0.00    0.00   0.00   0.00

