Linux 4.17.2 (bench) 	08/04/2018 	_x86_64_	(4 CPU)

avg-cpu:  %user   %nice %system %iowait  %steal   %idle
          10.25    0.02    4.32    2.84    0.00   82.57

Device:         rrqm/s   wrqm/s     r/s     w/s    rkB/s    wkB/s avgrq-sz avgqu-sz   await r_await w_await  svctm  %util
sda              58.07     4.13 1762.49   99.68 21436.50  3050.09    26.30     1.05    0.56    0.26    5.92   0.06  11.18
sdb              57.86     4.09 1762.51   99.81 21426.16  3046.84    26.28     1.05    0.56    0.26    5.85   0.06  11.06
sdc              95.21     4.15 1723.09   99.37 21418.52  3049.24    26.85     1.47    0.81    0.44    7.12   0.08  14.55
sdd              88.85     4.11 1728.63   99.44 21403.67  3045.54    26.75     1.47    0.81    0.43    7.33   0.08  14.65
sde              90.80     4.16 1733.62   99.54 21461.99  3049.67    26.74     1.50    0.82    0.44    7.44   0.08  14.67
sdf              87.99     4.13 1735.68   99.48 21443.73  3046.62    26.69     1.54    0.84    0.43    7.90   0.08  14.70
sdg               0.00     3.15   27.17   73.11   326.91   391.54    14.33     0.44    4.38    0.20    5.93   0.08   0.79
sdh               0.00     0.12    0.02    0.23     2.15     4.92    56.82     0.00    1.15    0.65    1.19   0.21   0.01
md0               0.00     0.00 10932.60  467.02 146861.20 20877.32    29.43     0.00    0.00    0.00    0.00   0.00   0.00

avg-cpu:  %user   %nice %system %iowait  %steal   %idle
           1.98    0.01   34.00   52.06    0.00   11.95

Device:         rrqm/s   wrqm/s     r/s     w/s    rkB/s    wkB/s avgrq-sz avgqu-sz   await r_await w_await  svctm  %util
sda               0.00     0.00 22831.75    0.00 91327.00     0.00     8.00     3.41    0.15    0.15    0.00   0.03  76.31
sdb               0.00     0.00 22852.65    0.00 91410.60     0.00     8.00     3.43    0.15    0.15    0.00   0.03  73.28
sdc               0.00     0.00 22928.25    0.00 91713.00     0.00     8.00     3.93    0.17    0.17    0.00   0.04  80.96
sdd               0.00     0.00 22937.45    0.00 91749.80     0.00     8.00     3.92    0.17    0.17    0.00   0.04  81.54
sde               0.00     0.00 22813.20    0.00 91252.80     0.00     8.00     3.88    0.17    0.17    0.00   0.04  81.41
sdf               0.00     0.00 22852.50    0.00 91410.00     0.00     8.00     3.91    0.17    0.17    0.00   0.04  82.00
sdg               0.00     4.80    2.70   69.55    29.60   357.00    10.70     0.38    5.32    0.22    5.52   0.05   0.35
sdh               0.00     0.00    0.00    0.00     0.00     0.00     0.00     0.00    0.00    0.00    0.00   0.00   0.00
md0               0.00     0.00 137214.65    0.00 548858.60     0.00     8.00     0.00    0.00    0.00    0.00   0.00   0.00

