Linux 4.17.2 (bench) 	08/03/2018 	_x86_64_	(4 CPU)

avg-cpu:  %user   %nice %system %iowait  %steal   %idle
          10.25    0.02    4.20    2.76    0.00   82.78

Device:         rrqm/s   wrqm/s     r/s     w/s    rkB/s    wkB/s avgrq-sz avgqu-sz   await r_await w_await  svctm  %util
sda              55.48     4.18 1741.13  100.86 21464.02  3086.21    26.66     1.05    0.57    0.26    5.92   0.06  11.10
sdb              55.27     4.14 1741.16  100.99 21453.53  3082.92    26.64     1.05    0.57    0.26    5.85   0.06  10.98
sdc              93.03     4.19 1701.28  100.55 21445.78  3085.35    27.23     1.47    0.82    0.44    7.12   0.08  14.49
sdd              86.59     4.16 1706.91  100.62 21430.87  3081.60    27.12     1.48    0.82    0.43    7.33   0.08  14.58
sde              88.58     4.21 1712.00  100.72 21490.11  3085.78    27.12     1.50    0.83    0.44    7.44   0.08  14.61
sdf              85.74     4.18 1714.09  100.66 21471.66  3082.70    27.06     1.54    0.85    0.44    7.90   0.08  14.64
sdg               0.00     3.16   26.94   73.25   326.55   392.03    14.34     0.44    4.39    0.20    5.93   0.08   0.79
sdh               0.00     0.13    0.02    0.23     2.17     4.98    56.82     0.00    1.15    0.65    1.19   0.21   0.01
md0               0.00     0.00 10788.97  472.56 147168.87 21124.57    29.89     0.00    0.00    0.00    0.00   0.00   0.00

avg-cpu:  %user   %nice %system %iowait  %steal   %idle
           0.67    0.01   14.83   64.89    0.00   19.60

Device:         rrqm/s   wrqm/s     r/s     w/s    rkB/s    wkB/s avgrq-sz avgqu-sz   await r_await w_await  svctm  %util
sda               0.00     0.00 9987.70    0.00 39950.80     0.00     8.00     1.04    0.10    0.10    0.00   0.06  63.81
sdb               0.00     0.00 10010.20    0.00 40040.80     0.00     8.00     1.05    0.11    0.11    0.00   0.06  64.62
sdc               0.00     0.00 10019.80    0.00 40079.20     0.00     8.00     1.17    0.12    0.12    0.00   0.07  68.98
sdd               0.00     0.00 9996.70    0.00 39986.80     0.00     8.00     1.16    0.12    0.12    0.00   0.07  68.73
sde               0.00     0.00 10003.90    0.00 40015.60     0.00     8.00     1.17    0.12    0.12    0.00   0.07  68.58
sdf               0.00     0.00 9989.55    0.00 39958.20     0.00     8.00     1.17    0.12    0.12    0.00   0.07  68.84
sdg               0.00     6.35    1.80  132.20    12.60   707.20    10.74     0.79    5.92    0.22    6.00   0.05   0.66
sdh               0.00     0.00    0.00    0.00     0.00     0.00     0.00     0.00    0.00    0.00    0.00   0.00   0.00
md0               0.00     0.00 60008.40    0.00 240033.60     0.00     8.00     0.00    0.00    0.00    0.00   0.00   0.00

