Linux 4.17.2 (bench) 	08/04/2018 	_x86_64_	(4 CPU)

avg-cpu:  %user   %nice %system %iowait  %steal   %idle
          10.25    0.02    4.33    2.86    0.00   82.55

Device:         rrqm/s   wrqm/s     r/s     w/s    rkB/s    wkB/s avgrq-sz avgqu-sz   await r_await w_await  svctm  %util
sda              58.83     4.12 1767.03   99.58 21445.25  3046.97    26.24     1.05    0.56    0.26    5.92   0.06  11.20
sdb              58.62     4.08 1767.05   99.71 21434.90  3043.73    26.23     1.05    0.56    0.26    5.85   0.06  11.08
sdc              95.94     4.14 1727.67   99.27 21427.28  3046.12    26.79     1.47    0.80    0.44    7.12   0.08  14.57
sdd              89.58     4.11 1733.21   99.34 21412.47  3042.43    26.69     1.48    0.81    0.43    7.33   0.08  14.67
sde              91.52     4.15 1738.17   99.43 21470.65  3046.56    26.68     1.50    0.81    0.44    7.44   0.08  14.69
sdf              88.72     4.13 1740.25   99.38 21452.44  3043.51    26.63     1.54    0.84    0.43    7.90   0.08  14.72
sdg               0.00     3.15   27.19   73.10   326.95   391.50    14.33     0.44    4.37    0.20    5.93   0.08   0.79
sdh               0.00     0.12    0.02    0.23     2.15     4.92    56.82     0.00    1.15    0.65    1.19   0.21   0.01
md0               0.00     0.00 10964.37  466.55 146898.33 20856.02    29.35     0.00    0.00    0.00    0.00   0.00   0.00

avg-cpu:  %user   %nice %system %iowait  %steal   %idle
           1.82    0.00    6.23    2.08    0.00   89.87

Device:         rrqm/s   wrqm/s     r/s     w/s    rkB/s    wkB/s avgrq-sz avgqu-sz   await r_await w_await  svctm  %util
sda               0.00     0.00 6262.00    0.00 25048.00     0.00     8.00     0.64    0.10    0.10    0.00   0.06  40.70
sdb               0.00     0.00 6328.00    0.00 25312.00     0.00     8.00     0.66    0.10    0.10    0.00   0.06  40.30
sdc               0.00     0.00 6359.00    0.00 25436.00     0.00     8.00     0.74    0.12    0.12    0.00   0.07  44.90
sdd               0.00     0.00 6409.00    0.00 25636.00     0.00     8.00     0.74    0.12    0.12    0.00   0.07  45.50
sde               0.00     0.00 6438.00    0.00 25752.00     0.00     8.00     0.74    0.12    0.12    0.00   0.07  45.60
sdf               0.00     0.00 6322.00    0.00 25288.00     0.00     8.00     0.72    0.11    0.11    0.00   0.07  44.50
sdg               0.00     0.00    0.00    0.00     0.00     0.00     0.00     0.00    0.00    0.00    0.00   0.00   0.00
sdh               0.00     0.00    0.00    0.00     0.00     0.00     0.00     0.00    0.00    0.00    0.00   0.00   0.00
md0               0.00     0.00 38101.00    0.00 152404.00     0.00     8.00     0.00    0.00    0.00    0.00   0.00   0.00

avg-cpu:  %user   %nice %system %iowait  %steal   %idle
           1.83    0.00    5.50    0.79    0.00   91.88

Device:         rrqm/s   wrqm/s     r/s     w/s    rkB/s    wkB/s avgrq-sz avgqu-sz   await r_await w_await  svctm  %util
sda               0.00     0.00 6565.00    0.00 26260.00     0.00     8.00     0.69    0.10    0.10    0.00   0.07  43.60
sdb               0.00     0.00 6583.00    0.00 26332.00     0.00     8.00     0.65    0.10    0.10    0.00   0.06  42.30
sdc               0.00     0.00 6586.00    0.00 26344.00     0.00     8.00     0.76    0.12    0.12    0.00   0.07  45.80
sdd               0.00     0.00 6516.00    0.00 26064.00     0.00     8.00     0.72    0.11    0.11    0.00   0.07  46.80
sde               0.00     0.00 6608.00    0.00 26432.00     0.00     8.00     0.78    0.12    0.12    0.00   0.07  49.30
sdf               0.00     0.00 6459.00    0.00 25836.00     0.00     8.00     0.76    0.12    0.12    0.00   0.08  48.90
sdg               0.00     0.00    0.00    0.00     0.00     0.00     0.00     0.00    0.00    0.00    0.00   0.00   0.00
sdh               0.00     0.00    0.00    0.00     0.00     0.00     0.00     0.00    0.00    0.00    0.00   0.00   0.00
md0               0.00     0.00 39324.00    0.00 157296.00     0.00     8.00     0.00    0.00    0.00    0.00   0.00   0.00

