Linux 4.17.2 (bench) 	08/04/2018 	_x86_64_	(4 CPU)

avg-cpu:  %user   %nice %system %iowait  %steal   %idle
          10.25    0.02    4.20    2.77    0.00   82.76

Device:         rrqm/s   wrqm/s     r/s     w/s    rkB/s    wkB/s avgrq-sz avgqu-sz   await r_await w_await  svctm  %util
sda              55.64     4.17 1743.11  100.81 21465.62  3084.71    26.63     1.05    0.57    0.26    5.92   0.06  11.11
sdb              55.42     4.13 1743.13  100.94 21455.15  3081.43    26.61     1.05    0.57    0.26    5.85   0.06  10.99
sdc              93.17     4.19 1703.28  100.50 21447.39  3083.85    27.20     1.47    0.82    0.44    7.12   0.08  14.50
sdd              86.73     4.16 1708.90  100.57 21432.49  3080.11    27.09     1.48    0.82    0.43    7.33   0.08  14.59
sde              88.72     4.21 1713.98  100.67 21491.68  3084.29    27.09     1.50    0.83    0.44    7.44   0.08  14.61
sdf              85.88     4.18 1716.07  100.61 21473.24  3081.21    27.03     1.54    0.85    0.44    7.90   0.08  14.64
sdg               0.00     3.16   26.95   73.25   326.59   392.02    14.34     0.44    4.39    0.20    5.93   0.08   0.79
sdh               0.00     0.13    0.02    0.23     2.17     4.98    56.82     0.00    1.15    0.65    1.19   0.21   0.01
md0               0.00     0.00 10801.73  472.33 147169.55 21114.34    29.85     0.00    0.00    0.00    0.00   0.00   0.00

avg-cpu:  %user   %nice %system %iowait  %steal   %idle
           0.26    0.00   14.87   69.23    0.00   15.64

Device:         rrqm/s   wrqm/s     r/s     w/s    rkB/s    wkB/s avgrq-sz avgqu-sz   await r_await w_await  svctm  %util
sda               0.00     0.00 10862.00    0.00 43448.00     0.00     8.00     1.13    0.10    0.10    0.00   0.06  68.20
sdb               0.00     0.00 10843.00    0.00 43372.00     0.00     8.00     1.07    0.10    0.10    0.00   0.06  67.00
sdc               0.00     0.00 10651.00    0.00 42604.00     0.00     8.00     1.26    0.12    0.12    0.00   0.07  73.10
sdd               0.00     0.00 10927.00    0.00 43708.00     0.00     8.00     1.20    0.11    0.11    0.00   0.06  70.80
sde               0.00     0.00 10795.00    0.00 43180.00     0.00     8.00     1.19    0.11    0.11    0.00   0.06  69.80
sdf               0.00     0.00 10715.00    0.00 42860.00     0.00     8.00     1.18    0.11    0.11    0.00   0.07  69.80
sdg               0.00     0.00    2.00    0.00    44.00     0.00    44.00     0.00    0.50    0.50    0.00   0.00   0.00
sdh               0.00     0.00    0.00    0.00     0.00     0.00     0.00     0.00    0.00    0.00    0.00   0.00   0.00
md0               0.00     0.00 64806.00    0.00 259224.00     0.00     8.00     0.00    0.00    0.00    0.00   0.00   0.00

avg-cpu:  %user   %nice %system %iowait  %steal   %idle
           0.76    0.00   15.27   68.45    0.00   15.52

Device:         rrqm/s   wrqm/s     r/s     w/s    rkB/s    wkB/s avgrq-sz avgqu-sz   await r_await w_await  svctm  %util
sda               0.00     0.00 10718.00    0.00 42872.00     0.00     8.00     1.11    0.10    0.10    0.00   0.06  67.50
sdb               0.00     0.00 10966.00    0.00 43864.00     0.00     8.00     1.12    0.10    0.10    0.00   0.06  67.60
sdc               0.00     0.00 11007.00    0.00 44028.00     0.00     8.00     1.21    0.11    0.11    0.00   0.07  71.70
sdd               0.00     0.00 10815.00    0.00 43260.00     0.00     8.00     1.25    0.12    0.12    0.00   0.07  72.70
sde               0.00     0.00 10707.00    0.00 42828.00     0.00     8.00     1.24    0.12    0.12    0.00   0.07  72.30
sdf               0.00     0.00 10992.00    0.00 43968.00     0.00     8.00     1.19    0.11    0.11    0.00   0.06  70.80
sdg               0.00     0.00    0.00    0.00     0.00     0.00     0.00     0.00    0.00    0.00    0.00   0.00   0.00
sdh               0.00     0.00    0.00    0.00     0.00     0.00     0.00     0.00    0.00    0.00    0.00   0.00   0.00
md0               0.00     0.00 65206.00    0.00 260824.00     0.00     8.00     0.00    0.00    0.00    0.00   0.00   0.00

avg-cpu:  %user   %nice %system %iowait  %steal   %idle
           0.26    0.00   14.65   69.67    0.00   15.42

Device:         rrqm/s   wrqm/s     r/s     w/s    rkB/s    wkB/s avgrq-sz avgqu-sz   await r_await w_await  svctm  %util
sda               0.00     0.00 10889.00    0.00 43556.00     0.00     8.00     1.14    0.11    0.11    0.00   0.06  67.70
sdb               0.00     0.00 10962.00    0.00 43848.00     0.00     8.00     1.13    0.10    0.10    0.00   0.06  68.00
sdc               0.00     0.00 10735.00    0.00 42940.00     0.00     8.00     1.22    0.11    0.11    0.00   0.07  72.10
sdd               0.00     0.00 11061.00    0.00 44244.00     0.00     8.00     1.22    0.11    0.11    0.00   0.07  72.50
sde               0.00     0.00 10845.00    0.00 43380.00     0.00     8.00     1.24    0.11    0.11    0.00   0.07  71.80
sdf               0.00     0.00 10821.00    0.00 43284.00     0.00     8.00     1.25    0.12    0.12    0.00   0.07  71.90
sdg               0.00     0.00    0.00    0.00     0.00     0.00     0.00     0.00    0.00    0.00    0.00   0.00   0.00
sdh               0.00     0.00    0.00    0.00     0.00     0.00     0.00     0.00    0.00    0.00    0.00   0.00   0.00
md0               0.00     0.00 65312.00    0.00 261248.00     0.00     8.00     0.00    0.00    0.00    0.00   0.00   0.00

avg-cpu:  %user   %nice %system %iowait  %steal   %idle
           0.51    0.26   15.35   68.80    0.00   15.09

Device:         rrqm/s   wrqm/s     r/s     w/s    rkB/s    wkB/s avgrq-sz avgqu-sz   await r_await w_await  svctm  %util
sda               0.00     0.00 10876.00    0.00 43504.00     0.00     8.00     1.06    0.10    0.10    0.00   0.06  65.60
sdb               0.00     0.00 10811.00    0.00 43244.00     0.00     8.00     1.08    0.10    0.10    0.00   0.06  67.10
sdc               0.00     0.00 10751.00    0.00 43004.00     0.00     8.00     1.22    0.11    0.11    0.00   0.07  70.90
sdd               0.00     0.00 10789.00    0.00 43156.00     0.00     8.00     1.26    0.12    0.12    0.00   0.07  72.50
sde               0.00     0.00 11026.00    0.00 44104.00     0.00     8.00     1.26    0.11    0.11    0.00   0.07  73.40
sdf               0.00     0.00 10811.00    0.00 43244.00     0.00     8.00     1.25    0.12    0.12    0.00   0.07  70.90
sdg               0.00     0.00  434.00    0.00  2204.00     0.00    10.16     0.06    0.13    0.13    0.00   0.11   4.80
sdh               0.00     0.00    0.00    0.00     0.00     0.00     0.00     0.00    0.00    0.00    0.00   0.00   0.00
md0               0.00     0.00 65063.00    0.00 260252.00     0.00     8.00     0.00    0.00    0.00    0.00   0.00   0.00

avg-cpu:  %user   %nice %system %iowait  %steal   %idle
           0.51    0.00   16.67   68.69    0.00   14.14

Device:         rrqm/s   wrqm/s     r/s     w/s    rkB/s    wkB/s avgrq-sz avgqu-sz   await r_await w_await  svctm  %util
sda               0.00     0.00 10661.00    0.00 42644.00     0.00     8.00     1.14    0.11    0.11    0.00   0.07  69.40
sdb               0.00     0.00 10815.00    0.00 43260.00     0.00     8.00     1.06    0.10    0.10    0.00   0.06  65.70
sdc               0.00     0.00 11080.00    0.00 44320.00     0.00     8.00     1.26    0.11    0.11    0.00   0.07  72.30
sdd               0.00     0.00 10957.00    0.00 43828.00     0.00     8.00     1.25    0.11    0.11    0.00   0.07  71.40
sde               0.00     0.00 10910.00    0.00 43640.00     0.00     8.00     1.27    0.12    0.12    0.00   0.07  73.00
sdf               0.00     0.00 10764.00    0.00 43056.00     0.00     8.00     1.21    0.11    0.11    0.00   0.07  72.00
sdg               0.00     0.00 1456.00    0.00  5824.00     0.00     8.00     0.16    0.11    0.11    0.00   0.11  16.00
sdh               0.00     0.00    0.00    0.00     0.00     0.00     0.00     0.00    0.00    0.00    0.00   0.00   0.00
md0               0.00     0.00 65191.00    0.00 260764.00     0.00     8.00     0.00    0.00    0.00    0.00   0.00   0.00

avg-cpu:  %user   %nice %system %iowait  %steal   %idle
           0.51    0.00   14.80   68.37    0.00   16.33

Device:         rrqm/s   wrqm/s     r/s     w/s    rkB/s    wkB/s avgrq-sz avgqu-sz   await r_await w_await  svctm  %util
sda               0.00     0.00 10682.00    0.00 42728.00     0.00     8.00     1.07    0.10    0.10    0.00   0.06  64.70
sdb               0.00     0.00 10790.00    0.00 43160.00     0.00     8.00     1.10    0.10    0.10    0.00   0.06  67.10
sdc               0.00     0.00 10687.00    0.00 42748.00     0.00     8.00     1.22    0.11    0.11    0.00   0.07  70.30
sdd               0.00     0.00 10610.00    0.00 42440.00     0.00     8.00     1.19    0.11    0.11    0.00   0.07  71.10
sde               0.00     0.00 10776.00    0.00 43104.00     0.00     8.00     1.22    0.11    0.11    0.00   0.07  70.10
sdf               0.00     0.00 10673.00    0.00 42692.00     0.00     8.00     1.24    0.12    0.12    0.00   0.07  72.60
sdg               0.00     0.00    0.00    0.00     0.00     0.00     0.00     0.00    0.00    0.00    0.00   0.00   0.00
sdh               0.00     0.00    0.00    0.00     0.00     0.00     0.00     0.00    0.00    0.00    0.00   0.00   0.00
md0               0.00     0.00 64216.00    0.00 256864.00     0.00     8.00     0.00    0.00    0.00    0.00   0.00   0.00

avg-cpu:  %user   %nice %system %iowait  %steal   %idle
           0.51    0.00   13.78   64.80    0.00   20.92

Device:         rrqm/s   wrqm/s     r/s     w/s    rkB/s    wkB/s avgrq-sz avgqu-sz   await r_await w_await  svctm  %util
sda               0.00     0.00 10344.00    0.00 41376.00     0.00     8.00     1.07    0.10    0.10    0.00   0.06  64.30
sdb               0.00     0.00 10368.00    0.00 41472.00     0.00     8.00     1.05    0.10    0.10    0.00   0.06  64.80
sdc               0.00     0.00 10340.00    0.00 41360.00     0.00     8.00     1.15    0.11    0.11    0.00   0.06  66.30
sdd               0.00     0.00 10486.00    0.00 41944.00     0.00     8.00     1.22    0.12    0.12    0.00   0.07  70.10
sde               0.00     0.00 10274.00    0.00 41096.00     0.00     8.00     1.27    0.12    0.12    0.00   0.07  72.70
sdf               0.00     0.00 10192.00    0.00 40768.00     0.00     8.00     1.12    0.11    0.11    0.00   0.07  67.30
sdg               0.00     0.00    0.00    0.00     0.00     0.00     0.00     0.00    0.00    0.00    0.00   0.00   0.00
sdh               0.00     0.00    0.00    0.00     0.00     0.00     0.00     0.00    0.00    0.00    0.00   0.00   0.00
md0               0.00     0.00 62003.00    0.00 248012.00     0.00     8.00     0.00    0.00    0.00    0.00   0.00   0.00

avg-cpu:  %user   %nice %system %iowait  %steal   %idle
           0.26    0.00   13.37   66.07    0.00   20.31

Device:         rrqm/s   wrqm/s     r/s     w/s    rkB/s    wkB/s avgrq-sz avgqu-sz   await r_await w_await  svctm  %util
sda               0.00     0.00 10542.00    0.00 42168.00     0.00     8.00     1.10    0.10    0.10    0.00   0.06  66.60
sdb               0.00     0.00 10517.00    0.00 42068.00     0.00     8.00     1.04    0.10    0.10    0.00   0.06  64.00
sdc               0.00     0.00 10379.00    0.00 41516.00     0.00     8.00     1.20    0.12    0.12    0.00   0.07  72.70
sdd               0.00     0.00 10465.00    0.00 41860.00     0.00     8.00     1.22    0.12    0.12    0.00   0.07  71.10
sde               0.00     0.00 10266.00    0.00 41064.00     0.00     8.00     1.28    0.12    0.12    0.00   0.07  73.90
sdf               0.00     0.00 10218.00    0.00 40872.00     0.00     8.00     1.14    0.11    0.11    0.00   0.07  67.30
sdg               0.00     0.00    0.00    0.00     0.00     0.00     0.00     0.00    0.00    0.00    0.00   0.00   0.00
sdh               0.00     0.00    0.00    0.00     0.00     0.00     0.00     0.00    0.00    0.00    0.00   0.00   0.00
md0               0.00     0.00 62379.00    0.00 249516.00     0.00     8.00     0.00    0.00    0.00    0.00   0.00   0.00

avg-cpu:  %user   %nice %system %iowait  %steal   %idle
           0.51    0.00   13.55   65.47    0.00   20.46

Device:         rrqm/s   wrqm/s     r/s     w/s    rkB/s    wkB/s avgrq-sz avgqu-sz   await r_await w_await  svctm  %util
sda               0.00     0.00 10260.00    0.00 41040.00     0.00     8.00     1.08    0.11    0.11    0.00   0.06  65.70
sdb               0.00     0.00 10510.00    0.00 42040.00     0.00     8.00     1.07    0.10    0.10    0.00   0.06  65.30
sdc               0.00     0.00 10327.00    0.00 41308.00     0.00     8.00     1.20    0.12    0.12    0.00   0.07  69.40
sdd               0.00     0.00 10386.00    0.00 41544.00     0.00     8.00     1.16    0.11    0.11    0.00   0.07  68.30
sde               0.00     0.00 10412.00    0.00 41648.00     0.00     8.00     1.24    0.12    0.12    0.00   0.07  72.30
sdf               0.00     0.00 10524.00    0.00 42096.00     0.00     8.00     1.20    0.11    0.11    0.00   0.07  71.10
sdg               0.00     0.00    0.00    0.00     0.00     0.00     0.00     0.00    0.00    0.00    0.00   0.00   0.00
sdh               0.00     0.00    0.00    0.00     0.00     0.00     0.00     0.00    0.00    0.00    0.00   0.00   0.00
md0               0.00     0.00 62429.00    0.00 249716.00     0.00     8.00     0.00    0.00    0.00    0.00   0.00   0.00

avg-cpu:  %user   %nice %system %iowait  %steal   %idle
           0.51    0.00   14.21   64.21    0.00   21.07

Device:         rrqm/s   wrqm/s     r/s     w/s    rkB/s    wkB/s avgrq-sz avgqu-sz   await r_await w_await  svctm  %util
sda               0.00     0.00 10604.00    0.00 42416.00     0.00     8.00     1.04    0.10    0.10    0.00   0.06  63.90
sdb               0.00     0.00 10376.00    0.00 41504.00     0.00     8.00     1.06    0.10    0.10    0.00   0.06  66.70
sdc               0.00     0.00 10355.00    0.00 41420.00     0.00     8.00     1.18    0.11    0.11    0.00   0.07  69.70
sdd               0.00     0.00 10294.00    0.00 41176.00     0.00     8.00     1.15    0.11    0.11    0.00   0.07  70.40
sde               0.00     0.00 10104.00    0.00 40416.00     0.00     8.00     1.30    0.13    0.13    0.00   0.07  72.20
sdf               0.00     0.00 10409.00    0.00 41636.00     0.00     8.00     1.16    0.11    0.11    0.00   0.07  68.10
sdg               0.00     0.00    0.00    0.00     0.00     0.00     0.00     0.00    0.00    0.00    0.00   0.00   0.00
sdh               0.00     0.00    0.00    0.00     0.00     0.00     0.00     0.00    0.00    0.00    0.00   0.00   0.00
md0               0.00     0.00 62138.00    0.00 248552.00     0.00     8.00     0.00    0.00    0.00    0.00   0.00   0.00

avg-cpu:  %user   %nice %system %iowait  %steal   %idle
           0.75    0.00   14.57   63.57    0.00   21.11

Device:         rrqm/s   wrqm/s     r/s     w/s    rkB/s    wkB/s avgrq-sz avgqu-sz   await r_await w_await  svctm  %util
sda               0.00     0.00 10518.00    0.00 42072.00     0.00     8.00     1.08    0.10    0.10    0.00   0.06  65.30
sdb               0.00     0.00 10403.00    0.00 41612.00     0.00     8.00     1.08    0.10    0.10    0.00   0.06  66.60
sdc               0.00     0.00 10190.00    0.00 40760.00     0.00     8.00     1.14    0.11    0.11    0.00   0.07  67.30
sdd               0.00     0.00 10365.00    0.00 41460.00     0.00     8.00     1.12    0.11    0.11    0.00   0.07  69.40
sde               0.00     0.00 10223.00    0.00 40892.00     0.00     8.00     1.31    0.13    0.13    0.00   0.07  74.00
sdf               0.00     0.00 10243.00    0.00 40972.00     0.00     8.00     1.17    0.11    0.11    0.00   0.07  67.90
sdg               0.00     0.00    0.00    0.00     0.00     0.00     0.00     0.00    0.00    0.00    0.00   0.00   0.00
sdh               0.00     0.00    0.00    0.00     0.00     0.00     0.00     0.00    0.00    0.00    0.00   0.00   0.00
md0               0.00     0.00 61943.00    0.00 247772.00     0.00     8.00     0.00    0.00    0.00    0.00   0.00   0.00

avg-cpu:  %user   %nice %system %iowait  %steal   %idle
           0.51    0.00   13.27   65.05    0.00   21.17

Device:         rrqm/s   wrqm/s     r/s     w/s    rkB/s    wkB/s avgrq-sz avgqu-sz   await r_await w_await  svctm  %util
sda               0.00     0.00 10374.00    0.00 41496.00     0.00     8.00     1.10    0.11    0.11    0.00   0.06  66.30
sdb               0.00     0.00 10154.00    0.00 40616.00     0.00     8.00     1.03    0.10    0.10    0.00   0.06  64.00
sdc               0.00     0.00 9997.00    0.00 39988.00     0.00     8.00     1.11    0.11    0.11    0.00   0.07  67.90
sdd               0.00     0.00 9939.00    0.00 39756.00     0.00     8.00     1.13    0.11    0.11    0.00   0.07  67.60
sde               0.00     0.00 10294.00    0.00 41176.00     0.00     8.00     1.38    0.13    0.13    0.00   0.07  75.00
sdf               0.00     0.00 10159.00    0.00 40636.00     0.00     8.00     1.16    0.11    0.11    0.00   0.07  69.10
sdg               0.00     0.00    0.00    0.00     0.00     0.00     0.00     0.00    0.00    0.00    0.00   0.00   0.00
sdh               0.00     0.00    0.00    0.00     0.00     0.00     0.00     0.00    0.00    0.00    0.00   0.00   0.00
md0               0.00     0.00 60906.00    0.00 243624.00     0.00     8.00     0.00    0.00    0.00    0.00   0.00   0.00

avg-cpu:  %user   %nice %system %iowait  %steal   %idle
           0.25    0.00   14.65   64.90    0.00   20.20

Device:         rrqm/s   wrqm/s     r/s     w/s    rkB/s    wkB/s avgrq-sz avgqu-sz   await r_await w_await  svctm  %util
sda               0.00     0.00 10282.00    0.00 41128.00     0.00     8.00     1.01    0.10    0.10    0.00   0.06  64.30
sdb               0.00     0.00 10307.00    0.00 41228.00     0.00     8.00     1.03    0.10    0.10    0.00   0.06  64.20
sdc               0.00     0.00 10131.00    0.00 40524.00     0.00     8.00     1.15    0.11    0.11    0.00   0.07  66.20
sdd               0.00     0.00 10347.00    0.00 41388.00     0.00     8.00     1.18    0.11    0.11    0.00   0.07  68.50
sde               0.00     0.00 10485.00    0.00 41940.00     0.00     8.00     1.33    0.13    0.13    0.00   0.07  73.20
sdf               0.00     0.00 10542.00    0.00 42168.00     0.00     8.00     1.21    0.11    0.11    0.00   0.06  68.50
sdg               0.00     0.00    0.00    0.00     0.00     0.00     0.00     0.00    0.00    0.00    0.00   0.00   0.00
sdh               0.00     0.00    0.00    0.00     0.00     0.00     0.00     0.00    0.00    0.00    0.00   0.00   0.00
md0               0.00     0.00 62105.00    0.00 248420.00     0.00     8.00     0.00    0.00    0.00    0.00   0.00   0.00

avg-cpu:  %user   %nice %system %iowait  %steal   %idle
           0.76    0.25   13.74   65.65    0.00   19.59

Device:         rrqm/s   wrqm/s     r/s     w/s    rkB/s    wkB/s avgrq-sz avgqu-sz   await r_await w_await  svctm  %util
sda               0.00     0.00 10466.00    0.00 41864.00     0.00     8.00     1.07    0.10    0.10    0.00   0.06  66.30
sdb               0.00     0.00 10350.00    0.00 41400.00     0.00     8.00     1.08    0.10    0.10    0.00   0.06  66.20
sdc               0.00     0.00 10339.00    0.00 41356.00     0.00     8.00     1.14    0.11    0.11    0.00   0.07  70.80
sdd               0.00     0.00 10390.00    0.00 41560.00     0.00     8.00     1.22    0.12    0.12    0.00   0.07  70.30
sde               0.00     0.00 10425.00    0.00 41700.00     0.00     8.00     1.29    0.12    0.12    0.00   0.07  72.50
sdf               0.00     0.00 10494.00    0.00 41976.00     0.00     8.00     1.18    0.11    0.11    0.00   0.07  69.40
sdg               0.00     0.00    7.00    0.00    28.00     0.00     8.00     0.00    0.14    0.14    0.00   0.14   0.10
sdh               0.00     0.00    0.00    0.00     0.00     0.00     0.00     0.00    0.00    0.00    0.00   0.00   0.00
md0               0.00     0.00 62467.00    0.00 249868.00     0.00     8.00     0.00    0.00    0.00    0.00   0.00   0.00

avg-cpu:  %user   %nice %system %iowait  %steal   %idle
           0.51    0.00   14.18   65.57    0.00   19.75

Device:         rrqm/s   wrqm/s     r/s     w/s    rkB/s    wkB/s avgrq-sz avgqu-sz   await r_await w_await  svctm  %util
sda               0.00     0.00 10048.00    0.00 40192.00     0.00     8.00     0.99    0.10    0.10    0.00   0.06  62.70
sdb               0.00     0.00 10210.00    0.00 40840.00     0.00     8.00     1.07    0.10    0.10    0.00   0.06  64.20
sdc               0.00     0.00 10284.00    0.00 41136.00     0.00     8.00     1.17    0.11    0.11    0.00   0.07  70.70
sdd               0.00     0.00 10191.00    0.00 40764.00     0.00     8.00     1.23    0.12    0.12    0.00   0.07  67.80
sde               0.00     0.00 10252.00    0.00 41008.00     0.00     8.00     1.27    0.12    0.12    0.00   0.07  71.70
sdf               0.00     0.00 10371.00    0.00 41484.00     0.00     8.00     1.18    0.11    0.11    0.00   0.07  69.40
sdg               0.00     1.00   10.00    5.00    40.00    48.00    11.73     0.01    0.60    0.10    1.60   0.60   0.90
sdh               0.00     0.00    0.00    0.00     0.00     0.00     0.00     0.00    0.00    0.00    0.00   0.00   0.00
md0               0.00     0.00 61352.00    0.00 245408.00     0.00     8.00     0.00    0.00    0.00    0.00   0.00   0.00

avg-cpu:  %user   %nice %system %iowait  %steal   %idle
           0.51    0.00   14.72   69.29    0.00   15.48

Device:         rrqm/s   wrqm/s     r/s     w/s    rkB/s    wkB/s avgrq-sz avgqu-sz   await r_await w_await  svctm  %util
sda               0.00     0.00 11219.00    0.00 44876.00     0.00     8.00     1.11    0.10    0.10    0.00   0.06  70.70
sdb               0.00     0.00 11122.00    0.00 44488.00     0.00     8.00     1.15    0.10    0.10    0.00   0.06  69.00
sdc               0.00     0.00 11073.00    0.00 44292.00     0.00     8.00     1.27    0.11    0.11    0.00   0.07  74.10
sdd               0.00     0.00 11077.00    0.00 44308.00     0.00     8.00     1.22    0.11    0.11    0.00   0.07  72.90
sde               0.00     0.00 11154.00    0.00 44616.00     0.00     8.00     1.25    0.11    0.11    0.00   0.07  72.80
sdf               0.00     0.00 10888.00    0.00 43552.00     0.00     8.00     1.20    0.11    0.11    0.00   0.07  71.40
sdg               0.00     0.00    0.00    0.00     0.00     0.00     0.00     0.00    0.00    0.00    0.00   0.00   0.00
sdh               0.00     0.00    0.00    0.00     0.00     0.00     0.00     0.00    0.00    0.00    0.00   0.00   0.00
md0               0.00     0.00 66535.00    0.00 266140.00     0.00     8.00     0.00    0.00    0.00    0.00   0.00   0.00

avg-cpu:  %user   %nice %system %iowait  %steal   %idle
           0.25    0.00   15.19   68.61    0.00   15.95

Device:         rrqm/s   wrqm/s     r/s     w/s    rkB/s    wkB/s avgrq-sz avgqu-sz   await r_await w_await  svctm  %util
sda               0.00     0.00 11006.00    0.00 44024.00     0.00     8.00     1.11    0.10    0.10    0.00   0.06  68.00
sdb               0.00     0.00 10893.00    0.00 43572.00     0.00     8.00     1.10    0.10    0.10    0.00   0.06  66.80
sdc               0.00     0.00 11047.00    0.00 44188.00     0.00     8.00     1.27    0.12    0.12    0.00   0.07  73.20
sdd               0.00     0.00 11115.00    0.00 44460.00     0.00     8.00     1.28    0.11    0.11    0.00   0.07  73.40
sde               0.00     0.00 11103.00    0.00 44412.00     0.00     8.00     1.24    0.11    0.11    0.00   0.07  72.70
sdf               0.00     0.00 11207.00    0.00 44828.00     0.00     8.00     1.29    0.12    0.12    0.00   0.07  73.50
sdg               0.00     0.00    0.00    0.00     0.00     0.00     0.00     0.00    0.00    0.00    0.00   0.00   0.00
sdh               0.00     0.00    0.00    0.00     0.00     0.00     0.00     0.00    0.00    0.00    0.00   0.00   0.00
md0               0.00     0.00 66372.00    0.00 265488.00     0.00     8.00     0.00    0.00    0.00    0.00   0.00   0.00

avg-cpu:  %user   %nice %system %iowait  %steal   %idle
           0.76    0.00   14.90   67.93    0.00   16.41

Device:         rrqm/s   wrqm/s     r/s     w/s    rkB/s    wkB/s avgrq-sz avgqu-sz   await r_await w_await  svctm  %util
sda               0.00     0.00 10986.00    0.00 43944.00     0.00     8.00     1.16    0.11    0.11    0.00   0.06  70.70
sdb               0.00     0.00 11039.00    0.00 44156.00     0.00     8.00     1.14    0.10    0.10    0.00   0.06  70.60
sdc               0.00     0.00 11003.00    0.00 44012.00     0.00     8.00     1.21    0.11    0.11    0.00   0.07  71.70
sdd               0.00     0.00 11133.00    0.00 44532.00     0.00     8.00     1.27    0.11    0.11    0.00   0.07  75.10
sde               0.00     0.00 11018.00    0.00 44072.00     0.00     8.00     1.21    0.11    0.11    0.00   0.07  72.10
sdf               0.00     0.00 11227.00    0.00 44908.00     0.00     8.00     1.31    0.12    0.12    0.00   0.07  75.40
sdg               0.00     0.00    0.00    5.00     0.00   132.00    52.80     0.00    0.00    0.00    0.00   0.00   0.00
sdh               0.00     0.00    0.00    0.00     0.00     0.00     0.00     0.00    0.00    0.00    0.00   0.00   0.00
md0               0.00     0.00 66405.00    0.00 265620.00     0.00     8.00     0.00    0.00    0.00    0.00   0.00   0.00

avg-cpu:  %user   %nice %system %iowait  %steal   %idle
           0.51    0.00   14.76   68.96    0.00   15.78

Device:         rrqm/s   wrqm/s     r/s     w/s    rkB/s    wkB/s avgrq-sz avgqu-sz   await r_await w_await  svctm  %util
sda               0.00     0.00 11126.00    0.00 44504.00     0.00     8.00     1.14    0.10    0.10    0.00   0.06  68.80
sdb               0.00     0.00 11076.00    0.00 44304.00     0.00     8.00     1.14    0.10    0.10    0.00   0.06  68.60
sdc               0.00     0.00 11290.00    0.00 45160.00     0.00     8.00     1.29    0.11    0.11    0.00   0.06  73.30
sdd               0.00     0.00 11010.00    0.00 44040.00     0.00     8.00     1.23    0.11    0.11    0.00   0.06  71.40
sde               0.00     0.00 11281.00    0.00 45124.00     0.00     8.00     1.26    0.11    0.11    0.00   0.06  73.00
sdf               0.00     0.00 10910.00    0.00 43640.00     0.00     8.00     1.26    0.12    0.12    0.00   0.07  73.00
sdg               0.00     0.00    0.00    0.00     0.00     0.00     0.00     0.00    0.00    0.00    0.00   0.00   0.00
sdh               0.00     0.00    0.00    0.00     0.00     0.00     0.00     0.00    0.00    0.00    0.00   0.00   0.00
md0               0.00     0.00 66693.00    0.00 266772.00     0.00     8.00     0.00    0.00    0.00    0.00   0.00   0.00

avg-cpu:  %user   %nice %system %iowait  %steal   %idle
           0.25    0.00   16.25   67.25    0.00   16.25

Device:         rrqm/s   wrqm/s     r/s     w/s    rkB/s    wkB/s avgrq-sz avgqu-sz   await r_await w_await  svctm  %util
sda               0.00     0.00 11208.00    0.00 44832.00     0.00     8.00     1.16    0.10    0.10    0.00   0.06  67.30
sdb               0.00     0.00 10948.00    0.00 43792.00     0.00     8.00     1.09    0.10    0.10    0.00   0.06  68.00
sdc               0.00     0.00 11178.00    0.00 44712.00     0.00     8.00     1.27    0.11    0.11    0.00   0.07  74.50
sdd               0.00     0.00 11080.00    0.00 44320.00     0.00     8.00     1.22    0.11    0.11    0.00   0.06  71.70
sde               0.00     0.00 10911.00    0.00 43644.00     0.00     8.00     1.27    0.12    0.12    0.00   0.07  73.30
sdf               0.00     0.00 10986.00    0.00 43944.00     0.00     8.00     1.24    0.11    0.11    0.00   0.07  72.20
sdg               0.00     1.00    1.00    1.00     4.00    20.00    24.00     0.00    0.00    0.00    0.00   0.00   0.00
sdh               0.00     0.00    0.00    0.00     0.00     0.00     0.00     0.00    0.00    0.00    0.00   0.00   0.00
md0               0.00     0.00 66310.00    0.00 265240.00     0.00     8.00     0.00    0.00    0.00    0.00   0.00   0.00

