Linux 4.17.2 (bench) 	08/04/2018 	_x86_64_	(4 CPU)

avg-cpu:  %user   %nice %system %iowait  %steal   %idle
          10.25    0.02    4.20    2.77    0.00   82.76

Device:         rrqm/s   wrqm/s     r/s     w/s    rkB/s    wkB/s avgrq-sz avgqu-sz   await r_await w_await  svctm  %util
sda              55.81     4.17 1744.47  100.79 21468.59  3084.03    26.61     1.05    0.57    0.26    5.92   0.06  11.11
sdb              55.59     4.13 1744.49  100.92 21458.11  3080.74    26.59     1.05    0.57    0.26    5.85   0.06  10.99
sdc              93.33     4.19 1704.65  100.48 21450.36  3083.17    27.18     1.47    0.82    0.44    7.12   0.08  14.50
sdd              86.90     4.16 1710.27  100.55 21435.44  3079.43    27.08     1.48    0.82    0.43    7.33   0.08  14.60
sde              88.88     4.20 1715.35  100.64 21494.63  3083.60    27.07     1.50    0.83    0.44    7.44   0.08  14.62
sdf              86.05     4.18 1717.44  100.59 21476.17  3080.52    27.01     1.54    0.85    0.44    7.90   0.08  14.65
sdg               0.00     3.16   26.97   73.25   326.64   392.02    14.34     0.44    4.39    0.20    5.93   0.08   0.79
sdh               0.00     0.13    0.02    0.23     2.17     4.98    56.82     0.00    1.15    0.65    1.19   0.21   0.01
md0               0.00     0.00 10810.93  472.22 147183.18 21109.63    29.83     0.00    0.00    0.00    0.00   0.00   0.00

avg-cpu:  %user   %nice %system %iowait  %steal   %idle
           1.28    0.00   21.74   62.92    0.00   14.07

Device:         rrqm/s   wrqm/s     r/s     w/s    rkB/s    wkB/s avgrq-sz avgqu-sz   await r_await w_await  svctm  %util
sda               0.00     0.00 15240.00    0.00 60960.00     0.00     8.00     1.82    0.12    0.12    0.00   0.04  62.40
sdb               0.00     0.00 15366.00    0.00 61464.00     0.00     8.00     1.82    0.12    0.12    0.00   0.04  59.40
sdc               0.00     0.00 15175.00    0.00 60700.00     0.00     8.00     2.12    0.14    0.14    0.00   0.05  68.60
sdd               0.00     0.00 14774.00    0.00 59096.00     0.00     8.00     2.13    0.14    0.14    0.00   0.04  65.50
sde               0.00     0.00 15041.00    0.00 60164.00     0.00     8.00     2.11    0.14    0.14    0.00   0.04  65.10
sdf               0.00     0.00 15515.00    0.00 62060.00     0.00     8.00     2.18    0.14    0.14    0.00   0.04  68.20
sdg               0.00     0.00    2.00    0.00    44.00     0.00    44.00     0.00    0.00    0.00    0.00   0.00   0.00
sdh               0.00     0.00    0.00    0.00     0.00     0.00     0.00     0.00    0.00    0.00    0.00   0.00   0.00
md0               0.00     0.00 91135.00    0.00 364540.00     0.00     8.00     0.00    0.00    0.00    0.00   0.00   0.00

avg-cpu:  %user   %nice %system %iowait  %steal   %idle
           1.02    0.51   23.86   61.42    0.00   13.20

Device:         rrqm/s   wrqm/s     r/s     w/s    rkB/s    wkB/s avgrq-sz avgqu-sz   await r_await w_await  svctm  %util
sda               0.00     0.00 15400.00    0.00 61600.00     0.00     8.00     1.86    0.12    0.12    0.00   0.04  63.10
sdb               0.00     0.00 15190.00    0.00 60760.00     0.00     8.00     1.79    0.12    0.12    0.00   0.04  61.80
sdc               0.00     0.00 15356.00    0.00 61424.00     0.00     8.00     2.16    0.14    0.14    0.00   0.04  67.60
sdd               0.00     0.00 15286.00    0.00 61144.00     0.00     8.00     2.12    0.14    0.14    0.00   0.04  67.20
sde               0.00     0.00 15182.00    0.00 60728.00     0.00     8.00     2.21    0.15    0.15    0.00   0.05  68.40
sdf               0.00     0.00 15128.00    0.00 60512.00     0.00     8.00     2.08    0.14    0.14    0.00   0.04  67.10
sdg               0.00     0.00 1903.00    0.00  8212.00     0.00     8.63     0.22    0.12    0.12    0.00   0.11  20.80
sdh               0.00     0.00    0.00    0.00     0.00     0.00     0.00     0.00    0.00    0.00    0.00   0.00   0.00
md0               0.00     0.00 91521.00    0.00 366084.00     0.00     8.00     0.00    0.00    0.00    0.00   0.00   0.00

avg-cpu:  %user   %nice %system %iowait  %steal   %idle
           1.03    0.00   20.93   64.08    0.00   13.95

Device:         rrqm/s   wrqm/s     r/s     w/s    rkB/s    wkB/s avgrq-sz avgqu-sz   await r_await w_await  svctm  %util
sda               0.00     0.00 15134.00    0.00 60536.00     0.00     8.00     1.82    0.12    0.12    0.00   0.04  61.50
sdb               0.00     0.00 15212.00    0.00 60848.00     0.00     8.00     1.84    0.12    0.12    0.00   0.04  61.20
sdc               0.00     0.00 16024.00    0.00 64096.00     0.00     8.00     2.26    0.14    0.14    0.00   0.04  69.00
sdd               0.00     0.00 15217.00    0.00 60868.00     0.00     8.00     2.02    0.13    0.13    0.00   0.04  66.20
sde               0.00     0.00 15395.00    0.00 61580.00     0.00     8.00     2.15    0.14    0.14    0.00   0.04  68.70
sdf               0.00     0.00 15086.00    0.00 60344.00     0.00     8.00     2.08    0.14    0.14    0.00   0.04  67.80
sdg               0.00     0.00    0.00    0.00     0.00     0.00     0.00     0.00    0.00    0.00    0.00   0.00   0.00
sdh               0.00     0.00    0.00    0.00     0.00     0.00     0.00     0.00    0.00    0.00    0.00   0.00   0.00
md0               0.00     0.00 92088.00    0.00 368352.00     0.00     8.00     0.00    0.00    0.00    0.00   0.00   0.00

avg-cpu:  %user   %nice %system %iowait  %steal   %idle
           1.02    0.00   21.88   62.34    0.00   14.76

Device:         rrqm/s   wrqm/s     r/s     w/s    rkB/s    wkB/s avgrq-sz avgqu-sz   await r_await w_await  svctm  %util
sda               0.00     0.00 14740.00    0.00 58960.00     0.00     8.00     1.75    0.12    0.12    0.00   0.04  63.60
sdb               0.00     0.00 14971.00    0.00 59884.00     0.00     8.00     1.78    0.12    0.12    0.00   0.04  60.20
sdc               0.00     0.00 16136.00    0.00 64544.00     0.00     8.00     2.33    0.14    0.14    0.00   0.04  68.00
sdd               0.00     0.00 14422.00    0.00 57688.00     0.00     8.00     1.98    0.14    0.14    0.00   0.05  65.60
sde               0.00     0.00 15685.00    0.00 62740.00     0.00     8.00     2.29    0.15    0.15    0.00   0.05  71.20
sdf               0.00     0.00 14145.00    0.00 56580.00     0.00     8.00     1.95    0.14    0.14    0.00   0.04  63.50
sdg               0.00     0.00    0.00    0.00     0.00     0.00     0.00     0.00    0.00    0.00    0.00   0.00   0.00
sdh               0.00     0.00    0.00    0.00     0.00     0.00     0.00     0.00    0.00    0.00    0.00   0.00   0.00
md0               0.00     0.00 90102.00    0.00 360408.00     0.00     8.00     0.00    0.00    0.00    0.00   0.00   0.00

avg-cpu:  %user   %nice %system %iowait  %steal   %idle
           0.78    0.00   20.93   64.08    0.00   14.21

Device:         rrqm/s   wrqm/s     r/s     w/s    rkB/s    wkB/s avgrq-sz avgqu-sz   await r_await w_await  svctm  %util
sda               0.00     0.00 14573.00    0.00 58292.00     0.00     8.00     1.78    0.12    0.12    0.00   0.04  64.30
sdb               0.00     0.00 15687.00    0.00 62748.00     0.00     8.00     1.87    0.12    0.12    0.00   0.04  60.80
sdc               0.00     0.00 15201.00    0.00 60804.00     0.00     8.00     2.12    0.14    0.14    0.00   0.04  65.70
sdd               0.00     0.00 15628.00    0.00 62512.00     0.00     8.00     2.18    0.14    0.14    0.00   0.04  67.40
sde               0.00     0.00 15083.00    0.00 60332.00     0.00     8.00     2.11    0.14    0.14    0.00   0.05  68.20
sdf               0.00     0.00 15513.00    0.00 62052.00     0.00     8.00     2.17    0.14    0.14    0.00   0.04  69.00
sdg               0.00     0.00   13.00    0.00   284.00     0.00    43.69     0.00    0.31    0.31    0.00   0.31   0.40
sdh               0.00     0.00    0.00    0.00     0.00     0.00     0.00     0.00    0.00    0.00    0.00   0.00   0.00
md0               0.00     0.00 91681.00    0.00 366724.00     0.00     8.00     0.00    0.00    0.00    0.00   0.00   0.00

avg-cpu:  %user   %nice %system %iowait  %steal   %idle
           1.27    0.00   21.57   63.20    0.00   13.96

Device:         rrqm/s   wrqm/s     r/s     w/s    rkB/s    wkB/s avgrq-sz avgqu-sz   await r_await w_await  svctm  %util
sda               0.00     0.00 14981.00    0.00 59924.00     0.00     8.00     1.85    0.12    0.12    0.00   0.04  64.90
sdb               0.00     0.00 15371.00    0.00 61484.00     0.00     8.00     1.83    0.12    0.12    0.00   0.04  60.90
sdc               0.00     0.00 15770.00    0.00 63080.00     0.00     8.00     2.18    0.14    0.14    0.00   0.04  68.60
sdd               0.00     0.00 15481.00    0.00 61924.00     0.00     8.00     2.16    0.14    0.14    0.00   0.04  67.60
sde               0.00     0.00 15434.00    0.00 61736.00     0.00     8.00     2.12    0.14    0.14    0.00   0.04  68.70
sdf               0.00     0.00 15055.00    0.00 60220.00     0.00     8.00     2.05    0.14    0.14    0.00   0.05  68.50
sdg               0.00     0.00    1.00    0.00     4.00     0.00     8.00     0.00    0.00    0.00    0.00   0.00   0.00
sdh               0.00     0.00    0.00    0.00     0.00     0.00     0.00     0.00    0.00    0.00    0.00   0.00   0.00
md0               0.00     0.00 92081.00    0.00 368324.00     0.00     8.00     0.00    0.00    0.00    0.00   0.00   0.00

avg-cpu:  %user   %nice %system %iowait  %steal   %idle
           1.76    0.00   21.41   62.72    0.00   14.11

Device:         rrqm/s   wrqm/s     r/s     w/s    rkB/s    wkB/s avgrq-sz avgqu-sz   await r_await w_await  svctm  %util
sda               0.00     0.00 15124.00    0.00 60496.00     0.00     8.00     1.76    0.12    0.12    0.00   0.04  60.20
sdb               0.00     0.00 14650.00    0.00 58600.00     0.00     8.00     1.69    0.12    0.12    0.00   0.04  58.50
sdc               0.00     0.00 15531.00    0.00 62124.00     0.00     8.00     2.13    0.14    0.14    0.00   0.04  66.00
sdd               0.00     0.00 15218.00    0.00 60872.00     0.00     8.00     2.14    0.14    0.14    0.00   0.04  64.70
sde               0.00     0.00 15643.00    0.00 62572.00     0.00     8.00     2.17    0.14    0.14    0.00   0.04  68.70
sdf               0.00     0.00 14930.00    0.00 59720.00     0.00     8.00     2.03    0.14    0.14    0.00   0.04  66.10
sdg               0.00     0.00    0.00    0.00     0.00     0.00     0.00     0.00    0.00    0.00    0.00   0.00   0.00
sdh               0.00     0.00    0.00    0.00     0.00     0.00     0.00     0.00    0.00    0.00    0.00   0.00   0.00
md0               0.00     0.00 91110.00    0.00 364440.00     0.00     8.00     0.00    0.00    0.00    0.00   0.00   0.00

avg-cpu:  %user   %nice %system %iowait  %steal   %idle
           1.02    0.00   21.23   64.45    0.00   13.30

Device:         rrqm/s   wrqm/s     r/s     w/s    rkB/s    wkB/s avgrq-sz avgqu-sz   await r_await w_await  svctm  %util
sda               0.00     0.00 15392.00    0.00 61568.00     0.00     8.00     1.81    0.12    0.12    0.00   0.04  60.80
sdb               0.00     0.00 15133.00    0.00 60532.00     0.00     8.00     1.76    0.12    0.12    0.00   0.04  57.70
sdc               0.00     0.00 15495.00    0.00 61980.00     0.00     8.00     2.19    0.14    0.14    0.00   0.04  66.80
sdd               0.00     0.00 15895.00    0.00 63580.00     0.00     8.00     2.17    0.14    0.14    0.00   0.04  67.60
sde               0.00     0.00 14968.00    0.00 59872.00     0.00     8.00     2.16    0.14    0.14    0.00   0.05  68.90
sdf               0.00     0.00 15320.00    0.00 61280.00     0.00     8.00     2.11    0.14    0.14    0.00   0.04  66.70
sdg               0.00     0.00    0.00    0.00     0.00     0.00     0.00     0.00    0.00    0.00    0.00   0.00   0.00
sdh               0.00     0.00    0.00    0.00     0.00     0.00     0.00     0.00    0.00    0.00    0.00   0.00   0.00
md0               0.00     0.00 92185.00    0.00 368740.00     0.00     8.00     0.00    0.00    0.00    0.00   0.00   0.00

avg-cpu:  %user   %nice %system %iowait  %steal   %idle
           1.03    0.00   20.62   64.69    0.00   13.66

Device:         rrqm/s   wrqm/s     r/s     w/s    rkB/s    wkB/s avgrq-sz avgqu-sz   await r_await w_await  svctm  %util
sda               0.00     0.00 15413.00    0.00 61652.00     0.00     8.00     1.86    0.12    0.12    0.00   0.04  62.80
sdb               0.00     0.00 15670.00    0.00 62680.00     0.00     8.00     1.91    0.12    0.12    0.00   0.04  60.10
sdc               0.00     0.00 14779.00    0.00 59116.00     0.00     8.00     2.06    0.14    0.14    0.00   0.05  67.40
sdd               0.00     0.00 15659.00    0.00 62636.00     0.00     8.00     2.21    0.14    0.14    0.00   0.04  69.30
sde               0.00     0.00 14994.00    0.00 59976.00     0.00     8.00     2.10    0.14    0.14    0.00   0.05  68.10
sdf               0.00     0.00 16038.00    0.00 64152.00     0.00     8.00     2.32    0.14    0.14    0.00   0.04  71.30
sdg               0.00     0.00    0.00    0.00     0.00     0.00     0.00     0.00    0.00    0.00    0.00   0.00   0.00
sdh               0.00     0.00    0.00    0.00     0.00     0.00     0.00     0.00    0.00    0.00    0.00   0.00   0.00
md0               0.00     0.00 92565.00    0.00 370260.00     0.00     8.00     0.00    0.00    0.00    0.00   0.00   0.00

avg-cpu:  %user   %nice %system %iowait  %steal   %idle
           1.02    0.00   21.63   64.12    0.00   13.23

Device:         rrqm/s   wrqm/s     r/s     w/s    rkB/s    wkB/s avgrq-sz avgqu-sz   await r_await w_await  svctm  %util
sda               0.00     0.00 16118.00    0.00 64472.00     0.00     8.00     1.90    0.12    0.12    0.00   0.04  62.90
sdb               0.00     0.00 15262.00    0.00 61048.00     0.00     8.00     1.80    0.12    0.12    0.00   0.04  60.00
sdc               0.00     0.00 16086.00    0.00 64344.00     0.00     8.00     2.27    0.14    0.14    0.00   0.04  67.40
sdd               0.00     0.00 16107.00    0.00 64428.00     0.00     8.00     2.27    0.14    0.14    0.00   0.04  69.50
sde               0.00     0.00 14455.00    0.00 57820.00     0.00     8.00     2.04    0.14    0.14    0.00   0.05  68.00
sdf               0.00     0.00 14784.00    0.00 59136.00     0.00     8.00     2.04    0.14    0.14    0.00   0.04  66.40
sdg               0.00     0.00    0.00    4.00     0.00   128.00    64.00     0.00    0.00    0.00    0.00   0.00   0.00
sdh               0.00     0.00    0.00    0.00     0.00     0.00     0.00     0.00    0.00    0.00    0.00   0.00   0.00
md0               0.00     0.00 92814.00    0.00 371256.00     0.00     8.00     0.00    0.00    0.00    0.00   0.00   0.00

avg-cpu:  %user   %nice %system %iowait  %steal   %idle
           1.01    0.00   21.97   63.89    0.00   13.13

Device:         rrqm/s   wrqm/s     r/s     w/s    rkB/s    wkB/s avgrq-sz avgqu-sz   await r_await w_await  svctm  %util
sda               0.00     0.00 15480.00    0.00 61920.00     0.00     8.00     1.86    0.12    0.12    0.00   0.04  62.90
sdb               0.00     0.00 15868.00    0.00 63472.00     0.00     8.00     1.93    0.12    0.12    0.00   0.04  62.50
sdc               0.00     0.00 15438.00    0.00 61752.00     0.00     8.00     2.16    0.14    0.14    0.00   0.04  67.50
sdd               0.00     0.00 15421.00    0.00 61684.00     0.00     8.00     2.27    0.15    0.15    0.00   0.05  69.60
sde               0.00     0.00 14590.00    0.00 58360.00     0.00     8.00     2.03    0.14    0.14    0.00   0.05  67.20
sdf               0.00     0.00 15606.00    0.00 62424.00     0.00     8.00     2.14    0.14    0.14    0.00   0.04  67.10
sdg               0.00     0.00    0.00    0.00     0.00     0.00     0.00     0.00    0.00    0.00    0.00   0.00   0.00
sdh               0.00     0.00    0.00    0.00     0.00     0.00     0.00     0.00    0.00    0.00    0.00   0.00   0.00
md0               0.00     0.00 92393.00    0.00 369572.00     0.00     8.00     0.00    0.00    0.00    0.00   0.00   0.00

avg-cpu:  %user   %nice %system %iowait  %steal   %idle
           1.03    0.00   21.28   64.10    0.00   13.59

Device:         rrqm/s   wrqm/s     r/s     w/s    rkB/s    wkB/s avgrq-sz avgqu-sz   await r_await w_await  svctm  %util
sda               0.00     0.00 16458.00    0.00 65832.00     0.00     8.00     1.97    0.12    0.12    0.00   0.04  62.60
sdb               0.00     0.00 15845.00    0.00 63380.00     0.00     8.00     1.82    0.11    0.11    0.00   0.04  60.60
sdc               0.00     0.00 14738.00    0.00 58952.00     0.00     8.00     2.03    0.14    0.14    0.00   0.05  66.80
sdd               0.00     0.00 14859.00    0.00 59436.00     0.00     8.00     2.08    0.14    0.14    0.00   0.04  66.60
sde               0.00     0.00 15503.00    0.00 62012.00     0.00     8.00     2.21    0.14    0.14    0.00   0.04  68.50
sdf               0.00     0.00 15296.00    0.00 61184.00     0.00     8.00     2.13    0.14    0.14    0.00   0.05  69.90
sdg               0.00     0.00    3.00    0.00    12.00     0.00     8.00     0.00    0.67    0.67    0.00   0.67   0.20
sdh               0.00     0.00    0.00    0.00     0.00     0.00     0.00     0.00    0.00    0.00    0.00   0.00   0.00
md0               0.00     0.00 92711.00    0.00 370844.00     0.00     8.00     0.00    0.00    0.00    0.00   0.00   0.00

avg-cpu:  %user   %nice %system %iowait  %steal   %idle
           1.03    0.00   20.26   64.10    0.00   14.62

Device:         rrqm/s   wrqm/s     r/s     w/s    rkB/s    wkB/s avgrq-sz avgqu-sz   await r_await w_await  svctm  %util
sda               0.00     0.00 15538.00    0.00 62152.00     0.00     8.00     1.92    0.12    0.12    0.00   0.04  64.10
sdb               0.00     0.00 15871.00    0.00 63484.00     0.00     8.00     1.92    0.12    0.12    0.00   0.04  61.90
sdc               0.00     0.00 14871.00    0.00 59484.00     0.00     8.00     2.13    0.14    0.14    0.00   0.05  67.00
sdd               0.00     0.00 15359.00    0.00 61436.00     0.00     8.00     2.19    0.14    0.14    0.00   0.04  67.80
sde               0.00     0.00 14580.00    0.00 58320.00     0.00     8.00     2.02    0.14    0.14    0.00   0.05  67.40
sdf               0.00     0.00 15000.00    0.00 60000.00     0.00     8.00     2.11    0.14    0.14    0.00   0.04  66.00
sdg               0.00     0.00    0.00    0.00     0.00     0.00     0.00     0.00    0.00    0.00    0.00   0.00   0.00
sdh               0.00     0.00    0.00    0.00     0.00     0.00     0.00     0.00    0.00    0.00    0.00   0.00   0.00
md0               0.00     0.00 91211.00    0.00 364844.00     0.00     8.00     0.00    0.00    0.00    0.00   0.00   0.00

avg-cpu:  %user   %nice %system %iowait  %steal   %idle
           1.27    0.00   21.07   63.45    0.00   14.21

Device:         rrqm/s   wrqm/s     r/s     w/s    rkB/s    wkB/s avgrq-sz avgqu-sz   await r_await w_await  svctm  %util
sda               0.00     0.00 14764.00    0.00 59056.00     0.00     8.00     1.75    0.12    0.12    0.00   0.04  60.20
sdb               0.00     0.00 14971.00    0.00 59884.00     0.00     8.00     1.76    0.12    0.12    0.00   0.04  56.60
sdc               0.00     0.00 15651.00    0.00 62604.00     0.00     8.00     2.18    0.14    0.14    0.00   0.04  66.00
sdd               0.00     0.00 15392.00    0.00 61568.00     0.00     8.00     2.17    0.14    0.14    0.00   0.04  66.80
sde               0.00     0.00 15060.00    0.00 60240.00     0.00     8.00     2.09    0.14    0.14    0.00   0.04  63.90
sdf               0.00     0.00 14786.00    0.00 59144.00     0.00     8.00     2.06    0.14    0.14    0.00   0.04  65.80
sdg               0.00     0.00   12.00    3.00    48.00    36.00    11.20     0.00    0.07    0.08    0.00   0.07   0.10
sdh               0.00     0.00    0.00    0.00     0.00     0.00     0.00     0.00    0.00    0.00    0.00   0.00   0.00
md0               0.00     0.00 90625.00    0.00 362500.00     0.00     8.00     0.00    0.00    0.00    0.00   0.00   0.00

avg-cpu:  %user   %nice %system %iowait  %steal   %idle
           1.02    0.00   21.32   64.21    0.00   13.45

Device:         rrqm/s   wrqm/s     r/s     w/s    rkB/s    wkB/s avgrq-sz avgqu-sz   await r_await w_await  svctm  %util
sda               0.00     0.00 16022.00    0.00 64088.00     0.00     8.00     1.93    0.12    0.12    0.00   0.04  61.90
sdb               0.00     0.00 14156.00    0.00 56624.00     0.00     8.00     1.66    0.12    0.12    0.00   0.04  58.40
sdc               0.00     0.00 14552.00    0.00 58208.00     0.00     8.00     2.04    0.14    0.14    0.00   0.05  65.50
sdd               0.00     0.00 15779.00    0.00 63116.00     0.00     8.00     2.30    0.15    0.15    0.00   0.04  68.00
sde               0.00     0.00 15292.00    0.00 61168.00     0.00     8.00     2.20    0.14    0.14    0.00   0.05  69.50
sdf               0.00     0.00 15793.00    0.00 63172.00     0.00     8.00     2.23    0.14    0.14    0.00   0.04  69.70
sdg               0.00     0.00    0.00    0.00     0.00     0.00     0.00     0.00    0.00    0.00    0.00   0.00   0.00
sdh               0.00     0.00    0.00    0.00     0.00     0.00     0.00     0.00    0.00    0.00    0.00   0.00   0.00
md0               0.00     0.00 91601.00    0.00 366404.00     0.00     8.00     0.00    0.00    0.00    0.00   0.00   0.00

avg-cpu:  %user   %nice %system %iowait  %steal   %idle
           0.77    0.00   21.17   64.54    0.00   13.52

Device:         rrqm/s   wrqm/s     r/s     w/s    rkB/s    wkB/s avgrq-sz avgqu-sz   await r_await w_await  svctm  %util
sda               0.00     0.00 15049.00    0.00 60196.00     0.00     8.00     1.78    0.12    0.12    0.00   0.04  62.00
sdb               0.00     0.00 15485.00    0.00 61940.00     0.00     8.00     1.82    0.12    0.12    0.00   0.04  60.20
sdc               0.00     0.00 15934.00    0.00 63736.00     0.00     8.00     2.29    0.14    0.14    0.00   0.04  71.00
sdd               0.00     0.00 15893.00    0.00 63572.00     0.00     8.00     2.22    0.14    0.14    0.00   0.04  71.30
sde               0.00     0.00 14611.00    0.00 58448.00     0.00     8.00     2.02    0.14    0.14    0.00   0.05  66.00
sdf               0.00     0.00 15707.00    0.00 62832.00     0.00     8.00     2.24    0.14    0.14    0.00   0.04  70.30
sdg               0.00     0.00    0.00    0.00     0.00     0.00     0.00     0.00    0.00    0.00    0.00   0.00   0.00
sdh               0.00     0.00    0.00    0.00     0.00     0.00     0.00     0.00    0.00    0.00    0.00   0.00   0.00
md0               0.00     0.00 92682.00    0.00 370728.00     0.00     8.00     0.00    0.00    0.00    0.00   0.00   0.00

avg-cpu:  %user   %nice %system %iowait  %steal   %idle
           1.54    0.00   20.26   64.10    0.00   14.10

Device:         rrqm/s   wrqm/s     r/s     w/s    rkB/s    wkB/s avgrq-sz avgqu-sz   await r_await w_await  svctm  %util
sda               0.00     0.00 15097.00    0.00 60388.00     0.00     8.00     1.78    0.12    0.12    0.00   0.04  63.10
sdb               0.00     0.00 15615.00    0.00 62460.00     0.00     8.00     1.87    0.12    0.12    0.00   0.04  60.30
sdc               0.00     0.00 15674.00    0.00 62696.00     0.00     8.00     2.25    0.14    0.14    0.00   0.04  69.20
sdd               0.00     0.00 15273.00    0.00 61092.00     0.00     8.00     2.16    0.14    0.14    0.00   0.05  69.30
sde               0.00     0.00 14913.00    0.00 59648.00     0.00     8.00     2.06    0.14    0.14    0.00   0.05  67.70
sdf               0.00     0.00 15267.00    0.00 61064.00     0.00     8.00     2.14    0.14    0.14    0.00   0.04  68.40
sdg               0.00     0.00    0.00    0.00     0.00     0.00     0.00     0.00    0.00    0.00    0.00   0.00   0.00
sdh               0.00     0.00    0.00    0.00     0.00     0.00     0.00     0.00    0.00    0.00    0.00   0.00   0.00
md0               0.00     0.00 91815.00    0.00 367260.00     0.00     8.00     0.00    0.00    0.00    0.00   0.00   0.00

avg-cpu:  %user   %nice %system %iowait  %steal   %idle
           0.78    0.00   20.16   65.12    0.00   13.95

Device:         rrqm/s   wrqm/s     r/s     w/s    rkB/s    wkB/s avgrq-sz avgqu-sz   await r_await w_await  svctm  %util
sda               0.00     0.00 15297.00    0.00 61188.00     0.00     8.00     1.81    0.12    0.12    0.00   0.04  61.80
sdb               0.00     0.00 15176.00    0.00 60704.00     0.00     8.00     1.82    0.12    0.12    0.00   0.04  61.30
sdc               0.00     0.00 15831.00    0.00 63324.00     0.00     8.00     2.22    0.14    0.14    0.00   0.04  65.20
sdd               0.00     0.00 15968.00    0.00 63872.00     0.00     8.00     2.27    0.14    0.14    0.00   0.04  70.10
sde               0.00     0.00 15051.00    0.00 60204.00     0.00     8.00     2.15    0.14    0.14    0.00   0.04  66.90
sdf               0.00     0.00 14583.00    0.00 58332.00     0.00     8.00     2.02    0.14    0.14    0.00   0.05  66.70
sdg               0.00     0.00    0.00    0.00     0.00     0.00     0.00     0.00    0.00    0.00    0.00   0.00   0.00
sdh               0.00     0.00    0.00    0.00     0.00     0.00     0.00     0.00    0.00    0.00    0.00   0.00   0.00
md0               0.00     0.00 91917.00    0.00 367668.00     0.00     8.00     0.00    0.00    0.00    0.00   0.00   0.00

avg-cpu:  %user   %nice %system %iowait  %steal   %idle
           1.02    0.00   21.12   64.38    0.00   13.49

Device:         rrqm/s   wrqm/s     r/s     w/s    rkB/s    wkB/s avgrq-sz avgqu-sz   await r_await w_await  svctm  %util
sda               0.00     0.00 16102.00    0.00 64408.00     0.00     8.00     1.93    0.12    0.12    0.00   0.04  64.10
sdb               0.00     0.00 15317.00    0.00 61268.00     0.00     8.00     1.81    0.12    0.12    0.00   0.04  61.80
sdc               0.00     0.00 15366.00    0.00 61464.00     0.00     8.00     2.14    0.14    0.14    0.00   0.04  66.50
sdd               0.00     0.00 14914.00    0.00 59656.00     0.00     8.00     2.07    0.14    0.14    0.00   0.04  65.70
sde               0.00     0.00 15306.00    0.00 61224.00     0.00     8.00     2.14    0.14    0.14    0.00   0.04  68.60
sdf               0.00     0.00 15420.00    0.00 61680.00     0.00     8.00     2.21    0.14    0.14    0.00   0.05  69.50
sdg               0.00     0.00    0.00    0.00     0.00     0.00     0.00     0.00    0.00    0.00    0.00   0.00   0.00
sdh               0.00     0.00    0.00    0.00     0.00     0.00     0.00     0.00    0.00    0.00    0.00   0.00   0.00
md0               0.00     0.00 92436.00    0.00 369744.00     0.00     8.00     0.00    0.00    0.00    0.00   0.00   0.00

avg-cpu:  %user   %nice %system %iowait  %steal   %idle
           1.50    0.00   21.80   63.41    0.00   13.28

Device:         rrqm/s   wrqm/s     r/s     w/s    rkB/s    wkB/s avgrq-sz avgqu-sz   await r_await w_await  svctm  %util
sda               0.00     0.00 15351.00    0.00 61404.00     0.00     8.00     1.79    0.12    0.12    0.00   0.04  63.60
sdb               0.00     0.00 15952.00    0.00 63808.00     0.00     8.00     1.88    0.12    0.12    0.00   0.04  61.40
sdc               0.00     0.00 15849.00    0.00 63396.00     0.00     8.00     2.23    0.14    0.14    0.00   0.04  67.40
sdd               0.00     0.00 14930.00    0.00 59720.00     0.00     8.00     2.08    0.14    0.14    0.00   0.04  66.00
sde               0.00     0.00 14968.00    0.00 59872.00     0.00     8.00     2.08    0.14    0.14    0.00   0.04  66.80
sdf               0.00     0.00 15357.00    0.00 61428.00     0.00     8.00     2.11    0.14    0.14    0.00   0.04  67.70
sdg               0.00     0.00    0.00    0.00     0.00     0.00     0.00     0.00    0.00    0.00    0.00   0.00   0.00
sdh               0.00     0.00    0.00    0.00     0.00     0.00     0.00     0.00    0.00    0.00    0.00   0.00   0.00
md0               0.00     0.00 92403.00    0.00 369612.00     0.00     8.00     0.00    0.00    0.00    0.00   0.00   0.00

