Linux 4.17.2 (bench) 	08/04/2018 	_x86_64_	(4 CPU)

avg-cpu:  %user   %nice %system %iowait  %steal   %idle
          10.24    0.02    4.34    2.86    0.00   82.54

Device:         rrqm/s   wrqm/s     r/s     w/s    rkB/s    wkB/s avgrq-sz avgqu-sz   await r_await w_await  svctm  %util
sda              58.80     4.12 1767.12   99.52 21440.69  3045.25    26.24     1.05    0.56    0.26    5.92   0.06  11.20
sdb              58.59     4.08 1767.13   99.65 21430.35  3042.01    26.22     1.05    0.56    0.26    5.85   0.06  11.08
sdc              95.88     4.14 1727.77   99.22 21422.73  3044.40    26.78     1.47    0.80    0.44    7.12   0.08  14.57
sdd              89.53     4.11 1733.31   99.28 21407.94  3040.70    26.68     1.48    0.80    0.43    7.33   0.08  14.67
sde              91.47     4.15 1738.27   99.38 21466.07  3044.83    26.68     1.50    0.81    0.43    7.44   0.08  14.69
sdf              88.67     4.12 1740.34   99.33 21447.87  3041.78    26.62     1.54    0.84    0.43    7.90   0.08  14.72
sdg               0.00     3.15   27.20   73.09   326.96   391.47    14.33     0.44    4.37    0.20    5.93   0.08   0.79
sdh               0.00     0.12    0.02    0.23     2.15     4.91    56.82     0.00    1.15    0.65    1.19   0.21   0.01
md0               0.00     0.00 10964.68  466.28 146866.24 20844.19    29.34     0.00    0.00    0.00    0.00   0.00   0.00

avg-cpu:  %user   %nice %system %iowait  %steal   %idle
          12.11    0.03   21.32    7.52    0.00   59.03

Device:         rrqm/s   wrqm/s     r/s     w/s    rkB/s    wkB/s avgrq-sz avgqu-sz   await r_await w_await  svctm  %util
sda               0.80     0.00 2121.45    0.00 14159.40     0.00    13.35     0.68    0.32    0.32    0.00   0.05  11.43
sdb               0.80     0.00 2118.35    0.00 14135.20     0.00    13.35     0.67    0.32    0.32    0.00   0.05  11.09
sdc               0.95     0.00 2100.35    0.00 14044.00     0.00    13.37     1.00    0.48    0.48    0.00   0.06  13.25
sdd               0.85     0.00 2098.05    0.00 14012.00     0.00    13.36     0.95    0.45    0.45    0.00   0.06  13.10
sde               0.85     0.00 2090.35    0.00 14083.60     0.00    13.47     1.00    0.48    0.48    0.00   0.06  13.51
sdf               0.80     0.00 2092.50    0.00 14122.40     0.00    13.50     0.99    0.47    0.47    0.00   0.06  13.21
sdg               0.00     0.00   64.30    0.25   287.00     6.60     9.10     0.01    0.12    0.12    0.00   0.12   0.76
sdh               0.00     0.00    0.00    0.00     0.00     0.00     0.00     0.00    0.00    0.00    0.00   0.00   0.00
md0               0.00     0.00 12697.05    0.00 85219.00     0.00    13.42     0.00    0.00    0.00    0.00   0.00   0.00

