Linux 4.17.2 (bench) 	08/04/2018 	_x86_64_	(4 CPU)

avg-cpu:  %user   %nice %system %iowait  %steal   %idle
          10.25    0.02    4.29    2.82    0.00   82.63

Device:         rrqm/s   wrqm/s     r/s     w/s    rkB/s    wkB/s avgrq-sz avgqu-sz   await r_await w_await  svctm  %util
sda              57.66     4.14 1758.43  100.01 21452.47  3060.26    26.38     1.05    0.57    0.26    5.92   0.06  11.17
sdb              57.44     4.10 1758.46  100.14 21442.10  3057.01    26.36     1.05    0.56    0.26    5.85   0.06  11.05
sdc              94.91     4.16 1718.90   99.71 21434.43  3059.41    26.94     1.47    0.81    0.44    7.12   0.08  14.54
sdd              88.52     4.13 1724.47   99.77 21419.57  3055.70    26.83     1.48    0.81    0.43    7.33   0.08  14.64
sde              90.48     4.17 1729.48   99.87 21478.10  3059.84    26.83     1.50    0.82    0.44    7.44   0.08  14.66
sdf              87.67     4.14 1731.56   99.82 21459.82  3056.78    26.77     1.54    0.84    0.43    7.90   0.08  14.69
sdg               0.00     3.16   27.11   73.15   326.83   391.68    14.33     0.44    4.38    0.20    5.93   0.08   0.79
sdh               0.00     0.13    0.02    0.23     2.16     4.94    56.82     0.00    1.15    0.65    1.19   0.21   0.01
md0               0.00     0.00 10905.73  468.58 146994.48 20946.99    29.53     0.00    0.00    0.00    0.00   0.00   0.00

avg-cpu:  %user   %nice %system %iowait  %steal   %idle
           0.25    0.00    2.53   19.49    0.00   77.72

Device:         rrqm/s   wrqm/s     r/s     w/s    rkB/s    wkB/s avgrq-sz avgqu-sz   await r_await w_await  svctm  %util
sda              65.00     0.00  693.00    0.00 49860.00     0.00   143.90     0.27    0.39    0.39    0.00   0.32  22.10
sdb              64.00     0.00  729.00    0.00 48104.00     0.00   131.97     0.24    0.33    0.33    0.00   0.28  20.30
sdc              65.00     0.00  691.00    0.00 50216.00     0.00   145.34     0.38    0.55    0.55    0.00   0.45  31.40
sdd              62.00     0.00  714.00    0.00 50144.00     0.00   140.46     0.37    0.52    0.52    0.00   0.40  28.40
sde              73.00     0.00  608.00    0.00 51400.00     0.00   169.08     0.35    0.58    0.58    0.00   0.46  27.90
sdf              68.00     0.00  641.00    0.00 50272.00     0.00   156.85     0.36    0.56    0.56    0.00   0.43  27.50
sdg               0.00    17.00   16.00   65.00   256.00  1236.00    36.84     0.18    2.20    0.19    2.69   0.10   0.80
sdh               0.00     0.00    0.00    0.00     0.00     0.00     0.00     0.00    0.00    0.00    0.00   0.00   0.00
md0               0.00     0.00 4470.00    0.00 438416.00     0.00   196.16     0.00    0.00    0.00    0.00   0.00   0.00

