Linux 4.17.2 (bench) 	08/04/2018 	_x86_64_	(4 CPU)

avg-cpu:  %user   %nice %system %iowait  %steal   %idle
          10.25    0.02    4.28    2.82    0.00   82.63

Device:         rrqm/s   wrqm/s     r/s     w/s    rkB/s    wkB/s avgrq-sz avgqu-sz   await r_await w_await  svctm  %util
sda              57.68     4.14 1758.52  100.06 21456.60  3061.76    26.38     1.05    0.57    0.26    5.92   0.06  11.17
sdb              57.47     4.10 1758.54  100.19 21446.22  3058.50    26.37     1.05    0.57    0.26    5.85   0.06  11.05
sdc              94.95     4.16 1718.97   99.76 21438.54  3060.90    26.94     1.47    0.81    0.44    7.12   0.08  14.55
sdd              88.56     4.13 1724.55   99.82 21423.68  3057.19    26.84     1.48    0.81    0.43    7.33   0.08  14.64
sde              90.52     4.17 1729.55   99.92 21482.25  3061.34    26.83     1.50    0.82    0.44    7.44   0.08  14.66
sdf              87.71     4.15 1731.64   99.86 21463.96  3058.28    26.78     1.54    0.84    0.43    7.90   0.08  14.70
sdg               0.00     3.16   27.10   73.16   326.84   391.71    14.33     0.44    4.38    0.20    5.93   0.08   0.79
sdh               0.00     0.13    0.02    0.23     2.16     4.94    56.82     0.00    1.15    0.65    1.19   0.21   0.01
md0               0.00     0.00 10906.40  468.81 147023.78 20957.22    29.53     0.00    0.00    0.00    0.00   0.00   0.00

avg-cpu:  %user   %nice %system %iowait  %steal   %idle
           6.57    0.00   14.90    3.03    0.00   75.51

Device:         rrqm/s   wrqm/s     r/s     w/s    rkB/s    wkB/s avgrq-sz avgqu-sz   await r_await w_await  svctm  %util
sda               0.00     0.00 3305.00    0.00 13220.00     0.00     8.00     0.34    0.10    0.10    0.00   0.08  27.00
sdb               0.00     0.00 3355.00    0.00 13420.00     0.00     8.00     0.34    0.10    0.10    0.00   0.08  25.70
sdc               0.00     0.00 3359.00    0.00 13436.00     0.00     8.00     0.36    0.11    0.11    0.00   0.08  27.90
sdd               0.00     0.00 3348.00    0.00 13392.00     0.00     8.00     0.37    0.11    0.11    0.00   0.09  29.10
sde               0.00     0.00 3275.00    0.00 13100.00     0.00     8.00     0.38    0.12    0.12    0.00   0.09  28.90
sdf               0.00     0.00 3270.00    0.00 13080.00     0.00     8.00     0.38    0.12    0.12    0.00   0.09  28.90
sdg               0.00     0.00    3.00    0.00    88.00     0.00    58.67     0.00    0.33    0.33    0.00   0.33   0.10
sdh               0.00     0.00    0.00    0.00     0.00     0.00     0.00     0.00    0.00    0.00    0.00   0.00   0.00
md0               0.00     0.00 19915.00    0.00 79660.00     0.00     8.00     0.00    0.00    0.00    0.00   0.00   0.00

avg-cpu:  %user   %nice %system %iowait  %steal   %idle
           6.46    0.00   13.18    3.10    0.00   77.26

Device:         rrqm/s   wrqm/s     r/s     w/s    rkB/s    wkB/s avgrq-sz avgqu-sz   await r_await w_await  svctm  %util
sda               0.00     0.00 2589.00    0.00 10356.00     0.00     8.00     0.27    0.10    0.10    0.00   0.08  21.80
sdb               0.00     0.00 2455.00    0.00  9820.00     0.00     8.00     0.25    0.10    0.10    0.00   0.09  21.70
sdc               0.00     0.00 2555.00    0.00 10220.00     0.00     8.00     0.32    0.13    0.13    0.00   0.10  25.10
sdd               0.00     0.00 2582.00    0.00 10328.00     0.00     8.00     0.30    0.12    0.12    0.00   0.10  25.00
sde               0.00     0.00 2553.00    0.00 10212.00     0.00     8.00     0.30    0.12    0.12    0.00   0.09  23.60
sdf               0.00     0.00 2491.00    0.00  9964.00     0.00     8.00     0.26    0.10    0.10    0.00   0.09  22.00
sdg               0.00     0.00   36.00    0.00   456.00     0.00    25.33     0.01    0.22    0.22    0.00   0.17   0.60
sdh               0.00     0.00    0.00    0.00     0.00     0.00     0.00     0.00    0.00    0.00    0.00   0.00   0.00
md0               0.00     0.00 15226.00    0.00 60904.00     0.00     8.00     0.00    0.00    0.00    0.00   0.00   0.00

avg-cpu:  %user   %nice %system %iowait  %steal   %idle
           7.50    0.00   15.00    3.00    0.00   74.50

Device:         rrqm/s   wrqm/s     r/s     w/s    rkB/s    wkB/s avgrq-sz avgqu-sz   await r_await w_await  svctm  %util
sda               0.00     0.00 1982.00    0.00  7928.00     0.00     8.00     0.20    0.10    0.10    0.00   0.09  18.10
sdb               0.00     0.00 1959.00    0.00  7836.00     0.00     8.00     0.17    0.09    0.09    0.00   0.08  14.80
sdc               0.00     0.00 1965.00    0.00  7860.00     0.00     8.00     0.22    0.11    0.11    0.00   0.10  19.30
sdd               0.00     0.00 1950.00    0.00  7800.00     0.00     8.00     0.23    0.12    0.12    0.00   0.10  19.40
sde               0.00     0.00 1876.00    0.00  7504.00     0.00     8.00     0.23    0.12    0.12    0.00   0.10  19.00
sdf               0.00     0.00 1982.00    0.00  7928.00     0.00     8.00     0.22    0.11    0.11    0.00   0.10  19.20
sdg               0.00     0.00    0.00    0.00     0.00     0.00     0.00     0.00    0.00    0.00    0.00   0.00   0.00
sdh               0.00     0.00    0.00    0.00     0.00     0.00     0.00     0.00    0.00    0.00    0.00   0.00   0.00
md0               0.00     0.00 11712.00    0.00 46848.00     0.00     8.00     0.00    0.00    0.00    0.00   0.00   0.00

avg-cpu:  %user   %nice %system %iowait  %steal   %idle
           8.54    0.00   14.32    2.76    0.00   74.37

Device:         rrqm/s   wrqm/s     r/s     w/s    rkB/s    wkB/s avgrq-sz avgqu-sz   await r_await w_await  svctm  %util
sda               0.00     0.00 1494.00    0.00  5976.00     0.00     8.00     0.15    0.10    0.10    0.00   0.09  13.50
sdb               0.00     0.00 1512.00    0.00  6048.00     0.00     8.00     0.15    0.10    0.10    0.00   0.09  13.60
sdc               0.00     0.00 1491.00    0.00  5964.00     0.00     8.00     0.14    0.10    0.10    0.00   0.09  13.30
sdd               0.00     0.00 1423.00    0.00  5692.00     0.00     8.00     0.15    0.11    0.11    0.00   0.09  13.50
sde               0.00     0.00 1505.00    0.00  6020.00     0.00     8.00     0.15    0.10    0.10    0.00   0.10  14.40
sdf               0.00     0.00 1520.00    0.00  6080.00     0.00     8.00     0.18    0.12    0.12    0.00   0.11  16.10
sdg               0.00     0.00    0.00    0.00     0.00     0.00     0.00     0.00    0.00    0.00    0.00   0.00   0.00
sdh               0.00     0.00    0.00    0.00     0.00     0.00     0.00     0.00    0.00    0.00    0.00   0.00   0.00
md0               0.00     0.00 8943.00    0.00 35772.00     0.00     8.00     0.00    0.00    0.00    0.00   0.00   0.00

avg-cpu:  %user   %nice %system %iowait  %steal   %idle
           9.44    0.00   14.03    2.55    0.00   73.98

Device:         rrqm/s   wrqm/s     r/s     w/s    rkB/s    wkB/s avgrq-sz avgqu-sz   await r_await w_await  svctm  %util
sda               0.00     0.00 1166.00    0.00  4664.00     0.00     8.00     0.11    0.09    0.09    0.00   0.09  10.20
sdb               0.00     0.00 1168.00    0.00  4672.00     0.00     8.00     0.11    0.10    0.10    0.00   0.09  10.50
sdc               0.00     0.00 1102.00    0.00  4408.00     0.00     8.00     0.13    0.12    0.12    0.00   0.11  11.60
sdd               0.00     0.00 1089.00    0.00  4356.00     0.00     8.00     0.12    0.11    0.11    0.00   0.10  11.10
sde               0.00     0.00 1154.00    0.00  4616.00     0.00     8.00     0.11    0.10    0.10    0.00   0.09  10.40
sdf               0.00     0.00 1094.00    0.00  4376.00     0.00     8.00     0.11    0.10    0.10    0.00   0.10  10.60
sdg               0.00     2.00   12.00    3.00    48.00    44.00    12.27     0.00    0.00    0.00    0.00   0.00   0.00
sdh               0.00     0.00    0.00    0.00     0.00     0.00     0.00     0.00    0.00    0.00    0.00   0.00   0.00
md0               0.00     0.00 6773.00    0.00 27092.00     0.00     8.00     0.00    0.00    0.00    0.00   0.00   0.00

avg-cpu:  %user   %nice %system %iowait  %steal   %idle
          10.10    0.00   16.67    2.02    0.00   71.21

Device:         rrqm/s   wrqm/s     r/s     w/s    rkB/s    wkB/s avgrq-sz avgqu-sz   await r_await w_await  svctm  %util
sda               0.00     0.00  827.00    0.00  3308.00     0.00     8.00     0.09    0.11    0.11    0.00   0.10   8.40
sdb               0.00     0.00  786.00    0.00  3144.00     0.00     8.00     0.07    0.09    0.09    0.00   0.08   6.50
sdc               0.00     0.00  744.00    0.00  2976.00     0.00     8.00     0.10    0.14    0.14    0.00   0.14  10.10
sdd               0.00     0.00  864.00    0.00  3456.00     0.00     8.00     0.09    0.10    0.10    0.00   0.10   8.40
sde               0.00     0.00  851.00    0.00  3404.00     0.00     8.00     0.10    0.11    0.11    0.00   0.10   8.90
sdf               0.00     0.00  844.00    0.00  3376.00     0.00     8.00     0.11    0.13    0.13    0.00   0.11   9.60
sdg               0.00     0.00    0.00    0.00     0.00     0.00     0.00     0.00    0.00    0.00    0.00   0.00   0.00
sdh               0.00     0.00    0.00    0.00     0.00     0.00     0.00     0.00    0.00    0.00    0.00   0.00   0.00
md0               0.00     0.00 4916.00    0.00 19664.00     0.00     8.00     0.00    0.00    0.00    0.00   0.00   0.00

avg-cpu:  %user   %nice %system %iowait  %steal   %idle
          12.59    0.00   16.88    1.51    0.00   69.02

Device:         rrqm/s   wrqm/s     r/s     w/s    rkB/s    wkB/s avgrq-sz avgqu-sz   await r_await w_await  svctm  %util
sda               0.00     0.00  566.00    0.00  2264.00     0.00     8.00     0.05    0.08    0.08    0.00   0.08   4.60
sdb               0.00     0.00  527.00    0.00  2108.00     0.00     8.00     0.04    0.09    0.09    0.00   0.09   4.50
sdc               0.00     0.00  554.00    0.00  2216.00     0.00     8.00     0.06    0.10    0.10    0.00   0.10   5.70
sdd               0.00     0.00  587.00    0.00  2348.00     0.00     8.00     0.07    0.11    0.11    0.00   0.11   6.30
sde               0.00     0.00  586.00    0.00  2344.00     0.00     8.00     0.07    0.11    0.11    0.00   0.11   6.50
sdf               0.00     0.00  563.00    0.00  2252.00     0.00     8.00     0.06    0.11    0.11    0.00   0.10   5.80
sdg               0.00     0.00    0.00    0.00     0.00     0.00     0.00     0.00    0.00    0.00    0.00   0.00   0.00
sdh               0.00     0.00    0.00    0.00     0.00     0.00     0.00     0.00    0.00    0.00    0.00   0.00   0.00
md0               0.00     0.00 3383.00    0.00 13532.00     0.00     8.00     0.00    0.00    0.00    0.00   0.00   0.00

avg-cpu:  %user   %nice %system %iowait  %steal   %idle
          12.94    0.00   18.78    1.02    0.00   67.26

Device:         rrqm/s   wrqm/s     r/s     w/s    rkB/s    wkB/s avgrq-sz avgqu-sz   await r_await w_await  svctm  %util
sda               0.00     0.00  354.00    0.00  1416.00     0.00     8.00     0.03    0.09    0.09    0.00   0.09   3.10
sdb               0.00     0.00  355.00    0.00  1420.00     0.00     8.00     0.03    0.08    0.08    0.00   0.08   2.70
sdc               0.00     0.00  339.00    0.00  1356.00     0.00     8.00     0.04    0.12    0.12    0.00   0.11   3.80
sdd               0.00     0.00  413.00    0.00  1652.00     0.00     8.00     0.04    0.10    0.10    0.00   0.10   4.30
sde               0.00     0.00  384.00    0.00  1536.00     0.00     8.00     0.04    0.11    0.11    0.00   0.10   3.90
sdf               0.00     0.00  338.00    0.00  1352.00     0.00     8.00     0.04    0.11    0.11    0.00   0.11   3.60
sdg               0.00     0.00    0.00    0.00     0.00     0.00     0.00     0.00    0.00    0.00    0.00   0.00   0.00
sdh               0.00     0.00    0.00    0.00     0.00     0.00     0.00     0.00    0.00    0.00    0.00   0.00   0.00
md0               0.00     0.00 2183.00    0.00  8732.00     0.00     8.00     0.00    0.00    0.00    0.00   0.00   0.00

avg-cpu:  %user   %nice %system %iowait  %steal   %idle
          14.21    0.00   19.80    0.76    0.00   65.23

Device:         rrqm/s   wrqm/s     r/s     w/s    rkB/s    wkB/s avgrq-sz avgqu-sz   await r_await w_await  svctm  %util
sda               0.00     0.00  199.00    0.00   796.00     0.00     8.00     0.02    0.08    0.08    0.00   0.08   1.60
sdb               0.00     0.00  226.00    0.00   904.00     0.00     8.00     0.02    0.08    0.08    0.00   0.08   1.70
sdc               0.00     0.00  218.00    0.00   872.00     0.00     8.00     0.02    0.10    0.10    0.00   0.10   2.20
sdd               0.00     0.00  223.00    0.00   892.00     0.00     8.00     0.02    0.08    0.08    0.00   0.08   1.70
sde               0.00     0.00  179.00    0.00   716.00     0.00     8.00     0.02    0.10    0.10    0.00   0.10   1.80
sdf               0.00     0.00  188.00    0.00   752.00     0.00     8.00     0.02    0.11    0.11    0.00   0.11   2.00
sdg               0.00     0.00    0.00    0.00     0.00     0.00     0.00     0.00    0.00    0.00    0.00   0.00   0.00
sdh               0.00     0.00    0.00    0.00     0.00     0.00     0.00     0.00    0.00    0.00    0.00   0.00   0.00
md0               0.00     0.00 1233.00    0.00  4932.00     0.00     8.00     0.00    0.00    0.00    0.00   0.00   0.00

avg-cpu:  %user   %nice %system %iowait  %steal   %idle
          16.15    0.00   18.97    0.26    0.00   64.62

Device:         rrqm/s   wrqm/s     r/s     w/s    rkB/s    wkB/s avgrq-sz avgqu-sz   await r_await w_await  svctm  %util
sda               0.00     0.00  131.00    0.00   524.00     0.00     8.00     0.01    0.10    0.10    0.00   0.10   1.30
sdb               0.00     0.00  118.00    0.00   472.00     0.00     8.00     0.01    0.09    0.09    0.00   0.09   1.10
sdc               0.00     0.00  121.00    0.00   484.00     0.00     8.00     0.01    0.09    0.09    0.00   0.09   1.10
sdd               0.00     0.00  108.00    0.00   432.00     0.00     8.00     0.01    0.06    0.06    0.00   0.06   0.70
sde               0.00     0.00  121.00    0.00   484.00     0.00     8.00     0.01    0.11    0.11    0.00   0.11   1.30
sdf               0.00     0.00  111.00    0.00   444.00     0.00     8.00     0.01    0.08    0.08    0.00   0.07   0.80
sdg               0.00     0.00    0.00    0.00     0.00     0.00     0.00     0.00    0.00    0.00    0.00   0.00   0.00
sdh               0.00     0.00    0.00    0.00     0.00     0.00     0.00     0.00    0.00    0.00    0.00   0.00   0.00
md0               0.00     0.00  710.00    0.00  2840.00     0.00     8.00     0.00    0.00    0.00    0.00   0.00   0.00

avg-cpu:  %user   %nice %system %iowait  %steal   %idle
          15.48    0.00   21.07    0.25    0.00   63.20

Device:         rrqm/s   wrqm/s     r/s     w/s    rkB/s    wkB/s avgrq-sz avgqu-sz   await r_await w_await  svctm  %util
sda               0.00     0.00   64.00    0.00   256.00     0.00     8.00     0.01    0.12    0.12    0.00   0.12   0.80
sdb               0.00     0.00   45.00    0.00   180.00     0.00     8.00     0.01    0.11    0.11    0.00   0.11   0.50
sdc               0.00     0.00   62.00    0.00   248.00     0.00     8.00     0.01    0.13    0.13    0.00   0.13   0.80
sdd               0.00     0.00   59.00    0.00   236.00     0.00     8.00     0.00    0.07    0.07    0.00   0.07   0.40
sde               0.00     0.00   57.00    0.00   228.00     0.00     8.00     0.01    0.12    0.12    0.00   0.12   0.70
sdf               0.00     0.00   44.00    0.00   176.00     0.00     8.00     0.01    0.11    0.11    0.00   0.11   0.50
sdg               0.00     0.00    0.00    0.00     0.00     0.00     0.00     0.00    0.00    0.00    0.00   0.00   0.00
sdh               0.00     0.00    0.00    0.00     0.00     0.00     0.00     0.00    0.00    0.00    0.00   0.00   0.00
md0               0.00     0.00  331.00    0.00  1324.00     0.00     8.00     0.00    0.00    0.00    0.00   0.00   0.00

avg-cpu:  %user   %nice %system %iowait  %steal   %idle
          15.99    0.25   21.07    0.25    0.00   62.44

Device:         rrqm/s   wrqm/s     r/s     w/s    rkB/s    wkB/s avgrq-sz avgqu-sz   await r_await w_await  svctm  %util
sda               0.00     0.00   37.00    0.00   148.00     0.00     8.00     0.01    0.14    0.14    0.00   0.14   0.50
sdb               0.00     0.00   23.00    0.00    92.00     0.00     8.00     0.00    0.09    0.09    0.00   0.09   0.20
sdc               0.00     0.00   25.00    0.00   100.00     0.00     8.00     0.01    0.24    0.24    0.00   0.24   0.60
sdd               0.00     0.00   29.00    0.00   116.00     0.00     8.00     0.01    0.21    0.21    0.00   0.17   0.50
sde               0.00     0.00   23.00    0.00    92.00     0.00     8.00     0.00    0.00    0.00    0.00   0.00   0.00
sdf               0.00     0.00   27.00    0.00   108.00     0.00     8.00     0.00    0.11    0.11    0.00   0.11   0.30
sdg               0.00     0.00    4.00    0.00    16.00     0.00     8.00     0.00    0.00    0.00    0.00   0.00   0.00
sdh               0.00     0.00    0.00    0.00     0.00     0.00     0.00     0.00    0.00    0.00    0.00   0.00   0.00
md0               0.00     0.00  164.00    0.00   656.00     0.00     8.00     0.00    0.00    0.00    0.00   0.00   0.00

avg-cpu:  %user   %nice %system %iowait  %steal   %idle
          15.64    0.00   21.28    0.00    0.00   63.08

Device:         rrqm/s   wrqm/s     r/s     w/s    rkB/s    wkB/s avgrq-sz avgqu-sz   await r_await w_await  svctm  %util
sda               0.00     0.00   23.00    0.00    92.00     0.00     8.00     0.00    0.09    0.09    0.00   0.09   0.20
sdb               0.00     0.00   11.00    0.00    44.00     0.00     8.00     0.00    0.09    0.09    0.00   0.00   0.00
sdc               0.00     0.00   13.00    0.00    52.00     0.00     8.00     0.00    0.00    0.00    0.00   0.00   0.00
sdd               0.00     0.00   15.00    0.00    60.00     0.00     8.00     0.00    0.13    0.13    0.00   0.13   0.20
sde               0.00     0.00   20.00    0.00    80.00     0.00     8.00     0.00    0.10    0.10    0.00   0.10   0.20
sdf               0.00     0.00    7.00    0.00    28.00     0.00     8.00     0.00    0.29    0.29    0.00   0.29   0.20
sdg               0.00     0.00    0.00    0.00     0.00     0.00     0.00     0.00    0.00    0.00    0.00   0.00   0.00
sdh               0.00     0.00    0.00    0.00     0.00     0.00     0.00     0.00    0.00    0.00    0.00   0.00   0.00
md0               0.00     0.00   89.00    0.00   356.00     0.00     8.00     0.00    0.00    0.00    0.00   0.00   0.00

avg-cpu:  %user   %nice %system %iowait  %steal   %idle
          16.75    0.00   20.81    0.00    0.00   62.44

Device:         rrqm/s   wrqm/s     r/s     w/s    rkB/s    wkB/s avgrq-sz avgqu-sz   await r_await w_await  svctm  %util
sda               0.00     0.00    6.00    0.00    24.00     0.00     8.00     0.00    0.17    0.17    0.00   0.17   0.10
sdb               0.00     0.00    6.00    0.00    24.00     0.00     8.00     0.00    0.00    0.00    0.00   0.00   0.00
sdc               0.00     0.00   10.00    0.00    40.00     0.00     8.00     0.00    0.10    0.10    0.00   0.10   0.10
sdd               0.00     0.00    1.00    0.00     4.00     0.00     8.00     0.00    0.00    0.00    0.00   0.00   0.00
sde               0.00     0.00    7.00    0.00    28.00     0.00     8.00     0.00    0.00    0.00    0.00   0.00   0.00
sdf               0.00     0.00    2.00    0.00     8.00     0.00     8.00     0.00    0.00    0.00    0.00   0.00   0.00
sdg               0.00     0.00    0.00    0.00     0.00     0.00     0.00     0.00    0.00    0.00    0.00   0.00   0.00
sdh               0.00     0.00    0.00    0.00     0.00     0.00     0.00     0.00    0.00    0.00    0.00   0.00   0.00
md0               0.00     0.00   32.00    0.00   128.00     0.00     8.00     0.00    0.00    0.00    0.00   0.00   0.00

avg-cpu:  %user   %nice %system %iowait  %steal   %idle
          16.49    0.00   20.88    1.55    0.00   61.08

Device:         rrqm/s   wrqm/s     r/s     w/s    rkB/s    wkB/s avgrq-sz avgqu-sz   await r_await w_await  svctm  %util
sda               0.00     0.00    2.00    0.00     8.00     0.00     8.00     0.00    0.50    0.50    0.00   0.50   0.10
sdb               0.00     0.00    2.00    0.00     8.00     0.00     8.00     0.00    0.50    0.50    0.00   0.50   0.10
sdc               0.00     0.00    2.00    0.00     8.00     0.00     8.00     0.00    0.50    0.50    0.00   0.50   0.10
sdd               0.00     0.00    4.00    0.00    16.00     0.00     8.00     0.00    0.00    0.00    0.00   0.00   0.00
sde               0.00     0.00    5.00    0.00    20.00     0.00     8.00     0.00    0.20    0.20    0.00   0.20   0.10
sdf               0.00     0.00    2.00    0.00     8.00     0.00     8.00     0.00    0.00    0.00    0.00   0.00   0.00
sdg               0.00    65.00    0.00 2554.00     0.00 12632.00     9.89    16.15    6.32    0.00    6.32   0.05  11.60
sdh               0.00     0.00    0.00    0.00     0.00     0.00     0.00     0.00    0.00    0.00    0.00   0.00   0.00
md0               0.00     0.00   17.00    0.00    68.00     0.00     8.00     0.00    0.00    0.00    0.00   0.00   0.00

avg-cpu:  %user   %nice %system %iowait  %steal   %idle
          15.91    0.00   22.22    0.00    0.00   61.87

Device:         rrqm/s   wrqm/s     r/s     w/s    rkB/s    wkB/s avgrq-sz avgqu-sz   await r_await w_await  svctm  %util
sda               0.00     0.00    1.00    0.00     4.00     0.00     8.00     0.00    0.00    0.00    0.00   0.00   0.00
sdb               0.00     0.00    0.00    0.00     0.00     0.00     0.00     0.00    0.00    0.00    0.00   0.00   0.00
sdc               0.00     0.00    0.00    0.00     0.00     0.00     0.00     0.00    0.00    0.00    0.00   0.00   0.00
sdd               0.00     0.00    2.00    0.00     8.00     0.00     8.00     0.00    0.00    0.00    0.00   0.00   0.00
sde               0.00     0.00    0.00    0.00     0.00     0.00     0.00     0.00    0.00    0.00    0.00   0.00   0.00
sdf               0.00     0.00    2.00    0.00     8.00     0.00     8.00     0.00    0.00    0.00    0.00   0.00   0.00
sdg               0.00     0.00   14.00    0.00   288.00     0.00    41.14     0.00    0.29    0.29    0.00   0.29   0.40
sdh               0.00     0.00    0.00    0.00     0.00     0.00     0.00     0.00    0.00    0.00    0.00   0.00   0.00
md0               0.00     0.00    5.00    0.00    20.00     0.00     8.00     0.00    0.00    0.00    0.00   0.00   0.00

avg-cpu:  %user   %nice %system %iowait  %steal   %idle
          16.03    0.00   21.63    0.00    0.00   62.34

Device:         rrqm/s   wrqm/s     r/s     w/s    rkB/s    wkB/s avgrq-sz avgqu-sz   await r_await w_await  svctm  %util
sda               0.00     0.00    1.00    0.00     4.00     0.00     8.00     0.00    0.00    0.00    0.00   0.00   0.00
sdb               0.00     0.00    1.00    0.00     4.00     0.00     8.00     0.00    0.00    0.00    0.00   0.00   0.00
sdc               0.00     0.00    0.00    0.00     0.00     0.00     0.00     0.00    0.00    0.00    0.00   0.00   0.00
sdd               0.00     0.00    1.00    0.00     4.00     0.00     8.00     0.00    0.00    0.00    0.00   0.00   0.00
sde               0.00     0.00    0.00    0.00     0.00     0.00     0.00     0.00    0.00    0.00    0.00   0.00   0.00
sdf               0.00     0.00    0.00    0.00     0.00     0.00     0.00     0.00    0.00    0.00    0.00   0.00   0.00
sdg               0.00     0.00    0.00    0.00     0.00     0.00     0.00     0.00    0.00    0.00    0.00   0.00   0.00
sdh               0.00     0.00    0.00    0.00     0.00     0.00     0.00     0.00    0.00    0.00    0.00   0.00   0.00
md0               0.00     0.00    3.00    0.00    12.00     0.00     8.00     0.00    0.00    0.00    0.00   0.00   0.00

avg-cpu:  %user   %nice %system %iowait  %steal   %idle
          16.12    0.00   22.17    0.00    0.00   61.71

Device:         rrqm/s   wrqm/s     r/s     w/s    rkB/s    wkB/s avgrq-sz avgqu-sz   await r_await w_await  svctm  %util
sda               0.00     0.00    1.00    0.00     4.00     0.00     8.00     0.00    0.00    0.00    0.00   0.00   0.00
sdb               0.00     0.00    0.00    0.00     0.00     0.00     0.00     0.00    0.00    0.00    0.00   0.00   0.00
sdc               0.00     0.00    0.00    0.00     0.00     0.00     0.00     0.00    0.00    0.00    0.00   0.00   0.00
sdd               0.00     0.00    1.00    0.00     4.00     0.00     8.00     0.00    0.00    0.00    0.00   0.00   0.00
sde               0.00     0.00    1.00    0.00     4.00     0.00     8.00     0.00    0.00    0.00    0.00   0.00   0.00
sdf               0.00     0.00    1.00    0.00     4.00     0.00     8.00     0.00    0.00    0.00    0.00   0.00   0.00
sdg               0.00     0.00    0.00    0.00     0.00     0.00     0.00     0.00    0.00    0.00    0.00   0.00   0.00
sdh               0.00     0.00    0.00    0.00     0.00     0.00     0.00     0.00    0.00    0.00    0.00   0.00   0.00
md0               0.00     0.00    4.00    0.00    16.00     0.00     8.00     0.00    0.00    0.00    0.00   0.00   0.00

avg-cpu:  %user   %nice %system %iowait  %steal   %idle
          16.58    0.00   20.92    0.00    0.00   62.50

Device:         rrqm/s   wrqm/s     r/s     w/s    rkB/s    wkB/s avgrq-sz avgqu-sz   await r_await w_await  svctm  %util
sda               0.00     0.00    0.00    0.00     0.00     0.00     0.00     0.00    0.00    0.00    0.00   0.00   0.00
sdb               0.00     0.00    1.00    0.00     4.00     0.00     8.00     0.00    1.00    1.00    0.00   1.00   0.10
sdc               0.00     0.00    0.00    0.00     0.00     0.00     0.00     0.00    0.00    0.00    0.00   0.00   0.00
sdd               0.00     0.00    0.00    0.00     0.00     0.00     0.00     0.00    0.00    0.00    0.00   0.00   0.00
sde               0.00     0.00    0.00    0.00     0.00     0.00     0.00     0.00    0.00    0.00    0.00   0.00   0.00
sdf               0.00     0.00    0.00    0.00     0.00     0.00     0.00     0.00    0.00    0.00    0.00   0.00   0.00
sdg               0.00     0.00    0.00    0.00     0.00     0.00     0.00     0.00    0.00    0.00    0.00   0.00   0.00
sdh               0.00     0.00    0.00    0.00     0.00     0.00     0.00     0.00    0.00    0.00    0.00   0.00   0.00
md0               0.00     0.00    1.00    0.00     4.00     0.00     8.00     0.00    0.00    0.00    0.00   0.00   0.00

avg-cpu:  %user   %nice %system %iowait  %steal   %idle
          15.90    0.00   21.28    0.00    0.00   62.82

Device:         rrqm/s   wrqm/s     r/s     w/s    rkB/s    wkB/s avgrq-sz avgqu-sz   await r_await w_await  svctm  %util
sda               0.00     0.00    0.00    0.00     0.00     0.00     0.00     0.00    0.00    0.00    0.00   0.00   0.00
sdb               0.00     0.00    0.00    0.00     0.00     0.00     0.00     0.00    0.00    0.00    0.00   0.00   0.00
sdc               0.00     0.00    0.00    0.00     0.00     0.00     0.00     0.00    0.00    0.00    0.00   0.00   0.00
sdd               0.00     0.00    1.00    0.00     4.00     0.00     8.00     0.00    0.00    0.00    0.00   0.00   0.00
sde               0.00     0.00    0.00    0.00     0.00     0.00     0.00     0.00    0.00    0.00    0.00   0.00   0.00
sdf               0.00     0.00    0.00    0.00     0.00     0.00     0.00     0.00    0.00    0.00    0.00   0.00   0.00
sdg               0.00     0.00    0.00    0.00     0.00     0.00     0.00     0.00    0.00    0.00    0.00   0.00   0.00
sdh               0.00     0.00    0.00    0.00     0.00     0.00     0.00     0.00    0.00    0.00    0.00   0.00   0.00
md0               0.00     0.00    1.00    0.00     4.00     0.00     8.00     0.00    0.00    0.00    0.00   0.00   0.00

