Linux 4.17.2 (bench) 	08/04/2018 	_x86_64_	(4 CPU)

avg-cpu:  %user   %nice %system %iowait  %steal   %idle
          10.25    0.02    4.27    2.81    0.00   82.65

Device:         rrqm/s   wrqm/s     r/s     w/s    rkB/s    wkB/s avgrq-sz avgqu-sz   await r_await w_await  svctm  %util
sda              57.10     4.15 1755.62  100.20 21456.85  3065.98    26.43     1.05    0.57    0.26    5.92   0.06  11.16
sdb              56.88     4.11 1755.64  100.33 21446.46  3062.72    26.41     1.05    0.57    0.26    5.85   0.06  11.03
sdc              94.42     4.17 1716.02   99.89 21438.78  3065.13    26.99     1.47    0.81    0.44    7.12   0.08  14.53
sdd              88.02     4.14 1721.60   99.96 21423.90  3061.41    26.88     1.48    0.81    0.43    7.33   0.08  14.63
sde              89.99     4.18 1726.62  100.06 21482.60  3065.56    26.88     1.50    0.82    0.44    7.44   0.08  14.65
sdf              87.17     4.15 1728.71  100.00 21464.29  3062.50    26.82     1.54    0.84    0.43    7.90   0.08  14.68
sdg               0.00     3.16   27.07   73.17   326.77   391.76    14.34     0.44    4.38    0.20    5.93   0.08   0.79
sdh               0.00     0.13    0.02    0.23     2.16     4.95    56.82     0.00    1.15    0.65    1.19   0.21   0.01
md0               0.00     0.00 10885.52  469.46 147041.79 20986.14    29.60     0.00    0.00    0.00    0.00   0.00   0.00

avg-cpu:  %user   %nice %system %iowait  %steal   %idle
           3.27    0.00   26.20   57.43    0.00   13.10

Device:         rrqm/s   wrqm/s     r/s     w/s    rkB/s    wkB/s avgrq-sz avgqu-sz   await r_await w_await  svctm  %util
sda               0.00     0.00 17339.00    0.00 69356.00     0.00     8.00     1.92    0.11    0.11    0.00   0.04  76.70
sdb               0.00     0.00 17006.00    0.00 68024.00     0.00     8.00     1.90    0.11    0.11    0.00   0.05  76.80
sdc               0.00     0.00 17214.00    0.00 68856.00     0.00     8.00     2.25    0.13    0.13    0.00   0.05  80.30
sdd               0.00     0.00 17332.00    0.00 69328.00     0.00     8.00     2.26    0.13    0.13    0.00   0.05  79.90
sde               0.00     0.00 17213.00    0.00 68852.00     0.00     8.00     2.16    0.13    0.13    0.00   0.05  79.90
sdf               0.00     0.00 17317.00    0.00 69268.00     0.00     8.00     2.19    0.13    0.13    0.00   0.05  80.10
sdg               0.00     0.00    5.00   70.00    56.00  1380.00    38.29     0.28    4.60    2.60    4.74   0.11   0.80
sdh               0.00     0.00    0.00    0.00     0.00     0.00     0.00     0.00    0.00    0.00    0.00   0.00   0.00
md0               0.00     0.00 103424.00    0.00 413696.00     0.00     8.00     0.00    0.00    0.00    0.00   0.00   0.00

avg-cpu:  %user   %nice %system %iowait  %steal   %idle
           3.34    0.00   25.45   58.87    0.00   12.34

Device:         rrqm/s   wrqm/s     r/s     w/s    rkB/s    wkB/s avgrq-sz avgqu-sz   await r_await w_await  svctm  %util
sda               0.00     0.00 17596.00    0.00 70384.00     0.00     8.00     1.95    0.11    0.11    0.00   0.04  77.70
sdb               0.00     0.00 17416.00    0.00 69664.00     0.00     8.00     1.90    0.11    0.11    0.00   0.04  77.40
sdc               0.00     0.00 17511.00    0.00 70044.00     0.00     8.00     2.29    0.13    0.13    0.00   0.05  80.60
sdd               0.00     0.00 17643.00    0.00 70572.00     0.00     8.00     2.22    0.13    0.13    0.00   0.05  80.10
sde               0.00     0.00 17434.00    0.00 69736.00     0.00     8.00     2.23    0.13    0.13    0.00   0.05  80.00
sdf               0.00     0.00 17305.00    0.00 69220.00     0.00     8.00     2.22    0.13    0.13    0.00   0.05  81.60
sdg               0.00     3.00   12.00 1440.00    48.00  7456.00    10.34     8.53    5.87    0.08    5.92   0.05   6.60
sdh               0.00     0.00    0.00    0.00     0.00     0.00     0.00     0.00    0.00    0.00    0.00   0.00   0.00
md0               0.00     0.00 104931.00    0.00 419724.00     0.00     8.00     0.00    0.00    0.00    0.00   0.00   0.00

avg-cpu:  %user   %nice %system %iowait  %steal   %idle
           3.56    0.00   25.19   58.78    0.00   12.47

Device:         rrqm/s   wrqm/s     r/s     w/s    rkB/s    wkB/s avgrq-sz avgqu-sz   await r_await w_await  svctm  %util
sda               0.00     0.00 17459.00    0.00 69836.00     0.00     8.00     1.98    0.11    0.11    0.00   0.05  78.60
sdb               0.00     0.00 17433.00    0.00 69732.00     0.00     8.00     1.91    0.11    0.11    0.00   0.04  78.20
sdc               0.00     0.00 17628.00    0.00 70512.00     0.00     8.00     2.31    0.13    0.13    0.00   0.05  79.80
sdd               0.00     0.00 17428.00    0.00 69712.00     0.00     8.00     2.20    0.13    0.13    0.00   0.05  80.70
sde               0.00     0.00 17488.00    0.00 69952.00     0.00     8.00     2.28    0.13    0.13    0.00   0.05  81.10
sdf               0.00     0.00 17582.00    0.00 70328.00     0.00     8.00     2.20    0.13    0.13    0.00   0.05  80.70
sdg               0.00     0.00    0.00    0.00     0.00     0.00     0.00     0.00    0.00    0.00    0.00   0.00   0.00
sdh               0.00     0.00    0.00    0.00     0.00     0.00     0.00     0.00    0.00    0.00    0.00   0.00   0.00
md0               0.00     0.00 104989.00    0.00 419956.00     0.00     8.00     0.00    0.00    0.00    0.00   0.00   0.00

avg-cpu:  %user   %nice %system %iowait  %steal   %idle
           3.31    0.00   25.70   58.78    0.00   12.21

Device:         rrqm/s   wrqm/s     r/s     w/s    rkB/s    wkB/s avgrq-sz avgqu-sz   await r_await w_await  svctm  %util
sda               0.00     0.00 17439.00    0.00 69756.00     0.00     8.00     1.94    0.11    0.11    0.00   0.04  78.20
sdb               0.00     0.00 17728.00    0.00 70912.00     0.00     8.00     1.97    0.11    0.11    0.00   0.04  78.50
sdc               0.00     0.00 17711.00    0.00 70844.00     0.00     8.00     2.24    0.13    0.13    0.00   0.05  81.20
sdd               0.00     0.00 17403.00    0.00 69616.00     0.00     8.00     2.24    0.13    0.13    0.00   0.05  82.90
sde               0.00     0.00 17607.00    0.00 70428.00     0.00     8.00     2.30    0.13    0.13    0.00   0.05  80.80
sdf               0.00     0.00 17587.00    0.00 70348.00     0.00     8.00     2.26    0.13    0.13    0.00   0.05  80.00
sdg               0.00    16.00    0.00   73.00     0.00  1260.00    34.52     0.24    3.27    0.00    3.27   0.12   0.90
sdh               0.00     0.00    0.00    0.00     0.00     0.00     0.00     0.00    0.00    0.00    0.00   0.00   0.00
md0               0.00     0.00 105496.00    0.00 421984.00     0.00     8.00     0.00    0.00    0.00    0.00   0.00   0.00

avg-cpu:  %user   %nice %system %iowait  %steal   %idle
           3.35    0.00   24.48   59.79    0.00   12.37

Device:         rrqm/s   wrqm/s     r/s     w/s    rkB/s    wkB/s avgrq-sz avgqu-sz   await r_await w_await  svctm  %util
sda               0.00     0.00 17662.00    0.00 70648.00     0.00     8.00     1.95    0.11    0.11    0.00   0.04  77.80
sdb               0.00     0.00 17366.00    0.00 69464.00     0.00     8.00     1.97    0.11    0.11    0.00   0.04  77.60
sdc               0.00     0.00 17409.00    0.00 69636.00     0.00     8.00     2.28    0.13    0.13    0.00   0.05  80.30
sdd               0.00     0.00 17706.00    0.00 70820.00     0.00     8.00     2.25    0.13    0.13    0.00   0.05  80.60
sde               0.00     0.00 17715.00    0.00 70860.00     0.00     8.00     2.27    0.13    0.13    0.00   0.05  81.80
sdf               0.00     0.00 17551.00    0.00 70204.00     0.00     8.00     2.30    0.13    0.13    0.00   0.05  80.90
sdg               0.00     0.00    0.00    0.00     0.00     0.00     0.00     0.00    0.00    0.00    0.00   0.00   0.00
sdh               0.00     0.00    0.00    0.00     0.00     0.00     0.00     0.00    0.00    0.00    0.00   0.00   0.00
md0               0.00     0.00 105403.00    0.00 421612.00     0.00     8.00     0.00    0.00    0.00    0.00   0.00   0.00

avg-cpu:  %user   %nice %system %iowait  %steal   %idle
           3.54    0.00   25.51   58.84    0.00   12.12

Device:         rrqm/s   wrqm/s     r/s     w/s    rkB/s    wkB/s avgrq-sz avgqu-sz   await r_await w_await  svctm  %util
sda               0.00     0.00 17856.00    0.00 71424.00     0.00     8.00     1.95    0.11    0.11    0.00   0.04  78.00
sdb               0.00     0.00 17569.00    0.00 70276.00     0.00     8.00     2.06    0.12    0.12    0.00   0.05  79.20
sdc               0.00     0.00 17628.00    0.00 70512.00     0.00     8.00     2.24    0.13    0.13    0.00   0.05  80.90
sdd               0.00     0.00 17651.00    0.00 70604.00     0.00     8.00     2.27    0.13    0.13    0.00   0.05  81.00
sde               0.00     0.00 17281.00    0.00 69124.00     0.00     8.00     2.29    0.13    0.13    0.00   0.05  80.80
sdf               0.00     0.00 17547.00    0.00 70188.00     0.00     8.00     2.20    0.13    0.13    0.00   0.05  80.10
sdg               0.00     0.00    0.00    0.00     0.00     0.00     0.00     0.00    0.00    0.00    0.00   0.00   0.00
sdh               0.00     0.00    0.00    0.00     0.00     0.00     0.00     0.00    0.00    0.00    0.00   0.00   0.00
md0               0.00     0.00 105517.00    0.00 422068.00     0.00     8.00     0.00    0.00    0.00    0.00   0.00   0.00

avg-cpu:  %user   %nice %system %iowait  %steal   %idle
           3.36    0.00   24.03   59.95    0.00   12.66

Device:         rrqm/s   wrqm/s     r/s     w/s    rkB/s    wkB/s avgrq-sz avgqu-sz   await r_await w_await  svctm  %util
sda               0.00     0.00 17591.00    0.00 70364.00     0.00     8.00     1.91    0.11    0.11    0.00   0.04  78.40
sdb               0.00     0.00 17517.00    0.00 70068.00     0.00     8.00     1.97    0.11    0.11    0.00   0.04  78.60
sdc               0.00     0.00 17472.00    0.00 69888.00     0.00     8.00     2.26    0.13    0.13    0.00   0.05  80.80
sdd               0.00     0.00 17712.00    0.00 70848.00     0.00     8.00     2.37    0.13    0.13    0.00   0.05  81.30
sde               0.00     0.00 17526.00    0.00 70104.00     0.00     8.00     2.24    0.13    0.13    0.00   0.05  80.90
sdf               0.00     0.00 17596.00    0.00 70384.00     0.00     8.00     2.28    0.13    0.13    0.00   0.05  81.00
sdg               0.00     0.00    0.00    0.00     0.00     0.00     0.00     0.00    0.00    0.00    0.00   0.00   0.00
sdh               0.00     0.00    0.00    0.00     0.00     0.00     0.00     0.00    0.00    0.00    0.00   0.00   0.00
md0               0.00     0.00 105440.00    0.00 421760.00     0.00     8.00     0.00    0.00    0.00    0.00   0.00   0.00

avg-cpu:  %user   %nice %system %iowait  %steal   %idle
           3.57    0.00   24.74   59.69    0.00   11.99

Device:         rrqm/s   wrqm/s     r/s     w/s    rkB/s    wkB/s avgrq-sz avgqu-sz   await r_await w_await  svctm  %util
sda               0.00     0.00 17480.00    0.00 69920.00     0.00     8.00     1.93    0.11    0.11    0.00   0.05  79.20
sdb               0.00     0.00 17786.00    0.00 71144.00     0.00     8.00     1.93    0.11    0.11    0.00   0.04  78.80
sdc               0.00     0.00 17865.00    0.00 71460.00     0.00     8.00     2.31    0.13    0.13    0.00   0.04  80.10
sdd               0.00     0.00 17785.00    0.00 71140.00     0.00     8.00     2.29    0.13    0.13    0.00   0.04  79.90
sde               0.00     0.00 17529.00    0.00 70116.00     0.00     8.00     2.28    0.13    0.13    0.00   0.05  82.90
sdf               0.00     0.00 17675.00    0.00 70700.00     0.00     8.00     2.29    0.13    0.13    0.00   0.05  82.50
sdg               0.00     0.00    0.00    0.00     0.00     0.00     0.00     0.00    0.00    0.00    0.00   0.00   0.00
sdh               0.00     0.00    0.00    0.00     0.00     0.00     0.00     0.00    0.00    0.00    0.00   0.00   0.00
md0               0.00     0.00 106118.00    0.00 424472.00     0.00     8.00     0.00    0.00    0.00    0.00   0.00   0.00

avg-cpu:  %user   %nice %system %iowait  %steal   %idle
           3.11    0.00   23.58   60.88    0.00   12.44

Device:         rrqm/s   wrqm/s     r/s     w/s    rkB/s    wkB/s avgrq-sz avgqu-sz   await r_await w_await  svctm  %util
sda               0.00     0.00 17784.00    0.00 71136.00     0.00     8.00     1.96    0.11    0.11    0.00   0.04  78.40
sdb               0.00     0.00 17532.00    0.00 70128.00     0.00     8.00     1.99    0.11    0.11    0.00   0.05  80.50
sdc               0.00     0.00 17792.00    0.00 71168.00     0.00     8.00     2.36    0.13    0.13    0.00   0.05  82.60
sdd               0.00     0.00 17490.00    0.00 69960.00     0.00     8.00     2.26    0.13    0.13    0.00   0.05  80.00
sde               0.00     0.00 17458.00    0.00 69832.00     0.00     8.00     2.21    0.13    0.13    0.00   0.05  80.30
sdf               0.00     0.00 17850.00    0.00 71400.00     0.00     8.00     2.33    0.13    0.13    0.00   0.05  82.80
sdg               0.00     0.00    0.00    0.00     0.00     0.00     0.00     0.00    0.00    0.00    0.00   0.00   0.00
sdh               0.00     0.00    0.00    0.00     0.00     0.00     0.00     0.00    0.00    0.00    0.00   0.00   0.00
md0               0.00     0.00 105882.00    0.00 423528.00     0.00     8.00     0.00    0.00    0.00    0.00   0.00   0.00

avg-cpu:  %user   %nice %system %iowait  %steal   %idle
           3.32    0.00   24.55   59.59    0.00   12.53

Device:         rrqm/s   wrqm/s     r/s     w/s    rkB/s    wkB/s avgrq-sz avgqu-sz   await r_await w_await  svctm  %util
sda               0.00     0.00 17417.00    0.00 69668.00     0.00     8.00     1.94    0.11    0.11    0.00   0.04  77.40
sdb               0.00     0.00 17501.00    0.00 70004.00     0.00     8.00     1.88    0.11    0.11    0.00   0.04  76.50
sdc               0.00     0.00 17492.00    0.00 69968.00     0.00     8.00     2.24    0.13    0.13    0.00   0.05  79.70
sdd               0.00     0.00 17731.00    0.00 70924.00     0.00     8.00     2.27    0.13    0.13    0.00   0.05  81.40
sde               0.00     0.00 17290.00    0.00 69160.00     0.00     8.00     2.27    0.13    0.13    0.00   0.05  81.10
sdf               0.00     0.00 17680.00    0.00 70720.00     0.00     8.00     2.28    0.13    0.13    0.00   0.05  80.50
sdg               0.00     0.00    1.00    0.00     4.00     0.00     8.00     0.00    0.00    0.00    0.00   0.00   0.00
sdh               0.00     0.00    0.00    0.00     0.00     0.00     0.00     0.00    0.00    0.00    0.00   0.00   0.00
md0               0.00     0.00 105133.00    0.00 420532.00     0.00     8.00     0.00    0.00    0.00    0.00   0.00   0.00

avg-cpu:  %user   %nice %system %iowait  %steal   %idle
           3.29    0.25   24.81   58.99    0.00   12.66

Device:         rrqm/s   wrqm/s     r/s     w/s    rkB/s    wkB/s avgrq-sz avgqu-sz   await r_await w_await  svctm  %util
sda               0.00     0.00 17499.00    0.00 70000.00     0.00     8.00     1.97    0.11    0.11    0.00   0.05  79.20
sdb               0.00     0.00 17481.00    0.00 69924.00     0.00     8.00     1.96    0.11    0.11    0.00   0.04  77.10
sdc               0.00     0.00 17381.00    0.00 69524.00     0.00     8.00     2.25    0.13    0.13    0.00   0.05  79.30
sdd               0.00     0.00 17373.00    0.00 69492.00     0.00     8.00     2.23    0.13    0.13    0.00   0.05  80.30
sde               0.00     0.00 17245.00    0.00 68980.00     0.00     8.00     2.23    0.13    0.13    0.00   0.05  80.60
sdf               0.00     0.00 17507.00    0.00 70028.00     0.00     8.00     2.23    0.13    0.13    0.00   0.05  80.90
sdg               0.00     0.00    1.00    0.00     4.00     0.00     8.00     0.00    0.00    0.00    0.00   0.00   0.00
sdh               0.00     0.00    0.00    0.00     0.00     0.00     0.00     0.00    0.00    0.00    0.00   0.00   0.00
md0               0.00     0.00 104493.00    0.00 417972.00     0.00     8.00     0.00    0.00    0.00    0.00   0.00   0.00

avg-cpu:  %user   %nice %system %iowait  %steal   %idle
           3.28    0.00   24.75   59.09    0.00   12.88

Device:         rrqm/s   wrqm/s     r/s     w/s    rkB/s    wkB/s avgrq-sz avgqu-sz   await r_await w_await  svctm  %util
sda               0.00     0.00 17836.00    0.00 71340.00     0.00     8.00     1.92    0.11    0.11    0.00   0.04  77.10
sdb               0.00     0.00 17451.00    0.00 69804.00     0.00     8.00     1.90    0.11    0.11    0.00   0.04  77.30
sdc               0.00     0.00 17269.00    0.00 69076.00     0.00     8.00     2.18    0.13    0.13    0.00   0.05  81.20
sdd               0.00     0.00 17507.00    0.00 70028.00     0.00     8.00     2.29    0.13    0.13    0.00   0.05  80.30
sde               0.00     0.00 17288.00    0.00 69152.00     0.00     8.00     2.29    0.13    0.13    0.00   0.05  79.70
sdf               0.00     0.00 17420.00    0.00 69680.00     0.00     8.00     2.30    0.13    0.13    0.00   0.05  79.60
sdg               0.00     0.00    0.00    0.00     0.00     0.00     0.00     0.00    0.00    0.00    0.00   0.00   0.00
sdh               0.00     0.00    0.00    0.00     0.00     0.00     0.00     0.00    0.00    0.00    0.00   0.00   0.00
md0               0.00     0.00 104742.00    0.00 418968.00     0.00     8.00     0.00    0.00    0.00    0.00   0.00   0.00

avg-cpu:  %user   %nice %system %iowait  %steal   %idle
           3.34    0.00   23.65   60.41    0.00   12.60

Device:         rrqm/s   wrqm/s     r/s     w/s    rkB/s    wkB/s avgrq-sz avgqu-sz   await r_await w_await  svctm  %util
sda               0.00     0.00 17712.00    0.00 70848.00     0.00     8.00     1.98    0.11    0.11    0.00   0.05  79.80
sdb               0.00     0.00 17664.00    0.00 70656.00     0.00     8.00     2.00    0.11    0.11    0.00   0.04  77.00
sdc               0.00     0.00 17618.00    0.00 70472.00     0.00     8.00     2.23    0.13    0.13    0.00   0.05  81.40
sdd               0.00     0.00 17633.00    0.00 70532.00     0.00     8.00     2.20    0.12    0.12    0.00   0.05  79.80
sde               0.00     0.00 17643.00    0.00 70572.00     0.00     8.00     2.31    0.13    0.13    0.00   0.05  80.30
sdf               0.00     0.00 17341.00    0.00 69364.00     0.00     8.00     2.28    0.13    0.13    0.00   0.05  81.00
sdg               0.00     0.00    0.00    0.00     0.00     0.00     0.00     0.00    0.00    0.00    0.00   0.00   0.00
sdh               0.00     0.00    0.00    0.00     0.00     0.00     0.00     0.00    0.00    0.00    0.00   0.00   0.00
md0               0.00     0.00 105635.00    0.00 422540.00     0.00     8.00     0.00    0.00    0.00    0.00   0.00   0.00

avg-cpu:  %user   %nice %system %iowait  %steal   %idle
           3.61    0.00   23.45   60.57    0.00   12.37

Device:         rrqm/s   wrqm/s     r/s     w/s    rkB/s    wkB/s avgrq-sz avgqu-sz   await r_await w_await  svctm  %util
sda               0.00     0.00 17828.00    0.00 71312.00     0.00     8.00     1.99    0.11    0.11    0.00   0.04  79.20
sdb               0.00     0.00 17911.00    0.00 71644.00     0.00     8.00     1.98    0.11    0.11    0.00   0.04  77.80
sdc               0.00     0.00 17600.00    0.00 70400.00     0.00     8.00     2.28    0.13    0.13    0.00   0.05  80.30
sdd               0.00     0.00 17684.00    0.00 70736.00     0.00     8.00     2.27    0.13    0.13    0.00   0.05  80.30
sde               0.00     0.00 17510.00    0.00 70040.00     0.00     8.00     2.22    0.13    0.13    0.00   0.05  80.10
sdf               0.00     0.00 17420.00    0.00 69680.00     0.00     8.00     2.26    0.13    0.13    0.00   0.05  81.10
sdg               0.00     0.00    0.00    0.00     0.00     0.00     0.00     0.00    0.00    0.00    0.00   0.00   0.00
sdh               0.00     0.00    0.00    0.00     0.00     0.00     0.00     0.00    0.00    0.00    0.00   0.00   0.00
md0               0.00     0.00 105952.00    0.00 423808.00     0.00     8.00     0.00    0.00    0.00    0.00   0.00   0.00

avg-cpu:  %user   %nice %system %iowait  %steal   %idle
           3.32    0.00   23.79   61.13    0.00   11.76

Device:         rrqm/s   wrqm/s     r/s     w/s    rkB/s    wkB/s avgrq-sz avgqu-sz   await r_await w_await  svctm  %util
sda               0.00     0.00 17639.00    0.00 70556.00     0.00     8.00     2.00    0.11    0.11    0.00   0.05  79.90
sdb               0.00     0.00 17817.00    0.00 71268.00     0.00     8.00     1.94    0.11    0.11    0.00   0.04  77.60
sdc               0.00     0.00 17594.00    0.00 70376.00     0.00     8.00     2.25    0.13    0.13    0.00   0.05  80.70
sdd               0.00     0.00 17757.00    0.00 71028.00     0.00     8.00     2.29    0.13    0.13    0.00   0.05  81.20
sde               0.00     0.00 17928.00    0.00 71712.00     0.00     8.00     2.34    0.13    0.13    0.00   0.05  82.50
sdf               0.00     0.00 17443.00    0.00 69772.00     0.00     8.00     2.25    0.13    0.13    0.00   0.05  83.00
sdg               0.00     0.00    0.00    0.00     0.00     0.00     0.00     0.00    0.00    0.00    0.00   0.00   0.00
sdh               0.00     0.00    0.00    0.00     0.00     0.00     0.00     0.00    0.00    0.00    0.00   0.00   0.00
md0               0.00     0.00 106183.00    0.00 424732.00     0.00     8.00     0.00    0.00    0.00    0.00   0.00   0.00

avg-cpu:  %user   %nice %system %iowait  %steal   %idle
           3.31    0.00   24.68   60.31    0.00   11.70

Device:         rrqm/s   wrqm/s     r/s     w/s    rkB/s    wkB/s avgrq-sz avgqu-sz   await r_await w_await  svctm  %util
sda               0.00     0.00 17806.00    0.00 71224.00     0.00     8.00     1.95    0.11    0.11    0.00   0.04  78.60
sdb               0.00     0.00 17749.00    0.00 70996.00     0.00     8.00     1.94    0.11    0.11    0.00   0.04  77.50
sdc               0.00     0.00 17864.00    0.00 71456.00     0.00     8.00     2.34    0.13    0.13    0.00   0.05  81.10
sdd               0.00     0.00 17566.00    0.00 70264.00     0.00     8.00     2.23    0.13    0.13    0.00   0.05  81.20
sde               0.00     0.00 17703.00    0.00 70812.00     0.00     8.00     2.29    0.13    0.13    0.00   0.05  81.60
sdf               0.00     0.00 17506.00    0.00 70024.00     0.00     8.00     2.27    0.13    0.13    0.00   0.05  81.10
sdg               0.00     0.00    0.00    0.00     0.00     0.00     0.00     0.00    0.00    0.00    0.00   0.00   0.00
sdh               0.00     0.00    0.00    0.00     0.00     0.00     0.00     0.00    0.00    0.00    0.00   0.00   0.00
md0               0.00     0.00 106166.00    0.00 424664.00     0.00     8.00     0.00    0.00    0.00    0.00   0.00   0.00

avg-cpu:  %user   %nice %system %iowait  %steal   %idle
           3.29    0.00   23.29   59.24    0.00   14.18

Device:         rrqm/s   wrqm/s     r/s     w/s    rkB/s    wkB/s avgrq-sz avgqu-sz   await r_await w_await  svctm  %util
sda               0.00     0.00 17020.00    0.00 68080.00     0.00     8.00     1.96    0.11    0.11    0.00   0.05  77.10
sdb               0.00     0.00 16944.00    0.00 67776.00     0.00     8.00     1.87    0.11    0.11    0.00   0.05  76.40
sdc               0.00     0.00 16747.00    0.00 66988.00     0.00     8.00     2.36    0.14    0.14    0.00   0.05  81.30
sdd               0.00     0.00 17066.00    0.00 68264.00     0.00     8.00     2.22    0.13    0.13    0.00   0.05  79.50
sde               0.00     0.00 16875.00    0.00 67500.00     0.00     8.00     2.11    0.13    0.13    0.00   0.05  79.50
sdf               0.00     0.00 16727.00    0.00 66908.00     0.00     8.00     2.19    0.13    0.13    0.00   0.05  79.60
sdg               0.00     0.00    0.00    0.00     0.00     0.00     0.00     0.00    0.00    0.00    0.00   0.00   0.00
sdh               0.00     0.00    0.00    0.00     0.00     0.00     0.00     0.00    0.00    0.00    0.00   0.00   0.00
md0               0.00     0.00 101403.00    0.00 405612.00     0.00     8.00     0.00    0.00    0.00    0.00   0.00   0.00

avg-cpu:  %user   %nice %system %iowait  %steal   %idle
           3.32    0.00   22.51   59.59    0.00   14.58

Device:         rrqm/s   wrqm/s     r/s     w/s    rkB/s    wkB/s avgrq-sz avgqu-sz   await r_await w_await  svctm  %util
sda               0.00     0.00 16819.00    0.00 67276.00     0.00     8.00     1.91    0.11    0.11    0.00   0.05  77.20
sdb               0.00     0.00 16791.00    0.00 67164.00     0.00     8.00     1.83    0.11    0.11    0.00   0.05  76.10
sdc               0.00     0.00 16716.00    0.00 66864.00     0.00     8.00     2.43    0.15    0.15    0.00   0.05  81.00
sdd               0.00     0.00 16822.00    0.00 67288.00     0.00     8.00     2.13    0.13    0.13    0.00   0.05  79.10
sde               0.00     0.00 17054.00    0.00 68216.00     0.00     8.00     2.24    0.13    0.13    0.00   0.05  77.70
sdf               0.00     0.00 16815.00    0.00 67260.00     0.00     8.00     2.15    0.13    0.13    0.00   0.05  80.30
sdg               0.00     0.00    0.00    0.00     0.00     0.00     0.00     0.00    0.00    0.00    0.00   0.00   0.00
sdh               0.00     0.00    0.00    0.00     0.00     0.00     0.00     0.00    0.00    0.00    0.00   0.00   0.00
md0               0.00     0.00 101019.00    0.00 404076.00     0.00     8.00     0.00    0.00    0.00    0.00   0.00   0.00

avg-cpu:  %user   %nice %system %iowait  %steal   %idle
           3.32    0.00   22.76   60.10    0.00   13.81

Device:         rrqm/s   wrqm/s     r/s     w/s    rkB/s    wkB/s avgrq-sz avgqu-sz   await r_await w_await  svctm  %util
sda               0.00     0.00 16993.00    0.00 67972.00     0.00     8.00     1.93    0.11    0.11    0.00   0.05  77.20
sdb               0.00     0.00 17184.00    0.00 68736.00     0.00     8.00     1.79    0.10    0.10    0.00   0.04  75.00
sdc               0.00     0.00 17069.00    0.00 68276.00     0.00     8.00     2.46    0.14    0.14    0.00   0.05  81.60
sdd               0.00     0.00 16902.00    0.00 67608.00     0.00     8.00     2.20    0.13    0.13    0.00   0.05  79.10
sde               0.00     0.00 17078.00    0.00 68312.00     0.00     8.00     2.19    0.13    0.13    0.00   0.05  79.50
sdf               0.00     0.00 16930.00    0.00 67720.00     0.00     8.00     2.12    0.13    0.13    0.00   0.05  79.30
sdg               0.00     0.00    0.00    0.00     0.00     0.00     0.00     0.00    0.00    0.00    0.00   0.00   0.00
sdh               0.00     0.00    0.00    0.00     0.00     0.00     0.00     0.00    0.00    0.00    0.00   0.00   0.00
md0               0.00     0.00 102157.00    0.00 408628.00     0.00     8.00     0.00    0.00    0.00    0.00   0.00   0.00

avg-cpu:  %user   %nice %system %iowait  %steal   %idle
           3.07    0.00   23.02   59.59    0.00   14.32

Device:         rrqm/s   wrqm/s     r/s     w/s    rkB/s    wkB/s avgrq-sz avgqu-sz   await r_await w_await  svctm  %util
sda               0.00     0.00 16954.00    0.00 67816.00     0.00     8.00     1.96    0.12    0.12    0.00   0.05  78.00
sdb               0.00     0.00 16763.00    0.00 67052.00     0.00     8.00     1.84    0.11    0.11    0.00   0.04  74.70
sdc               0.00     0.00 16524.00    0.00 66096.00     0.00     8.00     2.31    0.14    0.14    0.00   0.05  79.00
sdd               0.00     0.00 16981.00    0.00 67924.00     0.00     8.00     2.19    0.13    0.13    0.00   0.05  79.80
sde               0.00     0.00 16664.00    0.00 66656.00     0.00     8.00     2.15    0.13    0.13    0.00   0.05  79.40
sdf               0.00     0.00 16791.00    0.00 67164.00     0.00     8.00     2.13    0.13    0.13    0.00   0.05  77.90
sdg               0.00     0.00    0.00    0.00     0.00     0.00     0.00     0.00    0.00    0.00    0.00   0.00   0.00
sdh               0.00     0.00    0.00    0.00     0.00     0.00     0.00     0.00    0.00    0.00    0.00   0.00   0.00
md0               0.00     0.00 100660.00    0.00 402640.00     0.00     8.00     0.00    0.00    0.00    0.00   0.00   0.00

