Linux 4.17.2 (bench) 	08/04/2018 	_x86_64_	(4 CPU)

avg-cpu:  %user   %nice %system %iowait  %steal   %idle
          10.25    0.02    4.20    2.78    0.00   82.75

Device:         rrqm/s   wrqm/s     r/s     w/s    rkB/s    wkB/s avgrq-sz avgqu-sz   await r_await w_await  svctm  %util
sda              55.97     4.17 1746.17  100.76 21472.30  3083.22    26.59     1.05    0.57    0.26    5.92   0.06  11.12
sdb              55.76     4.13 1746.19  100.90 21461.83  3079.94    26.57     1.05    0.57    0.26    5.85   0.06  11.00
sdc              93.49     4.19 1706.36  100.45 21454.07  3082.36    27.16     1.47    0.82    0.44    7.12   0.08  14.51
sdd              87.05     4.16 1711.98  100.52 21439.16  3078.62    27.05     1.48    0.82    0.43    7.33   0.08  14.60
sde              89.03     4.20 1717.05  100.62 21498.31  3082.80    27.05     1.50    0.83    0.44    7.44   0.08  14.62
sdf              86.20     4.17 1719.14  100.56 21479.87  3079.71    26.99     1.54    0.85    0.44    7.90   0.08  14.66
sdg               0.00     3.16   26.97   73.24   326.65   392.01    14.34     0.44    4.39    0.20    5.93   0.08   0.79
sdh               0.00     0.13    0.02    0.23     2.17     4.98    56.82     0.00    1.15    0.65    1.19   0.21   0.01
md0               0.00     0.00 10822.08  472.10 147200.62 21104.12    29.80     0.00    0.00    0.00    0.00   0.00   0.00

avg-cpu:  %user   %nice %system %iowait  %steal   %idle
           0.45    0.01   14.92   68.69    0.00   15.93

Device:         rrqm/s   wrqm/s     r/s     w/s    rkB/s    wkB/s avgrq-sz avgqu-sz   await r_await w_await  svctm  %util
sda               0.00     0.00 11343.15    0.00 45372.60     0.00     8.00     1.18    0.10    0.10    0.00   0.06  70.75
sdb               0.00     0.00 11357.95    0.00 45431.80     0.00     8.00     1.15    0.10    0.10    0.00   0.06  69.98
sdc               0.00     0.00 11412.75    0.00 45651.00     0.00     8.00     1.27    0.11    0.11    0.00   0.06  73.72
sdd               0.00     0.00 11397.05    0.00 45588.20     0.00     8.00     1.28    0.11    0.11    0.00   0.07  74.20
sde               0.00     0.00 11369.25    0.00 45477.00     0.00     8.00     1.27    0.11    0.11    0.00   0.06  73.87
sdf               0.00     0.00 11340.75    0.00 45363.00     0.00     8.00     1.32    0.12    0.12    0.00   0.07  75.00
sdg               0.00     0.15    6.55    0.35    36.40     4.00    11.71     0.00    0.25    0.15    2.29   0.17   0.11
sdh               0.00     0.00    0.00    0.00     0.00     0.00     0.00     0.00    0.00    0.00    0.00   0.00   0.00
md0               0.00     0.00 68221.55    0.00 272886.20     0.00     8.00     0.00    0.00    0.00    0.00   0.00   0.00

