Linux 4.17.2 (bench) 	08/04/2018 	_x86_64_	(4 CPU)

avg-cpu:  %user   %nice %system %iowait  %steal   %idle
          10.25    0.02    4.23    2.79    0.00   82.71

Device:         rrqm/s   wrqm/s     r/s     w/s    rkB/s    wkB/s avgrq-sz avgqu-sz   await r_await w_await  svctm  %util
sda              56.52     4.16 1749.56  100.54 21467.38  3076.44    26.53     1.05    0.57    0.26    5.92   0.06  11.14
sdb              56.31     4.12 1749.59  100.67 21456.94  3073.16    26.52     1.05    0.57    0.26    5.85   0.06  11.01
sdc              93.96     4.18 1709.84  100.23 21449.23  3075.58    27.10     1.47    0.81    0.44    7.12   0.08  14.52
sdd              87.54     4.15 1715.45  100.30 21434.34  3071.85    26.99     1.48    0.81    0.43    7.33   0.08  14.61
sde              89.51     4.19 1720.50  100.40 21493.32  3076.01    26.99     1.50    0.82    0.44    7.44   0.08  14.64
sdf              86.69     4.17 1722.59  100.34 21474.91  3072.94    26.93     1.54    0.85    0.44    7.90   0.08  14.67
sdg               0.00     3.16   27.01   73.22   326.68   391.92    14.34     0.44    4.38    0.20    5.93   0.08   0.79
sdh               0.00     0.13    0.02    0.23     2.17     4.96    56.82     0.00    1.15    0.65    1.19   0.21   0.01
md0               0.00     0.00 10845.76  471.06 147149.09 21057.68    29.73     0.00    0.00    0.00    0.00   0.00   0.00

avg-cpu:  %user   %nice %system %iowait  %steal   %idle
          11.48    0.03   49.17    0.18    0.00   39.15

Device:         rrqm/s   wrqm/s     r/s     w/s    rkB/s    wkB/s avgrq-sz avgqu-sz   await r_await w_await  svctm  %util
sda               0.00     0.00    0.00    0.00     0.00     0.00     0.00     0.00    0.00    0.00    0.00   0.00   0.00
sdb               0.00     0.00    0.00    0.00     0.00     0.00     0.00     0.00    0.00    0.00    0.00   0.00   0.00
sdc               0.00     0.00    0.00    0.00     0.00     0.00     0.00     0.00    0.00    0.00    0.00   0.00   0.00
sdd               0.00     0.00    0.00    0.00     0.00     0.00     0.00     0.00    0.00    0.00    0.00   0.00   0.00
sde               0.00     0.00    0.00    0.00     0.00     0.00     0.00     0.00    0.00    0.00    0.00   0.00   0.00
sdf               0.00     0.00    0.00    0.00     0.00     0.00     0.00     0.00    0.00    0.00    0.00   0.00   0.00
sdg               0.00     0.10  162.35    0.25   689.80     3.20     8.52     0.02    0.12    0.12    0.00   0.12   1.95
sdh               0.00     0.00    0.00    0.00     0.00     0.00     0.00     0.00    0.00    0.00    0.00   0.00   0.00
md0               0.00     0.00    0.00    0.00     0.00     0.00     0.00     0.00    0.00    0.00    0.00   0.00   0.00

