Linux 4.17.2 (bench) 	08/04/2018 	_x86_64_	(4 CPU)

avg-cpu:  %user   %nice %system %iowait  %steal   %idle
          10.24    0.02    4.36    2.86    0.00   82.52

Device:         rrqm/s   wrqm/s     r/s     w/s    rkB/s    wkB/s avgrq-sz avgqu-sz   await r_await w_await  svctm  %util
sda              58.73     4.11 1767.03   99.37 21428.24  3040.69    26.22     1.05    0.56    0.26    5.92   0.06  11.20
sdb              58.52     4.07 1767.05   99.50 21417.91  3037.46    26.20     1.05    0.56    0.26    5.85   0.06  11.08
sdc              95.75     4.13 1727.74   99.07 21410.30  3039.85    26.77     1.47    0.80    0.44    7.12   0.08  14.56
sdd              89.41     4.10 1733.27   99.14 21395.53  3036.16    26.67     1.47    0.80    0.43    7.33   0.08  14.66
sde              91.35     4.15 1738.22   99.23 21453.54  3040.28    26.66     1.49    0.81    0.43    7.44   0.08  14.68
sdf              88.55     4.12 1740.29   99.18 21435.37  3037.24    26.61     1.54    0.84    0.43    7.90   0.08  14.71
sdg               0.00     3.15   27.22   73.07   326.98   391.40    14.32     0.44    4.37    0.20    5.93   0.08   0.79
sdh               0.00     0.12    0.02    0.23     2.14     4.91    56.82     0.00    1.15    0.65    1.19   0.21   0.01
md0               0.00     0.00 10963.71  465.59 146778.64 20813.04    29.33     0.00    0.00    0.00    0.00   0.00   0.00

avg-cpu:  %user   %nice %system %iowait  %steal   %idle
           2.00    0.00   29.68    1.00    0.00   67.33

Device:         rrqm/s   wrqm/s     r/s     w/s    rkB/s    wkB/s avgrq-sz avgqu-sz   await r_await w_await  svctm  %util
sda              14.00     0.00 22993.00    0.00 92028.00     0.00     8.00     5.81    0.25    0.25    0.00   0.02  47.90
sdb              11.00     0.00 23167.00    0.00 92712.00     0.00     8.00     5.96    0.26    0.26    0.00   0.02  48.70
sdc              23.00     0.00 22631.00    0.00 90620.00     0.00     8.01     6.89    0.30    0.30    0.00   0.03  60.70
sdd              11.00     0.00 22882.00    0.00 91572.00     0.00     8.00     6.75    0.29    0.29    0.00   0.03  59.60
sde               9.00     0.00 22307.00    0.00 89264.00     0.00     8.00     6.50    0.29    0.29    0.00   0.03  58.80
sdf               5.00     0.00 22640.00    0.00 90580.00     0.00     8.00     6.55    0.29    0.29    0.00   0.03  60.10
sdg               0.00    17.00   27.00   80.00   432.00  1308.00    32.52     0.22    2.04    0.11    2.69   0.08   0.90
sdh               0.00     0.00    0.00    0.00     0.00     0.00     0.00     0.00    0.00    0.00    0.00   0.00   0.00
md0               0.00     0.00 136615.00    0.00 546460.00     0.00     8.00     0.00    0.00    0.00    0.00   0.00   0.00

avg-cpu:  %user   %nice %system %iowait  %steal   %idle
           2.26    0.00   28.39    1.01    0.00   68.34

Device:         rrqm/s   wrqm/s     r/s     w/s    rkB/s    wkB/s avgrq-sz avgqu-sz   await r_await w_await  svctm  %util
sda               4.00     0.00 20225.00    0.00 80916.00     0.00     8.00     4.16    0.21    0.21    0.00   0.02  49.20
sdb               0.00     0.00 20644.00    0.00 82576.00     0.00     8.00     4.31    0.21    0.21    0.00   0.02  49.50
sdc               0.00     0.00 20410.00    0.00 81640.00     0.00     8.00     4.84    0.24    0.24    0.00   0.03  57.30
sdd               0.00     0.00 20589.00    0.00 82356.00     0.00     8.00     4.92    0.24    0.24    0.00   0.03  59.70
sde               0.00     0.00 20393.00    0.00 81572.00     0.00     8.00     4.96    0.24    0.24    0.00   0.03  60.60
sdf               0.00     0.00 20418.00    0.00 81672.00     0.00     8.00     5.22    0.26    0.26    0.00   0.03  59.40
sdg               0.00     0.00    0.00    0.00     0.00     0.00     0.00     0.00    0.00    0.00    0.00   0.00   0.00
sdh               0.00     0.00    0.00    0.00     0.00     0.00     0.00     0.00    0.00    0.00    0.00   0.00   0.00
md0               0.00     0.00 122658.00    0.00 490632.00     0.00     8.00     0.00    0.00    0.00    0.00   0.00   0.00

avg-cpu:  %user   %nice %system %iowait  %steal   %idle
           2.76    0.25   27.32    1.50    0.00   68.17

Device:         rrqm/s   wrqm/s     r/s     w/s    rkB/s    wkB/s avgrq-sz avgqu-sz   await r_await w_await  svctm  %util
sda               0.00     0.00 16775.00    0.00 67100.00     0.00     8.00     2.88    0.17    0.17    0.00   0.03  48.40
sdb               0.00     0.00 16545.00    0.00 66180.00     0.00     8.00     2.65    0.16    0.16    0.00   0.03  46.90
sdc               0.00     0.00 16959.00    0.00 67836.00     0.00     8.00     3.01    0.18    0.18    0.00   0.03  53.20
sdd               0.00     0.00 16654.00    0.00 66616.00     0.00     8.00     2.97    0.18    0.18    0.00   0.03  51.80
sde               0.00     0.00 17148.00    0.00 68592.00     0.00     8.00     3.17    0.18    0.18    0.00   0.03  55.10
sdf               0.00     0.00 16975.00    0.00 67900.00     0.00     8.00     3.09    0.18    0.18    0.00   0.03  53.20
sdg               0.00     0.00   15.00    0.00   120.00     0.00    16.00     0.00    0.07    0.07    0.00   0.07   0.10
sdh               0.00     0.00    0.00    0.00     0.00     0.00     0.00     0.00    0.00    0.00    0.00   0.00   0.00
md0               0.00     0.00 101032.00    0.00 404128.00     0.00     8.00     0.00    0.00    0.00    0.00   0.00   0.00

avg-cpu:  %user   %nice %system %iowait  %steal   %idle
           3.05    0.00   24.43    2.29    0.00   70.23

Device:         rrqm/s   wrqm/s     r/s     w/s    rkB/s    wkB/s avgrq-sz avgqu-sz   await r_await w_await  svctm  %util
sda               0.00     0.00 12412.00    0.00 49648.00     0.00     8.00     1.64    0.13    0.13    0.00   0.03  42.30
sdb               0.00     0.00 12105.00    0.00 48420.00     0.00     8.00     1.66    0.14    0.14    0.00   0.04  42.80
sdc               0.00     0.00 12421.00    0.00 49684.00     0.00     8.00     1.93    0.16    0.16    0.00   0.04  49.60
sdd               0.00     0.00 12395.00    0.00 49580.00     0.00     8.00     1.76    0.14    0.14    0.00   0.04  48.10
sde               0.00     0.00 12420.00    0.00 49680.00     0.00     8.00     1.79    0.14    0.14    0.00   0.04  49.40
sdf               0.00     0.00 12256.00    0.00 49024.00     0.00     8.00     1.73    0.14    0.14    0.00   0.04  49.10
sdg               0.00    84.00    0.00 1360.00     0.00  7120.00    10.47     8.27    6.08    0.00    6.08   0.05   6.20
sdh               0.00     0.00    0.00    0.00     0.00     0.00     0.00     0.00    0.00    0.00    0.00   0.00   0.00
md0               0.00     0.00 74004.00    0.00 296016.00     0.00     8.00     0.00    0.00    0.00    0.00   0.00   0.00

avg-cpu:  %user   %nice %system %iowait  %steal   %idle
           3.74    0.00   21.95    1.75    0.00   72.57

Device:         rrqm/s   wrqm/s     r/s     w/s    rkB/s    wkB/s avgrq-sz avgqu-sz   await r_await w_await  svctm  %util
sda               0.00     0.00 7833.00    0.00 31332.00     0.00     8.00     0.87    0.11    0.11    0.00   0.05  39.90
sdb               0.00     0.00 7739.00    0.00 30956.00     0.00     8.00     0.95    0.12    0.12    0.00   0.05  39.70
sdc               0.00     0.00 7691.00    0.00 30764.00     0.00     8.00     1.07    0.14    0.14    0.00   0.06  43.50
sdd               0.00     0.00 7608.00    0.00 30432.00     0.00     8.00     0.98    0.13    0.13    0.00   0.06  42.50
sde               0.00     0.00 7903.00    0.00 31612.00     0.00     8.00     0.99    0.13    0.13    0.00   0.05  41.20
sdf               0.00     0.00 7709.00    0.00 30836.00     0.00     8.00     1.00    0.13    0.13    0.00   0.05  41.10
sdg               0.00     0.00    0.00    0.00     0.00     0.00     0.00     0.00    0.00    0.00    0.00   0.00   0.00
sdh               0.00     0.00    0.00    0.00     0.00     0.00     0.00     0.00    0.00    0.00    0.00   0.00   0.00
md0               0.00     0.00 46474.00    0.00 185896.00     0.00     8.00     0.00    0.00    0.00    0.00   0.00   0.00

avg-cpu:  %user   %nice %system %iowait  %steal   %idle
           5.26    0.00   20.30    2.26    0.00   72.18

Device:         rrqm/s   wrqm/s     r/s     w/s    rkB/s    wkB/s avgrq-sz avgqu-sz   await r_await w_await  svctm  %util
sda               0.00     0.00 4164.00    0.00 16656.00     0.00     8.00     0.40    0.10    0.10    0.00   0.06  26.60
sdb               0.00     0.00 4251.00    0.00 17004.00     0.00     8.00     0.47    0.11    0.11    0.00   0.07  28.60
sdc               0.00     0.00 4279.00    0.00 17116.00     0.00     8.00     0.50    0.12    0.12    0.00   0.07  29.80
sdd               0.00     0.00 4244.00    0.00 16976.00     0.00     8.00     0.46    0.11    0.11    0.00   0.07  28.60
sde               0.00     0.00 4043.00    0.00 16172.00     0.00     8.00     0.44    0.11    0.11    0.00   0.07  26.50
sdf               0.00     0.00 4330.00    0.00 17320.00     0.00     8.00     0.47    0.11    0.11    0.00   0.07  29.70
sdg               0.00     0.00    0.00    0.00     0.00     0.00     0.00     0.00    0.00    0.00    0.00   0.00   0.00
sdh               0.00     0.00    0.00    0.00     0.00     0.00     0.00     0.00    0.00    0.00    0.00   0.00   0.00
md0               0.00     0.00 25311.00    0.00 101244.00     0.00     8.00     0.00    0.00    0.00    0.00   0.00   0.00

avg-cpu:  %user   %nice %system %iowait  %steal   %idle
           5.09    0.00   20.36    1.53    0.00   73.03

Device:         rrqm/s   wrqm/s     r/s     w/s    rkB/s    wkB/s avgrq-sz avgqu-sz   await r_await w_await  svctm  %util
sda               0.00     0.00 1917.00    0.00  7668.00     0.00     8.00     0.20    0.10    0.10    0.00   0.08  15.80
sdb               0.00     0.00 1916.00    0.00  7664.00     0.00     8.00     0.19    0.10    0.10    0.00   0.08  15.20
sdc               0.00     0.00 1931.00    0.00  7724.00     0.00     8.00     0.21    0.11    0.11    0.00   0.09  16.80
sdd               0.00     0.00 1938.00    0.00  7752.00     0.00     8.00     0.19    0.10    0.10    0.00   0.08  15.70
sde               0.00     0.00 1963.00    0.00  7852.00     0.00     8.00     0.22    0.11    0.11    0.00   0.09  17.60
sdf               0.00     0.00 1882.00    0.00  7528.00     0.00     8.00     0.22    0.12    0.12    0.00   0.09  17.20
sdg               0.00     0.00    1.00    9.00    16.00   172.00    37.60     0.01    0.80    0.00    0.89   0.10   0.10
sdh               0.00     0.00    0.00    0.00     0.00     0.00     0.00     0.00    0.00    0.00    0.00   0.00   0.00
md0               0.00     0.00 11548.00    0.00 46192.00     0.00     8.00     0.00    0.00    0.00    0.00   0.00   0.00

avg-cpu:  %user   %nice %system %iowait  %steal   %idle
           7.73    0.00   22.44    1.25    0.00   68.58

Device:         rrqm/s   wrqm/s     r/s     w/s    rkB/s    wkB/s avgrq-sz avgqu-sz   await r_await w_await  svctm  %util
sda               0.00     0.00  728.00    0.00  2912.00     0.00     8.00     0.07    0.09    0.09    0.00   0.09   6.30
sdb               0.00     0.00  723.00    0.00  2892.00     0.00     8.00     0.08    0.11    0.11    0.00   0.09   6.80
sdc               0.00     0.00  730.00    0.00  2920.00     0.00     8.00     0.07    0.09    0.09    0.00   0.09   6.50
sdd               0.00     0.00  733.00    0.00  2932.00     0.00     8.00     0.08    0.11    0.11    0.00   0.11   7.90
sde               0.00     0.00  767.00    0.00  3068.00     0.00     8.00     0.09    0.11    0.11    0.00   0.10   7.40
sdf               0.00     0.00  744.00    0.00  2976.00     0.00     8.00     0.06    0.09    0.09    0.00   0.08   6.10
sdg               0.00     0.00    0.00    0.00     0.00     0.00     0.00     0.00    0.00    0.00    0.00   0.00   0.00
sdh               0.00     0.00    0.00    0.00     0.00     0.00     0.00     0.00    0.00    0.00    0.00   0.00   0.00
md0               0.00     0.00 4423.00    0.00 17692.00     0.00     8.00     0.00    0.00    0.00    0.00   0.00   0.00

avg-cpu:  %user   %nice %system %iowait  %steal   %idle
           7.59    0.00   25.06    0.25    0.00   67.09

Device:         rrqm/s   wrqm/s     r/s     w/s    rkB/s    wkB/s avgrq-sz avgqu-sz   await r_await w_await  svctm  %util
sda               0.00     0.00  231.00    0.00   924.00     0.00     8.00     0.03    0.13    0.13    0.00   0.13   3.10
sdb               0.00     0.00  203.00    0.00   812.00     0.00     8.00     0.03    0.14    0.14    0.00   0.13   2.70
sdc               0.00     0.00  228.00    0.00   912.00     0.00     8.00     0.03    0.11    0.11    0.00   0.11   2.50
sdd               0.00     0.00  228.00    0.00   912.00     0.00     8.00     0.02    0.09    0.09    0.00   0.09   2.10
sde               0.00     0.00  224.00    0.00   896.00     0.00     8.00     0.02    0.11    0.11    0.00   0.11   2.40
sdf               0.00     0.00  217.00    0.00   868.00     0.00     8.00     0.02    0.10    0.10    0.00   0.10   2.10
sdg               0.00     0.00    6.00    5.00    24.00    24.00     8.73     0.00    0.00    0.00    0.00   0.00   0.00
sdh               0.00     0.00    0.00    0.00     0.00     0.00     0.00     0.00    0.00    0.00    0.00   0.00   0.00
md0               0.00     0.00 1331.00    0.00  5324.00     0.00     8.00     0.00    0.00    0.00    0.00   0.00   0.00

avg-cpu:  %user   %nice %system %iowait  %steal   %idle
           8.84    0.00   25.25    0.25    0.00   65.66

Device:         rrqm/s   wrqm/s     r/s     w/s    rkB/s    wkB/s avgrq-sz avgqu-sz   await r_await w_await  svctm  %util
sda               0.00     0.00   45.00    0.00   180.00     0.00     8.00     0.01    0.13    0.13    0.00   0.13   0.60
sdb               0.00     0.00   43.00    0.00   172.00     0.00     8.00     0.01    0.14    0.14    0.00   0.14   0.60
sdc               0.00     0.00   43.00    0.00   172.00     0.00     8.00     0.01    0.16    0.16    0.00   0.14   0.60
sdd               0.00     0.00   45.00    0.00   180.00     0.00     8.00     0.00    0.04    0.04    0.00   0.04   0.20
sde               0.00     0.00   43.00    0.00   172.00     0.00     8.00     0.01    0.14    0.14    0.00   0.14   0.60
sdf               0.00     0.00   50.00    0.00   200.00     0.00     8.00     0.01    0.10    0.10    0.00   0.10   0.50
sdg               0.00     0.00    0.00    0.00     0.00     0.00     0.00     0.00    0.00    0.00    0.00   0.00   0.00
sdh               0.00     0.00    0.00    0.00     0.00     0.00     0.00     0.00    0.00    0.00    0.00   0.00   0.00
md0               0.00     0.00  269.00    0.00  1076.00     0.00     8.00     0.00    0.00    0.00    0.00   0.00   0.00

