Linux 4.17.2 (bench) 	08/04/2018 	_x86_64_	(4 CPU)

avg-cpu:  %user   %nice %system %iowait  %steal   %idle
          10.25    0.02    4.28    2.82    0.00   82.63

Device:         rrqm/s   wrqm/s     r/s     w/s    rkB/s    wkB/s avgrq-sz avgqu-sz   await r_await w_await  svctm  %util
sda              57.68     4.14 1758.48  100.06 21456.79  3061.85    26.38     1.05    0.57    0.26    5.92   0.06  11.17
sdb              57.47     4.10 1758.50  100.20 21446.41  3058.59    26.37     1.05    0.57    0.26    5.85   0.06  11.05
sdc              94.96     4.16 1718.93   99.76 21438.73  3061.00    26.94     1.47    0.81    0.44    7.12   0.08  14.55
sdd              88.57     4.13 1724.50   99.83 21423.87  3057.29    26.84     1.48    0.81    0.43    7.33   0.08  14.64
sde              90.52     4.17 1729.51   99.92 21482.44  3061.43    26.83     1.50    0.82    0.44    7.44   0.08  14.66
sdf              87.71     4.15 1731.59   99.87 21464.15  3058.37    26.78     1.54    0.84    0.43    7.90   0.08  14.69
sdg               0.00     3.16   27.10   73.16   326.84   391.71    14.33     0.44    4.38    0.20    5.93   0.08   0.79
sdh               0.00     0.13    0.02    0.23     2.16     4.94    56.82     0.00    1.15    0.65    1.19   0.21   0.01
md0               0.00     0.00 10906.14  468.83 147025.47 20957.86    29.54     0.00    0.00    0.00    0.00   0.00   0.00

avg-cpu:  %user   %nice %system %iowait  %steal   %idle
           4.02    0.00   22.11    2.01    0.00   71.86

Device:         rrqm/s   wrqm/s     r/s     w/s    rkB/s    wkB/s avgrq-sz avgqu-sz   await r_await w_await  svctm  %util
sda               0.00     0.00 15269.00    0.00 61076.00     0.00     8.00     1.90    0.12    0.12    0.00   0.04  55.90
sdb               0.00     0.00 15259.00    0.00 61036.00     0.00     8.00     1.88    0.12    0.12    0.00   0.04  54.00
sdc               0.00     0.00 15461.00    0.00 61844.00     0.00     8.00     2.14    0.14    0.14    0.00   0.04  60.00
sdd               0.00     0.00 15185.00    0.00 60740.00     0.00     8.00     2.04    0.13    0.13    0.00   0.04  61.80
sde               0.00     0.00 15303.00    0.00 61212.00     0.00     8.00     2.23    0.15    0.15    0.00   0.04  61.80
sdf               0.00     0.00 15214.00    0.00 60856.00     0.00     8.00     2.21    0.15    0.15    0.00   0.04  61.40
sdg               0.00     1.00    0.00    9.00     0.00   148.00    32.89     0.00    0.00    0.00    0.00   0.00   0.00
sdh               0.00     0.00    0.00    0.00     0.00     0.00     0.00     0.00    0.00    0.00    0.00   0.00   0.00
md0               0.00     0.00 91645.00    0.00 366580.00     0.00     8.00     0.00    0.00    0.00    0.00   0.00   0.00

avg-cpu:  %user   %nice %system %iowait  %steal   %idle
           4.93    0.25   21.92    1.72    0.00   71.18

Device:         rrqm/s   wrqm/s     r/s     w/s    rkB/s    wkB/s avgrq-sz avgqu-sz   await r_await w_await  svctm  %util
sda               0.00     0.00 13611.00    0.00 54444.00     0.00     8.00     1.71    0.13    0.13    0.00   0.04  55.10
sdb               0.00     0.00 13590.00    0.00 54360.00     0.00     8.00     1.69    0.12    0.12    0.00   0.04  52.50
sdc               0.00     0.00 13202.00    0.00 52808.00     0.00     8.00     1.73    0.13    0.13    0.00   0.04  57.60
sdd               0.00     0.00 13418.00    0.00 53672.00     0.00     8.00     1.73    0.13    0.13    0.00   0.04  60.00
sde               0.00     0.00 13507.00    0.00 54028.00     0.00     8.00     1.81    0.13    0.13    0.00   0.04  59.30
sdf               0.00     0.00 13406.00    0.00 53624.00     0.00     8.00     1.76    0.13    0.13    0.00   0.04  58.20
sdg               0.00     0.00   38.00    0.00   464.00     0.00    24.42     0.01    0.29    0.29    0.00   0.18   0.70
sdh               0.00     0.00    0.00    0.00     0.00     0.00     0.00     0.00    0.00    0.00    0.00   0.00   0.00
md0               0.00     0.00 80722.00    0.00 322888.00     0.00     8.00     0.00    0.00    0.00    0.00   0.00   0.00

avg-cpu:  %user   %nice %system %iowait  %steal   %idle
           4.55    0.00   18.94    1.77    0.00   74.75

Device:         rrqm/s   wrqm/s     r/s     w/s    rkB/s    wkB/s avgrq-sz avgqu-sz   await r_await w_await  svctm  %util
sda               0.00     0.00 11350.00    0.00 45400.00     0.00     8.00     1.48    0.13    0.13    0.00   0.05  57.10
sdb               0.00     0.00 11428.00    0.00 45712.00     0.00     8.00     1.47    0.13    0.13    0.00   0.05  54.60
sdc               0.00     0.00 11578.00    0.00 46312.00     0.00     8.00     1.62    0.14    0.14    0.00   0.05  60.50
sdd               0.00     0.00 11628.00    0.00 46512.00     0.00     8.00     1.62    0.14    0.14    0.00   0.05  60.70
sde               0.00     0.00 11658.00    0.00 46632.00     0.00     8.00     1.60    0.14    0.14    0.00   0.05  61.00
sdf               0.00     0.00 11535.00    0.00 46140.00     0.00     8.00     1.63    0.14    0.14    0.00   0.05  60.40
sdg               0.00     0.00    0.00    0.00     0.00     0.00     0.00     0.00    0.00    0.00    0.00   0.00   0.00
sdh               0.00     0.00    0.00    0.00     0.00     0.00     0.00     0.00    0.00    0.00    0.00   0.00   0.00
md0               0.00     0.00 69193.00    0.00 276772.00     0.00     8.00     0.00    0.00    0.00    0.00   0.00   0.00

avg-cpu:  %user   %nice %system %iowait  %steal   %idle
           5.54    0.00   17.63    2.52    0.00   74.31

Device:         rrqm/s   wrqm/s     r/s     w/s    rkB/s    wkB/s avgrq-sz avgqu-sz   await r_await w_await  svctm  %util
sda               0.00     0.00 9958.00    0.00 39832.00     0.00     8.00     1.13    0.11    0.11    0.00   0.05  50.60
sdb               0.00     0.00 10121.00    0.00 40484.00     0.00     8.00     1.22    0.12    0.12    0.00   0.05  52.10
sdc               0.00     0.00 10178.00    0.00 40712.00     0.00     8.00     1.34    0.13    0.13    0.00   0.06  57.10
sdd               0.00     0.00 9986.00    0.00 39944.00     0.00     8.00     1.29    0.13    0.13    0.00   0.05  54.60
sde               0.00     0.00 9941.00    0.00 39764.00     0.00     8.00     1.23    0.12    0.12    0.00   0.06  54.80
sdf               0.00     0.00 9948.00    0.00 39792.00     0.00     8.00     1.29    0.13    0.13    0.00   0.06  55.40
sdg               0.00     0.00    0.00    0.00     0.00     0.00     0.00     0.00    0.00    0.00    0.00   0.00   0.00
sdh               0.00     0.00    0.00    0.00     0.00     0.00     0.00     0.00    0.00    0.00    0.00   0.00   0.00
md0               0.00     0.00 60125.00    0.00 240500.00     0.00     8.00     0.00    0.00    0.00    0.00   0.00   0.00

avg-cpu:  %user   %nice %system %iowait  %steal   %idle
           5.74    0.00   17.46    2.49    0.00   74.31

Device:         rrqm/s   wrqm/s     r/s     w/s    rkB/s    wkB/s avgrq-sz avgqu-sz   await r_await w_await  svctm  %util
sda               0.00     0.00 8365.00    0.00 33460.00     0.00     8.00     0.92    0.11    0.11    0.00   0.06  47.00
sdb               0.00     0.00 8446.00    0.00 33784.00     0.00     8.00     0.93    0.11    0.11    0.00   0.05  45.40
sdc               0.00     0.00 8400.00    0.00 33600.00     0.00     8.00     0.99    0.12    0.12    0.00   0.06  49.00
sdd               0.00     0.00 8416.00    0.00 33664.00     0.00     8.00     1.01    0.12    0.12    0.00   0.06  49.80
sde               0.00     0.00 8331.00    0.00 33324.00     0.00     8.00     0.98    0.12    0.12    0.00   0.06  50.90
sdf               0.00     0.00 8438.00    0.00 33752.00     0.00     8.00     1.00    0.12    0.12    0.00   0.06  49.30
sdg               0.00     0.00    0.00    0.00     0.00     0.00     0.00     0.00    0.00    0.00    0.00   0.00   0.00
sdh               0.00     0.00    0.00    0.00     0.00     0.00     0.00     0.00    0.00    0.00    0.00   0.00   0.00
md0               0.00     0.00 50395.00    0.00 201580.00     0.00     8.00     0.00    0.00    0.00    0.00   0.00   0.00

avg-cpu:  %user   %nice %system %iowait  %steal   %idle
           6.06    0.00   15.15    3.03    0.00   75.76

Device:         rrqm/s   wrqm/s     r/s     w/s    rkB/s    wkB/s avgrq-sz avgqu-sz   await r_await w_await  svctm  %util
sda               0.00     0.00 6850.00    0.00 27400.00     0.00     8.00     0.73    0.11    0.11    0.00   0.06  41.40
sdb               0.00     0.00 6831.00    0.00 27324.00     0.00     8.00     0.70    0.10    0.10    0.00   0.06  42.30
sdc               0.00     0.00 6725.00    0.00 26900.00     0.00     8.00     0.80    0.12    0.12    0.00   0.07  46.00
sdd               0.00     0.00 6825.00    0.00 27300.00     0.00     8.00     0.84    0.12    0.12    0.00   0.07  47.20
sde               0.00     0.00 6797.00    0.00 27188.00     0.00     8.00     0.82    0.12    0.12    0.00   0.07  45.30
sdf               0.00     0.00 6799.00    0.00 27196.00     0.00     8.00     0.79    0.12    0.12    0.00   0.07  46.30
sdg               0.00     0.00    0.00    0.00     0.00     0.00     0.00     0.00    0.00    0.00    0.00   0.00   0.00
sdh               0.00     0.00    0.00    0.00     0.00     0.00     0.00     0.00    0.00    0.00    0.00   0.00   0.00
md0               0.00     0.00 40830.00    0.00 163320.00     0.00     8.00     0.00    0.00    0.00    0.00   0.00   0.00

avg-cpu:  %user   %nice %system %iowait  %steal   %idle
           5.66    0.00   13.37    2.83    0.00   78.15

Device:         rrqm/s   wrqm/s     r/s     w/s    rkB/s    wkB/s avgrq-sz avgqu-sz   await r_await w_await  svctm  %util
sda               0.00     0.00 5480.00    0.00 21920.00     0.00     8.00     0.62    0.11    0.11    0.00   0.07  41.00
sdb               0.00     0.00 5331.00    0.00 21324.00     0.00     8.00     0.60    0.11    0.11    0.00   0.07  38.90
sdc               0.00     0.00 5516.00    0.00 22064.00     0.00     8.00     0.67    0.12    0.12    0.00   0.08  43.50
sdd               0.00     0.00 5457.00    0.00 21828.00     0.00     8.00     0.66    0.12    0.12    0.00   0.08  41.70
sde               0.00     0.00 5420.00    0.00 21680.00     0.00     8.00     0.62    0.12    0.12    0.00   0.07  39.70
sdf               0.00     0.00 5372.00    0.00 21488.00     0.00     8.00     0.64    0.12    0.12    0.00   0.08  41.60
sdg               0.00     0.00    0.00    0.00     0.00     0.00     0.00     0.00    0.00    0.00    0.00   0.00   0.00
sdh               0.00     0.00    0.00    0.00     0.00     0.00     0.00     0.00    0.00    0.00    0.00   0.00   0.00
md0               0.00     0.00 32572.00    0.00 130288.00     0.00     8.00     0.00    0.00    0.00    0.00   0.00   0.00

