Linux 4.17.2 (bench) 	08/04/2018 	_x86_64_	(4 CPU)

avg-cpu:  %user   %nice %system %iowait  %steal   %idle
          10.24    0.02    4.36    2.86    0.00   82.52

Device:         rrqm/s   wrqm/s     r/s     w/s    rkB/s    wkB/s avgrq-sz avgqu-sz   await r_await w_await  svctm  %util
sda              58.73     4.11 1767.05   99.37 21428.52  3040.81    26.22     1.05    0.56    0.26    5.92   0.06  11.20
sdb              58.52     4.08 1767.07   99.51 21418.19  3037.57    26.20     1.05    0.56    0.26    5.85   0.06  11.08
sdc              95.76     4.13 1727.76   99.07 21410.58  3039.96    26.77     1.47    0.80    0.44    7.12   0.08  14.56
sdd              89.41     4.10 1733.29   99.14 21395.81  3036.27    26.67     1.47    0.80    0.43    7.33   0.08  14.66
sde              91.35     4.15 1738.24   99.23 21453.83  3040.39    26.66     1.49    0.81    0.43    7.44   0.08  14.68
sdf              88.55     4.12 1740.31   99.18 21435.66  3037.35    26.61     1.54    0.84    0.43    7.90   0.08  14.71
sdg               0.00     3.15   27.22   73.07   326.98   391.40    14.32     0.44    4.37    0.20    5.93   0.08   0.79
sdh               0.00     0.12    0.02    0.23     2.14     4.91    56.82     0.00    1.15    0.65    1.19   0.21   0.01
md0               0.00     0.00 10963.87  465.60 146780.35 20813.82    29.33     0.00    0.00    0.00    0.00   0.00   0.00

avg-cpu:  %user   %nice %system %iowait  %steal   %idle
           0.25    0.00    3.02    1.26    0.00   95.47

Device:         rrqm/s   wrqm/s     r/s     w/s    rkB/s    wkB/s avgrq-sz avgqu-sz   await r_await w_await  svctm  %util
sda             122.00     0.00  572.00    0.00 77020.00     0.00   269.30     0.40    0.70    0.70    0.00   0.46  26.50
sdb             113.00     0.00  666.00    0.00 74532.00     0.00   223.82     0.41    0.62    0.62    0.00   0.41  27.40
sdc             114.00     0.00  657.00    0.00 75056.00     0.00   228.48     0.63    0.96    0.96    0.00   0.60  39.30
sdd             114.00     0.00  650.00    0.00 74276.00     0.00   228.54     0.64    0.98    0.98    0.00   0.61  39.80
sde             121.00     0.00  586.00    0.00 77040.00     0.00   262.94     0.65    1.11    1.11    0.00   0.68  39.60
sdf             118.00     0.00  572.00    0.00 75436.00     0.00   263.76     0.63    1.10    1.10    0.00   0.68  38.80
sdg               0.00    16.00   29.00   67.00   464.00  1240.00    35.50     0.17    1.79    0.21    2.48   0.11   1.10
sdh               0.00     0.00    0.00    0.00     0.00     0.00     0.00     0.00    0.00    0.00    0.00   0.00   0.00
md0               0.00     0.00 4404.00    0.00 614296.00     0.00   278.97     0.00    0.00    0.00    0.00   0.00   0.00

avg-cpu:  %user   %nice %system %iowait  %steal   %idle
           0.00    0.00    2.53    1.01    0.00   96.46

Device:         rrqm/s   wrqm/s     r/s     w/s    rkB/s    wkB/s avgrq-sz avgqu-sz   await r_await w_await  svctm  %util
sda              81.00     0.00  655.00    0.00 56860.00     0.00   173.62     0.28    0.43    0.43    0.00   0.34  22.50
sdb              81.00     0.00  671.00    0.00 55608.00     0.00   165.75     0.28    0.42    0.42    0.00   0.33  21.90
sdc              79.00     0.00  689.00    0.00 54164.00     0.00   157.22     0.42    0.61    0.61    0.00   0.44  30.20
sdd              77.00     0.00  719.00    0.00 55604.00     0.00   154.67     0.43    0.60    0.60    0.00   0.43  30.60
sde              72.00     0.00  726.00    0.00 55536.00     0.00   152.99     0.46    0.64    0.64    0.00   0.44  32.00
sdf              72.00     0.00  676.00    0.00 55196.00     0.00   163.30     0.45    0.66    0.66    0.00   0.45  30.60
sdg               0.00     0.00    0.00    0.00     0.00     0.00     0.00     0.00    0.00    0.00    0.00   0.00   0.00
sdh               0.00     0.00    0.00    0.00     0.00     0.00     0.00     0.00    0.00    0.00    0.00   0.00   0.00
md0               0.00     0.00 4596.00    0.00 480008.00     0.00   208.88     0.00    0.00    0.00    0.00   0.00   0.00

