Linux 4.17.2 (bench) 	08/04/2018 	_x86_64_	(4 CPU)

avg-cpu:  %user   %nice %system %iowait  %steal   %idle
          10.25    0.02    4.32    2.82    0.00   82.59

Device:         rrqm/s   wrqm/s     r/s     w/s    rkB/s    wkB/s avgrq-sz avgqu-sz   await r_await w_await  svctm  %util
sda              57.70     4.13 1758.23   99.80 21435.61  3053.89    26.36     1.05    0.57    0.26    5.92   0.06  11.16
sdb              57.48     4.09 1758.25   99.94 21425.25  3050.64    26.34     1.05    0.56    0.26    5.85   0.06  11.04
sdc              94.88     4.15 1718.77   99.50 21417.60  3053.04    26.92     1.47    0.81    0.44    7.12   0.08  14.53
sdd              88.51     4.12 1724.33   99.57 21402.77  3049.34    26.81     1.48    0.81    0.43    7.33   0.08  14.63
sde              90.46     4.16 1729.32   99.66 21461.14  3053.47    26.81     1.50    0.82    0.44    7.44   0.08  14.65
sdf              87.65     4.14 1731.40   99.61 21442.90  3050.42    26.75     1.54    0.84    0.43    7.90   0.08  14.68
sdg               0.00     3.15   27.15   73.13   326.87   391.59    14.33     0.44    4.38    0.20    5.93   0.08   0.79
sdh               0.00     0.12    0.02    0.23     2.15     4.93    56.82     0.00    1.15    0.65    1.19   0.21   0.01
md0               0.00     0.00 10904.80  467.61 146878.70 20903.37    29.51     0.00    0.00    0.00    0.00   0.00   0.00

avg-cpu:  %user   %nice %system %iowait  %steal   %idle
           6.69    0.01   26.37    0.06    0.00   66.86

Device:         rrqm/s   wrqm/s     r/s     w/s    rkB/s    wkB/s avgrq-sz avgqu-sz   await r_await w_await  svctm  %util
sda               0.00     0.00    0.00    0.00     0.00     0.00     0.00     0.00    0.00    0.00    0.00   0.00   0.00
sdb               0.00     0.00    0.00    0.00     0.00     0.00     0.00     0.00    0.00    0.00    0.00   0.00   0.00
sdc               0.00     0.00    0.00    0.00     0.00     0.00     0.00     0.00    0.00    0.00    0.00   0.00   0.00
sdd               0.00     0.00    0.00    0.00     0.00     0.00     0.00     0.00    0.00    0.00    0.00   0.00   0.00
sde               0.00     0.00    0.05    0.00     0.20     0.00     8.00     0.00    0.00    0.00    0.00   0.00   0.00
sdf               0.00     0.00    0.00    0.00     0.00     0.00     0.00     0.00    0.00    0.00    0.00   0.00   0.00
sdg               0.00     3.20    1.50  128.85    21.40   643.00    10.19     0.78    5.96    0.20    6.02   0.05   0.59
sdh               0.00     0.00    0.00    0.00     0.00     0.00     0.00     0.00    0.00    0.00    0.00   0.00   0.00
md0               0.00     0.00    0.05    0.00     0.20     0.00     8.00     0.00    0.00    0.00    0.00   0.00   0.00

