Linux 4.17.2 (bench) 	08/03/2018 	_x86_64_	(4 CPU)

avg-cpu:  %user   %nice %system %iowait  %steal   %idle
          10.25    0.02    4.20    2.76    0.00   82.77

Device:         rrqm/s   wrqm/s     r/s     w/s    rkB/s    wkB/s avgrq-sz avgqu-sz   await r_await w_await  svctm  %util
sda              55.50     4.17 1741.83  100.84 21464.90  3085.78    26.65     1.05    0.57    0.26    5.92   0.06  11.10
sdb              55.29     4.14 1741.85  100.98 21454.42  3082.50    26.63     1.05    0.57    0.26    5.85   0.06  10.98
sdc              93.05     4.19 1701.98  100.54 21446.67  3084.92    27.22     1.47    0.82    0.44    7.12   0.08  14.49
sdd              86.61     4.16 1707.61  100.61 21431.76  3081.18    27.11     1.48    0.82    0.43    7.33   0.08  14.59
sde              88.59     4.21 1712.69  100.70 21490.98  3085.36    27.11     1.50    0.83    0.44    7.44   0.08  14.61
sdf              85.76     4.18 1714.79  100.65 21472.54  3082.27    27.05     1.54    0.85    0.44    7.90   0.08  14.64
sdg               0.00     3.16   26.95   73.25   326.55   392.03    14.34     0.44    4.39    0.20    5.93   0.08   0.79
sdh               0.00     0.13    0.02    0.23     2.17     4.98    56.82     0.00    1.15    0.65    1.19   0.21   0.01
md0               0.00     0.00 10793.26  472.49 147171.63 21121.65    29.88     0.00    0.00    0.00    0.00   0.00   0.00

avg-cpu:  %user   %nice %system %iowait  %steal   %idle
           1.45    0.03   13.07   59.63    0.00   25.83

Device:         rrqm/s   wrqm/s     r/s     w/s    rkB/s    wkB/s avgrq-sz avgqu-sz   await r_await w_await  svctm  %util
sda               0.00     0.00 9112.45    0.00 36449.80     0.00     8.00     0.97    0.11    0.11    0.00   0.06  58.94
sdb               0.00     0.00 9166.75    0.00 36667.00     0.00     8.00     0.97    0.11    0.11    0.00   0.06  58.02
sdc               0.00     0.00 9166.95    0.00 36667.80     0.00     8.00     1.09    0.12    0.12    0.00   0.07  63.03
sdd               0.00     0.00 9187.75    0.00 36751.00     0.00     8.00     1.08    0.12    0.12    0.00   0.07  62.94
sde               0.00     0.00 9162.10    0.00 36648.40     0.00     8.00     1.09    0.12    0.12    0.00   0.07  63.77
sdf               0.00     0.00 9091.65    0.00 36366.60     0.00     8.00     1.09    0.12    0.12    0.00   0.07  64.00
sdg               0.00     0.05    2.70    0.30    28.20     8.00    24.13     0.00    0.12    0.13    0.00   0.10   0.03
sdh               0.00     0.00    0.00    0.00     0.00     0.00     0.00     0.00    0.00    0.00    0.00   0.00   0.00
md0               0.00     0.00 54888.00    0.00 219552.00     0.00     8.00     0.00    0.00    0.00    0.00   0.00   0.00

