Linux 4.17.2 (bench) 	08/04/2018 	_x86_64_	(4 CPU)

avg-cpu:  %user   %nice %system %iowait  %steal   %idle
          10.25    0.02    4.34    2.86    0.00   82.54

Device:         rrqm/s   wrqm/s     r/s     w/s    rkB/s    wkB/s avgrq-sz avgqu-sz   await r_await w_await  svctm  %util
sda              58.80     4.12 1767.18   99.51 21439.85  3044.90    26.23     1.05    0.56    0.26    5.92   0.06  11.20
sdb              58.59     4.08 1767.20   99.64 21429.51  3041.67    26.22     1.05    0.56    0.26    5.85   0.06  11.08
sdc              95.87     4.14 1727.84   99.21 21421.89  3044.06    26.78     1.47    0.80    0.44    7.12   0.08  14.57
sdd              89.52     4.11 1733.38   99.27 21407.10  3040.36    26.68     1.48    0.80    0.43    7.33   0.08  14.67
sde              91.46     4.15 1738.34   99.37 21465.22  3044.49    26.67     1.50    0.81    0.43    7.44   0.08  14.69
sdf              88.66     4.12 1740.41   99.31 21447.03  3041.44    26.62     1.54    0.84    0.43    7.90   0.08  14.72
sdg               0.00     3.15   27.20   73.09   326.97   391.46    14.33     0.44    4.37    0.20    5.93   0.08   0.79
sdh               0.00     0.12    0.02    0.23     2.15     4.91    56.82     0.00    1.15    0.65    1.19   0.21   0.01
md0               0.00     0.00 10965.03  466.23 146859.34 20841.86    29.34     0.00    0.00    0.00    0.00   0.00   0.00

avg-cpu:  %user   %nice %system %iowait  %steal   %idle
           7.80    0.01   10.71    1.61    0.00   79.87

Device:         rrqm/s   wrqm/s     r/s     w/s    rkB/s    wkB/s avgrq-sz avgqu-sz   await r_await w_await  svctm  %util
sda               0.00     0.00 1499.05    0.00  5996.20     0.00     8.00     0.16    0.11    0.11    0.00   0.08  11.36
sdb               0.00     0.00 1499.70    0.00  5998.80     0.00     8.00     0.16    0.11    0.11    0.00   0.08  11.51
sdc               0.00     0.00 1483.70    0.00  5934.80     0.00     8.00     0.16    0.11    0.11    0.00   0.08  11.37
sdd               0.00     0.00 1495.70    0.00  5982.80     0.00     8.00     0.17    0.11    0.11    0.00   0.08  11.93
sde               0.00     0.00 1496.20    0.00  5984.80     0.00     8.00     0.17    0.11    0.11    0.00   0.08  11.99
sdf               0.00     0.00 1485.65    0.00  5942.60     0.00     8.00     0.17    0.11    0.11    0.00   0.08  12.20
sdg               0.00     0.40    0.70   10.20     6.60    58.20    11.89     0.03    2.31    0.21    2.46   0.04   0.04
sdh               0.00     0.00    0.00    0.00     0.00     0.00     0.00     0.00    0.00    0.00    0.00   0.00   0.00
md0               0.00     0.00 8960.00    0.00 35840.00     0.00     8.00     0.00    0.00    0.00    0.00   0.00   0.00

