Linux 4.17.2 (bench) 	08/04/2018 	_x86_64_	(4 CPU)

avg-cpu:  %user   %nice %system %iowait  %steal   %idle
          10.25    0.02    4.29    2.82    0.00   82.63

Device:         rrqm/s   wrqm/s     r/s     w/s    rkB/s    wkB/s avgrq-sz avgqu-sz   await r_await w_await  svctm  %util
sda              57.65     4.14 1758.42  100.01 21452.38  3060.18    26.38     1.05    0.57    0.26    5.92   0.06  11.17
sdb              57.44     4.10 1758.45  100.14 21442.01  3056.93    26.36     1.05    0.56    0.26    5.85   0.06  11.05
sdc              94.91     4.16 1718.90   99.70 21434.34  3059.33    26.94     1.47    0.81    0.44    7.12   0.08  14.54
sdd              88.52     4.13 1724.47   99.77 21419.48  3055.62    26.83     1.48    0.81    0.43    7.33   0.08  14.64
sde              90.48     4.17 1729.47   99.87 21478.01  3059.76    26.83     1.50    0.82    0.44    7.44   0.08  14.66
sdf              87.66     4.14 1731.56   99.81 21459.73  3056.70    26.77     1.54    0.84    0.43    7.90   0.08  14.69
sdg               0.00     3.16   27.11   73.15   326.83   391.68    14.33     0.44    4.38    0.20    5.93   0.08   0.79
sdh               0.00     0.13    0.02    0.23     2.16     4.94    56.82     0.00    1.15    0.65    1.19   0.21   0.01
md0               0.00     0.00 10905.68  468.57 146994.19 20946.44    29.53     0.00    0.00    0.00    0.00   0.00   0.00

avg-cpu:  %user   %nice %system %iowait  %steal   %idle
           9.69    0.01   38.31    1.64    0.00   50.34

Device:         rrqm/s   wrqm/s     r/s     w/s    rkB/s    wkB/s avgrq-sz avgqu-sz   await r_await w_await  svctm  %util
sda               4.45     0.00  237.10    0.00  7390.80     0.00    62.34     0.15    0.65    0.65    0.00   0.10   2.46
sdb               3.95     0.00  246.20    0.00  7248.80     0.00    58.89     0.15    0.61    0.61    0.00   0.10   2.50
sdc               3.95     0.00  267.80    0.00  7386.40     0.00    55.16     0.27    0.99    0.99    0.00   0.14   3.64
sdd               4.05     0.00  246.70    0.00  7501.00     0.00    60.81     0.24    0.98    0.98    0.00   0.15   3.60
sde               3.90     0.00  239.55    0.00  7273.80     0.00    60.73     0.23    0.95    0.95    0.00   0.15   3.61
sdf               4.15     0.00  229.20    0.00  7303.60     0.00    63.73     0.24    1.05    1.05    0.00   0.16   3.58
sdg               0.00     0.00    2.35    0.05    28.80     0.60    24.50     0.00    0.19    0.19    0.00   0.15   0.04
sdh               0.00     0.00    0.00    0.00     0.00     0.00     0.00     0.00    0.00    0.00    0.00   0.00   0.00
md0               0.00     0.00 1558.35    0.00 51620.00     0.00    66.25     0.00    0.00    0.00    0.00   0.00   0.00

