Linux 4.17.2 (bench) 	08/04/2018 	_x86_64_	(4 CPU)

avg-cpu:  %user   %nice %system %iowait  %steal   %idle
          10.24    0.02    4.35    2.86    0.00   82.53

Device:         rrqm/s   wrqm/s     r/s     w/s    rkB/s    wkB/s avgrq-sz avgqu-sz   await r_await w_await  svctm  %util
sda              58.77     4.12 1767.06   99.46 21435.86  3043.43    26.23     1.05    0.56    0.26    5.92   0.06  11.20
sdb              58.56     4.08 1767.08   99.59 21425.52  3040.19    26.21     1.05    0.56    0.26    5.85   0.06  11.08
sdc              95.83     4.14 1727.73   99.16 21417.91  3042.58    26.78     1.47    0.80    0.44    7.12   0.08  14.57
sdd              89.48     4.11 1733.27   99.23 21403.12  3038.89    26.68     1.47    0.80    0.43    7.33   0.08  14.66
sde              91.42     4.15 1738.23   99.32 21461.21  3043.01    26.67     1.50    0.81    0.43    7.44   0.08  14.69
sdf              88.62     4.12 1740.30   99.27 21443.02  3039.97    26.62     1.54    0.84    0.43    7.90   0.08  14.72
sdg               0.00     3.15   27.21   73.09   326.97   391.45    14.33     0.44    4.37    0.20    5.93   0.08   0.79
sdh               0.00     0.12    0.02    0.23     2.14     4.91    56.82     0.00    1.15    0.65    1.19   0.21   0.01
md0               0.00     0.00 10964.15  466.01 146831.87 20831.77    29.34     0.00    0.00    0.00    0.00   0.00   0.00

avg-cpu:  %user   %nice %system %iowait  %steal   %idle
          11.02    0.01   37.38    0.13    0.00   51.46

Device:         rrqm/s   wrqm/s     r/s     w/s    rkB/s    wkB/s avgrq-sz avgqu-sz   await r_await w_await  svctm  %util
sda               0.00     0.00    0.70    0.00     2.80     0.00     8.00     0.00    0.21    0.21    0.00   0.21   0.01
sdb               0.00     0.00    0.55    0.00     2.20     0.00     8.00     0.00    0.18    0.18    0.00   0.18   0.01
sdc               0.00     0.00    1.15    0.00     4.60     0.00     8.00     0.00    0.35    0.35    0.00   0.30   0.04
sdd               0.00     0.00    0.70    0.00     2.80     0.00     8.00     0.00    0.07    0.07    0.00   0.07   0.01
sde               0.00     0.00    0.45    0.00     1.80     0.00     8.00     0.00    0.22    0.22    0.00   0.22   0.01
sdf               0.00     0.00    0.55    0.00     2.20     0.00     8.00     0.00    0.00    0.00    0.00   0.00   0.00
sdg               0.00     2.85   68.60   67.90   294.80   361.20     9.61     0.42    3.11    0.12    6.13   0.08   1.12
sdh               0.00     0.00    0.00    0.00     0.00     0.00     0.00     0.00    0.00    0.00    0.00   0.00   0.00
md0               0.00     0.00    4.10    0.00    16.40     0.00     8.00     0.00    0.00    0.00    0.00   0.00   0.00

