Linux 4.17.2 (bench) 	08/04/2018 	_x86_64_	(4 CPU)

avg-cpu:  %user   %nice %system %iowait  %steal   %idle
          10.25    0.02    4.20    2.78    0.00   82.75

Device:         rrqm/s   wrqm/s     r/s     w/s    rkB/s    wkB/s avgrq-sz avgqu-sz   await r_await w_await  svctm  %util
sda              55.97     4.17 1746.17  100.76 21472.54  3083.27    26.59     1.05    0.57    0.26    5.92   0.06  11.12
sdb              55.76     4.13 1746.20  100.90 21462.07  3079.99    26.57     1.05    0.57    0.26    5.85   0.06  11.00
sdc              93.49     4.19 1706.36  100.46 21454.31  3082.41    27.16     1.47    0.82    0.44    7.12   0.08  14.51
sdd              87.05     4.16 1711.98  100.52 21439.40  3078.67    27.05     1.48    0.82    0.43    7.33   0.08  14.60
sde              89.03     4.20 1717.05  100.62 21498.55  3082.84    27.05     1.50    0.83    0.44    7.44   0.08  14.62
sdf              86.20     4.17 1719.14  100.57 21480.11  3079.76    26.99     1.54    0.85    0.44    7.90   0.08  14.66
sdg               0.00     3.16   26.97   73.24   326.65   392.01    14.34     0.44    4.39    0.20    5.93   0.08   0.79
sdh               0.00     0.13    0.02    0.23     2.17     4.98    56.82     0.00    1.15    0.65    1.19   0.21   0.01
md0               0.00     0.00 10822.11  472.11 147202.34 21104.45    29.80     0.00    0.00    0.00    0.00   0.00   0.00

avg-cpu:  %user   %nice %system %iowait  %steal   %idle
           0.08    0.03    1.68    8.76    0.00   89.46

Device:         rrqm/s   wrqm/s     r/s     w/s    rkB/s    wkB/s avgrq-sz avgqu-sz   await r_await w_await  svctm  %util
sda               0.00     0.00 1470.70    0.00  5882.80     0.00     8.00     0.15    0.10    0.10    0.00   0.10  14.80
sdb               0.00     0.00 1466.60    0.00  5866.40     0.00     8.00     0.14    0.10    0.10    0.00   0.10  14.31
sdc               0.00     0.00 1476.25    0.00  5905.00     0.00     8.00     0.16    0.11    0.11    0.00   0.11  15.62
sdd               0.00     0.00 1459.40    0.00  5837.60     0.00     8.00     0.16    0.11    0.11    0.00   0.11  15.78
sde               0.00     0.00 1470.50    0.00  5882.00     0.00     8.00     0.18    0.12    0.12    0.00   0.12  17.71
sdf               0.00     0.00 1482.65    0.00  5930.60     0.00     8.00     0.16    0.11    0.11    0.00   0.11  15.98
sdg               0.00     0.05   68.00    4.45   279.20    30.40     8.55     0.01    0.18    0.12    1.07   0.12   0.88
sdh               0.00     0.00    0.00    0.00     0.00     0.00     0.00     0.00    0.00    0.00    0.00   0.00   0.00
md0               0.00     0.00 8826.15    0.00 35304.60     0.00     8.00     0.00    0.00    0.00    0.00   0.00   0.00

