Linux 4.17.2 (bench) 	08/04/2018 	_x86_64_	(4 CPU)

avg-cpu:  %user   %nice %system %iowait  %steal   %idle
          10.24    0.02    4.38    2.86    0.00   82.50

Device:         rrqm/s   wrqm/s     r/s     w/s    rkB/s    wkB/s avgrq-sz avgqu-sz   await r_await w_await  svctm  %util
sda              58.76     4.11 1766.99   99.28 21420.94  3037.92    26.21     1.05    0.56    0.26    5.92   0.06  11.20
sdb              58.55     4.07 1767.01   99.41 21410.63  3034.68    26.19     1.05    0.56    0.26    5.85   0.06  11.07
sdc              95.76     4.13 1727.73   98.98 21403.03  3037.07    26.76     1.47    0.80    0.44    7.12   0.08  14.56
sdd              89.42     4.10 1733.26   99.05 21388.26  3033.38    26.66     1.47    0.80    0.43    7.33   0.08  14.66
sde              91.36     4.14 1738.20   99.14 21446.22  3037.50    26.65     1.49    0.81    0.43    7.44   0.08  14.68
sdf              88.56     4.11 1740.27   99.09 21428.06  3034.46    26.60     1.54    0.84    0.43    7.90   0.08  14.71
sdg               0.00     3.15   27.24   73.06   327.00   391.35    14.32     0.44    4.37    0.20    5.93   0.08   0.79
sdh               0.00     0.12    0.02    0.23     2.14     4.90    56.82     0.00    1.15    0.65    1.19   0.21   0.01
md0               0.00     0.00 10963.71  465.16 146727.19 20794.02    29.32     0.00    0.00    0.00    0.00   0.00   0.00

avg-cpu:  %user   %nice %system %iowait  %steal   %idle
           7.37    0.00   23.96    0.03    0.00   68.65

Device:         rrqm/s   wrqm/s     r/s     w/s    rkB/s    wkB/s avgrq-sz avgqu-sz   await r_await w_await  svctm  %util
sda               0.00     0.00    4.60    0.00    18.40     0.00     8.00     0.00    0.12    0.12    0.00   0.11   0.05
sdb               0.00     0.00    3.80    0.00    15.20     0.00     8.00     0.00    0.12    0.12    0.00   0.12   0.04
sdc               0.00     0.00    3.60    0.00    14.40     0.00     8.00     0.00    0.11    0.11    0.00   0.11   0.04
sdd               0.00     0.00    5.45    0.00    21.80     0.00     8.00     0.00    0.10    0.10    0.00   0.10   0.05
sde               0.00     0.00    3.50    0.00    14.00     0.00     8.00     0.00    0.17    0.17    0.00   0.17   0.06
sdf               0.00     0.00    4.25    0.00    17.00     0.00     8.00     0.00    0.15    0.15    0.00   0.14   0.06
sdg               0.00     2.90    0.75   41.70     6.80   208.60    10.15     0.23    5.52    0.87    5.60   0.05   0.20
sdh               0.00     0.00    0.00    0.00     0.00     0.00     0.00     0.00    0.00    0.00    0.00   0.00   0.00
md0               0.00     0.00   25.20    0.00   100.80     0.00     8.00     0.00    0.00    0.00    0.00   0.00   0.00

