Linux 4.17.2 (bench) 	08/04/2018 	_x86_64_	(4 CPU)

avg-cpu:  %user   %nice %system %iowait  %steal   %idle
          10.25    0.02    4.32    2.84    0.00   82.57

Device:         rrqm/s   wrqm/s     r/s     w/s    rkB/s    wkB/s avgrq-sz avgqu-sz   await r_await w_await  svctm  %util
sda              58.13     4.13 1762.77   99.67 21437.28  3049.97    26.30     1.05    0.56    0.26    5.92   0.06  11.18
sdb              57.92     4.09 1762.79   99.81 21426.93  3046.73    26.28     1.05    0.56    0.26    5.85   0.06  11.06
sdc              95.27     4.15 1723.36   99.37 21419.29  3049.12    26.85     1.47    0.81    0.44    7.12   0.08  14.55
sdd              88.90     4.11 1728.90   99.44 21404.44  3045.42    26.75     1.47    0.81    0.43    7.33   0.08  14.65
sde              90.85     4.16 1733.89   99.53 21462.76  3049.55    26.74     1.50    0.82    0.44    7.44   0.08  14.67
sdf              88.05     4.13 1735.96   99.48 21444.51  3046.50    26.69     1.54    0.84    0.43    7.90   0.08  14.70
sdg               0.00     3.15   27.17   73.11   326.91   391.54    14.33     0.44    4.38    0.20    5.93   0.08   0.79
sdh               0.00     0.12    0.02    0.23     2.15     4.92    56.82     0.00    1.15    0.65    1.19   0.21   0.01
md0               0.00     0.00 10934.57  467.01 146865.15 20876.53    29.42     0.00    0.00    0.00    0.00   0.00   0.00

avg-cpu:  %user   %nice %system %iowait  %steal   %idle
           0.51    0.00   14.29   66.07    0.00   19.13

Device:         rrqm/s   wrqm/s     r/s     w/s    rkB/s    wkB/s avgrq-sz avgqu-sz   await r_await w_await  svctm  %util
sda               0.00     0.00 10649.00    0.00 42596.00     0.00     8.00     1.06    0.10    0.10    0.00   0.07  72.70
sdb               0.00     0.00 10704.00    0.00 42816.00     0.00     8.00     1.05    0.10    0.10    0.00   0.07  71.40
sdc               0.00     0.00 10287.00    0.00 41148.00     0.00     8.00     1.14    0.11    0.11    0.00   0.07  76.70
sdd               0.00     0.00 10401.00    0.00 41604.00     0.00     8.00     1.17    0.11    0.11    0.00   0.07  78.00
sde               0.00     0.00 10441.00    0.00 41764.00     0.00     8.00     1.16    0.11    0.11    0.00   0.07  77.90
sdf               0.00     0.00 10617.00    0.00 42468.00     0.00     8.00     1.18    0.11    0.11    0.00   0.07  77.80
sdg               0.00     0.00    0.00    2.00     0.00    28.00    28.00     0.00    0.00    0.00    0.00   0.00   0.00
sdh               0.00     0.00    0.00    0.00     0.00     0.00     0.00     0.00    0.00    0.00    0.00   0.00   0.00
md0               0.00     0.00 63098.00    0.00 252392.00     0.00     8.00     0.00    0.00    0.00    0.00   0.00   0.00

avg-cpu:  %user   %nice %system %iowait  %steal   %idle
           1.02    0.00   14.21   65.23    0.00   19.54

Device:         rrqm/s   wrqm/s     r/s     w/s    rkB/s    wkB/s avgrq-sz avgqu-sz   await r_await w_await  svctm  %util
sda               0.00     0.00 10587.00    0.00 42348.00     0.00     8.00     1.11    0.10    0.10    0.00   0.07  74.30
sdb               0.00     0.00 10498.00    0.00 41992.00     0.00     8.00     1.06    0.10    0.10    0.00   0.07  70.30
sdc               0.00     0.00 10560.00    0.00 42240.00     0.00     8.00     1.21    0.12    0.12    0.00   0.07  78.80
sdd               0.00     0.00 10490.00    0.00 41960.00     0.00     8.00     1.21    0.11    0.11    0.00   0.07  77.70
sde               0.00     0.00 10308.00    0.00 41232.00     0.00     8.00     1.17    0.11    0.11    0.00   0.08  78.40
sdf               0.00     0.00 10211.00    0.00 40844.00     0.00     8.00     1.15    0.11    0.11    0.00   0.08  78.30
sdg               0.00     0.00    0.00    0.00     0.00     0.00     0.00     0.00    0.00    0.00    0.00   0.00   0.00
sdh               0.00     0.00    0.00    0.00     0.00     0.00     0.00     0.00    0.00    0.00    0.00   0.00   0.00
md0               0.00     0.00 62657.00    0.00 250628.00     0.00     8.00     0.00    0.00    0.00    0.00   0.00   0.00

avg-cpu:  %user   %nice %system %iowait  %steal   %idle
           0.76    0.00   13.99   66.16    0.00   19.08

Device:         rrqm/s   wrqm/s     r/s     w/s    rkB/s    wkB/s avgrq-sz avgqu-sz   await r_await w_await  svctm  %util
sda               0.00     0.00 10641.00    0.00 42564.00     0.00     8.00     1.06    0.10    0.10    0.00   0.07  71.50
sdb               0.00     0.00 10582.00    0.00 42328.00     0.00     8.00     1.05    0.10    0.10    0.00   0.07  69.30
sdc               0.00     0.00 10359.00    0.00 41436.00     0.00     8.00     1.14    0.11    0.11    0.00   0.07  76.60
sdd               0.00     0.00 10395.00    0.00 41580.00     0.00     8.00     1.20    0.12    0.12    0.00   0.08  78.80
sde               0.00     0.00 10597.00    0.00 42388.00     0.00     8.00     1.18    0.11    0.11    0.00   0.07  78.30
sdf               0.00     0.00 10330.00    0.00 41320.00     0.00     8.00     1.19    0.12    0.12    0.00   0.08  78.50
sdg               0.00     0.00    0.00    0.00     0.00     0.00     0.00     0.00    0.00    0.00    0.00   0.00   0.00
sdh               0.00     0.00    0.00    0.00     0.00     0.00     0.00     0.00    0.00    0.00    0.00   0.00   0.00
md0               0.00     0.00 62887.00    0.00 251548.00     0.00     8.00     0.00    0.00    0.00    0.00   0.00   0.00

avg-cpu:  %user   %nice %system %iowait  %steal   %idle
           0.51    0.00   14.25   66.41    0.00   18.83

Device:         rrqm/s   wrqm/s     r/s     w/s    rkB/s    wkB/s avgrq-sz avgqu-sz   await r_await w_await  svctm  %util
sda               0.00     0.00 10718.00    0.00 42872.00     0.00     8.00     1.13    0.11    0.11    0.00   0.07  75.00
sdb               0.00     0.00 10717.00    0.00 42868.00     0.00     8.00     1.05    0.10    0.10    0.00   0.07  69.90
sdc               0.00     0.00 10413.00    0.00 41652.00     0.00     8.00     1.18    0.11    0.11    0.00   0.07  76.30
sdd               0.00     0.00 10340.00    0.00 41360.00     0.00     8.00     1.17    0.11    0.11    0.00   0.08  78.70
sde               0.00     0.00 10224.00    0.00 40896.00     0.00     8.00     1.16    0.11    0.11    0.00   0.08  78.60
sdf               0.00     0.00 10587.00    0.00 42348.00     0.00     8.00     1.20    0.11    0.11    0.00   0.08  80.20
sdg               0.00     0.00    2.00   18.00    32.00   120.00    15.20     0.01    0.40    0.00    0.44   0.05   0.10
sdh               0.00     0.00    0.00    0.00     0.00     0.00     0.00     0.00    0.00    0.00    0.00   0.00   0.00
md0               0.00     0.00 63010.00    0.00 252040.00     0.00     8.00     0.00    0.00    0.00    0.00   0.00   0.00

avg-cpu:  %user   %nice %system %iowait  %steal   %idle
           0.51    0.00   14.90   65.91    0.00   18.69

Device:         rrqm/s   wrqm/s     r/s     w/s    rkB/s    wkB/s avgrq-sz avgqu-sz   await r_await w_await  svctm  %util
sda               0.00     0.00 10381.00    0.00 41524.00     0.00     8.00     1.08    0.10    0.10    0.00   0.07  75.10
sdb               0.00     0.00 10447.00    0.00 41788.00     0.00     8.00     1.09    0.10    0.10    0.00   0.07  72.60
sdc               0.00     0.00 10406.00    0.00 41624.00     0.00     8.00     1.18    0.11    0.11    0.00   0.07  77.20
sdd               0.00     0.00 10433.00    0.00 41732.00     0.00     8.00     1.20    0.12    0.12    0.00   0.08  80.30
sde               0.00     0.00 10424.00    0.00 41696.00     0.00     8.00     1.22    0.12    0.12    0.00   0.08  79.90
sdf               0.00     0.00 10362.00    0.00 41448.00     0.00     8.00     1.20    0.12    0.12    0.00   0.08  79.60
sdg               0.00     0.00    0.00    0.00     0.00     0.00     0.00     0.00    0.00    0.00    0.00   0.00   0.00
sdh               0.00     0.00    0.00    0.00     0.00     0.00     0.00     0.00    0.00    0.00    0.00   0.00   0.00
md0               0.00     0.00 62452.00    0.00 249808.00     0.00     8.00     0.00    0.00    0.00    0.00   0.00   0.00

avg-cpu:  %user   %nice %system %iowait  %steal   %idle
           0.25    0.00   14.76   66.16    0.00   18.83

Device:         rrqm/s   wrqm/s     r/s     w/s    rkB/s    wkB/s avgrq-sz avgqu-sz   await r_await w_await  svctm  %util
sda               0.00     0.00 10550.00    0.00 42200.00     0.00     8.00     1.00    0.10    0.10    0.00   0.06  68.00
sdb               0.00     0.00 10550.00    0.00 42200.00     0.00     8.00     1.02    0.10    0.10    0.00   0.06  67.70
sdc               0.00     0.00 10505.00    0.00 42020.00     0.00     8.00     1.15    0.11    0.11    0.00   0.07  77.10
sdd               0.00     0.00 10523.00    0.00 42092.00     0.00     8.00     1.15    0.11    0.11    0.00   0.07  77.30
sde               0.00     0.00 10359.00    0.00 41436.00     0.00     8.00     1.14    0.11    0.11    0.00   0.07  76.60
sdf               0.00     0.00 10373.00    0.00 41492.00     0.00     8.00     1.17    0.11    0.11    0.00   0.08  78.20
sdg               0.00     0.00   22.00    0.00   136.00     0.00    12.36     0.00    0.09    0.09    0.00   0.05   0.10
sdh               0.00     0.00    0.00    0.00     0.00     0.00     0.00     0.00    0.00    0.00    0.00   0.00   0.00
md0               0.00     0.00 62863.00    0.00 251452.00     0.00     8.00     0.00    0.00    0.00    0.00   0.00   0.00

avg-cpu:  %user   %nice %system %iowait  %steal   %idle
           0.76    0.00   14.18   65.82    0.00   19.24

Device:         rrqm/s   wrqm/s     r/s     w/s    rkB/s    wkB/s avgrq-sz avgqu-sz   await r_await w_await  svctm  %util
sda               0.00     0.00 10522.00    0.00 42088.00     0.00     8.00     1.15    0.11    0.11    0.00   0.07  76.50
sdb               0.00     0.00 10311.00    0.00 41244.00     0.00     8.00     1.10    0.11    0.11    0.00   0.07  72.80
sdc               0.00     0.00 10644.00    0.00 42576.00     0.00     8.00     1.21    0.11    0.11    0.00   0.07  78.60
sdd               0.00     0.00 10322.00    0.00 41288.00     0.00     8.00     1.24    0.12    0.12    0.00   0.08  81.70
sde               0.00     0.00 10304.00    0.00 41216.00     0.00     8.00     1.20    0.12    0.12    0.00   0.08  80.70
sdf               0.00     0.00 10410.00    0.00 41640.00     0.00     8.00     1.22    0.12    0.12    0.00   0.08  81.00
sdg               0.00     0.00    0.00    0.00     0.00     0.00     0.00     0.00    0.00    0.00    0.00   0.00   0.00
sdh               0.00     0.00    0.00    0.00     0.00     0.00     0.00     0.00    0.00    0.00    0.00   0.00   0.00
md0               0.00     0.00 62510.00    0.00 250040.00     0.00     8.00     0.00    0.00    0.00    0.00   0.00   0.00

avg-cpu:  %user   %nice %system %iowait  %steal   %idle
           0.51    0.00   13.11   66.07    0.00   20.31

Device:         rrqm/s   wrqm/s     r/s     w/s    rkB/s    wkB/s avgrq-sz avgqu-sz   await r_await w_await  svctm  %util
sda               0.00     0.00 10004.00    0.00 40016.00     0.00     8.00     1.06    0.11    0.11    0.00   0.07  72.70
sdb               0.00     0.00 10461.00    0.00 41844.00     0.00     8.00     1.07    0.10    0.10    0.00   0.07  71.00
sdc               0.00     0.00 10329.00    0.00 41316.00     0.00     8.00     1.16    0.11    0.11    0.00   0.07  75.80
sdd               0.00     0.00 10544.00    0.00 42176.00     0.00     8.00     1.24    0.12    0.12    0.00   0.08  80.50
sde               0.00     0.00 10600.00    0.00 42400.00     0.00     8.00     1.20    0.11    0.11    0.00   0.07  77.90
sdf               0.00     0.00 10400.00    0.00 41600.00     0.00     8.00     1.22    0.12    0.12    0.00   0.08  80.00
sdg               0.00     0.00    0.00    0.00     0.00     0.00     0.00     0.00    0.00    0.00    0.00   0.00   0.00
sdh               0.00     0.00    0.00    0.00     0.00     0.00     0.00     0.00    0.00    0.00    0.00   0.00   0.00
md0               0.00     0.00 62336.00    0.00 249344.00     0.00     8.00     0.00    0.00    0.00    0.00   0.00   0.00

avg-cpu:  %user   %nice %system %iowait  %steal   %idle
           0.51    0.00   13.99   65.14    0.00   20.36

Device:         rrqm/s   wrqm/s     r/s     w/s    rkB/s    wkB/s avgrq-sz avgqu-sz   await r_await w_await  svctm  %util
sda               0.00     0.00 10345.00    0.00 41380.00     0.00     8.00     1.06    0.10    0.10    0.00   0.07  74.90
sdb               0.00     0.00 10552.00    0.00 42208.00     0.00     8.00     1.10    0.10    0.10    0.00   0.07  72.20
sdc               0.00     0.00 10567.00    0.00 42268.00     0.00     8.00     1.20    0.11    0.11    0.00   0.07  78.00
sdd               0.00     0.00 10570.00    0.00 42280.00     0.00     8.00     1.21    0.11    0.11    0.00   0.08  79.80
sde               0.00     0.00 10459.00    0.00 41836.00     0.00     8.00     1.18    0.11    0.11    0.00   0.08  78.60
sdf               0.00     0.00 10278.00    0.00 41112.00     0.00     8.00     1.16    0.11    0.11    0.00   0.08  77.70
sdg               0.00     0.00    0.00    0.00     0.00     0.00     0.00     0.00    0.00    0.00    0.00   0.00   0.00
sdh               0.00     0.00    0.00    0.00     0.00     0.00     0.00     0.00    0.00    0.00    0.00   0.00   0.00
md0               0.00     0.00 62763.00    0.00 251052.00     0.00     8.00     0.00    0.00    0.00    0.00   0.00   0.00

avg-cpu:  %user   %nice %system %iowait  %steal   %idle
           0.76    0.00   14.14   65.40    0.00   19.70

Device:         rrqm/s   wrqm/s     r/s     w/s    rkB/s    wkB/s avgrq-sz avgqu-sz   await r_await w_await  svctm  %util
sda               0.00     0.00 10562.00    0.00 42248.00     0.00     8.00     1.09    0.10    0.10    0.00   0.07  74.20
sdb               0.00     0.00 10499.00    0.00 41996.00     0.00     8.00     1.07    0.10    0.10    0.00   0.07  70.70
sdc               0.00     0.00 10489.00    0.00 41956.00     0.00     8.00     1.16    0.11    0.11    0.00   0.07  76.90
sdd               0.00     0.00 10220.00    0.00 40880.00     0.00     8.00     1.16    0.11    0.11    0.00   0.08  77.80
sde               0.00     0.00 10439.00    0.00 41756.00     0.00     8.00     1.19    0.11    0.11    0.00   0.08  78.90
sdf               0.00     0.00 10305.00    0.00 41220.00     0.00     8.00     1.15    0.11    0.11    0.00   0.08  78.60
sdg               0.00     0.00    0.00    0.00     0.00     0.00     0.00     0.00    0.00    0.00    0.00   0.00   0.00
sdh               0.00     0.00    0.00    0.00     0.00     0.00     0.00     0.00    0.00    0.00    0.00   0.00   0.00
md0               0.00     0.00 62523.00    0.00 250092.00     0.00     8.00     0.00    0.00    0.00    0.00   0.00   0.00

avg-cpu:  %user   %nice %system %iowait  %steal   %idle
           0.51    0.00   13.74   65.39    0.00   20.36

Device:         rrqm/s   wrqm/s     r/s     w/s    rkB/s    wkB/s avgrq-sz avgqu-sz   await r_await w_await  svctm  %util
sda               0.00     0.00 10633.00    0.00 42532.00     0.00     8.00     1.07    0.10    0.10    0.00   0.07  72.50
sdb               0.00     0.00 10581.00    0.00 42324.00     0.00     8.00     1.06    0.10    0.10    0.00   0.07  70.50
sdc               0.00     0.00 10614.00    0.00 42456.00     0.00     8.00     1.18    0.11    0.11    0.00   0.07  76.10
sdd               0.00     0.00 10529.00    0.00 42116.00     0.00     8.00     1.21    0.12    0.12    0.00   0.08  79.80
sde               0.00     0.00 10192.00    0.00 40768.00     0.00     8.00     1.12    0.11    0.11    0.00   0.07  75.60
sdf               0.00     0.00 10448.00    0.00 41792.00     0.00     8.00     1.18    0.11    0.11    0.00   0.08  78.60
sdg               0.00     0.00    0.00    0.00     0.00     0.00     0.00     0.00    0.00    0.00    0.00   0.00   0.00
sdh               0.00     0.00    0.00    0.00     0.00     0.00     0.00     0.00    0.00    0.00    0.00   0.00   0.00
md0               0.00     0.00 63003.00    0.00 252012.00     0.00     8.00     0.00    0.00    0.00    0.00   0.00   0.00

avg-cpu:  %user   %nice %system %iowait  %steal   %idle
           0.50    0.00   14.61   65.49    0.00   19.40

Device:         rrqm/s   wrqm/s     r/s     w/s    rkB/s    wkB/s avgrq-sz avgqu-sz   await r_await w_await  svctm  %util
sda               0.00     0.00 10469.00    0.00 41876.00     0.00     8.00     1.08    0.10    0.10    0.00   0.07  74.60
sdb               0.00     0.00 10386.00    0.00 41544.00     0.00     8.00     1.07    0.10    0.10    0.00   0.07  72.10
sdc               0.00     0.00 10732.00    0.00 42928.00     0.00     8.00     1.22    0.11    0.11    0.00   0.07  77.40
sdd               0.00     0.00 10565.00    0.00 42260.00     0.00     8.00     1.20    0.11    0.11    0.00   0.07  78.90
sde               0.00     0.00 10288.00    0.00 41152.00     0.00     8.00     1.14    0.11    0.11    0.00   0.07  75.70
sdf               0.00     0.00 10423.00    0.00 41692.00     0.00     8.00     1.19    0.11    0.11    0.00   0.08  78.40
sdg               0.00     0.00    0.00    0.00     0.00     0.00     0.00     0.00    0.00    0.00    0.00   0.00   0.00
sdh               0.00     0.00    0.00    0.00     0.00     0.00     0.00     0.00    0.00    0.00    0.00   0.00   0.00
md0               0.00     0.00 62852.00    0.00 251408.00     0.00     8.00     0.00    0.00    0.00    0.00   0.00   0.00

avg-cpu:  %user   %nice %system %iowait  %steal   %idle
           0.76    0.00   13.71   64.97    0.00   20.56

Device:         rrqm/s   wrqm/s     r/s     w/s    rkB/s    wkB/s avgrq-sz avgqu-sz   await r_await w_await  svctm  %util
sda               0.00     0.00 10872.00    0.00 43488.00     0.00     8.00     1.05    0.10    0.10    0.00   0.07  70.90
sdb               0.00     0.00 10693.00    0.00 42772.00     0.00     8.00     1.02    0.10    0.10    0.00   0.06  66.80
sdc               0.00     0.00 10470.00    0.00 41880.00     0.00     8.00     1.13    0.11    0.11    0.00   0.07  74.30
sdd               0.00     0.00 10234.00    0.00 40936.00     0.00     8.00     1.09    0.11    0.11    0.00   0.07  75.70
sde               0.00     0.00 10481.00    0.00 41924.00     0.00     8.00     1.13    0.11    0.11    0.00   0.07  74.40
sdf               0.00     0.00 10441.00    0.00 41764.00     0.00     8.00     1.14    0.11    0.11    0.00   0.07  76.30
sdg               0.00     0.00    0.00    0.00     0.00     0.00     0.00     0.00    0.00    0.00    0.00   0.00   0.00
sdh               0.00     0.00    0.00    0.00     0.00     0.00     0.00     0.00    0.00    0.00    0.00   0.00   0.00
md0               0.00     0.00 63201.00    0.00 252804.00     0.00     8.00     0.00    0.00    0.00    0.00   0.00   0.00

avg-cpu:  %user   %nice %system %iowait  %steal   %idle
           0.51    0.00   14.43   65.57    0.00   19.49

Device:         rrqm/s   wrqm/s     r/s     w/s    rkB/s    wkB/s avgrq-sz avgqu-sz   await r_await w_await  svctm  %util
sda               0.00     0.00 10424.00    0.00 41696.00     0.00     8.00     1.12    0.11    0.11    0.00   0.07  76.90
sdb               0.00     0.00 10491.00    0.00 41964.00     0.00     8.00     1.14    0.11    0.11    0.00   0.07  76.40
sdc               0.00     0.00 10753.00    0.00 43012.00     0.00     8.00     1.27    0.12    0.12    0.00   0.08  82.70
sdd               0.00     0.00 10546.00    0.00 42188.00     0.00     8.00     1.23    0.12    0.12    0.00   0.08  80.30
sde               0.00     0.00 10770.00    0.00 43080.00     0.00     8.00     1.25    0.12    0.12    0.00   0.08  81.70
sdf               0.00     0.00 10635.00    0.00 42540.00     0.00     8.00     1.22    0.11    0.11    0.00   0.08  80.80
sdg               0.00     0.00    0.00    0.00     0.00     0.00     0.00     0.00    0.00    0.00    0.00   0.00   0.00
sdh               0.00     0.00    0.00    0.00     0.00     0.00     0.00     0.00    0.00    0.00    0.00   0.00   0.00
md0               0.00     0.00 63616.00    0.00 254464.00     0.00     8.00     0.00    0.00    0.00    0.00   0.00   0.00

avg-cpu:  %user   %nice %system %iowait  %steal   %idle
           0.51    0.00   13.92   65.82    0.00   19.75

Device:         rrqm/s   wrqm/s     r/s     w/s    rkB/s    wkB/s avgrq-sz avgqu-sz   await r_await w_await  svctm  %util
sda               0.00     0.00 10585.00    0.00 42340.00     0.00     8.00     1.04    0.10    0.10    0.00   0.07  70.30
sdb               0.00     0.00 10646.00    0.00 42584.00     0.00     8.00     1.02    0.10    0.10    0.00   0.06  68.60
sdc               0.00     0.00 10470.00    0.00 41880.00     0.00     8.00     1.15    0.11    0.11    0.00   0.07  74.00
sdd               0.00     0.00 10569.00    0.00 42272.00     0.00     8.00     1.16    0.11    0.11    0.00   0.07  76.40
sde               0.00     0.00 10494.00    0.00 41976.00     0.00     8.00     1.12    0.11    0.11    0.00   0.07  75.30
sdf               0.00     0.00 10531.00    0.00 42124.00     0.00     8.00     1.18    0.11    0.11    0.00   0.07  77.40
sdg               0.00     0.00    0.00    0.00     0.00     0.00     0.00     0.00    0.00    0.00    0.00   0.00   0.00
sdh               0.00     0.00    0.00    0.00     0.00     0.00     0.00     0.00    0.00    0.00    0.00   0.00   0.00
md0               0.00     0.00 63295.00    0.00 253180.00     0.00     8.00     0.00    0.00    0.00    0.00   0.00   0.00

avg-cpu:  %user   %nice %system %iowait  %steal   %idle
           0.76    0.25   14.18   65.06    0.00   19.75

Device:         rrqm/s   wrqm/s     r/s     w/s    rkB/s    wkB/s avgrq-sz avgqu-sz   await r_await w_await  svctm  %util
sda               0.00     0.00 10783.00    0.00 43132.00     0.00     8.00     1.05    0.10    0.10    0.00   0.07  71.00
sdb               0.00     0.00 10420.00    0.00 41680.00     0.00     8.00     1.00    0.10    0.10    0.00   0.07  68.80
sdc               0.00     0.00 10582.00    0.00 42328.00     0.00     8.00     1.13    0.11    0.11    0.00   0.07  75.20
sdd               0.00     0.00 10373.00    0.00 41492.00     0.00     8.00     1.13    0.11    0.11    0.00   0.07  77.20
sde               0.00     0.00 10619.00    0.00 42476.00     0.00     8.00     1.18    0.11    0.11    0.00   0.07  78.50
sdf               0.00     0.00 10429.00    0.00 41716.00     0.00     8.00     1.15    0.11    0.11    0.00   0.07  77.00
sdg               0.00     0.00    4.00    0.00    16.00     0.00     8.00     0.00    0.00    0.00    0.00   0.00   0.00
sdh               0.00     0.00    0.00    0.00     0.00     0.00     0.00     0.00    0.00    0.00    0.00   0.00   0.00
md0               0.00     0.00 63210.00    0.00 252840.00     0.00     8.00     0.00    0.00    0.00    0.00   0.00   0.00

avg-cpu:  %user   %nice %system %iowait  %steal   %idle
           0.51    0.00   13.27   65.56    0.00   20.66

Device:         rrqm/s   wrqm/s     r/s     w/s    rkB/s    wkB/s avgrq-sz avgqu-sz   await r_await w_await  svctm  %util
sda               0.00     0.00 10487.00    0.00 41948.00     0.00     8.00     1.11    0.11    0.11    0.00   0.07  76.10
sdb               0.00     0.00 10391.00    0.00 41564.00     0.00     8.00     1.12    0.11    0.11    0.00   0.07  74.50
sdc               0.00     0.00 10467.00    0.00 41868.00     0.00     8.00     1.20    0.11    0.11    0.00   0.07  78.20
sdd               0.00     0.00 10422.00    0.00 41688.00     0.00     8.00     1.20    0.12    0.12    0.00   0.08  79.40
sde               0.00     0.00 10481.00    0.00 41924.00     0.00     8.00     1.20    0.11    0.11    0.00   0.07  78.60
sdf               0.00     0.00 10604.00    0.00 42416.00     0.00     8.00     1.20    0.11    0.11    0.00   0.07  78.20
sdg               0.00     0.00    0.00    0.00     0.00     0.00     0.00     0.00    0.00    0.00    0.00   0.00   0.00
sdh               0.00     0.00    0.00    0.00     0.00     0.00     0.00     0.00    0.00    0.00    0.00   0.00   0.00
md0               0.00     0.00 62850.00    0.00 251400.00     0.00     8.00     0.00    0.00    0.00    0.00   0.00   0.00

avg-cpu:  %user   %nice %system %iowait  %steal   %idle
           0.51    0.00   13.71   65.74    0.00   20.05

Device:         rrqm/s   wrqm/s     r/s     w/s    rkB/s    wkB/s avgrq-sz avgqu-sz   await r_await w_await  svctm  %util
sda               0.00     0.00 10453.00    0.00 41812.00     0.00     8.00     1.08    0.10    0.10    0.00   0.07  72.80
sdb               0.00     0.00 10260.00    0.00 41040.00     0.00     8.00     1.05    0.10    0.10    0.00   0.07  71.20
sdc               0.00     0.00 10638.00    0.00 42552.00     0.00     8.00     1.19    0.11    0.11    0.00   0.07  76.00
sdd               0.00     0.00 10470.00    0.00 41880.00     0.00     8.00     1.18    0.11    0.11    0.00   0.07  78.40
sde               0.00     0.00 10623.00    0.00 42492.00     0.00     8.00     1.20    0.11    0.11    0.00   0.07  78.40
sdf               0.00     0.00 10369.00    0.00 41476.00     0.00     8.00     1.16    0.11    0.11    0.00   0.08  78.20
sdg               0.00     0.00    0.00    0.00     0.00     0.00     0.00     0.00    0.00    0.00    0.00   0.00   0.00
sdh               0.00     0.00    0.00    0.00     0.00     0.00     0.00     0.00    0.00    0.00    0.00   0.00   0.00
md0               0.00     0.00 62810.00    0.00 251240.00     0.00     8.00     0.00    0.00    0.00    0.00   0.00   0.00

avg-cpu:  %user   %nice %system %iowait  %steal   %idle
           0.50    0.00   14.61   65.24    0.00   19.65

Device:         rrqm/s   wrqm/s     r/s     w/s    rkB/s    wkB/s avgrq-sz avgqu-sz   await r_await w_await  svctm  %util
sda               0.00     0.00 10543.00    0.00 42172.00     0.00     8.00     1.08    0.10    0.10    0.00   0.07  74.10
sdb               0.00     0.00 10506.00    0.00 42024.00     0.00     8.00     1.10    0.11    0.11    0.00   0.07  73.10
sdc               0.00     0.00 10404.00    0.00 41616.00     0.00     8.00     1.15    0.11    0.11    0.00   0.07  76.40
sdd               0.00     0.00 10457.00    0.00 41828.00     0.00     8.00     1.20    0.11    0.11    0.00   0.08  79.90
sde               0.00     0.00 10888.00    0.00 43552.00     0.00     8.00     1.24    0.11    0.11    0.00   0.07  80.40
sdf               0.00     0.00 10333.00    0.00 41332.00     0.00     8.00     1.17    0.11    0.11    0.00   0.08  78.20
sdg               0.00     0.00    0.00    0.00     0.00     0.00     0.00     0.00    0.00    0.00    0.00   0.00   0.00
sdh               0.00     0.00    0.00    0.00     0.00     0.00     0.00     0.00    0.00    0.00    0.00   0.00   0.00
md0               0.00     0.00 63136.00    0.00 252544.00     0.00     8.00     0.00    0.00    0.00    0.00   0.00   0.00

avg-cpu:  %user   %nice %system %iowait  %steal   %idle
           0.76    0.00   14.61   65.99    0.00   18.64

Device:         rrqm/s   wrqm/s     r/s     w/s    rkB/s    wkB/s avgrq-sz avgqu-sz   await r_await w_await  svctm  %util
sda               0.00     0.00 10292.00    0.00 41168.00     0.00     8.00     1.04    0.10    0.10    0.00   0.07  72.10
sdb               0.00     0.00 10267.00    0.00 41068.00     0.00     8.00     1.03    0.10    0.10    0.00   0.07  68.70
sdc               0.00     0.00 10789.00    0.00 43156.00     0.00     8.00     1.19    0.11    0.11    0.00   0.07  76.70
sdd               0.00     0.00 10293.00    0.00 41172.00     0.00     8.00     1.15    0.11    0.11    0.00   0.08  77.50
sde               0.00     0.00 10673.00    0.00 42692.00     0.00     8.00     1.21    0.11    0.11    0.00   0.07  77.60
sdf               0.00     0.00 10671.00    0.00 42684.00     0.00     8.00     1.20    0.11    0.11    0.00   0.07  79.20
sdg               0.00    99.00    0.00 1357.00     0.00  7008.00    10.33     7.95    5.86    0.00    5.86   0.04   6.10
sdh               0.00     0.00    0.00    0.00     0.00     0.00     0.00     0.00    0.00    0.00    0.00   0.00   0.00
md0               0.00     0.00 62979.00    0.00 251916.00     0.00     8.00     0.00    0.00    0.00    0.00   0.00   0.00

