Linux 4.17.2 (bench) 	08/04/2018 	_x86_64_	(4 CPU)

avg-cpu:  %user   %nice %system %iowait  %steal   %idle
          10.25    0.02    4.33    2.84    0.00   82.57

Device:         rrqm/s   wrqm/s     r/s     w/s    rkB/s    wkB/s avgrq-sz avgqu-sz   await r_await w_await  svctm  %util
sda              58.13     4.13 1762.77   99.68 21437.51  3050.02    26.30     1.05    0.56    0.26    5.92   0.06  11.18
sdb              57.92     4.09 1762.79   99.81 21427.17  3046.77    26.28     1.05    0.56    0.26    5.85   0.06  11.06
sdc              95.27     4.15 1723.36   99.37 21419.53  3049.17    26.85     1.47    0.81    0.44    7.12   0.08  14.55
sdd              88.90     4.11 1728.91   99.44 21404.68  3045.47    26.75     1.47    0.81    0.43    7.33   0.08  14.65
sde              90.85     4.16 1733.89   99.53 21462.99  3049.60    26.74     1.50    0.82    0.44    7.44   0.08  14.67
sdf              88.05     4.13 1735.96   99.48 21444.74  3046.55    26.69     1.54    0.84    0.43    7.90   0.08  14.70
sdg               0.00     3.15   27.17   73.11   326.91   391.54    14.33     0.44    4.38    0.20    5.93   0.08   0.79
sdh               0.00     0.12    0.02    0.23     2.15     4.92    56.82     0.00    1.15    0.65    1.19   0.21   0.01
md0               0.00     0.00 10934.59  467.01 146866.83 20876.85    29.42     0.00    0.00    0.00    0.00   0.00   0.00

avg-cpu:  %user   %nice %system %iowait  %steal   %idle
           0.10    0.01    1.57    8.42    0.00   89.90

Device:         rrqm/s   wrqm/s     r/s     w/s    rkB/s    wkB/s avgrq-sz avgqu-sz   await r_await w_await  svctm  %util
sda               0.00     0.00 1526.05    0.00  6104.20     0.00     8.00     0.15    0.10    0.10    0.00   0.10  15.11
sdb               0.00     0.00 1529.00    0.00  6116.00     0.00     8.00     0.15    0.10    0.10    0.00   0.10  15.14
sdc               0.00     0.00 1519.00    0.00  6076.00     0.00     8.00     0.16    0.11    0.11    0.00   0.11  15.97
sdd               0.00     0.00 1511.20    0.00  6044.80     0.00     8.00     0.16    0.11    0.11    0.00   0.11  16.25
sde               0.00     0.00 1515.70    0.00  6062.80     0.00     8.00     0.16    0.11    0.11    0.00   0.11  16.16
sdf               0.00     0.00 1495.00    0.00  5980.00     0.00     8.00     0.16    0.11    0.11    0.00   0.11  15.89
sdg               0.00     0.15    3.45    1.65    44.00    16.80    23.84     0.00    0.40    0.20    0.82   0.14   0.07
sdh               0.00     0.00    0.00    0.00     0.00     0.00     0.00     0.00    0.00    0.00    0.00   0.00   0.00
md0               0.00     0.00 9095.90    0.00 36383.60     0.00     8.00     0.00    0.00    0.00    0.00   0.00   0.00

