Linux 4.17.2 (bench) 	08/04/2018 	_x86_64_	(4 CPU)

avg-cpu:  %user   %nice %system %iowait  %steal   %idle
          10.25    0.02    4.33    2.86    0.00   82.55

Device:         rrqm/s   wrqm/s     r/s     w/s    rkB/s    wkB/s avgrq-sz avgqu-sz   await r_await w_await  svctm  %util
sda              58.84     4.12 1767.00   99.58 21445.71  3047.12    26.24     1.05    0.56    0.26    5.92   0.06  11.20
sdb              58.63     4.08 1767.02   99.71 21435.37  3043.88    26.23     1.05    0.56    0.26    5.85   0.06  11.08
sdc              95.94     4.14 1727.63   99.28 21427.74  3046.28    26.79     1.47    0.80    0.44    7.12   0.08  14.57
sdd              89.58     4.11 1733.17   99.35 21412.94  3042.58    26.69     1.48    0.81    0.43    7.33   0.08  14.67
sde              91.53     4.15 1738.14   99.44 21471.12  3046.71    26.68     1.50    0.81    0.44    7.44   0.08  14.69
sdf              88.72     4.13 1740.22   99.39 21452.91  3043.66    26.63     1.54    0.84    0.43    7.90   0.08  14.72
sdg               0.00     3.15   27.18   73.10   326.94   391.50    14.33     0.44    4.37    0.20    5.93   0.08   0.79
sdh               0.00     0.12    0.02    0.23     2.15     4.92    56.82     0.00    1.15    0.65    1.19   0.21   0.01
md0               0.00     0.00 10964.19  466.57 146902.01 20857.05    29.35     0.00    0.00    0.00    0.00   0.00   0.00

avg-cpu:  %user   %nice %system %iowait  %steal   %idle
           7.99    0.03   37.55    8.28    0.00   46.15

Device:         rrqm/s   wrqm/s     r/s     w/s    rkB/s    wkB/s avgrq-sz avgqu-sz   await r_await w_await  svctm  %util
sda               0.00     0.00 2423.40    0.00 14458.40     0.00    11.93     0.59    0.24    0.24    0.00   0.06  13.85
sdb               0.10     0.00 2414.20    0.00 14479.40     0.00    12.00     0.61    0.25    0.25    0.00   0.06  13.61
sdc               0.15     0.00 2401.20    0.00 14494.20     0.00    12.07     0.83    0.35    0.35    0.00   0.07  15.89
sdd               0.20     0.00 2392.60    0.00 14462.40     0.00    12.09     0.85    0.36    0.36    0.00   0.07  15.79
sde               0.25     0.00 2417.25    0.00 14402.40     0.00    11.92     0.86    0.36    0.36    0.00   0.07  15.72
sdf               0.10     0.00 2395.80    0.00 14429.60     0.00    12.05     0.83    0.35    0.35    0.00   0.07  15.74
sdg               0.00     3.65   68.20   73.05   283.20   379.80     9.39     0.42    2.98    0.12    5.66   0.08   1.09
sdh               0.00     0.00    0.00    0.00     0.00     0.00     0.00     0.00    0.00    0.00    0.00   0.00   0.00
md0               0.00     0.00 14445.30    0.00 87174.40     0.00    12.07     0.00    0.00    0.00    0.00   0.00   0.00

