Linux 4.17.2 (bench) 	08/04/2018 	_x86_64_	(4 CPU)

avg-cpu:  %user   %nice %system %iowait  %steal   %idle
          10.25    0.02    4.31    2.82    0.00   82.60

Device:         rrqm/s   wrqm/s     r/s     w/s    rkB/s    wkB/s avgrq-sz avgqu-sz   await r_await w_await  svctm  %util
sda              57.62     4.13 1758.38   99.84 21438.41  3055.16    26.36     1.05    0.57    0.26    5.92   0.06  11.17
sdb              57.41     4.09 1758.40   99.98 21428.05  3051.91    26.35     1.05    0.56    0.26    5.85   0.06  11.04
sdc              94.82     4.15 1718.91   99.54 21420.39  3054.31    26.92     1.47    0.81    0.44    7.12   0.08  14.54
sdd              88.44     4.12 1724.47   99.61 21405.56  3050.60    26.81     1.48    0.81    0.43    7.33   0.08  14.63
sde              90.39     4.16 1729.47   99.70 21463.97  3054.74    26.81     1.50    0.82    0.44    7.44   0.08  14.65
sdf              87.59     4.14 1731.55   99.65 21445.72  3051.69    26.76     1.54    0.84    0.43    7.90   0.08  14.69
sdg               0.00     3.15   27.14   73.13   326.86   391.61    14.33     0.44    4.38    0.20    5.93   0.08   0.79
sdh               0.00     0.12    0.02    0.23     2.15     4.93    56.82     0.00    1.15    0.65    1.19   0.21   0.01
md0               0.00     0.00 10905.23  467.80 146896.46 20912.05    29.51     0.00    0.00    0.00    0.00   0.00   0.00

avg-cpu:  %user   %nice %system %iowait  %steal   %idle
           2.28    0.00   27.16    0.76    0.00   69.80

Device:         rrqm/s   wrqm/s     r/s     w/s    rkB/s    wkB/s avgrq-sz avgqu-sz   await r_await w_await  svctm  %util
sda           18305.00     0.00 14633.00    0.00 133356.00     0.00    18.23     9.09    0.62    0.62    0.00   0.03  46.00
sdb           18848.00     0.00 14626.00    0.00 135292.00     0.00    18.50     9.53    0.65    0.65    0.00   0.03  47.60
sdc           19519.00     0.00 13904.00    0.00 134924.00     0.00    19.41    11.87    0.85    0.85    0.00   0.05  66.70
sdd           19299.00     0.00 14277.00    0.00 135868.00     0.00    19.03    12.18    0.85    0.85    0.00   0.05  67.40
sde           19353.00     0.00 13869.00    0.00 134656.00     0.00    19.42    11.63    0.84    0.84    0.00   0.05  65.30
sdf           19367.00     0.00 13952.00    0.00 135288.00     0.00    19.39    11.55    0.83    0.83    0.00   0.05  65.70
sdg               0.00    17.00   18.00   67.00   288.00  1268.00    36.61     0.16    1.93    0.17    2.40   0.09   0.80
sdh               0.00     0.00    0.00    0.00     0.00     0.00     0.00     0.00    0.00    0.00    0.00   0.00   0.00
md0               0.00     0.00 202375.00    0.00 809500.00     0.00     8.00     0.00    0.00    0.00    0.00   0.00   0.00

avg-cpu:  %user   %nice %system %iowait  %steal   %idle
           3.54    0.00   33.92    0.25    0.00   62.28

Device:         rrqm/s   wrqm/s     r/s     w/s    rkB/s    wkB/s avgrq-sz avgqu-sz   await r_await w_await  svctm  %util
sda            9780.00     0.00 18607.00    0.00 114272.00     0.00    12.28     9.39    0.50    0.50    0.00   0.03  47.20
sdb            9309.00     0.00 18935.00    0.00 113928.00     0.00    12.03     9.96    0.53    0.53    0.00   0.03  48.10
sdc            9443.00     0.00 18220.00    0.00 111696.00     0.00    12.26    10.95    0.60    0.60    0.00   0.03  60.60
sdd            9607.00     0.00 18283.00    0.00 112344.00     0.00    12.29    11.10    0.61    0.61    0.00   0.03  60.40
sde            9557.00     0.00 18248.00    0.00 111840.00     0.00    12.26    11.08    0.61    0.61    0.00   0.03  59.70
sdf            9397.00     0.00 18212.00    0.00 111248.00     0.00    12.22    11.07    0.61    0.61    0.00   0.03  60.40
sdg               0.00     0.00    0.00    0.00     0.00     0.00     0.00     0.00    0.00    0.00    0.00   0.00   0.00
sdh               0.00     0.00    0.00    0.00     0.00     0.00     0.00     0.00    0.00    0.00    0.00   0.00   0.00
md0               0.00     0.00 168444.00    0.00 673776.00     0.00     8.00     0.00    0.00    0.00    0.00   0.00   0.00

avg-cpu:  %user   %nice %system %iowait  %steal   %idle
           5.22    0.00   34.58    0.25    0.00   59.95

Device:         rrqm/s   wrqm/s     r/s     w/s    rkB/s    wkB/s avgrq-sz avgqu-sz   await r_await w_await  svctm  %util
sda            1562.00     0.00 15889.00    0.00 69908.00     0.00     8.80     4.81    0.30    0.30    0.00   0.02  36.80
sdb            1290.00     0.00 15935.00    0.00 68952.00     0.00     8.65     4.92    0.31    0.31    0.00   0.02  34.40
sdc            1446.00     0.00 15917.00    0.00 69488.00     0.00     8.73     6.10    0.38    0.38    0.00   0.03  43.80
sdd            1607.00     0.00 15796.00    0.00 69700.00     0.00     8.83     6.19    0.39    0.39    0.00   0.03  44.80
sde            1401.00     0.00 15956.00    0.00 69504.00     0.00     8.71     5.97    0.37    0.37    0.00   0.03  43.50
sdf            1548.00     0.00 16019.00    0.00 70352.00     0.00     8.78     6.16    0.38    0.38    0.00   0.03  44.20
sdg               0.00     0.00    0.00    0.00     0.00     0.00     0.00     0.00    0.00    0.00    0.00   0.00   0.00
sdh               0.00     0.00    0.00    0.00     0.00     0.00     0.00     0.00    0.00    0.00    0.00   0.00   0.00
md0               0.00     0.00 104496.00    0.00 417984.00     0.00     8.00     0.00    0.00    0.00    0.00   0.00   0.00

avg-cpu:  %user   %nice %system %iowait  %steal   %idle
           7.50    0.00   29.00    0.00    0.00   63.50

Device:         rrqm/s   wrqm/s     r/s     w/s    rkB/s    wkB/s avgrq-sz avgqu-sz   await r_await w_await  svctm  %util
sda              39.00     0.00 6415.00    0.00 25816.00     0.00     8.05     0.96    0.15    0.15    0.00   0.02  15.30
sdb              11.00     0.00 6181.00    0.00 24772.00     0.00     8.02     0.87    0.14    0.14    0.00   0.03  16.80
sdc              36.00     0.00 6564.00    0.00 26412.00     0.00     8.05     1.19    0.18    0.18    0.00   0.03  19.60
sdd              11.00     0.00 6376.00    0.00 25548.00     0.00     8.01     1.17    0.18    0.18    0.00   0.03  19.90
sde              33.00     0.00 6602.00    0.00 26544.00     0.00     8.04     1.32    0.20    0.20    0.00   0.03  20.80
sdf               8.00     0.00 6526.00    0.00 26136.00     0.00     8.01     1.31    0.20    0.20    0.00   0.03  20.50
sdg               0.00     0.00    0.00    0.00     0.00     0.00     0.00     0.00    0.00    0.00    0.00   0.00   0.00
sdh               0.00     0.00    0.00    0.00     0.00     0.00     0.00     0.00    0.00    0.00    0.00   0.00   0.00
md0               0.00     0.00 38787.00    0.00 155148.00     0.00     8.00     0.00    0.00    0.00    0.00   0.00   0.00

avg-cpu:  %user   %nice %system %iowait  %steal   %idle
           7.82    0.24   27.63    0.49    0.00   63.81

Device:         rrqm/s   wrqm/s     r/s     w/s    rkB/s    wkB/s avgrq-sz avgqu-sz   await r_await w_await  svctm  %util
sda               0.00     0.00 1272.00    0.00  5088.00     0.00     8.00     0.23    0.18    0.18    0.00   0.06   8.00
sdb               0.00     0.00 1374.00    0.00  5496.00     0.00     8.00     0.18    0.13    0.13    0.00   0.05   6.90
sdc               0.00     0.00 1460.00    0.00  5840.00     0.00     8.00     0.28    0.19    0.19    0.00   0.07  10.20
sdd               0.00     0.00 1157.00    0.00  4628.00     0.00     8.00     0.21    0.18    0.18    0.00   0.07   8.30
sde               0.00     0.00 1343.00    0.00  5372.00     0.00     8.00     0.22    0.16    0.16    0.00   0.06   7.80
sdf               0.00     0.00 1232.00    0.00  4928.00     0.00     8.00     0.20    0.16    0.16    0.00   0.06   7.30
sdg               0.00     0.00   23.00  929.00   140.00  4884.00    10.55     5.01    5.27    0.43    5.39   0.05   4.50
sdh               0.00     0.00    0.00    0.00     0.00     0.00     0.00     0.00    0.00    0.00    0.00   0.00   0.00
md0               0.00     0.00 7838.00    0.00 31352.00     0.00     8.00     0.00    0.00    0.00    0.00   0.00   0.00

