Linux 4.17.2 (bench) 	08/04/2018 	_x86_64_	(4 CPU)

avg-cpu:  %user   %nice %system %iowait  %steal   %idle
          10.25    0.02    4.21    2.79    0.00   82.74

Device:         rrqm/s   wrqm/s     r/s     w/s    rkB/s    wkB/s avgrq-sz avgqu-sz   await r_await w_await  svctm  %util
sda              56.61     4.17 1749.76  100.71 21481.73  3081.58    26.55     1.05    0.57    0.26    5.92   0.06  11.14
sdb              56.39     4.13 1749.79  100.84 21471.27  3078.31    26.53     1.05    0.57    0.26    5.85   0.06  11.01
sdc              94.10     4.19 1709.98  100.40 21463.54  3080.73    27.12     1.47    0.81    0.44    7.12   0.08  14.52
sdd              87.67     4.16 1715.59  100.47 21448.64  3076.99    27.01     1.48    0.82    0.43    7.33   0.08  14.62
sde              89.65     4.20 1720.66  100.56 21507.74  3081.16    27.00     1.50    0.82    0.44    7.44   0.08  14.64
sdf              86.82     4.17 1722.75  100.51 21489.31  3078.08    26.95     1.55    0.85    0.44    7.90   0.08  14.67
sdg               0.00     3.16   26.98   73.23   326.65   391.98    14.34     0.44    4.39    0.20    5.93   0.08   0.79
sdh               0.00     0.13    0.02    0.23     2.17     4.97    56.82     0.00    1.15    0.65    1.19   0.21   0.01
md0               0.00     0.00 10847.47  471.85 147247.55 21092.93    29.74     0.00    0.00    0.00    0.00   0.00   0.00

avg-cpu:  %user   %nice %system %iowait  %steal   %idle
           0.96    0.01    2.90    2.07    0.00   94.06

Device:         rrqm/s   wrqm/s     r/s     w/s    rkB/s    wkB/s avgrq-sz avgqu-sz   await r_await w_await  svctm  %util
sda               0.00     0.00 1439.45    0.00  5757.80     0.00     8.00     0.14    0.10    0.10    0.00   0.10  13.93
sdb               0.00     0.00 1442.15    0.00  5768.60     0.00     8.00     0.14    0.10    0.10    0.00   0.10  14.41
sdc               0.00     0.00 1451.15    0.00  5804.60     0.00     8.00     0.15    0.10    0.10    0.00   0.10  15.16
sdd               0.00     0.00 1440.60    0.00  5762.40     0.00     8.00     0.15    0.11    0.11    0.00   0.11  15.30
sde               0.00     0.00 1435.60    0.00  5742.40     0.00     8.00     0.15    0.11    0.11    0.00   0.11  15.13
sdf               0.00     0.00 1440.25    0.00  5761.00     0.00     8.00     0.15    0.10    0.10    0.00   0.10  14.83
sdg               0.00     3.00    2.95  187.10    31.80   903.20     9.84     1.12    5.90    0.20    5.99   0.05   0.86
sdh               0.00     0.00    0.00    0.00     0.00     0.00     0.00     0.00    0.00    0.00    0.00   0.00   0.00
md0               0.00     0.00 8649.30    0.00 34597.20     0.00     8.00     0.00    0.00    0.00    0.00   0.00   0.00

