Linux 4.17.2 (bench) 	08/04/2018 	_x86_64_	(4 CPU)

avg-cpu:  %user   %nice %system %iowait  %steal   %idle
          10.25    0.02    4.21    2.79    0.00   82.74

Device:         rrqm/s   wrqm/s     r/s     w/s    rkB/s    wkB/s avgrq-sz avgqu-sz   await r_await w_await  svctm  %util
sda              56.60     4.17 1749.70  100.70 21480.95  3081.35    26.55     1.05    0.57    0.26    5.92   0.06  11.14
sdb              56.39     4.13 1749.73  100.83 21470.49  3078.07    26.53     1.05    0.57    0.26    5.85   0.06  11.01
sdc              94.10     4.19 1709.92  100.39 21462.76  3080.49    27.11     1.47    0.81    0.44    7.12   0.08  14.52
sdd              87.67     4.16 1715.54  100.46 21447.86  3076.75    27.01     1.48    0.82    0.43    7.33   0.08  14.62
sde              89.65     4.20 1720.60  100.56 21506.96  3080.92    27.00     1.50    0.82    0.44    7.44   0.08  14.64
sdf              86.81     4.17 1722.69  100.50 21488.52  3077.84    26.95     1.55    0.85    0.44    7.90   0.08  14.67
sdg               0.00     3.16   26.98   73.23   326.65   391.98    14.34     0.44    4.39    0.20    5.93   0.08   0.79
sdh               0.00     0.13    0.02    0.23     2.17     4.97    56.82     0.00    1.15    0.65    1.19   0.21   0.01
md0               0.00     0.00 10847.09  471.81 147242.16 21091.30    29.74     0.00    0.00    0.00    0.00   0.00   0.00

avg-cpu:  %user   %nice %system %iowait  %steal   %idle
           0.76    0.00    3.55   11.42    0.00   84.26

Device:         rrqm/s   wrqm/s     r/s     w/s    rkB/s    wkB/s avgrq-sz avgqu-sz   await r_await w_await  svctm  %util
sda              80.00     0.00  537.00    0.00 74916.00     0.00   279.02     0.32    0.60    0.60    0.00   0.46  24.80
sdb              73.00     0.00  566.00    0.00 75764.00     0.00   267.72     0.34    0.60    0.60    0.00   0.45  25.60
sdc              90.00     0.00  534.00    0.00 79512.00     0.00   297.80     0.49    0.93    0.93    0.00   0.72  38.50
sdd              79.00     0.00  524.00    0.00 75896.00     0.00   289.68     0.49    0.94    0.94    0.00   0.73  38.00
sde              76.00     0.00  572.00    0.00 74600.00     0.00   260.84     0.50    0.88    0.88    0.00   0.68  38.80
sdf              79.00     0.00  558.00    0.00 76936.00     0.00   275.76     0.50    0.90    0.90    0.00   0.68  38.10
sdg               0.00     0.00    0.00    0.00     0.00     0.00     0.00     0.00    0.00    0.00    0.00   0.00   0.00
sdh               0.00     0.00    0.00    0.00     0.00     0.00     0.00     0.00    0.00    0.00    0.00   0.00   0.00
md0               0.00     0.00 3771.00    0.00 626340.00     0.00   332.19     0.00    0.00    0.00    0.00   0.00   0.00

avg-cpu:  %user   %nice %system %iowait  %steal   %idle
           0.75    0.00    4.02    7.04    0.00   88.19

Device:         rrqm/s   wrqm/s     r/s     w/s    rkB/s    wkB/s avgrq-sz avgqu-sz   await r_await w_await  svctm  %util
sda              84.00     0.00  537.00    0.00 77744.00     0.00   289.55     0.34    0.64    0.64    0.00   0.49  26.50
sdb              90.00     0.00  554.00    0.00 79672.00     0.00   287.62     0.36    0.66    0.66    0.00   0.48  26.80
sdc              83.00     0.00  520.00    0.00 77460.00     0.00   297.92     0.54    1.04    1.04    0.00   0.75  39.00
sdd              86.00     0.00  522.00    0.00 75612.00     0.00   289.70     0.52    0.99    0.99    0.00   0.71  36.90
sde              84.00     0.00  490.00    0.00 75580.00     0.00   308.49     0.52    1.06    1.06    0.00   0.76  37.00
sdf              89.00     0.00  527.00    0.00 76972.00     0.00   292.11     0.53    1.01    1.01    0.00   0.74  39.00
sdg               0.00     0.00    0.00    0.00     0.00     0.00     0.00     0.00    0.00    0.00    0.00   0.00   0.00
sdh               0.00     0.00    0.00    0.00     0.00     0.00     0.00     0.00    0.00    0.00    0.00   0.00   0.00
md0               0.00     0.00 3665.00    0.00 641632.00     0.00   350.14     0.00    0.00    0.00    0.00   0.00   0.00

