Linux 4.17.2 (bench) 	08/04/2018 	_x86_64_	(4 CPU)

avg-cpu:  %user   %nice %system %iowait  %steal   %idle
          10.25    0.02    4.20    2.77    0.00   82.77

Device:         rrqm/s   wrqm/s     r/s     w/s    rkB/s    wkB/s avgrq-sz avgqu-sz   await r_await w_await  svctm  %util
sda              55.64     4.17 1742.77  100.82 21465.50  3084.97    26.63     1.05    0.57    0.26    5.92   0.06  11.11
sdb              55.43     4.13 1742.79  100.95 21455.02  3081.69    26.62     1.05    0.57    0.26    5.85   0.06  10.99
sdc              93.18     4.19 1702.94  100.51 21447.27  3084.11    27.20     1.47    0.82    0.44    7.12   0.08  14.49
sdd              86.74     4.16 1708.56  100.58 21432.36  3080.37    27.10     1.48    0.82    0.43    7.33   0.08  14.59
sde              88.72     4.21 1713.64  100.68 21491.56  3084.55    27.09     1.50    0.83    0.44    7.44   0.08  14.61
sdf              85.89     4.18 1715.73  100.62 21473.12  3081.47    27.04     1.54    0.85    0.44    7.90   0.08  14.64
sdg               0.00     3.16   26.95   73.25   326.56   392.01    14.34     0.44    4.39    0.20    5.93   0.08   0.79
sdh               0.00     0.13    0.02    0.23     2.17     4.98    56.82     0.00    1.15    0.65    1.19   0.21   0.01
md0               0.00     0.00 10799.74  472.37 147170.37 21116.13    29.86     0.00    0.00    0.00    0.00   0.00   0.00

avg-cpu:  %user   %nice %system %iowait  %steal   %idle
           0.25    0.00    2.54    1.27    0.00   95.94

Device:         rrqm/s   wrqm/s     r/s     w/s    rkB/s    wkB/s avgrq-sz avgqu-sz   await r_await w_await  svctm  %util
sda               0.00     0.00 2145.00    0.00  8580.00     0.00     8.00     0.15    0.07    0.07    0.00   0.07  15.40
sdb               0.00     0.00 2250.00    0.00  9000.00     0.00     8.00     0.15    0.06    0.06    0.00   0.06  14.60
sdc               0.00     0.00 2205.00    0.00  8820.00     0.00     8.00     0.15    0.07    0.07    0.00   0.07  15.30
sdd               0.00     0.00 2316.00    0.00  9264.00     0.00     8.00     0.16    0.07    0.07    0.00   0.07  16.20
sde               0.00     0.00 2226.00    0.00  8904.00     0.00     8.00     0.16    0.07    0.07    0.00   0.07  15.60
sdf               0.00     0.00 2121.00    0.00  8484.00     0.00     8.00     0.16    0.08    0.08    0.00   0.08  16.40
sdg               0.00     0.00    2.00    1.00    44.00    12.00    37.33     0.00    0.00    0.00    0.00   0.00   0.00
sdh               0.00     0.00    0.00    0.00     0.00     0.00     0.00     0.00    0.00    0.00    0.00   0.00   0.00
md0               0.00     0.00 13265.00    0.00 53060.00     0.00     8.00     0.00    0.00    0.00    0.00   0.00   0.00

avg-cpu:  %user   %nice %system %iowait  %steal   %idle
           0.00    0.00    2.30    1.02    0.00   96.68

Device:         rrqm/s   wrqm/s     r/s     w/s    rkB/s    wkB/s avgrq-sz avgqu-sz   await r_await w_await  svctm  %util
sda               0.00     0.00 2244.00    0.00  8976.00     0.00     8.00     0.15    0.07    0.07    0.00   0.07  15.40
sdb               0.00     0.00 2246.00    0.00  8984.00     0.00     8.00     0.15    0.07    0.07    0.00   0.07  15.50
sdc               0.00     0.00 2097.00    0.00  8388.00     0.00     8.00     0.14    0.07    0.07    0.00   0.07  14.50
sdd               0.00     0.00 2284.00    0.00  9136.00     0.00     8.00     0.15    0.07    0.07    0.00   0.07  15.50
sde               0.00     0.00 2201.00    0.00  8804.00     0.00     8.00     0.16    0.07    0.07    0.00   0.07  16.10
sdf               0.00     0.00 2426.00    0.00  9704.00     0.00     8.00     0.16    0.07    0.07    0.00   0.07  16.00
sdg               0.00     0.00    0.00    0.00     0.00     0.00     0.00     0.00    0.00    0.00    0.00   0.00   0.00
sdh               0.00     0.00    0.00    0.00     0.00     0.00     0.00     0.00    0.00    0.00    0.00   0.00   0.00
md0               0.00     0.00 13498.00    0.00 53992.00     0.00     8.00     0.00    0.00    0.00    0.00   0.00   0.00

avg-cpu:  %user   %nice %system %iowait  %steal   %idle
           0.00    0.00    2.80   10.43    0.00   86.77

Device:         rrqm/s   wrqm/s     r/s     w/s    rkB/s    wkB/s avgrq-sz avgqu-sz   await r_await w_await  svctm  %util
sda               0.00     0.00 2158.00    0.00  8632.00     0.00     8.00     0.15    0.07    0.07    0.00   0.07  15.50
sdb               0.00     0.00 2137.00    0.00  8548.00     0.00     8.00     0.15    0.07    0.07    0.00   0.07  15.00
sdc               0.00     0.00 2321.00    0.00  9284.00     0.00     8.00     0.16    0.07    0.07    0.00   0.07  15.60
sdd               0.00     0.00 2253.00    0.00  9012.00     0.00     8.00     0.16    0.07    0.07    0.00   0.07  16.20
sde               0.00     0.00 2100.00    0.00  8400.00     0.00     8.00     0.15    0.07    0.07    0.00   0.07  14.80
sdf               0.00     0.00 2206.00    0.00  8824.00     0.00     8.00     0.15    0.07    0.07    0.00   0.07  15.20
sdg               0.00     0.00    0.00    0.00     0.00     0.00     0.00     0.00    0.00    0.00    0.00   0.00   0.00
sdh               0.00     0.00    0.00    0.00     0.00     0.00     0.00     0.00    0.00    0.00    0.00   0.00   0.00
md0               0.00     0.00 13176.00    0.00 52704.00     0.00     8.00     0.00    0.00    0.00    0.00   0.00   0.00

avg-cpu:  %user   %nice %system %iowait  %steal   %idle
           0.25    0.00    3.28   19.95    0.00   76.52

Device:         rrqm/s   wrqm/s     r/s     w/s    rkB/s    wkB/s avgrq-sz avgqu-sz   await r_await w_await  svctm  %util
sda               0.00     0.00 2175.00    0.00  8700.00     0.00     8.00     0.14    0.07    0.07    0.00   0.07  14.50
sdb               0.00     0.00 2184.00    0.00  8736.00     0.00     8.00     0.14    0.07    0.07    0.00   0.07  14.50
sdc               0.00     0.00 2295.00    0.00  9180.00     0.00     8.00     0.16    0.07    0.07    0.00   0.07  16.40
sdd               0.00     0.00 2121.00    0.00  8484.00     0.00     8.00     0.15    0.07    0.07    0.00   0.07  15.40
sde               0.00     0.00 2249.00    0.00  8996.00     0.00     8.00     0.15    0.07    0.07    0.00   0.07  15.30
sdf               0.00     0.00 2030.00    0.00  8120.00     0.00     8.00     0.15    0.07    0.07    0.00   0.07  14.60
sdg               0.00     0.00    0.00    0.00     0.00     0.00     0.00     0.00    0.00    0.00    0.00   0.00   0.00
sdh               0.00     0.00    0.00    0.00     0.00     0.00     0.00     0.00    0.00    0.00    0.00   0.00   0.00
md0               0.00     0.00 13053.00    0.00 52212.00     0.00     8.00     0.00    0.00    0.00    0.00   0.00   0.00

avg-cpu:  %user   %nice %system %iowait  %steal   %idle
           0.00    0.00    2.06    1.80    0.00   96.13

Device:         rrqm/s   wrqm/s     r/s     w/s    rkB/s    wkB/s avgrq-sz avgqu-sz   await r_await w_await  svctm  %util
sda               0.00     0.00 2139.00    0.00  8556.00     0.00     8.00     0.15    0.07    0.07    0.00   0.07  14.70
sdb               0.00     0.00 2218.00    0.00  8872.00     0.00     8.00     0.14    0.06    0.06    0.00   0.06  14.40
sdc               0.00     0.00 2160.00    0.00  8640.00     0.00     8.00     0.14    0.06    0.06    0.00   0.06  13.70
sdd               0.00     0.00 2274.00    0.00  9096.00     0.00     8.00     0.16    0.07    0.07    0.00   0.07  16.00
sde               0.00     0.00 2114.00    0.00  8456.00     0.00     8.00     0.16    0.07    0.07    0.00   0.07  15.70
sdf               0.00     0.00 2249.00    0.00  8996.00     0.00     8.00     0.16    0.07    0.07    0.00   0.07  16.40
sdg               0.00     0.00   38.00    0.00   464.00     0.00    24.42     0.01    0.16    0.16    0.00   0.13   0.50
sdh               0.00     0.00    0.00    0.00     0.00     0.00     0.00     0.00    0.00    0.00    0.00   0.00   0.00
md0               0.00     0.00 13153.00    0.00 52612.00     0.00     8.00     0.00    0.00    0.00    0.00   0.00   0.00

avg-cpu:  %user   %nice %system %iowait  %steal   %idle
           0.25    0.00    3.28   20.20    0.00   76.26

Device:         rrqm/s   wrqm/s     r/s     w/s    rkB/s    wkB/s avgrq-sz avgqu-sz   await r_await w_await  svctm  %util
sda               0.00     0.00 2305.00    0.00  9220.00     0.00     8.00     0.15    0.06    0.06    0.00   0.06  14.70
sdb               0.00     0.00 2293.00    0.00  9172.00     0.00     8.00     0.14    0.06    0.06    0.00   0.06  13.90
sdc               0.00     0.00 2163.00    0.00  8652.00     0.00     8.00     0.14    0.07    0.07    0.00   0.07  14.30
sdd               0.00     0.00 2160.00    0.00  8640.00     0.00     8.00     0.15    0.07    0.07    0.00   0.07  15.30
sde               0.00     0.00 1957.00    0.00  7828.00     0.00     8.00     0.15    0.07    0.07    0.00   0.07  14.60
sdf               0.00     0.00 2053.00    0.00  8212.00     0.00     8.00     0.15    0.08    0.08    0.00   0.08  15.50
sdg               0.00     0.00    0.00    0.00     0.00     0.00     0.00     0.00    0.00    0.00    0.00   0.00   0.00
sdh               0.00     0.00    0.00    0.00     0.00     0.00     0.00     0.00    0.00    0.00    0.00   0.00   0.00
md0               0.00     0.00 12932.00    0.00 51728.00     0.00     8.00     0.00    0.00    0.00    0.00   0.00   0.00

avg-cpu:  %user   %nice %system %iowait  %steal   %idle
           0.00    0.00    2.30   10.49    0.00   87.21

Device:         rrqm/s   wrqm/s     r/s     w/s    rkB/s    wkB/s avgrq-sz avgqu-sz   await r_await w_await  svctm  %util
sda               0.00     0.00 1973.00    0.00  7892.00     0.00     8.00     0.14    0.07    0.07    0.00   0.07  13.70
sdb               0.00     0.00 2129.00    0.00  8516.00     0.00     8.00     0.14    0.07    0.07    0.00   0.07  14.10
sdc               0.00     0.00 2084.00    0.00  8336.00     0.00     8.00     0.15    0.07    0.07    0.00   0.07  15.50
sdd               0.00     0.00 2430.00    0.00  9720.00     0.00     8.00     0.17    0.07    0.07    0.00   0.07  16.50
sde               0.00     0.00 2034.00    0.00  8136.00     0.00     8.00     0.15    0.07    0.07    0.00   0.07  14.80
sdf               0.00     0.00 2223.00    0.00  8892.00     0.00     8.00     0.17    0.08    0.08    0.00   0.08  17.00
sdg               0.00     0.00    0.00    0.00     0.00     0.00     0.00     0.00    0.00    0.00    0.00   0.00   0.00
sdh               0.00     0.00    0.00    0.00     0.00     0.00     0.00     0.00    0.00    0.00    0.00   0.00   0.00
md0               0.00     0.00 12872.00    0.00 51488.00     0.00     8.00     0.00    0.00    0.00    0.00   0.00   0.00

avg-cpu:  %user   %nice %system %iowait  %steal   %idle
           0.00    0.00    1.80    1.03    0.00   97.17

Device:         rrqm/s   wrqm/s     r/s     w/s    rkB/s    wkB/s avgrq-sz avgqu-sz   await r_await w_await  svctm  %util
sda               0.00     0.00 1994.00    0.00  7976.00     0.00     8.00     0.14    0.07    0.07    0.00   0.07  13.90
sdb               0.00     0.00 2068.00    0.00  8272.00     0.00     8.00     0.14    0.07    0.07    0.00   0.07  13.70
sdc               0.00     0.00 2276.00    0.00  9104.00     0.00     8.00     0.16    0.07    0.07    0.00   0.07  15.60
sdd               0.00     0.00 2256.00    0.00  9024.00     0.00     8.00     0.16    0.07    0.07    0.00   0.07  16.30
sde               0.00     0.00 2172.00    0.00  8688.00     0.00     8.00     0.16    0.07    0.07    0.00   0.07  16.00
sdf               0.00     0.00 2118.00    0.00  8472.00     0.00     8.00     0.15    0.07    0.07    0.00   0.07  14.60
sdg               0.00     0.00    0.00    0.00     0.00     0.00     0.00     0.00    0.00    0.00    0.00   0.00   0.00
sdh               0.00     0.00    0.00    0.00     0.00     0.00     0.00     0.00    0.00    0.00    0.00   0.00   0.00
md0               0.00     0.00 12884.00    0.00 51536.00     0.00     8.00     0.00    0.00    0.00    0.00   0.00   0.00

avg-cpu:  %user   %nice %system %iowait  %steal   %idle
           0.25    0.00    3.28   19.95    0.00   76.52

Device:         rrqm/s   wrqm/s     r/s     w/s    rkB/s    wkB/s avgrq-sz avgqu-sz   await r_await w_await  svctm  %util
sda               0.00     0.00 2119.00    0.00  8476.00     0.00     8.00     0.15    0.07    0.07    0.00   0.07  15.10
sdb               0.00     0.00 2200.00    0.00  8800.00     0.00     8.00     0.15    0.07    0.07    0.00   0.07  14.70
sdc               0.00     0.00 2192.00    0.00  8768.00     0.00     8.00     0.15    0.07    0.07    0.00   0.07  14.90
sdd               0.00     0.00 2092.00    0.00  8368.00     0.00     8.00     0.15    0.07    0.07    0.00   0.07  14.70
sde               0.00     0.00 2221.00    0.00  8884.00     0.00     8.00     0.16    0.07    0.07    0.00   0.07  16.20
sdf               0.00     0.00 2201.00    0.00  8804.00     0.00     8.00     0.15    0.07    0.07    0.00   0.07  15.00
sdg               0.00     0.00    0.00    0.00     0.00     0.00     0.00     0.00    0.00    0.00    0.00   0.00   0.00
sdh               0.00     0.00    0.00    0.00     0.00     0.00     0.00     0.00    0.00    0.00    0.00   0.00   0.00
md0               0.00     0.00 13026.00    0.00 52104.00     0.00     8.00     0.00    0.00    0.00    0.00   0.00   0.00

avg-cpu:  %user   %nice %system %iowait  %steal   %idle
           0.00    0.00    2.06    9.51    0.00   88.43

Device:         rrqm/s   wrqm/s     r/s     w/s    rkB/s    wkB/s avgrq-sz avgqu-sz   await r_await w_await  svctm  %util
sda               0.00     0.00 2161.00    0.00  8644.00     0.00     8.00     0.14    0.06    0.06    0.00   0.06  14.00
sdb               0.00     0.00 2323.00    0.00  9292.00     0.00     8.00     0.15    0.06    0.06    0.00   0.06  14.80
sdc               0.00     0.00 2247.00    0.00  8988.00     0.00     8.00     0.16    0.07    0.07    0.00   0.07  15.70
sdd               0.00     0.00 2085.00    0.00  8340.00     0.00     8.00     0.15    0.07    0.07    0.00   0.07  14.90
sde               0.00     0.00 2261.00    0.00  9044.00     0.00     8.00     0.14    0.06    0.06    0.00   0.06  14.50
sdf               0.00     0.00 2130.00    0.00  8520.00     0.00     8.00     0.15    0.07    0.07    0.00   0.07  15.40
sdg               0.00     0.00    0.00    0.00     0.00     0.00     0.00     0.00    0.00    0.00    0.00   0.00   0.00
sdh               0.00     0.00    0.00    0.00     0.00     0.00     0.00     0.00    0.00    0.00    0.00   0.00   0.00
md0               0.00     0.00 13207.00    0.00 52828.00     0.00     8.00     0.00    0.00    0.00    0.00   0.00   0.00

avg-cpu:  %user   %nice %system %iowait  %steal   %idle
           0.26    0.00    2.30    5.36    0.00   92.09

Device:         rrqm/s   wrqm/s     r/s     w/s    rkB/s    wkB/s avgrq-sz avgqu-sz   await r_await w_await  svctm  %util
sda               0.00     0.00 2199.00    0.00  8796.00     0.00     8.00     0.15    0.07    0.07    0.00   0.07  14.60
sdb               0.00     0.00 2060.00    0.00  8240.00     0.00     8.00     0.14    0.07    0.07    0.00   0.07  14.30
sdc               0.00     0.00 2062.00    0.00  8248.00     0.00     8.00     0.15    0.07    0.07    0.00   0.07  14.80
sdd               0.00     0.00 2240.00    0.00  8960.00     0.00     8.00     0.16    0.07    0.07    0.00   0.07  16.10
sde               0.00     0.00 2096.00    0.00  8384.00     0.00     8.00     0.15    0.07    0.07    0.00   0.07  15.20
sdf               0.00     0.00 2279.00    0.00  9116.00     0.00     8.00     0.16    0.07    0.07    0.00   0.07  15.80
sdg               0.00     0.00    0.00    0.00     0.00     0.00     0.00     0.00    0.00    0.00    0.00   0.00   0.00
sdh               0.00     0.00    0.00    0.00     0.00     0.00     0.00     0.00    0.00    0.00    0.00   0.00   0.00
md0               0.00     0.00 12935.00    0.00 51740.00     0.00     8.00     0.00    0.00    0.00    0.00   0.00   0.00

avg-cpu:  %user   %nice %system %iowait  %steal   %idle
           0.26    0.00    1.54    1.03    0.00   97.17

Device:         rrqm/s   wrqm/s     r/s     w/s    rkB/s    wkB/s avgrq-sz avgqu-sz   await r_await w_await  svctm  %util
sda               0.00     0.00 2318.00    0.00  9272.00     0.00     8.00     0.16    0.07    0.07    0.00   0.07  15.70
sdb               0.00     0.00 2177.00    0.00  8708.00     0.00     8.00     0.14    0.06    0.06    0.00   0.06  14.10
sdc               0.00     0.00 2305.00    0.00  9220.00     0.00     8.00     0.17    0.07    0.07    0.00   0.07  16.70
sdd               0.00     0.00 2080.00    0.00  8320.00     0.00     8.00     0.15    0.07    0.07    0.00   0.07  14.90
sde               0.00     0.00 2177.00    0.00  8708.00     0.00     8.00     0.16    0.07    0.07    0.00   0.07  15.60
sdf               0.00     0.00 2090.00    0.00  8360.00     0.00     8.00     0.15    0.07    0.07    0.00   0.07  14.70
sdg               0.00     0.00    0.00    0.00     0.00     0.00     0.00     0.00    0.00    0.00    0.00   0.00   0.00
sdh               0.00     0.00    0.00    0.00     0.00     0.00     0.00     0.00    0.00    0.00    0.00   0.00   0.00
md0               0.00     0.00 13147.00    0.00 52588.00     0.00     8.00     0.00    0.00    0.00    0.00   0.00   0.00

avg-cpu:  %user   %nice %system %iowait  %steal   %idle
           0.00    0.00    3.04   18.23    0.00   78.73

Device:         rrqm/s   wrqm/s     r/s     w/s    rkB/s    wkB/s avgrq-sz avgqu-sz   await r_await w_await  svctm  %util
sda               0.00     0.00 2244.00    0.00  8976.00     0.00     8.00     0.14    0.06    0.06    0.00   0.06  14.40
sdb               0.00     0.00 2333.00    0.00  9332.00     0.00     8.00     0.15    0.07    0.07    0.00   0.07  15.40
sdc               0.00     0.00 2061.00    0.00  8244.00     0.00     8.00     0.14    0.07    0.07    0.00   0.07  13.90
sdd               0.00     0.00 2186.00    0.00  8744.00     0.00     8.00     0.15    0.07    0.07    0.00   0.07  15.50
sde               0.00     0.00 2127.00    0.00  8508.00     0.00     8.00     0.15    0.07    0.07    0.00   0.07  15.50
sdf               0.00     0.00 2497.00    0.00  9988.00     0.00     8.00     0.16    0.06    0.06    0.00   0.06  16.10
sdg               0.00     0.00    0.00    0.00     0.00     0.00     0.00     0.00    0.00    0.00    0.00   0.00   0.00
sdh               0.00     0.00    0.00    0.00     0.00     0.00     0.00     0.00    0.00    0.00    0.00   0.00   0.00
md0               0.00     0.00 13448.00    0.00 53792.00     0.00     8.00     0.00    0.00    0.00    0.00   0.00   0.00

avg-cpu:  %user   %nice %system %iowait  %steal   %idle
           0.25    0.00    2.80   14.76    0.00   82.19

Device:         rrqm/s   wrqm/s     r/s     w/s    rkB/s    wkB/s avgrq-sz avgqu-sz   await r_await w_await  svctm  %util
sda               0.00     0.00 2249.00    0.00  8996.00     0.00     8.00     0.14    0.06    0.06    0.00   0.06  14.00
sdb               0.00     0.00 2121.00    0.00  8484.00     0.00     8.00     0.15    0.07    0.07    0.00   0.07  14.90
sdc               0.00     0.00 2093.00    0.00  8372.00     0.00     8.00     0.15    0.07    0.07    0.00   0.07  14.80
sdd               0.00     0.00 2190.00    0.00  8760.00     0.00     8.00     0.15    0.07    0.07    0.00   0.07  15.50
sde               0.00     0.00 2308.00    0.00  9232.00     0.00     8.00     0.16    0.07    0.07    0.00   0.07  16.10
sdf               0.00     0.00 2251.00    0.00  9004.00     0.00     8.00     0.16    0.07    0.07    0.00   0.07  15.70
sdg               0.00     0.00    0.00    0.00     0.00     0.00     0.00     0.00    0.00    0.00    0.00   0.00   0.00
sdh               0.00     0.00    0.00    0.00     0.00     0.00     0.00     0.00    0.00    0.00    0.00   0.00   0.00
md0               0.00     0.00 13214.00    0.00 52856.00     0.00     8.00     0.00    0.00    0.00    0.00   0.00   0.00

avg-cpu:  %user   %nice %system %iowait  %steal   %idle
           0.00    0.26    2.30    1.79    0.00   95.66

Device:         rrqm/s   wrqm/s     r/s     w/s    rkB/s    wkB/s avgrq-sz avgqu-sz   await r_await w_await  svctm  %util
sda               0.00     0.00 2101.00    0.00  8404.00     0.00     8.00     0.14    0.07    0.07    0.00   0.07  14.40
sdb               0.00     0.00 1984.00    0.00  7936.00     0.00     8.00     0.14    0.07    0.07    0.00   0.07  13.90
sdc               0.00     0.00 2123.00    0.00  8492.00     0.00     8.00     0.15    0.07    0.07    0.00   0.07  15.40
sdd               0.00     0.00 2099.00    0.00  8396.00     0.00     8.00     0.15    0.07    0.07    0.00   0.07  15.40
sde               0.00     0.00 2318.00    0.00  9272.00     0.00     8.00     0.17    0.07    0.07    0.00   0.07  17.00
sdf               0.00     0.00 2316.00    0.00  9264.00     0.00     8.00     0.16    0.07    0.07    0.00   0.07  16.30
sdg               0.00     0.00  301.00    3.00  1204.00    28.00     8.11     0.04    0.12    0.12    0.67   0.12   3.70
sdh               0.00     0.00    0.00    0.00     0.00     0.00     0.00     0.00    0.00    0.00    0.00   0.00   0.00
md0               0.00     0.00 12942.00    0.00 51768.00     0.00     8.00     0.00    0.00    0.00    0.00   0.00   0.00

avg-cpu:  %user   %nice %system %iowait  %steal   %idle
           0.26    0.00    2.31    2.57    0.00   94.86

Device:         rrqm/s   wrqm/s     r/s     w/s    rkB/s    wkB/s avgrq-sz avgqu-sz   await r_await w_await  svctm  %util
sda               0.00     0.00 2238.00    0.00  8952.00     0.00     8.00     0.15    0.07    0.07    0.00   0.07  14.70
sdb               0.00     0.00 2291.00    0.00  9164.00     0.00     8.00     0.15    0.06    0.06    0.00   0.06  14.70
sdc               0.00     0.00 2367.00    0.00  9468.00     0.00     8.00     0.16    0.07    0.07    0.00   0.07  15.70
sdd               0.00     0.00 2383.00    0.00  9532.00     0.00     8.00     0.17    0.07    0.07    0.00   0.07  16.80
sde               0.00     0.00 2081.00    0.00  8324.00     0.00     8.00     0.15    0.07    0.07    0.00   0.07  14.70
sdf               0.00     0.00 2175.00    0.00  8700.00     0.00     8.00     0.14    0.07    0.07    0.00   0.07  14.40
sdg               0.00     0.00 1033.00    0.00  4132.00     0.00     8.00     0.12    0.12    0.12    0.00   0.12  12.40
sdh               0.00     0.00    0.00    0.00     0.00     0.00     0.00     0.00    0.00    0.00    0.00   0.00   0.00
md0               0.00     0.00 13532.00    0.00 54128.00     0.00     8.00     0.00    0.00    0.00    0.00   0.00   0.00

avg-cpu:  %user   %nice %system %iowait  %steal   %idle
           0.00    0.00    2.55   16.33    0.00   81.12

Device:         rrqm/s   wrqm/s     r/s     w/s    rkB/s    wkB/s avgrq-sz avgqu-sz   await r_await w_await  svctm  %util
sda               0.00     0.00 1975.00    0.00  7900.00     0.00     8.00     0.14    0.07    0.07    0.00   0.07  14.30
sdb               0.00     0.00 2124.00    0.00  8496.00     0.00     8.00     0.14    0.07    0.07    0.00   0.07  14.20
sdc               0.00     0.00 2159.00    0.00  8636.00     0.00     8.00     0.15    0.07    0.07    0.00   0.07  14.70
sdd               0.00     0.00 2122.00    0.00  8488.00     0.00     8.00     0.15    0.07    0.07    0.00   0.07  15.30
sde               0.00     0.00 2380.00    0.00  9520.00     0.00     8.00     0.17    0.07    0.07    0.00   0.07  17.40
sdf               0.00     0.00 2289.00    0.00  9156.00     0.00     8.00     0.16    0.07    0.07    0.00   0.07  15.90
sdg               0.00     0.00    0.00    0.00     0.00     0.00     0.00     0.00    0.00    0.00    0.00   0.00   0.00
sdh               0.00     0.00    0.00    0.00     0.00     0.00     0.00     0.00    0.00    0.00    0.00   0.00   0.00
md0               0.00     0.00 13049.00    0.00 52196.00     0.00     8.00     0.00    0.00    0.00    0.00   0.00   0.00

avg-cpu:  %user   %nice %system %iowait  %steal   %idle
           0.26    0.00    2.30    4.08    0.00   93.37

Device:         rrqm/s   wrqm/s     r/s     w/s    rkB/s    wkB/s avgrq-sz avgqu-sz   await r_await w_await  svctm  %util
sda               0.00     0.00 2335.00    0.00  9340.00     0.00     8.00     0.16    0.07    0.07    0.00   0.07  15.60
sdb               0.00     0.00 2174.00    0.00  8696.00     0.00     8.00     0.14    0.07    0.07    0.00   0.07  14.20
sdc               0.00     0.00 2006.00    0.00  8024.00     0.00     8.00     0.15    0.08    0.08    0.00   0.08  15.20
sdd               0.00     0.00 2317.00    0.00  9268.00     0.00     8.00     0.16    0.07    0.07    0.00   0.07  15.60
sde               0.00     0.00 2051.00    0.00  8204.00     0.00     8.00     0.14    0.07    0.07    0.00   0.07  13.90
sdf               0.00     0.00 2364.00    0.00  9456.00     0.00     8.00     0.16    0.07    0.07    0.00   0.07  15.70
sdg               0.00     0.00    0.00    0.00     0.00     0.00     0.00     0.00    0.00    0.00    0.00   0.00   0.00
sdh               0.00     0.00    0.00    0.00     0.00     0.00     0.00     0.00    0.00    0.00    0.00   0.00   0.00
md0               0.00     0.00 13247.00    0.00 52988.00     0.00     8.00     0.00    0.00    0.00    0.00   0.00   0.00

avg-cpu:  %user   %nice %system %iowait  %steal   %idle
           0.26    0.00    2.30    1.02    0.00   96.43

Device:         rrqm/s   wrqm/s     r/s     w/s    rkB/s    wkB/s avgrq-sz avgqu-sz   await r_await w_await  svctm  %util
sda               0.00     0.00 2337.00    0.00  9348.00     0.00     8.00     0.16    0.07    0.07    0.00   0.07  15.60
sdb               0.00     0.00 2219.00    0.00  8876.00     0.00     8.00     0.13    0.06    0.06    0.00   0.06  13.30
sdc               0.00     0.00 2368.00    0.00  9472.00     0.00     8.00     0.16    0.07    0.07    0.00   0.07  15.90
sdd               0.00     0.00 2262.00    0.00  9048.00     0.00     8.00     0.15    0.07    0.07    0.00   0.07  15.00
sde               0.00     0.00 2023.00    0.00  8092.00     0.00     8.00     0.15    0.07    0.07    0.00   0.07  14.70
sdf               0.00     0.00 2173.00    0.00  8692.00     0.00     8.00     0.14    0.07    0.07    0.00   0.07  14.40
sdg               0.00     0.00    0.00    0.00     0.00     0.00     0.00     0.00    0.00    0.00    0.00   0.00   0.00
sdh               0.00     0.00    0.00    0.00     0.00     0.00     0.00     0.00    0.00    0.00    0.00   0.00   0.00
md0               0.00     0.00 13384.00    0.00 53536.00     0.00     8.00     0.00    0.00    0.00    0.00   0.00   0.00

avg-cpu:  %user   %nice %system %iowait  %steal   %idle
           0.00    0.00    2.32    4.12    0.00   93.56

Device:         rrqm/s   wrqm/s     r/s     w/s    rkB/s    wkB/s avgrq-sz avgqu-sz   await r_await w_await  svctm  %util
sda               0.00     0.00 1970.00    0.00  7880.00     0.00     8.00     0.14    0.07    0.07    0.00   0.07  14.40
sdb               0.00     0.00 2213.00    0.00  8852.00     0.00     8.00     0.16    0.07    0.07    0.00   0.07  15.70
sdc               0.00     0.00 2133.00    0.00  8532.00     0.00     8.00     0.15    0.07    0.07    0.00   0.07  15.40
sdd               0.00     0.00 2295.00    0.00  9180.00     0.00     8.00     0.16    0.07    0.07    0.00   0.07  16.30
sde               0.00     0.00 2157.00    0.00  8628.00     0.00     8.00     0.15    0.07    0.07    0.00   0.07  15.20
sdf               0.00     0.00 2082.00    0.00  8328.00     0.00     8.00     0.15    0.07    0.07    0.00   0.07  15.30
sdg               0.00    77.00    0.00 3667.00     0.00 18012.00     9.82    22.85    6.23    0.00    6.23   0.04  16.50
sdh               0.00     0.00    0.00    0.00     0.00     0.00     0.00     0.00    0.00    0.00    0.00   0.00   0.00
md0               0.00     0.00 12848.00    0.00 51392.00     0.00     8.00     0.00    0.00    0.00    0.00   0.00   0.00

