Linux 4.17.2 (bench) 	08/04/2018 	_x86_64_	(4 CPU)

avg-cpu:  %user   %nice %system %iowait  %steal   %idle
          10.25    0.02    4.20    2.78    0.00   82.75

Device:         rrqm/s   wrqm/s     r/s     w/s    rkB/s    wkB/s avgrq-sz avgqu-sz   await r_await w_await  svctm  %util
sda              56.03     4.17 1747.39  100.74 21475.22  3082.75    26.58     1.05    0.57    0.26    5.92   0.06  11.13
sdb              55.82     4.13 1747.41  100.88 21464.75  3079.47    26.56     1.05    0.57    0.26    5.85   0.06  11.00
sdc              93.54     4.19 1707.58  100.44 21457.00  3081.89    27.14     1.47    0.81    0.44    7.12   0.08  14.51
sdd              87.11     4.16 1713.20  100.51 21442.08  3078.15    27.04     1.48    0.82    0.43    7.33   0.08  14.61
sde              89.09     4.20 1718.27  100.60 21501.22  3082.32    27.03     1.50    0.83    0.44    7.44   0.08  14.63
sdf              86.26     4.17 1720.36  100.55 21482.79  3079.24    26.98     1.54    0.85    0.44    7.90   0.08  14.66
sdg               0.00     3.16   26.97   73.24   326.65   392.00    14.34     0.44    4.39    0.20    5.93   0.08   0.79
sdh               0.00     0.13    0.02    0.23     2.17     4.97    56.82     0.00    1.15    0.65    1.19   0.21   0.01
md0               0.00     0.00 10829.74  472.03 147215.31 21100.87    29.79     0.00    0.00    0.00    0.00   0.00   0.00

avg-cpu:  %user   %nice %system %iowait  %steal   %idle
           2.30    0.01   24.85   62.65    0.00   10.19

Device:         rrqm/s   wrqm/s     r/s     w/s    rkB/s    wkB/s avgrq-sz avgqu-sz   await r_await w_await  svctm  %util
sda               0.00     0.00 17900.35    0.00 71601.40     0.00     8.00     2.02    0.11    0.11    0.00   0.05  80.63
sdb               0.00     0.00 18018.50    0.00 72074.00     0.00     8.00     2.00    0.11    0.11    0.00   0.04  80.38
sdc               0.00     0.00 17950.00    0.00 71800.00     0.00     8.00     2.34    0.13    0.13    0.00   0.05  83.12
sdd               0.00     0.00 17992.50    0.00 71970.00     0.00     8.00     2.36    0.13    0.13    0.00   0.05  83.37
sde               0.00     0.00 17988.35    0.00 71953.40     0.00     8.00     2.34    0.13    0.13    0.00   0.05  83.16
sdf               0.00     0.00 17920.40    0.00 71681.60     0.00     8.00     2.35    0.13    0.13    0.00   0.05  83.35
sdg               0.00     0.05    7.85    0.45    63.40     8.80    17.40     0.00    0.17    0.14    0.67   0.12   0.10
sdh               0.00     0.00    0.00    0.00     0.00     0.00     0.00     0.00    0.00    0.00    0.00   0.00   0.00
md0               0.00     0.00 107771.30    0.00 431085.20     0.00     8.00     0.00    0.00    0.00    0.00   0.00   0.00

