Linux 4.17.2 (bench) 	08/04/2018 	_x86_64_	(4 CPU)

avg-cpu:  %user   %nice %system %iowait  %steal   %idle
          10.25    0.02    4.32    2.83    0.00   82.59

Device:         rrqm/s   wrqm/s     r/s     w/s    rkB/s    wkB/s avgrq-sz avgqu-sz   await r_await w_await  svctm  %util
sda              57.72     4.13 1758.46   99.77 21431.65  3052.82    26.35     1.05    0.56    0.26    5.92   0.06  11.17
sdb              57.51     4.09 1758.49   99.90 21421.30  3049.58    26.34     1.05    0.56    0.26    5.85   0.06  11.04
sdc              94.89     4.15 1719.02   99.46 21413.65  3051.97    26.91     1.47    0.81    0.44    7.12   0.08  14.54
sdd              88.52     4.12 1724.57   99.53 21398.82  3048.27    26.80     1.48    0.81    0.43    7.33   0.08  14.63
sde              90.47     4.16 1729.56   99.63 21457.17  3052.40    26.80     1.50    0.82    0.44    7.44   0.08  14.65
sdf              87.66     4.13 1731.64   99.57 21438.93  3049.35    26.75     1.54    0.84    0.43    7.90   0.08  14.69
sdg               0.00     3.15   27.15   73.12   326.88   391.57    14.33     0.44    4.38    0.20    5.93   0.08   0.79
sdh               0.00     0.12    0.02    0.23     2.15     4.93    56.82     0.00    1.15    0.65    1.19   0.21   0.01
md0               0.00     0.00 10906.29  467.44 146848.54 20896.06    29.50     0.00    0.00    0.00    0.00   0.00   0.00

avg-cpu:  %user   %nice %system %iowait  %steal   %idle
           1.11    0.03   10.27   44.41    0.00   44.18

Device:         rrqm/s   wrqm/s     r/s     w/s    rkB/s    wkB/s avgrq-sz avgqu-sz   await r_await w_await  svctm  %util
sda               0.00     0.00 5698.60    0.00 22794.40     0.00     8.00     0.78    0.14    0.14    0.00   0.03  19.32
sdb               0.00     0.00 5650.25    0.00 22601.00     0.00     8.00     0.75    0.13    0.13    0.00   0.03  18.65
sdc               0.00     0.00 5657.85    0.00 22631.40     0.00     8.00     0.85    0.15    0.15    0.00   0.04  20.00
sdd               0.00     0.00 5642.85    0.00 22571.40     0.00     8.00     0.85    0.15    0.15    0.00   0.04  20.30
sde               0.00     0.00 5635.45    0.00 22541.80     0.00     8.00     0.87    0.15    0.15    0.00   0.04  20.13
sdf               0.00     0.00 5634.60    0.00 22538.40     0.00     8.00     0.86    0.15    0.15    0.00   0.04  19.99
sdg               0.00     0.05    9.20    0.25    47.60     2.80    10.67     0.00    0.19    0.15    1.60   0.17   0.16
sdh               0.00     0.00    0.00    0.00     0.00     0.00     0.00     0.00    0.00    0.00    0.00   0.00   0.00
md0               0.00     0.00 33920.00    0.00 135680.00     0.00     8.00     0.00    0.00    0.00    0.00   0.00   0.00

