Linux 4.17.2 (bench) 	08/04/2018 	_x86_64_	(4 CPU)

avg-cpu:  %user   %nice %system %iowait  %steal   %idle
          10.25    0.02    4.28    2.82    0.00   82.64

Device:         rrqm/s   wrqm/s     r/s     w/s    rkB/s    wkB/s avgrq-sz avgqu-sz   await r_await w_await  svctm  %util
sda              57.69     4.14 1758.41  100.07 21457.89  3062.18    26.39     1.05    0.57    0.26    5.92   0.06  11.17
sdb              57.48     4.10 1758.44  100.21 21447.51  3058.92    26.37     1.05    0.57    0.26    5.85   0.06  11.05
sdc              94.97     4.16 1718.86   99.77 21439.83  3061.32    26.94     1.47    0.81    0.44    7.12   0.08  14.55
sdd              88.58     4.13 1724.44   99.84 21424.97  3057.61    26.84     1.48    0.81    0.43    7.33   0.08  14.64
sde              90.53     4.17 1729.44   99.93 21483.54  3061.76    26.83     1.50    0.82    0.44    7.44   0.08  14.66
sdf              87.72     4.15 1731.53   99.88 21465.25  3058.69    26.78     1.54    0.84    0.43    7.90   0.08  14.69
sdg               0.00     3.16   27.10   73.16   326.84   391.72    14.33     0.44    4.38    0.20    5.93   0.08   0.79
sdh               0.00     0.13    0.02    0.23     2.16     4.94    56.82     0.00    1.15    0.65    1.19   0.21   0.01
md0               0.00     0.00 10905.82  468.88 147033.99 20960.09    29.54     0.00    0.00    0.00    0.00   0.00   0.00

avg-cpu:  %user   %nice %system %iowait  %steal   %idle
           1.77    0.00   28.28    2.78    0.00   67.17

Device:         rrqm/s   wrqm/s     r/s     w/s    rkB/s    wkB/s avgrq-sz avgqu-sz   await r_await w_await  svctm  %util
sda               0.00     0.00 18120.00    0.00 72480.00     0.00     8.00     2.51    0.14    0.14    0.00   0.04  65.70
sdb               0.00     0.00 17912.00    0.00 71648.00     0.00     8.00     2.47    0.14    0.14    0.00   0.04  65.90
sdc               0.00     0.00 18007.00    0.00 72024.00     0.00     8.00     2.74    0.15    0.15    0.00   0.04  71.30
sdd               0.00     0.00 18061.00    0.00 72244.00     0.00     8.00     2.71    0.15    0.15    0.00   0.04  69.10
sde               0.00     0.00 17993.00    0.00 71972.00     0.00     8.00     2.71    0.15    0.15    0.00   0.04  72.20
sdf               0.00     0.00 17809.00    0.00 71236.00     0.00     8.00     2.72    0.15    0.15    0.00   0.04  70.90
sdg               0.00     0.00    0.00    0.00     0.00     0.00     0.00     0.00    0.00    0.00    0.00   0.00   0.00
sdh               0.00     0.00    0.00    0.00     0.00     0.00     0.00     0.00    0.00    0.00    0.00   0.00   0.00
md0               0.00     0.00 107867.00    0.00 431468.00     0.00     8.00     0.00    0.00    0.00    0.00   0.00   0.00

avg-cpu:  %user   %nice %system %iowait  %steal   %idle
           2.03    0.00   27.41    2.28    0.00   68.27

Device:         rrqm/s   wrqm/s     r/s     w/s    rkB/s    wkB/s avgrq-sz avgqu-sz   await r_await w_await  svctm  %util
sda               0.00     0.00 15945.00    0.00 63780.00     0.00     8.00     2.20    0.14    0.14    0.00   0.04  67.40
sdb               0.00     0.00 15757.00    0.00 63028.00     0.00     8.00     2.15    0.14    0.14    0.00   0.04  67.80
sdc               0.00     0.00 15885.00    0.00 63540.00     0.00     8.00     2.38    0.15    0.15    0.00   0.05  71.80
sdd               0.00     0.00 15897.00    0.00 63588.00     0.00     8.00     2.37    0.15    0.15    0.00   0.05  72.50
sde               0.00     0.00 15952.00    0.00 63808.00     0.00     8.00     2.42    0.15    0.15    0.00   0.05  71.80
sdf               0.00     0.00 15885.00    0.00 63540.00     0.00     8.00     2.31    0.15    0.15    0.00   0.05  71.80
sdg               0.00     0.00   39.00    0.00   468.00     0.00    24.00     0.01    0.18    0.18    0.00   0.15   0.60
sdh               0.00     0.00    0.00    0.00     0.00     0.00     0.00     0.00    0.00    0.00    0.00   0.00   0.00
md0               0.00     0.00 95310.00    0.00 381240.00     0.00     8.00     0.00    0.00    0.00    0.00   0.00   0.00

avg-cpu:  %user   %nice %system %iowait  %steal   %idle
           2.03    0.00   25.57    2.53    0.00   69.87

Device:         rrqm/s   wrqm/s     r/s     w/s    rkB/s    wkB/s avgrq-sz avgqu-sz   await r_await w_await  svctm  %util
sda               0.00     0.00 13164.00    0.00 52656.00     0.00     8.00     1.65    0.13    0.13    0.00   0.05  62.90
sdb               0.00     0.00 13335.00    0.00 53340.00     0.00     8.00     1.69    0.13    0.13    0.00   0.05  62.60
sdc               0.00     0.00 13412.00    0.00 53648.00     0.00     8.00     1.80    0.13    0.13    0.00   0.05  67.00
sdd               0.00     0.00 13155.00    0.00 52620.00     0.00     8.00     1.80    0.14    0.14    0.00   0.05  66.30
sde               0.00     0.00 13256.00    0.00 53024.00     0.00     8.00     1.79    0.14    0.14    0.00   0.05  67.70
sdf               0.00     0.00 13459.00    0.00 53836.00     0.00     8.00     1.80    0.13    0.13    0.00   0.05  68.70
sdg               0.00     0.00    0.00    0.00     0.00     0.00     0.00     0.00    0.00    0.00    0.00   0.00   0.00
sdh               0.00     0.00    0.00    0.00     0.00     0.00     0.00     0.00    0.00    0.00    0.00   0.00   0.00
md0               0.00     0.00 79786.00    0.00 319144.00     0.00     8.00     0.00    0.00    0.00    0.00   0.00   0.00

avg-cpu:  %user   %nice %system %iowait  %steal   %idle
           2.27    0.00   23.99    2.78    0.00   70.96

Device:         rrqm/s   wrqm/s     r/s     w/s    rkB/s    wkB/s avgrq-sz avgqu-sz   await r_await w_await  svctm  %util
sda               0.00     0.00 10728.00    0.00 42912.00     0.00     8.00     1.27    0.12    0.12    0.00   0.05  57.90
sdb               0.00     0.00 10678.00    0.00 42712.00     0.00     8.00     1.26    0.12    0.12    0.00   0.05  57.80
sdc               0.00     0.00 10925.00    0.00 43700.00     0.00     8.00     1.39    0.13    0.13    0.00   0.06  64.20
sdd               0.00     0.00 10816.00    0.00 43264.00     0.00     8.00     1.42    0.13    0.13    0.00   0.06  63.40
sde               0.00     0.00 10690.00    0.00 42760.00     0.00     8.00     1.32    0.12    0.12    0.00   0.06  62.50
sdf               0.00     0.00 10854.00    0.00 43416.00     0.00     8.00     1.36    0.13    0.13    0.00   0.06  62.80
sdg               0.00     0.00    0.00    0.00     0.00     0.00     0.00     0.00    0.00    0.00    0.00   0.00   0.00
sdh               0.00     0.00    0.00    0.00     0.00     0.00     0.00     0.00    0.00    0.00    0.00   0.00   0.00
md0               0.00     0.00 64685.00    0.00 258740.00     0.00     8.00     0.00    0.00    0.00    0.00   0.00   0.00

avg-cpu:  %user   %nice %system %iowait  %steal   %idle
           2.29    0.00   21.37    3.31    0.00   73.03

Device:         rrqm/s   wrqm/s     r/s     w/s    rkB/s    wkB/s avgrq-sz avgqu-sz   await r_await w_await  svctm  %util
sda               0.00     0.00 8442.00    0.00 33768.00     0.00     8.00     0.94    0.11    0.11    0.00   0.06  51.10
sdb               0.00     0.00 8417.00    0.00 33668.00     0.00     8.00     0.91    0.11    0.11    0.00   0.06  50.40
sdc               0.00     0.00 8486.00    0.00 33944.00     0.00     8.00     1.01    0.12    0.12    0.00   0.07  55.20
sdd               0.00     0.00 8480.00    0.00 33920.00     0.00     8.00     0.92    0.11    0.11    0.00   0.06  54.20
sde               0.00     0.00 8557.00    0.00 34228.00     0.00     8.00     1.05    0.12    0.12    0.00   0.07  56.40
sdf               0.00     0.00 8399.00    0.00 33596.00     0.00     8.00     1.04    0.12    0.12    0.00   0.07  55.00
sdg               0.00     0.00    0.00    0.00     0.00     0.00     0.00     0.00    0.00    0.00    0.00   0.00   0.00
sdh               0.00     0.00    0.00    0.00     0.00     0.00     0.00     0.00    0.00    0.00    0.00   0.00   0.00
md0               0.00     0.00 50774.00    0.00 203096.00     0.00     8.00     0.00    0.00    0.00    0.00   0.00   0.00

avg-cpu:  %user   %nice %system %iowait  %steal   %idle
           2.54    0.00   20.30    3.30    0.00   73.86

Device:         rrqm/s   wrqm/s     r/s     w/s    rkB/s    wkB/s avgrq-sz avgqu-sz   await r_await w_await  svctm  %util
sda               0.00     0.00 6425.00    0.00 25700.00     0.00     8.00     0.70    0.11    0.11    0.00   0.07  46.30
sdb               0.00     0.00 6597.00    0.00 26388.00     0.00     8.00     0.69    0.10    0.10    0.00   0.07  46.50
sdc               0.00     0.00 6359.00    0.00 25436.00     0.00     8.00     0.75    0.12    0.12    0.00   0.08  47.90
sdd               0.00     0.00 6415.00    0.00 25660.00     0.00     8.00     0.76    0.12    0.12    0.00   0.08  48.90
sde               0.00     0.00 6193.00    0.00 24772.00     0.00     8.00     0.74    0.12    0.12    0.00   0.07  44.80
sdf               0.00     0.00 6546.00    0.00 26184.00     0.00     8.00     0.78    0.12    0.12    0.00   0.08  49.10
sdg               0.00     0.00    0.00    0.00     0.00     0.00     0.00     0.00    0.00    0.00    0.00   0.00   0.00
sdh               0.00     0.00    0.00    0.00     0.00     0.00     0.00     0.00    0.00    0.00    0.00   0.00   0.00
md0               0.00     0.00 38538.00    0.00 154152.00     0.00     8.00     0.00    0.00    0.00    0.00   0.00   0.00

avg-cpu:  %user   %nice %system %iowait  %steal   %idle
           2.57    0.00   18.51    3.34    0.00   75.58

Device:         rrqm/s   wrqm/s     r/s     w/s    rkB/s    wkB/s avgrq-sz avgqu-sz   await r_await w_await  svctm  %util
sda               0.00     0.00 4703.00    0.00 18812.00     0.00     8.00     0.48    0.10    0.10    0.00   0.08  35.30
sdb               0.00     0.00 4756.00    0.00 19024.00     0.00     8.00     0.50    0.11    0.11    0.00   0.08  36.20
sdc               0.00     0.00 4651.00    0.00 18604.00     0.00     8.00     0.53    0.11    0.11    0.00   0.08  36.80
sdd               0.00     0.00 4679.00    0.00 18716.00     0.00     8.00     0.52    0.11    0.11    0.00   0.08  39.20
sde               0.00     0.00 4735.00    0.00 18940.00     0.00     8.00     0.57    0.12    0.12    0.00   0.09  42.60
sdf               0.00     0.00 4606.00    0.00 18424.00     0.00     8.00     0.54    0.12    0.12    0.00   0.08  38.70
sdg               0.00     0.00    0.00    0.00     0.00     0.00     0.00     0.00    0.00    0.00    0.00   0.00   0.00
sdh               0.00     0.00    0.00    0.00     0.00     0.00     0.00     0.00    0.00    0.00    0.00   0.00   0.00
md0               0.00     0.00 28125.00    0.00 112500.00     0.00     8.00     0.00    0.00    0.00    0.00   0.00   0.00

avg-cpu:  %user   %nice %system %iowait  %steal   %idle
           2.81    0.00   18.16    3.32    0.00   75.70

Device:         rrqm/s   wrqm/s     r/s     w/s    rkB/s    wkB/s avgrq-sz avgqu-sz   await r_await w_await  svctm  %util
sda               0.00     0.00 3474.00    0.00 13896.00     0.00     8.00     0.36    0.11    0.11    0.00   0.08  29.00
sdb               0.00     0.00 3505.00    0.00 14020.00     0.00     8.00     0.33    0.09    0.09    0.00   0.08  27.20
sdc               0.00     0.00 3292.00    0.00 13168.00     0.00     8.00     0.37    0.11    0.11    0.00   0.09  29.90
sdd               0.00     0.00 3296.00    0.00 13184.00     0.00     8.00     0.38    0.11    0.11    0.00   0.09  31.00
sde               0.00     0.00 3441.00    0.00 13764.00     0.00     8.00     0.39    0.11    0.11    0.00   0.09  31.40
sdf               0.00     0.00 3359.00    0.00 13436.00     0.00     8.00     0.38    0.11    0.11    0.00   0.09  30.20
sdg               0.00     0.00    0.00    0.00     0.00     0.00     0.00     0.00    0.00    0.00    0.00   0.00   0.00
sdh               0.00     0.00    0.00    0.00     0.00     0.00     0.00     0.00    0.00    0.00    0.00   0.00   0.00
md0               0.00     0.00 20366.00    0.00 81464.00     0.00     8.00     0.00    0.00    0.00    0.00   0.00   0.00

avg-cpu:  %user   %nice %system %iowait  %steal   %idle
           3.57    0.00   17.60    3.83    0.00   75.00

Device:         rrqm/s   wrqm/s     r/s     w/s    rkB/s    wkB/s avgrq-sz avgqu-sz   await r_await w_await  svctm  %util
sda               0.00     0.00 2340.00    0.00  9360.00     0.00     8.00     0.22    0.09    0.09    0.00   0.08  19.20
sdb               0.00     0.00 2461.00    0.00  9844.00     0.00     8.00     0.25    0.10    0.10    0.00   0.09  21.60
sdc               0.00     0.00 2433.00    0.00  9732.00     0.00     8.00     0.30    0.12    0.12    0.00   0.10  24.80
sdd               0.00     0.00 2549.00    0.00 10196.00     0.00     8.00     0.26    0.10    0.10    0.00   0.09  22.90
sde               0.00     0.00 2423.00    0.00  9692.00     0.00     8.00     0.27    0.11    0.11    0.00   0.09  22.60
sdf               0.00     0.00 2436.00    0.00  9744.00     0.00     8.00     0.25    0.10    0.10    0.00   0.09  23.10
sdg               0.00     0.00    0.00    0.00     0.00     0.00     0.00     0.00    0.00    0.00    0.00   0.00   0.00
sdh               0.00     0.00    0.00    0.00     0.00     0.00     0.00     0.00    0.00    0.00    0.00   0.00   0.00
md0               0.00     0.00 14639.00    0.00 58556.00     0.00     8.00     0.00    0.00    0.00    0.00   0.00   0.00

avg-cpu:  %user   %nice %system %iowait  %steal   %idle
           3.79    0.00   19.95    3.54    0.00   72.73

Device:         rrqm/s   wrqm/s     r/s     w/s    rkB/s    wkB/s avgrq-sz avgqu-sz   await r_await w_await  svctm  %util
sda               0.00     0.00 1694.00    0.00  6776.00     0.00     8.00     0.18    0.11    0.11    0.00   0.10  16.40
sdb               0.00     0.00 1745.00    0.00  6980.00     0.00     8.00     0.16    0.09    0.09    0.00   0.09  15.00
sdc               0.00     0.00 1730.00    0.00  6920.00     0.00     8.00     0.20    0.12    0.12    0.00   0.11  18.50
sdd               0.00     0.00 1692.00    0.00  6768.00     0.00     8.00     0.19    0.11    0.11    0.00   0.10  17.10
sde               0.00     0.00 1695.00    0.00  6780.00     0.00     8.00     0.19    0.11    0.11    0.00   0.10  17.40
sdf               0.00     0.00 1706.00    0.00  6824.00     0.00     8.00     0.17    0.10    0.10    0.00   0.09  16.10
sdg               0.00     0.00    0.00    0.00     0.00     0.00     0.00     0.00    0.00    0.00    0.00   0.00   0.00
sdh               0.00     0.00    0.00    0.00     0.00     0.00     0.00     0.00    0.00    0.00    0.00   0.00   0.00
md0               0.00     0.00 10263.00    0.00 41052.00     0.00     8.00     0.00    0.00    0.00    0.00   0.00   0.00

avg-cpu:  %user   %nice %system %iowait  %steal   %idle
           4.56    0.00   23.04    2.78    0.00   69.62

Device:         rrqm/s   wrqm/s     r/s     w/s    rkB/s    wkB/s avgrq-sz avgqu-sz   await r_await w_await  svctm  %util
sda               0.00     0.00 1218.00    0.00  4872.00     0.00     8.00     0.12    0.10    0.10    0.00   0.10  11.60
sdb               0.00     0.00 1149.00    0.00  4596.00     0.00     8.00     0.11    0.10    0.10    0.00   0.09  10.40
sdc               0.00     0.00 1127.00    0.00  4508.00     0.00     8.00     0.12    0.11    0.11    0.00   0.10  11.50
sdd               0.00     0.00 1197.00    0.00  4788.00     0.00     8.00     0.11    0.10    0.10    0.00   0.09  11.00
sde               0.00     0.00 1137.00    0.00  4548.00     0.00     8.00     0.13    0.11    0.11    0.00   0.11  12.30
sdf               0.00     0.00 1095.00    0.00  4380.00     0.00     8.00     0.10    0.09    0.09    0.00   0.09   9.40
sdg               0.00     2.00   12.00    3.00    48.00    44.00    12.27     0.00    0.07    0.00    0.33   0.07   0.10
sdh               0.00     0.00    0.00    0.00     0.00     0.00     0.00     0.00    0.00    0.00    0.00   0.00   0.00
md0               0.00     0.00 6922.00    0.00 27688.00     0.00     8.00     0.00    0.00    0.00    0.00   0.00   0.00

avg-cpu:  %user   %nice %system %iowait  %steal   %idle
           5.09    0.25   28.50    2.29    0.00   63.87

Device:         rrqm/s   wrqm/s     r/s     w/s    rkB/s    wkB/s avgrq-sz avgqu-sz   await r_await w_await  svctm  %util
sda               0.00     0.00  658.00    0.00  2632.00     0.00     8.00     0.06    0.09    0.09    0.00   0.09   6.00
sdb               0.00     0.00  639.00    0.00  2556.00     0.00     8.00     0.08    0.13    0.13    0.00   0.12   7.60
sdc               0.00     0.00  650.00    0.00  2600.00     0.00     8.00     0.06    0.10    0.10    0.00   0.10   6.30
sdd               0.00     0.00  707.00    0.00  2828.00     0.00     8.00     0.08    0.12    0.12    0.00   0.11   8.10
sde               0.00     0.00  695.00    0.00  2780.00     0.00     8.00     0.07    0.09    0.09    0.00   0.09   6.50
sdf               0.00     0.00  651.00    0.00  2604.00     0.00     8.00     0.07    0.10    0.10    0.00   0.10   6.60
sdg               0.00     0.00    4.00    0.00    16.00     0.00     8.00     0.00    0.25    0.25    0.00   0.25   0.10
sdh               0.00     0.00    0.00    0.00     0.00     0.00     0.00     0.00    0.00    0.00    0.00   0.00   0.00
md0               0.00     0.00 3999.00    0.00 15996.00     0.00     8.00     0.00    0.00    0.00    0.00   0.00   0.00

avg-cpu:  %user   %nice %system %iowait  %steal   %idle
           7.16    0.00   32.99    1.02    0.00   58.82

Device:         rrqm/s   wrqm/s     r/s     w/s    rkB/s    wkB/s avgrq-sz avgqu-sz   await r_await w_await  svctm  %util
sda               0.00     0.00  317.00    0.00  1268.00     0.00     8.00     0.03    0.09    0.09    0.00   0.09   2.80
sdb               0.00     0.00  300.00    0.00  1200.00     0.00     8.00     0.04    0.13    0.13    0.00   0.13   3.90
sdc               0.00     0.00  295.00    0.00  1180.00     0.00     8.00     0.03    0.09    0.09    0.00   0.09   2.60
sdd               0.00     0.00  304.00    0.00  1216.00     0.00     8.00     0.04    0.12    0.12    0.00   0.12   3.50
sde               0.00     0.00  332.00    0.00  1328.00     0.00     8.00     0.03    0.09    0.09    0.00   0.09   3.00
sdf               0.00     0.00  297.00    0.00  1188.00     0.00     8.00     0.03    0.10    0.10    0.00   0.10   3.00
sdg               0.00     0.00    0.00    0.00     0.00     0.00     0.00     0.00    0.00    0.00    0.00   0.00   0.00
sdh               0.00     0.00    0.00    0.00     0.00     0.00     0.00     0.00    0.00    0.00    0.00   0.00   0.00
md0               0.00     0.00 1845.00    0.00  7380.00     0.00     8.00     0.00    0.00    0.00    0.00   0.00   0.00

avg-cpu:  %user   %nice %system %iowait  %steal   %idle
           7.56    0.00   39.04    0.50    0.00   52.90

Device:         rrqm/s   wrqm/s     r/s     w/s    rkB/s    wkB/s avgrq-sz avgqu-sz   await r_await w_await  svctm  %util
sda               0.00     0.00  126.00    0.00   504.00     0.00     8.00     0.01    0.10    0.10    0.00   0.10   1.20
sdb               0.00     0.00  109.00    0.00   436.00     0.00     8.00     0.01    0.10    0.10    0.00   0.09   1.00
sdc               0.00     0.00  105.00    0.00   420.00     0.00     8.00     0.01    0.07    0.07    0.00   0.07   0.70
sdd               0.00     0.00   91.00    0.00   364.00     0.00     8.00     0.01    0.07    0.07    0.00   0.07   0.60
sde               0.00     0.00  104.00    0.00   416.00     0.00     8.00     0.01    0.12    0.12    0.00   0.12   1.20
sdf               0.00     0.00  120.00    0.00   480.00     0.00     8.00     0.02    0.17    0.17    0.00   0.17   2.00
sdg               0.00     0.00    0.00    0.00     0.00     0.00     0.00     0.00    0.00    0.00    0.00   0.00   0.00
sdh               0.00     0.00    0.00    0.00     0.00     0.00     0.00     0.00    0.00    0.00    0.00   0.00   0.00
md0               0.00     0.00  656.00    0.00  2624.00     0.00     8.00     0.00    0.00    0.00    0.00   0.00   0.00

avg-cpu:  %user   %nice %system %iowait  %steal   %idle
           9.82    0.00   39.04    0.25    0.00   50.88

Device:         rrqm/s   wrqm/s     r/s     w/s    rkB/s    wkB/s avgrq-sz avgqu-sz   await r_await w_await  svctm  %util
sda               0.00     0.00   29.00    0.00   116.00     0.00     8.00     0.00    0.10    0.10    0.00   0.10   0.30
sdb               0.00     0.00   29.00    0.00   116.00     0.00     8.00     0.00    0.03    0.03    0.00   0.03   0.10
sdc               0.00     0.00   23.00    0.00    92.00     0.00     8.00     0.00    0.17    0.17    0.00   0.13   0.30
sdd               0.00     0.00   27.00    0.00   108.00     0.00     8.00     0.00    0.15    0.15    0.00   0.15   0.40
sde               0.00     0.00   31.00    0.00   124.00     0.00     8.00     0.01    0.23    0.23    0.00   0.23   0.70
sdf               0.00     0.00   29.00    0.00   116.00     0.00     8.00     0.00    0.14    0.14    0.00   0.14   0.40
sdg               0.00     0.00    0.00    0.00     0.00     0.00     0.00     0.00    0.00    0.00    0.00   0.00   0.00
sdh               0.00     0.00    0.00    0.00     0.00     0.00     0.00     0.00    0.00    0.00    0.00   0.00   0.00
md0               0.00     0.00  167.00    0.00   668.00     0.00     8.00     0.00    0.00    0.00    0.00   0.00   0.00

