Linux 4.17.2 (bench) 	08/04/2018 	_x86_64_	(4 CPU)

avg-cpu:  %user   %nice %system %iowait  %steal   %idle
          10.25    0.02    4.33    2.85    0.00   82.56

Device:         rrqm/s   wrqm/s     r/s     w/s    rkB/s    wkB/s avgrq-sz avgqu-sz   await r_await w_await  svctm  %util
sda              58.22     4.13 1763.68   99.66 21439.16  3049.51    26.28     1.05    0.56    0.26    5.92   0.06  11.19
sdb              58.01     4.09 1763.71   99.79 21428.82  3046.26    26.27     1.05    0.56    0.26    5.85   0.06  11.06
sdc              95.35     4.14 1724.29   99.36 21421.18  3048.66    26.84     1.47    0.80    0.44    7.12   0.08  14.56
sdd              88.99     4.11 1729.82   99.42 21406.33  3044.96    26.73     1.48    0.81    0.43    7.33   0.08  14.65
sde              90.94     4.16 1734.81   99.52 21464.63  3049.09    26.73     1.50    0.82    0.44    7.44   0.08  14.67
sdf              88.13     4.13 1736.88   99.46 21446.39  3046.04    26.68     1.54    0.84    0.43    7.90   0.08  14.71
sdg               0.00     3.15   27.17   73.11   326.91   391.53    14.33     0.44    4.38    0.20    5.93   0.08   0.79
sdh               0.00     0.12    0.02    0.23     2.15     4.92    56.82     0.00    1.15    0.65    1.19   0.21   0.01
md0               0.00     0.00 10940.62  466.94 146873.67 20873.35    29.41     0.00    0.00    0.00    0.00   0.00   0.00

avg-cpu:  %user   %nice %system %iowait  %steal   %idle
           0.83    0.03   27.70   67.36    0.00    4.08

Device:         rrqm/s   wrqm/s     r/s     w/s    rkB/s    wkB/s avgrq-sz avgqu-sz   await r_await w_await  svctm  %util
sda               0.00     0.00 19953.70    0.00 79814.80     0.00     8.00     2.21    0.11    0.11    0.00   0.04  88.53
sdb               0.00     0.00 19944.90    0.00 79779.60     0.00     8.00     2.21    0.11    0.11    0.00   0.04  88.20
sdc               0.00     0.00 20005.90    0.00 80023.60     0.00     8.00     2.54    0.13    0.13    0.00   0.05  91.09
sdd               0.00     0.00 20010.20    0.00 80040.80     0.00     8.00     2.54    0.13    0.13    0.00   0.05  90.84
sde               0.00     0.00 19937.90    0.00 79751.60     0.00     8.00     2.55    0.13    0.13    0.00   0.05  91.07
sdf               0.00     0.00 19962.35    0.00 79849.40     0.00     8.00     2.56    0.13    0.13    0.00   0.05  91.17
sdg               0.00     0.05    1.70    0.15    10.40     2.40    13.84     0.00    0.35    0.15    2.67   0.32   0.06
sdh               0.00     0.00    0.00    0.00     0.00     0.00     0.00     0.00    0.00    0.00    0.00   0.00   0.00
md0               0.00     0.00 119814.20    0.00 479256.80     0.00     8.00     0.00    0.00    0.00    0.00   0.00   0.00

