Linux 4.17.2 (bench) 	08/04/2018 	_x86_64_	(4 CPU)

avg-cpu:  %user   %nice %system %iowait  %steal   %idle
          10.25    0.02    4.26    2.81    0.00   82.66

Device:         rrqm/s   wrqm/s     r/s     w/s    rkB/s    wkB/s avgrq-sz avgqu-sz   await r_await w_await  svctm  %util
sda              57.01     4.15 1754.09  100.22 21453.73  3066.71    26.45     1.05    0.57    0.26    5.92   0.06  11.15
sdb              56.79     4.11 1754.11  100.36 21443.33  3063.45    26.43     1.05    0.57    0.26    5.85   0.06  11.03
sdc              94.34     4.17 1714.48   99.92 21435.66  3065.86    27.01     1.47    0.81    0.44    7.12   0.08  14.53
sdd              87.94     4.14 1720.06   99.98 21420.77  3062.14    26.90     1.48    0.81    0.43    7.33   0.08  14.62
sde              89.90     4.18 1725.08  100.08 21479.50  3066.29    26.90     1.50    0.82    0.44    7.44   0.08  14.65
sdf              87.08     4.15 1727.17  100.03 21461.18  3063.22    26.84     1.54    0.84    0.43    7.90   0.08  14.68
sdg               0.00     3.16   27.06   73.18   326.75   391.77    14.34     0.44    4.38    0.20    5.93   0.08   0.79
sdh               0.00     0.13    0.02    0.23     2.16     4.95    56.82     0.00    1.15    0.65    1.19   0.21   0.01
md0               0.00     0.00 10875.79  469.57 147027.44 20991.12    29.62     0.00    0.00    0.00    0.00   0.00   0.00

avg-cpu:  %user   %nice %system %iowait  %steal   %idle
           0.25    0.00    1.78    1.27    0.00   96.70

Device:         rrqm/s   wrqm/s     r/s     w/s    rkB/s    wkB/s avgrq-sz avgqu-sz   await r_await w_await  svctm  %util
sda               0.00     0.00 1684.00    0.00  6736.00     0.00     8.00     0.16    0.10    0.10    0.00   0.10  16.00
sdb               0.00     0.00 1365.00    0.00  5460.00     0.00     8.00     0.14    0.10    0.10    0.00   0.10  13.50
sdc               0.00     0.00 1453.00    0.00  5812.00     0.00     8.00     0.14    0.10    0.10    0.00   0.10  14.30
sdd               0.00     0.00 1609.00    0.00  6436.00     0.00     8.00     0.17    0.11    0.11    0.00   0.11  17.40
sde               0.00     0.00 1484.00    0.00  5936.00     0.00     8.00     0.16    0.11    0.11    0.00   0.11  15.90
sdf               0.00     0.00 1501.00    0.00  6004.00     0.00     8.00     0.17    0.11    0.11    0.00   0.11  16.50
sdg               0.00     1.00    0.00    9.00     0.00   152.00    33.78     0.00    0.33    0.00    0.33   0.11   0.10
sdh               0.00     0.00    0.00    0.00     0.00     0.00     0.00     0.00    0.00    0.00    0.00   0.00   0.00
md0               0.00     0.00 9090.00    0.00 36360.00     0.00     8.00     0.00    0.00    0.00    0.00   0.00   0.00

avg-cpu:  %user   %nice %system %iowait  %steal   %idle
           0.26    0.00    1.28    0.77    0.00   97.70

Device:         rrqm/s   wrqm/s     r/s     w/s    rkB/s    wkB/s avgrq-sz avgqu-sz   await r_await w_await  svctm  %util
sda               0.00     0.00 1533.00    0.00  6132.00     0.00     8.00     0.15    0.10    0.10    0.00   0.10  14.90
sdb               0.00     0.00 1515.00    0.00  6060.00     0.00     8.00     0.14    0.09    0.09    0.00   0.09  14.20
sdc               0.00     0.00 1542.00    0.00  6168.00     0.00     8.00     0.16    0.10    0.10    0.00   0.10  16.10
sdd               0.00     0.00 1485.00    0.00  5940.00     0.00     8.00     0.16    0.11    0.11    0.00   0.11  15.60
sde               0.00     0.00 1439.00    0.00  5756.00     0.00     8.00     0.15    0.11    0.11    0.00   0.11  15.20
sdf               0.00     0.00 1530.00    0.00  6120.00     0.00     8.00     0.17    0.11    0.11    0.00   0.11  16.70
sdg               0.00     0.00    0.00    0.00     0.00     0.00     0.00     0.00    0.00    0.00    0.00   0.00   0.00
sdh               0.00     0.00    0.00    0.00     0.00     0.00     0.00     0.00    0.00    0.00    0.00   0.00   0.00
md0               0.00     0.00 9043.00    0.00 36172.00     0.00     8.00     0.00    0.00    0.00    0.00   0.00   0.00

avg-cpu:  %user   %nice %system %iowait  %steal   %idle
           0.00    0.00    1.53    1.53    0.00   96.95

Device:         rrqm/s   wrqm/s     r/s     w/s    rkB/s    wkB/s avgrq-sz avgqu-sz   await r_await w_await  svctm  %util
sda               0.00     0.00 1498.00    0.00  5992.00     0.00     8.00     0.16    0.11    0.11    0.00   0.11  16.30
sdb               0.00     0.00 1398.00    0.00  5592.00     0.00     8.00     0.14    0.10    0.10    0.00   0.10  14.10
sdc               0.00     0.00 1385.00    0.00  5540.00     0.00     8.00     0.15    0.11    0.11    0.00   0.11  15.40
sdd               0.00     0.00 1439.00    0.00  5756.00     0.00     8.00     0.16    0.11    0.11    0.00   0.11  15.70
sde               0.00     0.00 1272.00    0.00  5088.00     0.00     8.00     0.15    0.12    0.12    0.00   0.11  14.60
sdf               0.00     0.00 1474.00    0.00  5896.00     0.00     8.00     0.18    0.12    0.12    0.00   0.12  18.20
sdg               0.00     0.00    0.00    0.00     0.00     0.00     0.00     0.00    0.00    0.00    0.00   0.00   0.00
sdh               0.00     0.00    0.00    0.00     0.00     0.00     0.00     0.00    0.00    0.00    0.00   0.00   0.00
md0               0.00     0.00 8467.00    0.00 33868.00     0.00     8.00     0.00    0.00    0.00    0.00   0.00   0.00

avg-cpu:  %user   %nice %system %iowait  %steal   %idle
           0.00    0.25    1.78    1.27    0.00   96.69

Device:         rrqm/s   wrqm/s     r/s     w/s    rkB/s    wkB/s avgrq-sz avgqu-sz   await r_await w_await  svctm  %util
sda               0.00     0.00 1413.00    0.00  5652.00     0.00     8.00     0.13    0.09    0.09    0.00   0.09  13.20
sdb               0.00     0.00 1491.00    0.00  5964.00     0.00     8.00     0.15    0.10    0.10    0.00   0.10  14.70
sdc               0.00     0.00 1410.00    0.00  5640.00     0.00     8.00     0.14    0.10    0.10    0.00   0.10  14.50
sdd               0.00     0.00 1469.00    0.00  5876.00     0.00     8.00     0.16    0.11    0.11    0.00   0.11  16.10
sde               0.00     0.00 1471.00    0.00  5884.00     0.00     8.00     0.16    0.11    0.11    0.00   0.11  15.70
sdf               0.00     0.00 1557.00    0.00  6228.00     0.00     8.00     0.20    0.13    0.13    0.00   0.13  19.60
sdg               0.00     0.00   43.00    0.00   484.00     0.00    22.51     0.01    0.16    0.16    0.00   0.14   0.60
sdh               0.00     0.00    0.00    0.00     0.00     0.00     0.00     0.00    0.00    0.00    0.00   0.00   0.00
md0               0.00     0.00 8811.00    0.00 35244.00     0.00     8.00     0.00    0.00    0.00    0.00   0.00   0.00

avg-cpu:  %user   %nice %system %iowait  %steal   %idle
           0.00    0.00    1.28    1.02    0.00   97.70

Device:         rrqm/s   wrqm/s     r/s     w/s    rkB/s    wkB/s avgrq-sz avgqu-sz   await r_await w_await  svctm  %util
sda               0.00     0.00 1479.00    0.00  5916.00     0.00     8.00     0.15    0.10    0.10    0.00   0.10  15.40
sdb               0.00     0.00 1540.00    0.00  6160.00     0.00     8.00     0.15    0.09    0.09    0.00   0.09  14.60
sdc               0.00     0.00 1464.00    0.00  5856.00     0.00     8.00     0.16    0.11    0.11    0.00   0.11  15.70
sdd               0.00     0.00 1517.00    0.00  6068.00     0.00     8.00     0.16    0.11    0.11    0.00   0.11  16.30
sde               0.00     0.00 1489.00    0.00  5956.00     0.00     8.00     0.16    0.11    0.11    0.00   0.11  16.00
sdf               0.00     0.00 1379.00    0.00  5516.00     0.00     8.00     0.16    0.11    0.11    0.00   0.11  15.80
sdg               0.00     0.00    0.00    0.00     0.00     0.00     0.00     0.00    0.00    0.00    0.00   0.00   0.00
sdh               0.00     0.00    0.00    0.00     0.00     0.00     0.00     0.00    0.00    0.00    0.00   0.00   0.00
md0               0.00     0.00 8868.00    0.00 35472.00     0.00     8.00     0.00    0.00    0.00    0.00   0.00   0.00

avg-cpu:  %user   %nice %system %iowait  %steal   %idle
           0.00    0.00    1.53    1.02    0.00   97.44

Device:         rrqm/s   wrqm/s     r/s     w/s    rkB/s    wkB/s avgrq-sz avgqu-sz   await r_await w_await  svctm  %util
sda               0.00     0.00 1374.00    0.00  5496.00     0.00     8.00     0.14    0.10    0.10    0.00   0.10  14.20
sdb               0.00     0.00 1487.00    0.00  5948.00     0.00     8.00     0.14    0.09    0.09    0.00   0.09  14.10
sdc               0.00     0.00 1592.00    0.00  6368.00     0.00     8.00     0.17    0.11    0.11    0.00   0.11  17.30
sdd               0.00     0.00 1512.00    0.00  6048.00     0.00     8.00     0.17    0.11    0.11    0.00   0.11  16.50
sde               0.00     0.00 1358.00    0.00  5432.00     0.00     8.00     0.14    0.10    0.10    0.00   0.10  13.90
sdf               0.00     0.00 1456.00    0.00  5824.00     0.00     8.00     0.16    0.11    0.11    0.00   0.11  16.10
sdg               0.00     0.00    0.00    0.00     0.00     0.00     0.00     0.00    0.00    0.00    0.00   0.00   0.00
sdh               0.00     0.00    0.00    0.00     0.00     0.00     0.00     0.00    0.00    0.00    0.00   0.00   0.00
md0               0.00     0.00 8778.00    0.00 35112.00     0.00     8.00     0.00    0.00    0.00    0.00   0.00   0.00

avg-cpu:  %user   %nice %system %iowait  %steal   %idle
           0.25    0.00    1.78    1.52    0.00   96.45

Device:         rrqm/s   wrqm/s     r/s     w/s    rkB/s    wkB/s avgrq-sz avgqu-sz   await r_await w_await  svctm  %util
sda               0.00     0.00 1536.00    0.00  6144.00     0.00     8.00     0.16    0.10    0.10    0.00   0.10  15.80
sdb               0.00     0.00 1375.00    0.00  5500.00     0.00     8.00     0.14    0.10    0.10    0.00   0.10  13.60
sdc               0.00     0.00 1400.00    0.00  5600.00     0.00     8.00     0.14    0.10    0.10    0.00   0.10  14.40
sdd               0.00     0.00 1450.00    0.00  5800.00     0.00     8.00     0.16    0.11    0.11    0.00   0.11  15.90
sde               0.00     0.00 1534.00    0.00  6136.00     0.00     8.00     0.16    0.11    0.11    0.00   0.11  16.20
sdf               0.00     0.00 1364.00    0.00  5456.00     0.00     8.00     0.17    0.12    0.12    0.00   0.12  16.50
sdg               0.00     0.00   14.00    0.00   288.00     0.00    41.14     0.00    0.29    0.29    0.00   0.29   0.40
sdh               0.00     0.00    0.00    0.00     0.00     0.00     0.00     0.00    0.00    0.00    0.00   0.00   0.00
md0               0.00     0.00 8660.00    0.00 34640.00     0.00     8.00     0.00    0.00    0.00    0.00   0.00   0.00

avg-cpu:  %user   %nice %system %iowait  %steal   %idle
           0.00    0.00    1.53    1.02    0.00   97.45

Device:         rrqm/s   wrqm/s     r/s     w/s    rkB/s    wkB/s avgrq-sz avgqu-sz   await r_await w_await  svctm  %util
sda               0.00     0.00 1501.00    0.00  6004.00     0.00     8.00     0.16    0.10    0.10    0.00   0.10  15.70
sdb               0.00     0.00 1496.00    0.00  5984.00     0.00     8.00     0.14    0.09    0.09    0.00   0.09  14.10
sdc               0.00     0.00 1454.00    0.00  5816.00     0.00     8.00     0.15    0.11    0.11    0.00   0.11  15.40
sdd               0.00     0.00 1326.00    0.00  5304.00     0.00     8.00     0.14    0.10    0.10    0.00   0.10  13.70
sde               0.00     0.00 1451.00    0.00  5804.00     0.00     8.00     0.15    0.10    0.10    0.00   0.10  15.20
sdf               0.00     0.00 1480.00    0.00  5920.00     0.00     8.00     0.18    0.12    0.12    0.00   0.12  18.50
sdg               0.00     0.00    0.00    0.00     0.00     0.00     0.00     0.00    0.00    0.00    0.00   0.00   0.00
sdh               0.00     0.00    0.00    0.00     0.00     0.00     0.00     0.00    0.00    0.00    0.00   0.00   0.00
md0               0.00     0.00 8708.00    0.00 34832.00     0.00     8.00     0.00    0.00    0.00    0.00   0.00   0.00

avg-cpu:  %user   %nice %system %iowait  %steal   %idle
           0.26    0.00    1.28    3.32    0.00   95.15

Device:         rrqm/s   wrqm/s     r/s     w/s    rkB/s    wkB/s avgrq-sz avgqu-sz   await r_await w_await  svctm  %util
sda               0.00     0.00 1354.00    0.00  5416.00     0.00     8.00     0.14    0.11    0.11    0.00   0.11  14.50
sdb               0.00     0.00 1472.00    0.00  5888.00     0.00     8.00     0.14    0.10    0.10    0.00   0.10  14.50
sdc               0.00     0.00 1404.00    0.00  5616.00     0.00     8.00     0.14    0.10    0.10    0.00   0.10  14.50
sdd               0.00     0.00 1557.00    0.00  6228.00     0.00     8.00     0.17    0.11    0.11    0.00   0.11  16.60
sde               0.00     0.00 1393.00    0.00  5572.00     0.00     8.00     0.15    0.11    0.11    0.00   0.11  14.80
sdf               0.00     0.00 1349.00    0.00  5396.00     0.00     8.00     0.17    0.13    0.13    0.00   0.13  17.40
sdg               0.00     0.00    0.00    0.00     0.00     0.00     0.00     0.00    0.00    0.00    0.00   0.00   0.00
sdh               0.00     0.00    0.00    0.00     0.00     0.00     0.00     0.00    0.00    0.00    0.00   0.00   0.00
md0               0.00     0.00 8528.00    0.00 34112.00     0.00     8.00     0.00    0.00    0.00    0.00   0.00   0.00

avg-cpu:  %user   %nice %system %iowait  %steal   %idle
           0.25    0.00    1.27    1.27    0.00   97.20

Device:         rrqm/s   wrqm/s     r/s     w/s    rkB/s    wkB/s avgrq-sz avgqu-sz   await r_await w_await  svctm  %util
sda               0.00     0.00 1407.00    0.00  5628.00     0.00     8.00     0.14    0.10    0.10    0.00   0.10  13.90
sdb               0.00     0.00 1426.00    0.00  5704.00     0.00     8.00     0.14    0.10    0.10    0.00   0.10  14.40
sdc               0.00     0.00 1472.00    0.00  5888.00     0.00     8.00     0.15    0.11    0.11    0.00   0.11  15.50
sdd               0.00     0.00 1504.00    0.00  6016.00     0.00     8.00     0.16    0.11    0.11    0.00   0.11  16.10
sde               0.00     0.00 1494.00    0.00  5976.00     0.00     8.00     0.15    0.10    0.10    0.00   0.10  15.50
sdf               0.00     0.00 1484.00    0.00  5936.00     0.00     8.00     0.18    0.12    0.12    0.00   0.12  17.80
sdg               0.00     0.00    0.00    0.00     0.00     0.00     0.00     0.00    0.00    0.00    0.00   0.00   0.00
sdh               0.00     0.00    0.00    0.00     0.00     0.00     0.00     0.00    0.00    0.00    0.00   0.00   0.00
md0               0.00     0.00 8787.00    0.00 35148.00     0.00     8.00     0.00    0.00    0.00    0.00   0.00   0.00

avg-cpu:  %user   %nice %system %iowait  %steal   %idle
           0.00    0.00    1.53   11.73    0.00   86.73

Device:         rrqm/s   wrqm/s     r/s     w/s    rkB/s    wkB/s avgrq-sz avgqu-sz   await r_await w_await  svctm  %util
sda               0.00     0.00 1470.00    0.00  5880.00     0.00     8.00     0.15    0.10    0.10    0.00   0.10  15.00
sdb               0.00     0.00 1468.00    0.00  5872.00     0.00     8.00     0.15    0.10    0.10    0.00   0.11  15.50
sdc               0.00     0.00 1429.00    0.00  5716.00     0.00     8.00     0.15    0.10    0.10    0.00   0.10  14.90
sdd               0.00     0.00 1459.00    0.00  5836.00     0.00     8.00     0.17    0.11    0.11    0.00   0.11  16.60
sde               0.00     0.00 1466.00    0.00  5864.00     0.00     8.00     0.16    0.11    0.11    0.00   0.11  15.90
sdf               0.00     0.00 1333.00    0.00  5332.00     0.00     8.00     0.16    0.12    0.12    0.00   0.12  16.30
sdg               0.00     1.00    6.00    2.00    24.00    36.00    15.00     0.01    1.25    0.33    4.00   1.12   0.90
sdh               0.00     0.00    0.00    0.00     0.00     0.00     0.00     0.00    0.00    0.00    0.00   0.00   0.00
md0               0.00     0.00 8625.00    0.00 34500.00     0.00     8.00     0.00    0.00    0.00    0.00   0.00   0.00

avg-cpu:  %user   %nice %system %iowait  %steal   %idle
           0.00    0.00    1.02    6.65    0.00   92.33

Device:         rrqm/s   wrqm/s     r/s     w/s    rkB/s    wkB/s avgrq-sz avgqu-sz   await r_await w_await  svctm  %util
sda               0.00     0.00 1447.00    0.00  5788.00     0.00     8.00     0.15    0.10    0.10    0.00   0.10  15.00
sdb               0.00     0.00 1373.00    0.00  5492.00     0.00     8.00     0.14    0.10    0.10    0.00   0.10  14.20
sdc               0.00     0.00 1438.00    0.00  5752.00     0.00     8.00     0.16    0.11    0.11    0.00   0.11  15.70
sdd               0.00     0.00 1406.00    0.00  5624.00     0.00     8.00     0.15    0.11    0.11    0.00   0.11  15.00
sde               0.00     0.00 1462.00    0.00  5848.00     0.00     8.00     0.16    0.11    0.11    0.00   0.11  15.90
sdf               0.00     0.00 1448.00    0.00  5792.00     0.00     8.00     0.19    0.13    0.13    0.00   0.13  18.90
sdg               0.00     0.00    0.00    0.00     0.00     0.00     0.00     0.00    0.00    0.00    0.00   0.00   0.00
sdh               0.00     0.00    0.00    0.00     0.00     0.00     0.00     0.00    0.00    0.00    0.00   0.00   0.00
md0               0.00     0.00 8575.00    0.00 34300.00     0.00     8.00     0.00    0.00    0.00    0.00   0.00   0.00

avg-cpu:  %user   %nice %system %iowait  %steal   %idle
           0.00    0.00    1.53   11.96    0.00   86.51

Device:         rrqm/s   wrqm/s     r/s     w/s    rkB/s    wkB/s avgrq-sz avgqu-sz   await r_await w_await  svctm  %util
sda               0.00     0.00 1504.00    0.00  6016.00     0.00     8.00     0.15    0.10    0.10    0.00   0.10  14.90
sdb               0.00     0.00 1531.00    0.00  6124.00     0.00     8.00     0.15    0.10    0.10    0.00   0.10  14.90
sdc               0.00     0.00 1490.00    0.00  5960.00     0.00     8.00     0.16    0.11    0.11    0.00   0.11  16.30
sdd               0.00     0.00 1448.00    0.00  5792.00     0.00     8.00     0.15    0.10    0.10    0.00   0.10  14.90
sde               0.00     0.00 1509.00    0.00  6036.00     0.00     8.00     0.16    0.11    0.11    0.00   0.11  16.40
sdf               0.00     0.00 1392.00    0.00  5568.00     0.00     8.00     0.17    0.12    0.12    0.00   0.12  16.80
sdg               0.00     0.00    0.00    0.00     0.00     0.00     0.00     0.00    0.00    0.00    0.00   0.00   0.00
sdh               0.00     0.00    0.00    0.00     0.00     0.00     0.00     0.00    0.00    0.00    0.00   0.00   0.00
md0               0.00     0.00 8874.00    0.00 35496.00     0.00     8.00     0.00    0.00    0.00    0.00   0.00   0.00

avg-cpu:  %user   %nice %system %iowait  %steal   %idle
           0.26    0.26    1.02    4.59    0.00   93.88

Device:         rrqm/s   wrqm/s     r/s     w/s    rkB/s    wkB/s avgrq-sz avgqu-sz   await r_await w_await  svctm  %util
sda               0.00     0.00 1573.00    0.00  6292.00     0.00     8.00     0.16    0.10    0.10    0.00   0.10  15.70
sdb               0.00     0.00 1526.00    0.00  6104.00     0.00     8.00     0.14    0.10    0.10    0.00   0.10  14.50
sdc               0.00     0.00 1420.00    0.00  5680.00     0.00     8.00     0.15    0.11    0.11    0.00   0.11  15.30
sdd               0.00     0.00 1577.00    0.00  6308.00     0.00     8.00     0.17    0.11    0.11    0.00   0.11  16.60
sde               0.00     0.00 1560.00    0.00  6240.00     0.00     8.00     0.16    0.10    0.10    0.00   0.10  15.80
sdf               0.00     0.00 1575.00    0.00  6300.00     0.00     8.00     0.16    0.10    0.10    0.00   0.10  16.40
sdg               0.00     0.00    4.00    0.00    16.00     0.00     8.00     0.00    0.00    0.00    0.00   0.00   0.00
sdh               0.00     0.00    0.00    0.00     0.00     0.00     0.00     0.00    0.00    0.00    0.00   0.00   0.00
md0               0.00     0.00 9231.00    0.00 36924.00     0.00     8.00     0.00    0.00    0.00    0.00   0.00   0.00

avg-cpu:  %user   %nice %system %iowait  %steal   %idle
           0.00    0.00    1.78   21.88    0.00   76.34

Device:         rrqm/s   wrqm/s     r/s     w/s    rkB/s    wkB/s avgrq-sz avgqu-sz   await r_await w_await  svctm  %util
sda               0.00     0.00 1540.00    0.00  6160.00     0.00     8.00     0.16    0.10    0.10    0.00   0.10  15.60
sdb               0.00     0.00 1545.00    0.00  6180.00     0.00     8.00     0.15    0.10    0.10    0.00   0.10  15.40
sdc               0.00     0.00 1452.00    0.00  5808.00     0.00     8.00     0.15    0.11    0.11    0.00   0.11  15.50
sdd               0.00     0.00 1500.00    0.00  6000.00     0.00     8.00     0.15    0.10    0.10    0.00   0.10  15.40
sde               0.00     0.00 1512.00    0.00  6048.00     0.00     8.00     0.15    0.10    0.10    0.00   0.10  15.40
sdf               0.00     0.00 1574.00    0.00  6296.00     0.00     8.00     0.17    0.11    0.11    0.00   0.11  16.60
sdg               0.00     0.00    0.00    0.00     0.00     0.00     0.00     0.00    0.00    0.00    0.00   0.00   0.00
sdh               0.00     0.00    0.00    0.00     0.00     0.00     0.00     0.00    0.00    0.00    0.00   0.00   0.00
md0               0.00     0.00 9123.00    0.00 36492.00     0.00     8.00     0.00    0.00    0.00    0.00   0.00   0.00

avg-cpu:  %user   %nice %system %iowait  %steal   %idle
           0.00    0.00    1.79    7.65    0.00   90.56

Device:         rrqm/s   wrqm/s     r/s     w/s    rkB/s    wkB/s avgrq-sz avgqu-sz   await r_await w_await  svctm  %util
sda               0.00     0.00 1518.00    0.00  6072.00     0.00     8.00     0.15    0.10    0.10    0.00   0.10  15.30
sdb               0.00     0.00 1444.00    0.00  5776.00     0.00     8.00     0.14    0.10    0.10    0.00   0.10  14.10
sdc               0.00     0.00 1545.00    0.00  6180.00     0.00     8.00     0.17    0.11    0.11    0.00   0.11  17.00
sdd               0.00     0.00 1510.00    0.00  6040.00     0.00     8.00     0.16    0.10    0.10    0.00   0.10  15.70
sde               0.00     0.00 1445.00    0.00  5780.00     0.00     8.00     0.15    0.11    0.11    0.00   0.11  15.20
sdf               0.00     0.00 1511.00    0.00  6044.00     0.00     8.00     0.17    0.11    0.11    0.00   0.11  16.60
sdg               0.00     0.00    0.00  976.00     0.00  5060.00    10.37     5.45    5.58    0.00    5.58   0.04   4.20
sdh               0.00     0.00    0.00    0.00     0.00     0.00     0.00     0.00    0.00    0.00    0.00   0.00   0.00
md0               0.00     0.00 8972.00    0.00 35888.00     0.00     8.00     0.00    0.00    0.00    0.00   0.00   0.00

avg-cpu:  %user   %nice %system %iowait  %steal   %idle
           0.25    0.00    2.26   21.86    0.00   75.63

Device:         rrqm/s   wrqm/s     r/s     w/s    rkB/s    wkB/s avgrq-sz avgqu-sz   await r_await w_await  svctm  %util
sda               0.00     0.00 1587.00    0.00  6348.00     0.00     8.00     0.15    0.10    0.10    0.00   0.10  15.10
sdb               0.00     0.00 1607.00    0.00  6428.00     0.00     8.00     0.15    0.10    0.10    0.00   0.10  15.30
sdc               0.00     0.00 1453.00    0.00  5812.00     0.00     8.00     0.15    0.11    0.11    0.00   0.11  15.40
sdd               0.00     0.00 1547.00    0.00  6188.00     0.00     8.00     0.17    0.11    0.11    0.00   0.11  16.60
sde               0.00     0.00 1483.00    0.00  5932.00     0.00     8.00     0.16    0.11    0.11    0.00   0.11  15.60
sdf               0.00     0.00 1479.00    0.00  5916.00     0.00     8.00     0.16    0.11    0.11    0.00   0.11  16.00
sdg               0.00     0.00    0.00    0.00     0.00     0.00     0.00     0.00    0.00    0.00    0.00   0.00   0.00
sdh               0.00     0.00    0.00    0.00     0.00     0.00     0.00     0.00    0.00    0.00    0.00   0.00   0.00
md0               0.00     0.00 9157.00    0.00 36628.00     0.00     8.00     0.00    0.00    0.00    0.00   0.00   0.00

avg-cpu:  %user   %nice %system %iowait  %steal   %idle
           0.00    0.00    2.28   20.25    0.00   77.47

Device:         rrqm/s   wrqm/s     r/s     w/s    rkB/s    wkB/s avgrq-sz avgqu-sz   await r_await w_await  svctm  %util
sda               0.00     0.00 1491.00    0.00  5964.00     0.00     8.00     0.15    0.10    0.10    0.00   0.10  14.90
sdb               0.00     0.00 1533.00    0.00  6132.00     0.00     8.00     0.15    0.10    0.10    0.00   0.10  14.70
sdc               0.00     0.00 1577.00    0.00  6308.00     0.00     8.00     0.16    0.10    0.10    0.00   0.10  16.40
sdd               0.00     0.00 1465.00    0.00  5860.00     0.00     8.00     0.15    0.11    0.11    0.00   0.11  15.40
sde               0.00     0.00 1538.00    0.00  6152.00     0.00     8.00     0.16    0.11    0.11    0.00   0.11  16.30
sdf               0.00     0.00 1501.00    0.00  6004.00     0.00     8.00     0.15    0.10    0.10    0.00   0.10  15.20
sdg               0.00     0.00    0.00    0.00     0.00     0.00     0.00     0.00    0.00    0.00    0.00   0.00   0.00
sdh               0.00     0.00    0.00    0.00     0.00     0.00     0.00     0.00    0.00    0.00    0.00   0.00   0.00
md0               0.00     0.00 9105.00    0.00 36420.00     0.00     8.00     0.00    0.00    0.00    0.00   0.00   0.00

avg-cpu:  %user   %nice %system %iowait  %steal   %idle
           0.25    0.00    1.27    4.83    0.00   93.64

Device:         rrqm/s   wrqm/s     r/s     w/s    rkB/s    wkB/s avgrq-sz avgqu-sz   await r_await w_await  svctm  %util
sda               0.00     0.00 1504.00    0.00  6016.00     0.00     8.00     0.15    0.10    0.10    0.00   0.10  14.90
sdb               0.00     0.00 1479.00    0.00  5916.00     0.00     8.00     0.14    0.10    0.10    0.00   0.10  14.30
sdc               0.00     0.00 1512.00    0.00  6048.00     0.00     8.00     0.16    0.11    0.11    0.00   0.11  16.10
sdd               0.00     0.00 1550.00    0.00  6200.00     0.00     8.00     0.16    0.10    0.10    0.00   0.10  15.70
sde               0.00     0.00 1529.00    0.00  6116.00     0.00     8.00     0.16    0.11    0.11    0.00   0.11  16.20
sdf               0.00     0.00 1535.00    0.00  6140.00     0.00     8.00     0.16    0.11    0.11    0.00   0.11  16.40
sdg               0.00     0.00    0.00    0.00     0.00     0.00     0.00     0.00    0.00    0.00    0.00   0.00   0.00
sdh               0.00     0.00    0.00    0.00     0.00     0.00     0.00     0.00    0.00    0.00    0.00   0.00   0.00
md0               0.00     0.00 9109.00    0.00 36436.00     0.00     8.00     0.00    0.00    0.00    0.00   0.00   0.00

avg-cpu:  %user   %nice %system %iowait  %steal   %idle
           0.00    0.00    2.03   13.96    0.00   84.01

Device:         rrqm/s   wrqm/s     r/s     w/s    rkB/s    wkB/s avgrq-sz avgqu-sz   await r_await w_await  svctm  %util
sda               0.00     0.00 1526.00    0.00  6104.00     0.00     8.00     0.15    0.10    0.10    0.00   0.10  15.00
sdb               0.00     0.00 1484.00    0.00  5936.00     0.00     8.00     0.15    0.10    0.10    0.00   0.10  14.70
sdc               0.00     0.00 1611.00    0.00  6444.00     0.00     8.00     0.17    0.11    0.11    0.00   0.11  17.10
sdd               0.00     0.00 1539.00    0.00  6156.00     0.00     8.00     0.16    0.10    0.10    0.00   0.10  15.90
sde               0.00     0.00 1405.00    0.00  5620.00     0.00     8.00     0.15    0.11    0.11    0.00   0.11  15.00
sdf               0.00     0.00 1353.00    0.00  5412.00     0.00     8.00     0.14    0.11    0.11    0.00   0.11  14.40
sdg               0.00     0.00    0.00    0.00     0.00     0.00     0.00     0.00    0.00    0.00    0.00   0.00   0.00
sdh               0.00     0.00    0.00    0.00     0.00     0.00     0.00     0.00    0.00    0.00    0.00   0.00   0.00
md0               0.00     0.00 8918.00    0.00 35672.00     0.00     8.00     0.00    0.00    0.00    0.00   0.00   0.00

