Linux 4.17.2 (bench) 	08/04/2018 	_x86_64_	(4 CPU)

avg-cpu:  %user   %nice %system %iowait  %steal   %idle
          10.24    0.02    4.36    2.86    0.00   82.52

Device:         rrqm/s   wrqm/s     r/s     w/s    rkB/s    wkB/s avgrq-sz avgqu-sz   await r_await w_await  svctm  %util
sda              58.73     4.11 1767.05   99.38 21429.07  3041.02    26.22     1.05    0.56    0.26    5.92   0.06  11.20
sdb              58.52     4.08 1767.07   99.51 21418.75  3037.78    26.20     1.05    0.56    0.26    5.85   0.06  11.08
sdc              95.76     4.13 1727.76   99.08 21411.14  3040.17    26.77     1.47    0.80    0.44    7.12   0.08  14.57
sdd              89.42     4.10 1733.29   99.15 21396.36  3036.48    26.67     1.47    0.80    0.43    7.33   0.08  14.66
sde              91.36     4.15 1738.24   99.24 21454.39  3040.60    26.66     1.49    0.81    0.43    7.44   0.08  14.68
sdf              88.56     4.12 1740.31   99.19 21436.22  3037.56    26.61     1.54    0.84    0.43    7.90   0.08  14.71
sdg               0.00     3.15   27.22   73.08   326.97   391.41    14.32     0.44    4.37    0.20    5.93   0.08   0.79
sdh               0.00     0.12    0.02    0.23     2.14     4.91    56.82     0.00    1.15    0.65    1.19   0.21   0.01
md0               0.00     0.00 10963.87  465.64 146784.29 20815.26    29.33     0.00    0.00    0.00    0.00   0.00   0.00

avg-cpu:  %user   %nice %system %iowait  %steal   %idle
           2.24    0.00   33.92    1.00    0.00   62.84

Device:         rrqm/s   wrqm/s     r/s     w/s    rkB/s    wkB/s avgrq-sz avgqu-sz   await r_await w_await  svctm  %util
sda               1.00     0.00 25168.00    0.00 100676.00     0.00     8.00     7.17    0.28    0.28    0.00   0.02  58.70
sdb               0.00     0.00 24903.00    0.00 99612.00     0.00     8.00     7.16    0.29    0.29    0.00   0.02  57.80
sdc               1.00     0.00 24995.00    0.00 99984.00     0.00     8.00     7.87    0.32    0.32    0.00   0.03  68.90
sdd               1.00     0.00 25082.00    0.00 100332.00     0.00     8.00     7.99    0.32    0.32    0.00   0.03  69.10
sde               1.00     0.00 24811.00    0.00 99248.00     0.00     8.00     7.92    0.32    0.32    0.00   0.03  70.60
sdf               1.00     0.00 24995.00    0.00 99984.00     0.00     8.00     8.08    0.32    0.32    0.00   0.03  70.00
sdg               0.00    17.00   29.00   68.00   464.00  1268.00    35.71     0.22    2.30    0.24    3.18   0.14   1.40
sdh               0.00     0.00    0.00    0.00     0.00     0.00     0.00     0.00    0.00    0.00    0.00   0.00   0.00
md0               0.00     0.00 149930.00    0.00 599720.00     0.00     8.00     0.00    0.00    0.00    0.00   0.00   0.00

avg-cpu:  %user   %nice %system %iowait  %steal   %idle
           2.76    0.00   32.08    1.00    0.00   64.16

Device:         rrqm/s   wrqm/s     r/s     w/s    rkB/s    wkB/s avgrq-sz avgqu-sz   await r_await w_await  svctm  %util
sda               0.00     0.00 21989.00    0.00 87956.00     0.00     8.00     4.93    0.22    0.22    0.00   0.03  56.10
sdb               0.00     0.00 21674.00    0.00 86696.00     0.00     8.00     4.82    0.22    0.22    0.00   0.03  54.40
sdc               0.00     0.00 21907.00    0.00 87628.00     0.00     8.00     5.49    0.25    0.25    0.00   0.03  64.70
sdd               0.00     0.00 21854.00    0.00 87416.00     0.00     8.00     5.47    0.25    0.25    0.00   0.03  64.30
sde               0.00     0.00 21715.00    0.00 86860.00     0.00     8.00     5.38    0.25    0.25    0.00   0.03  66.30
sdf               0.00     0.00 21710.00    0.00 86840.00     0.00     8.00     5.36    0.25    0.25    0.00   0.03  65.00
sdg               0.00     0.00    0.00    0.00     0.00     0.00     0.00     0.00    0.00    0.00    0.00   0.00   0.00
sdh               0.00     0.00    0.00    0.00     0.00     0.00     0.00     0.00    0.00    0.00    0.00   0.00   0.00
md0               0.00     0.00 130843.00    0.00 523372.00     0.00     8.00     0.00    0.00    0.00    0.00   0.00   0.00

avg-cpu:  %user   %nice %system %iowait  %steal   %idle
           3.50    0.00   30.25    1.25    0.00   65.00

Device:         rrqm/s   wrqm/s     r/s     w/s    rkB/s    wkB/s avgrq-sz avgqu-sz   await r_await w_await  svctm  %util
sda               0.00     0.00 17077.00    0.00 68308.00     0.00     8.00     2.87    0.17    0.17    0.00   0.03  54.40
sdb               0.00     0.00 17298.00    0.00 69192.00     0.00     8.00     2.83    0.16    0.16    0.00   0.03  54.10
sdc               0.00     0.00 17212.00    0.00 68848.00     0.00     8.00     3.18    0.18    0.18    0.00   0.04  60.40
sdd               0.00     0.00 17033.00    0.00 68132.00     0.00     8.00     3.11    0.18    0.18    0.00   0.03  58.50
sde               0.00     0.00 17327.00    0.00 69308.00     0.00     8.00     3.30    0.19    0.19    0.00   0.03  58.90
sdf               0.00     0.00 17285.00    0.00 69140.00     0.00     8.00     3.24    0.19    0.19    0.00   0.03  60.30
sdg               0.00     0.00    0.00    0.00     0.00     0.00     0.00     0.00    0.00    0.00    0.00   0.00   0.00
sdh               0.00     0.00    0.00    0.00     0.00     0.00     0.00     0.00    0.00    0.00    0.00   0.00   0.00
md0               0.00     0.00 103238.00    0.00 412952.00     0.00     8.00     0.00    0.00    0.00    0.00   0.00   0.00

avg-cpu:  %user   %nice %system %iowait  %steal   %idle
           4.46    0.00   27.48    1.49    0.00   66.58

Device:         rrqm/s   wrqm/s     r/s     w/s    rkB/s    wkB/s avgrq-sz avgqu-sz   await r_await w_await  svctm  %util
sda               0.00     0.00 11385.00    0.00 45540.00     0.00     8.00     1.38    0.12    0.12    0.00   0.04  46.00
sdb               0.00     0.00 11699.00    0.00 46796.00     0.00     8.00     1.47    0.13    0.13    0.00   0.04  45.80
sdc               0.00     0.00 11603.00    0.00 46412.00     0.00     8.00     1.58    0.14    0.14    0.00   0.04  50.10
sdd               0.00     0.00 11561.00    0.00 46244.00     0.00     8.00     1.63    0.14    0.14    0.00   0.04  49.00
sde               0.00     0.00 11571.00    0.00 46284.00     0.00     8.00     1.53    0.13    0.13    0.00   0.04  51.70
sdf               0.00     0.00 11583.00    0.00 46332.00     0.00     8.00     1.60    0.14    0.14    0.00   0.04  51.40
sdg               0.00     0.00    0.00    0.00     0.00     0.00     0.00     0.00    0.00    0.00    0.00   0.00   0.00
sdh               0.00     0.00    0.00    0.00     0.00     0.00     0.00     0.00    0.00    0.00    0.00   0.00   0.00
md0               0.00     0.00 69387.00    0.00 277548.00     0.00     8.00     0.00    0.00    0.00    0.00   0.00   0.00

avg-cpu:  %user   %nice %system %iowait  %steal   %idle
           5.21    0.00   23.82    1.74    0.00   69.23

Device:         rrqm/s   wrqm/s     r/s     w/s    rkB/s    wkB/s avgrq-sz avgqu-sz   await r_await w_await  svctm  %util
sda               0.00     0.00 6508.00    0.00 26032.00     0.00     8.00     0.67    0.10    0.10    0.00   0.06  36.60
sdb               0.00     0.00 6568.00    0.00 26272.00     0.00     8.00     0.75    0.11    0.11    0.00   0.06  37.20
sdc               0.00     0.00 6414.00    0.00 25656.00     0.00     8.00     0.73    0.11    0.11    0.00   0.06  38.30
sdd               0.00     0.00 6620.00    0.00 26480.00     0.00     8.00     0.82    0.12    0.12    0.00   0.06  39.90
sde               0.00     0.00 6660.00    0.00 26640.00     0.00     8.00     0.81    0.12    0.12    0.00   0.06  40.20
sdf               0.00     0.00 6484.00    0.00 25936.00     0.00     8.00     0.72    0.11    0.11    0.00   0.06  38.40
sdg               0.00     0.00    0.00    0.00     0.00     0.00     0.00     0.00    0.00    0.00    0.00   0.00   0.00
sdh               0.00     0.00    0.00    0.00     0.00     0.00     0.00     0.00    0.00    0.00    0.00   0.00   0.00
md0               0.00     0.00 39239.00    0.00 156956.00     0.00     8.00     0.00    0.00    0.00    0.00   0.00   0.00

avg-cpu:  %user   %nice %system %iowait  %steal   %idle
           5.29    0.25   21.41    2.02    0.00   71.03

Device:         rrqm/s   wrqm/s     r/s     w/s    rkB/s    wkB/s avgrq-sz avgqu-sz   await r_await w_await  svctm  %util
sda               0.00     0.00 3208.00    0.00 12832.00     0.00     8.00     0.34    0.11    0.11    0.00   0.08  24.90
sdb               0.00     0.00 3202.00    0.00 12808.00     0.00     8.00     0.32    0.10    0.10    0.00   0.07  22.30
sdc               0.00     0.00 3172.00    0.00 12688.00     0.00     8.00     0.38    0.12    0.12    0.00   0.08  26.30
sdd               0.00     0.00 3211.00    0.00 12844.00     0.00     8.00     0.40    0.12    0.12    0.00   0.09  29.20
sde               0.00     0.00 3187.00    0.00 12748.00     0.00     8.00     0.35    0.11    0.11    0.00   0.08  26.40
sdf               0.00     0.00 3203.00    0.00 12812.00     0.00     8.00     0.40    0.13    0.13    0.00   0.08  27.10
sdg               0.00     0.00   20.00    0.00   128.00     0.00    12.80     0.00    0.15    0.15    0.00   0.15   0.30
sdh               0.00     0.00    0.00    0.00     0.00     0.00     0.00     0.00    0.00    0.00    0.00   0.00   0.00
md0               0.00     0.00 19179.00    0.00 76716.00     0.00     8.00     0.00    0.00    0.00    0.00   0.00   0.00

avg-cpu:  %user   %nice %system %iowait  %steal   %idle
           6.38    0.00   21.68    1.53    0.00   70.41

Device:         rrqm/s   wrqm/s     r/s     w/s    rkB/s    wkB/s avgrq-sz avgqu-sz   await r_await w_await  svctm  %util
sda               0.00     0.00 1370.00    0.00  5480.00     0.00     8.00     0.13    0.10    0.10    0.00   0.09  11.90
sdb               0.00     0.00 1360.00    0.00  5440.00     0.00     8.00     0.14    0.10    0.10    0.00   0.09  11.70
sdc               0.00     0.00 1431.00    0.00  5724.00     0.00     8.00     0.15    0.10    0.10    0.00   0.09  13.00
sdd               0.00     0.00 1372.00    0.00  5488.00     0.00     8.00     0.15    0.11    0.11    0.00   0.10  13.10
sde               0.00     0.00 1322.00    0.00  5288.00     0.00     8.00     0.16    0.12    0.12    0.00   0.11  14.10
sdf               0.00     0.00 1355.00    0.00  5420.00     0.00     8.00     0.16    0.12    0.12    0.00   0.10  13.70
sdg               0.00     0.00    0.00    0.00     0.00     0.00     0.00     0.00    0.00    0.00    0.00   0.00   0.00
sdh               0.00     0.00    0.00    0.00     0.00     0.00     0.00     0.00    0.00    0.00    0.00   0.00   0.00
md0               0.00     0.00 8210.00    0.00 32840.00     0.00     8.00     0.00    0.00    0.00    0.00   0.00   0.00

avg-cpu:  %user   %nice %system %iowait  %steal   %idle
           7.81    0.00   24.69    0.50    0.00   67.00

Device:         rrqm/s   wrqm/s     r/s     w/s    rkB/s    wkB/s avgrq-sz avgqu-sz   await r_await w_await  svctm  %util
sda               0.00     0.00  486.00    0.00  1944.00     0.00     8.00     0.04    0.09    0.09    0.00   0.08   4.00
sdb               0.00     0.00  488.00    0.00  1952.00     0.00     8.00     0.05    0.10    0.10    0.00   0.08   4.10
sdc               0.00     0.00  478.00    0.00  1912.00     0.00     8.00     0.05    0.11    0.11    0.00   0.10   5.00
sdd               0.00     0.00  447.00    0.00  1788.00     0.00     8.00     0.04    0.09    0.09    0.00   0.09   3.80
sde               0.00     0.00  466.00    0.00  1864.00     0.00     8.00     0.03    0.07    0.07    0.00   0.07   3.30
sdf               0.00     0.00  465.00    0.00  1860.00     0.00     8.00     0.07    0.15    0.15    0.00   0.15   6.90
sdg               0.00     0.00    0.00    0.00     0.00     0.00     0.00     0.00    0.00    0.00    0.00   0.00   0.00
sdh               0.00     0.00    0.00    0.00     0.00     0.00     0.00     0.00    0.00    0.00    0.00   0.00   0.00
md0               0.00     0.00 2830.00    0.00 11320.00     0.00     8.00     0.00    0.00    0.00    0.00   0.00   0.00

avg-cpu:  %user   %nice %system %iowait  %steal   %idle
           8.95    0.00   25.06    0.26    0.00   65.73

Device:         rrqm/s   wrqm/s     r/s     w/s    rkB/s    wkB/s avgrq-sz avgqu-sz   await r_await w_await  svctm  %util
sda               0.00     0.00  128.00    0.00   512.00     0.00     8.00     0.01    0.12    0.12    0.00   0.12   1.50
sdb               0.00     0.00  130.00    0.00   520.00     0.00     8.00     0.01    0.10    0.10    0.00   0.10   1.30
sdc               0.00     0.00  108.00    0.00   432.00     0.00     8.00     0.01    0.06    0.06    0.00   0.06   0.60
sdd               0.00     0.00  113.00    0.00   452.00     0.00     8.00     0.01    0.06    0.06    0.00   0.06   0.70
sde               0.00     0.00  112.00    0.00   448.00     0.00     8.00     0.01    0.12    0.12    0.00   0.13   1.40
sdf               0.00     0.00  112.00    0.00   448.00     0.00     8.00     0.02    0.17    0.17    0.00   0.17   1.90
sdg               0.00     0.00    0.00    0.00     0.00     0.00     0.00     0.00    0.00    0.00    0.00   0.00   0.00
sdh               0.00     0.00    0.00    0.00     0.00     0.00     0.00     0.00    0.00    0.00    0.00   0.00   0.00
md0               0.00     0.00  703.00    0.00  2812.00     0.00     8.00     0.00    0.00    0.00    0.00   0.00   0.00

