Linux 4.17.2 (bench) 	08/04/2018 	_x86_64_	(4 CPU)

avg-cpu:  %user   %nice %system %iowait  %steal   %idle
          10.25    0.02    4.31    2.82    0.00   82.60

Device:         rrqm/s   wrqm/s     r/s     w/s    rkB/s    wkB/s avgrq-sz avgqu-sz   await r_await w_await  svctm  %util
sda              57.61     4.13 1758.46   99.86 21439.91  3055.77    26.36     1.05    0.57    0.26    5.92   0.06  11.17
sdb              57.40     4.10 1758.49  100.00 21429.55  3052.52    26.35     1.05    0.56    0.26    5.85   0.06  11.04
sdc              94.81     4.15 1718.99   99.56 21421.89  3054.92    26.92     1.47    0.81    0.44    7.12   0.08  14.54
sdd              88.43     4.12 1724.55   99.63 21407.05  3051.21    26.82     1.48    0.81    0.43    7.33   0.08  14.63
sde              90.39     4.17 1729.55   99.72 21465.48  3055.35    26.81     1.50    0.82    0.44    7.44   0.08  14.66
sdf              87.58     4.14 1731.63   99.67 21447.22  3052.29    26.76     1.54    0.84    0.43    7.90   0.08  14.69
sdg               0.00     3.16   27.14   73.13   326.85   391.62    14.33     0.44    4.38    0.20    5.93   0.08   0.79
sdh               0.00     0.12    0.02    0.23     2.15     4.93    56.82     0.00    1.15    0.65    1.19   0.21   0.01
md0               0.00     0.00 10905.66  467.89 146906.91 20916.21    29.51     0.00    0.00    0.00    0.00   0.00   0.00

avg-cpu:  %user   %nice %system %iowait  %steal   %idle
           5.83    0.04    9.56    2.38    0.00   82.20

Device:         rrqm/s   wrqm/s     r/s     w/s    rkB/s    wkB/s avgrq-sz avgqu-sz   await r_await w_await  svctm  %util
sda               0.60     0.00  730.80    0.00 15156.80     0.00    41.48     0.29    0.39    0.39    0.00   0.12   8.47
sdb               0.95     0.00  738.65    0.00 15289.60     0.00    41.40     0.32    0.44    0.44    0.00   0.14  10.02
sdc               1.05     0.00  753.85    0.00 15176.20     0.00    40.26     0.42    0.56    0.56    0.00   0.15  10.94
sdd               1.05     0.00  751.25    0.00 15441.60     0.00    41.11     0.41    0.55    0.55    0.00   0.14  10.87
sde               0.35     0.00  758.70    0.00 15353.60     0.00    40.47     0.41    0.54    0.54    0.00   0.14  10.83
sdf               0.35     0.00  745.35    0.00 15316.20     0.00    41.10     0.41    0.55    0.55    0.00   0.15  11.14
sdg               0.00     0.05  106.15    0.30   439.40     8.20     8.41     0.01    0.13    0.13    1.50   0.13   1.39
sdh               0.00     0.00    0.00    0.00     0.00     0.00     0.00     0.00    0.00    0.00    0.00   0.00   0.00
md0               0.00     0.00 4482.95    0.00 97595.20     0.00    43.54     0.00    0.00    0.00    0.00   0.00   0.00

