Linux 4.17.2 (bench) 	08/04/2018 	_x86_64_	(4 CPU)

avg-cpu:  %user   %nice %system %iowait  %steal   %idle
          10.24    0.02    4.35    2.86    0.00   82.53

Device:         rrqm/s   wrqm/s     r/s     w/s    rkB/s    wkB/s avgrq-sz avgqu-sz   await r_await w_await  svctm  %util
sda              58.75     4.12 1767.17   99.42 21432.25  3042.18    26.22     1.05    0.56    0.26    5.92   0.06  11.20
sdb              58.54     4.08 1767.19   99.55 21421.92  3038.94    26.21     1.05    0.56    0.26    5.85   0.06  11.08
sdc              95.79     4.13 1727.86   99.12 21414.30  3041.33    26.77     1.47    0.80    0.44    7.12   0.08  14.57
sdd              89.45     4.10 1733.39   99.18 21399.52  3037.64    26.67     1.47    0.80    0.43    7.33   0.08  14.66
sde              91.39     4.15 1738.35   99.28 21457.58  3041.76    26.66     1.49    0.81    0.43    7.44   0.08  14.68
sdf              88.59     4.12 1740.42   99.23 21439.40  3038.72    26.61     1.54    0.84    0.43    7.90   0.08  14.72
sdg               0.00     3.15   27.22   73.08   326.98   391.43    14.33     0.44    4.37    0.20    5.93   0.08   0.79
sdh               0.00     0.12    0.02    0.23     2.14     4.91    56.82     0.00    1.15    0.65    1.19   0.21   0.01
md0               0.00     0.00 10964.66  465.81 146806.69 20823.21    29.33     0.00    0.00    0.00    0.00   0.00   0.00

avg-cpu:  %user   %nice %system %iowait  %steal   %idle
          14.61    0.03   15.63    0.10    0.00   69.63

Device:         rrqm/s   wrqm/s     r/s     w/s    rkB/s    wkB/s avgrq-sz avgqu-sz   await r_await w_await  svctm  %util
sda               0.00     0.00    9.40    0.00    37.60     0.00     8.00     0.00    0.11    0.11    0.00   0.11   0.10
sdb               0.00     0.00    9.05    0.00    36.20     0.00     8.00     0.00    0.12    0.12    0.00   0.11   0.10
sdc               0.00     0.00    9.65    0.00    38.60     0.00     8.00     0.00    0.14    0.14    0.00   0.14   0.14
sdd               0.00     0.00    9.75    0.00    39.00     0.00     8.00     0.00    0.13    0.13    0.00   0.12   0.11
sde               0.00     0.00    9.20    0.00    36.80     0.00     8.00     0.00    0.09    0.09    0.00   0.09   0.09
sdf               0.00     0.00   10.45    0.00    41.80     0.00     8.00     0.00    0.11    0.11    0.00   0.11   0.11
sdg               0.00     3.85    0.75  128.80     6.80   646.00    10.08     0.79    6.09    0.07    6.13   0.04   0.58
sdh               0.00     0.00    0.00    0.00     0.00     0.00     0.00     0.00    0.00    0.00    0.00   0.00   0.00
md0               0.00     0.00   57.50    0.00   230.00     0.00     8.00     0.00    0.00    0.00    0.00   0.00   0.00

