Linux 4.17.2 (bench) 	08/04/2018 	_x86_64_	(4 CPU)

avg-cpu:  %user   %nice %system %iowait  %steal   %idle
          10.25    0.02    4.32    2.84    0.00   82.57

Device:         rrqm/s   wrqm/s     r/s     w/s    rkB/s    wkB/s avgrq-sz avgqu-sz   await r_await w_await  svctm  %util
sda              58.08     4.13 1762.32   99.68 21436.24  3050.18    26.30     1.05    0.56    0.26    5.92   0.06  11.18
sdb              57.87     4.09 1762.34   99.81 21425.90  3046.93    26.28     1.05    0.56    0.26    5.85   0.06  11.06
sdc              95.22     4.15 1722.91   99.38 21418.26  3049.33    26.85     1.47    0.81    0.44    7.12   0.08  14.55
sdd              88.85     4.11 1728.45   99.45 21403.40  3045.63    26.75     1.47    0.81    0.43    7.33   0.08  14.65
sde              90.80     4.16 1733.44   99.54 21461.73  3049.76    26.74     1.50    0.82    0.44    7.44   0.08  14.67
sdf              88.00     4.13 1735.51   99.49 21443.47  3046.71    26.69     1.54    0.84    0.43    7.90   0.08  14.70
sdg               0.00     3.15   27.17   73.11   326.91   391.54    14.33     0.44    4.38    0.20    5.93   0.08   0.79
sdh               0.00     0.12    0.02    0.23     2.15     4.92    56.82     0.00    1.15    0.65    1.19   0.21   0.01
md0               0.00     0.00 10931.56  467.04 146860.18 20877.96    29.43     0.00    0.00    0.00    0.00   0.00   0.00

avg-cpu:  %user   %nice %system %iowait  %steal   %idle
           0.71    0.03   14.12   66.42    0.00   18.73

Device:         rrqm/s   wrqm/s     r/s     w/s    rkB/s    wkB/s avgrq-sz avgqu-sz   await r_await w_await  svctm  %util
sda               0.00     0.00 10650.65    0.00 42602.60     0.00     8.00     1.08    0.10    0.10    0.00   0.07  77.55
sdb               0.00     0.00 10642.15    0.00 42568.60     0.00     8.00     1.06    0.10    0.10    0.00   0.07  74.78
sdc               0.00     0.00 10672.95    0.00 42691.80     0.00     8.00     1.17    0.11    0.11    0.00   0.08  80.42
sdd               0.00     0.00 10688.80    0.00 42755.20     0.00     8.00     1.19    0.11    0.11    0.00   0.08  82.66
sde               0.00     0.00 10649.35    0.00 42597.40     0.00     8.00     1.17    0.11    0.11    0.00   0.08  82.38
sdf               0.00     0.00 10647.95    0.00 42591.80     0.00     8.00     1.17    0.11    0.11    0.00   0.08  82.58
sdg               0.00     0.95    2.25    4.40    17.40    72.20    26.95     0.01    1.71    0.18    2.50   0.08   0.05
sdh               0.00     0.00    0.00    0.00     0.00     0.00     0.00     0.00    0.00    0.00    0.00   0.00   0.00
md0               0.00     0.00 63952.50    0.00 255810.00     0.00     8.00     0.00    0.00    0.00    0.00   0.00   0.00

