Linux 4.17.2 (bench) 	08/04/2018 	_x86_64_	(4 CPU)

avg-cpu:  %user   %nice %system %iowait  %steal   %idle
          10.25    0.02    4.26    2.79    0.00   82.69

Device:         rrqm/s   wrqm/s     r/s     w/s    rkB/s    wkB/s avgrq-sz avgqu-sz   await r_await w_await  svctm  %util
sda              56.52     4.15 1749.54  100.36 21452.62  3071.12    26.51     1.05    0.57    0.26    5.92   0.06  11.13
sdb              56.30     4.12 1749.57  100.50 21442.20  3067.85    26.50     1.05    0.57    0.26    5.85   0.06  11.01
sdc              93.89     4.17 1709.88  100.06 21434.50  3070.26    27.08     1.47    0.81    0.44    7.12   0.08  14.51
sdd              87.49     4.14 1715.48  100.13 21419.63  3066.54    26.97     1.48    0.81    0.43    7.33   0.08  14.61
sde              89.46     4.19 1720.52  100.22 21478.48  3070.70    26.97     1.50    0.82    0.44    7.44   0.08  14.63
sdf              86.64     4.16 1722.60  100.17 21460.10  3067.62    26.91     1.54    0.85    0.44    7.90   0.08  14.66
sdg               0.00     3.16   27.04   73.19   326.69   391.82    14.34     0.44    4.38    0.20    5.93   0.08   0.79
sdh               0.00     0.13    0.02    0.23     2.16     4.96    56.82     0.00    1.15    0.65    1.19   0.21   0.01
md0               0.00     0.00 10845.64  470.25 147043.38 21021.28    29.70     0.00    0.00    0.00    0.00   0.00   0.00

avg-cpu:  %user   %nice %system %iowait  %steal   %idle
           2.76    0.00   39.35    0.25    0.00   57.64

Device:         rrqm/s   wrqm/s     r/s     w/s    rkB/s    wkB/s avgrq-sz avgqu-sz   await r_await w_await  svctm  %util
sda            7488.00     0.00 27080.00    0.00 138776.00     0.00    10.25    21.35    0.79    0.79    0.00   0.02  58.90
sdb            7615.00     0.00 26936.00    0.00 138676.00     0.00    10.30    21.22    0.79    0.79    0.00   0.02  59.90
sdc            7654.00     0.00 26381.00    0.00 136572.00     0.00    10.35    25.20    0.95    0.95    0.00   0.03  72.60
sdd            7702.00     0.00 26460.00    0.00 136992.00     0.00    10.35    25.56    0.96    0.96    0.00   0.03  74.90
sde            7768.00     0.00 26606.00    0.00 137824.00     0.00    10.36    25.80    0.97    0.97    0.00   0.03  75.40
sdf            7507.00     0.00 26293.00    0.00 135552.00     0.00    10.31    25.08    0.95    0.95    0.00   0.03  73.60
sdg               0.00     2.00    0.00    8.00     0.00   152.00    38.00     0.00    0.00    0.00    0.00   0.00   0.00
sdh               0.00     0.00    0.00    0.00     0.00     0.00     0.00     0.00    0.00    0.00    0.00   0.00   0.00
md0               0.00     0.00 206245.00    0.00 824980.00     0.00     8.00     0.00    0.00    0.00    0.00   0.00   0.00

avg-cpu:  %user   %nice %system %iowait  %steal   %idle
           3.26    0.00   41.35    0.00    0.00   55.39

Device:         rrqm/s   wrqm/s     r/s     w/s    rkB/s    wkB/s avgrq-sz avgqu-sz   await r_await w_await  svctm  %util
sda            2069.00     0.00 24727.00    0.00 107312.00     0.00     8.68    13.87    0.56    0.56    0.00   0.02  56.20
sdb            2082.00     0.00 24785.00    0.00 107580.00     0.00     8.68    13.91    0.56    0.56    0.00   0.02  55.80
sdc            2312.00     0.00 25005.00    0.00 109380.00     0.00     8.75    16.55    0.66    0.66    0.00   0.03  64.80
sdd            2144.00     0.00 24721.00    0.00 107580.00     0.00     8.70    16.30    0.66    0.66    0.00   0.03  63.70
sde            2187.00     0.00 24595.00    0.00 107248.00     0.00     8.72    16.02    0.65    0.65    0.00   0.03  64.70
sdf            2397.00     0.00 24676.00    0.00 108404.00     0.00     8.79    16.37    0.66    0.66    0.00   0.03  64.70
sdg               0.00     0.00    0.00    0.00     0.00     0.00     0.00     0.00    0.00    0.00    0.00   0.00   0.00
sdh               0.00     0.00    0.00    0.00     0.00     0.00     0.00     0.00    0.00    0.00    0.00   0.00   0.00
md0               0.00     0.00 161638.00    0.00 646552.00     0.00     8.00     0.00    0.00    0.00    0.00   0.00   0.00

avg-cpu:  %user   %nice %system %iowait  %steal   %idle
           5.29    0.00   36.78    0.00    0.00   57.93

Device:         rrqm/s   wrqm/s     r/s     w/s    rkB/s    wkB/s avgrq-sz avgqu-sz   await r_await w_await  svctm  %util
sda              42.00     0.00 16831.00    0.00 67492.00     0.00     8.02     4.45    0.27    0.27    0.00   0.02  41.60
sdb              35.00     0.00 16800.00    0.00 67336.00     0.00     8.02     4.45    0.27    0.27    0.00   0.02  40.50
sdc              41.00     0.00 16825.00    0.00 67464.00     0.00     8.02     5.33    0.32    0.32    0.00   0.03  44.80
sdd              79.00     0.00 16908.00    0.00 67952.00     0.00     8.04     5.23    0.31    0.31    0.00   0.03  45.20
sde              51.00     0.00 16744.00    0.00 67184.00     0.00     8.02     5.23    0.31    0.31    0.00   0.03  45.70
sdf              59.00     0.00 16910.00    0.00 67880.00     0.00     8.03     5.36    0.32    0.32    0.00   0.03  44.80
sdg               0.00     0.00    0.00    0.00     0.00     0.00     0.00     0.00    0.00    0.00    0.00   0.00   0.00
sdh               0.00     0.00    0.00    0.00     0.00     0.00     0.00     0.00    0.00    0.00    0.00   0.00   0.00
md0               0.00     0.00 101178.00    0.00 404712.00     0.00     8.00     0.00    0.00    0.00    0.00   0.00   0.00

avg-cpu:  %user   %nice %system %iowait  %steal   %idle
           7.30    0.00   31.87    0.00    0.00   60.83

Device:         rrqm/s   wrqm/s     r/s     w/s    rkB/s    wkB/s avgrq-sz avgqu-sz   await r_await w_await  svctm  %util
sda               0.00     0.00 6824.00    0.00 27296.00     0.00     8.00     1.02    0.15    0.15    0.00   0.04  26.60
sdb               0.00     0.00 6839.00    0.00 27356.00     0.00     8.00     0.94    0.14    0.14    0.00   0.04  25.30
sdc               0.00     0.00 6847.00    0.00 27388.00     0.00     8.00     1.15    0.17    0.17    0.00   0.04  28.70
sdd               0.00     0.00 7002.00    0.00 28008.00     0.00     8.00     1.19    0.17    0.17    0.00   0.04  29.60
sde               0.00     0.00 7012.00    0.00 28048.00     0.00     8.00     1.22    0.17    0.17    0.00   0.04  29.10
sdf               0.00     0.00 7129.00    0.00 28516.00     0.00     8.00     1.20    0.17    0.17    0.00   0.04  29.30
sdg               0.00     0.00    0.00    0.00     0.00     0.00     0.00     0.00    0.00    0.00    0.00   0.00   0.00
sdh               0.00     0.00    0.00    0.00     0.00     0.00     0.00     0.00    0.00    0.00    0.00   0.00   0.00
md0               0.00     0.00 41665.00    0.00 166660.00     0.00     8.00     0.00    0.00    0.00    0.00   0.00   0.00

avg-cpu:  %user   %nice %system %iowait  %steal   %idle
           7.81    0.00   26.70    0.00    0.00   65.49

Device:         rrqm/s   wrqm/s     r/s     w/s    rkB/s    wkB/s avgrq-sz avgqu-sz   await r_await w_await  svctm  %util
sda               0.00     0.00 1597.00    0.00  6388.00     0.00     8.00     0.16    0.10    0.10    0.00   0.06   9.40
sdb               0.00     0.00 1582.00    0.00  6328.00     0.00     8.00     0.17    0.11    0.11    0.00   0.07  10.30
sdc               0.00     0.00 1678.00    0.00  6712.00     0.00     8.00     0.14    0.08    0.08    0.00   0.05   9.20
sdd               0.00     0.00 1632.00    0.00  6528.00     0.00     8.00     0.17    0.10    0.10    0.00   0.06  10.30
sde               0.00     0.00 1621.00    0.00  6484.00     0.00     8.00     0.15    0.10    0.10    0.00   0.06   9.10
sdf               0.00     0.00 1600.00    0.00  6400.00     0.00     8.00     0.16    0.10    0.10    0.00   0.06   9.20
sdg               0.00     0.00   39.00    0.00   468.00     0.00    24.00     0.01    0.13    0.13    0.00   0.10   0.40
sdh               0.00     0.00    0.00    0.00     0.00     0.00     0.00     0.00    0.00    0.00    0.00   0.00   0.00
md0               0.00     0.00 9700.00    0.00 38800.00     0.00     8.00     0.00    0.00    0.00    0.00   0.00   0.00

