Linux 4.17.2 (bench) 	08/04/2018 	_x86_64_	(4 CPU)

avg-cpu:  %user   %nice %system %iowait  %steal   %idle
          10.25    0.02    4.22    2.79    0.00   82.72

Device:         rrqm/s   wrqm/s     r/s     w/s    rkB/s    wkB/s avgrq-sz avgqu-sz   await r_await w_await  svctm  %util
sda              56.54     4.16 1749.68  100.58 21470.27  3077.57    26.53     1.05    0.57    0.26    5.92   0.06  11.14
sdb              56.32     4.12 1749.71  100.71 21459.83  3074.30    26.52     1.05    0.57    0.26    5.85   0.06  11.01
sdc              93.99     4.18 1709.95  100.27 21452.11  3076.72    27.10     1.47    0.81    0.44    7.12   0.08  14.52
sdd              87.57     4.15 1715.56  100.34 21437.22  3072.98    27.00     1.48    0.81    0.43    7.33   0.08  14.62
sde              89.54     4.20 1720.61  100.43 21496.23  3077.15    26.99     1.50    0.82    0.44    7.44   0.08  14.64
sdf              86.71     4.17 1722.70  100.38 21477.81  3074.07    26.93     1.54    0.85    0.44    7.90   0.08  14.67
sdg               0.00     3.16   27.00   73.22   326.67   391.93    14.34     0.44    4.39    0.20    5.93   0.08   0.79
sdh               0.00     0.13    0.02    0.23     2.17     4.97    56.82     0.00    1.15    0.65    1.19   0.21   0.01
md0               0.00     0.00 10846.56  471.23 147167.05 21065.48    29.73     0.00    0.00    0.00    0.00   0.00   0.00

avg-cpu:  %user   %nice %system %iowait  %steal   %idle
           0.51    0.00    3.05    9.92    0.00   86.51

Device:         rrqm/s   wrqm/s     r/s     w/s    rkB/s    wkB/s avgrq-sz avgqu-sz   await r_await w_await  svctm  %util
sda               5.00     0.00 2068.00    0.00 49404.00     0.00    47.78     1.48    0.72    0.72    0.00   0.11  23.40
sdb               4.00     0.00 2084.00    0.00 48340.00     0.00    46.39     1.53    0.73    0.73    0.00   0.11  23.50
sdc               5.00     0.00 1986.00    0.00 48964.00     0.00    49.31     2.63    1.33    1.33    0.00   0.15  30.20
sdd               9.00     0.00 2076.00    0.00 50412.00     0.00    48.57     2.83    1.36    1.36    0.00   0.15  31.20
sde               7.00     0.00 2104.00    0.00 49404.00     0.00    46.96     2.91    1.38    1.38    0.00   0.15  32.60
sdf               8.00     0.00 2102.00    0.00 51240.00     0.00    48.75     2.81    1.34    1.34    0.00   0.15  31.80
sdg               0.00     0.00    3.00    0.00    88.00     0.00    58.67     0.00    0.00    0.00    0.00   0.00   0.00
sdh               0.00     0.00    0.00    0.00     0.00     0.00     0.00     0.00    0.00    0.00    0.00   0.00   0.00
md0               0.00     0.00 12460.00    0.00 322728.00     0.00    51.80     0.00    0.00    0.00    0.00   0.00   0.00

avg-cpu:  %user   %nice %system %iowait  %steal   %idle
           0.25    0.00    2.54    1.78    0.00   95.43

Device:         rrqm/s   wrqm/s     r/s     w/s    rkB/s    wkB/s avgrq-sz avgqu-sz   await r_await w_await  svctm  %util
sda              12.00     0.00 1143.00    0.00 15296.00     0.00    26.76     0.16    0.14    0.14    0.00   0.13  14.50
sdb              16.00     0.00 1140.00    0.00 17924.00     0.00    31.45     0.17    0.15    0.15    0.00   0.14  16.10
sdc              19.00     0.00 1061.00    0.00 19120.00     0.00    36.04     0.20    0.19    0.19    0.00   0.17  18.10
sdd              15.00     0.00 1119.00    0.00 18188.00     0.00    32.51     0.21    0.18    0.18    0.00   0.16  18.10
sde              16.00     0.00 1137.00    0.00 17872.00     0.00    31.44     0.20    0.18    0.18    0.00   0.16  18.50
sdf              13.00     0.00 1216.00    0.00 17596.00     0.00    28.94     0.22    0.18    0.18    0.00   0.16  19.90
sdg               0.00     0.00  353.00    0.00  1532.00     0.00     8.68     0.04    0.12    0.12    0.00   0.12   4.20
sdh               0.00     0.00    0.00    0.00     0.00     0.00     0.00     0.00    0.00    0.00    0.00   0.00   0.00
md0               0.00     0.00 6907.00    0.00 133000.00     0.00    38.51     0.00    0.00    0.00    0.00   0.00   0.00

avg-cpu:  %user   %nice %system %iowait  %steal   %idle
           0.00    0.00    2.30    3.83    0.00   93.88

Device:         rrqm/s   wrqm/s     r/s     w/s    rkB/s    wkB/s avgrq-sz avgqu-sz   await r_await w_await  svctm  %util
sda              19.00     0.00 1169.00    0.00 19092.00     0.00    32.66     0.17    0.14    0.14    0.00   0.14  15.90
sdb              19.00     0.00 1100.00    0.00 19168.00     0.00    34.85     0.17    0.15    0.15    0.00   0.14  15.90
sdc              18.00     0.00 1135.00    0.00 18152.00     0.00    31.99     0.21    0.18    0.18    0.00   0.17  18.90
sdd              18.00     0.00 1125.00    0.00 20560.00     0.00    36.55     0.20    0.18    0.18    0.00   0.17  19.10
sde              16.00     0.00 1125.00    0.00 19020.00     0.00    33.81     0.20    0.18    0.18    0.00   0.17  19.20
sdf              17.00     0.00 1141.00    0.00 18276.00     0.00    32.04     0.20    0.17    0.17    0.00   0.16  18.60
sdg               0.00     0.00  986.00    0.00  3944.00     0.00     8.00     0.11    0.12    0.12    0.00   0.12  11.50
sdh               0.00     0.00    0.00    0.00     0.00     0.00     0.00     0.00    0.00    0.00    0.00   0.00   0.00
md0               0.00     0.00 6902.00    0.00 147892.00     0.00    42.85     0.00    0.00    0.00    0.00   0.00   0.00

avg-cpu:  %user   %nice %system %iowait  %steal   %idle
           0.25    0.00    2.78   15.44    0.00   81.52

Device:         rrqm/s   wrqm/s     r/s     w/s    rkB/s    wkB/s avgrq-sz avgqu-sz   await r_await w_await  svctm  %util
sda              19.00     0.00 1095.00    0.00 19864.00     0.00    36.28     0.17    0.16    0.16    0.00   0.14  15.80
sdb              17.00     0.00 1159.00    0.00 18388.00     0.00    31.73     0.17    0.15    0.15    0.00   0.13  15.20
sdc              14.00     0.00 1201.00    0.00 16892.00     0.00    28.13     0.21    0.17    0.17    0.00   0.15  18.60
sdd              16.00     0.00 1188.00    0.00 17372.00     0.00    29.25     0.21    0.18    0.18    0.00   0.15  18.40
sde              16.00     0.00 1146.00    0.00 19468.00     0.00    33.98     0.23    0.20    0.20    0.00   0.17  19.40
sdf              16.00     0.00 1107.00    0.00 19072.00     0.00    34.46     0.21    0.19    0.19    0.00   0.17  18.70
sdg               0.00    85.00    0.00 2558.00     0.00 12660.00     9.90    15.51    6.06    0.00    6.06   0.04  11.30
sdh               0.00     0.00    0.00    0.00     0.00     0.00     0.00     0.00    0.00    0.00    0.00   0.00   0.00
md0               0.00     0.00 6993.00    0.00 138648.00     0.00    39.65     0.00    0.00    0.00    0.00   0.00   0.00

avg-cpu:  %user   %nice %system %iowait  %steal   %idle
           0.00    0.00    2.28    1.27    0.00   96.45

Device:         rrqm/s   wrqm/s     r/s     w/s    rkB/s    wkB/s avgrq-sz avgqu-sz   await r_await w_await  svctm  %util
sda              24.00     0.00 1226.00    0.00 26428.00     0.00    43.11     0.36    0.29    0.29    0.00   0.14  17.30
sdb              27.00     0.00 1237.00    0.00 26536.00     0.00    42.90     0.35    0.29    0.29    0.00   0.15  18.40
sdc              24.00     0.00 1178.00    0.00 25084.00     0.00    42.59     0.56    0.39    0.39    0.00   0.17  20.60
sdd              24.00     0.00 1191.00    0.00 24820.00     0.00    41.68     0.54    0.40    0.40    0.00   0.17  20.60
sde              23.00     0.00 1220.00    0.00 25320.00     0.00    41.51     0.59    0.42    0.42    0.00   0.18  21.60
sdf              22.00     0.00 1223.00    0.00 24196.00     0.00    39.57     0.56    0.40    0.40    0.00   0.17  21.00
sdg               0.00     0.00    0.00    0.00     0.00     0.00     0.00     0.00    0.00    0.00    0.00   0.00   0.00
sdh               0.00     0.00    0.00    0.00     0.00     0.00     0.00     0.00    0.00    0.00    0.00   0.00   0.00
md0               0.00     0.00 7521.00    0.00 196956.00     0.00    52.37     0.00    0.00    0.00    0.00   0.00   0.00

avg-cpu:  %user   %nice %system %iowait  %steal   %idle
           0.51    0.00    3.33    1.03    0.00   95.13

Device:         rrqm/s   wrqm/s     r/s     w/s    rkB/s    wkB/s avgrq-sz avgqu-sz   await r_await w_await  svctm  %util
sda               3.00     0.00 2492.00    0.00 50768.00     0.00    40.74     1.85    0.74    0.74    0.00   0.10  24.30
sdb               6.00     0.00 2515.00    0.00 49200.00     0.00    39.13     2.14    0.85    0.85    0.00   0.09  22.80
sdc               6.00     0.00 2351.00    0.00 45288.00     0.00    38.53     3.04    1.33    1.33    0.00   0.12  29.10
sdd               5.00     0.00 2334.00    0.00 45792.00     0.00    39.24     2.70    1.18    1.18    0.00   0.13  30.00
sde               2.00     0.00 2384.00    0.00 47620.00     0.00    39.95     2.84    1.23    1.23    0.00   0.12  29.00
sdf               6.00     0.00 2459.00    0.00 48896.00     0.00    39.77     2.86    1.20    1.20    0.00   0.13  31.80
sdg               0.00     0.00    0.00    0.00     0.00     0.00     0.00     0.00    0.00    0.00    0.00   0.00   0.00
sdh               0.00     0.00    0.00    0.00     0.00     0.00     0.00     0.00    0.00    0.00    0.00   0.00   0.00
md0               0.00     0.00 14462.00    0.00 300680.00     0.00    41.58     0.00    0.00    0.00    0.00   0.00   0.00

avg-cpu:  %user   %nice %system %iowait  %steal   %idle
           0.51    0.00    3.30    1.02    0.00   95.18

Device:         rrqm/s   wrqm/s     r/s     w/s    rkB/s    wkB/s avgrq-sz avgqu-sz   await r_await w_await  svctm  %util
sda               0.99     0.00 1955.45    0.00 46728.71     0.00    47.79     1.38    0.70    0.70    0.00   0.11  22.18
sdb               3.96     0.00 2040.59    0.00 47956.44     0.00    47.00     1.43    0.70    0.70    0.00   0.10  21.39
sdc               0.99     0.00 2068.32    0.00 48364.36     0.00    46.77     2.64    1.28    1.28    0.00   0.15  30.79
sdd               3.96     0.00 2041.58    0.00 47691.09     0.00    46.72     2.47    1.21    1.21    0.00   0.15  30.50
sde               3.96     0.00 1939.60    0.00 45223.76     0.00    46.63     2.44    1.26    1.26    0.00   0.15  28.81
sdf               1.98     0.00 2010.89    0.00 49045.54     0.00    48.78     2.78    1.39    1.39    0.00   0.15  30.40
sdg               0.00     0.00    0.00    0.00     0.00     0.00     0.00     0.00    0.00    0.00    0.00   0.00   0.00
sdh               0.00     0.00    0.00    0.00     0.00     0.00     0.00     0.00    0.00    0.00    0.00   0.00   0.00
md0               0.00     0.00 12071.29    0.00 302499.01     0.00    50.12     0.00    0.00    0.00    0.00   0.00   0.00

avg-cpu:  %user   %nice %system %iowait  %steal   %idle
           0.52    0.00    4.39    1.03    0.00   94.06

Device:         rrqm/s   wrqm/s     r/s     w/s    rkB/s    wkB/s avgrq-sz avgqu-sz   await r_await w_await  svctm  %util
sda               4.00     0.00 3194.00    0.00 55448.00     0.00    34.72     2.37    0.74    0.74    0.00   0.07  23.80
sdb               0.00     0.00 3193.00    0.00 56264.00     0.00    35.24     2.48    0.77    0.77    0.00   0.07  23.80
sdc               3.00     0.00 3262.00    0.00 56084.00     0.00    34.39     4.51    1.37    1.37    0.00   0.10  34.10
sdd               5.00     0.00 3249.00    0.00 56136.00     0.00    34.56     4.40    1.34    1.34    0.00   0.11  34.40
sde               3.00     0.00 3159.00    0.00 55128.00     0.00    34.90     4.35    1.37    1.37    0.00   0.10  32.30
sdf               5.00     0.00 3113.00    0.00 54584.00     0.00    35.07     4.37    1.40    1.40    0.00   0.11  33.40
sdg               0.00     0.00    0.00    0.00     0.00     0.00     0.00     0.00    0.00    0.00    0.00   0.00   0.00
sdh               0.00     0.00    0.00    0.00     0.00     0.00     0.00     0.00    0.00    0.00    0.00   0.00   0.00
md0               0.00     0.00 19264.00    0.00 348700.00     0.00    36.20     0.00    0.00    0.00    0.00   0.00   0.00

avg-cpu:  %user   %nice %system %iowait  %steal   %idle
           3.58    0.00   15.35    0.26    0.00   80.82

Device:         rrqm/s   wrqm/s     r/s     w/s    rkB/s    wkB/s avgrq-sz avgqu-sz   await r_await w_await  svctm  %util
sda               1.00     0.00 1889.00    0.00 27664.00     0.00    29.29     1.47    0.78    0.78    0.00   0.06  11.50
sdb               1.00     0.00 1764.00    0.00 26736.00     0.00    30.31     1.54    0.88    0.88    0.00   0.06   9.80
sdc               2.00     0.00 1999.00    0.00 30972.00     0.00    30.99     2.61    1.32    1.32    0.00   0.08  16.00
sdd               1.00     0.00 1916.00    0.00 29392.00     0.00    30.68     2.41    1.28    1.28    0.00   0.08  16.20
sde               2.00     0.00 1932.00    0.00 30028.00     0.00    31.08     2.51    1.32    1.32    0.00   0.08  16.10
sdf               3.00     0.00 1736.00    0.00 27356.00     0.00    31.52     2.44    1.41    1.41    0.00   0.08  14.30
sdg               0.00     2.00   12.00    6.00    48.00    56.00    11.56     0.00    0.17    0.08    0.33   0.11   0.20
sdh               0.00     0.00    0.00    0.00     0.00     0.00     0.00     0.00    0.00    0.00    0.00   0.00   0.00
md0               0.00     0.00 11171.00    0.00 173388.00     0.00    31.04     0.00    0.00    0.00    0.00   0.00   0.00

avg-cpu:  %user   %nice %system %iowait  %steal   %idle
           5.53    0.00   19.85    0.00    0.00   74.62

Device:         rrqm/s   wrqm/s     r/s     w/s    rkB/s    wkB/s avgrq-sz avgqu-sz   await r_await w_await  svctm  %util
sda               0.00     0.00   23.00    0.00   180.00     0.00    15.65     0.01    0.22    0.22    0.00   0.09   0.20
sdb               0.00     0.00    3.00    0.00    16.00     0.00    10.67     0.00    0.33    0.33    0.00   0.33   0.10
sdc               0.00     0.00   10.00    0.00    96.00     0.00    19.20     0.00    0.00    0.00    0.00   0.00   0.00
sdd               0.00     0.00    3.00    0.00    20.00     0.00    13.33     0.00    0.33    0.33    0.00   0.33   0.10
sde               0.00     0.00    0.00    0.00     0.00     0.00     0.00     0.00    0.00    0.00    0.00   0.00   0.00
sdf               0.00     0.00    3.00    0.00    20.00     0.00    13.33     0.00    0.00    0.00    0.00   0.00   0.00
sdg               0.00     0.00    0.00    0.00     0.00     0.00     0.00     0.00    0.00    0.00    0.00   0.00   0.00
sdh               0.00     0.00    0.00    0.00     0.00     0.00     0.00     0.00    0.00    0.00    0.00   0.00   0.00
md0               0.00     0.00   42.00    0.00   332.00     0.00    15.81     0.00    0.00    0.00    0.00   0.00   0.00

avg-cpu:  %user   %nice %system %iowait  %steal   %idle
           5.79    0.00   19.40    0.00    0.00   74.81

Device:         rrqm/s   wrqm/s     r/s     w/s    rkB/s    wkB/s avgrq-sz avgqu-sz   await r_await w_await  svctm  %util
sda               0.00     0.00    0.00    0.00     0.00     0.00     0.00     0.00    0.00    0.00    0.00   0.00   0.00
sdb               0.00     0.00    0.00    0.00     0.00     0.00     0.00     0.00    0.00    0.00    0.00   0.00   0.00
sdc               0.00     0.00    0.00    0.00     0.00     0.00     0.00     0.00    0.00    0.00    0.00   0.00   0.00
sdd               0.00     0.00    0.00    0.00     0.00     0.00     0.00     0.00    0.00    0.00    0.00   0.00   0.00
sde               0.00     0.00    0.00    0.00     0.00     0.00     0.00     0.00    0.00    0.00    0.00   0.00   0.00
sdf               0.00     0.00    0.00    0.00     0.00     0.00     0.00     0.00    0.00    0.00    0.00   0.00   0.00
sdg               0.00     0.00    0.00    0.00     0.00     0.00     0.00     0.00    0.00    0.00    0.00   0.00   0.00
sdh               0.00     0.00    0.00    0.00     0.00     0.00     0.00     0.00    0.00    0.00    0.00   0.00   0.00
md0               0.00     0.00    0.00    0.00     0.00     0.00     0.00     0.00    0.00    0.00    0.00   0.00   0.00

avg-cpu:  %user   %nice %system %iowait  %steal   %idle
           6.06    0.00   19.44    0.00    0.00   74.49

Device:         rrqm/s   wrqm/s     r/s     w/s    rkB/s    wkB/s avgrq-sz avgqu-sz   await r_await w_await  svctm  %util
sda               0.00     0.00    0.00    0.00     0.00     0.00     0.00     0.00    0.00    0.00    0.00   0.00   0.00
sdb               0.00     0.00    0.00    0.00     0.00     0.00     0.00     0.00    0.00    0.00    0.00   0.00   0.00
sdc               0.00     0.00    0.00    0.00     0.00     0.00     0.00     0.00    0.00    0.00    0.00   0.00   0.00
sdd               0.00     0.00    0.00    0.00     0.00     0.00     0.00     0.00    0.00    0.00    0.00   0.00   0.00
sde               0.00     0.00    0.00    0.00     0.00     0.00     0.00     0.00    0.00    0.00    0.00   0.00   0.00
sdf               0.00     0.00    0.00    0.00     0.00     0.00     0.00     0.00    0.00    0.00    0.00   0.00   0.00
sdg               0.00     0.00    6.00    0.00    24.00     0.00     8.00     0.00    0.17    0.17    0.00   0.17   0.10
sdh               0.00     0.00    0.00    0.00     0.00     0.00     0.00     0.00    0.00    0.00    0.00   0.00   0.00
md0               0.00     0.00    0.00    0.00     0.00     0.00     0.00     0.00    0.00    0.00    0.00   0.00   0.00

avg-cpu:  %user   %nice %system %iowait  %steal   %idle
           5.79    0.00   19.40    0.00    0.00   74.81

Device:         rrqm/s   wrqm/s     r/s     w/s    rkB/s    wkB/s avgrq-sz avgqu-sz   await r_await w_await  svctm  %util
sda               0.00     0.00    0.00    0.00     0.00     0.00     0.00     0.00    0.00    0.00    0.00   0.00   0.00
sdb               0.00     0.00    0.00    0.00     0.00     0.00     0.00     0.00    0.00    0.00    0.00   0.00   0.00
sdc               0.00     0.00    0.00    0.00     0.00     0.00     0.00     0.00    0.00    0.00    0.00   0.00   0.00
sdd               0.00     0.00    0.00    0.00     0.00     0.00     0.00     0.00    0.00    0.00    0.00   0.00   0.00
sde               0.00     0.00    0.00    0.00     0.00     0.00     0.00     0.00    0.00    0.00    0.00   0.00   0.00
sdf               0.00     0.00    0.00    0.00     0.00     0.00     0.00     0.00    0.00    0.00    0.00   0.00   0.00
sdg               0.00     0.00    0.00    0.00     0.00     0.00     0.00     0.00    0.00    0.00    0.00   0.00   0.00
sdh               0.00     0.00    0.00    0.00     0.00     0.00     0.00     0.00    0.00    0.00    0.00   0.00   0.00
md0               0.00     0.00    0.00    0.00     0.00     0.00     0.00     0.00    0.00    0.00    0.00   0.00   0.00

avg-cpu:  %user   %nice %system %iowait  %steal   %idle
           6.03    0.00   19.35    0.00    0.00   74.62

Device:         rrqm/s   wrqm/s     r/s     w/s    rkB/s    wkB/s avgrq-sz avgqu-sz   await r_await w_await  svctm  %util
sda               0.00     0.00    0.00    0.00     0.00     0.00     0.00     0.00    0.00    0.00    0.00   0.00   0.00
sdb               0.00     0.00    0.00    0.00     0.00     0.00     0.00     0.00    0.00    0.00    0.00   0.00   0.00
sdc               0.00     0.00    0.00    0.00     0.00     0.00     0.00     0.00    0.00    0.00    0.00   0.00   0.00
sdd               0.00     0.00    0.00    0.00     0.00     0.00     0.00     0.00    0.00    0.00    0.00   0.00   0.00
sde               0.00     0.00    0.00    0.00     0.00     0.00     0.00     0.00    0.00    0.00    0.00   0.00   0.00
sdf               0.00     0.00    0.00    0.00     0.00     0.00     0.00     0.00    0.00    0.00    0.00   0.00   0.00
sdg               0.00     0.00    0.00    0.00     0.00     0.00     0.00     0.00    0.00    0.00    0.00   0.00   0.00
sdh               0.00     0.00    0.00    0.00     0.00     0.00     0.00     0.00    0.00    0.00    0.00   0.00   0.00
md0               0.00     0.00    0.00    0.00     0.00     0.00     0.00     0.00    0.00    0.00    0.00   0.00   0.00

avg-cpu:  %user   %nice %system %iowait  %steal   %idle
           5.79    0.00   19.40    0.00    0.00   74.81

Device:         rrqm/s   wrqm/s     r/s     w/s    rkB/s    wkB/s avgrq-sz avgqu-sz   await r_await w_await  svctm  %util
sda               0.00     0.00    0.00    0.00     0.00     0.00     0.00     0.00    0.00    0.00    0.00   0.00   0.00
sdb               0.00     0.00    0.00    0.00     0.00     0.00     0.00     0.00    0.00    0.00    0.00   0.00   0.00
sdc               0.00     0.00    0.00    0.00     0.00     0.00     0.00     0.00    0.00    0.00    0.00   0.00   0.00
sdd               0.00     0.00    0.00    0.00     0.00     0.00     0.00     0.00    0.00    0.00    0.00   0.00   0.00
sde               0.00     0.00    0.00    0.00     0.00     0.00     0.00     0.00    0.00    0.00    0.00   0.00   0.00
sdf               0.00     0.00    0.00    0.00     0.00     0.00     0.00     0.00    0.00    0.00    0.00   0.00   0.00
sdg               0.00     0.00    0.00    0.00     0.00     0.00     0.00     0.00    0.00    0.00    0.00   0.00   0.00
sdh               0.00     0.00    0.00    0.00     0.00     0.00     0.00     0.00    0.00    0.00    0.00   0.00   0.00
md0               0.00     0.00    0.00    0.00     0.00     0.00     0.00     0.00    0.00    0.00    0.00   0.00   0.00

avg-cpu:  %user   %nice %system %iowait  %steal   %idle
           6.78    0.00   18.59    0.00    0.00   74.62

Device:         rrqm/s   wrqm/s     r/s     w/s    rkB/s    wkB/s avgrq-sz avgqu-sz   await r_await w_await  svctm  %util
sda               0.00     0.00    0.00    0.00     0.00     0.00     0.00     0.00    0.00    0.00    0.00   0.00   0.00
sdb               0.00     0.00    0.00    0.00     0.00     0.00     0.00     0.00    0.00    0.00    0.00   0.00   0.00
sdc               0.00     0.00    0.00    0.00     0.00     0.00     0.00     0.00    0.00    0.00    0.00   0.00   0.00
sdd               0.00     0.00    0.00    0.00     0.00     0.00     0.00     0.00    0.00    0.00    0.00   0.00   0.00
sde               0.00     0.00    0.00    0.00     0.00     0.00     0.00     0.00    0.00    0.00    0.00   0.00   0.00
sdf               0.00     0.00    0.00    0.00     0.00     0.00     0.00     0.00    0.00    0.00    0.00   0.00   0.00
sdg               0.00     0.00    0.00    0.00     0.00     0.00     0.00     0.00    0.00    0.00    0.00   0.00   0.00
sdh               0.00     0.00    0.00    0.00     0.00     0.00     0.00     0.00    0.00    0.00    0.00   0.00   0.00
md0               0.00     0.00    0.00    0.00     0.00     0.00     0.00     0.00    0.00    0.00    0.00   0.00   0.00

avg-cpu:  %user   %nice %system %iowait  %steal   %idle
           5.79    0.00   19.40    0.00    0.00   74.81

Device:         rrqm/s   wrqm/s     r/s     w/s    rkB/s    wkB/s avgrq-sz avgqu-sz   await r_await w_await  svctm  %util
sda               0.00     0.00    0.00    0.00     0.00     0.00     0.00     0.00    0.00    0.00    0.00   0.00   0.00
sdb               0.00     0.00    0.00    0.00     0.00     0.00     0.00     0.00    0.00    0.00    0.00   0.00   0.00
sdc               0.00     0.00    0.00    0.00     0.00     0.00     0.00     0.00    0.00    0.00    0.00   0.00   0.00
sdd               0.00     0.00    0.00    0.00     0.00     0.00     0.00     0.00    0.00    0.00    0.00   0.00   0.00
sde               0.00     0.00    0.00    0.00     0.00     0.00     0.00     0.00    0.00    0.00    0.00   0.00   0.00
sdf               0.00     0.00    0.00    0.00     0.00     0.00     0.00     0.00    0.00    0.00    0.00   0.00   0.00
sdg               0.00     0.00    0.00    0.00     0.00     0.00     0.00     0.00    0.00    0.00    0.00   0.00   0.00
sdh               0.00     0.00    0.00    0.00     0.00     0.00     0.00     0.00    0.00    0.00    0.00   0.00   0.00
md0               0.00     0.00    0.00    0.00     0.00     0.00     0.00     0.00    0.00    0.00    0.00   0.00   0.00

avg-cpu:  %user   %nice %system %iowait  %steal   %idle
           6.03    0.00   19.35    0.00    0.00   74.62

Device:         rrqm/s   wrqm/s     r/s     w/s    rkB/s    wkB/s avgrq-sz avgqu-sz   await r_await w_await  svctm  %util
sda               0.00     0.00    0.00    0.00     0.00     0.00     0.00     0.00    0.00    0.00    0.00   0.00   0.00
sdb               0.00     0.00    0.00    0.00     0.00     0.00     0.00     0.00    0.00    0.00    0.00   0.00   0.00
sdc               0.00     0.00    0.00    0.00     0.00     0.00     0.00     0.00    0.00    0.00    0.00   0.00   0.00
sdd               0.00     0.00    0.00    0.00     0.00     0.00     0.00     0.00    0.00    0.00    0.00   0.00   0.00
sde               0.00     0.00    0.00    0.00     0.00     0.00     0.00     0.00    0.00    0.00    0.00   0.00   0.00
sdf               0.00     0.00    0.00    0.00     0.00     0.00     0.00     0.00    0.00    0.00    0.00   0.00   0.00
sdg               0.00     0.00    0.00    0.00     0.00     0.00     0.00     0.00    0.00    0.00    0.00   0.00   0.00
sdh               0.00     0.00    0.00    0.00     0.00     0.00     0.00     0.00    0.00    0.00    0.00   0.00   0.00
md0               0.00     0.00    0.00    0.00     0.00     0.00     0.00     0.00    0.00    0.00    0.00   0.00   0.00

avg-cpu:  %user   %nice %system %iowait  %steal   %idle
           6.55    0.00   18.64    0.00    0.00   74.81

Device:         rrqm/s   wrqm/s     r/s     w/s    rkB/s    wkB/s avgrq-sz avgqu-sz   await r_await w_await  svctm  %util
sda               0.00     0.00    0.00    0.00     0.00     0.00     0.00     0.00    0.00    0.00    0.00   0.00   0.00
sdb               0.00     0.00    0.00    0.00     0.00     0.00     0.00     0.00    0.00    0.00    0.00   0.00   0.00
sdc               0.00     0.00    0.00    0.00     0.00     0.00     0.00     0.00    0.00    0.00    0.00   0.00   0.00
sdd               0.00     0.00    0.00    0.00     0.00     0.00     0.00     0.00    0.00    0.00    0.00   0.00   0.00
sde               0.00     0.00    0.00    0.00     0.00     0.00     0.00     0.00    0.00    0.00    0.00   0.00   0.00
sdf               0.00     0.00    0.00    0.00     0.00     0.00     0.00     0.00    0.00    0.00    0.00   0.00   0.00
sdg               0.00     0.00    0.00    0.00     0.00     0.00     0.00     0.00    0.00    0.00    0.00   0.00   0.00
sdh               0.00     0.00    0.00    0.00     0.00     0.00     0.00     0.00    0.00    0.00    0.00   0.00   0.00
md0               0.00     0.00    0.00    0.00     0.00     0.00     0.00     0.00    0.00    0.00    0.00   0.00   0.00

avg-cpu:  %user   %nice %system %iowait  %steal   %idle
           6.30    0.00   18.89    0.00    0.00   74.81

Device:         rrqm/s   wrqm/s     r/s     w/s    rkB/s    wkB/s avgrq-sz avgqu-sz   await r_await w_await  svctm  %util
sda               0.00     0.00    0.00    0.00     0.00     0.00     0.00     0.00    0.00    0.00    0.00   0.00   0.00
sdb               0.00     0.00    0.00    0.00     0.00     0.00     0.00     0.00    0.00    0.00    0.00   0.00   0.00
sdc               0.00     0.00    0.00    0.00     0.00     0.00     0.00     0.00    0.00    0.00    0.00   0.00   0.00
sdd               0.00     0.00    0.00    0.00     0.00     0.00     0.00     0.00    0.00    0.00    0.00   0.00   0.00
sde               0.00     0.00    0.00    0.00     0.00     0.00     0.00     0.00    0.00    0.00    0.00   0.00   0.00
sdf               0.00     0.00    0.00    0.00     0.00     0.00     0.00     0.00    0.00    0.00    0.00   0.00   0.00
sdg               0.00     1.00    0.00    1.00     0.00    20.00    40.00     0.00    0.00    0.00    0.00   0.00   0.00
sdh               0.00     0.00    0.00    0.00     0.00     0.00     0.00     0.00    0.00    0.00    0.00   0.00   0.00
md0               0.00     0.00    0.00    0.00     0.00     0.00     0.00     0.00    0.00    0.00    0.00   0.00   0.00

