Linux 4.17.2 (bench) 	08/04/2018 	_x86_64_	(4 CPU)

avg-cpu:  %user   %nice %system %iowait  %steal   %idle
          10.25    0.02    4.32    2.82    0.00   82.59

Device:         rrqm/s   wrqm/s     r/s     w/s    rkB/s    wkB/s avgrq-sz avgqu-sz   await r_await w_await  svctm  %util
sda              57.67     4.13 1758.29   99.81 21435.99  3054.06    26.36     1.05    0.57    0.26    5.92   0.06  11.16
sdb              57.46     4.09 1758.31   99.94 21425.63  3050.81    26.34     1.05    0.56    0.26    5.85   0.06  11.04
sdc              94.86     4.15 1718.83   99.50 21417.98  3053.21    26.92     1.47    0.81    0.44    7.12   0.08  14.54
sdd              88.49     4.12 1724.39   99.57 21403.15  3049.50    26.81     1.48    0.81    0.43    7.33   0.08  14.63
sde              90.44     4.16 1729.38   99.67 21461.53  3053.64    26.81     1.50    0.82    0.44    7.44   0.08  14.65
sdf              87.63     4.14 1731.46   99.61 21443.29  3050.59    26.75     1.54    0.84    0.43    7.90   0.08  14.68
sdg               0.00     3.15   27.15   73.13   326.87   391.59    14.33     0.44    4.38    0.20    5.93   0.08   0.79
sdh               0.00     0.12    0.02    0.23     2.15     4.93    56.82     0.00    1.15    0.65    1.19   0.21   0.01
md0               0.00     0.00 10904.98  467.63 146880.51 20904.52    29.51     0.00    0.00    0.00    0.00   0.00   0.00

avg-cpu:  %user   %nice %system %iowait  %steal   %idle
           6.18    0.03   24.86    0.00    0.00   68.93

Device:         rrqm/s   wrqm/s     r/s     w/s    rkB/s    wkB/s avgrq-sz avgqu-sz   await r_await w_await  svctm  %util
sda               0.00     0.00    0.55    0.00     2.20     0.00     8.00     0.00    0.00    0.00    0.00   0.00   0.00
sdb               0.00     0.00    0.50    0.00     2.00     0.00     8.00     0.00    0.20    0.20    0.00   0.20   0.01
sdc               0.00     0.00    0.75    0.00     3.00     0.00     8.00     0.00    0.07    0.07    0.00   0.07   0.01
sdd               0.00     0.00    0.50    0.00     2.00     0.00     8.00     0.00    0.40    0.40    0.00   0.40   0.02
sde               0.00     0.00    0.35    0.00     1.40     0.00     8.00     0.00    0.14    0.14    0.00   0.14   0.01
sdf               0.00     0.00    0.60    0.00     2.40     0.00     8.00     0.00    0.08    0.08    0.00   0.08   0.01
sdg               0.00     0.10    1.40    1.05    11.80    13.00    20.24     0.00    0.16    0.25    0.05   0.12   0.03
sdh               0.00     0.00    0.00    0.00     0.00     0.00     0.00     0.00    0.00    0.00    0.00   0.00   0.00
md0               0.00     0.00    3.25    0.00    13.00     0.00     8.00     0.00    0.00    0.00    0.00   0.00   0.00

