Linux 4.17.2 (bench) 	08/04/2018 	_x86_64_	(4 CPU)

avg-cpu:  %user   %nice %system %iowait  %steal   %idle
          10.25    0.02    4.27    2.82    0.00   82.64

Device:         rrqm/s   wrqm/s     r/s     w/s    rkB/s    wkB/s avgrq-sz avgqu-sz   await r_await w_await  svctm  %util
sda              57.71     4.14 1758.41  100.11 21460.92  3063.41    26.39     1.05    0.57    0.26    5.92   0.06  11.17
sdb              57.50     4.11 1758.44  100.25 21450.54  3060.15    26.37     1.05    0.57    0.26    5.85   0.06  11.05
sdc              95.00     4.16 1718.84   99.81 21442.86  3062.55    26.95     1.47    0.81    0.44    7.12   0.08  14.55
sdd              88.61     4.13 1724.42   99.88 21427.99  3058.84    26.85     1.48    0.81    0.43    7.33   0.08  14.64
sde              90.57     4.18 1729.43   99.97 21486.60  3062.99    26.84     1.50    0.82    0.44    7.44   0.08  14.66
sdf              87.75     4.15 1731.52   99.92 21468.30  3059.92    26.79     1.54    0.84    0.43    7.90   0.08  14.70
sdg               0.00     3.16   27.09   73.16   326.82   391.73    14.33     0.44    4.38    0.20    5.93   0.08   0.79
sdh               0.00     0.13    0.02    0.23     2.16     4.94    56.82     0.00    1.15    0.65    1.19   0.21   0.01
md0               0.00     0.00 10905.92  469.06 147054.21 20968.50    29.54     0.00    0.00    0.00    0.00   0.00   0.00

avg-cpu:  %user   %nice %system %iowait  %steal   %idle
           1.03    0.00    5.41    3.09    0.00   90.46

Device:         rrqm/s   wrqm/s     r/s     w/s    rkB/s    wkB/s avgrq-sz avgqu-sz   await r_await w_await  svctm  %util
sda               0.00     0.00 4845.00    0.00 19380.00     0.00     8.00     0.51    0.10    0.10    0.00   0.06  28.00
sdb               0.00     0.00 4864.00    0.00 19456.00     0.00     8.00     0.53    0.11    0.11    0.00   0.06  28.90
sdc               0.00     0.00 4793.00    0.00 19172.00     0.00     8.00     0.62    0.13    0.13    0.00   0.07  31.90
sdd               0.00     0.00 4934.00    0.00 19736.00     0.00     8.00     0.61    0.12    0.12    0.00   0.07  32.10
sde               0.00     0.00 4828.00    0.00 19312.00     0.00     8.00     0.56    0.12    0.12    0.00   0.06  30.70
sdf               0.00     0.00 4800.00    0.00 19200.00     0.00     8.00     0.54    0.11    0.11    0.00   0.06  29.10
sdg               0.00     0.00    2.00    0.00    84.00     0.00    84.00     0.00    0.00    0.00    0.00   0.00   0.00
sdh               0.00     0.00    0.00    0.00     0.00     0.00     0.00     0.00    0.00    0.00    0.00   0.00   0.00
md0               0.00     0.00 29075.00    0.00 116300.00     0.00     8.00     0.00    0.00    0.00    0.00   0.00   0.00

avg-cpu:  %user   %nice %system %iowait  %steal   %idle
           1.02    0.00    6.63    7.14    0.00   85.20

Device:         rrqm/s   wrqm/s     r/s     w/s    rkB/s    wkB/s avgrq-sz avgqu-sz   await r_await w_await  svctm  %util
sda               0.00     0.00 4527.00    0.00 18108.00     0.00     8.00     0.48    0.11    0.11    0.00   0.06  27.00
sdb               0.00     0.00 4734.00    0.00 18936.00     0.00     8.00     0.54    0.11    0.11    0.00   0.06  30.40
sdc               0.00     0.00 4625.00    0.00 18500.00     0.00     8.00     0.56    0.12    0.12    0.00   0.06  29.40
sdd               0.00     0.00 4635.00    0.00 18540.00     0.00     8.00     0.49    0.11    0.11    0.00   0.06  27.70
sde               0.00     0.00 4628.00    0.00 18512.00     0.00     8.00     0.58    0.12    0.12    0.00   0.07  30.20
sdf               0.00     0.00 4737.00    0.00 18948.00     0.00     8.00     0.59    0.12    0.12    0.00   0.07  32.50
sdg               0.00     0.00    0.00    0.00     0.00     0.00     0.00     0.00    0.00    0.00    0.00   0.00   0.00
sdh               0.00     0.00    0.00    0.00     0.00     0.00     0.00     0.00    0.00    0.00    0.00   0.00   0.00
md0               0.00     0.00 27882.00    0.00 111528.00     0.00     8.00     0.00    0.00    0.00    0.00   0.00   0.00

avg-cpu:  %user   %nice %system %iowait  %steal   %idle
           1.28    0.00    5.61    5.10    0.00   88.01

Device:         rrqm/s   wrqm/s     r/s     w/s    rkB/s    wkB/s avgrq-sz avgqu-sz   await r_await w_await  svctm  %util
sda               0.00     0.00 4209.00    0.00 16836.00     0.00     8.00     0.49    0.12    0.12    0.00   0.07  28.40
sdb               0.00     0.00 4263.00    0.00 17052.00     0.00     8.00     0.46    0.11    0.11    0.00   0.06  26.70
sdc               0.00     0.00 4549.00    0.00 18196.00     0.00     8.00     0.53    0.12    0.12    0.00   0.07  31.10
sdd               0.00     0.00 4479.00    0.00 17916.00     0.00     8.00     0.45    0.10    0.10    0.00   0.06  27.40
sde               0.00     0.00 4615.00    0.00 18460.00     0.00     8.00     0.56    0.12    0.12    0.00   0.07  30.00
sdf               0.00     0.00 4421.00    0.00 17684.00     0.00     8.00     0.54    0.12    0.12    0.00   0.07  31.80
sdg               0.00     0.00    0.00    0.00     0.00     0.00     0.00     0.00    0.00    0.00    0.00   0.00   0.00
sdh               0.00     0.00    0.00    0.00     0.00     0.00     0.00     0.00    0.00    0.00    0.00   0.00   0.00
md0               0.00     0.00 26533.00    0.00 106132.00     0.00     8.00     0.00    0.00    0.00    0.00   0.00   0.00

avg-cpu:  %user   %nice %system %iowait  %steal   %idle
           1.03    0.00    4.91    1.03    0.00   93.02

Device:         rrqm/s   wrqm/s     r/s     w/s    rkB/s    wkB/s avgrq-sz avgqu-sz   await r_await w_await  svctm  %util
sda               0.00     0.00 4209.00    0.00 16836.00     0.00     8.00     0.47    0.11    0.11    0.00   0.06  27.10
sdb               0.00     0.00 4187.00    0.00 16748.00     0.00     8.00     0.45    0.11    0.11    0.00   0.06  25.40
sdc               0.00     0.00 4254.00    0.00 17016.00     0.00     8.00     0.51    0.12    0.12    0.00   0.07  28.90
sdd               0.00     0.00 4191.00    0.00 16764.00     0.00     8.00     0.49    0.12    0.12    0.00   0.07  30.60
sde               0.00     0.00 4174.00    0.00 16696.00     0.00     8.00     0.54    0.13    0.13    0.00   0.07  30.00
sdf               0.00     0.00 3993.00    0.00 15972.00     0.00     8.00     0.47    0.12    0.12    0.00   0.07  29.20
sdg               0.00     0.00    0.00    0.00     0.00     0.00     0.00     0.00    0.00    0.00    0.00   0.00   0.00
sdh               0.00     0.00    0.00    0.00     0.00     0.00     0.00     0.00    0.00    0.00    0.00   0.00   0.00
md0               0.00     0.00 25009.00    0.00 100036.00     0.00     8.00     0.00    0.00    0.00    0.00   0.00   0.00

avg-cpu:  %user   %nice %system %iowait  %steal   %idle
           1.54    0.00    5.38    5.64    0.00   87.44

Device:         rrqm/s   wrqm/s     r/s     w/s    rkB/s    wkB/s avgrq-sz avgqu-sz   await r_await w_await  svctm  %util
sda               0.00     0.00 4280.00    0.00 17120.00     0.00     8.00     0.48    0.11    0.11    0.00   0.07  29.90
sdb               0.00     0.00 4186.00    0.00 16744.00     0.00     8.00     0.46    0.11    0.11    0.00   0.06  27.10
sdc               0.00     0.00 4368.00    0.00 17472.00     0.00     8.00     0.51    0.12    0.12    0.00   0.07  29.40
sdd               0.00     0.00 4143.00    0.00 16572.00     0.00     8.00     0.46    0.11    0.11    0.00   0.07  28.10
sde               0.00     0.00 4217.00    0.00 16868.00     0.00     8.00     0.49    0.12    0.12    0.00   0.07  31.10
sdf               0.00     0.00 4327.00    0.00 17308.00     0.00     8.00     0.50    0.12    0.12    0.00   0.07  31.50
sdg               0.00     0.00    0.00    0.00     0.00     0.00     0.00     0.00    0.00    0.00    0.00   0.00   0.00
sdh               0.00     0.00    0.00    0.00     0.00     0.00     0.00     0.00    0.00    0.00    0.00   0.00   0.00
md0               0.00     0.00 25525.00    0.00 102100.00     0.00     8.00     0.00    0.00    0.00    0.00   0.00   0.00

avg-cpu:  %user   %nice %system %iowait  %steal   %idle
           1.53    0.00    4.86    2.05    0.00   91.56

Device:         rrqm/s   wrqm/s     r/s     w/s    rkB/s    wkB/s avgrq-sz avgqu-sz   await r_await w_await  svctm  %util
sda               0.00     0.00 4055.00    0.00 16220.00     0.00     8.00     0.45    0.11    0.11    0.00   0.07  27.30
sdb               0.00     0.00 3945.00    0.00 15780.00     0.00     8.00     0.40    0.10    0.10    0.00   0.06  24.90
sdc               0.00     0.00 3955.00    0.00 15820.00     0.00     8.00     0.46    0.12    0.12    0.00   0.07  29.00
sdd               0.00     0.00 3924.00    0.00 15696.00     0.00     8.00     0.42    0.11    0.11    0.00   0.07  27.90
sde               0.00     0.00 4029.00    0.00 16116.00     0.00     8.00     0.48    0.12    0.12    0.00   0.07  29.20
sdf               0.00     0.00 3879.00    0.00 15516.00     0.00     8.00     0.42    0.11    0.11    0.00   0.07  25.80
sdg               0.00     0.00    0.00    0.00     0.00     0.00     0.00     0.00    0.00    0.00    0.00   0.00   0.00
sdh               0.00     0.00    0.00    0.00     0.00     0.00     0.00     0.00    0.00    0.00    0.00   0.00   0.00
md0               0.00     0.00 23782.00    0.00 95128.00     0.00     8.00     0.00    0.00    0.00    0.00   0.00   0.00

avg-cpu:  %user   %nice %system %iowait  %steal   %idle
           1.27    0.00    6.11   12.98    0.00   79.64

Device:         rrqm/s   wrqm/s     r/s     w/s    rkB/s    wkB/s avgrq-sz avgqu-sz   await r_await w_await  svctm  %util
sda               0.00     0.00 3959.00    0.00 15836.00     0.00     8.00     0.42    0.11    0.11    0.00   0.07  27.40
sdb               0.00     0.00 3896.00    0.00 15584.00     0.00     8.00     0.42    0.11    0.11    0.00   0.07  26.80
sdc               0.00     0.00 3845.00    0.00 15380.00     0.00     8.00     0.40    0.10    0.10    0.00   0.07  26.50
sdd               0.00     0.00 3929.00    0.00 15716.00     0.00     8.00     0.46    0.12    0.12    0.00   0.07  27.90
sde               0.00     0.00 3893.00    0.00 15572.00     0.00     8.00     0.48    0.12    0.12    0.00   0.08  29.90
sdf               0.00     0.00 3988.00    0.00 15952.00     0.00     8.00     0.41    0.10    0.10    0.00   0.07  26.90
sdg               0.00     0.00    0.00    0.00     0.00     0.00     0.00     0.00    0.00    0.00    0.00   0.00   0.00
sdh               0.00     0.00    0.00    0.00     0.00     0.00     0.00     0.00    0.00    0.00    0.00   0.00   0.00
md0               0.00     0.00 23511.00    0.00 94044.00     0.00     8.00     0.00    0.00    0.00    0.00   0.00   0.00

avg-cpu:  %user   %nice %system %iowait  %steal   %idle
           1.79    0.00    4.87    4.87    0.00   88.46

Device:         rrqm/s   wrqm/s     r/s     w/s    rkB/s    wkB/s avgrq-sz avgqu-sz   await r_await w_await  svctm  %util
sda               0.00     0.00 3781.00    0.00 15124.00     0.00     8.00     0.43    0.12    0.12    0.00   0.07  27.80
sdb               0.00     0.00 3679.00    0.00 14716.00     0.00     8.00     0.42    0.11    0.11    0.00   0.07  25.50
sdc               0.00     0.00 3801.00    0.00 15204.00     0.00     8.00     0.40    0.11    0.11    0.00   0.07  26.40
sdd               0.00     0.00 3728.00    0.00 14912.00     0.00     8.00     0.40    0.11    0.11    0.00   0.07  25.20
sde               0.00     0.00 3500.00    0.00 14000.00     0.00     8.00     0.39    0.11    0.11    0.00   0.07  26.20
sdf               0.00     0.00 3703.00    0.00 14812.00     0.00     8.00     0.43    0.12    0.12    0.00   0.07  27.20
sdg               0.00     0.00    0.00    0.00     0.00     0.00     0.00     0.00    0.00    0.00    0.00   0.00   0.00
sdh               0.00     0.00    0.00    0.00     0.00     0.00     0.00     0.00    0.00    0.00    0.00   0.00   0.00
md0               0.00     0.00 22193.00    0.00 88772.00     0.00     8.00     0.00    0.00    0.00    0.00   0.00   0.00

avg-cpu:  %user   %nice %system %iowait  %steal   %idle
           1.76    0.25    6.53    0.75    0.00   90.70

Device:         rrqm/s   wrqm/s     r/s     w/s    rkB/s    wkB/s avgrq-sz avgqu-sz   await r_await w_await  svctm  %util
sda               0.00     0.00 3548.00    0.00 14192.00     0.00     8.00     0.38    0.11    0.11    0.00   0.07  25.40
sdb               0.00     0.00 3507.00    0.00 14028.00     0.00     8.00     0.35    0.10    0.10    0.00   0.07  23.70
sdc               0.00     0.00 3507.00    0.00 14028.00     0.00     8.00     0.32    0.09    0.09    0.00   0.07  23.20
sdd               0.00     0.00 3534.00    0.00 14136.00     0.00     8.00     0.42    0.12    0.12    0.00   0.08  27.90
sde               0.00     0.00 3412.00    0.00 13648.00     0.00     8.00     0.40    0.12    0.12    0.00   0.08  27.30
sdf               0.00     0.00 3406.00    0.00 13624.00     0.00     8.00     0.38    0.11    0.11    0.00   0.08  26.30
sdg               0.00     0.00    3.00    0.00    12.00     0.00     8.00     0.00    0.33    0.33    0.00   0.33   0.10
sdh               0.00     0.00    0.00    0.00     0.00     0.00     0.00     0.00    0.00    0.00    0.00   0.00   0.00
md0               0.00     0.00 20914.00    0.00 83656.00     0.00     8.00     0.00    0.00    0.00    0.00   0.00   0.00

avg-cpu:  %user   %nice %system %iowait  %steal   %idle
           1.53    0.00    5.63    3.07    0.00   89.77

Device:         rrqm/s   wrqm/s     r/s     w/s    rkB/s    wkB/s avgrq-sz avgqu-sz   await r_await w_await  svctm  %util
sda               0.00     0.00 3232.00    0.00 12928.00     0.00     8.00     0.35    0.11    0.11    0.00   0.07  24.20
sdb               0.00     0.00 3115.00    0.00 12460.00     0.00     8.00     0.32    0.10    0.10    0.00   0.07  22.50
sdc               0.00     0.00 3252.00    0.00 13008.00     0.00     8.00     0.37    0.11    0.11    0.00   0.08  24.50
sdd               0.00     0.00 3405.00    0.00 13620.00     0.00     8.00     0.37    0.11    0.11    0.00   0.08  25.70
sde               0.00     0.00 3307.00    0.00 13228.00     0.00     8.00     0.35    0.11    0.11    0.00   0.07  23.60
sdf               0.00     0.00 3385.00    0.00 13540.00     0.00     8.00     0.35    0.10    0.10    0.00   0.07  23.50
sdg               0.00     3.00    9.00 2435.00    36.00 12200.00    10.01    15.64    6.40    0.22    6.42   0.05  11.50
sdh               0.00     0.00    0.00    0.00     0.00     0.00     0.00     0.00    0.00    0.00    0.00   0.00   0.00
md0               0.00     0.00 19695.00    0.00 78780.00     0.00     8.00     0.00    0.00    0.00    0.00   0.00   0.00

avg-cpu:  %user   %nice %system %iowait  %steal   %idle
           1.78    0.00    5.09   10.94    0.00   82.19

Device:         rrqm/s   wrqm/s     r/s     w/s    rkB/s    wkB/s avgrq-sz avgqu-sz   await r_await w_await  svctm  %util
sda               0.00     0.00 3124.00    0.00 12496.00     0.00     8.00     0.36    0.12    0.12    0.00   0.08  24.30
sdb               0.00     0.00 3008.00    0.00 12032.00     0.00     8.00     0.31    0.10    0.10    0.00   0.07  21.00
sdc               0.00     0.00 3141.00    0.00 12564.00     0.00     8.00     0.33    0.11    0.11    0.00   0.07  23.50
sdd               0.00     0.00 3135.00    0.00 12540.00     0.00     8.00     0.35    0.11    0.11    0.00   0.08  26.30
sde               0.00     0.00 3137.00    0.00 12548.00     0.00     8.00     0.33    0.10    0.10    0.00   0.07  23.30
sdf               0.00     0.00 2972.00    0.00 11888.00     0.00     8.00     0.35    0.12    0.12    0.00   0.08  24.00
sdg               0.00     0.00    0.00    0.00     0.00     0.00     0.00     0.00    0.00    0.00    0.00   0.00   0.00
sdh               0.00     0.00    0.00    0.00     0.00     0.00     0.00     0.00    0.00    0.00    0.00   0.00   0.00
md0               0.00     0.00 18514.00    0.00 74056.00     0.00     8.00     0.00    0.00    0.00    0.00   0.00   0.00

avg-cpu:  %user   %nice %system %iowait  %steal   %idle
           1.79    0.00    4.62    6.15    0.00   87.44

Device:         rrqm/s   wrqm/s     r/s     w/s    rkB/s    wkB/s avgrq-sz avgqu-sz   await r_await w_await  svctm  %util
sda               0.00     0.00 3046.00    0.00 12184.00     0.00     8.00     0.32    0.10    0.10    0.00   0.08  23.20
sdb               0.00     0.00 2973.00    0.00 11892.00     0.00     8.00     0.29    0.10    0.10    0.00   0.07  20.30
sdc               0.00     0.00 2822.00    0.00 11288.00     0.00     8.00     0.30    0.11    0.11    0.00   0.08  22.50
sdd               0.00     0.00 2932.00    0.00 11728.00     0.00     8.00     0.33    0.11    0.11    0.00   0.08  22.80
sde               0.00     0.00 2915.00    0.00 11660.00     0.00     8.00     0.33    0.11    0.11    0.00   0.08  23.40
sdf               0.00     0.00 2877.00    0.00 11508.00     0.00     8.00     0.34    0.12    0.12    0.00   0.08  24.00
sdg               0.00     0.00    0.00    0.00     0.00     0.00     0.00     0.00    0.00    0.00    0.00   0.00   0.00
sdh               0.00     0.00    0.00    0.00     0.00     0.00     0.00     0.00    0.00    0.00    0.00   0.00   0.00
md0               0.00     0.00 17567.00    0.00 70268.00     0.00     8.00     0.00    0.00    0.00    0.00   0.00   0.00

avg-cpu:  %user   %nice %system %iowait  %steal   %idle
           1.79    0.00    4.86    2.30    0.00   91.05

Device:         rrqm/s   wrqm/s     r/s     w/s    rkB/s    wkB/s avgrq-sz avgqu-sz   await r_await w_await  svctm  %util
sda               0.00     0.00 2774.00    0.00 11096.00     0.00     8.00     0.28    0.10    0.10    0.00   0.07  20.60
sdb               0.00     0.00 2642.00    0.00 10568.00     0.00     8.00     0.29    0.11    0.11    0.00   0.08  21.30
sdc               0.00     0.00 2714.00    0.00 10856.00     0.00     8.00     0.32    0.12    0.12    0.00   0.08  22.90
sdd               0.00     0.00 2736.00    0.00 10944.00     0.00     8.00     0.32    0.12    0.12    0.00   0.09  23.40
sde               0.00     0.00 2772.00    0.00 11088.00     0.00     8.00     0.31    0.11    0.11    0.00   0.09  23.60
sdf               0.00     0.00 2786.00    0.00 11144.00     0.00     8.00     0.30    0.11    0.11    0.00   0.08  21.10
sdg               0.00     0.00    0.00    0.00     0.00     0.00     0.00     0.00    0.00    0.00    0.00   0.00   0.00
sdh               0.00     0.00    0.00    0.00     0.00     0.00     0.00     0.00    0.00    0.00    0.00   0.00   0.00
md0               0.00     0.00 16422.00    0.00 65688.00     0.00     8.00     0.00    0.00    0.00    0.00   0.00   0.00

avg-cpu:  %user   %nice %system %iowait  %steal   %idle
           1.80    0.00    4.12    0.77    0.00   93.30

Device:         rrqm/s   wrqm/s     r/s     w/s    rkB/s    wkB/s avgrq-sz avgqu-sz   await r_await w_await  svctm  %util
sda               0.00     0.00 2517.00    0.00 10068.00     0.00     8.00     0.27    0.11    0.11    0.00   0.08  20.50
sdb               0.00     0.00 2701.00    0.00 10804.00     0.00     8.00     0.27    0.10    0.10    0.00   0.08  20.60
sdc               0.00     0.00 2567.00    0.00 10268.00     0.00     8.00     0.29    0.11    0.11    0.00   0.08  21.70
sdd               0.00     0.00 2499.00    0.00  9996.00     0.00     8.00     0.29    0.12    0.12    0.00   0.09  21.60
sde               0.00     0.00 2499.00    0.00  9996.00     0.00     8.00     0.27    0.11    0.11    0.00   0.08  19.80
sdf               0.00     0.00 2603.00    0.00 10412.00     0.00     8.00     0.28    0.11    0.11    0.00   0.08  21.40
sdg               0.00     0.00    0.00    0.00     0.00     0.00     0.00     0.00    0.00    0.00    0.00   0.00   0.00
sdh               0.00     0.00    0.00    0.00     0.00     0.00     0.00     0.00    0.00    0.00    0.00   0.00   0.00
md0               0.00     0.00 15386.00    0.00 61544.00     0.00     8.00     0.00    0.00    0.00    0.00   0.00   0.00

avg-cpu:  %user   %nice %system %iowait  %steal   %idle
           2.32    0.00    4.12    0.52    0.00   93.04

Device:         rrqm/s   wrqm/s     r/s     w/s    rkB/s    wkB/s avgrq-sz avgqu-sz   await r_await w_await  svctm  %util
sda               0.00     0.00 2471.00    0.00  9884.00     0.00     8.00     0.24    0.10    0.10    0.00   0.08  19.20
sdb               0.00     0.00 2454.00    0.00  9816.00     0.00     8.00     0.21    0.09    0.09    0.00   0.07  16.50
sdc               0.00     0.00 2335.00    0.00  9340.00     0.00     8.00     0.25    0.10    0.10    0.00   0.08  19.10
sdd               0.00     0.00 2358.00    0.00  9432.00     0.00     8.00     0.28    0.12    0.12    0.00   0.09  20.60
sde               0.00     0.00 2422.00    0.00  9688.00     0.00     8.00     0.27    0.11    0.11    0.00   0.08  20.50
sdf               0.00     0.00 2500.00    0.00 10000.00     0.00     8.00     0.27    0.11    0.11    0.00   0.08  20.20
sdg               0.00     0.00    0.00    0.00     0.00     0.00     0.00     0.00    0.00    0.00    0.00   0.00   0.00
sdh               0.00     0.00    0.00    0.00     0.00     0.00     0.00     0.00    0.00    0.00    0.00   0.00   0.00
md0               0.00     0.00 14541.00    0.00 58164.00     0.00     8.00     0.00    0.00    0.00    0.00   0.00   0.00

avg-cpu:  %user   %nice %system %iowait  %steal   %idle
           2.56    0.00    3.85    0.77    0.00   92.82

Device:         rrqm/s   wrqm/s     r/s     w/s    rkB/s    wkB/s avgrq-sz avgqu-sz   await r_await w_await  svctm  %util
sda               0.00     0.00 2272.00    0.00  9088.00     0.00     8.00     0.23    0.10    0.10    0.00   0.08  17.80
sdb               0.00     0.00 2281.00    0.00  9124.00     0.00     8.00     0.25    0.11    0.11    0.00   0.09  19.50
sdc               0.00     0.00 2327.00    0.00  9308.00     0.00     8.00     0.25    0.11    0.11    0.00   0.08  18.70
sdd               0.00     0.00 2228.00    0.00  8912.00     0.00     8.00     0.26    0.12    0.12    0.00   0.09  19.90
sde               0.00     0.00 2299.00    0.00  9196.00     0.00     8.00     0.27    0.12    0.12    0.00   0.09  19.60
sdf               0.00     0.00 2300.00    0.00  9200.00     0.00     8.00     0.24    0.11    0.11    0.00   0.08  19.40
sdg               0.00     0.00    0.00    0.00     0.00     0.00     0.00     0.00    0.00    0.00    0.00   0.00   0.00
sdh               0.00     0.00    0.00    0.00     0.00     0.00     0.00     0.00    0.00    0.00    0.00   0.00   0.00
md0               0.00     0.00 13707.00    0.00 54828.00     0.00     8.00     0.00    0.00    0.00    0.00   0.00   0.00

avg-cpu:  %user   %nice %system %iowait  %steal   %idle
           2.54    0.00    4.83    0.76    0.00   91.86

Device:         rrqm/s   wrqm/s     r/s     w/s    rkB/s    wkB/s avgrq-sz avgqu-sz   await r_await w_await  svctm  %util
sda               0.00     0.00 2173.00    0.00  8692.00     0.00     8.00     0.22    0.10    0.10    0.00   0.08  17.70
sdb               0.00     0.00 2214.00    0.00  8856.00     0.00     8.00     0.21    0.10    0.10    0.00   0.08  17.50
sdc               0.00     0.00 2136.00    0.00  8544.00     0.00     8.00     0.23    0.11    0.11    0.00   0.09  18.40
sdd               0.00     0.00 2097.00    0.00  8388.00     0.00     8.00     0.24    0.11    0.11    0.00   0.09  19.40
sde               0.00     0.00 2111.00    0.00  8444.00     0.00     8.00     0.22    0.10    0.10    0.00   0.08  17.90
sdf               0.00     0.00 2136.00    0.00  8544.00     0.00     8.00     0.23    0.11    0.11    0.00   0.08  17.50
sdg               0.00     0.00    0.00    0.00     0.00     0.00     0.00     0.00    0.00    0.00    0.00   0.00   0.00
sdh               0.00     0.00    0.00    0.00     0.00     0.00     0.00     0.00    0.00    0.00    0.00   0.00   0.00
md0               0.00     0.00 12868.00    0.00 51472.00     0.00     8.00     0.00    0.00    0.00    0.00   0.00   0.00

avg-cpu:  %user   %nice %system %iowait  %steal   %idle
           2.57    0.00    4.11    0.51    0.00   92.80

Device:         rrqm/s   wrqm/s     r/s     w/s    rkB/s    wkB/s avgrq-sz avgqu-sz   await r_await w_await  svctm  %util
sda               0.00     0.00 2064.00    0.00  8256.00     0.00     8.00     0.20    0.10    0.10    0.00   0.08  16.00
sdb               0.00     0.00 2010.00    0.00  8040.00     0.00     8.00     0.23    0.12    0.12    0.00   0.10  19.20
sdc               0.00     0.00 2014.00    0.00  8056.00     0.00     8.00     0.22    0.11    0.11    0.00   0.09  17.80
sdd               0.00     0.00 2109.00    0.00  8436.00     0.00     8.00     0.20    0.10    0.10    0.00   0.08  16.30
sde               0.00     0.00 1975.00    0.00  7900.00     0.00     8.00     0.20    0.10    0.10    0.00   0.08  16.50
sdf               0.00     0.00 2086.00    0.00  8344.00     0.00     8.00     0.23    0.11    0.11    0.00   0.09  18.50
sdg               0.00     0.00    0.00    0.00     0.00     0.00     0.00     0.00    0.00    0.00    0.00   0.00   0.00
sdh               0.00     0.00    0.00    0.00     0.00     0.00     0.00     0.00    0.00    0.00    0.00   0.00   0.00
md0               0.00     0.00 12257.00    0.00 49028.00     0.00     8.00     0.00    0.00    0.00    0.00   0.00   0.00

avg-cpu:  %user   %nice %system %iowait  %steal   %idle
           2.03    0.25    5.84    0.76    0.00   91.12

Device:         rrqm/s   wrqm/s     r/s     w/s    rkB/s    wkB/s avgrq-sz avgqu-sz   await r_await w_await  svctm  %util
sda               0.00     0.00 1912.00    0.00  7648.00     0.00     8.00     0.22    0.12    0.12    0.00   0.09  18.10
sdb               0.00     0.00 1921.00    0.00  7684.00     0.00     8.00     0.19    0.10    0.10    0.00   0.09  16.70
sdc               0.00     0.00 1925.00    0.00  7700.00     0.00     8.00     0.20    0.10    0.10    0.00   0.09  16.90
sdd               0.00     0.00 1933.00    0.00  7732.00     0.00     8.00     0.18    0.09    0.09    0.00   0.08  15.00
sde               0.00     0.00 1948.00    0.00  7792.00     0.00     8.00     0.24    0.12    0.12    0.00   0.10  18.80
sdf               0.00     0.00 1915.00    0.00  7660.00     0.00     8.00     0.21    0.11    0.11    0.00   0.09  17.30
sdg               0.00     0.00    7.00    0.00    28.00     0.00     8.00     0.00    0.00    0.00    0.00   0.00   0.00
sdh               0.00     0.00    0.00    0.00     0.00     0.00     0.00     0.00    0.00    0.00    0.00   0.00   0.00
md0               0.00     0.00 11553.00    0.00 46212.00     0.00     8.00     0.00    0.00    0.00    0.00   0.00   0.00

avg-cpu:  %user   %nice %system %iowait  %steal   %idle
           2.56    0.00    4.62    0.77    0.00   92.05

Device:         rrqm/s   wrqm/s     r/s     w/s    rkB/s    wkB/s avgrq-sz avgqu-sz   await r_await w_await  svctm  %util
sda               0.00     0.00 1808.00    0.00  7232.00     0.00     8.00     0.19    0.11    0.11    0.00   0.09  15.60
sdb               0.00     0.00 1737.00    0.00  6948.00     0.00     8.00     0.16    0.09    0.09    0.00   0.08  13.50
sdc               0.00     0.00 1806.00    0.00  7224.00     0.00     8.00     0.21    0.12    0.12    0.00   0.09  17.00
sdd               0.00     0.00 1858.00    0.00  7432.00     0.00     8.00     0.21    0.12    0.12    0.00   0.09  17.60
sde               0.00     0.00 1852.00    0.00  7408.00     0.00     8.00     0.21    0.11    0.11    0.00   0.09  17.40
sdf               0.00     0.00 1809.00    0.00  7236.00     0.00     8.00     0.18    0.10    0.10    0.00   0.09  15.40
sdg               0.00    10.00    0.00  104.00     0.00   532.00    10.23     0.13    1.27    0.00    1.27   0.03   0.30
sdh               0.00     0.00    0.00    0.00     0.00     0.00     0.00     0.00    0.00    0.00    0.00   0.00   0.00
md0               0.00     0.00 10870.00    0.00 43480.00     0.00     8.00     0.00    0.00    0.00    0.00   0.00   0.00

