Linux 4.17.2 (bench) 	08/04/2018 	_x86_64_	(4 CPU)

avg-cpu:  %user   %nice %system %iowait  %steal   %idle
          10.25    0.02    4.27    2.82    0.00   82.64

Device:         rrqm/s   wrqm/s     r/s     w/s    rkB/s    wkB/s avgrq-sz avgqu-sz   await r_await w_await  svctm  %util
sda              57.71     4.14 1758.41  100.11 21460.86  3063.35    26.39     1.05    0.57    0.26    5.92   0.06  11.17
sdb              57.50     4.11 1758.44  100.25 21450.48  3060.09    26.37     1.05    0.57    0.26    5.85   0.06  11.05
sdc              95.00     4.16 1718.85   99.81 21442.80  3062.49    26.95     1.47    0.81    0.44    7.12   0.08  14.55
sdd              88.61     4.13 1724.42   99.88 21427.93  3058.78    26.85     1.48    0.81    0.43    7.33   0.08  14.64
sde              90.56     4.18 1729.43   99.97 21486.53  3062.93    26.84     1.50    0.82    0.44    7.44   0.08  14.66
sdf              87.75     4.15 1731.52   99.92 21468.23  3059.86    26.79     1.54    0.84    0.43    7.90   0.08  14.70
sdg               0.00     3.16   27.09   73.16   326.82   391.73    14.33     0.44    4.38    0.20    5.93   0.08   0.79
sdh               0.00     0.13    0.02    0.23     2.16     4.94    56.82     0.00    1.15    0.65    1.19   0.21   0.01
md0               0.00     0.00 10905.94  469.06 147053.60 20968.09    29.54     0.00    0.00    0.00    0.00   0.00   0.00

avg-cpu:  %user   %nice %system %iowait  %steal   %idle
          15.77    0.03   39.99    0.08    0.00   44.14

Device:         rrqm/s   wrqm/s     r/s     w/s    rkB/s    wkB/s avgrq-sz avgqu-sz   await r_await w_await  svctm  %util
sda               0.00     0.00    0.00    0.00     0.00     0.00     0.00     0.00    0.00    0.00    0.00   0.00   0.00
sdb               0.00     0.00    0.00    0.00     0.00     0.00     0.00     0.00    0.00    0.00    0.00   0.00   0.00
sdc               0.00     0.00    0.00    0.00     0.00     0.00     0.00     0.00    0.00    0.00    0.00   0.00   0.00
sdd               0.00     0.00    0.00    0.00     0.00     0.00     0.00     0.00    0.00    0.00    0.00   0.00   0.00
sde               0.00     0.00    0.00    0.00     0.00     0.00     0.00     0.00    0.00    0.00    0.00   0.00   0.00
sdf               0.00     0.00    0.00    0.00     0.00     0.00     0.00     0.00    0.00    0.00    0.00   0.00   0.00
sdg               0.00     0.05   66.50    3.45   269.80    23.80     8.39     0.01    0.14    0.12    0.48   0.12   0.81
sdh               0.00     0.00    0.00    0.00     0.00     0.00     0.00     0.00    0.00    0.00    0.00   0.00   0.00
md0               0.00     0.00    0.00    0.00     0.00     0.00     0.00     0.00    0.00    0.00    0.00   0.00   0.00

