Linux 4.17.2 (bench) 	08/04/2018 	_x86_64_	(4 CPU)

avg-cpu:  %user   %nice %system %iowait  %steal   %idle
          10.25    0.02    4.20    2.77    0.00   82.77

Device:         rrqm/s   wrqm/s     r/s     w/s    rkB/s    wkB/s avgrq-sz avgqu-sz   await r_await w_await  svctm  %util
sda              55.59     4.17 1742.59  100.82 21465.59  3085.19    26.64     1.05    0.57    0.26    5.92   0.06  11.11
sdb              55.38     4.13 1742.62  100.96 21455.11  3081.91    26.62     1.05    0.57    0.26    5.85   0.06  10.99
sdc              93.13     4.19 1702.76  100.52 21447.35  3084.33    27.21     1.47    0.82    0.44    7.12   0.08  14.49
sdd              86.69     4.16 1708.39  100.59 21432.44  3080.59    27.10     1.48    0.82    0.43    7.33   0.08  14.59
sde              88.67     4.21 1713.46  100.68 21491.65  3084.76    27.09     1.50    0.83    0.44    7.44   0.08  14.61
sdf              85.84     4.18 1715.56  100.63 21473.20  3081.68    27.04     1.54    0.85    0.44    7.90   0.08  14.64
sdg               0.00     3.16   26.95   73.25   326.55   392.02    14.34     0.44    4.39    0.20    5.93   0.08   0.79
sdh               0.00     0.13    0.02    0.23     2.17     4.98    56.82     0.00    1.15    0.65    1.19   0.21   0.01
md0               0.00     0.00 10798.38  472.40 147172.14 21117.59    29.86     0.00    0.00    0.00    0.00   0.00   0.00

avg-cpu:  %user   %nice %system %iowait  %steal   %idle
           0.13    0.03    1.61    7.76    0.00   90.48

Device:         rrqm/s   wrqm/s     r/s     w/s    rkB/s    wkB/s avgrq-sz avgqu-sz   await r_await w_await  svctm  %util
sda               0.00     0.00 1504.35    0.00  6017.40     0.00     8.00     0.15    0.10    0.10    0.00   0.10  14.78
sdb               0.00     0.00 1502.20    0.00  6008.80     0.00     8.00     0.15    0.10    0.10    0.00   0.10  14.70
sdc               0.00     0.00 1510.35    0.00  6041.40     0.00     8.00     0.16    0.10    0.10    0.00   0.10  15.74
sdd               0.00     0.00 1511.20    0.00  6044.80     0.00     8.00     0.16    0.11    0.11    0.00   0.11  15.95
sde               0.00     0.00 1508.95    0.00  6035.80     0.00     8.00     0.16    0.11    0.11    0.00   0.11  16.02
sdf               0.00     0.00 1491.15    0.00  5964.60     0.00     8.00     0.16    0.11    0.11    0.00   0.11  15.80
sdg               0.00     0.50    2.85   70.75    28.20   372.20    10.88     0.45    6.11    0.40    6.34   0.06   0.40
sdh               0.00     0.00    0.00    0.00     0.00     0.00     0.00     0.00    0.00    0.00    0.00   0.00   0.00
md0               0.00     0.00 9028.30    0.00 36113.20     0.00     8.00     0.00    0.00    0.00    0.00   0.00   0.00

