Linux 4.17.2 (bench) 	08/04/2018 	_x86_64_	(4 CPU)

avg-cpu:  %user   %nice %system %iowait  %steal   %idle
          10.25    0.02    4.28    2.82    0.00   82.63

Device:         rrqm/s   wrqm/s     r/s     w/s    rkB/s    wkB/s avgrq-sz avgqu-sz   await r_await w_await  svctm  %util
sda              57.69     4.14 1758.47  100.06 21457.05  3061.93    26.39     1.05    0.57    0.26    5.92   0.06  11.17
sdb              57.47     4.10 1758.49  100.20 21446.67  3058.67    26.37     1.05    0.57    0.26    5.85   0.06  11.05
sdc              94.96     4.16 1718.92   99.76 21438.99  3061.07    26.94     1.47    0.81    0.44    7.12   0.08  14.55
sdd              88.57     4.13 1724.49   99.83 21424.13  3057.36    26.84     1.48    0.81    0.43    7.33   0.08  14.64
sde              90.53     4.17 1729.50   99.92 21482.70  3061.51    26.83     1.50    0.82    0.44    7.44   0.08  14.66
sdf              87.71     4.15 1731.59   99.87 21464.41  3058.44    26.78     1.54    0.84    0.43    7.90   0.08  14.69
sdg               0.00     3.16   27.10   73.16   326.84   391.71    14.33     0.44    4.38    0.20    5.93   0.08   0.79
sdh               0.00     0.13    0.02    0.23     2.16     4.94    56.82     0.00    1.15    0.65    1.19   0.21   0.01
md0               0.00     0.00 10906.12  468.84 147027.45 20958.37    29.54     0.00    0.00    0.00    0.00   0.00   0.00

avg-cpu:  %user   %nice %system %iowait  %steal   %idle
           9.82    0.03    9.72    0.72    0.00   79.72

Device:         rrqm/s   wrqm/s     r/s     w/s    rkB/s    wkB/s avgrq-sz avgqu-sz   await r_await w_await  svctm  %util
sda               0.00     0.00 1530.10    0.00  6120.40     0.00     8.00     0.16    0.10    0.10    0.00   0.08  11.79
sdb               0.00     0.00 1537.80    0.00  6151.20     0.00     8.00     0.15    0.10    0.10    0.00   0.07  11.45
sdc               0.00     0.00 1521.20    0.00  6084.80     0.00     8.00     0.17    0.11    0.11    0.00   0.08  12.56
sdd               0.00     0.00 1538.00    0.00  6152.00     0.00     8.00     0.17    0.11    0.11    0.00   0.08  12.43
sde               0.00     0.00 1520.60    0.00  6082.40     0.00     8.00     0.17    0.11    0.11    0.00   0.08  12.50
sdf               0.00     0.00 1548.35    0.00  6193.40     0.00     8.00     0.17    0.11    0.11    0.00   0.08  12.82
sdg               0.00     3.50    1.50  127.70    10.40   634.40     9.98     0.80    6.18    0.20    6.26   0.05   0.62
sdh               0.00     0.00    0.00    0.00     0.00     0.00     0.00     0.00    0.00    0.00    0.00   0.00   0.00
md0               0.00     0.00 9196.05    0.00 36784.20     0.00     8.00     0.00    0.00    0.00    0.00   0.00   0.00

