Linux 4.17.2 (bench) 	08/04/2018 	_x86_64_	(4 CPU)

avg-cpu:  %user   %nice %system %iowait  %steal   %idle
          10.25    0.02    4.20    2.78    0.00   82.75

Device:         rrqm/s   wrqm/s     r/s     w/s    rkB/s    wkB/s avgrq-sz avgqu-sz   await r_await w_await  svctm  %util
sda              55.97     4.17 1746.85  100.75 21473.80  3082.96    26.58     1.05    0.57    0.26    5.92   0.06  11.12
sdb              55.75     4.13 1746.87  100.89 21463.33  3079.68    26.57     1.05    0.57    0.26    5.85   0.06  11.00
sdc              93.48     4.19 1707.04  100.45 21455.58  3082.10    27.15     1.47    0.82    0.44    7.12   0.08  14.51
sdd              87.05     4.16 1712.66  100.51 21440.66  3078.36    27.05     1.48    0.82    0.43    7.33   0.08  14.61
sde              89.03     4.20 1717.73  100.61 21499.81  3082.54    27.04     1.50    0.83    0.44    7.44   0.08  14.63
sdf              86.20     4.17 1719.82  100.56 21481.37  3079.45    26.98     1.54    0.85    0.44    7.90   0.08  14.66
sdg               0.00     3.16   26.97   73.24   326.65   392.00    14.34     0.44    4.39    0.20    5.93   0.08   0.79
sdh               0.00     0.13    0.02    0.23     2.17     4.98    56.82     0.00    1.15    0.65    1.19   0.21   0.01
md0               0.00     0.00 10826.14  472.06 147208.07 21102.34    29.79     0.00    0.00    0.00    0.00   0.00   0.00

avg-cpu:  %user   %nice %system %iowait  %steal   %idle
           3.28    0.00   26.26   57.83    0.00   12.63

Device:         rrqm/s   wrqm/s     r/s     w/s    rkB/s    wkB/s avgrq-sz avgqu-sz   await r_await w_await  svctm  %util
sda               0.00     0.00 17265.00    0.00 69060.00     0.00     8.00     1.91    0.11    0.11    0.00   0.04  75.90
sdb               0.00     0.00 17332.00    0.00 69328.00     0.00     8.00     1.90    0.11    0.11    0.00   0.04  77.60
sdc               0.00     0.00 17613.00    0.00 70452.00     0.00     8.00     2.31    0.13    0.13    0.00   0.05  80.30
sdd               0.00     0.00 17422.00    0.00 69688.00     0.00     8.00     2.21    0.13    0.13    0.00   0.05  80.80
sde               0.00     0.00 17281.00    0.00 69124.00     0.00     8.00     2.20    0.13    0.13    0.00   0.05  80.10
sdf               0.00     0.00 17281.00    0.00 69124.00     0.00     8.00     2.22    0.13    0.13    0.00   0.05  80.00
sdg               0.00     6.00    2.00   66.00    44.00  1236.00    37.65     0.17    2.49    3.00    2.47   0.13   0.90
sdh               0.00     0.00    0.00    0.00     0.00     0.00     0.00     0.00    0.00    0.00    0.00   0.00   0.00
md0               0.00     0.00 104221.00    0.00 416884.00     0.00     8.00     0.00    0.00    0.00    0.00   0.00   0.00

avg-cpu:  %user   %nice %system %iowait  %steal   %idle
           3.32    0.00   25.77   58.67    0.00   12.24

Device:         rrqm/s   wrqm/s     r/s     w/s    rkB/s    wkB/s avgrq-sz avgqu-sz   await r_await w_await  svctm  %util
sda               0.00     0.00 17633.00    0.00 70532.00     0.00     8.00     1.93    0.11    0.11    0.00   0.04  78.30
sdb               0.00     0.00 17698.00    0.00 70792.00     0.00     8.00     2.00    0.11    0.11    0.00   0.04  79.00
sdc               0.00     0.00 17351.00    0.00 69404.00     0.00     8.00     2.25    0.13    0.13    0.00   0.05  80.70
sdd               0.00     0.00 17628.00    0.00 70512.00     0.00     8.00     2.23    0.13    0.13    0.00   0.05  80.60
sde               0.00     0.00 17498.00    0.00 69992.00     0.00     8.00     2.23    0.13    0.13    0.00   0.05  81.10
sdf               0.00     0.00 17658.00    0.00 70632.00     0.00     8.00     2.32    0.13    0.13    0.00   0.05  81.60
sdg               0.00     0.00   14.00    0.00   288.00     0.00    41.14     0.00    0.14    0.14    0.00   0.14   0.20
sdh               0.00     0.00    0.00    0.00     0.00     0.00     0.00     0.00    0.00    0.00    0.00   0.00   0.00
md0               0.00     0.00 105471.00    0.00 421884.00     0.00     8.00     0.00    0.00    0.00    0.00   0.00   0.00

avg-cpu:  %user   %nice %system %iowait  %steal   %idle
           3.32    0.00   25.32   59.34    0.00   12.02

Device:         rrqm/s   wrqm/s     r/s     w/s    rkB/s    wkB/s avgrq-sz avgqu-sz   await r_await w_await  svctm  %util
sda               0.00     0.00 17726.00    0.00 70904.00     0.00     8.00     1.91    0.11    0.11    0.00   0.04  78.80
sdb               0.00     0.00 17717.00    0.00 70868.00     0.00     8.00     1.98    0.11    0.11    0.00   0.05  79.90
sdc               0.00     0.00 17600.00    0.00 70400.00     0.00     8.00     2.27    0.13    0.13    0.00   0.05  80.80
sdd               0.00     0.00 17723.00    0.00 70892.00     0.00     8.00     2.28    0.13    0.13    0.00   0.05  81.20
sde               0.00     0.00 17403.00    0.00 69612.00     0.00     8.00     2.25    0.13    0.13    0.00   0.05  80.00
sdf               0.00     0.00 17563.00    0.00 70252.00     0.00     8.00     2.31    0.13    0.13    0.00   0.05  82.10
sdg               0.00     0.00    0.00    0.00     0.00     0.00     0.00     0.00    0.00    0.00    0.00   0.00   0.00
sdh               0.00     0.00    0.00    0.00     0.00     0.00     0.00     0.00    0.00    0.00    0.00   0.00   0.00
md0               0.00     0.00 105700.00    0.00 422800.00     0.00     8.00     0.00    0.00    0.00    0.00   0.00   0.00

avg-cpu:  %user   %nice %system %iowait  %steal   %idle
           3.59    0.00   24.87   59.23    0.00   12.31

Device:         rrqm/s   wrqm/s     r/s     w/s    rkB/s    wkB/s avgrq-sz avgqu-sz   await r_await w_await  svctm  %util
sda               0.00     0.00 17544.00    0.00 70176.00     0.00     8.00     1.95    0.11    0.11    0.00   0.04  78.30
sdb               0.00     0.00 17397.00    0.00 69588.00     0.00     8.00     1.84    0.11    0.11    0.00   0.04  77.70
sdc               0.00     0.00 17828.00    0.00 71312.00     0.00     8.00     2.39    0.13    0.13    0.00   0.05  82.30
sdd               0.00     0.00 17673.00    0.00 70692.00     0.00     8.00     2.32    0.13    0.13    0.00   0.05  80.20
sde               0.00     0.00 17514.00    0.00 70056.00     0.00     8.00     2.29    0.13    0.13    0.00   0.05  81.50
sdf               0.00     0.00 17390.00    0.00 69560.00     0.00     8.00     2.17    0.12    0.12    0.00   0.05  79.50
sdg               0.00     0.00    0.00    0.00     0.00     0.00     0.00     0.00    0.00    0.00    0.00   0.00   0.00
sdh               0.00     0.00    0.00    0.00     0.00     0.00     0.00     0.00    0.00    0.00    0.00   0.00   0.00
md0               0.00     0.00 105368.00    0.00 421472.00     0.00     8.00     0.00    0.00    0.00    0.00   0.00   0.00

avg-cpu:  %user   %nice %system %iowait  %steal   %idle
           3.33    0.00   24.87   59.49    0.00   12.31

Device:         rrqm/s   wrqm/s     r/s     w/s    rkB/s    wkB/s avgrq-sz avgqu-sz   await r_await w_await  svctm  %util
sda               0.00     0.00 17638.00    0.00 70552.00     0.00     8.00     2.00    0.11    0.11    0.00   0.05  79.40
sdb               0.00     0.00 17674.00    0.00 70696.00     0.00     8.00     1.96    0.11    0.11    0.00   0.04  78.60
sdc               0.00     0.00 17588.00    0.00 70352.00     0.00     8.00     2.31    0.13    0.13    0.00   0.05  81.10
sdd               0.00     0.00 17839.00    0.00 71356.00     0.00     8.00     2.25    0.13    0.13    0.00   0.05  80.30
sde               0.00     0.00 17347.00    0.00 69388.00     0.00     8.00     2.20    0.13    0.13    0.00   0.05  79.80
sdf               0.00     0.00 17647.00    0.00 70588.00     0.00     8.00     2.33    0.13    0.13    0.00   0.05  81.50
sdg               0.00     0.00    0.00    0.00     0.00     0.00     0.00     0.00    0.00    0.00    0.00   0.00   0.00
sdh               0.00     0.00    0.00    0.00     0.00     0.00     0.00     0.00    0.00    0.00    0.00   0.00   0.00
md0               0.00     0.00 105735.00    0.00 422940.00     0.00     8.00     0.00    0.00    0.00    0.00   0.00   0.00

avg-cpu:  %user   %nice %system %iowait  %steal   %idle
           3.56    0.00   24.94   59.54    0.00   11.96

Device:         rrqm/s   wrqm/s     r/s     w/s    rkB/s    wkB/s avgrq-sz avgqu-sz   await r_await w_await  svctm  %util
sda               0.00     0.00 17726.00    0.00 70904.00     0.00     8.00     1.98    0.11    0.11    0.00   0.05  79.80
sdb               0.00     0.00 17701.00    0.00 70804.00     0.00     8.00     2.00    0.11    0.11    0.00   0.04  79.00
sdc               0.00     0.00 17751.00    0.00 71004.00     0.00     8.00     2.27    0.13    0.13    0.00   0.05  81.50
sdd               0.00     0.00 17529.00    0.00 70116.00     0.00     8.00     2.23    0.13    0.13    0.00   0.05  80.60
sde               0.00     0.00 17584.00    0.00 70336.00     0.00     8.00     2.24    0.13    0.13    0.00   0.05  80.20
sdf               0.00     0.00 17828.00    0.00 71312.00     0.00     8.00     2.31    0.13    0.13    0.00   0.05  80.80
sdg               0.00     0.00    0.00    0.00     0.00     0.00     0.00     0.00    0.00    0.00    0.00   0.00   0.00
sdh               0.00     0.00    0.00    0.00     0.00     0.00     0.00     0.00    0.00    0.00    0.00   0.00   0.00
md0               0.00     0.00 106120.00    0.00 424480.00     0.00     8.00     0.00    0.00    0.00    0.00   0.00   0.00

avg-cpu:  %user   %nice %system %iowait  %steal   %idle
           3.07    0.00   25.06   59.59    0.00   12.28

Device:         rrqm/s   wrqm/s     r/s     w/s    rkB/s    wkB/s avgrq-sz avgqu-sz   await r_await w_await  svctm  %util
sda               0.00     0.00 17778.00    0.00 71112.00     0.00     8.00     1.88    0.11    0.11    0.00   0.04  77.40
sdb               0.00     0.00 17714.00    0.00 70856.00     0.00     8.00     2.03    0.11    0.11    0.00   0.04  78.20
sdc               0.00     0.00 17616.00    0.00 70464.00     0.00     8.00     2.29    0.13    0.13    0.00   0.04  78.80
sdd               0.00     0.00 17511.00    0.00 70044.00     0.00     8.00     2.23    0.13    0.13    0.00   0.05  81.30
sde               0.00     0.00 17429.00    0.00 69716.00     0.00     8.00     2.25    0.13    0.13    0.00   0.05  79.90
sdf               0.00     0.00 17450.00    0.00 69800.00     0.00     8.00     2.26    0.13    0.13    0.00   0.05  80.00
sdg               0.00     0.00    0.00    0.00     0.00     0.00     0.00     0.00    0.00    0.00    0.00   0.00   0.00
sdh               0.00     0.00    0.00    0.00     0.00     0.00     0.00     0.00    0.00    0.00    0.00   0.00   0.00
md0               0.00     0.00 105503.00    0.00 422012.00     0.00     8.00     0.00    0.00    0.00    0.00   0.00   0.00

avg-cpu:  %user   %nice %system %iowait  %steal   %idle
           3.36    0.00   24.03   59.95    0.00   12.66

Device:         rrqm/s   wrqm/s     r/s     w/s    rkB/s    wkB/s avgrq-sz avgqu-sz   await r_await w_await  svctm  %util
sda               0.00     0.00 17394.00    0.00 69576.00     0.00     8.00     1.99    0.11    0.11    0.00   0.05  78.80
sdb               0.00     0.00 17516.00    0.00 70064.00     0.00     8.00     1.92    0.11    0.11    0.00   0.04  77.80
sdc               0.00     0.00 17863.00    0.00 71452.00     0.00     8.00     2.27    0.13    0.13    0.00   0.04  79.80
sdd               0.00     0.00 17593.00    0.00 70372.00     0.00     8.00     2.26    0.13    0.13    0.00   0.05  79.70
sde               0.00     0.00 17557.00    0.00 70228.00     0.00     8.00     2.23    0.13    0.13    0.00   0.05  81.00
sdf               0.00     0.00 17375.00    0.00 69500.00     0.00     8.00     2.24    0.13    0.13    0.00   0.05  82.00
sdg               0.00     0.00   27.00    0.00   216.00     0.00    16.00     0.01    0.22    0.22    0.00   0.11   0.30
sdh               0.00     0.00    0.00    0.00     0.00     0.00     0.00     0.00    0.00    0.00    0.00   0.00   0.00
md0               0.00     0.00 105292.00    0.00 421168.00     0.00     8.00     0.00    0.00    0.00    0.00   0.00   0.00

avg-cpu:  %user   %nice %system %iowait  %steal   %idle
           3.32    0.00   24.81   59.85    0.00   12.02

Device:         rrqm/s   wrqm/s     r/s     w/s    rkB/s    wkB/s avgrq-sz avgqu-sz   await r_await w_await  svctm  %util
sda               0.00     0.00 17530.00    0.00 70120.00     0.00     8.00     1.98    0.11    0.11    0.00   0.04  78.60
sdb               0.00     0.00 17612.00    0.00 70448.00     0.00     8.00     1.97    0.11    0.11    0.00   0.04  78.30
sdc               0.00     0.00 17734.00    0.00 70936.00     0.00     8.00     2.25    0.13    0.13    0.00   0.05  80.30
sdd               0.00     0.00 17767.00    0.00 71068.00     0.00     8.00     2.33    0.13    0.13    0.00   0.05  81.70
sde               0.00     0.00 17611.00    0.00 70444.00     0.00     8.00     2.27    0.13    0.13    0.00   0.05  81.10
sdf               0.00     0.00 17534.00    0.00 70136.00     0.00     8.00     2.29    0.13    0.13    0.00   0.05  81.30
sdg               0.00    75.00    0.00 1366.00     0.00  7072.00    10.35     7.98    5.84    0.00    5.84   0.04   6.00
sdh               0.00     0.00    0.00    0.00     0.00     0.00     0.00     0.00    0.00    0.00    0.00   0.00   0.00
md0               0.00     0.00 105790.00    0.00 423160.00     0.00     8.00     0.00    0.00    0.00    0.00   0.00   0.00

avg-cpu:  %user   %nice %system %iowait  %steal   %idle
           3.31    0.00   24.68   59.29    0.00   12.72

Device:         rrqm/s   wrqm/s     r/s     w/s    rkB/s    wkB/s avgrq-sz avgqu-sz   await r_await w_await  svctm  %util
sda               0.00     0.00 17596.00    0.00 70384.00     0.00     8.00     1.98    0.11    0.11    0.00   0.04  78.80
sdb               0.00     0.00 17507.00    0.00 70028.00     0.00     8.00     1.96    0.11    0.11    0.00   0.04  78.20
sdc               0.00     0.00 17508.00    0.00 70032.00     0.00     8.00     2.23    0.13    0.13    0.00   0.05  80.20
sdd               0.00     0.00 17507.00    0.00 70028.00     0.00     8.00     2.27    0.13    0.13    0.00   0.05  81.30
sde               0.00     0.00 17411.00    0.00 69644.00     0.00     8.00     2.23    0.13    0.13    0.00   0.05  79.70
sdf               0.00     0.00 17620.00    0.00 70480.00     0.00     8.00     2.28    0.13    0.13    0.00   0.05  80.50
sdg               0.00     0.00    0.00    0.00     0.00     0.00     0.00     0.00    0.00    0.00    0.00   0.00   0.00
sdh               0.00     0.00    0.00    0.00     0.00     0.00     0.00     0.00    0.00    0.00    0.00   0.00   0.00
md0               0.00     0.00 105147.00    0.00 420588.00     0.00     8.00     0.00    0.00    0.00    0.00   0.00   0.00

avg-cpu:  %user   %nice %system %iowait  %steal   %idle
           3.28    0.00   24.75   59.34    0.00   12.63

Device:         rrqm/s   wrqm/s     r/s     w/s    rkB/s    wkB/s avgrq-sz avgqu-sz   await r_await w_await  svctm  %util
sda               0.00     0.00 17481.00    0.00 69924.00     0.00     8.00     1.88    0.11    0.11    0.00   0.04  76.10
sdb               0.00     0.00 17509.00    0.00 70036.00     0.00     8.00     1.96    0.11    0.11    0.00   0.04  76.60
sdc               0.00     0.00 17365.00    0.00 69460.00     0.00     8.00     2.22    0.13    0.13    0.00   0.05  80.50
sdd               0.00     0.00 17507.00    0.00 70028.00     0.00     8.00     2.26    0.13    0.13    0.00   0.05  81.50
sde               0.00     0.00 17367.00    0.00 69468.00     0.00     8.00     2.29    0.13    0.13    0.00   0.05  81.40
sdf               0.00     0.00 17616.00    0.00 70464.00     0.00     8.00     2.25    0.13    0.13    0.00   0.05  80.70
sdg               0.00     0.00    0.00    0.00     0.00     0.00     0.00     0.00    0.00    0.00    0.00   0.00   0.00
sdh               0.00     0.00    0.00    0.00     0.00     0.00     0.00     0.00    0.00    0.00    0.00   0.00   0.00
md0               0.00     0.00 104821.00    0.00 419284.00     0.00     8.00     0.00    0.00    0.00    0.00   0.00   0.00

avg-cpu:  %user   %nice %system %iowait  %steal   %idle
           3.32    0.00   24.23   59.69    0.00   12.76

Device:         rrqm/s   wrqm/s     r/s     w/s    rkB/s    wkB/s avgrq-sz avgqu-sz   await r_await w_await  svctm  %util
sda               0.00     0.00 17426.00    0.00 69704.00     0.00     8.00     1.96    0.11    0.11    0.00   0.04  77.80
sdb               0.00     0.00 17638.00    0.00 70552.00     0.00     8.00     1.96    0.11    0.11    0.00   0.04  78.50
sdc               0.00     0.00 17449.00    0.00 69796.00     0.00     8.00     2.30    0.13    0.13    0.00   0.05  80.20
sdd               0.00     0.00 17502.00    0.00 70008.00     0.00     8.00     2.28    0.13    0.13    0.00   0.05  81.20
sde               0.00     0.00 17495.00    0.00 69980.00     0.00     8.00     2.25    0.13    0.13    0.00   0.05  81.10
sdf               0.00     0.00 17683.00    0.00 70732.00     0.00     8.00     2.24    0.13    0.13    0.00   0.05  79.80
sdg               0.00     0.00    1.00   17.00    16.00   204.00    24.44     0.02    0.89    0.00    0.94   0.06   0.10
sdh               0.00     0.00    0.00    0.00     0.00     0.00     0.00     0.00    0.00    0.00    0.00   0.00   0.00
md0               0.00     0.00 105218.00    0.00 420872.00     0.00     8.00     0.00    0.00    0.00    0.00   0.00   0.00

avg-cpu:  %user   %nice %system %iowait  %steal   %idle
           3.32    0.00   23.79   60.36    0.00   12.53

Device:         rrqm/s   wrqm/s     r/s     w/s    rkB/s    wkB/s avgrq-sz avgqu-sz   await r_await w_await  svctm  %util
sda               0.00     0.00 17942.00    0.00 71768.00     0.00     8.00     2.03    0.11    0.11    0.00   0.04  79.20
sdb               0.00     0.00 17483.00    0.00 69932.00     0.00     8.00     1.91    0.11    0.11    0.00   0.04  78.60
sdc               0.00     0.00 17466.00    0.00 69864.00     0.00     8.00     2.15    0.12    0.12    0.00   0.05  79.50
sdd               0.00     0.00 17658.00    0.00 70632.00     0.00     8.00     2.25    0.13    0.13    0.00   0.05  80.40
sde               0.00     0.00 17405.00    0.00 69620.00     0.00     8.00     2.27    0.13    0.13    0.00   0.05  80.50
sdf               0.00     0.00 17815.00    0.00 71260.00     0.00     8.00     2.31    0.13    0.13    0.00   0.05  81.10
sdg               0.00     0.00    0.00    0.00     0.00     0.00     0.00     0.00    0.00    0.00    0.00   0.00   0.00
sdh               0.00     0.00    0.00    0.00     0.00     0.00     0.00     0.00    0.00    0.00    0.00   0.00   0.00
md0               0.00     0.00 105784.00    0.00 423136.00     0.00     8.00     0.00    0.00    0.00    0.00   0.00   0.00

avg-cpu:  %user   %nice %system %iowait  %steal   %idle
           3.55    0.00   24.37   59.64    0.00   12.44

Device:         rrqm/s   wrqm/s     r/s     w/s    rkB/s    wkB/s avgrq-sz avgqu-sz   await r_await w_await  svctm  %util
sda               0.00     0.00 17379.00    0.00 69516.00     0.00     8.00     1.96    0.11    0.11    0.00   0.04  77.50
sdb               0.00     0.00 17546.00    0.00 70184.00     0.00     8.00     1.90    0.11    0.11    0.00   0.04  76.80
sdc               0.00     0.00 17949.00    0.00 71796.00     0.00     8.00     2.33    0.13    0.13    0.00   0.05  81.20
sdd               0.00     0.00 17308.00    0.00 69232.00     0.00     8.00     2.23    0.13    0.13    0.00   0.05  81.20
sde               0.00     0.00 17478.00    0.00 69912.00     0.00     8.00     2.22    0.13    0.13    0.00   0.05  80.50
sdf               0.00     0.00 17719.00    0.00 70876.00     0.00     8.00     2.30    0.13    0.13    0.00   0.05  81.10
sdg               0.00     1.00    6.00    2.00    24.00    36.00    15.00     0.01    1.12    0.17    4.00   1.00   0.80
sdh               0.00     0.00    0.00    0.00     0.00     0.00     0.00     0.00    0.00    0.00    0.00   0.00   0.00
md0               0.00     0.00 105355.00    0.00 421420.00     0.00     8.00     0.00    0.00    0.00    0.00   0.00   0.00

avg-cpu:  %user   %nice %system %iowait  %steal   %idle
           3.09    0.00   23.45   60.31    0.00   13.14

Device:         rrqm/s   wrqm/s     r/s     w/s    rkB/s    wkB/s avgrq-sz avgqu-sz   await r_await w_await  svctm  %util
sda               0.00     0.00 17449.00    0.00 69796.00     0.00     8.00     1.93    0.11    0.11    0.00   0.04  77.80
sdb               0.00     0.00 17388.00    0.00 69552.00     0.00     8.00     1.96    0.11    0.11    0.00   0.04  76.00
sdc               0.00     0.00 17710.00    0.00 70840.00     0.00     8.00     2.25    0.13    0.13    0.00   0.05  79.70
sdd               0.00     0.00 17282.00    0.00 69128.00     0.00     8.00     2.18    0.13    0.13    0.00   0.05  79.80
sde               0.00     0.00 17522.00    0.00 70088.00     0.00     8.00     2.35    0.13    0.13    0.00   0.05  81.00
sdf               0.00     0.00 17509.00    0.00 70036.00     0.00     8.00     2.26    0.13    0.13    0.00   0.05  81.30
sdg               0.00     0.00    0.00    0.00     0.00     0.00     0.00     0.00    0.00    0.00    0.00   0.00   0.00
sdh               0.00     0.00    0.00    0.00     0.00     0.00     0.00     0.00    0.00    0.00    0.00   0.00   0.00
md0               0.00     0.00 104888.00    0.00 419552.00     0.00     8.00     0.00    0.00    0.00    0.00   0.00   0.00

avg-cpu:  %user   %nice %system %iowait  %steal   %idle
           3.81    0.00   23.86   59.90    0.00   12.44

Device:         rrqm/s   wrqm/s     r/s     w/s    rkB/s    wkB/s avgrq-sz avgqu-sz   await r_await w_await  svctm  %util
sda               0.00     0.00 17590.00    0.00 70360.00     0.00     8.00     1.93    0.11    0.11    0.00   0.04  77.30
sdb               0.00     0.00 17710.00    0.00 70840.00     0.00     8.00     1.90    0.11    0.11    0.00   0.04  77.70
sdc               0.00     0.00 17414.00    0.00 69656.00     0.00     8.00     2.23    0.13    0.13    0.00   0.05  81.50
sdd               0.00     0.00 17552.00    0.00 70208.00     0.00     8.00     2.26    0.13    0.13    0.00   0.05  79.60
sde               0.00     0.00 17467.00    0.00 69868.00     0.00     8.00     2.22    0.13    0.13    0.00   0.05  78.70
sdf               0.00     0.00 17712.00    0.00 70848.00     0.00     8.00     2.33    0.13    0.13    0.00   0.05  81.60
sdg               0.00     0.00    0.00    0.00     0.00     0.00     0.00     0.00    0.00    0.00    0.00   0.00   0.00
sdh               0.00     0.00    0.00    0.00     0.00     0.00     0.00     0.00    0.00    0.00    0.00   0.00   0.00
md0               0.00     0.00 105426.00    0.00 421704.00     0.00     8.00     0.00    0.00    0.00    0.00   0.00   0.00

avg-cpu:  %user   %nice %system %iowait  %steal   %idle
           3.28    0.00   24.49   59.34    0.00   12.88

Device:         rrqm/s   wrqm/s     r/s     w/s    rkB/s    wkB/s avgrq-sz avgqu-sz   await r_await w_await  svctm  %util
sda               0.00     0.00 17615.00    0.00 70460.00     0.00     8.00     1.96    0.11    0.11    0.00   0.04  78.20
sdb               0.00     0.00 17690.00    0.00 70760.00     0.00     8.00     1.98    0.11    0.11    0.00   0.04  78.40
sdc               0.00     0.00 17778.00    0.00 71112.00     0.00     8.00     2.25    0.13    0.13    0.00   0.05  80.30
sdd               0.00     0.00 17142.00    0.00 68568.00     0.00     8.00     2.22    0.13    0.13    0.00   0.05  78.70
sde               0.00     0.00 17517.00    0.00 70068.00     0.00     8.00     2.24    0.13    0.13    0.00   0.05  79.90
sdf               0.00     0.00 17219.00    0.00 68876.00     0.00     8.00     2.25    0.13    0.13    0.00   0.05  80.10
sdg               0.00     0.00    0.00    0.00     0.00     0.00     0.00     0.00    0.00    0.00    0.00   0.00   0.00
sdh               0.00     0.00    0.00    0.00     0.00     0.00     0.00     0.00    0.00    0.00    0.00   0.00   0.00
md0               0.00     0.00 104958.00    0.00 419832.00     0.00     8.00     0.00    0.00    0.00    0.00   0.00   0.00

avg-cpu:  %user   %nice %system %iowait  %steal   %idle
           3.54    0.25   24.49   58.84    0.00   12.88

Device:         rrqm/s   wrqm/s     r/s     w/s    rkB/s    wkB/s avgrq-sz avgqu-sz   await r_await w_await  svctm  %util
sda               0.00     0.00 17254.00    0.00 69016.00     0.00     8.00     1.90    0.11    0.11    0.00   0.04  75.90
sdb               0.00     0.00 17356.00    0.00 69424.00     0.00     8.00     1.95    0.11    0.11    0.00   0.05  78.40
sdc               0.00     0.00 17470.00    0.00 69880.00     0.00     8.00     2.29    0.13    0.13    0.00   0.05  79.50
sdd               0.00     0.00 17506.00    0.00 70024.00     0.00     8.00     2.24    0.13    0.13    0.00   0.05  78.80
sde               0.00     0.00 17570.00    0.00 70280.00     0.00     8.00     2.27    0.13    0.13    0.00   0.05  80.60
sdf               0.00     0.00 17300.00    0.00 69200.00     0.00     8.00     2.25    0.13    0.13    0.00   0.05  80.60
sdg               0.00     0.00    4.00    0.00    16.00     0.00     8.00     0.00    0.00    0.00    0.00   0.00   0.00
sdh               0.00     0.00    0.00    0.00     0.00     0.00     0.00     0.00    0.00    0.00    0.00   0.00   0.00
md0               0.00     0.00 104450.00    0.00 417800.00     0.00     8.00     0.00    0.00    0.00    0.00   0.00   0.00

avg-cpu:  %user   %nice %system %iowait  %steal   %idle
           3.32    0.00   23.53   60.10    0.00   13.04

Device:         rrqm/s   wrqm/s     r/s     w/s    rkB/s    wkB/s avgrq-sz avgqu-sz   await r_await w_await  svctm  %util
sda               0.00     0.00 17467.00    0.00 69868.00     0.00     8.00     1.94    0.11    0.11    0.00   0.05  79.30
sdb               0.00     0.00 17471.00    0.00 69884.00     0.00     8.00     1.91    0.11    0.11    0.00   0.04  76.40
sdc               0.00     0.00 17571.00    0.00 70284.00     0.00     8.00     2.27    0.13    0.13    0.00   0.05  79.50
sdd               0.00     0.00 17348.00    0.00 69392.00     0.00     8.00     2.25    0.13    0.13    0.00   0.05  79.70
sde               0.00     0.00 17428.00    0.00 69712.00     0.00     8.00     2.23    0.13    0.13    0.00   0.05  79.00
sdf               0.00     0.00 17351.00    0.00 69404.00     0.00     8.00     2.28    0.13    0.13    0.00   0.05  79.60
sdg               0.00     0.00    0.00   62.00     0.00   348.00    11.23     0.04    0.61    0.00    0.61   0.03   0.20
sdh               0.00     0.00    0.00    0.00     0.00     0.00     0.00     0.00    0.00    0.00    0.00   0.00   0.00
md0               0.00     0.00 104624.00    0.00 418496.00     0.00     8.00     0.00    0.00    0.00    0.00   0.00   0.00

avg-cpu:  %user   %nice %system %iowait  %steal   %idle
           3.35    0.00   22.94   60.31    0.00   13.40

Device:         rrqm/s   wrqm/s     r/s     w/s    rkB/s    wkB/s avgrq-sz avgqu-sz   await r_await w_await  svctm  %util
sda               0.00     0.00 17483.00    0.00 69932.00     0.00     8.00     2.00    0.11    0.11    0.00   0.04  78.60
sdb               0.00     0.00 17427.00    0.00 69708.00     0.00     8.00     1.89    0.11    0.11    0.00   0.04  78.40
sdc               0.00     0.00 17380.00    0.00 69520.00     0.00     8.00     2.31    0.13    0.13    0.00   0.05  80.00
sdd               0.00     0.00 17376.00    0.00 69504.00     0.00     8.00     2.23    0.13    0.13    0.00   0.05  79.20
sde               0.00     0.00 17340.00    0.00 69360.00     0.00     8.00     2.20    0.13    0.13    0.00   0.05  80.00
sdf               0.00     0.00 17393.00    0.00 69572.00     0.00     8.00     2.32    0.13    0.13    0.00   0.05  80.60
sdg               0.00     0.00    0.00    0.00     0.00     0.00     0.00     0.00    0.00    0.00    0.00   0.00   0.00
sdh               0.00     0.00    0.00    0.00     0.00     0.00     0.00     0.00    0.00    0.00    0.00   0.00   0.00
md0               0.00     0.00 104409.00    0.00 417636.00     0.00     8.00     0.00    0.00    0.00    0.00   0.00   0.00

