Linux 4.17.2 (bench) 	08/04/2018 	_x86_64_	(4 CPU)

avg-cpu:  %user   %nice %system %iowait  %steal   %idle
          10.25    0.02    4.22    2.79    0.00   82.73

Device:         rrqm/s   wrqm/s     r/s     w/s    rkB/s    wkB/s avgrq-sz avgqu-sz   await r_await w_await  svctm  %util
sda              56.56     4.17 1749.74  100.61 21473.62  3078.76    26.54     1.05    0.57    0.26    5.92   0.06  11.14
sdb              56.34     4.13 1749.76  100.75 21463.18  3075.48    26.52     1.05    0.57    0.26    5.85   0.06  11.01
sdc              94.02     4.18 1709.99  100.31 21455.45  3077.90    27.10     1.47    0.81    0.44    7.12   0.08  14.52
sdd              87.60     4.15 1715.60  100.38 21440.56  3074.17    27.00     1.48    0.81    0.43    7.33   0.08  14.62
sde              89.57     4.20 1720.66  100.47 21499.59  3078.34    26.99     1.50    0.82    0.44    7.44   0.08  14.64
sdf              86.75     4.17 1722.75  100.42 21481.17  3075.26    26.94     1.54    0.85    0.44    7.90   0.08  14.67
sdg               0.00     3.16   26.99   73.23   326.67   391.95    14.34     0.44    4.39    0.20    5.93   0.08   0.79
sdh               0.00     0.13    0.02    0.23     2.17     4.97    56.82     0.00    1.15    0.65    1.19   0.21   0.01
md0               0.00     0.00 10847.03  471.42 147190.95 21073.59    29.73     0.00    0.00    0.00    0.00   0.00   0.00

avg-cpu:  %user   %nice %system %iowait  %steal   %idle
          11.63    0.01   16.00    1.40    0.00   70.96

Device:         rrqm/s   wrqm/s     r/s     w/s    rkB/s    wkB/s avgrq-sz avgqu-sz   await r_await w_await  svctm  %util
sda               0.00     0.00 1417.90    0.00  5671.60     0.00     8.00     0.15    0.11    0.11    0.00   0.08  10.79
sdb               0.00     0.00 1414.60    0.00  5658.40     0.00     8.00     0.15    0.10    0.10    0.00   0.07  10.57
sdc               0.00     0.00 1433.05    0.00  5732.20     0.00     8.00     0.16    0.11    0.11    0.00   0.08  11.79
sdd               0.00     0.00 1410.05    0.00  5640.20     0.00     8.00     0.16    0.11    0.11    0.00   0.08  11.49
sde               0.00     0.00 1414.15    0.00  5656.60     0.00     8.00     0.16    0.11    0.11    0.00   0.08  11.50
sdf               0.00     0.00 1435.55    0.00  5742.20     0.00     8.00     0.17    0.12    0.12    0.00   0.08  11.88
sdg               0.00     0.55    0.75    7.55     8.00    45.60    12.92     0.01    1.49    0.07    1.64   0.04   0.03
sdh               0.00     0.00    0.00    0.00     0.00     0.00     0.00     0.00    0.00    0.00    0.00   0.00   0.00
md0               0.00     0.00 8525.30    0.00 34101.20     0.00     8.00     0.00    0.00    0.00    0.00   0.00   0.00

