type: aio
filename: /mnt/raid/prefetch/prefetch-16384
I/O mode: BUFFERED
workload: SEQUENTIAL
duration: 20
queue size: 128
test mode: WARMUP
file size: 17179869184
file pages: 4194304
start probability: 0.100
continue probability: 0.500
processed 22528 requests 22437.76 r/s elapsed 1.00
elapsed 1.00 : warmup interval speed 22437.76 previous 0.00
processed 46208 requests 23091.63 r/s elapsed 2.00
elapsed 2.00 : warmup interval speed 23750.09 previous 22437.76
processed 65920 requests 21962.22 r/s elapsed 3.00
elapsed 3.00 : warmup interval speed 19703.19 previous 23750.09
within 5% of the preceding interval, warmup terminating
TOTAL: 65920 requests 21962.22 r/s elapsed 3.00
