type: aio
filename: /mnt/raid/prefetch/prefetch-16384
I/O mode: DIRECT
workload: SEQUENTIAL
duration: 20
queue size: 8
test mode: TEST
file size: 17179869184
file pages: 4194304
start probability: 0.100
continue probability: 0.500
processed 31824 requests 31820.50 r/s elapsed 1.00
processed 63648 requests 31823.14 r/s elapsed 2.00
processed 95648 requests 31880.07 r/s elapsed 3.00
processed 127376 requests 31843.80 r/s elapsed 4.00
processed 159280 requests 31855.10 r/s elapsed 5.00
processed 191272 requests 31878.46 r/s elapsed 6.00
processed 223232 requests 31889.22 r/s elapsed 7.00
processed 255224 requests 31902.36 r/s elapsed 8.00
processed 286952 requests 31882.74 r/s elapsed 9.00
processed 319000 requests 31899.67 r/s elapsed 10.00
processed 350792 requests 31889.96 r/s elapsed 11.00
processed 382808 requests 31900.58 r/s elapsed 12.00
processed 414720 requests 31901.52 r/s elapsed 13.00
processed 446664 requests 31903.95 r/s elapsed 14.00
processed 478720 requests 31914.21 r/s elapsed 15.00
processed 510792 requests 31924.27 r/s elapsed 16.00
processed 542656 requests 31920.89 r/s elapsed 17.00
processed 574336 requests 31907.23 r/s elapsed 18.00
processed 606184 requests 31904.23 r/s elapsed 19.00
processed 638112 requests 31905.08 r/s elapsed 20.00
TOTAL: 638112 requests 31905.08 r/s elapsed 20.00
