type: aio
filename: /mnt/raid/prefetch/prefetch-16384
I/O mode: BUFFERED
workload: RANDOM
duration: 20
queue size: 1
test mode: TEST
file size: 17179869184
file pages: 4194304
processed 8436 requests 8435.59 r/s elapsed 1.00
processed 16960 requests 8479.59 r/s elapsed 2.00
processed 25478 requests 8492.57 r/s elapsed 3.00
processed 33958 requests 8489.41 r/s elapsed 4.00
processed 42462 requests 8492.28 r/s elapsed 5.00
processed 50974 requests 8495.60 r/s elapsed 6.00
processed 59602 requests 8514.47 r/s elapsed 7.00
processed 68212 requests 8526.43 r/s elapsed 8.00
processed 76812 requests 8534.59 r/s elapsed 9.00
processed 85411 requests 8541.02 r/s elapsed 10.00
processed 93972 requests 8542.87 r/s elapsed 11.00
processed 102579 requests 8548.22 r/s elapsed 12.00
processed 111240 requests 8556.86 r/s elapsed 13.00
processed 119950 requests 8567.77 r/s elapsed 14.00
processed 128953 requests 8596.86 r/s elapsed 15.00
processed 138038 requests 8627.36 r/s elapsed 16.00
processed 147170 requests 8657.01 r/s elapsed 17.00
processed 156239 requests 8679.92 r/s elapsed 18.00
processed 165384 requests 8704.38 r/s elapsed 19.00
processed 174250 requests 8712.48 r/s elapsed 20.00
TOTAL: 174250 requests 8712.48 r/s elapsed 20.00
