type: aio
filename: /mnt/raid/prefetch/prefetch-16384
I/O mode: DIRECT
workload: SEQUENTIAL
duration: 20
queue size: 32
test mode: TEST
file size: 17179869184
file pages: 4194304
start probability: 0.010
continue probability: 0.900
processed 64512 requests 64481.95 r/s elapsed 1.00
processed 129536 requests 64767.00 r/s elapsed 2.00
processed 194240 requests 64741.03 r/s elapsed 3.00
processed 259200 requests 64793.16 r/s elapsed 4.00
processed 324576 requests 64910.32 r/s elapsed 5.00
processed 389152 requests 64856.69 r/s elapsed 6.00
processed 454368 requests 64908.94 r/s elapsed 7.00
processed 520064 requests 65005.23 r/s elapsed 8.00
processed 586400 requests 65153.73 r/s elapsed 9.00
processed 652128 requests 65212.45 r/s elapsed 10.00
processed 718048 requests 65273.60 r/s elapsed 11.00
processed 783456 requests 65286.77 r/s elapsed 12.00
processed 848992 requests 65304.97 r/s elapsed 13.00
processed 914688 requests 65333.49 r/s elapsed 14.00
processed 980224 requests 65347.60 r/s elapsed 15.00
processed 1046624 requests 65413.22 r/s elapsed 16.00
processed 1111904 requests 65406.06 r/s elapsed 17.00
processed 1178048 requests 65445.84 r/s elapsed 18.00
processed 1243424 requests 65442.09 r/s elapsed 19.00
processed 1309056 requests 65452.16 r/s elapsed 20.00
TOTAL: 1309056 requests 65452.16 r/s elapsed 20.00
