type: aio
filename: /mnt/raid/prefetch/prefetch-16384
I/O mode: DIRECT
workload: SEQUENTIAL
duration: 20
queue size: 8
test mode: TEST
file size: 17179869184
file pages: 4194304
start probability: 0.100
continue probability: 0.100
processed 33512 requests 33508.98 r/s elapsed 1.00
processed 66576 requests 33285.25 r/s elapsed 2.00
processed 100032 requests 33342.53 r/s elapsed 3.00
processed 133088 requests 33271.28 r/s elapsed 4.00
processed 166568 requests 33313.17 r/s elapsed 5.00
processed 200072 requests 33344.50 r/s elapsed 6.00
processed 233568 requests 33366.31 r/s elapsed 7.00
processed 266928 requests 33364.99 r/s elapsed 8.00
processed 300360 requests 33373.06 r/s elapsed 9.00
processed 333744 requests 33373.81 r/s elapsed 10.00
processed 367368 requests 33396.79 r/s elapsed 11.00
processed 400552 requests 33378.95 r/s elapsed 12.00
processed 433760 requests 33365.88 r/s elapsed 13.00
processed 467280 requests 33376.56 r/s elapsed 14.00
processed 500880 requests 33391.92 r/s elapsed 15.00
processed 534304 requests 33393.57 r/s elapsed 16.00
processed 568072 requests 33415.77 r/s elapsed 17.00
processed 601648 requests 33424.38 r/s elapsed 18.00
processed 635384 requests 33441.21 r/s elapsed 19.00
processed 669048 requests 33452.38 r/s elapsed 20.00
TOTAL: 669048 requests 33452.38 r/s elapsed 20.00
