type: aio
filename: /mnt/raid/prefetch/prefetch-16384
I/O mode: DIRECT
workload: SEQUENTIAL
duration: 20
queue size: 1
test mode: TEST
file size: 17179869184
file pages: 4194304
start probability: 0.010
continue probability: 0.900
processed 13088 requests 13087.02 r/s elapsed 1.00
processed 26690 requests 13344.17 r/s elapsed 2.00
processed 40462 requests 13487.22 r/s elapsed 3.00
processed 54054 requests 13513.40 r/s elapsed 4.00
processed 67532 requests 13506.26 r/s elapsed 5.00
processed 81079 requests 13513.03 r/s elapsed 6.00
processed 94772 requests 13538.64 r/s elapsed 7.00
processed 108318 requests 13539.58 r/s elapsed 8.00
processed 121827 requests 13536.24 r/s elapsed 9.00
processed 135269 requests 13526.89 r/s elapsed 10.00
processed 148884 requests 13534.78 r/s elapsed 11.00
processed 162451 requests 13537.52 r/s elapsed 12.00
processed 175779 requests 13521.45 r/s elapsed 13.00
processed 189265 requests 13518.92 r/s elapsed 14.00
processed 202584 requests 13505.60 r/s elapsed 15.00
processed 215470 requests 13466.84 r/s elapsed 16.00
processed 228120 requests 13418.65 r/s elapsed 17.00
processed 240688 requests 13371.49 r/s elapsed 18.00
processed 253797 requests 13357.73 r/s elapsed 19.00
processed 266643 requests 13332.12 r/s elapsed 20.00
TOTAL: 266643 requests 13332.12 r/s elapsed 20.00
