type: aio
filename: /mnt/raid/prefetch/prefetch-16384
I/O mode: BUFFERED
workload: SEQUENTIAL
duration: 20
queue size: 32
test mode: TEST
file size: 17179869184
file pages: 4194304
start probability: 0.010
continue probability: 0.100
processed 9184 requests 9182.11 r/s elapsed 1.00
processed 18400 requests 9189.34 r/s elapsed 2.00
processed 27584 requests 9191.74 r/s elapsed 3.00
processed 36736 requests 9182.83 r/s elapsed 4.00
processed 46240 requests 9241.98 r/s elapsed 5.00
processed 55936 requests 9320.59 r/s elapsed 6.00
processed 65696 requests 9381.06 r/s elapsed 7.00
processed 75296 requests 9408.63 r/s elapsed 8.00
processed 84960 requests 9439.34 r/s elapsed 9.00
processed 94656 requests 9463.76 r/s elapsed 10.00
processed 104448 requests 9493.71 r/s elapsed 11.00
processed 114304 requests 9524.36 r/s elapsed 12.00
processed 124160 requests 9549.48 r/s elapsed 13.00
processed 133792 requests 9556.24 r/s elapsed 14.00
processed 143296 requests 9552.03 r/s elapsed 15.00
processed 152832 requests 9550.97 r/s elapsed 16.00
processed 162432 requests 9554.33 r/s elapsed 17.00
processed 171968 requests 9552.95 r/s elapsed 18.00
processed 181600 requests 9557.48 r/s elapsed 19.00
processed 191168 requests 9558.09 r/s elapsed 20.00
TOTAL: 191168 requests 9558.09 r/s elapsed 20.00
