type: aio
filename: /mnt/raid/prefetch/prefetch-16384
I/O mode: DIRECT
workload: SEQUENTIAL
duration: 20
queue size: 8
test mode: TEST
file size: 17179869184
file pages: 4194304
start probability: 0.100
continue probability: 0.500
processed 32240 requests 32233.49 r/s elapsed 1.00
processed 64408 requests 32200.89 r/s elapsed 2.00
processed 96360 requests 32119.76 r/s elapsed 3.00
processed 128496 requests 32123.58 r/s elapsed 4.00
processed 160584 requests 32115.67 r/s elapsed 5.00
processed 192560 requests 32093.25 r/s elapsed 6.00
processed 224664 requests 32094.52 r/s elapsed 7.00
processed 256672 requests 32083.14 r/s elapsed 8.00
processed 288480 requests 32052.90 r/s elapsed 9.00
processed 320536 requests 32052.85 r/s elapsed 10.00
processed 352504 requests 32045.26 r/s elapsed 11.00
processed 384440 requests 32036.40 r/s elapsed 12.00
processed 416472 requests 32035.54 r/s elapsed 13.00
processed 448664 requests 32047.07 r/s elapsed 14.00
processed 480608 requests 32040.32 r/s elapsed 15.00
processed 512440 requests 32027.27 r/s elapsed 16.00
processed 544560 requests 32032.84 r/s elapsed 17.00
processed 576600 requests 32033.11 r/s elapsed 18.00
processed 608760 requests 32039.72 r/s elapsed 19.00
processed 640696 requests 32034.65 r/s elapsed 20.00
TOTAL: 640696 requests 32034.65 r/s elapsed 20.00
