type: aio
filename: /mnt/raid/prefetch/prefetch-16384
I/O mode: BUFFERED
workload: SEQUENTIAL
duration: 20
queue size: 32
test mode: TEST
file size: 17179869184
file pages: 4194304
start probability: 0.010
continue probability: 0.500
processed 11136 requests 11112.94 r/s elapsed 1.00
processed 21792 requests 10875.18 r/s elapsed 2.00
processed 31552 requests 10503.83 r/s elapsed 3.00
processed 41344 requests 10332.00 r/s elapsed 4.00
processed 51232 requests 10240.65 r/s elapsed 5.00
processed 60832 requests 10135.62 r/s elapsed 6.00
processed 70592 requests 10081.54 r/s elapsed 7.00
processed 80128 requests 10015.67 r/s elapsed 8.00
processed 90592 requests 10062.86 r/s elapsed 9.00
processed 101984 requests 10195.56 r/s elapsed 10.00
processed 112704 requests 10244.73 r/s elapsed 11.00
processed 123776 requests 10312.57 r/s elapsed 12.00
processed 134528 requests 10347.53 r/s elapsed 13.00
processed 145312 requests 10378.67 r/s elapsed 14.00
processed 156064 requests 10403.87 r/s elapsed 15.00
processed 166912 requests 10431.13 r/s elapsed 16.00
processed 179296 requests 10545.70 r/s elapsed 17.00
processed 191712 requests 10649.70 r/s elapsed 18.00
processed 203552 requests 10713.25 r/s elapsed 19.00
processed 214944 requests 10746.66 r/s elapsed 20.00
TOTAL: 214944 requests 10746.66 r/s elapsed 20.00
