type: aio
filename: /mnt/raid/prefetch/prefetch-16384
I/O mode: DIRECT
workload: SEQUENTIAL
duration: 20
queue size: 32
test mode: TEST
file size: 17179869184
file pages: 4194304
start probability: 0.100
continue probability: 0.900
processed 53760 requests 53751.35 r/s elapsed 1.00
processed 107360 requests 53671.01 r/s elapsed 2.00
processed 160608 requests 53530.81 r/s elapsed 3.00
processed 213888 requests 53466.67 r/s elapsed 4.00
processed 267488 requests 53492.90 r/s elapsed 5.00
processed 320960 requests 53490.61 r/s elapsed 6.00
processed 374272 requests 53465.39 r/s elapsed 7.00
processed 427648 requests 53455.50 r/s elapsed 8.00
processed 481184 requests 53464.12 r/s elapsed 9.00
processed 534720 requests 53470.32 r/s elapsed 10.00
processed 588736 requests 53520.29 r/s elapsed 11.00
processed 642112 requests 53509.26 r/s elapsed 12.00
processed 695776 requests 53520.01 r/s elapsed 13.00
processed 749280 requests 53518.59 r/s elapsed 14.00
processed 802976 requests 53531.64 r/s elapsed 15.00
processed 856928 requests 53557.30 r/s elapsed 16.00
processed 910656 requests 53567.13 r/s elapsed 17.00
processed 963968 requests 53552.95 r/s elapsed 18.00
processed 1017440 requests 53548.38 r/s elapsed 19.00
processed 1070752 requests 53537.42 r/s elapsed 20.00
TOTAL: 1070752 requests 53537.42 r/s elapsed 20.00
