type: fadvise
filename: /mnt/raid/prefetch/prefetch-16384
I/O mode: BUFFERED
workload: SEQUENTIAL
duration: 20
queue size: 32
test mode: TEST
file size: 17179869184
file pages: 4194304
start probability: 0.100
continue probability: 0.500
processed 93984 requests 93975.17 r/s elapsed 1.00
processed 186272 requests 93119.56 r/s elapsed 2.00
processed 271296 requests 90424.49 r/s elapsed 3.00
processed 356224 requests 89050.88 r/s elapsed 4.00
processed 439904 requests 87975.06 r/s elapsed 5.00
processed 524416 requests 87399.55 r/s elapsed 6.00
processed 608224 requests 86886.34 r/s elapsed 7.00
processed 691968 requests 86494.15 r/s elapsed 8.00
processed 775648 requests 86179.84 r/s elapsed 9.00
processed 865184 requests 86515.65 r/s elapsed 10.00
processed 970656 requests 88240.50 r/s elapsed 11.00
processed 1067616 requests 88967.12 r/s elapsed 12.00
processed 1161664 requests 89357.24 r/s elapsed 13.00
processed 1257600 requests 89827.42 r/s elapsed 14.00
processed 1352576 requests 90171.19 r/s elapsed 15.00
processed 1447424 requests 90462.99 r/s elapsed 16.00
processed 1541984 requests 90703.56 r/s elapsed 17.00
processed 1637088 requests 90949.09 r/s elapsed 18.00
processed 1744800 requests 91830.67 r/s elapsed 19.00
processed 1859808 requests 92989.52 r/s elapsed 20.00
TOTAL: 1859808 requests 92989.52 r/s elapsed 20.00
