type: fadvise
filename: /mnt/raid/prefetch/prefetch-16384
I/O mode: BUFFERED
workload: SEQUENTIAL
duration: 20
queue size: 32
test mode: TEST
file size: 17179869184
file pages: 4194304
start probability: 0.010
continue probability: 0.900
processed 72864 requests 72853.95 r/s elapsed 1.00
processed 147456 requests 73704.41 r/s elapsed 2.00
processed 218656 requests 72874.48 r/s elapsed 3.00
processed 290528 requests 72626.39 r/s elapsed 4.00
processed 363488 requests 72693.17 r/s elapsed 5.00
processed 441536 requests 73588.67 r/s elapsed 6.00
processed 522656 requests 74663.03 r/s elapsed 7.00
processed 598976 requests 74871.75 r/s elapsed 8.00
processed 675648 requests 75069.47 r/s elapsed 9.00
processed 752576 requests 75256.31 r/s elapsed 10.00
processed 836320 requests 76027.97 r/s elapsed 11.00
processed 921120 requests 76758.61 r/s elapsed 12.00
processed 1003008 requests 77152.46 r/s elapsed 13.00
processed 1084192 requests 77441.84 r/s elapsed 14.00
processed 1166720 requests 77779.87 r/s elapsed 15.00
processed 1256992 requests 78561.39 r/s elapsed 16.00
processed 1344960 requests 79113.19 r/s elapsed 17.00
processed 1431040 requests 79501.95 r/s elapsed 18.00
processed 1517376 requests 79860.83 r/s elapsed 19.00
processed 1610880 requests 80541.24 r/s elapsed 20.00
TOTAL: 1610880 requests 80541.24 r/s elapsed 20.00
