type: POSIX aio
filename: /mnt/raid/prefetch/prefetch-16384
I/O mode: DIRECT
workload: SEQUENTIAL
duration: 20
threads: 1
queue size: 8
test mode: TEST
file size: 17179869184
file pages: 4194304
start probability: 0.010
continue probability: 0.100
processed 9080 requests 9073.01 r/s elapsed 1.00
processed 18064 requests 9029.49 r/s elapsed 2.00
processed 27048 requests 9015.50 r/s elapsed 3.00
processed 36008 requests 9000.11 r/s elapsed 4.00
processed 44976 requests 8993.91 r/s elapsed 5.00
processed 53944 requests 8990.17 r/s elapsed 6.00
processed 62928 requests 8989.40 r/s elapsed 7.00
processed 71920 requests 8989.65 r/s elapsed 8.00
processed 80640 requests 8959.91 r/s elapsed 9.00
processed 89488 requests 8948.70 r/s elapsed 10.00
processed 98416 requests 8946.38 r/s elapsed 11.00
processed 107328 requests 8943.93 r/s elapsed 12.00
processed 116240 requests 8941.48 r/s elapsed 13.00
processed 125264 requests 8947.24 r/s elapsed 14.00
processed 134112 requests 8940.31 r/s elapsed 15.00
processed 143048 requests 8940.21 r/s elapsed 16.00
processed 152096 requests 8946.40 r/s elapsed 17.00
processed 161288 requests 8960.18 r/s elapsed 18.00
processed 170328 requests 8964.19 r/s elapsed 19.00
processed 179248 requests 8962.01 r/s elapsed 20.00
TOTAL: 179248 requests 8962.01 r/s elapsed 20.00
