type: POSIX aio
filename: /mnt/raid/prefetch/prefetch-16384
I/O mode: BUFFERED
workload: SEQUENTIAL
duration: 20
threads: 16
queue size: 1024
test mode: WARMUP
file size: 17179869184
file pages: 4194304
start probability: 0.100
continue probability: 0.900
processed 125952 requests 125132.63 r/s elapsed 1.01
elapsed 1.01 : warmup interval speed 125132.63 previous 0.00
processed 244736 requests 122300.00 r/s elapsed 2.00
elapsed 2.00 : warmup interval speed 119433.24 previous 125132.63
within 5% of the preceding interval, warmup terminating
TOTAL: 244736 requests 122300.00 r/s elapsed 2.00
