type: POSIX aio
filename: /mnt/raid/prefetch/prefetch-16384
I/O mode: BUFFERED
workload: SEQUENTIAL
duration: 20
threads: 1
queue size: 32
test mode: WARMUP
file size: 17179869184
file pages: 4194304
start probability: 0.100
continue probability: 0.900
processed 139040 requests 138528.83 r/s elapsed 1.00
elapsed 1.00 : warmup interval speed 138528.83 previous 0.00
processed 273664 requests 136805.32 r/s elapsed 2.00
elapsed 2.00 : warmup interval speed 135069.73 previous 138528.83
within 5% of the preceding interval, warmup terminating
TOTAL: 273664 requests 136805.32 r/s elapsed 2.00
