type: POSIX aio
filename: /mnt/raid/prefetch/prefetch-16384
I/O mode: DIRECT
workload: SEQUENTIAL
duration: 20
threads: 1
queue size: 128
test mode: TEST
file size: 17179869184
file pages: 4194304
start probability: 0.010
continue probability: 0.100
processed 9216 requests 9166.97 r/s elapsed 1.01
processed 18304 requests 9148.08 r/s elapsed 2.00
processed 27392 requests 9113.67 r/s elapsed 3.01
processed 36224 requests 9043.77 r/s elapsed 4.01
processed 45440 requests 9086.67 r/s elapsed 5.00
processed 54656 requests 9095.70 r/s elapsed 6.01
processed 63872 requests 9120.04 r/s elapsed 7.00
processed 73216 requests 9136.42 r/s elapsed 8.01
processed 82304 requests 9140.59 r/s elapsed 9.00
processed 91520 requests 9149.15 r/s elapsed 10.00
processed 100736 requests 9149.44 r/s elapsed 11.01
processed 109952 requests 9155.06 r/s elapsed 12.01
processed 119168 requests 9159.36 r/s elapsed 13.01
processed 128512 requests 9178.48 r/s elapsed 14.00
processed 137856 requests 9183.99 r/s elapsed 15.01
processed 147072 requests 9185.65 r/s elapsed 16.01
processed 156160 requests 9180.61 r/s elapsed 17.01
processed 165120 requests 9166.73 r/s elapsed 18.01
processed 174208 requests 9167.19 r/s elapsed 19.00
processed 183296 requests 9161.24 r/s elapsed 20.01
TOTAL: 183296 requests 9161.24 r/s elapsed 20.01
