type: POSIX aio
filename: /mnt/raid/prefetch/prefetch-16384
I/O mode: BUFFERED
workload: SEQUENTIAL
duration: 20
threads: 1
queue size: 1
test mode: WARMUP
file size: 17179869184
file pages: 4194304
start probability: 0.100
continue probability: 0.100
processed 11280 requests 11279.67 r/s elapsed 1.00
elapsed 1.00 : warmup interval speed 11279.67 previous 0.00
processed 23214 requests 11606.79 r/s elapsed 2.00
elapsed 2.00 : warmup interval speed 11933.92 previous 11279.67
processed 35307 requests 11765.38 r/s elapsed 3.00
elapsed 3.00 : warmup interval speed 12082.27 previous 11933.92
within 5% of the preceding interval, warmup terminating
TOTAL: 35307 requests 11765.38 r/s elapsed 3.00
