type: POSIX aio
filename: /mnt/raid/prefetch/prefetch-16384
I/O mode: DIRECT
workload: SEQUENTIAL
duration: 20
threads: 32
queue size: 32
test mode: TEST
file size: 17179869184
file pages: 4194304
start probability: 0.010
continue probability: 0.100
processed 9344 requests 9320.92 r/s elapsed 1.00
processed 18624 requests 9308.06 r/s elapsed 2.00
processed 27872 requests 9290.05 r/s elapsed 3.00
processed 37184 requests 9294.58 r/s elapsed 4.00
processed 46464 requests 9291.51 r/s elapsed 5.00
processed 55680 requests 9278.28 r/s elapsed 6.00
processed 64992 requests 9282.11 r/s elapsed 7.00
processed 74240 requests 9279.00 r/s elapsed 8.00
processed 83488 requests 9273.27 r/s elapsed 9.00
processed 92736 requests 9270.95 r/s elapsed 10.00
processed 102016 requests 9273.88 r/s elapsed 11.00
processed 111296 requests 9273.23 r/s elapsed 12.00
processed 120608 requests 9276.87 r/s elapsed 13.00
processed 129888 requests 9277.35 r/s elapsed 14.00
processed 139104 requests 9273.52 r/s elapsed 15.00
processed 148416 requests 9274.37 r/s elapsed 16.00
processed 157632 requests 9271.22 r/s elapsed 17.00
processed 166848 requests 9268.20 r/s elapsed 18.00
processed 176128 requests 9268.65 r/s elapsed 19.00
processed 185312 requests 9264.50 r/s elapsed 20.00
TOTAL: 185312 requests 9264.50 r/s elapsed 20.00
