type: POSIX aio
filename: /mnt/raid/prefetch/prefetch-16384
I/O mode: DIRECT
workload: SEQUENTIAL
duration: 20
threads: 32
queue size: 1024
test mode: TEST
file size: 17179869184
file pages: 4194304
start probability: 0.100
continue probability: 0.900
processed 13312 requests 13216.90 r/s elapsed 1.01
processed 26624 requests 13210.14 r/s elapsed 2.02
processed 39936 requests 13153.88 r/s elapsed 3.04
processed 53248 requests 13096.91 r/s elapsed 4.07
processed 66560 requests 13106.78 r/s elapsed 5.08
processed 78848 requests 13122.70 r/s elapsed 6.01
processed 92160 requests 13101.18 r/s elapsed 7.03
processed 105472 requests 13133.74 r/s elapsed 8.03
processed 118784 requests 13112.31 r/s elapsed 9.06
processed 132096 requests 13111.07 r/s elapsed 10.08
processed 144384 requests 13099.17 r/s elapsed 11.02
processed 157696 requests 13094.93 r/s elapsed 12.04
processed 171008 requests 13099.10 r/s elapsed 13.05
processed 184320 requests 13110.35 r/s elapsed 14.06
processed 197632 requests 13104.41 r/s elapsed 15.08
processed 209920 requests 13101.09 r/s elapsed 16.02
processed 223232 requests 13093.28 r/s elapsed 17.05
processed 235520 requests 13083.68 r/s elapsed 18.00
processed 248832 requests 13072.75 r/s elapsed 19.03
processed 262144 requests 13083.76 r/s elapsed 20.04
TOTAL: 262144 requests 13083.76 r/s elapsed 20.04
