type: POSIX aio
filename: /mnt/raid/prefetch/prefetch-16384
I/O mode: BUFFERED
workload: SEQUENTIAL
duration: 20
threads: 16
queue size: 1024
test mode: WARMUP
file size: 17179869184
file pages: 4194304
start probability: 0.010
continue probability: 0.900
processed 19456 requests 18871.64 r/s elapsed 1.03
elapsed 1.03 : warmup interval speed 18871.64 previous 0.00
processed 37888 requests 18445.53 r/s elapsed 2.05
elapsed 2.05 : warmup interval speed 18016.13 previous 18871.64
within 5% of the preceding interval, warmup terminating
TOTAL: 37888 requests 18445.53 r/s elapsed 2.05
