type: POSIX aio
filename: /mnt/raid/prefetch/prefetch-16384
I/O mode: DIRECT
workload: SEQUENTIAL
duration: 20
threads: 1
queue size: 32
test mode: TEST
file size: 17179869184
file pages: 4194304
start probability: 0.100
continue probability: 0.100
processed 9248 requests 9243.53 r/s elapsed 1.00
processed 18464 requests 9230.26 r/s elapsed 2.00
processed 27616 requests 9204.54 r/s elapsed 3.00
processed 36832 requests 9204.94 r/s elapsed 4.00
processed 46080 requests 9211.81 r/s elapsed 5.00
processed 55296 requests 9214.43 r/s elapsed 6.00
processed 64384 requests 9194.96 r/s elapsed 7.00
processed 73472 requests 9182.79 r/s elapsed 8.00
processed 82496 requests 9163.14 r/s elapsed 9.00
processed 91648 requests 9163.48 r/s elapsed 10.00
processed 100832 requests 9164.52 r/s elapsed 11.00
processed 110048 requests 9168.30 r/s elapsed 12.00
processed 119232 requests 9169.86 r/s elapsed 13.00
processed 128352 requests 9167.07 r/s elapsed 14.00
processed 137376 requests 9158.02 r/s elapsed 15.00
processed 146432 requests 9150.70 r/s elapsed 16.00
processed 155520 requests 9148.08 r/s elapsed 17.00
processed 164512 requests 9138.22 r/s elapsed 18.00
processed 173728 requests 9142.29 r/s elapsed 19.00
processed 182944 requests 9145.57 r/s elapsed 20.00
TOTAL: 182944 requests 9145.57 r/s elapsed 20.00
