type: POSIX aio
filename: /mnt/raid/prefetch/prefetch-16384
I/O mode: BUFFERED
workload: SEQUENTIAL
duration: 20
threads: 16
queue size: 32
test mode: TEST
file size: 17179869184
file pages: 4194304
start probability: 0.100
continue probability: 0.900
processed 292736 requests 292454.07 r/s elapsed 1.00
processed 430144 requests 214790.30 r/s elapsed 2.00
processed 564512 requests 188071.36 r/s elapsed 3.00
processed 699456 requests 174690.40 r/s elapsed 4.00
processed 837696 requests 167538.46 r/s elapsed 5.00
processed 981120 requests 163519.92 r/s elapsed 6.00
processed 1122560 requests 160363.58 r/s elapsed 7.00
processed 1258624 requests 157327.29 r/s elapsed 8.00
processed 1400864 requests 155650.26 r/s elapsed 9.00
processed 1544192 requests 154409.09 r/s elapsed 10.00
processed 1685344 requests 153206.81 r/s elapsed 11.00
processed 1822368 requests 151859.14 r/s elapsed 12.00
processed 1964448 requests 151110.87 r/s elapsed 13.00
processed 2102400 requests 150171.19 r/s elapsed 14.00
processed 2240736 requests 149370.84 r/s elapsed 15.00
processed 2385984 requests 149120.08 r/s elapsed 16.00
processed 2525632 requests 148559.30 r/s elapsed 17.00
processed 2665952 requests 148087.19 r/s elapsed 18.00
processed 2808000 requests 147789.33 r/s elapsed 19.00
processed 2943648 requests 147164.59 r/s elapsed 20.00
TOTAL: 2943648 requests 147164.59 r/s elapsed 20.00
