type: POSIX aio
filename: /mnt/raid/prefetch/prefetch-16384
I/O mode: BUFFERED
workload: SEQUENTIAL
duration: 20
threads: 1
queue size: 32
test mode: WARMUP
file size: 17179869184
file pages: 4194304
start probability: 0.010
continue probability: 0.100
processed 10048 requests 10037.71 r/s elapsed 1.00
elapsed 1.00 : warmup interval speed 10037.71 previous 0.00
processed 20096 requests 10037.13 r/s elapsed 2.00
elapsed 2.00 : warmup interval speed 10036.55 previous 10037.71
within 5% of the preceding interval, warmup terminating
TOTAL: 20096 requests 10037.13 r/s elapsed 2.00
