type: POSIX aio
filename: /mnt/raid/prefetch/prefetch-16384
I/O mode: BUFFERED
workload: RANDOM
duration: 20
threads: 8
queue size: 1024
test mode: TEST
file size: 17179869184
file pages: 4194304
processed 9216 requests 8847.82 r/s elapsed 1.04
processed 18432 requests 8894.01 r/s elapsed 2.07
processed 27648 requests 8895.60 r/s elapsed 3.11
processed 35840 requests 8913.07 r/s elapsed 4.02
processed 45056 requests 8930.55 r/s elapsed 5.05
processed 54272 requests 8940.96 r/s elapsed 6.07
processed 63488 requests 8939.38 r/s elapsed 7.10
processed 71680 requests 8945.97 r/s elapsed 8.01
processed 80896 requests 8959.65 r/s elapsed 9.03
processed 90112 requests 8975.23 r/s elapsed 10.04
processed 99328 requests 8963.61 r/s elapsed 11.08
processed 108544 requests 8966.27 r/s elapsed 12.11
processed 116736 requests 8969.30 r/s elapsed 13.02
processed 125952 requests 8983.06 r/s elapsed 14.02
processed 135168 requests 8985.80 r/s elapsed 15.04
processed 144384 requests 8997.79 r/s elapsed 16.05
processed 153600 requests 9006.56 r/s elapsed 17.05
processed 162816 requests 9014.24 r/s elapsed 18.06
processed 172032 requests 9013.97 r/s elapsed 19.09
processed 181248 requests 9027.17 r/s elapsed 20.08
TOTAL: 181248 requests 9027.17 r/s elapsed 20.08
