type: POSIX aio
filename: /mnt/raid/prefetch/prefetch-16384
I/O mode: BUFFERED
workload: SEQUENTIAL
duration: 20
threads: 1
queue size: 1024
test mode: TEST
file size: 17179869184
file pages: 4194304
start probability: 0.100
continue probability: 0.900
processed 187392 requests 186922.45 r/s elapsed 1.00
processed 325632 requests 162239.24 r/s elapsed 2.01
processed 444416 requests 148061.77 r/s elapsed 3.00
processed 562176 requests 140346.57 r/s elapsed 4.01
processed 683008 requests 136498.98 r/s elapsed 5.00
processed 803840 requests 133840.59 r/s elapsed 6.01
processed 920576 requests 131499.62 r/s elapsed 7.00
processed 1037312 requests 129632.21 r/s elapsed 8.00
processed 1153024 requests 128046.91 r/s elapsed 9.00
processed 1277952 requests 127731.41 r/s elapsed 10.00
processed 1394688 requests 126780.52 r/s elapsed 11.00
processed 1507328 requests 125520.81 r/s elapsed 12.01
processed 1623040 requests 124809.53 r/s elapsed 13.00
processed 1741824 requests 124381.00 r/s elapsed 14.00
processed 1865728 requests 124376.71 r/s elapsed 15.00
processed 1979392 requests 123678.71 r/s elapsed 16.00
processed 2100224 requests 123493.15 r/s elapsed 17.01
processed 2220032 requests 123320.60 r/s elapsed 18.00
processed 2338816 requests 123035.07 r/s elapsed 19.01
processed 2452480 requests 122616.56 r/s elapsed 20.00
TOTAL: 2452480 requests 122616.56 r/s elapsed 20.00
