type: POSIX aio
filename: /mnt/raid/prefetch/prefetch-16384
I/O mode: BUFFERED
workload: SEQUENTIAL
duration: 20
threads: 16
queue size: 128
test mode: WARMUP
file size: 17179869184
file pages: 4194304
start probability: 0.010
continue probability: 0.100
processed 10112 requests 10026.28 r/s elapsed 1.01
elapsed 1.01 : warmup interval speed 10026.28 previous 0.00
processed 19968 requests 9962.33 r/s elapsed 2.00
elapsed 2.00 : warmup interval speed 9897.56 previous 10026.28
within 5% of the preceding interval, warmup terminating
TOTAL: 19968 requests 9962.33 r/s elapsed 2.00
