type: POSIX aio
filename: /mnt/raid/prefetch/prefetch-16384
I/O mode: BUFFERED
workload: SEQUENTIAL
duration: 20
threads: 1
queue size: 32
test mode: TEST
file size: 17179869184
file pages: 4194304
start probability: 0.100
continue probability: 0.100
processed 19904 requests 19877.78 r/s elapsed 1.00
processed 31776 requests 15880.30 r/s elapsed 2.00
processed 43072 requests 14347.38 r/s elapsed 3.00
processed 54784 requests 13685.59 r/s elapsed 4.00
processed 65792 requests 13150.35 r/s elapsed 5.00
processed 77920 requests 12986.18 r/s elapsed 6.00
processed 89280 requests 12754.21 r/s elapsed 7.00
processed 100928 requests 12611.63 r/s elapsed 8.00
processed 111712 requests 12410.16 r/s elapsed 9.00
processed 122624 requests 12261.27 r/s elapsed 10.00
processed 134592 requests 12233.25 r/s elapsed 11.00
processed 146112 requests 12173.79 r/s elapsed 12.00
processed 157216 requests 12092.40 r/s elapsed 13.00
processed 168320 requests 12020.79 r/s elapsed 14.00
processed 179680 requests 11978.44 r/s elapsed 15.00
processed 191328 requests 11955.79 r/s elapsed 16.00
processed 202144 requests 11888.59 r/s elapsed 17.00
processed 213600 requests 11866.14 r/s elapsed 18.00
processed 224832 requests 11830.75 r/s elapsed 19.00
processed 236256 requests 11812.56 r/s elapsed 20.00
TOTAL: 236256 requests 11812.56 r/s elapsed 20.00
