type: POSIX aio
filename: /mnt/raid/prefetch/prefetch-16384
I/O mode: DIRECT
workload: SEQUENTIAL
duration: 20
threads: 1
queue size: 8
test mode: TEST
file size: 17179869184
file pages: 4194304
start probability: 0.100
continue probability: 0.100
processed 9320 requests 9313.24 r/s elapsed 1.00
processed 18616 requests 9306.24 r/s elapsed 2.00
processed 27904 requests 9300.86 r/s elapsed 3.00
processed 37184 requests 9294.57 r/s elapsed 4.00
processed 46456 requests 9290.95 r/s elapsed 5.00
processed 55752 requests 9291.37 r/s elapsed 6.00
processed 65064 requests 9293.93 r/s elapsed 7.00
processed 74304 requests 9287.64 r/s elapsed 8.00
processed 83568 requests 9284.55 r/s elapsed 9.00
processed 92880 requests 9287.41 r/s elapsed 10.00
processed 102184 requests 9289.23 r/s elapsed 11.00
processed 111504 requests 9291.80 r/s elapsed 12.00
processed 120824 requests 9293.61 r/s elapsed 13.00
processed 130136 requests 9295.16 r/s elapsed 14.00
processed 139432 requests 9295.31 r/s elapsed 15.00
processed 148760 requests 9297.43 r/s elapsed 16.00
processed 158056 requests 9297.31 r/s elapsed 17.00
processed 167312 requests 9294.66 r/s elapsed 18.00
processed 176616 requests 9295.45 r/s elapsed 19.00
processed 185936 requests 9296.42 r/s elapsed 20.00
TOTAL: 185936 requests 9296.42 r/s elapsed 20.00
