type: POSIX aio
filename: /mnt/raid/prefetch/prefetch-16384
I/O mode: BUFFERED
workload: SEQUENTIAL
duration: 20
threads: 1
queue size: 8
test mode: WARMUP
file size: 17179869184
file pages: 4194304
start probability: 0.100
continue probability: 0.900
processed 135912 requests 135768.63 r/s elapsed 1.00
elapsed 1.00 : warmup interval speed 135768.63 previous 0.00
processed 269480 requests 134738.85 r/s elapsed 2.00
elapsed 2.00 : warmup interval speed 133706.92 previous 135768.63
within 5% of the preceding interval, warmup terminating
TOTAL: 269480 requests 134738.85 r/s elapsed 2.00
