type: POSIX aio
filename: /mnt/raid/prefetch/prefetch-16384
I/O mode: BUFFERED
workload: SEQUENTIAL
duration: 20
threads: 8
queue size: 32
test mode: TEST
file size: 17179869184
file pages: 4194304
start probability: 0.100
continue probability: 0.900
processed 294464 requests 294441.92 r/s elapsed 1.00
processed 490720 requests 245336.82 r/s elapsed 2.00
processed 629504 requests 209789.07 r/s elapsed 3.00
processed 764128 requests 191031.52 r/s elapsed 4.00
processed 901056 requests 180071.32 r/s elapsed 5.00
processed 1039968 requests 173322.37 r/s elapsed 6.00
processed 1172960 requests 167563.61 r/s elapsed 7.00
processed 1312544 requests 164067.14 r/s elapsed 8.00
processed 1449440 requests 161046.74 r/s elapsed 9.00
processed 1592928 requests 159292.29 r/s elapsed 10.00
processed 1736512 requests 157856.95 r/s elapsed 11.00
processed 1878688 requests 156529.54 r/s elapsed 12.00
processed 2017824 requests 155202.62 r/s elapsed 13.00
processed 2153728 requests 153837.22 r/s elapsed 14.00
processed 2297152 requests 153143.40 r/s elapsed 15.00
processed 2431488 requests 151966.20 r/s elapsed 16.00
processed 2574016 requests 151412.00 r/s elapsed 17.00
processed 2713472 requests 150743.96 r/s elapsed 18.00
processed 2848992 requests 149934.67 r/s elapsed 19.00
processed 2980320 requests 148990.29 r/s elapsed 20.00
TOTAL: 2980320 requests 148990.29 r/s elapsed 20.00
