type: POSIX aio
filename: /mnt/raid/prefetch/prefetch-16384
I/O mode: BUFFERED
workload: SEQUENTIAL
duration: 20
threads: 1
queue size: 1024
test mode: WARMUP
file size: 17179869184
file pages: 4194304
start probability: 0.100
continue probability: 0.500
processed 26624 requests 26001.93 r/s elapsed 1.02
elapsed 1.02 : warmup interval speed 26001.93 previous 0.00
processed 50176 requests 24468.66 r/s elapsed 2.05
elapsed 2.05 : warmup interval speed 22939.54 previous 26001.93
within 5% of the preceding interval, warmup terminating
TOTAL: 50176 requests 24468.66 r/s elapsed 2.05
