type: POSIX aio
filename: /mnt/raid/prefetch/prefetch-16384
I/O mode: DIRECT
workload: SEQUENTIAL
duration: 20
threads: 32
queue size: 1024
test mode: TEST
file size: 17179869184
file pages: 4194304
start probability: 0.010
continue probability: 0.900
processed 14336 requests 13636.72 r/s elapsed 1.05
processed 27648 requests 13586.36 r/s elapsed 2.03
processed 40960 requests 13638.89 r/s elapsed 3.00
processed 55296 requests 13614.55 r/s elapsed 4.06
processed 68608 requests 13602.85 r/s elapsed 5.04
processed 81920 requests 13579.14 r/s elapsed 6.03
processed 95232 requests 13592.87 r/s elapsed 7.01
processed 109568 requests 13581.22 r/s elapsed 8.07
processed 122880 requests 13568.19 r/s elapsed 9.06
processed 136192 requests 13540.81 r/s elapsed 10.06
processed 149504 requests 13531.93 r/s elapsed 11.05
processed 162816 requests 13532.57 r/s elapsed 12.03
processed 176128 requests 13526.22 r/s elapsed 13.02
processed 189440 requests 13512.16 r/s elapsed 14.02
processed 202752 requests 13516.64 r/s elapsed 15.00
processed 217088 requests 13508.47 r/s elapsed 16.07
processed 230400 requests 13497.30 r/s elapsed 17.07
processed 242688 requests 13482.08 r/s elapsed 18.00
processed 257024 requests 13477.53 r/s elapsed 19.07
processed 270336 requests 13482.36 r/s elapsed 20.05
TOTAL: 270336 requests 13482.36 r/s elapsed 20.05
