type: POSIX aio
filename: /mnt/raid/prefetch/prefetch-16384
I/O mode: DIRECT
workload: SEQUENTIAL
duration: 20
threads: 16
queue size: 32
test mode: TEST
file size: 17179869184
file pages: 4194304
start probability: 0.100
continue probability: 0.100
processed 9376 requests 9366.20 r/s elapsed 1.00
processed 18656 requests 9324.66 r/s elapsed 2.00
processed 28032 requests 9340.20 r/s elapsed 3.00
processed 37344 requests 9328.71 r/s elapsed 4.00
processed 46656 requests 9328.38 r/s elapsed 5.00
processed 55968 requests 9325.64 r/s elapsed 6.00
processed 65248 requests 9320.89 r/s elapsed 7.00
processed 74560 requests 9316.36 r/s elapsed 8.00
processed 83840 requests 9314.58 r/s elapsed 9.00
processed 93152 requests 9311.93 r/s elapsed 10.00
processed 102400 requests 9308.47 r/s elapsed 11.00
processed 111648 requests 9302.77 r/s elapsed 12.00
processed 120928 requests 9301.01 r/s elapsed 13.00
processed 130240 requests 9300.70 r/s elapsed 14.00
processed 139488 requests 9298.40 r/s elapsed 15.00
processed 148768 requests 9297.61 r/s elapsed 16.00
processed 158080 requests 9297.64 r/s elapsed 17.00
processed 167328 requests 9295.77 r/s elapsed 18.00
processed 176640 requests 9295.74 r/s elapsed 19.00
processed 185920 requests 9295.40 r/s elapsed 20.00
TOTAL: 185920 requests 9295.40 r/s elapsed 20.00
