type: POSIX aio
filename: /mnt/raid/prefetch/prefetch-16384
I/O mode: BUFFERED
workload: RANDOM
duration: 20
threads: 1
queue size: 1024
test mode: TEST
file size: 17179869184
file pages: 4194304
processed 9216 requests 8772.91 r/s elapsed 1.05
processed 18432 requests 8796.93 r/s elapsed 2.10
processed 26624 requests 8807.83 r/s elapsed 3.02
processed 35840 requests 8909.86 r/s elapsed 4.02
processed 45056 requests 8970.27 r/s elapsed 5.02
processed 54272 requests 9017.67 r/s elapsed 6.02
processed 63488 requests 9046.89 r/s elapsed 7.02
processed 72704 requests 9068.01 r/s elapsed 8.02
processed 81920 requests 9084.66 r/s elapsed 9.02
processed 91136 requests 9106.83 r/s elapsed 10.01
processed 100352 requests 9109.72 r/s elapsed 11.02
processed 109568 requests 9114.78 r/s elapsed 12.02
processed 118784 requests 9123.86 r/s elapsed 13.02
processed 128000 requests 9141.06 r/s elapsed 14.00
processed 138240 requests 9158.94 r/s elapsed 15.09
processed 147456 requests 9175.16 r/s elapsed 16.07
processed 156672 requests 9188.59 r/s elapsed 17.05
processed 165888 requests 9195.81 r/s elapsed 18.04
processed 175104 requests 9206.27 r/s elapsed 19.02
processed 185344 requests 9219.17 r/s elapsed 20.10
TOTAL: 185344 requests 9219.17 r/s elapsed 20.10
