type: POSIX aio
filename: /mnt/raid/prefetch/prefetch-16384
I/O mode: BUFFERED
workload: SEQUENTIAL
duration: 20
threads: 1
queue size: 1024
test mode: TEST
file size: 17179869184
file pages: 4194304
start probability: 0.010
continue probability: 0.900
processed 39936 requests 38459.65 r/s elapsed 1.04
processed 58368 requests 29007.36 r/s elapsed 2.01
processed 76800 requests 25475.81 r/s elapsed 3.01
processed 96256 requests 23956.01 r/s elapsed 4.02
processed 114688 requests 22879.08 r/s elapsed 5.01
processed 134144 requests 22281.59 r/s elapsed 6.02
processed 152576 requests 21709.72 r/s elapsed 7.03
processed 171008 requests 21309.06 r/s elapsed 8.03
processed 189440 requests 21016.93 r/s elapsed 9.01
processed 208896 requests 20813.92 r/s elapsed 10.04
processed 228352 requests 20693.15 r/s elapsed 11.04
processed 246784 requests 20558.94 r/s elapsed 12.00
processed 266240 requests 20451.60 r/s elapsed 13.02
processed 285696 requests 20364.51 r/s elapsed 14.03
processed 304128 requests 20244.25 r/s elapsed 15.02
processed 323584 requests 20185.78 r/s elapsed 16.03
processed 342016 requests 20085.22 r/s elapsed 17.03
processed 361472 requests 20049.48 r/s elapsed 18.03
processed 379904 requests 19984.94 r/s elapsed 19.01
processed 402432 requests 20112.89 r/s elapsed 20.01
TOTAL: 402432 requests 20112.89 r/s elapsed 20.01
