type: pthread aio
filename: /mnt/raid/prefetch/prefetch-16384
I/O mode: DIRECT
workload: SEQUENTIAL
duration: 20
threads: 1
queue size: 1
test mode: TEST
file size: 17179869184
file pages: 4194304
start probability: 0.100
continue probability: 0.900
processed 12007 requests 11955.83 r/s elapsed 1.00
processed 24282 requests 12139.83 r/s elapsed 2.00
processed 36867 requests 12288.79 r/s elapsed 3.00
processed 49506 requests 12375.95 r/s elapsed 4.00
processed 61922 requests 12384.37 r/s elapsed 5.00
processed 74402 requests 12399.79 r/s elapsed 6.00
processed 86940 requests 12420.00 r/s elapsed 7.00
processed 99753 requests 12468.66 r/s elapsed 8.00
processed 112598 requests 12510.52 r/s elapsed 9.00
processed 125629 requests 12562.89 r/s elapsed 10.00
processed 138641 requests 12603.67 r/s elapsed 11.00
processed 151442 requests 12618.38 r/s elapsed 12.00
processed 164231 requests 12632.64 r/s elapsed 13.00
processed 177013 requests 12643.76 r/s elapsed 14.00
processed 189767 requests 12651.01 r/s elapsed 15.00
processed 202710 requests 12669.34 r/s elapsed 16.00
processed 215684 requests 12686.87 r/s elapsed 17.00
processed 228648 requests 12702.63 r/s elapsed 18.00
processed 241661 requests 12717.98 r/s elapsed 19.00
processed 254591 requests 12729.52 r/s elapsed 20.00
TOTAL: 254591 requests 12729.52 r/s elapsed 20.00
