type: pthread aio
filename: /mnt/raid/prefetch/prefetch-16384
I/O mode: BUFFERED
workload: SEQUENTIAL
duration: 20
threads: 8
queue size: 32
test mode: TEST
file size: 17179869184
file pages: 4194304
start probability: 0.100
continue probability: 0.100
processed 49344 requests 49158.82 r/s elapsed 1.00
processed 98336 requests 48361.36 r/s elapsed 2.03
processed 145088 requests 47732.11 r/s elapsed 3.04
processed 190944 requests 47404.06 r/s elapsed 4.03
processed 237024 requests 47032.74 r/s elapsed 5.04
processed 282208 requests 46860.15 r/s elapsed 6.02
processed 328032 requests 46773.17 r/s elapsed 7.01
processed 374208 requests 46726.92 r/s elapsed 8.01
processed 420544 requests 46712.62 r/s elapsed 9.00
processed 467456 requests 46742.42 r/s elapsed 10.00
processed 514176 requests 46695.71 r/s elapsed 11.01
processed 568608 requests 47382.20 r/s elapsed 12.00
processed 623200 requests 47913.14 r/s elapsed 13.01
processed 671744 requests 47973.46 r/s elapsed 14.00
processed 720000 requests 47999.87 r/s elapsed 15.00
processed 768000 requests 47992.92 r/s elapsed 16.00
processed 816768 requests 48044.15 r/s elapsed 17.00
processed 864864 requests 48046.06 r/s elapsed 18.00
processed 912896 requests 47999.96 r/s elapsed 19.02
processed 960000 requests 47971.31 r/s elapsed 20.01
TOTAL: 960000 requests 47971.31 r/s elapsed 20.01
