type: pthread aio
filename: /mnt/raid/prefetch/prefetch-16384
I/O mode: DIRECT
workload: SEQUENTIAL
duration: 20
threads: 1
queue size: 1024
test mode: TEST
file size: 17179869184
file pages: 4194304
start probability: 0.010
continue probability: 0.900
processed 14336 requests 13555.07 r/s elapsed 1.06
processed 27648 requests 13637.53 r/s elapsed 2.03
processed 40960 requests 13642.45 r/s elapsed 3.00
processed 55296 requests 13656.60 r/s elapsed 4.05
processed 68608 requests 13678.08 r/s elapsed 5.02
processed 82944 requests 13690.60 r/s elapsed 6.06
processed 96256 requests 13685.33 r/s elapsed 7.03
processed 110592 requests 13705.67 r/s elapsed 8.07
processed 123904 requests 13702.45 r/s elapsed 9.04
processed 137216 requests 13718.45 r/s elapsed 10.00
processed 151552 requests 13715.66 r/s elapsed 11.05
processed 164864 requests 13708.15 r/s elapsed 12.03
processed 179200 requests 13711.21 r/s elapsed 13.07
processed 192512 requests 13711.22 r/s elapsed 14.04
processed 205824 requests 13690.31 r/s elapsed 15.03
processed 219136 requests 13683.53 r/s elapsed 16.01
processed 233472 requests 13691.91 r/s elapsed 17.05
processed 246784 requests 13688.98 r/s elapsed 18.03
processed 261120 requests 13697.26 r/s elapsed 19.06
processed 274432 requests 13690.04 r/s elapsed 20.05
TOTAL: 274432 requests 13690.04 r/s elapsed 20.05
