type: pthread fadvise
filename: /mnt/raid/prefetch/prefetch-16384
I/O mode: BUFFERED
workload: SEQUENTIAL
duration: 20
threads: 8
queue size: 32
test mode: TEST
file size: 17179869184
file pages: 4194304
start probability: 0.010
continue probability: 0.500
processed 118592 requests 117944.72 r/s elapsed 1.01
processed 235904 requests 117871.38 r/s elapsed 2.00
processed 354368 requests 118120.26 r/s elapsed 3.00
processed 473696 requests 118420.54 r/s elapsed 4.00
processed 595264 requests 119050.32 r/s elapsed 5.00
processed 721248 requests 120200.07 r/s elapsed 6.00
processed 847776 requests 121110.17 r/s elapsed 7.00
processed 977056 requests 122131.89 r/s elapsed 8.00
processed 1106912 requests 122989.24 r/s elapsed 9.00
processed 1238240 requests 123820.01 r/s elapsed 10.00
processed 1370336 requests 124573.68 r/s elapsed 11.00
processed 1503936 requests 125325.43 r/s elapsed 12.00
processed 1638592 requests 126044.17 r/s elapsed 13.00
processed 1772320 requests 126592.74 r/s elapsed 14.00
processed 1907904 requests 127190.82 r/s elapsed 15.00
processed 2044608 requests 127785.60 r/s elapsed 16.00
processed 2182784 requests 128397.81 r/s elapsed 17.00
processed 2322496 requests 129027.28 r/s elapsed 18.00
processed 2462752 requests 129617.48 r/s elapsed 19.00
processed 2604352 requests 130217.20 r/s elapsed 20.00
TOTAL: 2604352 requests 130217.20 r/s elapsed 20.00
