type: pthread fadvise
filename: /mnt/raid/prefetch/prefetch-16384
I/O mode: BUFFERED
workload: SEQUENTIAL
duration: 20
threads: 16
queue size: 1024
test mode: TEST
file size: 17179869184
file pages: 4194304
start probability: 0.100
continue probability: 0.500
processed 327680 requests 326116.27 r/s elapsed 1.00
processed 652288 requests 321749.54 r/s elapsed 2.03
processed 965632 requests 320255.35 r/s elapsed 3.02
processed 1319936 requests 329880.58 r/s elapsed 4.00
processed 1664000 requests 332480.09 r/s elapsed 5.00
processed 2067456 requests 344568.25 r/s elapsed 6.00
processed 2456576 requests 350825.21 r/s elapsed 7.00
processed 2887680 requests 360958.20 r/s elapsed 8.00
processed 3307520 requests 367418.65 r/s elapsed 9.00
processed 3713024 requests 371210.41 r/s elapsed 10.00
processed 4120576 requests 374550.90 r/s elapsed 11.00
processed 4533248 requests 377745.77 r/s elapsed 12.00
processed 4951040 requests 380809.63 r/s elapsed 13.00
processed 5382144 requests 384413.90 r/s elapsed 14.00
processed 5805056 requests 386960.55 r/s elapsed 15.00
processed 6234112 requests 389628.86 r/s elapsed 16.00
processed 6658048 requests 391621.46 r/s elapsed 17.00
processed 7078912 requests 393264.89 r/s elapsed 18.00
processed 7500800 requests 394741.22 r/s elapsed 19.00
processed 7921664 requests 396065.42 r/s elapsed 20.00
TOTAL: 7921664 requests 396065.42 r/s elapsed 20.00
