type: pthread aio
filename: /mnt/raid/prefetch/prefetch-16384
I/O mode: BUFFERED
workload: RANDOM
duration: 20
threads: 16
queue size: 32
test mode: WARMUP
file size: 17179869184
file pages: 4194304
processed 83936 requests 83925.84 r/s elapsed 1.00
elapsed 1.00 : warmup interval speed 83925.84 previous 0.00
processed 169312 requests 84650.75 r/s elapsed 2.00
elapsed 2.00 : warmup interval speed 85375.74 previous 83925.84
within 5% of the preceding interval, warmup terminating
TOTAL: 169312 requests 84650.75 r/s elapsed 2.00
