type: pthread fadvise
filename: /mnt/raid/prefetch/prefetch-16384
I/O mode: BUFFERED
workload: SEQUENTIAL
duration: 20
threads: 32
queue size: 32
test mode: WARMUP
file size: 17179869184
file pages: 4194304
start probability: 0.010
continue probability: 0.900
processed 67968 requests 67966.91 r/s elapsed 1.00
elapsed 1.00 : warmup interval speed 67966.91 previous 0.00
processed 136384 requests 68182.59 r/s elapsed 2.00
elapsed 2.00 : warmup interval speed 68398.22 previous 67966.91
within 5% of the preceding interval, warmup terminating
TOTAL: 136384 requests 68182.59 r/s elapsed 2.00
