type: pthread aio
filename: /mnt/raid/prefetch/prefetch-16384
I/O mode: DIRECT
workload: SEQUENTIAL
duration: 20
threads: 8
queue size: 8
test mode: TEST
file size: 17179869184
file pages: 4194304
start probability: 0.010
continue probability: 0.900
processed 36520 requests 36393.17 r/s elapsed 1.00
processed 73016 requests 36507.80 r/s elapsed 2.00
processed 109528 requests 36507.75 r/s elapsed 3.00
processed 146032 requests 36336.68 r/s elapsed 4.02
processed 181688 requests 35951.05 r/s elapsed 5.05
processed 215712 requests 35805.70 r/s elapsed 6.02
processed 250640 requests 35631.69 r/s elapsed 7.03
processed 285056 requests 35487.03 r/s elapsed 8.03
processed 319384 requests 35388.05 r/s elapsed 9.03
processed 354072 requests 35398.58 r/s elapsed 10.00
processed 389384 requests 35251.35 r/s elapsed 11.05
processed 423016 requests 35207.36 r/s elapsed 12.01
processed 457696 requests 35201.54 r/s elapsed 13.00
processed 492824 requests 35197.01 r/s elapsed 14.00
processed 527960 requests 35167.08 r/s elapsed 15.01
processed 562680 requests 35129.61 r/s elapsed 16.02
processed 597384 requests 35140.14 r/s elapsed 17.00
processed 632608 requests 35144.86 r/s elapsed 18.00
processed 667752 requests 35143.55 r/s elapsed 19.00
processed 704232 requests 35211.54 r/s elapsed 20.00
TOTAL: 704232 requests 35211.54 r/s elapsed 20.00
