type: pthread aio
filename: /mnt/raid/prefetch/prefetch-16384
I/O mode: BUFFERED
workload: SEQUENTIAL
duration: 20
threads: 32
queue size: 32
test mode: WARMUP
file size: 17179869184
file pages: 4194304
start probability: 0.100
continue probability: 0.100
processed 70272 requests 70020.42 r/s elapsed 1.00
elapsed 1.00 : warmup interval speed 70020.42 previous 0.00
processed 140864 requests 70419.61 r/s elapsed 2.00
elapsed 2.00 : warmup interval speed 70821.53 previous 70020.42
within 5% of the preceding interval, warmup terminating
TOTAL: 140864 requests 70419.61 r/s elapsed 2.00
