type: pthread fadvise
filename: /mnt/raid/prefetch/prefetch-16384
I/O mode: BUFFERED
workload: SEQUENTIAL
duration: 20
threads: 1
queue size: 1
test mode: TEST
file size: 17179869184
file pages: 4194304
start probability: 0.010
continue probability: 0.900
processed 15665 requests 15650.76 r/s elapsed 1.00
processed 31301 requests 15629.13 r/s elapsed 2.00
processed 46887 requests 15315.81 r/s elapsed 3.06
processed 61263 requests 15195.74 r/s elapsed 4.03
processed 75978 requests 15142.47 r/s elapsed 5.02
processed 90854 requests 15074.80 r/s elapsed 6.03
processed 105523 requests 15065.02 r/s elapsed 7.00
processed 120520 requests 15023.10 r/s elapsed 8.02
processed 135207 requests 14982.88 r/s elapsed 9.02
processed 149828 requests 14967.26 r/s elapsed 10.01
processed 164639 requests 14949.42 r/s elapsed 11.01
processed 179427 requests 14952.19 r/s elapsed 12.00
processed 194378 requests 14936.55 r/s elapsed 13.01
processed 209111 requests 14915.83 r/s elapsed 14.02
processed 223737 requests 14893.07 r/s elapsed 15.02
processed 238289 requests 14883.12 r/s elapsed 16.01
processed 253013 requests 14882.48 r/s elapsed 17.00
processed 267884 requests 14874.51 r/s elapsed 18.01
processed 282615 requests 14871.90 r/s elapsed 19.00
processed 297437 requests 14870.06 r/s elapsed 20.00
TOTAL: 297437 requests 14870.06 r/s elapsed 20.00
