type: pthread fadvise
filename: /mnt/raid/prefetch/prefetch-16384
I/O mode: BUFFERED
workload: SEQUENTIAL
duration: 20
threads: 1
queue size: 128
test mode: TEST
file size: 17179869184
file pages: 4194304
start probability: 0.100
continue probability: 0.900
processed 156416 requests 156354.08 r/s elapsed 1.00
processed 312704 requests 124719.71 r/s elapsed 2.51
processed 374272 requests 118756.04 r/s elapsed 3.15
processed 475136 requests 113085.51 r/s elapsed 4.20
processed 565504 requests 110688.87 r/s elapsed 5.11
processed 664192 requests 108135.20 r/s elapsed 6.14
processed 756992 requests 106319.21 r/s elapsed 7.12
processed 850560 requests 105245.60 r/s elapsed 8.08
processed 947328 requests 104046.48 r/s elapsed 9.10
processed 1040512 requests 103096.45 r/s elapsed 10.09
processed 1134080 requests 102451.87 r/s elapsed 11.07
processed 1229440 requests 101749.00 r/s elapsed 12.08
processed 1322752 requests 101156.47 r/s elapsed 13.08
processed 1416192 requests 100731.08 r/s elapsed 14.06
processed 1511040 requests 100392.56 r/s elapsed 15.05
processed 1606400 requests 100002.54 r/s elapsed 16.06
processed 1700096 requests 99843.68 r/s elapsed 17.03
processed 1797248 requests 99677.26 r/s elapsed 18.03
processed 1893888 requests 99413.02 r/s elapsed 19.05
processed 1988352 requests 99396.14 r/s elapsed 20.00
TOTAL: 1988352 requests 99396.14 r/s elapsed 20.00
