type: pthread fadvise
filename: /mnt/raid/prefetch/prefetch-16384
I/O mode: BUFFERED
workload: SEQUENTIAL
duration: 20
threads: 1
queue size: 1024
test mode: WARMUP
file size: 17179869184
file pages: 4194304
start probability: 0.010
continue probability: 0.100
processed 183296 requests 182378.64 r/s elapsed 1.01
elapsed 1.01 : warmup interval speed 182378.64 previous 0.00
processed 365568 requests 177928.42 r/s elapsed 2.05
elapsed 2.05 : warmup interval speed 173666.98 previous 182378.64
within 5% of the preceding interval, warmup terminating
TOTAL: 365568 requests 177928.42 r/s elapsed 2.05
