type: pthread aio
filename: /mnt/raid/prefetch/prefetch-16384
I/O mode: BUFFERED
workload: SEQUENTIAL
duration: 20
threads: 1
queue size: 1
test mode: WARMUP
file size: 17179869184
file pages: 4194304
start probability: 0.100
continue probability: 0.100
processed 10398 requests 10397.63 r/s elapsed 1.00
elapsed 1.00 : warmup interval speed 10397.63 previous 0.00
processed 21575 requests 10764.23 r/s elapsed 2.00
elapsed 2.00 : warmup interval speed 11129.28 previous 10397.63
processed 32292 requests 10598.17 r/s elapsed 3.05
elapsed 3.05 : warmup interval speed 10278.95 previous 11129.28
within 5% of the preceding interval, warmup terminating
TOTAL: 32292 requests 10598.17 r/s elapsed 3.05
