type: pthread aio
filename: /mnt/raid/prefetch/prefetch-16384
I/O mode: BUFFERED
workload: SEQUENTIAL
duration: 20
threads: 8
queue size: 8
test mode: TEST
file size: 17179869184
file pages: 4194304
start probability: 0.100
continue probability: 0.100
processed 38840 requests 38521.66 r/s elapsed 1.01
processed 77048 requests 37133.11 r/s elapsed 2.07
processed 111400 requests 36366.81 r/s elapsed 3.06
processed 145472 requests 35975.36 r/s elapsed 4.04
processed 179880 requests 35757.88 r/s elapsed 5.03
processed 214552 requests 35392.25 r/s elapsed 6.06
processed 247752 requests 35183.03 r/s elapsed 7.04
processed 281464 requests 35140.61 r/s elapsed 8.01
processed 316272 requests 35104.28 r/s elapsed 9.01
processed 351048 requests 35098.65 r/s elapsed 10.00
processed 386088 requests 35003.54 r/s elapsed 11.03
processed 420048 requests 34949.27 r/s elapsed 12.02
processed 454344 requests 34883.20 r/s elapsed 13.02
processed 488368 requests 34798.19 r/s elapsed 14.03
processed 526048 requests 35069.06 r/s elapsed 15.00
processed 576392 requests 36024.50 r/s elapsed 16.00
processed 616504 requests 36263.09 r/s elapsed 17.00
processed 657208 requests 36511.48 r/s elapsed 18.00
processed 696144 requests 36639.08 r/s elapsed 19.00
processed 735384 requests 36768.78 r/s elapsed 20.00
TOTAL: 735384 requests 36768.78 r/s elapsed 20.00
