type: pthread fadvise
filename: /mnt/raid/prefetch/prefetch-16384
I/O mode: BUFFERED
workload: SEQUENTIAL
duration: 20
threads: 16
queue size: 128
test mode: WARMUP
file size: 17179869184
file pages: 4194304
start probability: 0.010
continue probability: 0.100
processed 163840 requests 163745.85 r/s elapsed 1.00
elapsed 1.00 : warmup interval speed 163745.85 previous 0.00
processed 331392 requests 165633.14 r/s elapsed 2.00
elapsed 2.00 : warmup interval speed 167521.18 previous 163745.85
within 5% of the preceding interval, warmup terminating
TOTAL: 331392 requests 165633.14 r/s elapsed 2.00
