type: pthread aio
filename: /mnt/raid/prefetch/prefetch-16384
I/O mode: BUFFERED
workload: SEQUENTIAL
duration: 20
threads: 8
queue size: 128
test mode: TEST
file size: 17179869184
file pages: 4194304
start probability: 0.010
continue probability: 0.500
processed 46976 requests 46854.97 r/s elapsed 1.00
processed 93824 requests 46429.14 r/s elapsed 2.02
processed 139648 requests 46532.19 r/s elapsed 3.00
processed 187136 requests 46732.96 r/s elapsed 4.00
processed 234496 requests 46894.00 r/s elapsed 5.00
processed 282752 requests 47112.81 r/s elapsed 6.00
processed 330112 requests 47142.29 r/s elapsed 7.00
processed 379520 requests 47436.10 r/s elapsed 8.00
processed 427776 requests 47508.91 r/s elapsed 9.00
processed 475136 requests 47489.90 r/s elapsed 10.00
processed 525696 requests 47782.24 r/s elapsed 11.00
processed 575104 requests 47920.84 r/s elapsed 12.00
processed 625408 requests 48102.74 r/s elapsed 13.00
processed 677248 requests 48361.27 r/s elapsed 14.00
processed 727808 requests 48514.62 r/s elapsed 15.00
processed 781824 requests 48862.97 r/s elapsed 16.00
processed 837632 requests 49267.33 r/s elapsed 17.00
processed 895360 requests 49737.61 r/s elapsed 18.00
processed 952704 requests 50138.97 r/s elapsed 19.00
processed 1011456 requests 50570.27 r/s elapsed 20.00
TOTAL: 1011456 requests 50570.27 r/s elapsed 20.00
