type: pthread aio
filename: /mnt/raid/prefetch/prefetch-16384
I/O mode: BUFFERED
workload: SEQUENTIAL
duration: 20
threads: 32
queue size: 128
test mode: TEST
file size: 17179869184
file pages: 4194304
start probability: 0.010
continue probability: 0.900
processed 128000 requests 51042.04 r/s elapsed 2.51
processed 153216 requests 45956.73 r/s elapsed 3.33
processed 183936 requests 42766.26 r/s elapsed 4.30
processed 213888 requests 40400.17 r/s elapsed 5.29
processed 242432 requests 38953.36 r/s elapsed 6.22
processed 272768 requests 37568.23 r/s elapsed 7.26
processed 300672 requests 36640.77 r/s elapsed 8.21
processed 329856 requests 35882.28 r/s elapsed 9.19
processed 358912 requests 35438.51 r/s elapsed 10.13
processed 389888 requests 35247.13 r/s elapsed 11.06
processed 424320 requests 35358.80 r/s elapsed 12.00
processed 459776 requests 35292.17 r/s elapsed 13.03
processed 494208 requests 35233.41 r/s elapsed 14.03
processed 528512 requests 35167.10 r/s elapsed 15.03
processed 562688 requests 35064.36 r/s elapsed 16.05
processed 596096 requests 34969.22 r/s elapsed 17.05
processed 629504 requests 34883.30 r/s elapsed 18.05
processed 662784 requests 34868.18 r/s elapsed 19.01
processed 697472 requests 34848.24 r/s elapsed 20.01
TOTAL: 697472 requests 34848.24 r/s elapsed 20.01
