type: pthread fadvise
filename: /mnt/raid/prefetch/prefetch-16384
I/O mode: BUFFERED
workload: SEQUENTIAL
duration: 20
threads: 1
queue size: 1024
test mode: WARMUP
file size: 17179869184
file pages: 4194304
start probability: 0.100
continue probability: 0.100
processed 226304 requests 225755.41 r/s elapsed 1.00
elapsed 1.00 : warmup interval speed 225755.41 previous 0.00
processed 457728 requests 228793.19 r/s elapsed 2.00
elapsed 2.00 : warmup interval speed 231843.87 previous 225755.41
within 5% of the preceding interval, warmup terminating
TOTAL: 457728 requests 228793.19 r/s elapsed 2.00
