type: pthread aio
filename: /mnt/raid/prefetch/prefetch-16384
I/O mode: BUFFERED
workload: SEQUENTIAL
duration: 20
threads: 1
queue size: 32
test mode: WARMUP
file size: 17179869184
file pages: 4194304
start probability: 0.100
continue probability: 0.100
processed 10432 requests 10404.43 r/s elapsed 1.00
elapsed 1.00 : warmup interval speed 10404.43 previous 0.00
processed 20832 requests 10021.49 r/s elapsed 2.08
elapsed 2.08 : warmup interval speed 9664.68 previous 10404.43
within 5% of the preceding interval, warmup terminating
TOTAL: 20832 requests 10021.49 r/s elapsed 2.08
