type: pthread fadvise
filename: /mnt/raid/prefetch/prefetch-16384
I/O mode: BUFFERED
workload: SEQUENTIAL
duration: 20
threads: 16
queue size: 128
test mode: WARMUP
file size: 17179869184
file pages: 4194304
start probability: 0.010
continue probability: 0.900
processed 130048 requests 129877.99 r/s elapsed 1.00
elapsed 1.00 : warmup interval speed 129877.99 previous 0.00
processed 262912 requests 131434.31 r/s elapsed 2.00
elapsed 2.00 : warmup interval speed 132994.20 previous 129877.99
within 5% of the preceding interval, warmup terminating
TOTAL: 262912 requests 131434.31 r/s elapsed 2.00
