type: pthread fadvise
filename: /mnt/raid/prefetch/prefetch-16384
I/O mode: BUFFERED
workload: SEQUENTIAL
duration: 20
threads: 16
queue size: 32
test mode: TEST
file size: 17179869184
file pages: 4194304
start probability: 0.010
continue probability: 0.500
processed 115264 requests 115060.92 r/s elapsed 1.00
processed 230848 requests 115401.96 r/s elapsed 2.00
processed 349408 requests 116467.31 r/s elapsed 3.00
processed 470016 requests 117501.41 r/s elapsed 4.00
processed 591392 requests 118275.66 r/s elapsed 5.00
processed 713024 requests 118820.68 r/s elapsed 6.00
processed 836128 requests 119443.56 r/s elapsed 7.00
processed 960128 requests 120011.08 r/s elapsed 8.00
processed 1085504 requests 120611.56 r/s elapsed 9.00
processed 1212704 requests 121268.13 r/s elapsed 10.00
processed 1340256 requests 121838.45 r/s elapsed 11.00
processed 1468544 requests 122377.31 r/s elapsed 12.00
processed 1598560 requests 122965.64 r/s elapsed 13.00
processed 1732512 requests 123748.64 r/s elapsed 14.00
processed 1867872 requests 124522.87 r/s elapsed 15.00
processed 2002688 requests 125167.74 r/s elapsed 16.00
processed 2140160 requests 125890.22 r/s elapsed 17.00
processed 2279200 requests 126620.50 r/s elapsed 18.00
processed 2418880 requests 127308.34 r/s elapsed 19.00
processed 2559648 requests 127980.56 r/s elapsed 20.00
TOTAL: 2559648 requests 127980.56 r/s elapsed 20.00
