type: pthread fadvise
filename: /mnt/raid/prefetch/prefetch-16384
I/O mode: BUFFERED
workload: SEQUENTIAL
duration: 20
threads: 16
queue size: 128
test mode: TEST
file size: 17179869184
file pages: 4194304
start probability: 0.100
continue probability: 0.500
processed 214528 requests 214473.74 r/s elapsed 1.00
processed 429056 requests 211099.01 r/s elapsed 2.03
processed 633344 requests 204144.76 r/s elapsed 3.10
processed 816640 requests 201035.06 r/s elapsed 4.06
processed 1033728 requests 206743.20 r/s elapsed 5.00
processed 1268480 requests 211404.14 r/s elapsed 6.00
processed 1483264 requests 211879.66 r/s elapsed 7.00
processed 1704448 requests 213051.42 r/s elapsed 8.00
processed 1968128 requests 218680.40 r/s elapsed 9.00
processed 2216704 requests 221669.96 r/s elapsed 10.00
processed 2455424 requests 223218.70 r/s elapsed 11.00
processed 2731904 requests 227654.17 r/s elapsed 12.00
processed 3009664 requests 231509.41 r/s elapsed 13.00
processed 3272320 requests 233734.25 r/s elapsed 14.00
processed 3531904 requests 235452.97 r/s elapsed 15.00
processed 3792000 requests 236953.29 r/s elapsed 16.00
processed 4050944 requests 238286.44 r/s elapsed 17.00
processed 4311296 requests 239514.67 r/s elapsed 18.00
processed 4579584 requests 240997.31 r/s elapsed 19.00
processed 4845440 requests 242263.81 r/s elapsed 20.00
TOTAL: 4845440 requests 242263.81 r/s elapsed 20.00
