type: pthread aio
filename: /mnt/raid/prefetch/prefetch-16384
I/O mode: DIRECT
workload: SEQUENTIAL
duration: 20
threads: 8
queue size: 128
test mode: TEST
file size: 17179869184
file pages: 4194304
start probability: 0.100
continue probability: 0.100
processed 63488 requests 63433.32 r/s elapsed 1.00
processed 127360 requests 63637.17 r/s elapsed 2.00
processed 191744 requests 63896.48 r/s elapsed 3.00
processed 255616 requests 63792.04 r/s elapsed 4.01
processed 318976 requests 62639.72 r/s elapsed 5.09
processed 375936 requests 62050.57 r/s elapsed 6.06
processed 434432 requests 61710.52 r/s elapsed 7.04
processed 493696 requests 61362.76 r/s elapsed 8.05
processed 552320 requests 61074.89 r/s elapsed 9.04
processed 610816 requests 60909.97 r/s elapsed 10.03
processed 670080 requests 60762.60 r/s elapsed 11.03
processed 729216 requests 60663.45 r/s elapsed 12.02
processed 788736 requests 60572.77 r/s elapsed 13.02
processed 848128 requests 60408.90 r/s elapsed 14.04
processed 906240 requests 60272.85 r/s elapsed 15.04
processed 964480 requests 60190.49 r/s elapsed 16.02
processed 1023360 requests 60128.27 r/s elapsed 17.02
processed 1082368 requests 60091.75 r/s elapsed 18.01
processed 1141760 requests 59991.17 r/s elapsed 19.03
processed 1200000 requests 59997.25 r/s elapsed 20.00
TOTAL: 1200000 requests 59997.25 r/s elapsed 20.00
