type: pthread fadvise
filename: /mnt/raid/prefetch/prefetch-16384
I/O mode: BUFFERED
workload: SEQUENTIAL
duration: 20
threads: 16
queue size: 1024
test mode: TEST
file size: 17179869184
file pages: 4194304
start probability: 0.010
continue probability: 0.100
processed 189440 requests 189365.77 r/s elapsed 1.00
processed 386048 requests 192779.84 r/s elapsed 2.00
processed 586752 requests 195514.85 r/s elapsed 3.00
processed 793600 requests 198201.85 r/s elapsed 4.00
processed 1005568 requests 200997.18 r/s elapsed 5.00
processed 1224704 requests 203996.43 r/s elapsed 6.00
processed 1452032 requests 207329.57 r/s elapsed 7.00
processed 1687552 requests 210877.02 r/s elapsed 8.00
processed 1928192 requests 214223.51 r/s elapsed 9.00
processed 2174976 requests 217469.83 r/s elapsed 10.00
processed 2429952 requests 220883.70 r/s elapsed 11.00
processed 2688000 requests 223964.33 r/s elapsed 12.00
processed 2945024 requests 226475.24 r/s elapsed 13.00
processed 3203072 requests 228760.78 r/s elapsed 14.00
processed 3461120 requests 230716.48 r/s elapsed 15.00
processed 3720192 requests 232470.08 r/s elapsed 16.00
processed 3978240 requests 234011.42 r/s elapsed 17.00
processed 4239360 requests 235508.02 r/s elapsed 18.00
processed 4500480 requests 236852.30 r/s elapsed 19.00
processed 4760576 requests 237999.47 r/s elapsed 20.00
TOTAL: 4760576 requests 237999.47 r/s elapsed 20.00
