type: pthread fadvise
filename: /mnt/raid/prefetch/prefetch-16384
I/O mode: BUFFERED
workload: RANDOM
duration: 20
threads: 1
queue size: 1024
test mode: TEST
file size: 17179869184
file pages: 4194304
processed 188416 requests 187561.47 r/s elapsed 1.00
processed 379904 requests 189936.52 r/s elapsed 2.00
processed 578560 requests 192577.37 r/s elapsed 3.00
processed 780288 requests 195042.84 r/s elapsed 4.00
processed 990208 requests 198002.83 r/s elapsed 5.00
processed 1205248 requests 200841.73 r/s elapsed 6.00
processed 1427456 requests 203806.29 r/s elapsed 7.00
processed 1655808 requests 206918.76 r/s elapsed 8.00
processed 1895424 requests 210511.63 r/s elapsed 9.00
processed 2142208 requests 214218.89 r/s elapsed 10.00
processed 2394112 requests 217637.29 r/s elapsed 11.00
processed 2648064 requests 220643.52 r/s elapsed 12.00
processed 2903040 requests 223292.75 r/s elapsed 13.00
processed 3158016 requests 225570.44 r/s elapsed 14.00
processed 3412992 requests 227506.33 r/s elapsed 15.00
processed 3668992 requests 229278.71 r/s elapsed 16.00
processed 3920896 requests 230622.13 r/s elapsed 17.00
processed 4176896 requests 232023.68 r/s elapsed 18.00
processed 4430848 requests 233166.13 r/s elapsed 19.00
processed 4684800 requests 234239.13 r/s elapsed 20.00
TOTAL: 4684800 requests 234239.13 r/s elapsed 20.00
