type: pthread aio
filename: /mnt/raid/prefetch/prefetch-16384
I/O mode: DIRECT
workload: SEQUENTIAL
duration: 20
threads: 8
queue size: 128
test mode: TEST
file size: 17179869184
file pages: 4194304
start probability: 0.100
continue probability: 0.500
processed 62464 requests 62184.23 r/s elapsed 1.00
processed 124672 requests 62297.94 r/s elapsed 2.00
processed 187392 requests 62444.25 r/s elapsed 3.00
processed 249856 requests 62388.48 r/s elapsed 4.00
processed 312064 requests 62349.09 r/s elapsed 5.01
processed 374144 requests 62278.86 r/s elapsed 6.01
processed 435968 requests 62225.19 r/s elapsed 7.01
processed 497920 requests 62198.79 r/s elapsed 8.01
processed 560128 requests 62228.78 r/s elapsed 9.00
processed 622336 requests 62226.59 r/s elapsed 10.00
processed 684544 requests 62216.38 r/s elapsed 11.00
processed 747008 requests 62242.52 r/s elapsed 12.00
processed 810112 requests 62313.45 r/s elapsed 13.00
processed 873600 requests 62396.86 r/s elapsed 14.00
processed 936576 requests 62434.63 r/s elapsed 15.00
processed 999168 requests 62442.66 r/s elapsed 16.00
processed 1062272 requests 62482.09 r/s elapsed 17.00
processed 1125504 requests 62524.30 r/s elapsed 18.00
processed 1188096 requests 62530.18 r/s elapsed 19.00
processed 1250688 requests 62480.71 r/s elapsed 20.02
TOTAL: 1250688 requests 62480.71 r/s elapsed 20.02
