type: pthread aio
filename: /mnt/raid/prefetch/prefetch-16384
I/O mode: BUFFERED
workload: SEQUENTIAL
duration: 20
threads: 1
queue size: 1
test mode: WARMUP
file size: 17179869184
file pages: 4194304
start probability: 0.100
continue probability: 0.100
processed 10249 requests 10248.69 r/s elapsed 1.00
elapsed 1.00 : warmup interval speed 10248.69 previous 0.00
processed 21175 requests 10587.29 r/s elapsed 2.00
elapsed 2.00 : warmup interval speed 10925.90 previous 10248.69
processed 31761 requests 10471.49 r/s elapsed 3.03
elapsed 3.03 : warmup interval speed 10247.30 previous 10925.90
within 5% of the preceding interval, warmup terminating
TOTAL: 31761 requests 10471.49 r/s elapsed 3.03
