type: pthread aio
filename: /mnt/raid/prefetch/prefetch-16384
I/O mode: BUFFERED
workload: SEQUENTIAL
duration: 20
threads: 8
queue size: 128
test mode: WARMUP
file size: 17179869184
file pages: 4194304
start probability: 0.010
continue probability: 0.100
processed 59776 requests 59689.87 r/s elapsed 1.00
elapsed 1.00 : warmup interval speed 59689.87 previous 0.00
processed 119808 requests 59903.70 r/s elapsed 2.00
elapsed 2.00 : warmup interval speed 60118.15 previous 59689.87
within 5% of the preceding interval, warmup terminating
TOTAL: 119808 requests 59903.70 r/s elapsed 2.00
