type: pthread aio
filename: /mnt/raid/prefetch/prefetch-16384
I/O mode: DIRECT
workload: SEQUENTIAL
duration: 20
threads: 1
queue size: 1024
test mode: TEST
file size: 17179869184
file pages: 4194304
start probability: 0.100
continue probability: 0.900
processed 14336 requests 13305.70 r/s elapsed 1.08
processed 26624 requests 13281.51 r/s elapsed 2.00
processed 39936 requests 13234.54 r/s elapsed 3.02
processed 53248 requests 13232.83 r/s elapsed 4.02
processed 66560 requests 13274.34 r/s elapsed 5.01
processed 79872 requests 13309.14 r/s elapsed 6.00
processed 94208 requests 13320.54 r/s elapsed 7.07
processed 107520 requests 13290.84 r/s elapsed 8.09
processed 119808 requests 13257.32 r/s elapsed 9.04
processed 133120 requests 13298.44 r/s elapsed 10.01
processed 146432 requests 13279.51 r/s elapsed 11.03
processed 159744 requests 13271.07 r/s elapsed 12.04
processed 173056 requests 13281.26 r/s elapsed 13.03
processed 186368 requests 13308.47 r/s elapsed 14.00
processed 199680 requests 13306.35 r/s elapsed 15.01
processed 212992 requests 13302.71 r/s elapsed 16.01
processed 226304 requests 13302.88 r/s elapsed 17.01
processed 239616 requests 13289.06 r/s elapsed 18.03
processed 252928 requests 13294.55 r/s elapsed 19.02
processed 266240 requests 13292.24 r/s elapsed 20.03
TOTAL: 266240 requests 13292.24 r/s elapsed 20.03
