type: pthread aio
filename: /mnt/raid/prefetch/prefetch-16384
I/O mode: DIRECT
workload: SEQUENTIAL
duration: 20
threads: 1
queue size: 32
test mode: TEST
file size: 17179869184
file pages: 4194304
start probability: 0.100
continue probability: 0.500
processed 8800 requests 8797.04 r/s elapsed 1.00
processed 17888 requests 8928.43 r/s elapsed 2.00
processed 26880 requests 8949.60 r/s elapsed 3.00
processed 35808 requests 8912.70 r/s elapsed 4.02
processed 44672 requests 8932.93 r/s elapsed 5.00
processed 53728 requests 8951.40 r/s elapsed 6.00
processed 62752 requests 8960.00 r/s elapsed 7.00
processed 71744 requests 8966.11 r/s elapsed 8.00
processed 80768 requests 8972.24 r/s elapsed 9.00
processed 89792 requests 8976.08 r/s elapsed 10.00
processed 98784 requests 8978.09 r/s elapsed 11.00
processed 107776 requests 8979.38 r/s elapsed 12.00
processed 116768 requests 8981.85 r/s elapsed 13.00
processed 125824 requests 8985.64 r/s elapsed 14.00
processed 134784 requests 8982.63 r/s elapsed 15.00
processed 143744 requests 8977.51 r/s elapsed 16.01
processed 152640 requests 8963.35 r/s elapsed 17.03
processed 161408 requests 8965.37 r/s elapsed 18.00
processed 170368 requests 8966.07 r/s elapsed 19.00
processed 179360 requests 8967.88 r/s elapsed 20.00
TOTAL: 179360 requests 8967.88 r/s elapsed 20.00
