type: pthread aio
filename: /mnt/raid/prefetch/prefetch-16384
I/O mode: BUFFERED
workload: SEQUENTIAL
duration: 20
threads: 32
queue size: 1024
test mode: WARMUP
file size: 17179869184
file pages: 4194304
start probability: 0.100
continue probability: 0.500
processed 87040 requests 86300.66 r/s elapsed 1.01
elapsed 1.01 : warmup interval speed 86300.66 previous 0.00
processed 173056 requests 84897.17 r/s elapsed 2.04
elapsed 2.04 : warmup interval speed 83522.68 previous 86300.66
within 5% of the preceding interval, warmup terminating
TOTAL: 173056 requests 84897.17 r/s elapsed 2.04
