type: pthread aio
filename: /mnt/raid/prefetch/prefetch-16384
I/O mode: BUFFERED
workload: SEQUENTIAL
duration: 20
threads: 16
queue size: 128
test mode: TEST
file size: 17179869184
file pages: 4194304
start probability: 0.100
continue probability: 0.100
processed 77440 requests 77268.16 r/s elapsed 1.00
processed 158848 requests 79342.63 r/s elapsed 2.00
processed 243840 requests 81254.32 r/s elapsed 3.00
processed 331520 requests 82812.03 r/s elapsed 4.00
processed 417152 requests 83403.01 r/s elapsed 5.00
processed 503552 requests 83909.18 r/s elapsed 6.00
processed 587392 requests 81767.85 r/s elapsed 7.18
processed 654208 requests 80187.56 r/s elapsed 8.16
processed 721792 requests 79891.77 r/s elapsed 9.03
processed 802560 requests 80237.76 r/s elapsed 10.00
processed 882688 requests 79939.07 r/s elapsed 11.04
processed 959360 requests 79778.51 r/s elapsed 12.03
processed 1037184 requests 79777.13 r/s elapsed 13.00
processed 1164544 requests 83153.16 r/s elapsed 14.00
processed 1254784 requests 83593.58 r/s elapsed 15.01
processed 1337984 requests 83622.06 r/s elapsed 16.00
processed 1421696 requests 83619.37 r/s elapsed 17.00
processed 1506560 requests 83690.19 r/s elapsed 18.00
processed 1607936 requests 84603.97 r/s elapsed 19.01
processed 1710336 requests 85515.91 r/s elapsed 20.00
TOTAL: 1710336 requests 85515.91 r/s elapsed 20.00
