type: pthread fadvise
filename: /mnt/raid/prefetch/prefetch-16384
I/O mode: BUFFERED
workload: SEQUENTIAL
duration: 20
threads: 32
queue size: 32
test mode: TEST
file size: 17179869184
file pages: 4194304
start probability: 0.010
continue probability: 0.100
processed 109504 requests 109500.71 r/s elapsed 1.00
processed 221312 requests 110655.11 r/s elapsed 2.00
processed 334176 requests 111352.28 r/s elapsed 3.00
processed 448800 requests 112196.66 r/s elapsed 4.00
processed 563904 requests 112778.27 r/s elapsed 5.00
processed 680192 requests 113362.78 r/s elapsed 6.00
processed 794176 requests 113451.70 r/s elapsed 7.00
processed 908224 requests 113527.60 r/s elapsed 8.00
processed 1023104 requests 113677.51 r/s elapsed 9.00
processed 1138496 requests 113846.03 r/s elapsed 10.00
processed 1254816 requests 114073.13 r/s elapsed 11.00
processed 1371744 requests 114309.63 r/s elapsed 12.00
processed 1488960 requests 114533.67 r/s elapsed 13.00
processed 1608512 requests 114891.19 r/s elapsed 14.00
processed 1727360 requests 115156.28 r/s elapsed 15.00
processed 1848064 requests 115503.65 r/s elapsed 16.00
processed 1968224 requests 115777.26 r/s elapsed 17.00
processed 2089568 requests 116086.21 r/s elapsed 18.00
processed 2211712 requests 116403.86 r/s elapsed 19.00
processed 2334080 requests 116702.73 r/s elapsed 20.00
TOTAL: 2334080 requests 116702.73 r/s elapsed 20.00
