type: pthread aio
filename: /mnt/raid/prefetch/prefetch-16384
I/O mode: DIRECT
workload: SEQUENTIAL
duration: 20
threads: 16
queue size: 1024
test mode: TEST
file size: 17179869184
file pages: 4194304
start probability: 0.010
continue probability: 0.500
processed 109568 requests 108514.86 r/s elapsed 1.01
processed 218112 requests 108794.84 r/s elapsed 2.00
processed 326656 requests 108676.46 r/s elapsed 3.01
processed 435200 requests 108467.33 r/s elapsed 4.01
processed 542720 requests 108410.55 r/s elapsed 5.01
processed 651264 requests 108319.17 r/s elapsed 6.01
processed 758784 requests 108258.02 r/s elapsed 7.01
processed 867328 requests 108354.25 r/s elapsed 8.00
processed 975872 requests 108407.06 r/s elapsed 9.00
processed 1085440 requests 108440.27 r/s elapsed 10.01
processed 1193984 requests 108506.23 r/s elapsed 11.00
processed 1302528 requests 108516.91 r/s elapsed 12.00
processed 1412096 requests 108554.65 r/s elapsed 13.01
processed 1520640 requests 108577.53 r/s elapsed 14.01
processed 1629184 requests 108606.90 r/s elapsed 15.00
processed 1738752 requests 108641.62 r/s elapsed 16.00
processed 1848320 requests 108664.74 r/s elapsed 17.01
processed 1956864 requests 108701.09 r/s elapsed 18.00
processed 2066432 requests 108707.71 r/s elapsed 19.01
processed 2174976 requests 108738.78 r/s elapsed 20.00
TOTAL: 2174976 requests 108738.78 r/s elapsed 20.00
