type: pthread fadvise
filename: /mnt/raid/prefetch/prefetch-16384
I/O mode: BUFFERED
workload: RANDOM
duration: 20
threads: 32
queue size: 32
test mode: TEST
file size: 17179869184
file pages: 4194304
processed 103456 requests 103344.70 r/s elapsed 1.00
processed 206944 requests 103459.33 r/s elapsed 2.00
processed 314336 requests 104773.25 r/s elapsed 3.00
processed 420544 requests 104982.59 r/s elapsed 4.01
processed 527616 requests 105519.97 r/s elapsed 5.00
processed 635872 requests 105944.50 r/s elapsed 6.00
processed 743328 requests 106186.82 r/s elapsed 7.00
processed 854496 requests 106810.89 r/s elapsed 8.00
processed 965376 requests 107205.22 r/s elapsed 9.00
processed 1076384 requests 107637.28 r/s elapsed 10.00
processed 1190240 requests 108203.38 r/s elapsed 11.00
processed 1304128 requests 108677.13 r/s elapsed 12.00
processed 1419008 requests 109154.26 r/s elapsed 13.00
processed 1556608 requests 111185.56 r/s elapsed 14.00
processed 1696960 requests 113129.06 r/s elapsed 15.00
processed 1816480 requests 113524.27 r/s elapsed 16.00
processed 1939296 requests 114075.14 r/s elapsed 17.00
processed 2060672 requests 114425.71 r/s elapsed 18.01
processed 2182144 requests 114833.42 r/s elapsed 19.00
processed 2304192 requests 115208.98 r/s elapsed 20.00
TOTAL: 2304192 requests 115208.98 r/s elapsed 20.00
