type: pthread fadvise
filename: /mnt/raid/prefetch/prefetch-16384
I/O mode: BUFFERED
workload: SEQUENTIAL
duration: 20
threads: 1
queue size: 128
test mode: TEST
file size: 17179869184
file pages: 4194304
start probability: 0.100
continue probability: 0.900
processed 156160 requests 156062.77 r/s elapsed 1.00
processed 312192 requests 125655.51 r/s elapsed 2.48
processed 377088 requests 118762.26 r/s elapsed 3.18
processed 475136 requests 112448.06 r/s elapsed 4.23
processed 562304 requests 108955.17 r/s elapsed 5.16
processed 653824 requests 106587.13 r/s elapsed 6.13
processed 746112 requests 104806.67 r/s elapsed 7.12
processed 838528 requests 103486.30 r/s elapsed 8.10
processed 931456 requests 102528.70 r/s elapsed 9.08
processed 1025408 requests 101728.32 r/s elapsed 10.08
processed 1119104 requests 100956.03 r/s elapsed 11.09
processed 1211520 requests 100306.44 r/s elapsed 12.08
processed 1304064 requests 99922.56 r/s elapsed 13.05
processed 1399040 requests 99386.61 r/s elapsed 14.08
processed 1490816 requests 98977.12 r/s elapsed 15.06
processed 1583744 requests 98678.93 r/s elapsed 16.05
processed 1677568 requests 98306.09 r/s elapsed 17.06
processed 1769600 requests 98112.99 r/s elapsed 18.04
processed 1864192 requests 97949.26 r/s elapsed 19.03
processed 1959040 requests 97765.53 r/s elapsed 20.04
TOTAL: 1959040 requests 97765.53 r/s elapsed 20.04
