type: pthread fadvise
filename: /mnt/raid/prefetch/prefetch-16384
I/O mode: BUFFERED
workload: RANDOM
duration: 20
threads: 1
queue size: 1
test mode: TEST
file size: 17179869184
file pages: 4194304
processed 8641 requests 8640.08 r/s elapsed 1.00
processed 17690 requests 8844.62 r/s elapsed 2.00
processed 26782 requests 8927.26 r/s elapsed 3.00
processed 35867 requests 8966.68 r/s elapsed 4.00
processed 44994 requests 8998.75 r/s elapsed 5.00
processed 54140 requests 9023.23 r/s elapsed 6.00
processed 63348 requests 9049.61 r/s elapsed 7.00
processed 72450 requests 9055.84 r/s elapsed 8.00
processed 81612 requests 9067.92 r/s elapsed 9.00
processed 90794 requests 9079.32 r/s elapsed 10.00
processed 100025 requests 9093.10 r/s elapsed 11.00
processed 109262 requests 9105.12 r/s elapsed 12.00
processed 118488 requests 9114.46 r/s elapsed 13.00
processed 127740 requests 9124.15 r/s elapsed 14.00
processed 136960 requests 9130.44 r/s elapsed 15.00
processed 146087 requests 9124.53 r/s elapsed 16.01
processed 155116 requests 9116.73 r/s elapsed 17.01
processed 164140 requests 9118.66 r/s elapsed 18.00
processed 173263 requests 9119.10 r/s elapsed 19.00
processed 182381 requests 9117.30 r/s elapsed 20.00
TOTAL: 182381 requests 9117.30 r/s elapsed 20.00
