type: pthread aio
filename: /mnt/raid/prefetch/prefetch-16384
I/O mode: BUFFERED
workload: RANDOM
duration: 20
threads: 32
queue size: 128
test mode: TEST
file size: 17179869184
file pages: 4194304
processed 135808 requests 135692.25 r/s elapsed 1.00
processed 272384 requests 136168.78 r/s elapsed 2.00
processed 409216 requests 136360.56 r/s elapsed 3.00
processed 546304 requests 136565.42 r/s elapsed 4.00
processed 684032 requests 136791.79 r/s elapsed 5.00
processed 820864 requests 136781.42 r/s elapsed 6.00
processed 957696 requests 136805.80 r/s elapsed 7.00
processed 1095936 requests 136917.74 r/s elapsed 8.00
processed 1233024 requests 136983.96 r/s elapsed 9.00
processed 1369856 requests 136694.33 r/s elapsed 10.02
processed 1503744 requests 136354.42 r/s elapsed 11.03
processed 1636352 requests 135732.78 r/s elapsed 12.06
processed 1764608 requests 134940.70 r/s elapsed 13.08
processed 1889280 requests 133783.12 r/s elapsed 14.12
processed 2006784 requests 133452.52 r/s elapsed 15.04
processed 2136192 requests 133511.35 r/s elapsed 16.00
processed 2274176 requests 133774.45 r/s elapsed 17.00
processed 2411904 requests 133993.56 r/s elapsed 18.00
processed 2550016 requests 134209.34 r/s elapsed 19.00
processed 2689152 requests 134420.05 r/s elapsed 20.01
TOTAL: 2689152 requests 134420.05 r/s elapsed 20.01
