type: pthread aio
filename: /mnt/raid/prefetch/prefetch-16384
I/O mode: BUFFERED
workload: SEQUENTIAL
duration: 20
threads: 1
queue size: 8
test mode: WARMUP
file size: 17179869184
file pages: 4194304
start probability: 0.100
continue probability: 0.100
processed 11576 requests 11543.45 r/s elapsed 1.00
elapsed 1.00 : warmup interval speed 11543.45 previous 0.00
processed 23088 requests 11245.61 r/s elapsed 2.05
elapsed 2.05 : warmup interval speed 10961.23 previous 11543.45
within 5% of the preceding interval, warmup terminating
TOTAL: 23088 requests 11245.61 r/s elapsed 2.05
