type: pthread aio
filename: /mnt/raid/prefetch/prefetch-16384
I/O mode: BUFFERED
workload: RANDOM
duration: 20
threads: 16
queue size: 32
test mode: TEST
file size: 17179869184
file pages: 4194304
processed 85440 requests 85356.18 r/s elapsed 1.00
processed 171488 requests 85735.60 r/s elapsed 2.00
processed 257376 requests 85785.91 r/s elapsed 3.00
processed 343744 requests 85923.91 r/s elapsed 4.00
processed 430304 requests 86057.70 r/s elapsed 5.00
processed 516832 requests 86137.27 r/s elapsed 6.00
processed 603392 requests 86195.64 r/s elapsed 7.00
processed 689568 requests 86156.16 r/s elapsed 8.00
processed 775456 requests 86160.85 r/s elapsed 9.00
processed 861632 requests 86147.13 r/s elapsed 10.00
processed 947872 requests 86169.61 r/s elapsed 11.00
processed 1034048 requests 86120.14 r/s elapsed 12.01
processed 1119584 requests 86078.13 r/s elapsed 13.01
processed 1205120 requests 85919.37 r/s elapsed 14.03
processed 1288800 requests 85864.45 r/s elapsed 15.01
processed 1373856 requests 85738.53 r/s elapsed 16.02
processed 1457568 requests 85585.10 r/s elapsed 17.03
processed 1540544 requests 85368.22 r/s elapsed 18.05
processed 1622016 requests 85167.44 r/s elapsed 19.05
processed 1703360 requests 84885.50 r/s elapsed 20.07
TOTAL: 1703360 requests 84885.50 r/s elapsed 20.07
