type: pthread aio
filename: /mnt/raid/prefetch/prefetch-16384
I/O mode: BUFFERED
workload: SEQUENTIAL
duration: 20
threads: 1
queue size: 1
test mode: WARMUP
file size: 17179869184
file pages: 4194304
start probability: 0.010
continue probability: 0.100
processed 9161 requests 9149.14 r/s elapsed 1.00
elapsed 1.00 : warmup interval speed 9149.14 previous 0.00
processed 18374 requests 9186.50 r/s elapsed 2.00
elapsed 2.00 : warmup interval speed 9223.95 previous 9149.14
within 5% of the preceding interval, warmup terminating
TOTAL: 18374 requests 9186.50 r/s elapsed 2.00
