type: pthread fadvise
filename: /mnt/raid/prefetch/prefetch-16384
I/O mode: BUFFERED
workload: SEQUENTIAL
duration: 20
threads: 16
queue size: 1024
test mode: WARMUP
file size: 17179869184
file pages: 4194304
start probability: 0.010
continue probability: 0.100
processed 183296 requests 182365.57 r/s elapsed 1.01
elapsed 1.01 : warmup interval speed 182365.57 previous 0.00
processed 370688 requests 184951.63 r/s elapsed 2.00
elapsed 2.00 : warmup interval speed 187553.11 previous 182365.57
within 5% of the preceding interval, warmup terminating
TOTAL: 370688 requests 184951.63 r/s elapsed 2.00
