type: pthread aio
filename: /mnt/raid/prefetch/prefetch-16384
I/O mode: DIRECT
workload: SEQUENTIAL
duration: 20
threads: 1
queue size: 8
test mode: TEST
file size: 17179869184
file pages: 4194304
start probability: 0.100
continue probability: 0.500
processed 8912 requests 8911.39 r/s elapsed 1.00
processed 17824 requests 8759.11 r/s elapsed 2.03
processed 26280 requests 8610.67 r/s elapsed 3.05
processed 34448 requests 8519.62 r/s elapsed 4.04
processed 42600 requests 8466.88 r/s elapsed 5.03
processed 50808 requests 8464.42 r/s elapsed 6.00
processed 59472 requests 8495.30 r/s elapsed 7.00
processed 68136 requests 8514.29 r/s elapsed 8.00
processed 77032 requests 8558.82 r/s elapsed 9.00
processed 85592 requests 8539.51 r/s elapsed 10.02
processed 93936 requests 8525.98 r/s elapsed 11.02
processed 102328 requests 8527.10 r/s elapsed 12.00
processed 110856 requests 8523.34 r/s elapsed 13.01
processed 119328 requests 8519.37 r/s elapsed 14.01
processed 127792 requests 8506.59 r/s elapsed 15.02
processed 136112 requests 8499.77 r/s elapsed 16.01
processed 144496 requests 8488.44 r/s elapsed 17.02
processed 152792 requests 8474.43 r/s elapsed 18.03
processed 161016 requests 8469.05 r/s elapsed 19.01
processed 169384 requests 8467.13 r/s elapsed 20.00
TOTAL: 169384 requests 8467.13 r/s elapsed 20.00
