type: pthread aio
filename: /mnt/raid/prefetch/prefetch-16384
I/O mode: DIRECT
workload: SEQUENTIAL
duration: 20
threads: 8
queue size: 8
test mode: TEST
file size: 17179869184
file pages: 4194304
start probability: 0.100
continue probability: 0.100
processed 32544 requests 32540.19 r/s elapsed 1.00
processed 65080 requests 32529.61 r/s elapsed 2.00
processed 97592 requests 32501.66 r/s elapsed 3.00
processed 130040 requests 32508.32 r/s elapsed 4.00
processed 162544 requests 32498.17 r/s elapsed 5.00
processed 195168 requests 32527.41 r/s elapsed 6.00
processed 227880 requests 32553.78 r/s elapsed 7.00
processed 260432 requests 32546.82 r/s elapsed 8.00
processed 292928 requests 32540.78 r/s elapsed 9.00
processed 325544 requests 32554.13 r/s elapsed 10.00
processed 358096 requests 32515.35 r/s elapsed 11.01
processed 390184 requests 32514.54 r/s elapsed 12.00
processed 422696 requests 32486.05 r/s elapsed 13.01
processed 454864 requests 32490.07 r/s elapsed 14.00
processed 488344 requests 32555.92 r/s elapsed 15.00
processed 522192 requests 32636.72 r/s elapsed 16.00
processed 556008 requests 32705.84 r/s elapsed 17.00
processed 589864 requests 32770.16 r/s elapsed 18.00
processed 623800 requests 32831.48 r/s elapsed 19.00
processed 657840 requests 32891.45 r/s elapsed 20.00
TOTAL: 657840 requests 32891.45 r/s elapsed 20.00
