type: pthread aio
filename: /mnt/raid/prefetch/prefetch-16384
I/O mode: BUFFERED
workload: SEQUENTIAL
duration: 20
threads: 32
queue size: 32
test mode: WARMUP
file size: 17179869184
file pages: 4194304
start probability: 0.100
continue probability: 0.900
processed 147520 requests 146945.15 r/s elapsed 1.00
elapsed 1.00 : warmup interval speed 146945.15 previous 0.00
processed 294592 requests 147294.67 r/s elapsed 2.00
elapsed 2.00 : warmup interval speed 147646.94 previous 146945.15
within 5% of the preceding interval, warmup terminating
TOTAL: 294592 requests 147294.67 r/s elapsed 2.00
