type: pthread aio
filename: /mnt/raid/prefetch/prefetch-16384
I/O mode: BUFFERED
workload: SEQUENTIAL
duration: 20
threads: 8
queue size: 32
test mode: WARMUP
file size: 17179869184
file pages: 4194304
start probability: 0.100
continue probability: 0.500
processed 40704 requests 40314.04 r/s elapsed 1.01
elapsed 1.01 : warmup interval speed 40314.04 previous 0.00
processed 80640 requests 39703.07 r/s elapsed 2.03
elapsed 2.03 : warmup interval speed 39099.12 previous 40314.04
within 5% of the preceding interval, warmup terminating
TOTAL: 80640 requests 39703.07 r/s elapsed 2.03
