type: pthread aio
filename: /mnt/raid/prefetch/prefetch-16384
I/O mode: BUFFERED
workload: SEQUENTIAL
duration: 20
threads: 16
queue size: 1024
test mode: TEST
file size: 17179869184
file pages: 4194304
start probability: 0.100
continue probability: 0.100
processed 101376 requests 97689.02 r/s elapsed 1.04
processed 195584 requests 94773.79 r/s elapsed 2.06
processed 286720 requests 95441.40 r/s elapsed 3.00
processed 382976 requests 95605.23 r/s elapsed 4.01
processed 481280 requests 96028.68 r/s elapsed 5.01
processed 576512 requests 94601.29 r/s elapsed 6.09
processed 662528 requests 92416.25 r/s elapsed 7.17
processed 740352 requests 91648.64 r/s elapsed 8.08
processed 825344 requests 91295.42 r/s elapsed 9.04
processed 916480 requests 91545.00 r/s elapsed 10.01
processed 1010688 requests 91773.45 r/s elapsed 11.01
processed 1154048 requests 96149.54 r/s elapsed 12.00
processed 1290240 requests 99244.15 r/s elapsed 13.00
processed 1403904 requests 100259.89 r/s elapsed 14.00
processed 1513472 requests 100869.63 r/s elapsed 15.00
processed 1642496 requests 102630.02 r/s elapsed 16.00
processed 1771520 requests 104203.26 r/s elapsed 17.00
processed 1892352 requests 105090.28 r/s elapsed 18.01
processed 2015232 requests 106063.93 r/s elapsed 19.00
processed 2140160 requests 107006.41 r/s elapsed 20.00
TOTAL: 2140160 requests 107006.41 r/s elapsed 20.00
