type: pthread aio
filename: /mnt/raid/prefetch/prefetch-16384
I/O mode: BUFFERED
workload: SEQUENTIAL
duration: 20
threads: 1
queue size: 32
test mode: TEST
file size: 17179869184
file pages: 4194304
start probability: 0.100
continue probability: 0.900
processed 512000 requests 261415.22 r/s elapsed 1.96
processed 522848 requests 257946.62 r/s elapsed 2.03
processed 773856 requests 207893.53 r/s elapsed 3.72
processed 831584 requests 201763.06 r/s elapsed 4.12
processed 1008832 requests 189830.75 r/s elapsed 5.31
processed 1139008 requests 182908.71 r/s elapsed 6.23
processed 1280384 requests 178900.14 r/s elapsed 7.16
processed 1431232 requests 174816.95 r/s elapsed 8.19
processed 1573376 requests 172135.73 r/s elapsed 9.14
processed 1721376 requests 169901.19 r/s elapsed 10.13
processed 1868928 requests 167329.47 r/s elapsed 11.17
processed 2007968 requests 165702.86 r/s elapsed 12.12
processed 2154144 requests 163422.29 r/s elapsed 13.18
processed 2287936 requests 162594.56 r/s elapsed 14.07
processed 2438944 requests 161313.38 r/s elapsed 15.12
processed 2581024 requests 160221.69 r/s elapsed 16.11
processed 2723776 requests 159091.07 r/s elapsed 17.12
processed 2863648 requests 158070.17 r/s elapsed 18.12
processed 3003360 requests 157761.20 r/s elapsed 19.04
processed 3155232 requests 157095.33 r/s elapsed 20.08
TOTAL: 3155232 requests 157095.33 r/s elapsed 20.08
