type: pthread aio
filename: /mnt/raid/prefetch/prefetch-16384
I/O mode: DIRECT
workload: SEQUENTIAL
duration: 20
threads: 32
queue size: 1024
test mode: TEST
file size: 17179869184
file pages: 4194304
start probability: 0.010
continue probability: 0.900
processed 159744 requests 159098.70 r/s elapsed 1.00
processed 318464 requests 158811.55 r/s elapsed 2.01
processed 477184 requests 158667.42 r/s elapsed 3.01
processed 634880 requests 158550.19 r/s elapsed 4.00
processed 794624 requests 158797.86 r/s elapsed 5.00
processed 954368 requests 158949.80 r/s elapsed 6.00
processed 1114112 requests 159025.62 r/s elapsed 7.01
processed 1272832 requests 159008.87 r/s elapsed 8.00
processed 1431552 requests 159043.18 r/s elapsed 9.00
processed 1592320 requests 159228.27 r/s elapsed 10.00
processed 1752064 requests 159184.60 r/s elapsed 11.01
processed 1910784 requests 159155.68 r/s elapsed 12.01
processed 2069504 requests 159096.24 r/s elapsed 13.01
processed 2228224 requests 159022.42 r/s elapsed 14.01
processed 2385920 requests 159006.65 r/s elapsed 15.01
processed 2544640 requests 159005.70 r/s elapsed 16.00
processed 2703360 requests 159015.95 r/s elapsed 17.00
processed 2863104 requests 158974.03 r/s elapsed 18.01
processed 3020800 requests 158941.43 r/s elapsed 19.01
processed 3180544 requests 158987.56 r/s elapsed 20.00
TOTAL: 3180544 requests 158987.56 r/s elapsed 20.00
