type: aio
filename: /mnt/raid/prefetch/prefetch-131072
I/O mode: DIRECT
workload: SEQUENTIAL
duration: 20
queue size: 1
test mode: TEST
file size: 137438953472
file pages: 33554432
start probability: 0.010
continue probability: 0.900
processed 13544 requests 13543.80 r/s elapsed 1.00
processed 27101 requests 13550.42 r/s elapsed 2.00
processed 40805 requests 13601.45 r/s elapsed 3.00
processed 54352 requests 13587.99 r/s elapsed 4.00
processed 67732 requests 13546.13 r/s elapsed 5.00
processed 81399 requests 13566.46 r/s elapsed 6.00
processed 94669 requests 13523.91 r/s elapsed 7.00
processed 108283 requests 13535.34 r/s elapsed 8.00
processed 121705 requests 13522.72 r/s elapsed 9.00
processed 134901 requests 13489.97 r/s elapsed 10.00
processed 148246 requests 13476.91 r/s elapsed 11.00
processed 161732 requests 13477.66 r/s elapsed 12.00
processed 175085 requests 13468.06 r/s elapsed 13.00
processed 188486 requests 13463.22 r/s elapsed 14.00
processed 201995 requests 13466.23 r/s elapsed 15.00
processed 215325 requests 13457.78 r/s elapsed 16.00
processed 228369 requests 13433.46 r/s elapsed 17.00
processed 241924 requests 13440.22 r/s elapsed 18.00
processed 255437 requests 13444.03 r/s elapsed 19.00
processed 268768 requests 13438.39 r/s elapsed 20.00
TOTAL: 268768 requests 13438.39 r/s elapsed 20.00
