type: aio
filename: /mnt/raid/prefetch/prefetch-131072
I/O mode: DIRECT
workload: SEQUENTIAL
duration: 20
queue size: 1024
test mode: TEST
file size: 137438953472
file pages: 33554432
start probability: 0.010
continue probability: 0.100
processed 181248 requests 181104.38 r/s elapsed 1.00
processed 365568 requests 182270.82 r/s elapsed 2.01
processed 545792 requests 181873.74 r/s elapsed 3.00
processed 713728 requests 178294.18 r/s elapsed 4.00
processed 869376 requests 173832.68 r/s elapsed 5.00
processed 1050624 requests 175081.18 r/s elapsed 6.00
processed 1232896 requests 176120.90 r/s elapsed 7.00
processed 1414144 requests 176764.73 r/s elapsed 8.00
processed 1595392 requests 177217.42 r/s elapsed 9.00
processed 1776640 requests 177656.68 r/s elapsed 10.00
processed 1958912 requests 178070.51 r/s elapsed 11.00
processed 2140160 requests 178288.49 r/s elapsed 12.00
processed 2321408 requests 178565.77 r/s elapsed 13.00
processed 2503680 requests 178812.37 r/s elapsed 14.00
processed 2684928 requests 178965.23 r/s elapsed 15.00
processed 2866176 requests 179123.42 r/s elapsed 16.00
processed 3048448 requests 179288.17 r/s elapsed 17.00
processed 3230720 requests 179446.55 r/s elapsed 18.00
processed 3414016 requests 179638.55 r/s elapsed 19.00
processed 3596288 requests 179803.11 r/s elapsed 20.00
TOTAL: 3596288 requests 179803.11 r/s elapsed 20.00
