type: aio
filename: /mnt/raid/prefetch/prefetch-131072
I/O mode: BUFFERED
workload: SEQUENTIAL
duration: 20
queue size: 1
test mode: WARMUP
file size: 137438953472
file pages: 33554432
start probability: 0.010
continue probability: 0.900
processed 19071 requests 19069.13 r/s elapsed 1.00
elapsed 1.00 : warmup interval speed 19069.13 previous 0.00
processed 37870 requests 18933.11 r/s elapsed 2.00
elapsed 2.00 : warmup interval speed 18797.08 previous 19069.13
within 5% of the preceding interval, warmup terminating
TOTAL: 37870 requests 18933.11 r/s elapsed 2.00
