type: aio
filename: /mnt/raid/prefetch/prefetch-131072
I/O mode: BUFFERED
workload: SEQUENTIAL
duration: 20
queue size: 1
test mode: TEST
file size: 137438953472
file pages: 33554432
start probability: 0.010
continue probability: 0.900
processed 40210 requests 40209.92 r/s elapsed 1.00
processed 57020 requests 28508.08 r/s elapsed 2.00
processed 74059 requests 24684.13 r/s elapsed 3.00
processed 92106 requests 23026.34 r/s elapsed 4.00
processed 108597 requests 21718.93 r/s elapsed 5.00
processed 126086 requests 21013.88 r/s elapsed 6.00
processed 143652 requests 20521.34 r/s elapsed 7.00
processed 161479 requests 20184.50 r/s elapsed 8.00
processed 178976 requests 19885.65 r/s elapsed 9.00
processed 196453 requests 19642.93 r/s elapsed 10.00
processed 215391 requests 19580.98 r/s elapsed 11.00
processed 233654 requests 19469.84 r/s elapsed 12.00
processed 251353 requests 19334.75 r/s elapsed 13.00
processed 269629 requests 19258.32 r/s elapsed 14.00
processed 288160 requests 19210.51 r/s elapsed 15.00
processed 305202 requests 19074.82 r/s elapsed 16.00
processed 323268 requests 19015.25 r/s elapsed 17.00
processed 342548 requests 19029.86 r/s elapsed 18.00
processed 361502 requests 19026.42 r/s elapsed 19.00
processed 380338 requests 19016.39 r/s elapsed 20.00
TOTAL: 380338 requests 19016.39 r/s elapsed 20.00
