type: aio
filename: /mnt/raid/prefetch/prefetch-131072
I/O mode: DIRECT
workload: SEQUENTIAL
duration: 20
queue size: 128
test mode: TEST
file size: 137438953472
file pages: 33554432
start probability: 0.100
continue probability: 0.100
processed 149120 requests 149026.56 r/s elapsed 1.00
processed 298112 requests 149029.40 r/s elapsed 2.00
processed 446976 requests 148975.81 r/s elapsed 3.00
processed 596352 requests 149063.81 r/s elapsed 4.00
processed 745344 requests 149047.72 r/s elapsed 5.00
processed 885248 requests 147539.98 r/s elapsed 6.00
processed 1032576 requests 147504.87 r/s elapsed 7.00
processed 1179520 requests 147438.21 r/s elapsed 8.00
processed 1328000 requests 147546.16 r/s elapsed 9.00
processed 1475072 requests 147504.25 r/s elapsed 10.00
processed 1623296 requests 147568.97 r/s elapsed 11.00
processed 1767424 requests 147278.66 r/s elapsed 12.00
processed 1914624 requests 147277.10 r/s elapsed 13.00
processed 2062464 requests 147318.68 r/s elapsed 14.00
processed 2211200 requests 147411.78 r/s elapsed 15.00
processed 2348416 requests 146772.78 r/s elapsed 16.00
processed 2496512 requests 146851.57 r/s elapsed 17.00
processed 2644352 requests 146906.28 r/s elapsed 18.00
processed 2792960 requests 146992.93 r/s elapsed 19.00
processed 2940160 requests 147001.66 r/s elapsed 20.00
TOTAL: 2940160 requests 147001.66 r/s elapsed 20.00
