type: aio
filename: /mnt/raid/prefetch/prefetch-131072
I/O mode: DIRECT
workload: SEQUENTIAL
duration: 20
queue size: 1024
test mode: TEST
file size: 137438953472
file pages: 33554432
start probability: 0.010
continue probability: 0.100
processed 182272 requests 181979.20 r/s elapsed 1.00
processed 366592 requests 182979.08 r/s elapsed 2.00
processed 546816 requests 182142.56 r/s elapsed 3.00
processed 728064 requests 181836.71 r/s elapsed 4.00
processed 908288 requests 181637.11 r/s elapsed 5.00
processed 1089536 requests 181493.84 r/s elapsed 6.00
processed 1270784 requests 181456.38 r/s elapsed 7.00
processed 1453056 requests 181522.84 r/s elapsed 8.00
processed 1634304 requests 181521.89 r/s elapsed 9.00
processed 1815552 requests 181460.50 r/s elapsed 10.01
processed 1971200 requests 179194.48 r/s elapsed 11.00
processed 2152448 requests 179338.33 r/s elapsed 12.00
processed 2297856 requests 176736.33 r/s elapsed 13.00
processed 2466816 requests 176167.78 r/s elapsed 14.00
processed 2647040 requests 176444.42 r/s elapsed 15.00
processed 2828288 requests 176767.83 r/s elapsed 16.00
processed 3010560 requests 177048.22 r/s elapsed 17.00
processed 3192832 requests 177370.08 r/s elapsed 18.00
processed 3375104 requests 177635.11 r/s elapsed 19.00
processed 3558400 requests 177903.70 r/s elapsed 20.00
TOTAL: 3558400 requests 177903.70 r/s elapsed 20.00
