type: fadvise
filename: /mnt/raid/prefetch/prefetch-131072
I/O mode: BUFFERED
workload: SEQUENTIAL
duration: 20
queue size: 8
test mode: WARMUP
file size: 137438953472
file pages: 33554432
start probability: 0.010
continue probability: 0.100
processed 45368 requests 45364.14 r/s elapsed 1.00
elapsed 1.00 : warmup interval speed 45364.14 previous 0.00
processed 90720 requests 45358.78 r/s elapsed 2.00
elapsed 2.00 : warmup interval speed 45353.41 previous 45364.14
within 5% of the preceding interval, warmup terminating
TOTAL: 90720 requests 45358.78 r/s elapsed 2.00
