type: fadvise
filename: /mnt/raid/prefetch/prefetch-131072
I/O mode: BUFFERED
workload: SEQUENTIAL
duration: 20
queue size: 128
test mode: WARMUP
file size: 137438953472
file pages: 33554432
start probability: 0.010
continue probability: 0.900
processed 125056 requests 124977.26 r/s elapsed 1.00
elapsed 1.00 : warmup interval speed 124977.26 previous 0.00
processed 244608 requests 122274.23 r/s elapsed 2.00
elapsed 2.00 : warmup interval speed 119569.10 previous 124977.26
within 5% of the preceding interval, warmup terminating
TOTAL: 244608 requests 122274.23 r/s elapsed 2.00
