type: fadvise
filename: /mnt/raid/prefetch/prefetch-131072
I/O mode: BUFFERED
workload: SEQUENTIAL
duration: 20
queue size: 32
test mode: TEST
file size: 137438953472
file pages: 33554432
start probability: 0.100
continue probability: 0.100
processed 96544 requests 96514.95 r/s elapsed 1.00
processed 191456 requests 95724.46 r/s elapsed 2.00
processed 281216 requests 93737.82 r/s elapsed 3.00
processed 370496 requests 92615.57 r/s elapsed 4.00
processed 460160 requests 92028.54 r/s elapsed 5.00
processed 550016 requests 91664.17 r/s elapsed 6.00
processed 634272 requests 90607.97 r/s elapsed 7.00
processed 718112 requests 89762.11 r/s elapsed 8.00
processed 801920 requests 89100.55 r/s elapsed 9.00
processed 884960 requests 88490.72 r/s elapsed 10.00
processed 968192 requests 88015.40 r/s elapsed 11.00
processed 1052928 requests 87742.11 r/s elapsed 12.00
processed 1136256 requests 87403.60 r/s elapsed 13.00
processed 1219424 requests 87101.34 r/s elapsed 14.00
processed 1302656 requests 86842.66 r/s elapsed 15.00
processed 1385376 requests 86584.49 r/s elapsed 16.00
processed 1468832 requests 86401.87 r/s elapsed 17.00
processed 1551584 requests 86199.08 r/s elapsed 18.00
processed 1635360 requests 86070.44 r/s elapsed 19.00
processed 1717920 requests 85891.59 r/s elapsed 20.00
TOTAL: 1717920 requests 85891.59 r/s elapsed 20.00
