type: fadvise
filename: /mnt/raid/prefetch/prefetch-131072
I/O mode: BUFFERED
workload: SEQUENTIAL
duration: 20
queue size: 128
test mode: TEST
file size: 137438953472
file pages: 33554432
start probability: 0.100
continue probability: 0.100
processed 196736 requests 196700.40 r/s elapsed 1.00
processed 386816 requests 193351.44 r/s elapsed 2.00
processed 567808 requests 189245.24 r/s elapsed 3.00
processed 747392 requests 186819.00 r/s elapsed 4.00
processed 924672 requests 184932.40 r/s elapsed 5.00
processed 1101696 requests 183603.91 r/s elapsed 6.00
processed 1279616 requests 182783.07 r/s elapsed 7.00
processed 1430400 requests 178794.06 r/s elapsed 8.00
processed 1571584 requests 174615.81 r/s elapsed 9.00
processed 1712896 requests 171286.11 r/s elapsed 10.00
processed 1853952 requests 168530.80 r/s elapsed 11.00
processed 1998592 requests 166543.02 r/s elapsed 12.00
processed 2175616 requests 167351.77 r/s elapsed 13.00
processed 2351488 requests 167961.75 r/s elapsed 14.00
processed 2528384 requests 168553.58 r/s elapsed 15.00
processed 2706048 requests 169125.03 r/s elapsed 16.00
processed 2872320 requests 168954.96 r/s elapsed 17.00
processed 3048832 requests 169374.92 r/s elapsed 18.00
processed 3227776 requests 169882.01 r/s elapsed 19.00
processed 3406464 requests 170323.08 r/s elapsed 20.00
TOTAL: 3406464 requests 170323.08 r/s elapsed 20.00
