type: fadvise
filename: /mnt/raid/prefetch/prefetch-131072
I/O mode: BUFFERED
workload: SEQUENTIAL
duration: 20
queue size: 1024
test mode: TEST
file size: 137438953472
file pages: 33554432
start probability: 0.010
continue probability: 0.100
processed 187392 requests 186889.45 r/s elapsed 1.00
processed 374784 requests 187242.30 r/s elapsed 2.00
processed 562176 requests 187225.62 r/s elapsed 3.00
processed 750592 requests 187446.64 r/s elapsed 4.00
processed 937984 requests 187588.10 r/s elapsed 5.00
processed 1126400 requests 187693.89 r/s elapsed 6.00
processed 1314816 requests 187762.30 r/s elapsed 7.00
processed 1504256 requests 187945.85 r/s elapsed 8.00
processed 1692672 requests 188058.97 r/s elapsed 9.00
processed 1881088 requests 188047.97 r/s elapsed 10.00
processed 2068480 requests 187976.17 r/s elapsed 11.00
processed 2255872 requests 187956.39 r/s elapsed 12.00
processed 2443264 requests 187908.43 r/s elapsed 13.00
processed 2630656 requests 187885.87 r/s elapsed 14.00
processed 2818048 requests 187846.02 r/s elapsed 15.00
processed 3005440 requests 187814.41 r/s elapsed 16.00
processed 3156992 requests 185626.04 r/s elapsed 17.01
processed 3303424 requests 183497.63 r/s elapsed 18.00
processed 3490816 requests 183706.30 r/s elapsed 19.00
processed 3678208 requests 183867.53 r/s elapsed 20.00
TOTAL: 3678208 requests 183867.53 r/s elapsed 20.00
