type: POSIX aio
filename: /mnt/raid/prefetch/prefetch-131072
I/O mode: BUFFERED
workload: SEQUENTIAL
duration: 20
threads: 1
queue size: 8
test mode: WARMUP
file size: 137438953472
file pages: 33554432
start probability: 0.100
continue probability: 0.500
processed 24896 requests 24859.18 r/s elapsed 1.00
elapsed 1.00 : warmup interval speed 24859.18 previous 0.00
processed 49120 requests 24555.22 r/s elapsed 2.00
elapsed 2.00 : warmup interval speed 24250.48 previous 24859.18
within 5% of the preceding interval, warmup terminating
TOTAL: 49120 requests 24555.22 r/s elapsed 2.00
