type: POSIX aio
filename: /mnt/raid/prefetch/prefetch-131072
I/O mode: BUFFERED
workload: SEQUENTIAL
duration: 20
threads: 8
queue size: 1024
test mode: TEST
file size: 137438953472
file pages: 33554432
start probability: 0.100
continue probability: 0.900
processed 198656 requests 197848.97 r/s elapsed 1.00
processed 343040 requests 171066.42 r/s elapsed 2.01
processed 461824 requests 153420.78 r/s elapsed 3.01
processed 587776 requests 146878.38 r/s elapsed 4.00
processed 700416 requests 139845.38 r/s elapsed 5.01
processed 823296 requests 136971.51 r/s elapsed 6.01
processed 943104 requests 134569.29 r/s elapsed 7.01
processed 1062912 requests 132793.50 r/s elapsed 8.00
processed 1179648 requests 130988.81 r/s elapsed 9.01
processed 1291264 requests 129121.75 r/s elapsed 10.00
processed 1418240 requests 128824.45 r/s elapsed 11.01
processed 1539072 requests 128255.71 r/s elapsed 12.00
processed 1654784 requests 127211.32 r/s elapsed 13.01
processed 1778688 requests 127001.44 r/s elapsed 14.01
processed 1900544 requests 126673.85 r/s elapsed 15.00
processed 2018304 requests 126112.06 r/s elapsed 16.00
processed 2141184 requests 125898.63 r/s elapsed 17.01
processed 2270208 requests 126081.69 r/s elapsed 18.01
processed 2383872 requests 125444.33 r/s elapsed 19.00
processed 2503680 requests 125165.37 r/s elapsed 20.00
TOTAL: 2503680 requests 125165.37 r/s elapsed 20.00
