type: POSIX aio
filename: /mnt/raid/prefetch/prefetch-131072
I/O mode: BUFFERED
workload: SEQUENTIAL
duration: 20
threads: 16
queue size: 1024
test mode: WARMUP
file size: 137438953472
file pages: 33554432
start probability: 0.100
continue probability: 0.900
processed 119808 requests 119504.10 r/s elapsed 1.00
elapsed 1.00 : warmup interval speed 119504.10 previous 0.00
processed 237568 requests 118690.29 r/s elapsed 2.00
elapsed 2.00 : warmup interval speed 117873.63 previous 119504.10
within 5% of the preceding interval, warmup terminating
TOTAL: 237568 requests 118690.29 r/s elapsed 2.00
