type: POSIX aio
filename: /mnt/raid/prefetch/prefetch-131072
I/O mode: BUFFERED
workload: SEQUENTIAL
duration: 20
threads: 32
queue size: 1024
test mode: WARMUP
file size: 137438953472
file pages: 33554432
start probability: 0.010
continue probability: 0.500
processed 11264 requests 10668.60 r/s elapsed 1.06
elapsed 1.06 : warmup interval speed 10668.60 previous 0.00
processed 21504 requests 10662.64 r/s elapsed 2.02
elapsed 2.02 : warmup interval speed 10656.10 previous 10668.60
within 5% of the preceding interval, warmup terminating
TOTAL: 21504 requests 10662.64 r/s elapsed 2.02
