type: POSIX aio
filename: /mnt/raid/prefetch/prefetch-131072
I/O mode: DIRECT
workload: SEQUENTIAL
duration: 20
threads: 1
queue size: 32
test mode: TEST
file size: 137438953472
file pages: 33554432
start probability: 0.010
continue probability: 0.500
processed 9568 requests 9549.50 r/s elapsed 1.00
processed 19168 requests 9574.93 r/s elapsed 2.00
processed 28768 requests 9588.52 r/s elapsed 3.00
processed 38336 requests 9583.21 r/s elapsed 4.00
processed 47936 requests 9583.99 r/s elapsed 5.00
processed 57504 requests 9580.80 r/s elapsed 6.00
processed 67040 requests 9574.80 r/s elapsed 7.00
processed 76608 requests 9575.28 r/s elapsed 8.00
processed 86176 requests 9572.56 r/s elapsed 9.00
processed 95712 requests 9569.55 r/s elapsed 10.00
processed 105280 requests 9570.06 r/s elapsed 11.00
processed 114880 requests 9570.83 r/s elapsed 12.00
processed 124416 requests 9569.32 r/s elapsed 13.00
processed 133952 requests 9567.28 r/s elapsed 14.00
processed 143488 requests 9564.59 r/s elapsed 15.00
processed 153056 requests 9565.77 r/s elapsed 16.00
processed 162656 requests 9567.91 r/s elapsed 17.00
processed 172224 requests 9567.37 r/s elapsed 18.00
processed 181760 requests 9566.00 r/s elapsed 19.00
processed 191328 requests 9565.24 r/s elapsed 20.00
TOTAL: 191328 requests 9565.24 r/s elapsed 20.00
