type: POSIX aio
filename: /mnt/raid/prefetch/prefetch-131072
I/O mode: BUFFERED
workload: SEQUENTIAL
duration: 20
threads: 8
queue size: 32
test mode: TEST
file size: 137438953472
file pages: 33554432
start probability: 0.010
continue probability: 0.100
processed 10144 requests 10127.78 r/s elapsed 1.00
processed 20128 requests 10059.78 r/s elapsed 2.00
processed 30176 requests 10048.64 r/s elapsed 3.00
processed 40160 requests 10032.81 r/s elapsed 4.00
processed 50080 requests 10015.16 r/s elapsed 5.00
processed 60032 requests 10001.50 r/s elapsed 6.00
processed 69792 requests 9970.06 r/s elapsed 7.00
processed 79712 requests 9961.18 r/s elapsed 8.00
processed 89696 requests 9965.43 r/s elapsed 9.00
processed 99808 requests 9978.72 r/s elapsed 10.00
processed 109792 requests 9978.37 r/s elapsed 11.00
processed 119712 requests 9975.88 r/s elapsed 12.00
processed 129792 requests 9982.24 r/s elapsed 13.00
processed 139712 requests 9978.42 r/s elapsed 14.00
processed 149600 requests 9971.45 r/s elapsed 15.00
processed 159424 requests 9961.96 r/s elapsed 16.00
processed 169312 requests 9958.46 r/s elapsed 17.00
processed 179264 requests 9958.08 r/s elapsed 18.00
processed 189248 requests 9959.64 r/s elapsed 19.00
processed 199296 requests 9963.19 r/s elapsed 20.00
TOTAL: 199296 requests 9963.19 r/s elapsed 20.00
