type: POSIX aio
filename: /mnt/raid/prefetch/prefetch-131072
I/O mode: DIRECT
workload: SEQUENTIAL
duration: 20
threads: 32
queue size: 128
test mode: TEST
file size: 137438953472
file pages: 33554432
start probability: 0.100
continue probability: 0.500
processed 9472 requests 9437.69 r/s elapsed 1.00
processed 18944 requests 9430.96 r/s elapsed 2.01
processed 28416 requests 9452.51 r/s elapsed 3.01
processed 37888 requests 9449.55 r/s elapsed 4.01
processed 47360 requests 9447.65 r/s elapsed 5.01
processed 56704 requests 9445.71 r/s elapsed 6.00
processed 66176 requests 9448.90 r/s elapsed 7.00
processed 75648 requests 9447.27 r/s elapsed 8.01
processed 85120 requests 9449.31 r/s elapsed 9.01
processed 94592 requests 9447.07 r/s elapsed 10.01
processed 103936 requests 9445.46 r/s elapsed 11.00
processed 113408 requests 9442.16 r/s elapsed 12.01
processed 122752 requests 9438.41 r/s elapsed 13.01
processed 132096 requests 9429.83 r/s elapsed 14.01
processed 141440 requests 9428.68 r/s elapsed 15.00
processed 150784 requests 9423.63 r/s elapsed 16.00
processed 160256 requests 9423.07 r/s elapsed 17.01
processed 169600 requests 9419.65 r/s elapsed 18.00
processed 179072 requests 9418.85 r/s elapsed 19.01
processed 188416 requests 9419.24 r/s elapsed 20.00
TOTAL: 188416 requests 9419.24 r/s elapsed 20.00
