type: POSIX aio
filename: /mnt/raid/prefetch/prefetch-131072
I/O mode: DIRECT
workload: SEQUENTIAL
duration: 20
threads: 8
queue size: 1024
test mode: TEST
file size: 137438953472
file pages: 33554432
start probability: 0.100
continue probability: 0.100
processed 9216 requests 9117.78 r/s elapsed 1.01
processed 18432 requests 9147.51 r/s elapsed 2.01
processed 27648 requests 9108.65 r/s elapsed 3.04
processed 36864 requests 9126.09 r/s elapsed 4.04
processed 46080 requests 9133.45 r/s elapsed 5.05
processed 55296 requests 9135.12 r/s elapsed 6.05
processed 64512 requests 9107.52 r/s elapsed 7.08
processed 73728 requests 9119.16 r/s elapsed 8.08
processed 82944 requests 9125.35 r/s elapsed 9.09
processed 92160 requests 9132.81 r/s elapsed 10.09
processed 101376 requests 9137.80 r/s elapsed 11.09
processed 110592 requests 9138.24 r/s elapsed 12.10
processed 119808 requests 9137.67 r/s elapsed 13.11
processed 128000 requests 9122.79 r/s elapsed 14.03
processed 137216 requests 9125.09 r/s elapsed 15.04
processed 146432 requests 9125.05 r/s elapsed 16.05
processed 155648 requests 9124.47 r/s elapsed 17.06
processed 164864 requests 9124.69 r/s elapsed 18.07
processed 174080 requests 9125.72 r/s elapsed 19.08
processed 183296 requests 9124.65 r/s elapsed 20.09
TOTAL: 183296 requests 9124.65 r/s elapsed 20.09
