type: POSIX aio
filename: /mnt/raid/prefetch/prefetch-131072
I/O mode: DIRECT
workload: RANDOM
duration: 20
threads: 8
queue size: 32
test mode: TEST
file size: 137438953472
file pages: 33554432
processed 9088 requests 9062.72 r/s elapsed 1.00
processed 18112 requests 9041.84 r/s elapsed 2.00
processed 27168 requests 9052.69 r/s elapsed 3.00
processed 36224 requests 9055.56 r/s elapsed 4.00
processed 45344 requests 9067.96 r/s elapsed 5.00
processed 54464 requests 9073.93 r/s elapsed 6.00
processed 63584 requests 9079.87 r/s elapsed 7.00
processed 72480 requests 9057.90 r/s elapsed 8.00
processed 81600 requests 9063.57 r/s elapsed 9.00
processed 90624 requests 9061.27 r/s elapsed 10.00
processed 99744 requests 9065.71 r/s elapsed 11.00
processed 108544 requests 9044.48 r/s elapsed 12.00
processed 117536 requests 9040.78 r/s elapsed 13.00
processed 126624 requests 9044.09 r/s elapsed 14.00
processed 135904 requests 9058.85 r/s elapsed 15.00
processed 145184 requests 9072.27 r/s elapsed 16.00
processed 154496 requests 9086.97 r/s elapsed 17.00
processed 163808 requests 9100.26 r/s elapsed 18.00
processed 173024 requests 9104.55 r/s elapsed 19.00
processed 182048 requests 9101.05 r/s elapsed 20.00
TOTAL: 182048 requests 9101.05 r/s elapsed 20.00
