type: POSIX aio
filename: /mnt/raid/prefetch/prefetch-131072
I/O mode: BUFFERED
workload: SEQUENTIAL
duration: 20
threads: 16
queue size: 128
test mode: TEST
file size: 137438953472
file pages: 33554432
start probability: 0.010
continue probability: 0.500
processed 11520 requests 11438.88 r/s elapsed 1.01
processed 22912 requests 11415.52 r/s elapsed 2.01
processed 33664 requests 11194.66 r/s elapsed 3.01
processed 44672 requests 11137.89 r/s elapsed 4.01
processed 55424 requests 11080.51 r/s elapsed 5.00
processed 66304 requests 11041.51 r/s elapsed 6.00
processed 77056 requests 10997.73 r/s elapsed 7.01
processed 87680 requests 10955.68 r/s elapsed 8.00
processed 98688 requests 10959.55 r/s elapsed 9.00
processed 109568 requests 10951.63 r/s elapsed 10.00
processed 120576 requests 10953.51 r/s elapsed 11.01
processed 131456 requests 10945.36 r/s elapsed 12.01
processed 142464 requests 10952.66 r/s elapsed 13.01
processed 153600 requests 10963.13 r/s elapsed 14.01
processed 164480 requests 10960.74 r/s elapsed 15.01
processed 175360 requests 10956.06 r/s elapsed 16.01
processed 186112 requests 10947.43 r/s elapsed 17.00
processed 197120 requests 10949.03 r/s elapsed 18.00
processed 208000 requests 10944.57 r/s elapsed 19.00
processed 218880 requests 10940.91 r/s elapsed 20.01
TOTAL: 218880 requests 10940.91 r/s elapsed 20.01
