type: POSIX aio
filename: /mnt/raid/prefetch/prefetch-131072
I/O mode: BUFFERED
workload: SEQUENTIAL
duration: 20
threads: 8
queue size: 128
test mode: TEST
file size: 137438953472
file pages: 33554432
start probability: 0.100
continue probability: 0.900
processed 302336 requests 302200.01 r/s elapsed 1.00
processed 444800 requests 222158.29 r/s elapsed 2.00
processed 582784 requests 194254.02 r/s elapsed 3.00
processed 720896 requests 180176.84 r/s elapsed 4.00
processed 859520 requests 171886.09 r/s elapsed 5.00
processed 1001088 requests 166772.26 r/s elapsed 6.00
processed 1140864 requests 162905.96 r/s elapsed 7.00
processed 1278464 requests 159785.19 r/s elapsed 8.00
processed 1411456 requests 156816.35 r/s elapsed 9.00
processed 1548288 requests 154828.78 r/s elapsed 10.00
processed 1684736 requests 153154.28 r/s elapsed 11.00
processed 1825536 requests 152125.84 r/s elapsed 12.00
processed 1957632 requests 150528.49 r/s elapsed 13.01
processed 2091392 requests 149383.24 r/s elapsed 14.00
processed 2230016 requests 148650.97 r/s elapsed 15.00
processed 2370688 requests 148153.96 r/s elapsed 16.00
processed 2510336 requests 147657.39 r/s elapsed 17.00
processed 2642432 requests 146777.78 r/s elapsed 18.00
processed 2784384 requests 146546.46 r/s elapsed 19.00
processed 2920960 requests 146046.03 r/s elapsed 20.00
TOTAL: 2920960 requests 146046.03 r/s elapsed 20.00
