type: POSIX aio
filename: /mnt/raid/prefetch/prefetch-131072
I/O mode: BUFFERED
workload: SEQUENTIAL
duration: 20
threads: 1
queue size: 128
test mode: TEST
file size: 137438953472
file pages: 33554432
start probability: 0.100
continue probability: 0.500
processed 64128 requests 63819.56 r/s elapsed 1.00
processed 88704 requests 44338.52 r/s elapsed 2.00
processed 113920 requests 37936.31 r/s elapsed 3.00
processed 137344 requests 34253.41 r/s elapsed 4.01
processed 162048 requests 32387.91 r/s elapsed 5.00
processed 185600 requests 30901.75 r/s elapsed 6.01
processed 208896 requests 29840.31 r/s elapsed 7.00
processed 235520 requests 29413.74 r/s elapsed 8.01
processed 260992 requests 28992.44 r/s elapsed 9.00
processed 284800 requests 28479.95 r/s elapsed 10.00
processed 306048 requests 27802.07 r/s elapsed 11.01
processed 329344 requests 27434.36 r/s elapsed 12.00
processed 353920 requests 27221.24 r/s elapsed 13.00
processed 375424 requests 26806.24 r/s elapsed 14.01
processed 398208 requests 26535.42 r/s elapsed 15.01
processed 424704 requests 26540.85 r/s elapsed 16.00
processed 447104 requests 26291.39 r/s elapsed 17.01
processed 469376 requests 26069.98 r/s elapsed 18.00
processed 490624 requests 25819.66 r/s elapsed 19.00
processed 517120 requests 25845.33 r/s elapsed 20.01
TOTAL: 517120 requests 25845.33 r/s elapsed 20.01
