type: POSIX aio
filename: /mnt/raid/prefetch/prefetch-131072
I/O mode: BUFFERED
workload: SEQUENTIAL
duration: 20
threads: 8
queue size: 8
test mode: WARMUP
file size: 137438953472
file pages: 33554432
start probability: 0.100
continue probability: 0.100
processed 10944 requests 10937.85 r/s elapsed 1.00
elapsed 1.00 : warmup interval speed 10937.85 previous 0.00
processed 23864 requests 11929.25 r/s elapsed 2.00
elapsed 2.00 : warmup interval speed 12921.31 previous 10937.85
processed 36312 requests 12101.28 r/s elapsed 3.00
elapsed 3.00 : warmup interval speed 12445.34 previous 12921.31
within 5% of the preceding interval, warmup terminating
TOTAL: 36312 requests 12101.28 r/s elapsed 3.00
