type: POSIX aio
filename: /mnt/raid/prefetch/prefetch-131072
I/O mode: BUFFERED
workload: SEQUENTIAL
duration: 20
threads: 1
queue size: 1
test mode: WARMUP
file size: 137438953472
file pages: 33554432
start probability: 0.100
continue probability: 0.900
processed 59947 requests 59946.52 r/s elapsed 1.00
elapsed 1.00 : warmup interval speed 59946.52 previous 0.00
processed 121264 requests 60631.94 r/s elapsed 2.00
elapsed 2.00 : warmup interval speed 61317.37 previous 59946.52
within 5% of the preceding interval, warmup terminating
TOTAL: 121264 requests 60631.94 r/s elapsed 2.00
