type: POSIX aio
filename: /mnt/raid/prefetch/prefetch-131072
I/O mode: BUFFERED
workload: SEQUENTIAL
duration: 20
threads: 32
queue size: 128
test mode: TEST
file size: 137438953472
file pages: 33554432
start probability: 0.010
continue probability: 0.500
processed 11392 requests 11344.14 r/s elapsed 1.00
processed 22912 requests 11397.21 r/s elapsed 2.01
processed 33664 requests 11212.64 r/s elapsed 3.00
processed 44672 requests 11147.25 r/s elapsed 4.01
processed 55552 requests 11099.99 r/s elapsed 5.00
processed 66560 requests 11073.06 r/s elapsed 6.01
processed 77312 requests 11030.15 r/s elapsed 7.01
processed 88064 requests 10999.00 r/s elapsed 8.01
processed 98944 requests 10991.59 r/s elapsed 9.00
processed 109824 requests 10973.98 r/s elapsed 10.01
processed 120576 requests 10954.11 r/s elapsed 11.01
processed 131584 requests 10961.65 r/s elapsed 12.00
processed 142592 requests 10963.87 r/s elapsed 13.01
processed 153216 requests 10935.02 r/s elapsed 14.01
processed 163840 requests 10921.88 r/s elapsed 15.00
processed 174720 requests 10913.55 r/s elapsed 16.01
processed 185344 requests 10899.17 r/s elapsed 17.01
processed 196224 requests 10899.38 r/s elapsed 18.00
processed 206976 requests 10889.35 r/s elapsed 19.01
processed 217344 requests 10865.76 r/s elapsed 20.00
TOTAL: 217344 requests 10865.76 r/s elapsed 20.00
