type: POSIX aio
filename: /mnt/raid/prefetch/prefetch-131072
I/O mode: DIRECT
workload: SEQUENTIAL
duration: 20
threads: 32
queue size: 1024
test mode: TEST
file size: 137438953472
file pages: 33554432
start probability: 0.010
continue probability: 0.900
processed 14336 requests 13513.37 r/s elapsed 1.06
processed 27648 requests 13515.66 r/s elapsed 2.05
processed 40960 requests 13571.70 r/s elapsed 3.02
processed 55296 requests 13581.15 r/s elapsed 4.07
processed 68608 requests 13604.20 r/s elapsed 5.04
processed 81920 requests 13551.01 r/s elapsed 6.05
processed 95232 requests 13564.49 r/s elapsed 7.02
processed 108544 requests 13551.33 r/s elapsed 8.01
processed 122880 requests 13547.40 r/s elapsed 9.07
processed 136192 requests 13552.63 r/s elapsed 10.05
processed 149504 requests 13553.61 r/s elapsed 11.03
processed 162816 requests 13543.92 r/s elapsed 12.02
processed 176128 requests 13544.05 r/s elapsed 13.00
processed 190464 requests 13552.94 r/s elapsed 14.05
processed 203776 requests 13548.05 r/s elapsed 15.04
processed 217088 requests 13542.93 r/s elapsed 16.03
processed 230400 requests 13543.98 r/s elapsed 17.01
processed 244736 requests 13544.48 r/s elapsed 18.07
processed 258048 requests 13542.81 r/s elapsed 19.05
processed 271360 requests 13536.49 r/s elapsed 20.05
TOTAL: 271360 requests 13536.49 r/s elapsed 20.05
