type: POSIX aio
filename: /mnt/raid/prefetch/prefetch-131072
I/O mode: BUFFERED
workload: SEQUENTIAL
duration: 20
threads: 16
queue size: 1024
test mode: TEST
file size: 137438953472
file pages: 33554432
start probability: 0.010
continue probability: 0.900
processed 40960 requests 40048.26 r/s elapsed 1.02
processed 59392 requests 29618.40 r/s elapsed 2.01
processed 77824 requests 25666.43 r/s elapsed 3.03
processed 96256 requests 23954.85 r/s elapsed 4.02
processed 116736 requests 23060.46 r/s elapsed 5.06
processed 135168 requests 22362.01 r/s elapsed 6.04
processed 153600 requests 21913.01 r/s elapsed 7.01
processed 172032 requests 21445.23 r/s elapsed 8.02
processed 189440 requests 21037.63 r/s elapsed 9.00
processed 208896 requests 20774.65 r/s elapsed 10.06
processed 227328 requests 20590.06 r/s elapsed 11.04
processed 245760 requests 20401.88 r/s elapsed 12.05
processed 265216 requests 20328.57 r/s elapsed 13.05
processed 283648 requests 20207.88 r/s elapsed 14.04
processed 302080 requests 20103.97 r/s elapsed 15.03
processed 320512 requests 20028.48 r/s elapsed 16.00
processed 338944 requests 19929.64 r/s elapsed 17.01
processed 358400 requests 19900.06 r/s elapsed 18.01
processed 376832 requests 19813.64 r/s elapsed 19.02
processed 396288 requests 19768.50 r/s elapsed 20.05
TOTAL: 396288 requests 19768.50 r/s elapsed 20.05
