type: POSIX aio
filename: /mnt/raid/prefetch/prefetch-131072
I/O mode: BUFFERED
workload: SEQUENTIAL
duration: 20
threads: 1
queue size: 1024
test mode: WARMUP
file size: 137438953472
file pages: 33554432
start probability: 0.010
continue probability: 0.900
processed 19456 requests 18945.85 r/s elapsed 1.03
elapsed 1.03 : warmup interval speed 18945.85 previous 0.00
processed 37888 requests 18831.89 r/s elapsed 2.01
elapsed 2.01 : warmup interval speed 18713.09 previous 18945.85
within 5% of the preceding interval, warmup terminating
TOTAL: 37888 requests 18831.89 r/s elapsed 2.01
