type: POSIX aio
filename: /mnt/raid/prefetch/prefetch-131072
I/O mode: BUFFERED
workload: SEQUENTIAL
duration: 20
threads: 1
queue size: 8
test mode: WARMUP
file size: 137438953472
file pages: 33554432
start probability: 0.100
continue probability: 0.500
processed 24056 requests 24024.91 r/s elapsed 1.00
elapsed 1.00 : warmup interval speed 24024.91 previous 0.00
processed 50424 requests 25187.62 r/s elapsed 2.00
elapsed 2.00 : warmup interval speed 26351.08 previous 24024.91
processed 78000 requests 25995.50 r/s elapsed 3.00
elapsed 3.00 : warmup interval speed 27615.13 previous 26351.08
within 5% of the preceding interval, warmup terminating
TOTAL: 78000 requests 25995.50 r/s elapsed 3.00
