type: POSIX aio
filename: /mnt/raid/prefetch/prefetch-131072
I/O mode: DIRECT
workload: SEQUENTIAL
duration: 20
threads: 1
queue size: 128
test mode: TEST
file size: 137438953472
file pages: 33554432
start probability: 0.010
continue probability: 0.500
processed 9472 requests 9383.23 r/s elapsed 1.01
processed 18944 requests 9462.54 r/s elapsed 2.00
processed 28416 requests 9453.14 r/s elapsed 3.01
processed 37888 requests 9453.07 r/s elapsed 4.01
processed 47360 requests 9464.07 r/s elapsed 5.00
processed 56704 requests 9432.63 r/s elapsed 6.01
processed 66176 requests 9438.91 r/s elapsed 7.01
processed 75520 requests 9432.82 r/s elapsed 8.01
processed 84992 requests 9430.52 r/s elapsed 9.01
processed 94336 requests 9427.86 r/s elapsed 10.01
processed 103808 requests 9429.25 r/s elapsed 11.01
processed 113152 requests 9422.70 r/s elapsed 12.01
processed 122496 requests 9417.81 r/s elapsed 13.01
processed 131968 requests 9420.73 r/s elapsed 14.01
processed 141312 requests 9417.45 r/s elapsed 15.01
processed 150784 requests 9417.92 r/s elapsed 16.01
processed 160128 requests 9416.69 r/s elapsed 17.00
processed 169472 requests 9413.99 r/s elapsed 18.00
processed 178944 requests 9413.29 r/s elapsed 19.01
processed 188416 requests 9414.80 r/s elapsed 20.01
TOTAL: 188416 requests 9414.80 r/s elapsed 20.01
