type: POSIX aio
filename: /mnt/raid/prefetch/prefetch-131072
I/O mode: BUFFERED
workload: SEQUENTIAL
duration: 20
threads: 1
queue size: 8
test mode: TEST
file size: 137438953472
file pages: 33554432
start probability: 0.100
continue probability: 0.100
processed 23480 requests 23452.16 r/s elapsed 1.00
processed 35592 requests 17793.36 r/s elapsed 2.00
processed 47576 requests 15855.46 r/s elapsed 3.00
processed 59280 requests 14815.72 r/s elapsed 4.00
processed 71008 requests 14201.42 r/s elapsed 5.00
processed 82928 requests 13819.71 r/s elapsed 6.00
processed 94424 requests 13488.23 r/s elapsed 7.00
processed 106072 requests 13257.46 r/s elapsed 8.00
processed 118528 requests 13168.66 r/s elapsed 9.00
processed 129904 requests 12990.18 r/s elapsed 10.00
processed 142168 requests 12924.13 r/s elapsed 11.00
processed 154120 requests 12843.12 r/s elapsed 12.00
processed 166416 requests 12797.50 r/s elapsed 13.00
processed 179608 requests 12828.71 r/s elapsed 14.00
processed 191360 requests 12756.72 r/s elapsed 15.00
processed 202952 requests 12682.56 r/s elapsed 16.00
processed 215192 requests 12655.09 r/s elapsed 17.00
processed 226800 requests 12599.78 r/s elapsed 18.00
processed 238368 requests 12545.28 r/s elapsed 19.00
processed 250032 requests 12501.55 r/s elapsed 20.00
TOTAL: 250032 requests 12501.55 r/s elapsed 20.00
