type: POSIX aio
filename: /mnt/raid/prefetch/prefetch-131072
I/O mode: DIRECT
workload: RANDOM
duration: 20
threads: 8
queue size: 32
test mode: TEST
file size: 137438953472
file pages: 33554432
processed 9248 requests 9223.35 r/s elapsed 1.00
processed 18464 requests 9224.05 r/s elapsed 2.00
processed 27712 requests 9228.21 r/s elapsed 3.00
processed 36928 requests 9228.51 r/s elapsed 4.00
processed 46176 requests 9230.16 r/s elapsed 5.00
processed 55328 requests 9221.26 r/s elapsed 6.00
processed 64512 requests 9213.13 r/s elapsed 7.00
processed 73696 requests 9208.18 r/s elapsed 8.00
processed 82848 requests 9202.66 r/s elapsed 9.00
processed 91968 requests 9196.53 r/s elapsed 10.00
processed 101248 requests 9203.21 r/s elapsed 11.00
processed 110464 requests 9204.57 r/s elapsed 12.00
processed 119712 requests 9207.18 r/s elapsed 13.00
processed 128896 requests 9205.81 r/s elapsed 14.00
processed 138112 requests 9206.76 r/s elapsed 15.00
processed 147264 requests 9202.22 r/s elapsed 16.00
processed 156352 requests 9195.87 r/s elapsed 17.00
processed 165600 requests 9198.44 r/s elapsed 18.00
processed 174784 requests 9198.64 r/s elapsed 19.00
processed 183904 requests 9194.40 r/s elapsed 20.00
TOTAL: 183904 requests 9194.40 r/s elapsed 20.00
