type: POSIX aio
filename: /mnt/raid/prefetch/prefetch-131072
I/O mode: BUFFERED
workload: SEQUENTIAL
duration: 20
threads: 1
queue size: 128
test mode: WARMUP
file size: 137438953472
file pages: 33554432
start probability: 0.010
continue probability: 0.100
processed 9856 requests 9848.11 r/s elapsed 1.00
elapsed 1.00 : warmup interval speed 9848.11 previous 0.00
processed 19712 requests 9800.05 r/s elapsed 2.01
elapsed 2.01 : warmup interval speed 9752.46 previous 9848.11
within 5% of the preceding interval, warmup terminating
TOTAL: 19712 requests 9800.05 r/s elapsed 2.01
