type: POSIX aio
filename: /mnt/raid/prefetch/prefetch-131072
I/O mode: BUFFERED
workload: SEQUENTIAL
duration: 20
threads: 1
queue size: 1
test mode: WARMUP
file size: 137438953472
file pages: 33554432
start probability: 0.010
continue probability: 0.100
processed 8934 requests 8933.93 r/s elapsed 1.00
elapsed 1.00 : warmup interval speed 8933.93 previous 0.00
processed 17879 requests 8939.40 r/s elapsed 2.00
elapsed 2.00 : warmup interval speed 8944.87 previous 8933.93
within 5% of the preceding interval, warmup terminating
TOTAL: 17879 requests 8939.40 r/s elapsed 2.00
