type: POSIX aio
filename: /mnt/raid/prefetch/prefetch-131072
I/O mode: BUFFERED
workload: SEQUENTIAL
duration: 20
threads: 8
queue size: 32
test mode: WARMUP
file size: 137438953472
file pages: 33554432
start probability: 0.100
continue probability: 0.100
processed 10848 requests 10840.81 r/s elapsed 1.00
elapsed 1.00 : warmup interval speed 10840.81 previous 0.00
processed 22624 requests 11295.92 r/s elapsed 2.00
elapsed 2.00 : warmup interval speed 11750.34 previous 10840.81
processed 34336 requests 11435.57 r/s elapsed 3.00
elapsed 3.00 : warmup interval speed 11715.36 previous 11750.34
within 5% of the preceding interval, warmup terminating
TOTAL: 34336 requests 11435.57 r/s elapsed 3.00
