type: POSIX aio
filename: /mnt/raid/prefetch/prefetch-131072
I/O mode: BUFFERED
workload: RANDOM
duration: 20
threads: 1
queue size: 8
test mode: TEST
file size: 137438953472
file pages: 33554432
processed 8976 requests 8969.56 r/s elapsed 1.00
processed 17952 requests 8975.88 r/s elapsed 2.00
processed 26968 requests 8987.46 r/s elapsed 3.00
processed 35984 requests 8994.55 r/s elapsed 4.00
processed 44976 requests 8993.85 r/s elapsed 5.00
processed 53992 requests 8998.05 r/s elapsed 6.00
processed 63008 requests 9001.07 r/s elapsed 7.00
processed 72016 requests 9001.34 r/s elapsed 8.00
processed 81040 requests 9003.68 r/s elapsed 9.00
processed 90040 requests 9003.77 r/s elapsed 10.00
processed 99072 requests 9005.86 r/s elapsed 11.00
processed 108088 requests 9006.71 r/s elapsed 12.00
processed 117096 requests 9007.10 r/s elapsed 13.00
processed 126112 requests 9007.47 r/s elapsed 14.00
processed 135128 requests 9008.03 r/s elapsed 15.00
processed 144120 requests 9007.40 r/s elapsed 16.00
processed 153136 requests 9007.87 r/s elapsed 17.00
processed 162144 requests 9007.86 r/s elapsed 18.00
processed 171168 requests 9008.74 r/s elapsed 19.00
processed 180192 requests 9009.51 r/s elapsed 20.00
TOTAL: 180192 requests 9009.51 r/s elapsed 20.00
