type: POSIX aio
filename: /mnt/raid/prefetch/prefetch-131072
I/O mode: BUFFERED
workload: SEQUENTIAL
duration: 20
threads: 8
queue size: 32
test mode: WARMUP
file size: 137438953472
file pages: 33554432
start probability: 0.100
continue probability: 0.900
processed 143712 requests 143633.43 r/s elapsed 1.00
elapsed 1.00 : warmup interval speed 143633.43 previous 0.00
processed 283456 requests 141567.60 r/s elapsed 2.00
elapsed 2.00 : warmup interval speed 139504.19 previous 143633.43
within 5% of the preceding interval, warmup terminating
TOTAL: 283456 requests 141567.60 r/s elapsed 2.00
