type: POSIX aio
filename: /mnt/raid/prefetch/prefetch-131072
I/O mode: DIRECT
workload: RANDOM
duration: 20
threads: 1
queue size: 32
test mode: TEST
file size: 137438953472
file pages: 33554432
processed 9088 requests 9075.96 r/s elapsed 1.00
processed 18176 requests 9079.80 r/s elapsed 2.00
processed 27200 requests 9059.33 r/s elapsed 3.00
processed 36224 requests 9050.67 r/s elapsed 4.00
processed 45248 requests 9045.04 r/s elapsed 5.00
processed 54176 requests 9026.77 r/s elapsed 6.00
processed 63072 requests 9010.23 r/s elapsed 7.00
processed 71904 requests 8985.02 r/s elapsed 8.00
processed 81024 requests 8999.44 r/s elapsed 9.00
processed 90112 requests 9009.22 r/s elapsed 10.00
processed 99264 requests 9021.85 r/s elapsed 11.00
processed 108384 requests 9031.71 r/s elapsed 12.00
processed 117440 requests 9032.53 r/s elapsed 13.00
processed 126688 requests 9047.93 r/s elapsed 14.00
processed 136000 requests 9065.45 r/s elapsed 15.00
processed 145376 requests 9085.20 r/s elapsed 16.00
processed 154688 requests 9098.64 r/s elapsed 17.00
processed 164064 requests 9114.19 r/s elapsed 18.00
processed 173440 requests 9127.78 r/s elapsed 19.00
processed 182816 requests 9140.20 r/s elapsed 20.00
TOTAL: 182816 requests 9140.20 r/s elapsed 20.00
