type: POSIX aio
filename: /mnt/raid/prefetch/prefetch-131072
I/O mode: BUFFERED
workload: SEQUENTIAL
duration: 20
threads: 1
queue size: 1024
test mode: WARMUP
file size: 137438953472
file pages: 33554432
start probability: 0.100
continue probability: 0.100
processed 11264 requests 10563.23 r/s elapsed 1.07
elapsed 1.07 : warmup interval speed 10563.23 previous 0.00
processed 22528 requests 10988.09 r/s elapsed 2.05
elapsed 2.05 : warmup interval speed 11448.57 previous 10563.23
processed 33792 requests 11001.27 r/s elapsed 3.07
elapsed 3.07 : warmup interval speed 11027.72 previous 11448.57
within 5% of the preceding interval, warmup terminating
TOTAL: 33792 requests 11001.27 r/s elapsed 3.07
