type: pthread aio
filename: /mnt/raid/prefetch/prefetch-131072
I/O mode: BUFFERED
workload: SEQUENTIAL
duration: 20
threads: 32
queue size: 1024
test mode: WARMUP
file size: 137438953472
file pages: 33554432
start probability: 0.100
continue probability: 0.900
processed 161792 requests 161257.59 r/s elapsed 1.00
elapsed 1.00 : warmup interval speed 161257.59 previous 0.00
processed 324608 requests 161952.32 r/s elapsed 2.00
elapsed 2.00 : warmup interval speed 162648.63 previous 161257.59
within 5% of the preceding interval, warmup terminating
TOTAL: 324608 requests 161952.32 r/s elapsed 2.00
