type: pthread fadvise
filename: /mnt/raid/prefetch/prefetch-131072
I/O mode: BUFFERED
workload: SEQUENTIAL
duration: 20
threads: 1
queue size: 128
test mode: TEST
file size: 137438953472
file pages: 33554432
start probability: 0.100
continue probability: 0.100
processed 158976 requests 158888.93 r/s elapsed 1.00
processed 317824 requests 157050.64 r/s elapsed 2.02
processed 471168 requests 152164.32 r/s elapsed 3.10
processed 608768 requests 149833.51 r/s elapsed 4.06
processed 749184 requests 148334.20 r/s elapsed 5.05
processed 890112 requests 147139.64 r/s elapsed 6.05
processed 1030016 requests 146288.73 r/s elapsed 7.04
processed 1175552 requests 146937.48 r/s elapsed 8.00
processed 1337984 requests 148655.59 r/s elapsed 9.00
processed 1507968 requests 150795.77 r/s elapsed 10.00
processed 1675904 requests 152352.53 r/s elapsed 11.00
processed 1844608 requests 153707.91 r/s elapsed 12.00
processed 2015360 requests 155021.98 r/s elapsed 13.00
processed 2181760 requests 155833.57 r/s elapsed 14.00
processed 2349184 requests 156606.42 r/s elapsed 15.00
processed 2519680 requests 157474.26 r/s elapsed 16.00
processed 2689152 requests 158184.39 r/s elapsed 17.00
processed 2847360 requests 158155.33 r/s elapsed 18.00
processed 3005056 requests 157039.10 r/s elapsed 19.14
processed 3140864 requests 156342.91 r/s elapsed 20.09
TOTAL: 3140864 requests 156342.91 r/s elapsed 20.09
