type: pthread fadvise
filename: /mnt/raid/prefetch/prefetch-131072
I/O mode: BUFFERED
workload: SEQUENTIAL
duration: 20
threads: 32
queue size: 128
test mode: WARMUP
file size: 137438953472
file pages: 33554432
start probability: 0.100
continue probability: 0.100
processed 188288 requests 188179.04 r/s elapsed 1.00
elapsed 1.00 : warmup interval speed 188179.04 previous 0.00
processed 376448 requests 188074.95 r/s elapsed 2.00
elapsed 2.00 : warmup interval speed 187970.90 previous 188179.04
within 5% of the preceding interval, warmup terminating
TOTAL: 376448 requests 188074.95 r/s elapsed 2.00
