type: pthread aio
filename: /mnt/raid/prefetch/prefetch-131072
I/O mode: BUFFERED
workload: SEQUENTIAL
duration: 20
threads: 1
queue size: 8
test mode: TEST
file size: 137438953472
file pages: 33554432
start probability: 0.100
continue probability: 0.900
processed 512000 requests 242162.70 r/s elapsed 2.11
processed 726488 requests 201114.63 r/s elapsed 3.61
processed 804464 requests 193890.01 r/s elapsed 4.15
processed 969456 requests 182851.19 r/s elapsed 5.30
processed 1097112 requests 176116.99 r/s elapsed 6.23
processed 1232824 requests 171915.56 r/s elapsed 7.17
processed 1375328 requests 168997.46 r/s elapsed 8.14
processed 1520984 requests 165885.78 r/s elapsed 9.17
processed 1658864 requests 163985.24 r/s elapsed 10.12
processed 1803840 requests 161937.75 r/s elapsed 11.14
processed 1943256 requests 160561.52 r/s elapsed 12.10
processed 2087304 requests 159346.00 r/s elapsed 13.10
processed 2230848 requests 157897.61 r/s elapsed 14.13
processed 2368464 requests 156932.24 r/s elapsed 15.09
processed 2510920 requests 155972.64 r/s elapsed 16.10
processed 2651536 requests 155098.62 r/s elapsed 17.10
processed 2791776 requests 154386.62 r/s elapsed 18.08
processed 2933352 requests 153973.77 r/s elapsed 19.05
processed 3079480 requests 153373.72 r/s elapsed 20.08
TOTAL: 3079480 requests 153373.72 r/s elapsed 20.08
