type: pthread fadvise
filename: /mnt/raid/prefetch/prefetch-131072
I/O mode: BUFFERED
workload: SEQUENTIAL
duration: 20
threads: 1
queue size: 8
test mode: TEST
file size: 137438953472
file pages: 33554432
start probability: 0.100
continue probability: 0.500
processed 42424 requests 42343.00 r/s elapsed 1.00
processed 84688 requests 42131.74 r/s elapsed 2.01
processed 126400 requests 41354.57 r/s elapsed 3.06
processed 165424 requests 40818.86 r/s elapsed 4.05
processed 204096 requests 40623.13 r/s elapsed 5.02
processed 243744 requests 40470.34 r/s elapsed 6.02
processed 283520 requests 40501.93 r/s elapsed 7.00
processed 324016 requests 40479.61 r/s elapsed 8.00
processed 364320 requests 40463.08 r/s elapsed 9.00
processed 404632 requests 40438.16 r/s elapsed 10.01
processed 444824 requests 40412.85 r/s elapsed 11.01
processed 484960 requests 40347.50 r/s elapsed 12.02
processed 524520 requests 40325.42 r/s elapsed 13.01
processed 564688 requests 40334.73 r/s elapsed 14.00
processed 605024 requests 40328.55 r/s elapsed 15.00
processed 645256 requests 40308.43 r/s elapsed 16.01
processed 685248 requests 40304.03 r/s elapsed 17.00
processed 725472 requests 40269.26 r/s elapsed 18.02
processed 765256 requests 40276.44 r/s elapsed 19.00
processed 807296 requests 40364.46 r/s elapsed 20.00
TOTAL: 807296 requests 40364.46 r/s elapsed 20.00
