type: pthread aio
filename: /mnt/raid/prefetch/prefetch-131072
I/O mode: BUFFERED
workload: SEQUENTIAL
duration: 20
threads: 1
queue size: 8
test mode: TEST
file size: 137438953472
file pages: 33554432
start probability: 0.100
continue probability: 0.100
processed 22112 requests 22099.14 r/s elapsed 1.00
processed 44200 requests 15934.99 r/s elapsed 2.77
processed 47808 requests 15203.71 r/s elapsed 3.14
processed 60816 requests 13804.70 r/s elapsed 4.41
processed 69024 requests 13069.12 r/s elapsed 5.28
processed 78416 requests 12748.85 r/s elapsed 6.15
processed 89248 requests 12356.25 r/s elapsed 7.22
processed 98856 requests 12092.05 r/s elapsed 8.18
processed 108832 requests 11893.85 r/s elapsed 9.15
processed 118944 requests 11775.80 r/s elapsed 10.10
processed 129536 requests 11646.41 r/s elapsed 11.12
processed 139760 requests 11501.47 r/s elapsed 12.15
processed 149520 requests 11354.69 r/s elapsed 13.17
processed 158968 requests 11317.95 r/s elapsed 14.05
processed 169776 requests 11234.53 r/s elapsed 15.11
processed 179752 requests 11197.70 r/s elapsed 16.05
processed 190360 requests 11159.03 r/s elapsed 17.06
processed 200864 requests 11088.88 r/s elapsed 18.11
processed 210688 requests 11029.28 r/s elapsed 19.10
processed 220592 requests 11019.64 r/s elapsed 20.02
TOTAL: 220592 requests 11019.64 r/s elapsed 20.02
