type: pthread fadvise
filename: /mnt/raid/prefetch/prefetch-131072
I/O mode: BUFFERED
workload: SEQUENTIAL
duration: 20
threads: 1
queue size: 1
test mode: WARMUP
file size: 137438953472
file pages: 33554432
start probability: 0.100
continue probability: 0.500
processed 12316 requests 12314.92 r/s elapsed 1.00
elapsed 1.00 : warmup interval speed 12314.92 previous 0.00
processed 24629 requests 12265.72 r/s elapsed 2.01
elapsed 2.01 : warmup interval speed 12216.90 previous 12314.92
within 5% of the preceding interval, warmup terminating
TOTAL: 24629 requests 12265.72 r/s elapsed 2.01
