type: pthread fadvise
filename: /mnt/raid/prefetch/prefetch-131072
I/O mode: BUFFERED
workload: SEQUENTIAL
duration: 20
threads: 8
queue size: 128
test mode: TEST
file size: 137438953472
file pages: 33554432
start probability: 0.100
continue probability: 0.900
processed 161024 requests 160941.28 r/s elapsed 1.00
processed 321920 requests 129592.73 r/s elapsed 2.48
processed 388864 requests 122995.64 r/s elapsed 3.16
processed 492032 requests 117207.13 r/s elapsed 4.20
processed 586112 requests 114104.63 r/s elapsed 5.14
processed 684672 requests 111558.90 r/s elapsed 6.14
processed 780928 requests 110137.77 r/s elapsed 7.09
processed 881152 requests 108923.51 r/s elapsed 8.09
processed 980352 requests 107959.91 r/s elapsed 9.08
processed 1079680 requests 107425.50 r/s elapsed 10.05
processed 1181696 requests 106962.07 r/s elapsed 11.05
processed 1283584 requests 106548.98 r/s elapsed 12.05
processed 1385216 requests 106116.43 r/s elapsed 13.05
processed 1485696 requests 105782.04 r/s elapsed 14.04
processed 1586816 requests 105466.85 r/s elapsed 15.05
processed 1687552 requests 105010.28 r/s elapsed 16.07
processed 1785216 requests 104811.68 r/s elapsed 17.03
processed 1886720 requests 104620.02 r/s elapsed 18.03
processed 1987840 requests 104402.11 r/s elapsed 19.04
processed 2088064 requests 104198.63 r/s elapsed 20.04
TOTAL: 2088064 requests 104198.63 r/s elapsed 20.04
