type: pthread fadvise
filename: /mnt/raid/prefetch/prefetch-131072
I/O mode: BUFFERED
workload: SEQUENTIAL
duration: 20
threads: 1
queue size: 8
test mode: WARMUP
file size: 137438953472
file pages: 33554432
start probability: 0.100
continue probability: 0.500
processed 37648 requests 37647.02 r/s elapsed 1.00
elapsed 1.00 : warmup interval speed 37647.02 previous 0.00
processed 75704 requests 37847.91 r/s elapsed 2.00
elapsed 2.00 : warmup interval speed 38048.77 previous 37647.02
within 5% of the preceding interval, warmup terminating
TOTAL: 75704 requests 37847.91 r/s elapsed 2.00
