type: pthread aio
filename: /mnt/raid/prefetch/prefetch-131072
I/O mode: BUFFERED
workload: SEQUENTIAL
duration: 20
threads: 8
queue size: 32
test mode: TEST
file size: 137438953472
file pages: 33554432
start probability: 0.100
continue probability: 0.500
processed 128000 requests 71883.26 r/s elapsed 1.78
processed 143776 requests 66832.24 r/s elapsed 2.15
processed 200512 requests 56330.13 r/s elapsed 3.56
processed 225344 requests 53995.43 r/s elapsed 4.17
processed 269984 requests 50790.99 r/s elapsed 5.32
processed 304768 requests 49247.81 r/s elapsed 6.19
processed 344736 requests 48303.81 r/s elapsed 7.14
processed 386432 requests 47466.34 r/s elapsed 8.14
processed 427200 requests 46814.55 r/s elapsed 9.13
processed 468160 requests 46209.87 r/s elapsed 10.13
processed 508320 requests 45496.93 r/s elapsed 11.17
processed 545984 requests 45008.41 r/s elapsed 12.13
processed 585120 requests 44723.04 r/s elapsed 13.08
processed 626144 requests 44475.85 r/s elapsed 14.08
processed 667168 requests 44149.68 r/s elapsed 15.11
processed 706400 requests 44047.66 r/s elapsed 16.04
processed 748832 requests 43807.50 r/s elapsed 17.09
processed 788544 requests 43548.75 r/s elapsed 18.11
processed 827456 requests 43423.34 r/s elapsed 19.06
processed 868480 requests 43242.53 r/s elapsed 20.08
TOTAL: 868480 requests 43242.53 r/s elapsed 20.08
