type: pthread aio
filename: /mnt/raid/prefetch/prefetch-131072
I/O mode: BUFFERED
workload: RANDOM
duration: 20
threads: 32
queue size: 32
test mode: TEST
file size: 137438953472
file pages: 33554432
processed 101408 requests 100872.07 r/s elapsed 1.01
processed 202144 requests 101038.30 r/s elapsed 2.00
processed 303136 requests 100991.44 r/s elapsed 3.00
processed 404416 requests 101080.88 r/s elapsed 4.00
processed 505408 requests 101034.15 r/s elapsed 5.00
processed 606208 requests 101032.51 r/s elapsed 6.00
processed 707424 requests 101051.10 r/s elapsed 7.00
processed 808416 requests 100995.13 r/s elapsed 8.00
processed 909568 requests 101058.44 r/s elapsed 9.00
processed 1011008 requests 101095.95 r/s elapsed 10.00
processed 1112448 requests 101127.13 r/s elapsed 11.00
processed 1214400 requests 101199.17 r/s elapsed 12.00
processed 1316256 requests 101244.15 r/s elapsed 13.00
processed 1418720 requests 101333.84 r/s elapsed 14.00
processed 1520512 requests 101366.24 r/s elapsed 15.00
processed 1622880 requests 101429.85 r/s elapsed 16.00
processed 1724320 requests 101415.13 r/s elapsed 17.00
processed 1825472 requests 101335.45 r/s elapsed 18.01
processed 1925376 requests 101198.98 r/s elapsed 19.03
processed 2024000 requests 101178.50 r/s elapsed 20.00
TOTAL: 2024000 requests 101178.50 r/s elapsed 20.00
