type: pthread fadvise
filename: /mnt/raid/prefetch/prefetch-131072
I/O mode: BUFFERED
workload: SEQUENTIAL
duration: 20
threads: 16
queue size: 32
test mode: TEST
file size: 137438953472
file pages: 33554432
start probability: 0.010
continue probability: 0.900
processed 76032 requests 75994.76 r/s elapsed 1.00
processed 152000 requests 75076.45 r/s elapsed 2.02
processed 225248 requests 73960.61 r/s elapsed 3.05
processed 295872 requests 73150.58 r/s elapsed 4.04
processed 365760 requests 71759.83 r/s elapsed 5.10
processed 430560 requests 71123.88 r/s elapsed 6.05
processed 497888 requests 70911.30 r/s elapsed 7.02
processed 567296 requests 70755.96 r/s elapsed 8.02
processed 636832 requests 70428.74 r/s elapsed 9.04
processed 704288 requests 70171.29 r/s elapsed 10.04
processed 771904 requests 69958.17 r/s elapsed 11.03
processed 839520 requests 69774.72 r/s elapsed 12.03
processed 907072 requests 69686.31 r/s elapsed 13.02
processed 975616 requests 69528.95 r/s elapsed 14.03
processed 1042944 requests 69426.24 r/s elapsed 15.02
processed 1110848 requests 69324.36 r/s elapsed 16.02
processed 1178528 requests 69293.94 r/s elapsed 17.01
processed 1247296 requests 69233.44 r/s elapsed 18.02
processed 1315456 requests 69185.73 r/s elapsed 19.01
processed 1384384 requests 69217.88 r/s elapsed 20.00
TOTAL: 1384384 requests 69217.88 r/s elapsed 20.00
