type: pthread aio
filename: /mnt/raid/prefetch/prefetch-131072
I/O mode: DIRECT
workload: SEQUENTIAL
duration: 20
threads: 8
queue size: 32
test mode: TEST
file size: 137438953472
file pages: 33554432
start probability: 0.010
continue probability: 0.900
processed 47840 requests 47823.98 r/s elapsed 1.00
processed 95776 requests 47880.82 r/s elapsed 2.00
processed 143648 requests 47751.10 r/s elapsed 3.01
processed 191104 requests 47771.81 r/s elapsed 4.00
processed 238880 requests 47495.73 r/s elapsed 5.03
processed 284992 requests 47144.46 r/s elapsed 6.05
processed 330016 requests 46862.93 r/s elapsed 7.04
processed 374912 requests 46760.66 r/s elapsed 8.02
processed 420864 requests 46573.91 r/s elapsed 9.04
processed 465760 requests 46471.52 r/s elapsed 10.02
processed 511200 requests 46284.02 r/s elapsed 11.04
processed 555424 requests 46199.55 r/s elapsed 12.02
processed 600608 requests 46078.01 r/s elapsed 13.03
processed 645120 requests 45982.17 r/s elapsed 14.03
processed 689760 requests 45952.92 r/s elapsed 15.01
processed 735264 requests 45917.61 r/s elapsed 16.01
processed 780608 requests 45895.80 r/s elapsed 17.01
processed 826144 requests 45845.16 r/s elapsed 18.02
processed 871072 requests 45817.48 r/s elapsed 19.01
processed 916352 requests 45766.09 r/s elapsed 20.02
TOTAL: 916352 requests 45766.09 r/s elapsed 20.02
