type: pthread aio
filename: /mnt/raid/prefetch/prefetch-131072
I/O mode: DIRECT
workload: RANDOM
duration: 20
threads: 32
queue size: 1024
test mode: TEST
file size: 137438953472
file pages: 33554432
processed 172032 requests 170589.33 r/s elapsed 1.01
processed 342016 requests 170876.34 r/s elapsed 2.00
processed 514048 requests 171030.65 r/s elapsed 3.01
processed 685056 requests 170859.02 r/s elapsed 4.01
processed 855040 requests 170669.60 r/s elapsed 5.01
processed 1025024 requests 170648.65 r/s elapsed 6.01
processed 1195008 requests 170663.52 r/s elapsed 7.00
processed 1366016 requests 170713.21 r/s elapsed 8.00
processed 1537024 requests 170714.83 r/s elapsed 9.00
processed 1708032 requests 170695.17 r/s elapsed 10.01
processed 1878016 requests 170540.99 r/s elapsed 11.01
processed 2046976 requests 170480.85 r/s elapsed 12.01
processed 2216960 requests 170466.06 r/s elapsed 13.01
processed 2386944 requests 170416.82 r/s elapsed 14.01
processed 2556928 requests 170357.14 r/s elapsed 15.01
processed 2725888 requests 170309.76 r/s elapsed 16.01
processed 2895872 requests 170214.26 r/s elapsed 17.01
processed 3064832 requests 170187.82 r/s elapsed 18.01
processed 3233792 requests 170094.34 r/s elapsed 19.01
processed 3402752 requests 170061.62 r/s elapsed 20.01
TOTAL: 3402752 requests 170061.62 r/s elapsed 20.01
