type: pthread fadvise
filename: /mnt/raid/prefetch/prefetch-131072
I/O mode: BUFFERED
workload: SEQUENTIAL
duration: 20
threads: 16
queue size: 1024
test mode: TEST
file size: 137438953472
file pages: 33554432
start probability: 0.100
continue probability: 0.100
processed 268288 requests 267709.21 r/s elapsed 1.00
processed 535552 requests 266619.14 r/s elapsed 2.01
processed 800768 requests 259874.02 r/s elapsed 3.08
processed 1040384 requests 256978.85 r/s elapsed 4.05
processed 1285120 requests 255388.90 r/s elapsed 5.03
processed 1532928 requests 254154.92 r/s elapsed 6.03
processed 1779712 requests 253450.87 r/s elapsed 7.02
processed 2028544 requests 252314.22 r/s elapsed 8.04
processed 2271232 requests 251520.93 r/s elapsed 9.03
processed 2515968 requests 250916.09 r/s elapsed 10.03
processed 2760704 requests 250411.65 r/s elapsed 11.02
processed 3005440 requests 249821.95 r/s elapsed 12.03
processed 3248128 requests 249423.46 r/s elapsed 13.02
processed 3492864 requests 249223.35 r/s elapsed 14.01
processed 3738624 requests 249020.14 r/s elapsed 15.01
processed 3984384 requests 248886.02 r/s elapsed 16.01
processed 4231168 requests 248567.62 r/s elapsed 17.02
processed 4474880 requests 248444.64 r/s elapsed 18.01
processed 4720640 requests 248222.40 r/s elapsed 19.02
processed 4965376 requests 247936.26 r/s elapsed 20.03
TOTAL: 4965376 requests 247936.26 r/s elapsed 20.03
