type: pthread aio
filename: /mnt/raid/prefetch/prefetch-131072
I/O mode: BUFFERED
workload: SEQUENTIAL
duration: 20
threads: 1
queue size: 8
test mode: WARMUP
file size: 137438953472
file pages: 33554432
start probability: 0.100
continue probability: 0.900
processed 145664 requests 145085.83 r/s elapsed 1.00
elapsed 1.00 : warmup interval speed 145085.83 previous 0.00
processed 290176 requests 142582.68 r/s elapsed 2.04
elapsed 2.04 : warmup interval speed 140145.49 previous 145085.83
within 5% of the preceding interval, warmup terminating
TOTAL: 290176 requests 142582.68 r/s elapsed 2.04
