type: pthread aio
filename: /mnt/raid/prefetch/prefetch-131072
I/O mode: BUFFERED
workload: SEQUENTIAL
duration: 20
threads: 1
queue size: 8
test mode: WARMUP
file size: 137438953472
file pages: 33554432
start probability: 0.010
continue probability: 0.900
processed 16520 requests 16393.30 r/s elapsed 1.01
elapsed 1.01 : warmup interval speed 16393.30 previous 0.00
processed 32792 requests 16306.20 r/s elapsed 2.01
elapsed 2.01 : warmup interval speed 16218.72 previous 16393.30
within 5% of the preceding interval, warmup terminating
TOTAL: 32792 requests 16306.20 r/s elapsed 2.01
