type: pthread aio
filename: /mnt/raid/prefetch/prefetch-131072
I/O mode: BUFFERED
workload: SEQUENTIAL
duration: 20
threads: 8
queue size: 1024
test mode: WARMUP
file size: 137438953472
file pages: 33554432
start probability: 0.010
continue probability: 0.900
processed 41984 requests 40528.19 r/s elapsed 1.04
elapsed 1.04 : warmup interval speed 40528.19 previous 0.00
processed 81920 requests 40248.33 r/s elapsed 2.04
elapsed 2.04 : warmup interval speed 39958.26 previous 40528.19
within 5% of the preceding interval, warmup terminating
TOTAL: 81920 requests 40248.33 r/s elapsed 2.04
