type: pthread aio
filename: /mnt/raid/prefetch/prefetch-131072
I/O mode: BUFFERED
workload: SEQUENTIAL
duration: 20
threads: 8
queue size: 32
test mode: WARMUP
file size: 137438953472
file pages: 33554432
start probability: 0.010
continue probability: 0.500
processed 37376 requests 37374.51 r/s elapsed 1.00
elapsed 1.00 : warmup interval speed 37374.51 previous 0.00
processed 75424 requests 37662.02 r/s elapsed 2.00
elapsed 2.00 : warmup interval speed 37948.80 previous 37374.51
within 5% of the preceding interval, warmup terminating
TOTAL: 75424 requests 37662.02 r/s elapsed 2.00
