type: pthread aio
filename: /mnt/raid/prefetch/prefetch-131072
I/O mode: BUFFERED
workload: RANDOM
duration: 20
threads: 16
queue size: 32
test mode: TEST
file size: 137438953472
file pages: 33554432
processed 83744 requests 83674.47 r/s elapsed 1.00
processed 168320 requests 84143.34 r/s elapsed 2.00
processed 253024 requests 84322.81 r/s elapsed 3.00
processed 337920 requests 84477.61 r/s elapsed 4.00
processed 422592 requests 84515.31 r/s elapsed 5.00
processed 507264 requests 84539.86 r/s elapsed 6.00
processed 592192 requests 84596.40 r/s elapsed 7.00
processed 676800 requests 84590.18 r/s elapsed 8.00
processed 761728 requests 84631.45 r/s elapsed 9.00
processed 847040 requests 84699.09 r/s elapsed 10.00
processed 932448 requests 84763.82 r/s elapsed 11.00
processed 1017888 requests 84821.27 r/s elapsed 12.00
processed 1103104 requests 84853.00 r/s elapsed 13.00
processed 1188704 requests 84903.13 r/s elapsed 14.00
processed 1273568 requests 84880.65 r/s elapsed 15.00
processed 1358112 requests 84862.24 r/s elapsed 16.00
processed 1442688 requests 84848.72 r/s elapsed 17.00
processed 1527840 requests 84879.07 r/s elapsed 18.00
processed 1613568 requests 84923.86 r/s elapsed 19.00
processed 1699360 requests 84964.53 r/s elapsed 20.00
TOTAL: 1699360 requests 84964.53 r/s elapsed 20.00
