type: pthread fadvise
filename: /mnt/raid/prefetch/prefetch-131072
I/O mode: BUFFERED
workload: SEQUENTIAL
duration: 20
threads: 8
queue size: 32
test mode: WARMUP
file size: 137438953472
file pages: 33554432
start probability: 0.010
continue probability: 0.100
processed 109248 requests 108986.76 r/s elapsed 1.00
elapsed 1.00 : warmup interval speed 108986.76 previous 0.00
processed 219648 requests 109806.87 r/s elapsed 2.00
elapsed 2.00 : warmup interval speed 110630.66 previous 108986.76
within 5% of the preceding interval, warmup terminating
TOTAL: 219648 requests 109806.87 r/s elapsed 2.00
