type: pthread fadvise
filename: /mnt/raid/prefetch/prefetch-131072
I/O mode: BUFFERED
workload: RANDOM
duration: 20
threads: 8
queue size: 1024
test mode: TEST
file size: 137438953472
file pages: 33554432
processed 197632 requests 196710.02 r/s elapsed 1.00
processed 395264 requests 197132.86 r/s elapsed 2.01
processed 592896 requests 197430.29 r/s elapsed 3.00
processed 791552 requests 197652.89 r/s elapsed 4.00
processed 991232 requests 198160.52 r/s elapsed 5.00
processed 1192960 requests 198718.27 r/s elapsed 6.00
processed 1395712 requests 199343.37 r/s elapsed 7.00
processed 1595392 requests 199282.06 r/s elapsed 8.01
processed 1794048 requests 198704.07 r/s elapsed 9.03
processed 1987584 requests 198120.29 r/s elapsed 10.03
processed 2180096 requests 197611.62 r/s elapsed 11.03
processed 2371584 requests 197212.84 r/s elapsed 12.03
processed 2564096 requests 196252.12 r/s elapsed 13.07
processed 2748416 requests 195908.89 r/s elapsed 14.03
processed 2941952 requests 196097.93 r/s elapsed 15.00
processed 3140608 requests 196230.88 r/s elapsed 16.00
processed 3338240 requests 196335.03 r/s elapsed 17.00
processed 3534848 requests 195992.83 r/s elapsed 18.04
processed 3724288 requests 195380.25 r/s elapsed 19.06
processed 3908608 requests 194736.42 r/s elapsed 20.07
TOTAL: 3908608 requests 194736.42 r/s elapsed 20.07
