type: pthread fadvise
filename: /mnt/raid/prefetch/prefetch-131072
I/O mode: BUFFERED
workload: RANDOM
duration: 20
threads: 16
queue size: 1024
test mode: TEST
file size: 137438953472
file pages: 33554432
processed 198656 requests 197888.59 r/s elapsed 1.00
processed 396288 requests 198094.38 r/s elapsed 2.00
processed 594944 requests 198236.56 r/s elapsed 3.00
processed 794624 requests 198556.92 r/s elapsed 4.00
processed 997376 requests 199338.41 r/s elapsed 5.00
processed 1201152 requests 200097.95 r/s elapsed 6.00
processed 1405952 requests 200759.26 r/s elapsed 7.00
processed 1608704 requests 201027.44 r/s elapsed 8.00
processed 1809408 requests 200742.15 r/s elapsed 9.01
processed 2008064 requests 200773.35 r/s elapsed 10.00
processed 2209792 requests 200855.76 r/s elapsed 11.00
processed 2410496 requests 200789.50 r/s elapsed 12.01
processed 2611200 requests 200271.78 r/s elapsed 13.04
processed 2804736 requests 200212.32 r/s elapsed 14.01
processed 3006464 requests 200355.68 r/s elapsed 15.01
processed 3207168 requests 200434.06 r/s elapsed 16.00
processed 3409920 requests 200533.10 r/s elapsed 17.00
processed 3610624 requests 200542.16 r/s elapsed 18.00
processed 3810304 requests 200013.27 r/s elapsed 19.05
processed 4000768 requests 199789.30 r/s elapsed 20.02
TOTAL: 4000768 requests 199789.30 r/s elapsed 20.02
