type: pthread aio
filename: /mnt/raid/prefetch/prefetch-131072
I/O mode: BUFFERED
workload: SEQUENTIAL
duration: 20
threads: 32
queue size: 32
test mode: WARMUP
file size: 137438953472
file pages: 33554432
start probability: 0.100
continue probability: 0.100
processed 64672 requests 64648.79 r/s elapsed 1.00
elapsed 1.00 : warmup interval speed 64648.79 previous 0.00
processed 131168 requests 65582.20 r/s elapsed 2.00
elapsed 2.00 : warmup interval speed 66516.22 previous 64648.79
within 5% of the preceding interval, warmup terminating
TOTAL: 131168 requests 65582.20 r/s elapsed 2.00
