type: pthread fadvise
filename: /mnt/raid/prefetch/prefetch-131072
I/O mode: BUFFERED
workload: SEQUENTIAL
duration: 20
threads: 1
queue size: 1024
test mode: WARMUP
file size: 137438953472
file pages: 33554432
start probability: 0.010
continue probability: 0.100
processed 126976 requests 126173.79 r/s elapsed 1.01
elapsed 1.01 : warmup interval speed 126173.79 previous 0.00
processed 252928 requests 125752.68 r/s elapsed 2.01
elapsed 2.01 : warmup interval speed 125330.98 previous 126173.79
within 5% of the preceding interval, warmup terminating
TOTAL: 252928 requests 125752.68 r/s elapsed 2.01
