type: pthread aio
filename: /mnt/raid/prefetch/prefetch-131072
I/O mode: BUFFERED
workload: SEQUENTIAL
duration: 20
threads: 8
queue size: 32
test mode: TEST
file size: 137438953472
file pages: 33554432
start probability: 0.100
continue probability: 0.100
processed 47936 requests 47923.88 r/s elapsed 1.00
processed 96256 requests 48107.15 r/s elapsed 2.00
processed 144352 requests 47419.04 r/s elapsed 3.04
processed 189696 requests 47168.69 r/s elapsed 4.02
processed 235872 requests 46834.56 r/s elapsed 5.04
processed 281024 requests 46796.11 r/s elapsed 6.01
processed 327584 requests 46671.91 r/s elapsed 7.02
processed 373376 requests 46632.49 r/s elapsed 8.01
processed 419712 requests 46435.05 r/s elapsed 9.04
processed 464352 requests 46408.33 r/s elapsed 10.01
processed 510880 requests 46439.35 r/s elapsed 11.00
processed 557664 requests 46470.45 r/s elapsed 12.00
processed 604608 requests 46507.47 r/s elapsed 13.00
processed 651104 requests 46506.97 r/s elapsed 14.00
processed 697632 requests 46500.07 r/s elapsed 15.00
processed 744032 requests 46499.95 r/s elapsed 16.00
processed 790720 requests 46511.85 r/s elapsed 17.00
processed 837216 requests 46488.33 r/s elapsed 18.01
processed 883296 requests 46412.31 r/s elapsed 19.03
processed 928256 requests 46343.50 r/s elapsed 20.03
TOTAL: 928256 requests 46343.50 r/s elapsed 20.03
