type: pthread aio
filename: /mnt/raid/prefetch/prefetch-131072
I/O mode: BUFFERED
workload: SEQUENTIAL
duration: 20
threads: 1
queue size: 128
test mode: TEST
file size: 137438953472
file pages: 33554432
start probability: 0.100
continue probability: 0.100
processed 23424 requests 23266.35 r/s elapsed 1.01
processed 46592 requests 15531.94 r/s elapsed 3.00
processed 46720 requests 15551.03 r/s elapsed 3.00
processed 62208 requests 14151.01 r/s elapsed 4.40
processed 70784 requests 13508.14 r/s elapsed 5.24
processed 81152 requests 13070.61 r/s elapsed 6.21
processed 91520 requests 12778.95 r/s elapsed 7.16
processed 102272 requests 12510.72 r/s elapsed 8.17
processed 112640 requests 12429.03 r/s elapsed 9.06
processed 124416 requests 12180.88 r/s elapsed 10.21
processed 134016 requests 12123.52 r/s elapsed 11.05
processed 145536 requests 11970.65 r/s elapsed 12.16
processed 155648 requests 11858.61 r/s elapsed 13.13
processed 166144 requests 11760.54 r/s elapsed 14.13
processed 176512 requests 11713.60 r/s elapsed 15.07
processed 187520 requests 11613.60 r/s elapsed 16.15
processed 197504 requests 11606.49 r/s elapsed 17.02
processed 209024 requests 11530.29 r/s elapsed 18.13
processed 219136 requests 11506.63 r/s elapsed 19.04
processed 230144 requests 11505.73 r/s elapsed 20.00
TOTAL: 230144 requests 11505.73 r/s elapsed 20.00
