type: pthread aio
filename: /mnt/raid/prefetch/prefetch-131072
I/O mode: BUFFERED
workload: SEQUENTIAL
duration: 20
threads: 32
queue size: 32
test mode: TEST
file size: 137438953472
file pages: 33554432
start probability: 0.010
continue probability: 0.100
processed 85952 requests 85266.20 r/s elapsed 1.01
processed 172256 requests 86120.94 r/s elapsed 2.00
processed 258624 requests 86192.74 r/s elapsed 3.00
processed 344800 requests 86181.51 r/s elapsed 4.00
processed 432864 requests 86568.94 r/s elapsed 5.00
processed 520704 requests 86780.96 r/s elapsed 6.00
processed 607488 requests 86771.68 r/s elapsed 7.00
processed 694176 requests 86687.73 r/s elapsed 8.01
processed 782720 requests 86968.73 r/s elapsed 9.00
processed 878240 requests 87821.97 r/s elapsed 10.00
processed 974144 requests 88556.17 r/s elapsed 11.00
processed 1069760 requests 89145.57 r/s elapsed 12.00
processed 1165344 requests 89641.31 r/s elapsed 13.00
processed 1261696 requests 90120.13 r/s elapsed 14.00
processed 1357952 requests 90528.20 r/s elapsed 15.00
processed 1453568 requests 90847.05 r/s elapsed 16.00
processed 1549216 requests 91130.24 r/s elapsed 17.00
processed 1644704 requests 91371.04 r/s elapsed 18.00
processed 1741280 requests 91645.71 r/s elapsed 19.00
processed 1837824 requests 91890.17 r/s elapsed 20.00
TOTAL: 1837824 requests 91890.17 r/s elapsed 20.00
