type: pthread fadvise
filename: /mnt/raid/prefetch/prefetch-131072
I/O mode: BUFFERED
workload: SEQUENTIAL
duration: 20
threads: 8
queue size: 8
test mode: WARMUP
file size: 137438953472
file pages: 33554432
start probability: 0.010
continue probability: 0.500
processed 48056 requests 48055.14 r/s elapsed 1.00
elapsed 1.00 : warmup interval speed 48055.14 previous 0.00
processed 96456 requests 48225.83 r/s elapsed 2.00
elapsed 2.00 : warmup interval speed 48396.52 previous 48055.14
within 5% of the preceding interval, warmup terminating
TOTAL: 96456 requests 48225.83 r/s elapsed 2.00
