type: pthread aio
filename: /mnt/raid/prefetch/prefetch-131072
I/O mode: BUFFERED
workload: SEQUENTIAL
duration: 20
threads: 8
queue size: 32
test mode: TEST
file size: 137438953472
file pages: 33554432
start probability: 0.100
continue probability: 0.500
processed 128000 requests 70360.98 r/s elapsed 1.82
processed 140736 requests 65606.54 r/s elapsed 2.15
processed 196832 requests 54685.14 r/s elapsed 3.60
processed 218752 requests 52598.60 r/s elapsed 4.16
processed 263008 requests 50037.82 r/s elapsed 5.26
processed 300256 requests 48547.78 r/s elapsed 6.18
processed 339840 requests 47048.33 r/s elapsed 7.22
processed 376416 requests 46252.12 r/s elapsed 8.14
processed 416288 requests 45604.64 r/s elapsed 9.13
processed 456064 requests 45264.39 r/s elapsed 10.08
processed 497920 requests 44761.31 r/s elapsed 11.12
processed 537152 requests 44375.68 r/s elapsed 12.10
processed 576896 requests 43904.78 r/s elapsed 13.14
processed 614688 requests 43552.43 r/s elapsed 14.11
processed 653312 requests 43180.83 r/s elapsed 15.13
processed 690912 requests 42924.51 r/s elapsed 16.10
processed 729728 requests 42643.10 r/s elapsed 17.11
processed 767584 requests 42442.97 r/s elapsed 18.09
processed 806432 requests 42360.28 r/s elapsed 19.04
processed 847232 requests 42146.05 r/s elapsed 20.10
TOTAL: 847232 requests 42146.05 r/s elapsed 20.10
