type: pthread fadvise
filename: /mnt/raid/prefetch/prefetch-131072
I/O mode: BUFFERED
workload: SEQUENTIAL
duration: 20
threads: 8
queue size: 1024
test mode: TEST
file size: 137438953472
file pages: 33554432
start probability: 0.010
continue probability: 0.500
processed 247808 requests 246967.82 r/s elapsed 1.00
processed 495616 requests 247774.18 r/s elapsed 2.00
processed 743424 requests 247206.22 r/s elapsed 3.01
processed 991232 requests 247657.36 r/s elapsed 4.00
processed 1240064 requests 247900.25 r/s elapsed 5.00
processed 1490944 requests 248406.00 r/s elapsed 6.00
processed 1743872 requests 249057.08 r/s elapsed 7.00
processed 1994752 requests 249243.43 r/s elapsed 8.00
processed 2247680 requests 249650.43 r/s elapsed 9.00
processed 2500608 requests 249969.59 r/s elapsed 10.00
processed 2750464 requests 250036.79 r/s elapsed 11.00
processed 3001344 requests 249863.05 r/s elapsed 12.01
processed 3250176 requests 249978.93 r/s elapsed 13.00
processed 3500032 requests 249993.18 r/s elapsed 14.00
processed 3750912 requests 250054.75 r/s elapsed 15.00
processed 4002816 requests 250172.14 r/s elapsed 16.00
processed 4254720 requests 250218.14 r/s elapsed 17.00
processed 4505600 requests 250281.22 r/s elapsed 18.00
processed 4755456 requests 250232.33 r/s elapsed 19.00
processed 5005312 requests 250142.67 r/s elapsed 20.01
TOTAL: 5005312 requests 250142.67 r/s elapsed 20.01
