type: pthread aio
filename: /mnt/raid/prefetch/prefetch-131072
I/O mode: DIRECT
workload: SEQUENTIAL
duration: 20
threads: 1
queue size: 1
test mode: TEST
file size: 137438953472
file pages: 33554432
start probability: 0.010
continue probability: 0.900
processed 12790 requests 12551.18 r/s elapsed 1.02
processed 25600 requests 12799.88 r/s elapsed 2.00
processed 38773 requests 12924.20 r/s elapsed 3.00
processed 51696 requests 12886.76 r/s elapsed 4.01
processed 64627 requests 12925.35 r/s elapsed 5.00
processed 77552 requests 12885.05 r/s elapsed 6.02
processed 90195 requests 12843.34 r/s elapsed 7.02
processed 102746 requests 12796.30 r/s elapsed 8.03
processed 115166 requests 12781.02 r/s elapsed 9.01
processed 127810 requests 12766.14 r/s elapsed 10.01
processed 140427 requests 12725.31 r/s elapsed 11.04
processed 152749 requests 12729.07 r/s elapsed 12.00
processed 165477 requests 12664.90 r/s elapsed 13.07
processed 177308 requests 12656.05 r/s elapsed 14.01
processed 189840 requests 12646.90 r/s elapsed 15.01
processed 202436 requests 12651.29 r/s elapsed 16.00
processed 215071 requests 12643.08 r/s elapsed 17.01
processed 227575 requests 12629.68 r/s elapsed 18.02
processed 239963 requests 12629.14 r/s elapsed 19.00
processed 252780 requests 12638.94 r/s elapsed 20.00
TOTAL: 252780 requests 12638.94 r/s elapsed 20.00
