type: pthread aio
filename: /mnt/raid/prefetch/prefetch-131072
I/O mode: DIRECT
workload: SEQUENTIAL
duration: 20
threads: 1
queue size: 128
test mode: TEST
file size: 137438953472
file pages: 33554432
start probability: 0.100
continue probability: 0.500
processed 9216 requests 9136.91 r/s elapsed 1.01
processed 18432 requests 9156.16 r/s elapsed 2.01
processed 27520 requests 9172.85 r/s elapsed 3.00
processed 36864 requests 9193.11 r/s elapsed 4.01
processed 46080 requests 9204.63 r/s elapsed 5.01
processed 55296 requests 9201.47 r/s elapsed 6.01
processed 64512 requests 9194.75 r/s elapsed 7.02
processed 73600 requests 9184.51 r/s elapsed 8.01
processed 82688 requests 9178.20 r/s elapsed 9.01
processed 91904 requests 9175.95 r/s elapsed 10.02
processed 100992 requests 9175.67 r/s elapsed 11.01
processed 110208 requests 9169.27 r/s elapsed 12.02
processed 119296 requests 9169.78 r/s elapsed 13.01
processed 128512 requests 9170.67 r/s elapsed 14.01
processed 137600 requests 9166.67 r/s elapsed 15.01
processed 146688 requests 9160.95 r/s elapsed 16.01
processed 155776 requests 9156.55 r/s elapsed 17.01
processed 164864 requests 9155.09 r/s elapsed 18.01
processed 173952 requests 9153.61 r/s elapsed 19.00
processed 183168 requests 9154.03 r/s elapsed 20.01
TOTAL: 183168 requests 9154.03 r/s elapsed 20.01
