type: pthread aio
filename: /mnt/raid/prefetch/prefetch-131072
I/O mode: BUFFERED
workload: SEQUENTIAL
duration: 20
threads: 16
queue size: 32
test mode: WARMUP
file size: 137438953472
file pages: 33554432
start probability: 0.100
continue probability: 0.500
processed 46176 requests 46144.85 r/s elapsed 1.00
elapsed 1.00 : warmup interval speed 46144.85 previous 0.00
processed 92928 requests 46462.68 r/s elapsed 2.00
elapsed 2.00 : warmup interval speed 46780.91 previous 46144.85
within 5% of the preceding interval, warmup terminating
TOTAL: 92928 requests 46462.68 r/s elapsed 2.00
