type: pthread fadvise
filename: /mnt/raid/prefetch/prefetch-131072
I/O mode: BUFFERED
workload: SEQUENTIAL
duration: 20
threads: 16
queue size: 128
test mode: WARMUP
file size: 137438953472
file pages: 33554432
start probability: 0.100
continue probability: 0.100
processed 189056 requests 188680.53 r/s elapsed 1.00
elapsed 1.00 : warmup interval speed 188680.53 previous 0.00
processed 379392 requests 189673.71 r/s elapsed 2.00
elapsed 2.00 : warmup interval speed 190670.63 previous 188680.53
within 5% of the preceding interval, warmup terminating
TOTAL: 379392 requests 189673.71 r/s elapsed 2.00
